# vtk DataFile Version 4.1
vtk output
ASCII
DATASET POLYDATA
FIELD FieldData 4
Angle 1 2 double
0 0 
METADATA
INFORMATION 0

Offset 1 2 double
0 0 
METADATA
INFORMATION 0

Normal 3 2 double
-0.112543 -0.989277 -0.093091 0.069305 0.965656 -0.25041 
METADATA
INFORMATION 1
NAME L2_NORM_RANGE LOCATION vtkDataArray
DATA 2 1 1 

Binormal 3 2 double
-0.010522 -0.092494 0.995658 0.017926 0.249767 0.96814 
METADATA
INFORMATION 1
NAME L2_NORM_RANGE LOCATION vtkDataArray
DATA 2 1 1 

POINTS 2 double
73.700328 -35.476563 11.026848 53.919086 105.092729 1.639766 
METADATA
INFORMATION 1
NAME L2_NORM_RANGE LOCATION vtkDataArray
DATA 2 73.6161 82.1503 

