# vtk DataFile Version 4.1
vtk output
ASCII
DATASET POLYDATA
POINTS 222 float
3.3802 -13.9915 208.321 3.33885 -13.3956 206.042 3.29732 -12.8005 203.762 
3.25506 -12.2085 201.48 3.21154 -11.6219 199.192 3.16627 -11.0429 196.898 
3.11879 -10.4737 194.595 3.06871 -9.91634 192.282 3.01574 -9.37259 189.958 
2.95964 -8.84412 187.623 2.90032 -8.33237 185.277 2.83773 -7.83853 182.92 
2.77198 -7.36358 180.554 2.70324 -6.90822 178.18 2.63178 -6.47292 175.8 
2.55794 -6.05792 173.418 2.48216 -5.66322 171.037 2.40488 -5.28862 168.659 
2.32661 -4.93372 166.29 2.24788 -4.59795 163.932 2.16921 -4.28061 161.589 
2.09112 -3.98087 159.266 2.01411 -3.69779 156.966 1.93865 -3.4304 154.693 
1.86517 -3.17764 152.448 1.79408 -2.93846 150.235 1.72572 -2.71177 148.056 
1.66042 -2.49652 145.912 1.59847 -2.29166 143.804 1.54011 -2.0962 141.732 
1.4856 -1.90916 139.695 1.43515 -1.72965 137.693 1.38897 -1.5568 135.724 
1.34726 -1.38982 133.785 1.31023 -1.22798 131.875 1.27808 -1.0706 129.99 
1.25102 -0.917047 128.127 1.22925 -0.766772 126.283 1.21298 -0.619261 124.454 
1.2024 -0.474058 122.636 1.19769 -0.330754 120.826 1.19904 -0.188993 119.02 
1.20657 -0.048462 117.215 1.22043 0.0911037 115.407 1.24069 0.229924 113.593 
1.26742 0.368171 111.769 1.30065 0.505973 109.934 1.34037 0.643408 108.085 
1.38656 0.780509 106.219 1.43914 0.917258 104.334 1.49805 1.05359 102.429 
1.56318 1.18938 100.502 1.63441 1.32446 98.5513 1.71165 1.45863 96.5757 
1.79476 1.59161 94.5741 1.88364 1.7231 92.5453 1.9782 1.85276 90.4884 
2.07833 1.98019 88.4022 2.18397 2.10498 86.2858 2.29505 2.22668 84.1382 
2.41151 2.34484 81.9583 2.5333 2.45897 79.7451 2.66037 2.56858 77.4977 
2.79268 2.67319 75.215 2.93015 2.77231 72.8961 3.07271 2.86545 70.5404 
3.22025 2.95215 68.1471 3.37263 3.03195 65.7159 3.52968 3.10442 63.2467 
3.69119 3.16913 60.7397 3.85692 3.22568 58.1955 4.02656 3.27369 55.6152 
4.19977 3.31279 53.0002 4.37619 3.34265 50.3525 4.5554 3.36292 47.6745 
4.73698 3.37328 44.9692 4.92045 3.37341 42.2397 5.10537 3.363 39.4898 
5.29126 3.34175 36.7234 5.47766 3.30935 33.9448 5.66413 3.26549 31.1582 
5.85025 3.20985 28.368 6.03564 3.14214 25.5785 6.21994 3.06202 22.7937 
6.40283 2.96919 20.0174 6.58404 2.86333 17.2531 6.76332 2.74414 14.5038 
6.94044 2.61133 11.7718 7.11522 2.4646 9.05906 7.28745 2.30371 6.3668 
7.45695 2.12842 3.69567 7.62352 1.93855 1.04573 7.78691 1.73395 -1.58354 
7.94686 1.51453 -4.19317 8.10303 1.28024 -6.78461 8.25503 1.03115 -9.35969 
8.40241 0.767351 -11.9205 8.54463 0.489061 -14.4693 8.68106 0.196574 -17.0085 
8.81103 -0.109715 -19.5404 8.93377 -0.429305 -22.0671 9.04846 -0.761586 -24.5907 
9.15424 -1.10584 -27.1128 9.25021 -1.46124 -29.635 9.33544 -1.82685 -32.1582 
9.40905 -2.20163 -34.6829 9.47015 -2.58445 -37.2094 9.51793 -2.97407 -39.7374 
9.55162 -3.3692 -42.266 9.57059 -3.76846 -44.7943 9.57428 -4.17044 -47.3206 
9.56228 -4.57369 -49.8432 9.53433 -4.97673 -52.3598 9.49032 -5.3781 -54.8682 
9.43028 -5.77636 -57.3657 9.35443 -6.1701 -59.8497 9.26313 -6.55796 -62.3174 
9.15692 -6.93866 -64.766 9.03647 -7.31101 -67.193 8.90259 -7.67391 -69.5955 
8.7562 -8.02637 -71.9713 8.59835 -8.3675 -74.3179 8.43015 -8.69654 -76.6332 
8.2528 -9.01286 -78.9154 8.06753 -9.31592 -81.1628 7.8756 -9.6053 -83.374 
7.67827 -9.88069 -85.5478 7.4768 -10.1419 -87.6833 7.2724 -10.3888 -89.7797 
7.06624 -10.6213 -91.8366 6.85944 -10.8395 -93.8538 6.65301 -11.0434 -95.8311 
6.44793 -11.2332 -97.7686 6.24502 -11.409 -99.6667 6.04507 -11.5711 -101.526 
5.84871 -11.7197 -103.346 5.65652 -11.855 -105.129 5.46893 -11.9772 -106.875 
5.28632 -12.0867 -108.585 5.10895 -12.1835 -110.259 4.93699 -12.2681 -111.9 
4.77056 -12.3405 -113.508 4.60967 -12.401 -115.085 4.4543 -12.4499 -116.632 
4.30437 -12.4872 -118.15 4.15973 -12.5131 -119.64 4.02024 -12.5277 -121.106 
3.88568 -12.5312 -122.547 3.75586 -12.5236 -123.966 3.63054 -12.5048 -125.365 
3.50949 -12.475 -126.745 3.39249 -12.434 -128.109 3.27931 -12.3818 -129.458 
3.16975 -12.3182 -130.795 3.06362 -12.2431 -132.122 2.96074 -12.1562 -133.441 
2.86099 -12.0574 -134.756 2.76425 -11.9464 -136.069 2.67045 -11.8227 -137.382 
2.57957 -11.6863 -138.699 2.49161 -11.5366 -140.023 2.40666 -11.3733 -141.356 
2.32481 -11.1962 -142.704 2.24625 -11.0047 -144.068 2.17119 -10.7987 -145.452 
2.09992 -10.5778 -146.861 2.03277 -10.3417 -148.297 1.97012 -10.0901 -149.763 
1.91241 -9.82291 -151.264 1.8601 -9.53996 -152.803 1.81369 -9.24119 -154.382 
1.77371 -8.92662 -156.005 1.74068 -8.59636 -157.675 1.71512 -8.25058 -159.393 
1.69754 -7.88959 -161.161 1.68841 -7.51378 -162.981 1.68812 -7.12367 -164.855 
1.69703 -6.71985 -166.781 1.71538 -6.30306 -168.762 1.74332 -5.87412 -170.794 
1.78089 -5.43398 -172.878 1.82799 -4.98367 -175.011 1.88438 -4.52432 -177.19 
1.94969 -4.05715 -179.413 2.02338 -3.58344 -181.675 2.10479 -3.10453 -183.971 
2.1931 -2.62182 -186.297 2.28735 -2.13672 -188.648 2.38647 -1.65067 -191.017 
2.48928 -1.16508 -193.398 2.59451 -0.681355 -195.787 2.70081 -0.200864 -198.176 
2.80682 0.275089 -200.56 2.91112 0.745269 -202.934 3.01232 1.20852 -205.291 
3.10907 1.6638 -207.629 3.20005 2.11014 -209.942 3.28404 2.54671 -212.228 
3.35991 2.97278 -214.484 3.42667 3.38776 -216.707 3.48344 3.79116 -218.898 
3.52951 4.18261 -221.055 3.56432 4.56187 -223.178 3.58746 4.92879 -225.269 
3.5987 5.28334 -227.33 3.59795 5.62559 -229.361 3.5853 5.95571 -231.366 
3.56095 6.27393 -233.346 3.52526 6.58059 -235.305 3.47869 6.87609 -237.245 
3.42181 7.16092 -239.169 3.35529 7.43563 -241.079 3.27985 7.70082 -242.977 
3.19627 7.95717 -244.867 3.10538 8.2054 -246.749 3.00802 8.44631 -248.626 
2.90506 8.68072 -250.499 2.79737 8.90951 -252.369 2.68579 9.13361 -254.237 
2.5712 9.35397 -256.104 2.45442 9.57159 -257.97 2.33628 9.78748 -259.836 

LINES 1 223
222 221 220 219 218 217 216 215 214 213 212 211 210 209 208 207 206 205 204 203 202 201 200 199 198 197 196 195 194 193 192 191 190 189 188 187 186 185 184 183 182 181 180 179 178 177 176 175 174 173 172 171 170 169 168 167 166 165 164 163 162 161 160 159 158 157 156 155 154 153 152 151 150 149 148 147 146 145 144 143 142 141 140 139 138 137 136 135 134 133 132 131 130 129 128 127 126 125 124 123 122 121 120 119 118 117 116 115 114 113 112 111 110 109 108 107 106 105 104 103 102 101 100 99 98 97 96 95 94 93 92 91 90 89 88 87 86 85 84 83 82 81 80 79 78 77 76 75 74 73 72 71 70 69 68 67 66 65 64 63 62 61 60 59 58 57 56 55 54 53 52 51 50 49 48 47 46 45 44 43 42 41 40 39 38 37 36 35 34 33 32 31 30 29 28 27 26 25 24 23 22 21 20 19 18 17 16 15 14 13 12 11 10 9 8 7 6 5 4 3 2 1 0 

CELL_DATA 1
FIELD FieldData 2
LengthArray 1 1 double
473.11636226 
TortuosityArray 1 1 double
0.0092908568817 
POINT_DATA 222
FIELD FieldData 8
RadiusArray 1 222 double
66.173642971 66.495025644 67.558905687 68.968025671 69.263308237 70.052869156 70.250157712 70.260046356 70.815357254 
70.903909674 70.967374577 70.397095167 70.252715276 69.92817893 69.343103802 69.097015116 68.764720281 68.745404076 
68.568489688 68.44131649 68.288573942 68.034361185 67.981425763 67.859947245 67.82775603 67.670979717 67.657981696 
67.567160867 67.513017451 67.511257538 67.473456389 67.459642301 67.289359906 67.285817262 66.985742707 66.851722946 
66.785741963 66.654925846 66.648097244 66.510460815 66.494005327 66.423503111 66.369793031 66.248180237 66.163781909 
66.113023106 65.692270594 65.530021656 65.524472365 65.319212198 65.033870567 64.624640464 64.479770781 64.327904729 
63.917312592 63.743396311 63.726046468 63.232832971 63.190194333 62.968160548 62.968109771 62.96181345 62.43869794 
61.980590036 61.821013178 61.450208273 61.407365931 60.868457201 60.775632504 60.470309821 60.348031551 60.155856681 
59.790951728 59.641714586 59.466196328 58.495314767 58.108543075 57.896933663 57.370538224 57.101734397 57.102759344 
56.542507099 56.493726422 55.900873752 55.87812035 55.848101299 55.564844004 55.54212839 54.801682107 54.587757505 
54.408088774 54.308830806 54.305094372 54.142040253 53.807924056 53.637789164 53.511953015 53.414288102 53.452304772 
53.487376663 53.510436381 53.512775713 53.519401261 53.518433097 53.551049796 52.742750051 52.379481056 52.373563116 
52.280450429 52.248573149 51.992013498 51.987634959 51.414615516 51.251784195 51.244090227 51.119149856 51.036745687 
50.795951208 50.788208399 50.614011698 50.568793714 50.568762589 50.5160682 50.506317858 50.506041087 50.467357798 
50.432859526 50.386641185 50.42483275 50.534266938 50.540215109 50.562626721 50.679930378 50.685606246 50.748549529 
50.767018996 50.871026255 51.117902011 51.127534746 51.277199443 51.453300642 51.49298578 51.512183092 51.564186318 
51.774187626 51.879026494 52.096588474 52.239766308 52.463443199 52.501106828 52.624539085 52.719523744 52.757464935 
52.792103569 52.980433675 53.007340953 53.087317686 53.172514719 53.196464784 53.279064901 53.333505441 53.380014809 
53.47720925 53.588477279 53.651414597 53.665267819 53.664519107 53.660754461 53.66136662 53.647432318 53.620916737 
53.57974309 53.576856797 53.567045192 53.564550227 53.471074581 53.456019787 53.370442927 53.299579533 53.221295996 
53.0204329 52.939273906 52.887544271 52.847821632 52.595652653 51.635644232 51.154954682 51.095574361 50.692189294 
50.044606304 49.485884054 49.019673988 48.525027521 48.121033871 47.856990103 47.849992541 46.981199259 46.981113547 
46.959771154 46.454447585 46.123374876 45.970662944 45.921295298 45.444143314 45.341504489 44.917936166 44.798262483 
44.178230451 43.930091936 43.163580222 42.984271417 42.801477204 42.239055178 42.064988102 41.020641455 40.950048296 
40.44187151 39.9103929 39.376768874 39.192199239 39.031058703 38.904185687 
EdgeArray 2 222 int
50609 50609 39476 47705 37909 37909 38861 37493 38683 
38861 36641 38681 38082 38082 38347 38080 38110 37790 
38110 38732 38964 38964 38334 38334 38730 38309 38954 
38954 38766 38766 37330 37330 37408 38171 37408 34291 
35417 35417 37406 37406 36767 36767 37020 37020 35453 
35453 36753 36770 33597 36770 35439 35439 36180 36181 
36174 36174 35100 36197 35662 36197 33850 35382 33850 
34755 34799 35442 34175 34799 33595 33595 34582 34582 
34309 34477 34337 34472 33832 34472 33832 34151 34063 
34151 33935 33935 34202 34202 33135 33135 33503 33503 
32662 32662 33151 33151 32906 32901 32941 32942 33332 
33332 32812 32812 33033 33033 32640 32640 32548 32548 
28693 28693 32511 32511 30661 30661 32370 32370 30284 
30284 31506 31506 31159 31506 31159 31159 26021 26021 
31286 32073 29527 32073 27931 31396 27931 31235 31244 
30993 29361 30872 30872 31094 31127 31094 30906 31126 
30551 30551 28747 28747 23326 23326 29815 29815 28321 
28321 29272 29272 29645 29645 29579 29579 29578 29578 
26384 26955 28059 26384 25953 25953 28588 26436 27318 
28588 23668 27906 23668 26443 26669 26850 25483 26851 
25675 26634 24745 23675 24745 26349 26349 26349 23079 
23079 24946 24946 24660 24660 24944 24715 24402 23871 
23871 23871 14256 23987 23987 24947 24947 24947 24062 
24659 24663 24663 23453 23453 23078 23078 22512 23953 
23954 23954 12749 12749 23153 23153 11516 11516 16131 
16131 20839 20839 22701 22701 21769 21769 20607 20607 
22306 22306 22074 22074 21722 21722 20828 20828 19221 
20442 16250 16250 17781 17781 16696 16696 17492 17492 
21147 21147 21152 21152 20268 20268 12918 12918 21034 
21034 21030 21030 21032 21032 20785 18494 18494 18494 
19063 20495 20495 20495 20499 20499 16326 17762 16326 
16326 16640 16640 17752 17752 18020 18020 17290 17290 
18878 18878 19237 19236 19237 16146 19244 18032 18700 
18700 18445 16613 16613 16613 18900 16897 18900 18900 
18047 14255 18047 18047 14246 14246 18084 18084 15585 
15585 17393 18431 17393 17393 17272 17272 17268 17268 
13695 12926 13695 15158 17266 17229 14877 16643 14877 
17386 17392 15200 16100 16100 17270 17270 12893 12893 
13356 13356 14049 14049 13408 13408 13704 13704 16156 
13706 15016 13706 13161 12396 16456 12687 16456 14204 
15098 13474 16147 15674 14955 14955 15791 15791 14392 
14392 13545 13545 12745 12745 13565 13565 12022 12022 
12813 12813 12208 12208 11057 11057 12240 12240 12231 
12231 12227 12227 12213 7984 7541 7541 11080 7541 
11080 11080 7810 7810 10572 10572 10443 10443 10354 
10354 10612 10612 10447 10089 10448 10448 10450 10450 
9018 9018 8640 8640 8525 8525 8844 8844 8236 
8236 8645 8619 8645 5619 8624 8624 7968 7968 
7970 7970 3532 3532 4200 4200 6156 6156 6127 
6127 1395 1395 
EdgePCoordArray 1 222 double
0 0.952 0 0.176 0.428 0.616 0 0.944 0.592 
0.836 0 0 0.784 0 0 0 0.192 0.192 
0 0 0 0 0 0.904 0.86 0 0.532 
0 0.376 0.328 0.28 0.188 0.04 0.976 0 0 
0.996 0.552 0.388 0.892 0.972 0 0 0 0 
0 0 0.004 0.984 0 0 0 0 0 
0 0 0 0 0 0 0.992 0 0 
0.204 0.272 0.06 0.12 0.416 0.564 0.72 0.988 0.944 
0 0 0 0 0 0 0 0 0 
0.096 0.876 0 0.108 0.844 0.016 0.056 0.348 0.92 
0.532 0.008 0.02 0 0 0 0 0.768 0.504 
0 0.548 0.08 0 0.076 0 0 0 0.036 
0 0 0 0 0 0 0 0 0 
0 0 0 0 0.056 0 0 0 0 
0 0 0 0 0 0 0 0.036 0 
0.012 0 0 0.972 0 0 0 0 0 
0 0.908 0.18 0.12 0 0.148 0 0.552 0 
0.984 0 0 0 0 0.916 0 0 0 
0.848 0.772 0.352 0.552 0.48 0.056 0 0 0 
0 0 0 0 0.524 0.644 0.656 0.596 0.344 
0.42 0.788 0 0 0 0 0 0 0 
0 0 0 0 0 0 0.008 0 0.996 
0 0 0 0 0 0 0.944 0 0 
0 0 0 0 0 0.64 0.436 0 0 
0 0 0 0 0 0 
CurvatureArray 1 222 double
0 0.00017116115157 0.00068281227607 0.0011832620239 0.0016572405677 0.0020956400696 0.0024837338696 0.0028186571492 0.0030922970071 
0.0033031128129 0.0034524635701 0.0035431203501 0.0035806739561 0.0035685565166 0.0035161347075 0.0034286996955 0.0033140085516 0.0031766921478 
0.003023689854 0.0028598436012 0.0026895749933 0.0025155136394 0.0023412225403 0.0021711749988 0.0020057811426 0.0018489140691 0.0017030325542 
0.0015726336499 0.0014601583934 0.0013717331003 0.0013103241459 0.0012808346192 0.0012830191492 0.0013162348638 0.0013748779124 0.0014529251985 
0.0015424429532 0.0016357278698 0.0017261305137 0.0018071574112 0.0018739571772 0.0019229780964 0.0019516457265 0.0019593823965 0.0019465267425 
0.0019149129661 0.0018673577557 0.0018075445952 0.0017393696972 0.0016673596145 0.0015957313848 0.0015284297939 0.0014691023259 0.0014203745605 
0.0013841218232 0.0013610261152 0.001350569498 0.0013513717401 0.0013610822491 0.0013770989394 0.001396503813 0.0014166807502 0.0014353101323 
0.0014504687627 0.0014611140099 0.0014664190445 0.0014662454073 0.0014611593465 0.0014518667497 0.0014396887942 0.0014258833294 0.0014120143715 
0.0013995870385 0.0013902273831 0.0013850971305 0.0013854982832 0.0013925224277 0.001406845511 0.0014293091524 0.0014603467508 0.0015002052032 
0.0015490389064 0.0016067541543 0.0016728372267 0.0017465681903 0.0018267750946 0.0019117731229 0.0019996310664 0.0020878052083 0.0021733226074 
0.0022532107819 0.0023242409237 0.0023834825409 0.0024284631153 0.002457536708 0.0024700063644 0.0024664366126 0.0024486504935 0.0024198282281 
0.0023839055335 0.0023456291279 0.0023095790007 0.002280243909 0.0022608246328 0.0022533717752 0.0022583777331 0.0022753243675 0.0023019959491 
0.0023365186325 0.002375801009 0.0024175643599 0.0024597494488 0.0024999419157 0.0025368189275 0.0025695672764 0.0025965132274 0.0026174176819 
0.0026324351692 0.0026405108509 0.0026423023039 0.0026382961166 0.0026289330795 0.0026155760697 0.0025993594255 0.0025828188323 0.0025676730042 
0.0025575596751 0.0025545642392 0.002562786048 0.0025848215629 0.0026241050935 0.0026818140525 0.0027595219177 0.0028582428253 0.0029765870218 
0.003113085631 0.0032668311896 0.0034343495935 0.0036153388661 0.003806833865 0.0040060001929 0.0042127055104 0.0044258650542 0.004644406705 
0.0048669203143 0.0050930988565 0.0053239795212 0.0055565260339 0.0057902673791 0.0060239846806 0.0062539773869 0.0064775009213 0.0066881692046 
0.0068815012219 0.007049978872 0.0071867007315 0.0072824428852 0.0073310776257 0.0073275690932 0.0072651546973 0.0071443362982 0.006963365738 
0.0067300682739 0.0064458781836 0.006124026059 0.005771952713 0.0054057409652 0.0050306697362 0.0046626381897 0.0043091633045 0.0039747680038 
0.0036662296837 0.003384968362 0.0031293740564 0.002898098198 0.0026880621305 0.0024959617046 0.0023182206419 0.0021511588169 0.0019925095479 
0.0018394512896 0.0016909477712 0.0015455151871 0.0014024841793 0.0012614331677 0.0011231276909 0.00098779283795 0.00085905922163 0.00074120876171 
0.00064449345482 0.00058523924047 0.0005818656801 0.00064352695594 0.00076438026097 0.00092840653246 0.0011227665265 0.0013413116747 0.0015775732036 
0.0018251919278 0.0020805112912 0.0023375601745 0.0025892266508 0.0028280144752 0.0030470304222 0.0032376231646 0.0033915406382 0.0035031137873 
0.0035659188594 0.0035773739424 0.0035359719034 0.0034418746361 0.0032987998255 0.0031103102147 0.0028816964412 0.0026181581115 0.0023268222162 
0.0020125098844 0.001679313856 0.0013335459259 0.00097737361467 0.00061358411352 0 
TorsionArray 1 222 double
0 0 -0.00026514811522 -0.00042522227768 -0.00076618177907 -0.0010364876536 -0.0013698751076 -0.0017405099947 -0.0020698020303 
-0.002452784137 -0.0028734570157 -0.0033355103741 -0.0038047483623 -0.0043233798803 -0.0049224225325 -0.0055835781626 -0.0063129652014 -0.0071546521764 
-0.0081594927472 -0.0093483398398 -0.010778718575 -0.01252137395 -0.014750418197 -0.017555530357 -0.021098158508 -0.025592585497 -0.031194379563 
-0.037871234643 -0.045391829465 -0.052909709717 -0.059080646888 -0.062206410908 -0.061335223365 -0.056492959729 -0.048928886648 -0.040173274084 
-0.031660575647 -0.023944503886 -0.017395855975 -0.011933023987 -0.0073617259636 -0.0035704364255 -0.00031117394583 0.0026995492736 0.005603770636 
0.0084401945724 0.011445086805 0.014642050837 0.018072733914 0.02172306922 0.025459238367 0.029073146813 0.032178170078 0.034562102356 
0.035927776671 0.03606969399 0.034999263976 0.033004974771 0.030365589439 0.027487373914 0.024634615255 0.02199835511 0.01970056783 
0.017763783714 0.01627288393 0.015065698375 0.014117893624 0.013405127026 0.012834312988 0.012343785775 0.011890991225 0.011382987582 
0.010809429086 0.010149856933 0.0093090337696 0.0083848469122 0.0073456317097 0.0062135907357 0.0050744915105 0.0039439745738 0.0029154918279 
0.0020405512065 0.0013536364185 0.00087944155641 0.00066849905615 0.00073087379674 0.0010571231778 0.0016711923838 0.0025329892555 0.0036694679422 
0.0050933670335 0.006774002794 0.0087128857946 0.010957756252 0.013489351272 0.016269866255 0.019294984206 0.022544317205 0.025919495308 
0.029236557545 0.0323299641 0.035007456887 0.037022798983 0.038199277656 0.038484605781 0.037913842598 0.036623696575 0.034868743732 
0.032826220646 0.030733705644 0.028754693566 0.026944484575 0.025426817455 0.024198544885 0.023232101772 0.022604050754 0.022300533362 
0.022259627184 0.022546733901 0.023130003814 0.023995660112 0.025224379755 0.02673887942 0.028567035292 0.030556381947 0.032770956545 
0.035110169458 0.037221700759 0.039047549783 0.04042591052 0.040973763532 0.040651221125 0.039477071871 0.037397933651 0.034560650671 
0.03120615476 0.027493014985 0.023687140118 0.019804666042 0.016022939416 0.012530305457 0.0092499930829 0.0063590230168 0.0037263514768 
0.00149296006 -0.0003046531142 -0.0016923662888 -0.0026571778131 -0.0032609988127 -0.0033408665211 -0.0030567130575 -0.0023369290505 -0.0013086370914 
2.9447437849e-05 0.0018236262754 0.0038510370377 0.0061614879322 0.0086343304279 0.011349715009 0.014285369182 0.01741891446 0.020671388917 
0.024081373007 0.027665190887 0.031215146714 0.034800974008 0.038279748082 0.041592169996 0.04424166676 0.046582793638 0.048229196318 
0.048747545743 0.048569985678 0.047623172627 0.045892875298 0.043595930063 0.040810965873 0.038085917365 0.035464042417 0.033285984791 
0.031500554526 0.030182099237 0.030031943009 0.03054161342 0.032943267814 0.037317909647 0.04476005927 0.057332121183 0.076277545521 
0.10272558515 0.1286677739 0.13546393689 0.11529619152 0.084579425375 0.058668898362 0.039982291325 0.026861245083 0.017908106357 
0.011371529491 0.0063437127757 0.0025127747748 -0.00044461965819 -0.0029669615892 -0.0051308045695 -0.0068071617512 -0.0082790176736 -0.0095261084851 
-0.010547803956 -0.011419432392 -0.012012903864 -0.01246036122 -0.012776469911 -0.012826571209 -0.012558976337 -0.012146757783 -0.011680983935 
-0.010703619308 -0.0095612353515 -0.0086366884239 -0.0068154276604 0 0 
TangentArray 3 222 double
0.017589350959 -0.25275163591 0.96737129649 0.017589350959 -0.25275163591 0.96737129649 0.017772462495 -0.25179286037 0.96761794891 
0.018171707945 -0.24969492204 0.96815403472 0.018777113061 -0.24649406081 0.96896238214 0.019570718773 -0.2422511109 0.97001617834 
0.020527965925 -0.23705242592 0.97127995448 0.021618695446 -0.23100395741 0.97271260075 0.022808485326 -0.22422538683 0.97427036745 
0.024061076894 -0.21685014052 0.97590833644 0.025339411498 -0.20901536881 0.97758400653 0.026607239267 -0.20085768699 0.97925902824 
0.027830569863 -0.19250825166 0.98090062311 0.028979110414 -0.18409202645 0.98248172347 0.030026762181 -0.17572238317 0.98398172626 
0.030951643607 -0.16749818486 0.98538639824 0.031736663334 -0.15950454799 0.98668692267 0.032369572444 -0.15181279513 0.98787908471 
0.032842256193 -0.14448035157 0.98896249384 0.033150009644 -0.13754981872 0.98993995991 0.033291179059 -0.13105143824 0.99081644008 
0.033266470527 -0.12500544854 0.99159819472 0.033078403701 -0.11942310841 0.99229226561 0.032729592446 -0.1143048882 0.99290642374 
0.032222670212 -0.10964479047 0.99344839798 0.03155995038 -0.10543192116 0.99392559054 0.030742253996 -0.10164961195 0.99434514642 
0.029768496246 -0.098276434365 0.99471381768 0.028635914223 -0.095288074472 0.99503777179 0.027339765577 -0.092657426241 0.9953226304 
0.025873576959 -0.090355172667 0.99557345324 0.024229816576 -0.088350428694 0.99579471667 0.022400769013 -0.08661132404 0.99599030321 
0.020379443065 -0.085105924656 0.99616347046 0.018160660187 -0.083802372803 0.99631689373 0.015742468079 -0.08266962875 0.99645266179 
0.013127033249 -0.081677576757 0.99657235284 0.010321803835 -0.080798550221 0.99667700618 0.0073398298757 -0.080006646397 0.99676730656 
0.0041999325294 -0.079278619639 0.99684364924 0.00092657494875 -0.078593711913 0.99690629946 -0.0024513338112 -0.077933208873 0.99695556868 
-0.0059014297106 -0.077280901546 0.99699189334 -0.0093894296002 -0.076622515398 0.99701596213 -0.012880721411 -0.075944720091 0.99702882933 
-0.016341769944 -0.075234916355 0.99703192222 -0.019741860034 -0.074481463904 0.99702696578 -0.023054139129 -0.07367252441 0.99701598072 
-0.026256324665 -0.072796215878 0.99700116167 -0.029331270677 -0.071840304755 0.9969847778 -0.032267139011 -0.070792079743 0.9969690633 
-0.035056938196 -0.069638573061 0.99695610747 -0.037698254119 -0.06836678429 0.99694775412 -0.040192689704 -0.066964438944 0.99694549079 
-0.042544735872 -0.065419842414 0.99695044494 -0.044760959572 -0.063722362609 0.99696334787 -0.04684913818 -0.061863255807 0.9969845013 
-0.048817613698 -0.059836190035 0.99701377671 -0.050674253129 -0.057637398477 0.99705067593 -0.0524261075 -0.055266232887 0.99709435198 
-0.054078662126 -0.05272514377 0.99714369953 -0.055635721337 -0.050019856414 0.99719741299 -0.057099409964 -0.047159183245 0.99725406433 
-0.058470139309 -0.04415481707 0.9973121853 -0.059747081347 -0.041020617294 0.99737034006 -0.060927758247 -0.037771747976 0.99742724212 
-0.062009282142 -0.034424510547 0.99748173016 -0.06298871409 -0.03099507677 0.99753282007 -0.063863185542 -0.027498643471 0.99757973022 
-0.064630531921 -0.023948716606 0.99762184886 -0.065289637066 -0.020356412548 0.99765869903 -0.065840509537 -0.016729985053 0.99768989917 
-0.066284866063 -0.013074346219 0.99771507857 -0.066625850036 -0.0093906470552 0.99773383818 -0.066867878257 -0.0056764091752 0.99774569167 
-0.067017280901 -0.0019257456981 0.99774995643 -0.067081159584 0.0018708375681 0.99774576822 -0.067067618584 0.0057256894481 0.99773200361 
-0.066985606283 0.009653716616 0.99770723878 -0.066844153836 0.013671974263 0.99766975308 -0.066652427519 0.017798726182 0.99761749145 
-0.066418906467 0.022052837849 0.99754809468 -0.066150902273 0.026453108363 0.99745891704 -0.065854196445 0.031017171053 0.99734706091 
-0.065532635973 0.035760522367 0.99720943571 -0.065187261812 0.040695583471 0.99704287289 -0.064815771982 0.045830440481 0.99684426388 
-0.064412239397 0.051168003067 0.99661070578 -0.063966332233 0.056705042049 0.99633972446 -0.06346360698 0.062431079418 0.99602948295 
-0.062885016719 0.068327992253 0.99567904475 -0.062206792315 0.074369741241 0.99528862978 -0.061401429114 0.0805223681 0.99485979552 
-0.060438469007 0.086744659919 0.99439557292 -0.059284828127 0.092989078311 0.9939005687 -0.057906373724 0.099203177668 0.99338088437 
-0.056269903427 0.10533140043 0.99284389209 -0.054344306 0.11131703871 0.99229794583 -0.052101508277 0.11710421567 0.99175200303 
-0.049517945524 0.12263969599 0.99121515224 -0.046576327908 0.12787476749 0.99069606314 -0.043266047095 0.13276639485 0.99020257199 
-0.039583194478 0.13727796835 0.98974134506 -0.035530885503 0.1413799531 0.98931757542 -0.031119236528 0.14504983095 0.98893485107 
-0.026364613588 0.14827164788 0.98859517781 -0.021288916094 0.15103571876 0.98829904063 -0.015919297839 0.1533378208 0.98804559038 
-0.010286930208 0.15517818105 0.98783293688 -0.0044264625679 0.15656128274 0.98765832714 0.0016244866286 0.1574946688 0.98751850127 
0.0078269500418 0.15798825262 0.98740997103 0.014140122744 0.15805431282 0.98732917061 0.020521961053 0.15770625536 0.98727280229 
0.026930718436 0.15695870599 0.9872379151 0.033324112012 0.15582789427 0.98722194613 0.039659570322 0.15433045584 0.98722298843 
0.045896085623 0.15248307412 0.98723981961 0.051993183307 0.15030352717 0.98727177545 0.057911014096 0.14780978137 0.98731888617 
0.063612049105 0.14501982298 0.9873817692 0.069060671296 0.14195207632 0.98746150898 0.074223240684 0.13862413663 0.98755974973 
0.079068996388 0.13505350987 0.98767841086 0.08357041056 0.13125674446 0.98781964625 0.087704322127 0.12725030835 0.98798548112 
0.09145133752 0.12304898963 0.9881779187 0.094795733872 0.11866561996 0.98839882612 0.097727579337 0.11411263122 0.98864939571 
0.10024187237 0.10940007933 0.98893032599 0.10233790397 0.10453557763 0.98924176338 0.10402075399 0.099525332147 0.98958293791 
0.10530030944 0.094374132113 0.98995220492 0.10619065489 0.089083629674 0.99034723796 0.10671030606 0.083653790617 0.99076483279 
0.10688167856 0.078083896724 0.9912008938 0.10673019527 0.072371047126 0.99165069301 0.10628380391 0.066511537464 0.99210884907 
0.10557166073 0.060500425404 0.99256955574 0.10462438905 0.054331224603 0.99302661356 0.10347344607 0.047998567913 0.99347339342 
0.10214894911 0.041496661993 0.99390322428 0.10068024162 0.034818267938 0.9943093971 0.099094139909 0.027956331917 0.99468527432 
0.09741610426 0.020904446967 0.99502417394 0.095668702646 0.013656727934 0.99531954322 0.093870274669 0.0062065205239 0.99556509111 
0.092035655214 -0.0014517958263 0.99575465375 0.090175847028 -0.0093215739846 0.99588223444 0.088298233662 -0.017405674413 0.99594199853 
0.086404882387 -0.025703999294 0.99592846165 0.08449412487 -0.034213087075 0.99583643614 0.082559837265 -0.042924710129 0.99566125893 
0.080592697547 -0.051824926388 0.99539891205 0.078580222557 -0.060893877427 0.99504627245 0.076505119068 -0.070103602357 0.99460165478 
0.074348346348 -0.079417365209 0.99406499058 0.0720888488 -0.088789738947 0.99343826186 0.069705271966 -0.098168520483 0.99272559987 
0.067176120644 -0.1074934713 0.99193372886 0.064480833321 -0.11669827431 0.99107201298 0.061600739663 -0.12571280517 0.99015233146 
0.05852085779 -0.13446650202 0.98918859124 0.055230070647 -0.14288932407 0.98819647862 0.051722064606 -0.15091420518 0.98719285386 
0.04799658319 -0.15848149591 0.98619467827 0.044058517929 -0.16554073636 0.98521830657 0.039918815177 -0.17205013651 0.98427904515 
0.03559431874 -0.17797849702 0.9833904103 0.031107675745 -0.18331003435 0.98256284472 0.026485305262 -0.18803639532 0.98180489031 
0.021757746048 -0.19216054579 0.98112227838 0.016958998879 -0.19569823865 0.98051751221 0.012124657925 -0.19867113174 0.97999121123 
0.0072917289784 -0.201107108 0.97954211844 0.002497551221 -0.20304007816 0.97916724256 -0.00222093583 -0.20450824952 0.97886232092 
-0.0068276615277 -0.20555384652 0.97862198995 -0.011288108983 -0.20621862616 0.97844082949 -0.01556971171 -0.20654502775 0.97831320935 
-0.019641644426 -0.20657295644 0.97823403103 -0.023475261365 -0.20634215573 0.9781982554 -0.027044080247 -0.20589065164 0.97820123558 
-0.030323166062 -0.2052514381 0.97823941485 -0.033289605326 -0.20445724349 0.97830927511 -0.035921448257 -0.20353393121 0.97840870213 
-0.038198069368 -0.2025050822 0.9785359468 -0.040099575059 -0.20138999325 0.97868998907 -0.041606388098 -0.2002021613 0.97887077956 
-0.042699629522 -0.19895255636 0.97907845547 -0.04336064817 -0.19764630155 0.9793139403 -0.043571485451 -0.19628497271 0.97957834559 
-0.043315084584 -0.19486652918 0.97987286892 -0.042575507326 -0.19338262679 0.98019920722 -0.041338709417 -0.19182053456 0.98055902098 
-0.039594303708 -0.19016666785 0.98095307204 -0.037335955232 -0.18840273302 0.98138190152 -0.034562651395 -0.186506028 0.98184567252 
-0.031281132236 -0.18445550398 0.98234294308 -0.027506853916 -0.18222974838 0.9828711471 -0.023264990144 -0.17980673995 0.98342680282 
-0.018592151895 -0.1771686376 0.98400488095 -0.013536721766 -0.17430384568 0.98459886581 -0.0081584674144 -0.17120583643 0.98520150273 
-0.0025280457425 -0.16787505789 0.98580503849 0.0032749877299 -0.16432379854 0.98640101566 0.0091648245659 -0.1605735652 0.98698132513 
0.015052297965 -0.15665595742 0.98753852549 0.020848546028 -0.15261271286 0.9880661405 0.026468813585 -0.14849314388 0.98855914751 
0.031835595988 -0.14435480505 0.98901374363 0.036881265279 -0.14025917022 0.98942768176 0.041549657725 -0.13626932697 0.98980012956 
0.045797328597 -0.1324495885 0.99013115858 0.049593769634 -0.1288636412 0.99042143555 0.052919958065 -0.12557044601 0.99067226726 
0.05576638429 -0.12262282803 0.99088533768 0.058132356948 -0.12007069065 0.9910618842 0.060022873285 -0.11795593668 0.99120313341 
0.061445491865 -0.11631216244 0.99131020997 0.062410664098 -0.11516936659 0.99138333959 0.062410664098 -0.11516936659 0.99138333959 

NormalArray 3 222 double
-0.18244387089 -0.95208864587 -0.24544132574 -0.18244387089 -0.95208864587 -0.24544132574 -0.18172877081 -0.95246450811 -0.24451178836 
-0.18108077513 -0.95312254766 -0.24241939284 -0.17986015416 -0.95415595126 -0.23924202311 -0.17761093637 -0.95561296908 -0.23507064599 
-0.17486740082 -0.95736096318 -0.22995951448 -0.1710453955 -0.95944976253 -0.22405273007 -0.16640163619 -0.96178147179 -0.21745550348 
-0.16091580351 -0.96430203715 -0.21030379296 -0.15435984625 -0.96698808782 -0.20274879992 -0.1467596655 -0.96977617003 -0.19492506413 
-0.1378995589 -0.97263785937 -0.1869740789 -0.12795119471 -0.97549193891 -0.1790082928 -0.11653187276 -0.97832801752 -0.17115669066 
-0.10364699904 -0.98108180026 -0.16351085833 -0.089027097713 -0.98371145707 -0.15615999842 -0.072657332316 -0.98613934386 -0.14916469604 
-0.054074592802 -0.98830384677 -0.14258837568 -0.033056495728 -0.99009332817 -0.13646416967 -0.0090602958987 -0.99136479566 -0.13081954348 
0.018344199668 -0.99190382932 -0.12565939565 0.049960793089 -0.99139677538 -0.1209807957 0.086895051001 -0.98935148125 -0.11675999599 
0.13022406285 -0.98503113269 -0.11293963472 0.18139407288 -0.97730322973 -0.10942845827 0.24202141401 -0.96445496995 -0.10607660489 
0.31330389527 -0.94408869522 -0.10265088783 0.39567404548 -0.91305847325 -0.098824461353 0.48745493637 -0.86805197954 -0.094198969353 
0.58451287193 -0.80655545667 -0.088391163949 0.67931485537 -0.72933643452 -0.081238491871 0.76433082234 -0.64068968201 -0.072904906427 
0.83344353336 -0.54889250748 -0.06394444417 0.88529111158 -0.46177600617 -0.054977885459 0.92136665059 -0.38589452723 -0.046571547419 
0.94541244075 -0.32353774195 -0.038969814068 0.96093191197 -0.2749011058 -0.032237285799 0.97070406592 -0.23883252622 -0.026318070431 
0.97678171829 -0.21319823718 -0.021070986691 0.98035282805 -0.19656832045 -0.016408166273 0.98222640044 -0.18730139357 -0.012226456449 
0.98284107409 -0.18426004864 -0.0084650790227 0.98240654175 -0.1866853635 -0.0050952695541 0.98090741506 -0.19446352691 -0.0021400414038 
0.97826404471 -0.20736274792 0.0003867950063 0.97425996493 -0.22541408408 0.0024518222484 0.96843438904 -0.24923688041 0.0039763765706 
0.96031009157 -0.2788911167 0.0049267701931 0.94904550265 -0.3150959041 0.005215851697 0.93383086594 -0.3576822995 0.0048256025913 
0.9135483209 -0.40671324942 0.0037145834831 0.88742691897 -0.46094432665 0.0019471072033 0.85486220912 -0.51885494486 -0.00038680024995 
0.81583903279 -0.57827058896 -0.0031302605399 0.77107340234 -0.63671726143 -0.0060775983753 0.7221331376 -0.69169572602 -0.0089863327662 
0.6709709677 -0.74139222582 -0.011641649174 0.61942999332 -0.78492895573 -0.013893085933 0.56934539587 -0.82194996495 -0.015622909934 
0.52148313458 -0.85309566158 -0.016826542829 0.47670793928 -0.87888775181 -0.017488863142 0.43480883108 -0.90034919016 -0.017680955508 
0.39584899966 -0.9181499531 -0.01744227868 0.35921388617 -0.93310297634 -0.016858811752 0.32429791075 -0.94581954871 -0.016007696846 
0.29096893283 -0.95661606669 -0.014925852551 0.25857314095 -0.96589474776 -0.01368455447 0.22696230765 -0.97382568899 -0.012314153032 
0.19584363527 -0.98057509045 -0.010851843956 0.16531309876 -0.98619724962 -0.0093039892861 0.13526799755 -0.99077922528 -0.0076873663382 
0.10627432121 -0.9943189306 -0.0059693302539 0.078284758243 -0.99692237887 -0.0041553743894 0.051984228713 -0.99864548791 -0.0021975994001 
0.027844925387 -0.99961225315 -5.9040654004e-05 0.006029521325 -0.99997922209 0.0022804065431 -0.012834174603 -0.99990575253 0.0048754497918 
-0.028706885051 -0.99955787289 0.0077442560765 -0.041469647684 -0.99908016625 0.010912824386 -0.051193016639 -0.99858501834 0.014395700359 
-0.058299222648 -0.99813352786 0.018184091897 -0.063182656387 -0.99775346085 0.022270682343 -0.06646915339 -0.99743302798 0.026630928389 
-0.068712178087 -0.99714719278 0.031242799377 -0.070802931607 -0.99683838128 0.036058098694 -0.073367358064 -0.99646011221 0.04104236278 
-0.077207194921 -0.99594667962 0.046143909721 -0.083064653671 -0.99522243326 0.051308592277 -0.091496779244 -0.99420198934 0.056486668999 
-0.10333546299 -0.99273725823 0.061599660749 -0.11918540532 -0.99063761219 0.066572971039 -0.13965538826 -0.98762855007 0.071317736984 
-0.16530333645 -0.9833307699 0.075732449639 -0.19690304007 -0.97717978923 0.079679685826 -0.23481208402 -0.96848819061 0.08302957209 
-0.27944134002 -0.95633759197 0.085620953417 -0.33090486655 -0.93961869365 0.087285049348 -0.3891851073 -0.91696307475 0.087827511629 
-0.45350014272 -0.88699105401 0.087088981292 -0.52246456714 -0.84841896629 0.084947240812 -0.59408881612 -0.8002760897 0.081342847307 
-0.66580038167 -0.74221651465 0.076318393278 -0.73460933124 -0.67486356421 0.070059261796 -0.79772778573 -0.59973223549 0.062861956637 
-0.85296404462 -0.51905317069 0.055101221143 -0.89895515848 -0.43549145559 0.047189142306 -0.9353321726 -0.3515598012 0.03948965791 
-0.96252733462 -0.26925733609 0.032274093061 -0.98141008249 -0.19018729933 0.025749585511 -0.99316612056 -0.11498761604 0.019972609689 
-0.99891853828 -0.044021585387 0.014961747685 -0.99968406772 0.022755766868 0.010674260056 -0.99628096841 0.085879919261 0.0069908122036 
-0.98933044126 0.14563854451 0.0038330599013 -0.97926208085 0.20259471197 0.0010768925062 -0.96629508927 0.25743303886 -0.0014251189529 
-0.95050870467 0.3106747323 -0.0037964527596 -0.93188883236 0.36269202136 -0.0061401767532 -0.91016450462 0.41415735872 -0.0086172353295 
-0.88513136087 0.46520399044 -0.011301384228 -0.85631284977 0.51625872062 -0.01432608455 -0.82314502777 0.56755208934 -0.017801380493 
-0.78513724784 0.61893877955 -0.021778182171 -0.74152535277 0.67040733609 -0.026346819812 -0.6921969072 0.72102445325 -0.031419412603 
-0.63621207602 0.77062263712 -0.037080257406 -0.57387535079 0.81780535139 -0.043144976373 -0.50570381993 0.86129026852 -0.049423879501 
-0.4325254723 0.89989903578 -0.055708538072 -0.35589350373 0.93248613035 -0.06172058573 -0.27831395633 0.95814291216 -0.067108133588 
-0.20179958763 0.97680215404 -0.071655274022 -0.12873770193 0.98882765975 -0.075142953222 -0.061065642011 0.995124758 -0.077444840849 
-0.00028722674008 0.9969138381 -0.078502973905 0.052977339259 0.99551689138 -0.078355092345 0.098286098058 0.99217130866 -0.077045033527 
0.13612442682 0.98787203727 -0.074692559203 0.16642725292 0.98346944682 -0.07134295103 0.19021347774 0.97944479636 -0.067132136651 
0.20807071844 0.97613792877 -0.062139521645 0.22067918403 0.97371195803 -0.056442187493 0.22905208707 0.9721219083 -0.050141168853 
0.2334057874 0.97141666649 -0.043259663268 0.23498134853 0.97133617766 -0.035913727319 0.23408874358 0.97180818458 -0.028130277317 
0.23172324346 0.9725761407 -0.019999724314 0.22821355584 0.97354256451 -0.011551969963 0.22427272741 0.97452224626 -0.0028522431689 
0.2206364688 0.97533747031 0.0060305591639 0.21755590992 0.97593151182 0.015070179228 0.21588425272 0.97611949029 0.024181193336 
0.21556540415 0.97591948327 0.033357438471 0.21738831675 0.97515910121 0.042509376338 0.22171224197 0.97374700893 0.051579495563 
0.22873996393 0.9716048383 0.060515015407 0.23896149648 0.9685583043 0.069225821518 0.25229521429 0.96452852366 0.077664997873 
0.26945516008 0.95919231845 0.085697216599 0.29030325163 0.95237995936 0.093254678723 0.3155391887 0.94361030429 0.10017292064 
0.34475378664 0.93264525997 0.10638442391 0.37883346426 0.91870314887 0.11166794798 0.41719277217 0.90139235506 0.11593969593 
0.46025038014 0.87978014832 0.11898099929 0.50726201234 0.85329892003 0.1206905295 0.55829391574 0.82079697853 0.12083138532 
0.61186866007 0.78190071162 0.1193650702 0.66679927981 0.73611898941 0.11622200256 0.72217602995 0.68270105605 0.11127016593 
0.77552259202 0.62257114529 0.10473718692 0.82524208029 0.55642503343 0.09678166712 0.87004449322 0.48513036363 0.087584873762 
0.90855242269 0.41051596513 0.077518627405 0.94015246344 0.33412511244 0.066886132588 0.96456016161 0.25783959005 0.056057474344 
0.98201402649 0.18328112041 0.045348458484 0.99328697522 0.11034400994 0.034715764857 0.99887354434 0.040649929103 0.024479086684 
0.99950731865 -0.02801451681 0.014152979098 0.99562241665 -0.093372295587 0.0041973655879 0.98724338837 -0.15909790351 -0.0061926742573 
0.97414168429 -0.22529194024 -0.017073974338 0.95537608446 -0.29397227743 -0.028928141065 0.92784479484 -0.3704790007 -0.043004031509 
0.88817842616 -0.45561482367 -0.059617243879 0.82590020751 -0.55797092269 -0.080977136661 0.7261976636 -0.67895071966 -0.10799478529 
0.56211471849 -0.81493712203 -0.14108341645 0.30867265194 -0.93492715873 -0.17502114677 -0.013387238491 -0.98030677904 -0.19702639622 
-0.31684012021 -0.92748494984 -0.19845404013 -0.5347168674 -0.824338755 -0.18585878704 -0.67051785759 -0.7222573713 -0.16955852159 
-0.75237516441 -0.64035852533 -0.15450751118 -0.8014891867 -0.58090247352 -0.14201197088 -0.83128893446 -0.53997998886 -0.13183443813 
-0.84966235628 -0.51270299501 -0.12332687959 -0.86010059887 -0.4967216917 -0.11616591936 -0.86518404596 -0.48925829247 -0.10992219915 
-0.86636743199 -0.48839343824 -0.10430398969 -0.86468891672 -0.49244201876 -0.099065309041 -0.86031462968 -0.50098703557 -0.094184543039 
-0.85381763839 -0.51281759073 -0.089518484216 -0.84560053926 -0.52700764496 -0.08498629397 -0.83559355625 -0.54339624856 -0.080646920636 
-0.82419170285 -0.56112685458 -0.076450572404 -0.81136842767 -0.58002554083 -0.07246824516 -0.79735573217 -0.59958488764 -0.068715346899 
-0.78246553042 -0.61927098239 -0.065200798116 -0.76665477826 -0.63905766433 -0.062014132614 -0.75024867057 -0.658503206 -0.059164685342 
-0.73358013572 -0.67723666451 -0.05666290422 -0.7171879951 -0.69474682896 -0.054481403516 -0.70093728842 -0.71127228826 -0.052712898391 
-0.68525707552 -0.72648961984 -0.05133782929 -0.67139009003 -0.73940201234 -0.05019971277 -0.65837320542 -0.75106155358 -0.04951025266 
-0.64709975614 -0.76081887923 -0.049158301584 -0.64028314784 -0.76659062829 -0.048747299549 -0.64028314784 -0.76659062829 -0.048747299549 

BinormalArray 3 222 double
0.98305892433 -0.1721738103 -0.062859608165 0.98305892433 -0.1721738103 -0.062859608165 0.98318807633 -0.17149844388 -0.062685646761 
0.98330033149 -0.17090890864 -0.062534814599 0.98351296126 -0.16978544891 -0.062250753953 0.98390616537 -0.16768498022 -0.061728479317 
0.98437797352 -0.16512460004 -0.06110541481 0.98502594112 -0.16153428377 -0.060254215471 0.98579423232 -0.15716035257 -0.05924824983 
0.98667480395 -0.15197893838 -0.058096760069 0.98768970436 -0.14576218167 -0.056766489265 0.98881426739 -0.13852930961 -0.055280873548 
0.99005513535 -0.13006216808 -0.053615868884 0.99135700075 -0.12052220922 -0.051823683327 0.99273295311 -0.10952595207 -0.049853281114 
0.99413243351 -0.097071413261 -0.047726778436 0.99552346033 -0.082885875781 -0.04541994631 0.99683154186 -0.066948261511 -0.042951221637 
0.99799665562 -0.048794820186 -0.04027084431 0.9989035714 -0.028200157515 -0.037368518372 0.99940462698 -0.0046219532822 -0.034191067733 
0.99927815561 0.022370319857 -0.030704014597 0.99820325504 0.053577560167 -0.026827349554 0.99567967936 0.090100161413 -0.022448541678 
0.99096084331 0.13301010322 -0.017461943251 0.98290394233 0.18374576772 -0.011718915845 0.96978376403 0.24391385228 -0.0050481368353 
0.94918623349 0.31470347633 0.00268628892 0.91794446137 0.39654054936 0.011556753791 0.87272001365 0.48775030721 0.021433982184 
0.81097180011 0.58421249395 0.031945286789 0.73344682375 0.67842653768 0.042346070659 0.64443510113 0.76289921347 0.051847762952 
0.55222871621 0.83154915478 0.05974485895 0.46468251332 0.88302892503 0.065803338641 0.38837568136 0.91883140256 0.07009410667 
0.32561172871 0.94268345853 0.0729719065 0.27659233708 0.9580714881 0.07480443006 0.24016607444 0.96775924741 0.075909786847 
0.21419578751 0.97378714929 0.076542488103 0.19724977563 0.97733511338 0.07686743246 0.18768401433 0.9792061085 0.077007193465 
0.18435996369 0.97983462724 0.077042242008 0.18651869968 0.97942716176 0.07702732945 0.19404826742 0.97796540644 0.076999569587 
0.20671817866 0.97536680184 0.076988287898 0.22456130499 0.97141186025 0.077014401709 0.24820020305 0.96563623409 0.077092947883 
0.2776961171 0.95755963573 0.077229596441 0.31377111156 0.94633690715 0.077421881389 0.35625657265 0.93115619209 0.077649213608 
0.40521657971 0.91089779991 0.077876322738 0.45940429377 0.88479167635 0.078047321102 0.51729599952 0.85223547809 0.078099544008 
0.57671190211 0.81321791063 0.07797443043 0.63517105153 0.76845988151 0.07763469454 0.69016584226 0.71953454412 0.077078855666 
0.73987485502 0.66839898104 0.07634134561 0.7834147072 0.61689907177 0.075478021944 0.82042508704 0.56687203019 0.074557212464 
0.85154614593 0.51908366514 0.073629545288 0.87729938284 0.47439891829 0.072742416721 0.89871070863 0.43260530187 0.071914636861 
0.91645229678 0.39376517843 0.071162995832 0.93134079168 0.35726201101 0.070485354784 0.94399082271 0.32248825767 0.069875963763 
0.95472086447 0.28931065314 0.069335538678 0.96393586544 0.257073222 0.068854962462 0.97180739061 0.22562657659 0.068432766241 
0.97850302241 0.19467652906 0.068065293404 0.98407766089 0.16431859696 0.067753642141 0.98861903489 0.13444937472 0.067496440608 
0.99212503505 0.10563581648 0.067297764408 0.99470221309 0.077830496962 0.067155945446 0.99640670754 0.051720091424 0.06707238866 
0.99736319573 0.027778316348 0.067044917406 0.99772930342 0.0061689017016 0.067068485523 0.9976658852 -0.012478081934 0.067134782129 
0.99734088621 -0.02812231333 0.067233118263 0.99690126262 -0.040643554653 0.067349640283 0.99646210613 -0.050111540465 0.067469286043 
0.99608720979 -0.056948510976 0.067580600732 0.99580721531 -0.061548878285 0.067673669338 0.99561291497 -0.064539056385 0.067746835665 
0.99548184825 -0.066473009338 0.067802867378 0.99535800885 -0.068243029619 0.067862531158 0.99519653661 -0.070475637615 0.06794878976 
0.99493221501 -0.073973284462 0.068101693941 0.99448910082 -0.079478591691 0.068370913491 0.99378101711 -0.087548641961 0.068807887002 
0.9926566661 -0.099015259387 0.069489003797 0.99092136628 -0.11448258777 0.070488175954 0.98829461044 -0.13455852003 0.071887186989 
0.98438914989 -0.15979975264 0.073770187963 0.97862888879 -0.19097824703 0.076241768067 0.97031445268 -0.22844989425 0.079375744002 
0.95851251189 -0.27262374486 0.083246971628 0.94209801279 -0.32361277391 0.08789827565 0.91968493795 -0.38139916389 0.09335037597 
0.88987953883 -0.44520374557 0.099539094328 0.85138793847 -0.51364705925 0.10632627502 0.80323503891 -0.58474889025 0.11349981332 
0.74507920551 -0.65594923949 0.12077902437 0.67755936023 -0.72427265485 0.12783753282 0.60221422517 -0.78694459287 0.13437348975 
0.52130341043 -0.84178341896 0.14015502075 0.43752303379 -0.887431915 0.14504547955 0.35341236942 -0.92352218105 0.14901838225 
0.27098950014 -0.95048420244 0.15213307242 0.19187145804 -0.96918386074 0.15449267837 0.1166979778 -0.98080236412 0.15623157338 
0.045831132724 -0.9864592298 0.15747283963 -0.02078031959 -0.98716817679 0.15832614769 -0.083684413735 -0.98374456872 0.15888216517 
-0.14317826092 -0.97680774924 0.1592061765 -0.19983813593 -0.96678490371 0.15934763687 -0.2543637532 -0.95389220612 0.15933844531 
-0.30728936147 -0.93820579982 0.15919524338 -0.3589984861 -0.91970829471 0.15892369118 -0.41017909378 -0.89812357209 0.15851548907 
-0.46097286387 -0.87324366486 0.15795417235 -0.51181923274 -0.84458660977 0.15720856081 -0.56295930031 -0.81158362147 0.15623332413 
-0.61425369015 -0.77374113025 0.15497440917 -0.66569973537 -0.73029149711 0.15335642006 -0.71635982128 -0.6811248761 0.15131923079 
-0.76607496187 -0.625299686 0.14875972403 -0.81343767468 -0.56312776337 0.14562373273 -0.85715399243 -0.49513369988 0.14187900656 
-0.8960319653 -0.42215322815 0.13752588527 -0.928906221 -0.34574836183 0.13263220905 -0.95484083724 -0.26843410391 0.1273660371 
-0.97374985046 -0.19222662419 0.12190223003 -0.98597674867 -0.11951554812 0.11647267852 -0.99241316897 -0.052237527927 0.11129843993 
-0.99427170547 0.0081058302212 0.10657425218 -0.99287565533 0.060897869497 0.1024176867 -0.98946631876 0.10569914686 0.098914581321 
-0.98505064077 0.14299837938 0.096055705833 -0.98048748421 0.17273090404 0.093852693568 -0.97627459193 0.19591842273 0.092216553788 
-0.97276521747 0.21314964477 0.091077223339 -0.97013616915 0.2251059995 0.090349888243 -0.96835711018 0.23280343406 0.089928128218 
-0.96748738547 0.23645858867 0.089752408359 -0.96728034467 0.23731734818 0.089717395604 -0.96767289497 0.23569117819 0.089771024621 
-0.96841818271 0.23258018579 0.089848097193 -0.96942606193 0.22831553459 0.089917334918 -0.97051798833 0.22361447639 0.089952211082 
-0.97152135588 0.2192170692 0.089945159048 -0.97238375599 0.21537676039 0.089903738314 -0.97292233128 0.21295119146 0.089855035238 
-0.97315793869 0.21188520282 0.089823644948 -0.97291698945 0.212971038 0.089865836715 -0.97210629487 0.2165692673 0.090039457709 
-0.97064429752 0.22288319876 0.090403138285 -0.96834942096 0.23240308394 0.091039582044 -0.96513641518 0.24504625815 0.092000170973 
-0.96066710442 0.26152485514 0.093399489422 -0.95475978352 0.28169828857 0.095288141909 -0.94691096164 0.30626113735 0.097794409251 
-0.93686719219 0.33480080479 0.10093703637 -0.92381537422 0.36819446671 0.10487129746 -0.9073450385 0.40585308292 0.10958218924 
-0.88649078708 0.44818579414 0.11516760982 -0.86066491612 0.49444637493 0.12156761282 -0.82868232263 0.54469355656 0.1288197873 
-0.79015807741 0.59745705432 0.13673068764 -0.74458782756 0.65155680085 0.14512994972 -0.69120207636 0.70608893356 0.15387692333 
-0.63094477552 0.7586036473 0.16257058943 -0.5645244913 0.80752299135 0.17093483309 -0.49282407865 0.8515740201 0.17873476384 
-0.41770722511 0.88940012002 0.18570972135 -0.34074493061 0.92039944366 0.19172312424 -0.26385367549 0.94429609852 0.19668786502 
-0.18868448485 0.96133014469 0.20060537902 -0.11512412195 0.9722644073 0.20358870021 -0.044824396239 0.97759231522 0.20567945626 
0.024481130972 0.97803006115 0.20702143297 0.090470523182 0.97401464526 0.20763081478 0.15690477953 0.96555522714 0.20756684103 
0.22389391357 0.95242605425 0.20677554653 0.29351037362 0.93369027824 0.20511978181 0.37123265783 0.90626665441 0.2021560409 
0.45790827772 0.86683725355 0.19726425184 0.56238854123 0.80505311629 0.18870243411 0.68622580967 0.70636040013 0.17363502893 
0.8259562851 0.54433020076 0.14663167341 0.95017948206 0.29469840067 0.10154705564 0.99896061359 -0.02169858169 0.040085708819 
0.94748938869 -0.31905909111 -0.021567445478 0.84395805458 -0.53204208166 -0.068308311704 0.74074078715 -0.66449166445 -0.098761906281 
0.65754384119 -0.74416234618 -0.11772212805 0.59684261749 -0.79186913468 -0.12931420451 0.55476493272 -0.82075399064 -0.13637725717 
0.52639849077 -0.83851762412 -0.14068696796 0.50938230517 -0.8485634212 -0.1430726647 0.50091447059 -0.85340251905 -0.14418333341 
0.49906092281 -0.8544490174 -0.1444128526 0.50212531749 -0.85271274621 -0.1440525529 0.50969812377 -0.84835166751 -0.14320359936 
0.52056608549 -0.8419240367 -0.14203825915 0.5338061469 -0.83382290169 -0.14067823623 0.54927171304 -0.82397612053 -0.13915436767 
0.5661108242 -0.81277030216 -0.13756078892 0.58416317301 -0.80017481331 -0.13591782606 0.60292888328 -0.78641448915 -0.13427216008 
0.62187956112 -0.77179345723 -0.1326675199 0.64099939411 -0.75626230029 -0.13109961829 0.65984889047 -0.7401379589 -0.12959646422 
0.67805810161 -0.72374554005 -0.12817801717 0.69511282371 -0.70761642549 -0.12687457067 0.71125691262 -0.69160956835 -0.1256575076 
0.72616310209 -0.67614826355 -0.12454185985 0.73882066571 -0.66247090004 -0.12359745352 0.75029459352 -0.64960983654 -0.12273990059 
0.75992523128 -0.63845603911 -0.12201446221 0.76559937278 -0.63172369405 -0.12158443478 0.76559937278 -0.63172369405 -0.12158443478 

