# vtk DataFile Version 4.1
vtk output
ASCII
DATASET POLYDATA
POINTS 239 float
-1.0057 -6.80746 261.205 -1.22556 -6.32372 257.235 -1.44567 -5.84 253.264 
-1.66676 -5.35636 249.292 -1.88955 -4.87292 245.317 -2.11468 -4.38987 241.339 
-2.34271 -3.90752 237.356 -2.57404 -3.42639 233.369 -2.80892 -2.94719 229.376 
-3.04744 -2.47087 225.379 -3.28948 -1.99863 221.377 -3.5347 -1.53192 217.372 
-3.78261 -1.0724 213.363 -4.03251 -0.621938 209.354 -4.28354 -0.182562 205.345 
-4.53469 0.243595 201.339 -4.78487 0.654351 197.337 -5.03288 1.04753 193.342 
-5.27749 1.42103 189.355 -5.51744 1.77288 185.379 -5.75149 2.10128 181.415 
-5.97844 2.40466 177.464 -6.19713 2.68171 173.526 -6.4065 2.93141 169.604 
-6.60555 3.15301 165.695 -6.79338 3.34608 161.801 -6.96921 3.51046 157.919 
-7.13234 3.64623 154.048 -7.28217 3.75374 150.187 -7.41824 3.83351 146.332 
-7.54016 3.88623 142.481 -7.64766 3.91272 138.633 -7.74062 3.91389 134.783 
-7.81899 3.89067 130.93 -7.8829 3.84407 127.071 -7.9326 3.77506 123.205 
-7.96847 3.68461 119.33 -7.99107 3.57366 115.445 -8.00112 3.44311 111.55 
-7.99947 3.29384 107.647 -7.98715 3.12668 103.735 -7.96534 2.94244 99.8182 
-7.93534 2.74189 95.8981 -7.89858 2.52583 91.9787 -7.85659 2.29503 88.0641 
-7.81095 2.05028 84.1592 -7.76331 1.79237 80.2691 -7.71531 1.52213 76.3996 
-7.6686 1.24041 72.5565 -7.62474 0.948093 68.7461 -7.58525 0.646073 64.9746 
-7.55153 0.335286 61.2482 -7.52485 0.0166881 57.5731 -7.50634 -0.308749 53.9551 
-7.49697 -0.640039 50.4 -7.49754 -0.976189 46.9129 -7.5087 -1.31621 43.4988 
-7.53091 -1.65911 40.162 -7.56448 -2.00393 36.9063 -7.60956 -2.34972 33.7349 
-7.66616 -2.69556 30.6507 -7.73418 -3.04057 27.6555 -7.81338 -3.38391 24.7509 
-7.90347 -3.72481 21.9374 -8.00406 -4.06253 19.2153 -8.11471 -4.39642 16.5841 
-8.23495 -4.72589 14.0424 -8.36427 -5.05043 11.5887 -8.50218 -5.36962 9.22057 
-8.64817 -5.68313 6.93512 -8.80176 -5.9907 4.729 -8.96247 -6.29219 2.59841 
-9.12989 -6.58753 0.539132 -9.3036 -6.87675 -1.45335 -9.48325 -7.15995 -3.38385 
-9.66849 -7.43731 -5.25734 -9.85903 -7.70909 -7.07895 -10.0546 -7.97558 -8.85382 
-10.2549 -8.23711 -10.5871 -10.4598 -8.49405 -12.2838 -10.669 -8.74677 -13.9487 
-10.8823 -8.99564 -15.5865 -11.0994 -9.24098 -17.2015 -11.3202 -9.4831 -18.7976 
-11.5443 -9.72226 -20.3784 -11.7715 -9.95862 -21.9472 -12.0015 -10.1923 -23.5065 
-12.2339 -10.4234 -25.0586 -12.4682 -10.6518 -26.6055 -12.7043 -10.8774 -28.1485 
-12.9415 -11.1 -29.6886 -13.1795 -11.3193 -31.2264 -13.4178 -11.535 -32.7622 
-13.6559 -11.7467 -34.296 -13.8934 -11.9539 -35.8276 -14.1298 -12.1561 -37.3563 
-14.3647 -12.3528 -38.8817 -14.5977 -12.5435 -40.4029 -14.8285 -12.7276 -41.9191 
-15.0567 -12.9046 -43.4293 -15.282 -13.074 -44.9327 -15.5043 -13.2353 -46.4282 
-15.7234 -13.3881 -47.915 -15.9392 -13.532 -49.3921 -16.1515 -13.6666 -50.8589 
-16.3603 -13.7917 -52.3145 -16.5656 -13.9069 -53.7582 -16.7675 -14.0121 -55.1894 
-16.9659 -14.1072 -56.6077 -17.1609 -14.1921 -58.0124 -17.3525 -14.2668 -59.4034 
-17.5407 -14.3315 -60.7804 -17.7255 -14.3861 -62.1433 -17.9068 -14.431 -63.4921 
-18.0847 -14.4663 -64.8269 -18.2589 -14.4924 -66.148 -18.4293 -14.5096 -67.4559 
-18.5959 -14.5183 -68.7512 -18.7582 -14.5189 -70.0345 -18.9161 -14.512 -71.3068 
-19.0693 -14.4981 -72.5692 -19.2175 -14.4777 -73.8227 -19.3604 -14.4515 -75.0686 
-19.4975 -14.4199 -76.3083 -19.6286 -14.3837 -77.5433 -19.7533 -14.3434 -78.7751 
-19.8712 -14.2997 -80.0051 -19.9821 -14.2531 -81.2349 -20.0855 -14.2043 -82.4659 
-20.1814 -14.1537 -83.6997 -20.2693 -14.1019 -84.9377 -20.3493 -14.0494 -86.181 
-20.421 -13.9967 -87.4309 -20.4845 -13.9441 -88.6885 -20.5398 -13.8919 -89.9549 
-20.5869 -13.8406 -91.2307 -20.6259 -13.7903 -92.5168 -20.6571 -13.7412 -93.8139 
-20.6807 -13.6935 -95.1223 -20.6969 -13.6472 -96.4426 -20.7062 -13.6024 -97.775 
-20.7089 -13.5591 -99.1198 -20.7055 -13.5173 -100.477 -20.6965 -13.4767 -101.847 
-20.6825 -13.4374 -103.23 -20.6638 -13.3992 -104.626 -20.6411 -13.3617 -106.034 
-20.6149 -13.325 -107.455 -20.5857 -13.2887 -108.89 -20.5539 -13.2525 -110.337 
-20.5201 -13.2162 -111.797 -20.4846 -13.1795 -113.27 -20.4478 -13.1422 -114.757 
-20.4102 -13.1039 -116.258 -20.372 -13.0644 -117.773 -20.3333 -13.0233 -119.302 
-20.2946 -12.9803 -120.847 -20.2558 -12.9352 -122.407 -20.2172 -12.8876 -123.985 
-20.1789 -12.8372 -125.579 -20.1408 -12.7838 -127.192 -20.103 -12.7271 -128.825 
-20.0655 -12.6667 -130.478 -20.0283 -12.6024 -132.153 -19.9914 -12.5341 -133.851 
-19.9546 -12.4614 -135.573 -19.9181 -12.3842 -137.32 -19.8816 -12.3022 -139.093 
-19.8453 -12.2155 -140.893 -19.8089 -12.1238 -142.721 -19.7726 -12.027 -144.578 
-19.7362 -11.9252 -146.464 -19.6998 -11.8183 -148.38 -19.6633 -11.7064 -150.325 
-19.6268 -11.5895 -152.299 -19.5903 -11.4677 -154.302 -19.5538 -11.3411 -156.334 
-19.5173 -11.21 -158.393 -19.481 -11.0745 -160.478 -19.4448 -10.9347 -162.588 
-19.4089 -10.791 -164.721 -19.3733 -10.6435 -166.876 -19.3381 -10.4924 -169.051 
-19.3035 -10.3379 -171.244 -19.2695 -10.1803 -173.452 -19.2362 -10.0197 -175.674 
-19.2037 -9.85643 -177.908 -19.1722 -9.69052 -180.152 -19.1417 -9.52217 -182.402 
-19.1124 -9.35153 -184.658 -19.0844 -9.1787 -186.917 -19.0578 -9.0038 -189.177 
-19.0326 -8.82692 -191.437 -19.0089 -8.64815 -193.693 -18.9869 -8.46758 -195.945 
-18.9665 -8.28526 -198.19 -18.9477 -8.10127 -200.427 -18.9305 -7.91567 -202.655 
-18.9149 -7.72852 -204.87 -18.9008 -7.53987 -207.073 -18.888 -7.34977 -209.262 
-18.8765 -7.15824 -211.435 -18.8659 -6.96529 -213.591 -18.8561 -6.77091 -215.729 
-18.8467 -6.57504 -217.849 -18.8375 -6.37757 -219.95 -18.8279 -6.17837 -222.032 
-18.8178 -5.97721 -224.094 -18.8065 -5.77379 -226.136 -18.7937 -5.56774 -228.16 
-18.7788 -5.35857 -230.165 -18.7613 -5.1457 -232.153 -18.7408 -4.92844 -234.126 
-18.7167 -4.70599 -236.083 -18.6886 -4.47742 -238.029 -18.6558 -4.24169 -239.963 
-18.6179 -3.99768 -241.89 -18.5745 -3.74415 -243.811 -18.5252 -3.47979 -245.728 
-18.4695 -3.20323 -247.644 -18.407 -2.91308 -249.563 -18.3376 -2.60792 -251.486 
-18.2608 -2.28638 -253.417 -18.1766 -1.94717 -255.357 -18.0848 -1.58908 -257.31 
-17.9853 -1.21108 -259.276 -17.8782 -0.81233 -261.258 -17.7634 -0.392211 -263.257 
-17.6413 0.0495993 -265.274 -17.512 0.513114 -267.311 -17.3758 0.997998 -269.366 
-17.2331 1.50355 -271.44 -17.0845 2.02867 -273.532 -16.9305 2.57189 -275.641 
-16.7718 3.13134 -277.765 -16.609 3.7048 -279.903 -16.443 4.2897 -282.051 
-16.2746 4.88318 -284.208 -16.1046 5.48217 -286.37 
LINES 1 240
239 238 237 236 235 234 233 232 231 230 229 228 227 226 225 224 223 222 221 220 219 218 217 216 215 214 213 212 211 210 209 208 207 206 205 204 203 202 201 200 199 198 197 196 195 194 193 192 191 190 189 188 187 186 185 184 183 182 181 180 179 178 177 176 175 174 173 172 171 170 169 168 167 166 165 164 163 162 161 160 159 158 157 156 155 154 153 152 151 150 149 148 147 146 145 144 143 142 141 140 139 138 137 136 135 134 133 132 131 130 129 128 127 126 125 124 123 122 121 120 119 118 117 116 115 114 113 112 111 110 109 108 107 106 105 104 103 102 101 100 99 98 97 96 95 94 93 92 91 90 89 88 87 86 85 84 83 82 81 80 79 78 77 76 75 74 73 72 71 70 69 68 67 66 65 64 63 62 61 60 59 58 57 56 55 54 53 52 51 50 49 48 47 46 45 44 43 42 41 40 39 38 37 36 35 34 33 32 31 30 29 28 27 26 25 24 23 22 21 20 19 18 17 16 15 14 13 12 11 10 9 8 7 6 5 4 3 2 1 0 

CELL_DATA 1
FIELD FieldData 2
LengthArray 1 1 double
551.66367558 
TortuosityArray 1 1 double
0.0068312713542 
POINT_DATA 239
FIELD FieldData 8
RadiusArray 1 239 double
53.130968111 55.557806291 59.87248525 66.645701741 67.313253345 68.89156291 69.547514305 71.088432001 72.589352238 
72.75827453 73.807169473 74.012706707 74.90793127 75.556347762 76.955452698 77.022107313 76.618592353 76.540268956 
75.52653455 74.997586377 74.818650662 74.725654204 74.513918871 73.517016351 72.945658446 72.889047289 72.842958879 
72.680639127 72.55398508 72.02117498 71.502250683 70.687412808 70.006874331 69.534909484 69.158416845 69.066820526 
68.538238553 67.888309677 66.792952801 66.752064369 66.110913162 65.234620312 65.075054161 64.409922563 64.166050363 
63.415348664 63.340935413 62.280428839 60.928684402 60.583001566 60.497856249 60.304775017 59.902851196 59.215746967 
59.187531452 58.726484049 58.653417706 58.457592347 58.403883218 57.510791069 57.443252615 57.10839733 56.852734711 
56.739630945 56.715442118 56.656684647 56.651840779 56.704900104 56.739397532 56.747585708 56.764901615 56.843130164 
56.917714781 57.036409675 57.113875743 57.178142456 57.239005504 57.256291723 57.358633743 57.664334059 57.682078402 
57.808083112 57.817677688 57.853406147 57.950835716 58.063176415 58.09683346 58.274339663 58.521039373 58.644469747 
58.663068112 58.774288856 59.180923263 59.245253601 59.355891824 59.545042659 59.670464223 59.696191315 59.787781723 
59.844006534 59.889131841 60.130632787 60.169239737 60.325335451 60.36099331 60.456639629 60.820505647 60.837477752 
60.902274341 61.001761031 61.205429004 61.336550826 61.401255596 61.514173458 61.5217569 61.562590712 61.600080412 
61.614981375 61.625510253 61.652567413 61.703874361 61.721431992 61.743460273 61.748149401 61.750699036 61.780320747 
61.784750687 61.796776906 61.848455281 61.856508204 61.859657799 61.857917994 61.825919973 61.816358713 61.806857657 
61.794244949 61.781834757 61.777875368 61.772264495 61.703578892 61.658167218 61.635464825 61.59857244 61.57398944 
61.569497181 61.384059731 61.381420403 61.340959124 61.327648055 61.188653511 61.073432403 61.013191901 60.887050939 
60.819090943 60.651607852 60.60482921 60.50750874 60.300290292 60.227791837 60.040340081 59.849750431 59.701185998 
59.630140569 59.541058247 59.374387263 59.204621028 59.184001699 59.070487185 58.954159221 58.901888432 58.782569153 
58.760785262 58.327255903 57.674072073 57.66045706 57.07824171 56.831352273 56.714461454 56.629205344 55.99515903 
55.547806082 55.266971004 55.136787266 54.567488142 54.396219404 53.678938961 53.596479387 53.341018898 52.625041751 
52.452158335 52.04615033 51.965005565 51.351174528 50.667618845 50.588084639 49.614324515 49.304513256 48.386244421 
48.174446866 47.565572566 47.162919477 46.431186066 45.658052305 45.504922078 45.127785122 44.46299609 44.412935403 
43.997836699 43.478675804 43.168243943 43.16119296 42.849799227 42.517598822 42.489338656 42.405269636 42.366853669 
42.13998065 41.865502077 41.456281188 41.160968103 40.907415274 40.78968626 40.70228224 40.427894708 40.394883493 
40.005558838 39.947348561 39.930804665 39.693008942 39.359427385 39.17242035 38.665966575 38.050989711 37.174374453 
37.078057505 36.89424311 36.612897453 30.61002159 29.703361066 
EdgeArray 2 239 int
53520 53520 53715 53715 50727 50727 53623 53725 46830 
46830 47194 47194 45708 45708 46452 46456 43651 43651 
42967 44324 42473 42473 40477 42472 38720 38720 38166 
38166 36569 36569 41794 41794 36680 36686 36260 36260 
35397 35397 34670 34670 35196 35196 35065 35065 34994 
34994 33536 33536 34538 34538 34839 34583 34839 33864 
33864 34566 33313 34566 33299 33299 34251 34251 31900 
31900 32172 32726 31774 33741 31774 32489 32489 32489 
32731 32731 32327 31770 21094 21094 31907 31907 29957 
31579 29980 29980 31358 31293 30542 30889 30345 30299 
28042 28042 21678 29379 20215 20215 28308 28308 29174 
29176 28603 27933 29145 28603 27158 27158 26542 27531 
27537 27538 25638 25638 23528 26802 26533 26672 26533 
25662 24438 24438 25476 26484 25024 25024 25184 26044 
24074 24074 25670 25670 24652 22332 25837 25837 25197 
25197 25397 22809 22809 22809 25196 25196 23426 23426 
25175 25176 25176 25176 24456 24702 24702 24702 21685 
21685 24625 24625 24844 24844 24846 24846 24838 24843 
24838 24838 24455 23993 23994 23993 23994 23994 23925 
23925 23924 22841 23070 23070 23908 23908 23039 23039 
23472 23919 23919 22287 22287 22287 23199 23199 23217 
23217 23455 23455 23182 23464 23182 23182 23185 23186 
23186 23186 23165 20938 20938 20938 21836 22041 22041 
22041 21895 21895 21814 21814 21831 21831 21904 21824 
21824 21824 21798 19258 19258 20984 20967 20896 20200 
20685 20690 20907 20907 20198 20198 20198 20378 20378 
20414 20206 20201 20206 18558 20201 19251 19251 19249 
19579 19249 19249 19254 18954 18366 18954 19227 19227 
17618 18700 18458 18458 18062 17903 18679 17387 17913 
17387 17609 17913 17619 17754 17619 17615 17615 17367 
17172 16957 16967 16957 16966 16967 16966 16966 16972 
16972 16449 16449 16322 16322 16471 16040 16235 16235 
16091 16091 16033 16033 15830 16032 15679 15679 15686 
15686 15243 15243 15470 15380 15387 15387 15224 15224 
14847 14847 14894 14894 14890 14890 14889 14889 14575 
14576 14574 14576 14344 14344 13850 14146 14148 13960 
13874 13960 14012 13874 14024 13801 13612 13867 13612 
13421 13750 13813 13193 13748 13496 13496 13438 13438 
13261 13261 13340 13340 12943 12943 12750 12750 12777 
12777 12601 12601 12600 12600 12375 12375 11561 11561 
11576 11576 11505 11505 11356 11356 11314 11314 11007 
11007 10874 10874 10209 10209 10410 10410 9902 9902 
10343 10343 9771 9771 9629 9629 9790 9790 6503 
6503 9019 9019 9214 9214 9215 9215 9031 9031 
8776 9115 9112 9112 8106 8106 4980 4980 6082 
6082 8182 7332 7393 7393 7044 7044 7643 7643 
7582 7582 7024 7024 7275 7275 7274 7034 7033 
7033 6112 6787 6787 6788 6536 6535 6536 6373 
6501 6501 6021 6127 6051 6051 5118 5118 5789 
5593 5210 5593 5210 4509 5337 5386 5338 5337 
4969 4969 4949 4950 4951 4950 4262 4951 4710 
4710 4549 4549 3944 3944 4117 4117 3647 3960 
2738 3960 3387 3387 3677 3385 3196 3196 2656 
2656 
EdgePCoordArray 1 239 double
0 0 0 0.088 0 0 0 0.62 0 
0.96 0 0.876 0 0 0 0 0.032 0 
0 0 0 0 0 0 0 0.528 0.804 
0.524 0.952 0 0 0 0.872 0.284 0.768 0 
0 0.052 0 0 0.86 0 0.02 0.096 0.108 
0 0.048 0 0 0.036 0.848 0.036 0 0.22 
0.476 0 0.048 0.076 0.224 0 0.016 0 0.388 
0 0 0.604 0 0 0.708 0 0 0 
0.088 0 0.224 0 0 0 0 0 0.948 
0 0.116 0.904 0 0 0.032 0 0 0 
0.052 0.088 0 0 0 0 0.236 0 0.132 
0 0.064 0 0.004 0 0 0 0 0.072 
0 0.112 0.448 0.328 0.3 0.936 0.132 0 0 
0.932 0.84 0.984 0 0.68 0 0.564 0.948 0 
0.432 0 0.248 0.696 0.66 0.536 0.68 0.812 0.672 
0.348 0.14 0.6 0 0 0 0 0.46 0 
0 0 0.864 0 0 0 0.816 0 0 
0 0 0 0 0.12 0.096 0 0.648 0.692 
0.496 0.54 0.98 0.176 0.34 0.212 0.552 0 0 
0 0 0 0 0 0 0 0 0 
0 0 0 0 0 0 0 0 0 
0 0 0 0 0 0 0 0 0 
0.94 0 0 0 0 0.348 0 0 0 
0 0 0 0.008 0 0.848 0.26 0.168 0.22 
0 0.644 0 0 0.468 0.26 0.144 0.188 0.724 
0 0.948 0.856 0.852 0 0 0 0 0.664 
0.528 0 0.936 0 0 
CurvatureArray 1 239 double
0 1.4722376357e-05 5.8646374597e-05 0.0001015830453 0.00014249612998 0.00018096566787 0.00021778175432 0.0002550868219 0.00029641978342 
0.00034577665455 0.00040707918063 0.00048211432271 0.00057172664295 0.00067501977016 0.0007896754006 0.00091346545247 0.0010433668999 0.0011758905143 
0.0013084715164 0.0014375591457 0.0015605358775 0.0016744282516 0.0017769117187 0.001865527919 0.0019386769981 0.0019949069727 0.0020335615301 
0.0020542410916 0.0020574156975 0.0020436644633 0.0020143617681 0.0019711012664 0.0019156092719 0.001849751269 0.0017755233813 0.0016948425862 
0.0016094289459 0.0015211880227 0.0014317233697 0.0013429772344 0.0012566138293 0.0011746868509 0.0010992164757 0.0010324382564 0.00097665484529 
0.00093401968247 0.0009063905493 0.00089483493766 0.00089977871398 0.0009201922833 0.00095489946166 0.0010018704285 0.0010589989846 0.0011245558705 
0.0011968596599 0.0012747619712 0.0013572263315 0.0014436517856 0.001533419468 0.0016263928695 0.0017222148361 0.0018208134936 0.0019220451111 
0.0020256471297 0.0021313722818 0.0022386435108 0.0023466873982 0.0024549378735 0.0025614094703 0.0026645247678 0.0027615913652 0.0028494888597 
0.0029251363338 0.0029840805447 0.0030225916546 0.0030363353563 0.0030216495175 0.0029761491034 0.0028981594681 0.0027878270831 0.0026473380003 
0.0024797906502 0.0022915131621 0.0020900630538 0.0018827431652 0.0016823396035 0.0015015152651 0.0013550363338 0.0012611838695 0.0012318120718 
0.0012704756055 0.0013694778484 0.0015141324114 0.0016899888912 0.0018862239515 0.0020941732535 0.002309543033 0.0025276618788 0.0027452954048 
0.002963062106 0.0031761428032 0.0033851440751 0.0035887494348 0.0037839890732 0.0039720599079 0.0041511357622 0.0043183880523 0.0044750726615 
0.0046163860984 0.0047433896773 0.0048514961516 0.0049403193986 0.0050071190206 0.0050496431237 0.0050676358502 0.0050617129133 0.0050307798097 
0.0049806661683 0.0049168769212 0.0048467820046 0.0047818761341 0.0047324550852 0.0047103525763 0.0047214120119 0.0047720437812 0.0048585401887 
0.004971066461 0.0050980958691 0.0052283694853 0.0053392369589 0.0054269811308 0.0054738571234 0.0054772465067 0.0054279592662 0.0053297616955 
0.0051778939684 0.0049815389646 0.0047409591796 0.0044644557024 0.0041562100495 0.0038266595968 0.0034779849837 0.0031230904794 0.0027612463019 
0.0024051263936 0.0020559361171 0.0017218352191 0.0014041357297 0.0011086141239 0.00084527838287 0.00061567663609 0.00044825942828 0.00037325024986 
0.00040793234149 0.00050586425346 0.00061998589343 0.00073075845304 0.00083255013962 0.00092023774026 0.00099399937577 0.0010548861732 0.0011017622648 
0.0011360815865 0.0011574456742 0.0011670906339 0.0011644556532 0.0011519671914 0.0011291911771 0.0010971540333 0.0010589849839 0.001013664132 
0.00096357457019 0.00091066195082 0.00085545335989 0.00079974827028 0.00074560581586 0.00069330632126 0.00064346912152 0.00059830220537 0.00055772250722 
0.00052207544893 0.00049255650057 0.00046894873911 0.00045136187692 0.00043951228368 0.000433754571 0.00043281331101 0.00043697295895 0.00044499629275 
0.00045672641672 0.00047055714109 0.00048720981623 0.00050442028899 0.00052210221863 0.00053927223162 0.00055618296176 0.00057181003718 0.0005857143216 
0.00059887343463 0.00061155704225 0.00062482435113 0.00064175765756 0.00066532727553 0.00069796643796 0.00074587108233 0.00081171245126 0.00090082314896 
0.0010142866469 0.0011544990249 0.0013225205923 0.0015157360153 0.0017344858445 0.0019761799892 0.0022381021693 0.0025146871671 0.0028029002439 
0.0030941536349 0.003382450918 0.0036577156335 0.0039129014814 0.0041380069591 0.0043269959952 0.004468589613 0.0045595036193 0.0045961922297 
0.0045720995555 0.0044933752252 0.0043564268734 0.0041632412801 0.0039228024268 0.0036381066755 0.0033137693521 0.0029537490601 0.0025622924344 
0.0021503118402 0.0017147087763 0.0012646182271 0.00079846496792 0 
TorsionArray 1 239 double
0 0 -0.0054930331175 -0.0096188512184 -0.01543053939 -0.02213580561 -0.028375858902 -0.033721612503 -0.037171024749 
-0.03788720322 -0.035696110919 -0.031685005273 -0.027098132598 -0.022585572063 -0.018682223668 -0.015487963867 -0.012922902522 -0.010948023426 
-0.0094330703157 -0.0082908235114 -0.0074586828763 -0.0068725343353 -0.0064689291087 -0.00621846822 -0.0060888616631 -0.006033233799 -0.0060138079753 
-0.0060075798968 -0.0059647645311 -0.0058425010715 -0.0056146616564 -0.0052282127293 -0.0046545847112 -0.0038610424384 -0.0028186984312 -0.0015083632529 
9.6085151338e-05 0.0020061787305 0.0042366609959 0.0067996112644 0.0097207556985 0.012967620019 0.01648125855 0.020142824685 0.023706191797 
0.026833143703 0.029112441158 0.030214147757 0.03002087016 0.028677599735 0.0265176506 0.023952560492 0.021283610055 0.018760475963 
0.016510855372 0.014577358988 0.012970939788 0.011670429092 0.010682730821 0.009948140569 0.009449092247 0.0091986117555 0.009125126599 
0.0092363726968 0.0095178215666 0.0099219473268 0.010448688803 0.011031789213 0.011686426958 0.01234515774 0.012976341854 0.013617913114 
0.014178208895 0.014716947695 0.015251291997 0.015821730419 0.016483752821 0.017387667341 0.018694909833 0.020541991417 0.023311459146 
0.027389894378 0.033347280976 0.041788685815 0.053489788018 0.069592912819 0.090068682272 0.11258257329 0.13074954057 0.13554306633 
0.12352665984 0.10108021283 0.076866752876 0.056017314191 0.039321652021 0.026675576079 0.017028649907 0.0098058829321 0.0043808623074 
7.9846943788e-05 -0.0031989846265 -0.0055179245006 -0.0073336365455 -0.0085025324816 -0.0090387833683 -0.0090433234935 -0.0086151892713 -0.0074854311938 
-0.0057407786266 -0.0034037346539 -0.00045642411436 0.0031473414688 0.0077236734363 0.012879747491 0.019061655743 0.026095336554 0.033931477228 
0.042742715696 0.052450179052 0.062297850082 0.071882187882 0.080550384506 0.086768912718 0.090301313792 0.090422799175 0.08717458421 
0.081356627955 0.074091936959 0.066068304922 0.058110108026 0.050661502552 0.043933207324 0.037855980535 0.032669768672 0.028169589864 
0.024253591264 0.020858737691 0.017860504211 0.015260741256 0.012860118962 0.010482891313 0.0082600826828 0.005732491211 0.0028468636512 
-0.00079729318892 -0.0060091099582 -0.013508959491 -0.024806318604 -0.044774858793 -0.08124125049 -0.15039333679 -0.26861848899 -0.35254679101 
-0.25322966146 -0.13528430239 -0.06854847908 -0.033690071884 -0.014833157497 -0.0034943283896 0.002621260388 0.006639302635 0.0085941169361 
0.0094839893217 0.0097435352386 0.0093440556867 0.0083270262421 0.0071809034339 0.0064483531314 0.0047375266999 0.0034116204102 0.0019156901723 
9.7414057766e-05 -0.0011867853402 -0.002791198035 -0.0045677200585 -0.0064735085625 -0.0083214173491 -0.010097747252 -0.012246568676 -0.014194244816 
-0.015803814435 -0.017179593547 -0.017953134096 -0.018449162644 -0.017898146661 -0.016328042273 -0.014852099326 -0.012785476462 -0.0101658772 
-0.0074352916287 -0.0047015877718 -0.0022776111593 0.00029495928351 0.0032610053757 0.0059351655908 0.0087213733804 0.012403271352 0.01627823605 
0.02099145779 0.026294130581 0.032033183378 0.038242278848 0.044054536294 0.048396594626 0.049879015832 0.049102893113 0.045130244231 
0.038941683896 0.031944290338 0.024578365888 0.018019446267 0.012050758587 0.0070428826286 0.0028030659447 -0.00053033503663 -0.0029892617797 
-0.0050474549392 -0.0064722386889 -0.0074165511825 -0.0080051376553 -0.0083153256631 -0.0083995364163 -0.0082498905739 -0.0079657068155 -0.007581704081 
-0.0071845958693 -0.0066765959696 -0.0060858587184 -0.0055978479514 -0.0050680263987 -0.0045060812171 -0.003998853678 -0.0034540364108 -0.0030164287497 
-0.0025571335844 -0.0020314134113 -0.0017011101957 0 0 
TangentArray 3 239 double
0.054915318899 -0.12075568136 0.99116213264 0.054915318899 -0.12075568136 0.99116213264 0.055056102357 -0.12071348169 0.99115946292 
0.055361930684 -0.12061564569 0.99115433846 0.055822581677 -0.12045047418 0.99114858757 0.056419439362 -0.1201959272 0.9911456936 
0.05712577513 -0.11981985299 0.99115076989 0.057908748656 -0.11928313625 0.9911700713 0.058730793463 -0.11854142503 0.99121068621 
0.059550891007 -0.1175465367 0.99128023439 0.060326380496 -0.1162490486 0.99138634574 0.061015050438 -0.11460157927 0.99153600119 
0.061576720945 -0.11256111536 0.99173499623 0.061973598007 -0.1100894679 0.99198769257 0.062172365263 -0.10715676479 0.99229633918 
0.062144390098 -0.10374206757 0.99266089789 0.061865810589 -0.099833844994 0.99307896205 0.06131852478 -0.095432217773 0.99354553511 
0.060489366209 -0.090547958362 0.99405337071 0.059370169472 -0.085202629762 0.99459323085 0.057957680973 -0.079428531102 0.99515426727 
0.056252787638 -0.073267537907 0.99572460639 0.054260332051 -0.066770253656 0.99629189979 0.05198924306 -0.059994647957 0.99684389993 
0.049452102013 -0.053004369255 0.99736905228 0.04666477858 -0.04586662331 0.99785702949 0.043646740257 -0.03864989161 0.99829912749 
0.040421186158 -0.031421705894 0.99868854209 0.037014657654 -0.024246385508 0.99902053428 0.033457431279 -0.017182966566 0.99929242264 
0.029783558094 -0.010283315711 0.99950347327 0.026030002066 -0.0035904283813 0.9996547143 0.022236829932 0.0028622949085 0.99974863374 
0.018446425239 0.0090513259809 0.99978887916 0.014702718864 0.014962961999 0.9997799457 0.011050212433 0.020592841565 0.99972687654 
0.0075332045883 0.025944459308 0.99963500132 0.004194827976 0.03102808919 0.99950971036 0.0010760538808 0.035859133512 0.99935627514 
-0.001785230125 0.040456650623 0.99917969974 -0.0043549083011 0.044841907433 0.99898460354 -0.0066027889182 0.049037174607 0.99877512919 
-0.0085034536483 0.053064711531 0.99855486963 -0.010036353417 0.05694578097 0.99832682506 -0.01118578711 0.060700376764 0.99809335356 
-0.011940914415 0.06434670617 0.99785615996 -0.012295485692 0.067901057108 0.99761629271 -0.012247704758 0.071377633697 0.99737416607 
-0.011799907023 0.074788874162 0.99712957357 -0.010958025523 0.078145147558 0.99688176711 -0.0097312700517 0.081455094649 0.99662950485 
-0.0081314683088 0.08472611102 0.9963710982 -0.0061726462902 0.087963661388 0.99610455913 -0.0038708141885 0.091172000024 0.9958276373 
-0.0012431584882 0.094354070148 0.99553792695 0.0016924542536 0.097511421942 0.99523296679 0.0049178357537 0.10064431649 0.99491031578 
0.0084148883784 0.10375162941 0.99456763925 0.012165810301 0.10683086496 0.99420277577 0.016153756626 0.10987786196 0.9938138214 
0.020362746304 0.11288713725 0.99339914073 0.024777613469 0.11585177877 0.99295741864 0.029384547002 0.11876309935 0.99248772014 
0.034170340259 0.12161121736 0.9919894655 0.039122388506 0.12438492202 0.99146247024 0.044228409369 0.12707163776 0.99090698185 
0.049475600589 0.1296579878 0.99032366989 0.054850905645 0.13213005209 0.98971360882 0.060339626869 0.13447391061 0.9890783067 
0.065924749482 0.13667548519 0.98841981928 0.071586530689 0.13872153391 0.9877407072 0.077301309452 0.14060012114 0.98704412946 
0.083042060903 0.14230052584 0.98633390719 0.088777454643 0.14381446883 0.98561450989 0.094472000026 0.14513581007 0.98489118071 
0.10008677063 0.1462607546 0.98416991928 0.10557965021 0.14718790092 0.98345750253 0.11090710091 0.14791830137 0.98276130932 
0.116025548 0.1484546589 0.98208924567 0.12089278895 0.14880067725 0.98144958711 0.12547002515 0.14896110167 0.98085058137 
0.12972296391 0.14894012695 0.98030035765 0.13362343879 0.14874091888 0.97980657053 0.13715098769 0.14836476427 0.97937607858 
0.14029131096 0.14781145883 0.97901487257 0.14303767104 0.14707943802 0.9787276759 0.14539101499 0.14616360251 0.97851809082 
0.14735747244 0.14505691251 0.97838860758 0.14894887274 0.14375029226 0.9783404759 0.15018116128 0.14223238599 0.97837394036 
0.15107305503 0.14049172899 0.97848812263 0.1516468297 0.13851619424 0.97868100164 0.15192667377 0.13629324604 0.97894966003 
0.15193805075 0.13381071812 0.97929031469 0.15170674756 0.13105723762 0.97969845525 0.15126007783 0.12802298691 0.98016860982 
0.15062582047 0.12469981414 0.98069455926 0.14983234771 0.12108151195 0.98126934888 0.14890811964 0.11716563373 0.98188522047 
0.14788023778 0.11295114949 0.98253420963 0.14677633271 0.10844017124 0.98320772852 0.14562287903 0.10363887809 0.98389682388 
0.14444307352 0.098555524501 0.98459281284 0.14325897965 0.093202695378 0.98528682236 0.14208907563 0.087595732462 0.98597042666 
0.14094670466 0.081752009544 0.98663601971 0.13984086544 0.075693261824 0.98727658863 0.13877569603 0.069443063633 0.98788611039 
0.13774824106 0.063028116622 0.98845985179 0.13674852731 0.056478027004 0.98899447559 0.1357601654 0.049824591619 0.98948809369 
0.1347603699 0.043102740583 0.98994029944 0.13372030732 0.036349200335 0.99035226816 0.13260321988 0.029604497103 0.99072698552 
0.13136936648 0.022911242273 0.99106869819 0.12997353032 0.016313850526 0.99138324562 0.12836875623 0.0098600992942 0.99167748833 
0.12650865309 0.0035993445992 0.99195897365 0.1243467988 -0.0024192963886 0.99223586945 0.12183886396 -0.0081454453801 0.99251646986 
0.11894738525 -0.013531083621 0.99280835478 0.1156422253 -0.018530872744 0.9931180607 0.11190092215 -0.023103311132 0.99345076407 
0.10771407906 -0.027213646846 0.99380938544 0.10308207466 -0.030833834035 0.99419483028 0.098016433087 -0.033944948275 0.99460571049 
0.092542773175 -0.036537351584 0.9950381184 0.086698793508 -0.038611926415 0.99548603121 0.080529791207 -0.040179736388 0.99594203723 
0.07409270217 -0.041261030443 0.9963974101 0.067450582769 -0.041885445616 0.99684303094 0.060670040112 -0.042089630526 0.99727007838 
0.053821725145 -0.041916275157 0.9976704104 0.046977011371 -0.04141354728 0.99803711279 0.040205667201 -0.040631506452 0.99836495582 
0.033574788662 -0.039621507061 0.99865052433 0.027146714262 -0.038435103704 0.99889228584 0.020976998752 -0.037122068971 0.99909054521 
0.015115588895 -0.03573022729 0.99924715152 0.0096051361726 -0.034303493168 0.99936530444 0.0044794625551 -0.032882146049 0.99944919775 
-0.00023493330326 -0.031502933305 0.99950363181 -0.0045204081323 -0.03019698338 0.99953374536 -0.0083666358901 -0.028992010452 0.99954462768 
-0.011770624947 -0.027911147583 0.99954110482 -0.014738007774 -0.026972995037 0.99952751271 -0.017280558852 -0.026193352355 0.99950752402 
-0.019415534745 -0.025583949342 0.99948411621 -0.021163351515 -0.025152485814 0.99945958648 -0.022552790477 -0.024904976302 0.99943539751 
-0.023613195922 -0.024845479735 0.99941238691 -0.024376611579 -0.024974146989 0.99939085086 -0.024878225083 -0.025290065523 0.99937054514 
-0.025150711209 -0.025791030656 0.99935092158 -0.02523009357 -0.026472626841 0.99933109749 -0.025149231655 -0.027328653989 0.99931009242 
-0.024939510861 -0.028351429914 0.99928685432 -0.024630647534 -0.029533025972 0.99926029221 -0.024248736987 -0.030863285289 0.9992294313 
-0.023818497848 -0.03232964504 0.99919341131 -0.023359193257 -0.033919093989 0.99915156165 -0.022888105731 -0.035617349077 0.99910336756 
-0.022418382733 -0.037408439644 0.99904855976 -0.021960111994 -0.039275500138 0.99898708128 -0.021520916394 -0.041200971509 0.99891908086 
-0.021105576035 -0.043166252433 0.99884494758 -0.02071552051 -0.045152951005 0.99876527684 -0.020350802729 -0.047143254459 0.99868080906 
-0.020012098228 -0.049119268612 0.99859241604 -0.01969556245 -0.051065258562 0.99850108873 -0.019398414837 -0.052966860906 0.99840783909 
-0.01911688971 -0.054810165419 0.99831377347 -0.018846063242 -0.056584550291 0.99821992295 -0.018582858428 -0.058281519536 0.99812721727 
-0.018323442121 -0.059894338644 0.99803653223 -0.018063606332 -0.061419752627 0.99794855585 -0.017799254274 -0.062856699371 0.99786382933 
-0.017527166855 -0.064205120455 0.99778279246 -0.017244540486 -0.065468014521 0.99770565043 -0.016947597241 -0.066650474373 0.99763244395 
-0.016633535272 -0.067758284805 0.99756310093 -0.016299823782 -0.068799141637 0.99749736534 -0.015943788496 -0.069782115578 0.99743483594 
-0.015563183935 -0.070716597429 0.99737502984 -0.015155323816 -0.071612028315 0.99731741866 -0.014718261516 -0.072478719525 0.99726135391 
-0.014251021081 -0.073326953908 0.99720613026 -0.013751794312 -0.074165905889 0.99715109515 -0.013219472826 -0.075004524646 0.99709556554 
-0.012654297418 -0.075851231016 0.99703884554 -0.012057584953 -0.076713254679 0.99698028627 -0.011431402053 -0.077597425807 0.99691923572 
-0.010778503227 -0.078509094986 0.99685512783 -0.010103989151 -0.079452045411 0.9967874808 -0.0094151028517 -0.080429970312 0.99671579486 
-0.0087196044896 -0.081445669083 0.99663963973 -0.0080265722021 -0.082501321639 0.99655863152 -0.0073487439041 -0.083598859778 0.99647239129 
-0.0066996483578 -0.084740315376 0.99638054661 -0.0060950001809 -0.085928900669 0.99628262807 -0.0055524171753 -0.087168157453 0.99617813818 
-0.0050903097389 -0.088463606021 0.99606640299 -0.0047288814942 -0.08982419943 0.99594640964 -0.0044901343323 -0.091260073546 0.99581696996 
-0.0043962632621 -0.092784956112 0.99567646592 -0.0044682626793 -0.094416565071 0.99552275055 -0.0047289588151 -0.096176648921 0.99535304749 
-0.0051996964142 -0.098091551445 0.99516381098 -0.0058990573929 -0.10019133621 0.99495070092 -0.0068448586554 -0.10251148225 0.99470827076 
-0.0080502699177 -0.10508998079 0.99443013284 -0.0095255572607 -0.10796636974 0.99410891092 -0.011276232088 -0.11118296837 0.99373597808 
-0.013302419408 -0.11478160414 0.99330168075 -0.015597349936 -0.11880113306 0.99279555471 -0.018148515664 -0.1232762727 0.99220642609 
-0.020938818585 -0.12823367264 0.99152291505 -0.023942540735 -0.1336907565 0.9907338373 -0.027128988362 -0.13965228074 0.98982890364 
-0.030463067124 -0.14610853917 0.98879942168 -0.033905972433 -0.15303507139 0.98763892793 -0.037416495699 -0.16039230687 0.98634391251 
-0.040951251171 -0.1681236592 0.98491493554 -0.044467257 -0.17615609177 0.98335735843 -0.047924240681 -0.18440650541 0.98168096035 
-0.0512830793 -0.19277796967 0.97990137268 -0.05450798636 -0.20116794559 0.97803902636 -0.057568942176 -0.20947017502 0.97611887733 
-0.060439256618 -0.21757063354 0.97417150219 -0.063096244292 -0.22536074656 0.9722301157 -0.065523372988 -0.23273814563 0.97032965695 
-0.067707785773 -0.23960342439 0.9685070236 -0.069638926147 -0.24586263748 0.96679986732 -0.071309281217 -0.25142774521 0.96524560364 
-0.072713959119 -0.2562255557 0.96387817942 -0.073850348468 -0.26019106788 0.96272879578 -0.074716580407 -0.26326708129 0.96182528378 
-0.075310681927 -0.2654072831 0.96119055097 -0.075310681927 -0.2654072831 0.96119055097 
NormalArray 3 239 double
-0.96257196528 -0.27025698643 0.020405218514 -0.96257196528 -0.27025698643 0.020405218514 -0.95647085678 -0.29129347234 0.01765256632 
-0.94985077659 -0.31234138069 0.015045402082 -0.93471845242 -0.35526289089 0.0094706420464 -0.9070841998 -0.42094882235 0.00058603694964 
-0.86037978988 -0.50951199427 -0.012006034004 -0.79131194099 -0.61080394195 -0.027275566841 -0.6960485662 -0.71661684019 -0.044460070361 
-0.57966490224 -0.81252879555 -0.061526884483 -0.4515644323 -0.888930754 -0.076757267219 -0.32598071569 -0.94120375346 -0.088724672271 
-0.21131513319 -0.97256642004 -0.097264963306 -0.1119658934 -0.98839126889 -0.10269536645 -0.028854984991 -0.99399712128 -0.1055325198 
0.040217374856 -0.99351518828 -0.10634911101 0.097441607144 -0.98962761225 -0.10555719903 0.14518454925 -0.98397898707 -0.10347366651 
0.18570334103 -0.97746950436 -0.10033761599 0.22060297822 -0.97059655648 -0.096315370225 0.25133847981 -0.96356033645 -0.091544779114 
0.27904367449 -0.95640719575 -0.086138862574 0.30459557912 -0.94909960581 -0.080196455181 0.32860492454 -0.94157920169 -0.073806574958 
0.35165410504 -0.9337251302 -0.067057972279 0.37409550569 -0.9254450922 -0.060032773843 0.39612488452 -0.91667677095 -0.052808838885 
0.41780924759 -0.90739673161 -0.045459917373 0.43916608489 -0.8975994988 -0.038056400706 0.45992626295 -0.88742768845 -0.030658284744 
0.47982015523 -0.87705685773 -0.023321383722 0.49843817957 -0.86677588146 -0.016091999906 0.51519145492 -0.85702781002 -0.0090054220876 
0.52953018663 -0.84828851951 -0.0020902443776 0.5406835528 -0.84121327833 0.0046385447772 0.54794510391 -0.83643967588 0.011172811481 
0.55039707593 -0.83471925326 0.017516479414 0.54710649457 -0.83672803495 0.023678663871 0.53693874952 -0.84309917868 0.029674132965 
0.51865853536 -0.85424353453 0.035514889939 0.49073810236 -0.8703322092 0.041206316544 0.45141776123 -0.89108804843 0.046734299892 
0.39903236104 -0.91545851573 0.052046909812 0.33197045632 -0.94156330243 0.057045277141 0.2494922329 -0.96641748373 0.061570064721 
0.15231954843 -0.98616406827 0.065415484563 0.043361060516 -0.99671699994 0.068374267473 -0.072148490201 -0.99491222274 0.070315463519 
-0.18760744529 -0.97965592017 0.071258154213 -0.29675633554 -0.95228125483 0.071386896646 -0.39483240213 -0.91600485801 0.071010381826 
-0.47972738475 -0.87458432489 0.070454914547 -0.55118493834 -0.83144102541 0.070007035426 -0.61026249932 -0.78911170016 0.069874219794 
-0.65882067049 -0.74902061777 0.070167216649 -0.69866451637 -0.71192360727 0.070941320623 -0.73157078488 -0.6779321776 0.072195216455 
-0.7589785128 -0.64690766803 0.073905927761 -0.78212511404 -0.61846598339 0.076027188381 -0.8020671749 -0.59205295685 0.078495498179 
-0.81948236027 -0.56731344339 0.081265725566 -0.83505573346 -0.54367319647 0.084269671085 -0.84929675494 -0.52062326123 0.087443935827 
-0.8624677104 -0.49790966802 0.090749165311 -0.87493258524 -0.47501046209 0.094117119509 -0.88681076845 -0.45172814625 0.097510731923 
-0.89822266919 -0.42780637076 0.10088481398 -0.90921866678 -0.40306777802 0.10420068279 -0.9197339676 -0.37755251639 0.10744080326 
-0.92980294094 -0.35106021983 0.11055864087 -0.93925641182 -0.32388500539 0.11356009921 -0.94807328076 -0.29598244696 0.1164106756 
-0.95618098859 -0.26746093568 0.11909057452 -0.96347187062 -0.2386115681 0.12159964673 -0.96997090242 -0.20930609536 0.12388465163 
-0.97562408675 -0.17972223317 0.12592680512 -0.98047548478 -0.14958027238 0.12764625284 -0.98449769269 -0.11885057265 0.12899160617 
-0.98774220261 -0.086702971406 0.12979959912 -0.9901260143 -0.052601741278 0.12993664848 -0.99150693864 -0.015277453681 0.12915335859 
-0.99152140895 0.027029192525 0.12710121303 -0.98940298081 0.076689372619 0.12329023353 -0.98362617274 0.13709798896 0.11697732138 
-0.9713764779 0.21198531981 0.10719124203 -0.94760305296 0.30575235352 0.092541624874 -0.90340049089 0.42286796494 0.071065021507 
-0.82687680638 0.56085833541 0.041384473822 -0.70654197208 0.70766203468 0.0035897584382 -0.54446276607 0.83791300866 -0.03823723675 
-0.36364178063 0.92833883418 -0.077147030633 -0.19559981399 0.97475721464 -0.1076526139 -0.058472602799 0.98995165785 -0.12875041687 
0.043979612935 0.98889680329 -0.1419468425 0.11765798938 0.98172904257 -0.14954826816 0.1676989317 0.97388051555 -0.15308105611 
0.20123142747 0.96737609258 -0.15391363844 0.22128012214 0.96319083418 -0.15263854198 0.23245016717 0.96098374943 -0.14992382434 
0.23612614854 0.9606947453 -0.14597961616 0.23442248619 0.96184341946 -0.14107917779 0.22844507642 0.96410019791 -0.13536489739 
0.21995160086 0.96693634546 -0.12905579066 0.20882010139 0.97029600792 -0.12214672436 0.19700191662 0.97364792447 -0.1148910964 
0.18450250664 0.97695649023 -0.10730722831 0.17280202423 0.97990734697 -0.099604476727 0.1617462015 0.98255420792 -0.09178994939 
0.15337480893 0.98457818861 -0.084154372985 0.14742459069 0.98609511552 -0.076696891744 0.14566092596 0.98687782676 -0.069678186667 
0.14792950663 0.98698216435 -0.063111554563 0.15596021481 0.98610277548 -0.057251441749 0.1704259504 0.98398614475 -0.052213622423 
0.1918552913 0.98024420549 -0.048092045123 0.22195329495 0.97401247802 -0.045126793786 0.26059878162 0.96447466673 -0.04332311458 
0.30899607626 0.95009729689 -0.042855003203 0.36703975254 0.92917670515 -0.043731803848 0.43503075744 0.89923861647 -0.046023371526 
0.51015558638 0.85866122182 -0.049418456282 0.59095538429 0.80490865664 -0.053793942455 0.67245648089 0.73781429474 -0.058586242233 
0.75014735833 0.65823594577 -0.063280174464 0.8196477571 0.5688961143 -0.067340666918 0.87755068742 0.47430331351 -0.070293369576 
0.92244491408 0.37938297999 -0.07186052454 0.95482458215 0.28832223277 -0.071974352429 0.97646656945 0.20373886561 -0.070735517142 
0.98948438752 0.1274986559 -0.068298899027 0.99609085811 0.059945581246 -0.064880888444 0.99815600238 0.00062223505036 -0.060697674953 
0.99713942223 -0.050841928376 -0.055929160163 0.99415011899 -0.095341251625 -0.050750237869 0.98995861399 -0.1338968262 -0.045316470766 
0.98512481832 -0.16717894745 -0.039752884978 0.98003708996 -0.19585629022 -0.034170394703 0.97493858518 -0.22061946045 -0.028667207841 
0.97006854058 -0.24170921038 -0.02331703648 0.96545304775 -0.25994058856 -0.018201730753 0.96138514565 -0.27488235797 -0.013352565225 
0.95785886229 -0.28710370554 -0.0088239558716 0.95508825603 -0.29628528586 -0.0046316926815 0.95333457463 -0.30191486329 -0.00077726955174 
0.95284498743 -0.30344502307 0.0027473428994 0.95419047885 -0.29913970982 0.005997006296 0.95815076085 -0.28612043246 0.0090673927821 
0.96543625337 -0.26035875251 0.012089692864 0.97677649717 -0.21371345397 0.015304710614 0.99190261196 -0.12553273167 0.019254653299 
0.99896930174 0.038177766283 0.024551829737 0.94192682536 0.33435351097 0.03133026289 0.67925262756 0.73304738936 0.035459736568 
0.271295918 0.9619753316 0.03165416659 -0.0095896992206 0.99960972906 0.026237896931 -0.16108634875 0.98667393044 0.022929091497 
-0.23361345298 0.97208627228 0.021749341019 -0.26928620073 0.9628130177 0.021818227475 -0.28170674437 0.95922982496 0.022791513421 
-0.28123792039 0.95932945522 0.024335744899 -0.27410312539 0.96134260577 0.026227294565 -0.26074312912 0.96498957126 0.028427943524 
-0.24676954516 0.96858682366 0.030730385748 -0.23009785261 0.97260169769 0.033180052195 -0.21467500097 0.97603534577 0.035632117162 
-0.19878377335 0.97930167601 0.038121369492 -0.18633833686 0.98164994477 0.04051432019 -0.17389667294 0.98382908107 0.042898559217 
-0.16366903771 0.98547953932 0.045194288099 -0.15707181773 0.98645139279 0.047350752213 -0.15130515657 0.98725017773 0.049435171397 
-0.15025622905 0.98731373159 0.051328949427 -0.15111001382 0.98708970064 0.053100721306 -0.15504670531 0.98639108709 0.054709619668 
-0.16220773752 0.98515814237 0.056143427117 -0.17331294255 0.98319417244 0.05737458685 -0.1882700417 0.98037960475 0.058397105926 
-0.20707271518 0.97653275384 0.059200264331 -0.22944303998 0.97148445294 0.059781678548 -0.2574119157 0.96443348473 0.060059630327 
-0.28771038007 0.9558282178 0.060126161237 -0.3223684956 0.94471774014 0.059891105497 -0.35796123504 0.93184062044 0.059471104795 
-0.39539492889 0.91662581577 0.058821459377 -0.43229003065 0.89986447222 0.058045336003 -0.46662245855 0.88260122203 0.057258746493 
-0.49652748734 0.86617397066 0.056595996977 -0.5242229885 0.84973959288 0.055972159321 -0.54558833809 0.83620237419 0.055668256176 
-0.56273614897 0.82476440966 0.055603014288 -0.57361994164 0.8172089809 0.055943222017 -0.58032793012 0.81241492435 0.056581659681 
-0.5822322489 0.81098134441 0.057574884879 -0.57942750239 0.81289121628 0.058920624269 -0.5704049166 0.81911688112 0.060710511247 
-0.55753476309 0.82777722068 0.062768311105 -0.53793339526 0.84045860009 0.065245718613 -0.51070580984 0.85705138968 0.068135829287 
-0.47552486731 0.87680214384 0.071372971941 -0.4287643222 0.9002955661 0.075026992888 -0.37082934451 0.92534313192 0.078903013012 
-0.29887025672 0.95068564136 0.082905856077 -0.21311530633 0.97316747666 0.086757873353 -0.11476669983 0.98929395015 0.090144799152 
-0.0099984602411 0.99564039519 0.092737448025 0.094193434506 0.99106663785 0.094416715899 0.1929217396 0.97657724427 0.095279002728 
0.2776466645 0.95590744441 0.09567281444 0.34715717599 0.9328805142 0.095999173887 0.40083006399 0.91104038714 0.096647156187 
0.4396389082 0.89282194544 0.097911205382 0.46690115897 0.87864850575 0.099900505946 0.48327751257 0.8694157536 0.10275744854 
0.49207518668 0.86402206187 0.10643254797 0.49360619546 0.86257626254 0.11097348832 0.49062346949 0.86357981571 0.11626914072 
0.48367126012 0.86666308919 0.12229964008 0.47350383534 0.87129156462 0.12901599648 0.46138007189 0.87666532313 0.13633172958 
0.44766832631 0.88249731444 0.14419278631 0.43309902452 0.88834867099 0.15251843727 0.41787954555 0.89407943404 0.16124097199 
0.40251099399 0.899440569 0.17026908869 0.38733431879 0.90429471344 0.17950820799 0.37249609347 0.90861240185 0.18886546416 
0.35822593397 0.91234688482 0.19823557195 0.34441469002 0.91559508702 0.20751905436 0.33162686766 0.91820881623 0.21660145534 
0.31969179142 0.92032677125 0.22537921959 0.30847591152 0.9220643121 0.23375204034 0.29837785929 0.92335814407 0.24162034447 
0.28918693497 0.92434935071 0.24889595112 0.28101071121 0.92507122095 0.25549210623 0.27400402336 0.92554267146 0.26132844945 
0.26755797694 0.92599965834 0.26634068735 0.2627008954 0.92619381126 0.27046859991 0.25838491206 0.92646994013 0.27366162913 
0.25533918777 0.92665702823 0.27587796438 0.25533918777 0.92665702823 0.27587796438 
BinormalArray 3 239 double
0.26540444496 -0.955185441 -0.13107728212 0.26540444496 -0.955185441 -0.13107728212 0.28658737885 -0.9489870222 -0.13149641049 
0.30776380367 -0.94228166061 -0.13185868659 0.3509775692 -0.92697354958 -0.13241897256 0.41715117325 -0.89908566224 -0.132777523 
0.50644176662 -0.85208023714 -0.13219684755 0.60866410184 -0.78274521903 -0.12976106203 0.71558863001 -0.68731960172 -0.12459806456 
0.81267600709 -0.57094637936 -0.11652441545 0.89019677111 -0.4430443243 -0.10611991054 0.94340539357 -0.31780807494 -0.094785499319 
0.97547640767 -0.20357935531 -0.083673318133 0.99177765243 -0.10470438688 -0.073580428799 0.997648228 -0.022071489606 -0.064891158934 
0.99725655553 0.046531216077 -0.057569161809 0.99331654304 0.10329759176 -0.051496144109 0.98750265072 0.15059231325 -0.046480856381 
0.98074222184 0.1906683909 -0.042311452416 0.9735550878 0.22512848869 -0.03882852817 0.96616244793 0.25542628381 -0.035882276317 
0.95862936092 0.28269620409 -0.033355727879 0.95093498702 0.30781759448 -0.031160535681 0.94303548299 0.33140496248 -0.029237453213 
0.93482291372 0.35404507916 -0.027535466358 0.92621539129 0.37609524616 -0.026027192674 0.91715867653 0.39775606027 -0.024699769071 
0.90763514715 0.41909885213 -0.02354977291 0.89764306102 0.44014458141 -0.022576147962 0.88732656499 0.460626577 -0.021788153303 
0.87686119671 0.48027650549 -0.021187731733 0.86653437332 0.49868495078 -0.020772571399 0.85678660597 0.51526220521 -0.020532211536 
0.84809050864 0.52945694931 -0.020440841092 0.8410975721 0.54049637384 -0.020458349789 0.83644130452 0.54767198531 -0.020526582817 
0.83486903742 0.5500642265 -0.020567865448 0.83705249956 0.546738926 -0.020485599279 0.84362054348 0.53656117773 -0.02016137845 
0.85497961183 0.51829648188 -0.019458165866 0.87129624679 0.49041925836 -0.018215415597 0.89228829871 0.45117340951 -0.016252585287 
0.91689741308 0.39889828574 -0.013389978074 0.94323639017 0.33198753824 -0.0094544548271 0.9683121934 0.24970524906 -0.0043341323043 
0.98825916122 0.15277412038 0.0019744395118 0.9989838034 0.044098395267 0.0093108577659 0.99731869986 -0.07109783721 0.017335179669 
0.98217320706 -0.18622809233 0.02559079839 0.95489035967 -0.29504872073 0.033625189924 0.91870162545 -0.39281060023 0.041075001328 
0.87737991517 -0.47741359927 0.047757090381 0.83436027122 -0.54860570134 0.05361643664 0.79218981231 -0.60744579271 0.058693357368 
0.75229899554 -0.65579373556 0.063093563098 0.71544743285 -0.69545402436 0.066922872314 0.68174775511 -0.72820236482 0.070294482504 
0.65106129263 -0.75547737785 0.07330160157 0.6230026477 -0.77851589174 0.076030962609 0.59701532903 -0.79837344127 0.078565546953 
0.5727425423 -0.81572786589 0.080956957952 0.54960712504 -0.83126278685 0.083271767778 0.52709730643 -0.84548610048 0.08556683619 
0.50495726191 -0.85865981291 0.087872005423 0.4826617967 -0.87114490877 0.090244877543 0.46001142243 -0.88305972661 0.092709279355 
0.43674729707 -0.89452250689 0.095295766751 0.41268970683 -0.90558158973 0.098026477141 0.38787698858 -0.91617185327 0.10089884538 
0.36210553492 -0.92632420556 0.10393771104 0.33566763543 -0.93587116598 0.1071092863 0.30851509178 -0.94478886373 0.1104193874 
0.28075244109 -0.9530032572 0.11385455017 0.25266681235 -0.96040716268 0.11737786765 0.22412382666 -0.96701941815 0.12100394722 
0.19529536525 -0.97278348597 0.1247076972 0.16589382512 -0.97773281828 0.12852149567 0.13588196367 -0.98183232657 0.13244385395 
0.104419411 -0.9851110643 0.136575172 0.070960618553 -0.98746717174 0.14097225028 0.034223725905 -0.98872503235 0.14577910339 
-0.0075662562958 -0.98847673788 0.15118363149 -0.056802448557 -0.98589800648 0.1574122062 -0.1169151781 -0.97938349902 0.16473858984 
-0.191692687 -0.96603001859 0.17332027269 -0.28563732018 -0.9406822722 0.18310702906 -0.40339683416 -0.8943259392 0.19352547289 
-0.54273430184 -0.8151051587 0.20259086326 -0.69181838296 -0.69177329968 0.20697107733 -0.82523082538 -0.5269456692 0.20327898699 
-0.91920704274 -0.34416432563 0.19133564628 -0.96888799756 -0.17510464427 0.17491258315 -0.98666065115 -0.03768111205 0.15836948341 
-0.98741107062 0.064635935549 0.14436610909 -0.98139780939 0.13795683181 0.13351498896 -0.9741650051 0.18752828121 0.12583992444 
-0.96789347286 0.22052993415 0.12061829605 -0.96363134814 0.24000559247 0.11752421222 -0.96114166057 0.25056425841 0.11586311198 
-0.96040401772 0.25358951908 0.11539704747 -0.96099053384 0.2511930845 0.11575503521 -0.96260418873 0.2444786112 0.11671925507 
-0.96475773736 0.23520398043 0.11798981225 -0.96740427434 0.22324630924 0.11954101975 -0.97005202924 0.21056283346 0.12108820639 
-0.9726730445 0.197161419 0.12261534721 -0.97497897043 0.18453216922 0.12395114259 -0.97702583 0.17252503998 0.12512249233 
-0.97852010203 0.16319695776 0.12595698832 -0.97957431078 0.15629029276 0.12652080482 -0.97997554671 0.1535892741 0.12672120084 
-0.97977370029 0.15494631652 0.1266299144 -0.97867016446 0.16211123287 0.1261929371 -0.97640738501 0.17576928255 0.12543435656 
-0.97259119714 0.19645959529 0.12437841721 -0.9663558435 0.22590606663 0.12297492747 -0.95687498527 0.26399127955 0.12123888352 
-0.94261178942 0.3119329594 0.11908334598 -0.92185665571 0.3696279178 0.11642812676 -0.89213425633 0.43738262696 0.11310573073 
-0.85181734968 0.51236492456 0.10903846505 -0.79837247542 0.59310931642 0.10403234724 -0.73162863867 0.67460825928 0.098098071259 
-0.65243897642 0.75231965089 0.091315523997 -0.56351720486 0.82183117842 0.083915874635 -0.46935867933 0.8797068303 0.076277931685 
-0.37487493331 0.92451802386 0.068812847206 -0.28424168681 0.95675462331 0.061864806227 -0.20006996644 0.97820042089 0.05564121766 
-0.12422124757 0.99098013104 0.050273865374 -0.057038769977 0.99732248382 0.045765073855 0.0019342063151 0.9991136451 0.042049768373 
0.053067829615 0.99782670048 0.039059970097 0.097255854877 0.99458280894 0.036692435895 0.13551917545 0.99016196686 0.034840098578 
0.16852841274 0.98513011106 0.033419132116 0.1969526801 0.97987910294 0.032350972439 0.22148300309 0.97465327459 0.031563803255 
0.24236036299 0.9696906767 0.031007192385 0.26039998837 0.96501510909 0.030621647277 0.27517001315 0.96091542487 0.030381081539 
0.28723917689 0.95738133858 0.030242814076 0.29628700462 0.95462200455 0.03018011461 0.30179991423 0.95289394932 0.030165097682 
0.30322909212 0.95244006941 0.030166734626 0.29883661289 0.9538280199 0.030146098419 0.28574201961 0.95783558423 0.03004150146 
0.25991513556 0.9651729283 0.029754676604 0.21321300882 0.97657253292 0.029091249938 0.12498231889 0.99177682743 0.02753442444 
-0.038765334517 0.99896204147 0.023918372467 -0.33493228641 0.94211677709 0.015373413322 -0.73348274818 0.679707244 -0.0010585744911 
-0.96216732776 0.27191595048 -0.017197362418 -0.99963567366 -0.008921300052 -0.025474111527 -0.98661983783 -0.16039856502 -0.029216364332 
-0.97200965807 -0.23290443463 -0.030866631584 -0.96274517568 -0.26854961056 -0.03166754444 -0.95919409346 -0.28093700456 -0.031954507355 
-0.95934243693 -0.28043143618 -0.031942108703 -0.96141657191 -0.27325791735 -0.031753517387 -0.96513685829 -0.2598586766 -0.031373762386 
-0.96881484696 -0.24584583314 -0.030945413759 -0.97291969438 -0.22913614453 -0.030395650449 -0.97644840832 -0.21367611884 -0.029849993673 
-0.9798160879 -0.19774959421 -0.029249476525 -0.98226721997 -0.18526898537 -0.028749115359 -0.98455360035 -0.17279424991 -0.028219766649 
-0.98631230451 -0.16253422726 -0.027760816769 -0.98739076808 -0.15590378132 -0.027449627996 -0.98829674243 -0.15010529045 -0.027165247678 
-0.98846224519 -0.14902161314 -0.027109936485 -0.98833728535 -0.1498402868 -0.0271532471 -0.98773235066 -0.1537396754 -0.027366323511 
-0.98658648955 -0.16086050702 -0.027766813363 -0.98470113744 -0.17192100878 -0.028404870538 -0.98195599593 -0.18682843983 -0.029284059282 
-0.97816853816 -0.20557597909 -0.030410981137 -0.97316931581 -0.22788570987 -0.031773983254 -0.96615313724 -0.25578461214 -0.033501456556 
-0.95757300646 -0.28600914829 -0.035393564249 -0.94647391342 -0.32058551056 -0.037577408475 -0.93360031588 -0.35609481103 -0.03983636204 
-0.91837935382 -0.39344157981 -0.042226600182 -0.90160725683 -0.43025068161 -0.044594903382 -0.88433413027 -0.46450179557 -0.046810553897 
-0.86790400547 -0.49433370347 -0.048752711694 -0.85146999153 -0.52195980946 -0.05056491693 -0.83794905029 -0.54326780752 -0.051975748513 
-0.82653971193 -0.56036618323 -0.053121043776 -0.81903283036 -0.57121323347 -0.053857819384 -0.81430265661 -0.57789326887 -0.054318995136 
-0.81295106385 -0.57978063182 -0.054451691971 -0.81496115176 -0.57697074707 -0.054250144263 -0.82130967786 -0.56795999413 -0.053589720191 
-0.83010779809 -0.55511393057 -0.052626681787 -0.84294913038 -0.53555846876 -0.051126217699 -0.85972412538 -0.50840352682 -0.048992674561 
-0.8796767675 -0.4733255534 -0.046170393268 -0.90339581966 -0.42671315621 -0.042330548491 -0.92868442859 -0.36897398355 -0.037462401789 
-0.95428017814 -0.29727260508 -0.03127842502 -0.97701561087 -0.21184115647 -0.023744905448 -0.99338232484 -0.11388186502 -0.014915680198 
-0.99994035005 -0.0095475333217 -0.0053048039863 -0.99554388729 0.094193585691 0.0044650744677 -0.98120275139 0.19247581192 0.013936372851 
-0.96066919012 0.27680138234 0.022264363563 -0.93778840699 0.34597058022 0.029279025643 -0.91612685132 0.39937051595 0.034853741309 
-0.89813853249 0.43797838952 0.039014186769 -0.8842582041 0.46510221064 0.042040006507 -0.87539459242 0.48140896848 0.043928494578 
-0.87045106485 0.49019492037 0.044987595439 -0.8695456552 0.49178092896 0.045187071492 -0.87118266888 0.48890987154 0.044809540806 
-0.87499924458 0.48213194774 0.043876040838 -0.88046628139 0.47220524251 0.042442152173 -0.88678771262 0.46038587262 0.040649735978 
-0.89368063152 0.44704673669 0.038524590264 -0.90070839898 0.43291674219 0.036159014587 -0.90773161852 0.41820601805 0.033571345007 
-0.91449871227 0.40341182192 0.030838404524 -0.92086632501 0.38887029017 0.028019794382 -0.92679551548 0.37472355673 0.025146143444 
-0.93222541588 0.36119221499 0.022270110591 -0.93723390929 0.34816245388 0.01937795111 -0.9416525036 0.33617676241 0.016605627764 
-0.94559201285 0.32505638518 0.013931679698 -0.94913722715 0.31465844699 0.011339566627 -0.9521960621 0.3053566658 0.0089423695918 
-0.95487516063 0.29693177139 0.0067045320913 -0.95717469678 0.28947331423 0.0046690681827 -0.95908121741 0.28311632282 0.0028924311336 
-0.96079415544 0.27725998155 0.0012220900211 -0.96204696642 0.27288391703 -4.7309204505e-05 -0.96314831144 0.26896820249 -0.0011984241288 
-0.96391400051 0.2662061722 -0.0020182926126 -0.96391400051 0.2662061722 -0.0020182926126 
