# vtk DataFile Version 4.1
vtk output
ASCII
DATASET POLYDATA
POINTS 196 float
2.67026 3.00033 237.326 2.71679 3.08466 234.368 2.76332 3.1691 231.409 
2.80988 3.25393 228.447 2.8565 3.33945 225.478 2.90323 3.42593 222.5 
2.95014 3.5136 219.512 2.99731 3.60267 216.51 3.04489 3.6933 213.494 
3.09304 3.78558 210.462 3.14199 3.87956 207.414 3.192 3.9752 204.349 
3.24336 4.07242 201.268 3.29643 4.17107 198.171 3.35158 4.27092 195.061 
3.40922 4.37171 191.938 3.46977 4.4731 188.805 3.53368 4.57472 185.664 
3.60137 4.67617 182.519 3.67328 4.77698 179.371 3.7498 4.87671 176.224 
3.83133 4.97485 173.08 3.91819 5.07092 169.943 4.01069 5.1644 166.815 
4.10907 5.2548 163.698 4.21352 5.34161 160.595 4.32418 5.42435 157.507 
4.44112 5.50252 154.435 4.56435 5.57565 151.381 4.69384 5.64329 148.345 
4.82949 5.70498 145.327 4.97115 5.76029 142.326 5.11862 5.80882 139.342 
5.27166 5.85016 136.374 5.42995 5.88395 133.421 5.59317 5.90985 130.48 
5.76093 5.92754 127.551 5.9328 5.93673 124.631 6.10829 5.93717 121.718 
6.28689 5.92865 118.81 6.46802 5.911 115.906 6.65106 5.88407 113.005 
6.83534 5.84779 110.104 7.02013 5.80211 107.203 7.20463 5.74701 104.301 
7.38803 5.68255 101.397 7.56941 5.6088 98.4916 7.74786 5.52587 95.5847 
7.92238 5.4339 92.6766 8.09196 5.33307 89.7678 8.25555 5.22356 86.8589 
8.41211 5.10556 83.9504 8.56057 4.97929 81.0429 8.69987 4.84494 78.1366 
8.82901 4.70271 75.2315 8.94698 4.55277 72.3273 9.05288 4.39528 69.4233 
9.14583 4.23035 66.5181 9.22506 4.05809 63.6103 9.2899 3.87855 60.6976 
9.33977 3.69174 57.7777 9.3742 3.49764 54.8478 9.39284 3.29621 51.9049 
9.39546 3.08736 48.9458 9.38194 2.87096 45.9677 9.35227 2.64688 42.9675 
9.30655 2.41496 39.9427 9.24497 2.17505 36.8912 9.16782 1.92698 33.8113 
9.07547 1.67061 30.7023 8.96834 1.40582 27.5638 8.84692 1.13249 24.3963 
8.71174 0.850561 21.2012 8.56339 0.560017 17.9804 8.40247 0.260879 14.7368 
8.22961 -0.0467786 11.4737 8.04549 -0.362825 8.19505 7.85077 -0.687075 4.90512 
7.64618 -1.01929 1.60861 7.43244 -1.35917 -1.68959 7.21033 -1.70639 -4.98451 
6.98064 -2.06053 -8.27118 6.7442 -2.42117 -11.5447 6.50191 -2.78781 -14.8004 
6.25468 -3.15994 -18.0337 6.00349 -3.53699 -21.2405 5.74935 -3.91836 -24.4168 
5.49334 -4.30342 -27.5589 5.23655 -4.6915 -30.6635 4.98013 -5.08189 -33.7275 
4.72523 -5.47384 -36.7481 4.47304 -5.86658 -39.7228 4.22474 -6.25928 -42.6493 
3.98149 -6.65108 -45.5254 3.74441 -7.04107 -48.3492 3.51461 -7.42833 -51.119 
3.29312 -7.81186 -53.8333 3.08088 -8.19064 -56.4909 2.87878 -8.56365 -59.0907 
2.68759 -8.92981 -61.632 2.50797 -9.28804 -64.1142 2.3405 -9.63727 -66.5372 
2.18562 -9.97642 -68.9012 2.04366 -10.3044 -71.2065 1.91487 -10.6203 -73.454 
1.79938 -10.9232 -75.645 1.69722 -11.212 -77.7811 1.60835 -11.486 -79.864 
1.53266 -11.7446 -81.8963 1.46999 -11.987 -83.8804 1.42011 -12.2129 -85.8193 
1.3828 -12.4218 -87.7162 1.35778 -12.6134 -89.5745 1.3448 -12.7878 -91.3978 
1.34361 -12.9448 -93.1899 1.35395 -13.0845 -94.9545 1.37561 -13.2072 -96.6956 
1.40839 -13.3133 -98.4171 1.45212 -13.403 -100.123 1.50669 -13.4769 -101.816 
1.57197 -13.5355 -103.502 1.64789 -13.5793 -105.182 1.73441 -13.6089 -106.86 
1.83149 -13.6248 -108.54 1.93911 -13.6276 -110.224 2.05726 -13.6178 -111.915 
2.18592 -13.5958 -113.616 2.32506 -13.562 -115.328 2.47466 -13.5167 -117.054 
2.63463 -13.4601 -118.795 2.80491 -13.3925 -120.554 2.98536 -13.3138 -122.332 
3.17581 -13.224 -124.13 3.37607 -13.1229 -125.95 3.58588 -13.0103 -127.794 
3.80495 -12.886 -129.663 4.03293 -12.7494 -131.558 4.26945 -12.6 -133.48 
4.51407 -12.4374 -135.432 4.76632 -12.2608 -137.414 5.02569 -12.0698 -139.428 
5.29164 -11.8634 -141.476 5.5636 -11.6411 -143.559 5.84098 -11.4022 -145.677 
6.12317 -11.1459 -147.834 6.40953 -10.8717 -150.029 6.69945 -10.579 -152.265 
6.99228 -10.2673 -154.541 7.28742 -9.93608 -156.859 7.58424 -9.58516 -159.218 
7.88216 -9.21432 -161.62 8.18061 -8.82351 -164.063 8.47906 -8.41283 -166.547 
8.77702 -7.98253 -169.071 9.07404 -7.53301 -171.633 9.36973 -7.06483 -174.233 
9.66374 -6.57872 -176.866 9.95579 -6.07554 -179.532 10.2457 -5.55632 -182.226 
10.5333 -5.02222 -184.946 10.8185 -4.47453 -187.688 11.1013 -3.91465 -190.448 
11.3818 -3.34409 -193.223 11.6602 -2.76443 -196.008 11.9366 -2.17732 -198.8 
12.2113 -1.58445 -201.594 12.4847 -0.987563 -204.387 12.757 -0.388381 -207.174 
13.0288 0.211371 -209.952 13.3003 0.809997 -212.718 13.5721 1.40585 -215.467 
13.8445 1.99734 -218.198 14.1181 2.58295 -220.906 14.3931 3.16128 -223.589 
14.67 3.73102 -226.246 14.9491 4.29096 -228.873 15.2306 4.84004 -231.469 
15.5148 5.37734 -234.032 15.8019 5.90207 -236.561 16.0919 6.41358 -239.055 
16.385 6.91141 -241.514 16.6811 7.39522 -243.936 16.9803 7.86486 -246.322 
17.2824 8.32033 -248.673 17.5873 8.76179 -250.988 17.8948 9.18957 -253.269 
18.2048 9.60416 -255.517 18.5171 10.0062 -257.734 18.8315 10.3965 -259.921 
19.1476 10.7759 -262.082 19.4654 11.1457 -264.219 19.7845 11.5069 -266.334 
20.1047 11.8608 -268.432 20.4258 12.209 -270.515 20.7475 12.5529 -272.588 
21.0695 12.894 -274.654 
LINES 1 197
196 195 194 193 192 191 190 189 188 187 186 185 184 183 182 181 180 179 178 177 176 175 174 173 172 171 170 169 168 167 166 165 164 163 162 161 160 159 158 157 156 155 154 153 152 151 150 149 148 147 146 145 144 143 142 141 140 139 138 137 136 135 134 133 132 131 130 129 128 127 126 125 124 123 122 121 120 119 118 117 116 115 114 113 112 111 110 109 108 107 106 105 104 103 102 101 100 99 98 97 96 95 94 93 92 91 90 89 88 87 86 85 84 83 82 81 80 79 78 77 76 75 74 73 72 71 70 69 68 67 66 65 64 63 62 61 60 59 58 57 56 55 54 53 52 51 50 49 48 47 46 45 44 43 42 41 40 39 38 37 36 35 34 33 32 31 30 29 28 27 26 25 24 23 22 21 20 19 18 17 16 15 14 13 12 11 10 9 8 7 6 5 4 3 2 1 0 

CELL_DATA 1
FIELD FieldData 2
LengthArray 1 1 double
517.00010815 
TortuosityArray 1 1 double
0.0089669691689 
POINT_DATA 196
FIELD FieldData 8
RadiusArray 1 196 double
76.115691535 76.063487415 75.923294285 75.875523756 75.730097744 75.310819491 74.954857081 74.522009477 74.003686377 
73.670582518 73.332823313 73.056065616 72.802253853 72.757297048 72.712684372 72.193786938 71.679809987 71.615103996 
71.17819115 70.628604367 70.607186769 70.473500449 70.35184705 70.19923049 70.195946897 70.214273075 70.117318278 
69.870639619 69.470736857 69.213347576 68.588781181 68.454790512 68.377648364 68.132298512 68.113320154 67.909336003 
67.903425254 67.857960205 67.798744496 67.781608138 67.693696337 67.500793042 67.371588055 67.218993452 66.796363897 
66.760594977 66.116755136 65.904668068 65.722745316 65.48952752 64.920070859 64.744082568 64.450764723 64.248875153 
64.237814219 64.060933137 63.83071981 63.678643985 63.635552887 63.459551348 63.30132029 63.298638311 63.28538223 
63.250133368 63.032042389 62.960132799 62.819457454 62.757177177 62.635143206 62.300088587 62.24206931 62.311333072 
62.140137769 61.92822515 61.732977007 61.605532542 61.427734226 61.425928458 61.200886069 61.00647409 60.162677476 
60.150673881 59.623637401 59.04607822 59.046056924 59.0451909 58.445895036 58.220658466 58.179974364 58.10965644 
58.131958447 58.288002034 58.275744131 58.266108528 58.204729471 58.211180745 58.2048424 58.214123933 58.169369652 
58.160018355 58.084077783 58.120806771 58.09914624 58.108067175 58.104577815 58.136985781 58.15518344 58.176486488 
58.256906415 58.258620496 58.274971346 58.301738675 58.404997974 58.454599666 58.432416045 58.409769309 58.384003763 
58.361398625 58.352607861 58.355030778 58.376334628 58.36668944 58.369416923 58.41323774 58.405882865 58.276022791 
58.26633582 58.264890069 58.293253433 58.310549081 58.310830538 58.329396713 58.494636356 58.487989688 58.235555747 
58.19063204 58.226236397 58.234325528 58.188830329 58.155583253 58.094215152 57.999254037 57.968949673 57.962172958 
57.962307391 57.963749303 57.942718839 57.931013959 57.876891688 57.832096838 57.809413358 57.664451303 57.436761216 
57.01770736 57.00135613 56.829166606 56.833574962 56.60036888 56.515070877 56.396627439 55.815908807 55.709043859 
55.615525083 55.345802912 55.306197315 54.859891427 54.804983821 54.787342697 54.030645462 53.117876184 52.844177718 
52.351970174 52.074200503 51.722095523 51.138224888 50.412924886 50.151500944 49.595399177 49.03188967 48.779173211 
48.273475347 47.953461132 47.940827085 46.911550569 46.817006637 45.562912341 45.263661922 44.560355537 44.491755282 
44.061234302 43.713325944 43.402854658 42.243947831 41.950350162 41.950283324 41.933640712 
EdgeArray 2 196 int
45587 45587 40805 37755 36952 37755 36952 37836 37369 
36884 37352 36224 37364 36034 36654 35403 36381 33139 
36831 36831 35797 36411 36640 36212 35804 36212 36085 
35804 36398 36397 36228 36228 33944 35173 34843 34843 
34795 34795 35004 35177 33942 35366 35169 35169 35168 
35168 34791 34290 34642 34290 34640 34633 34640 34639 
34299 34278 33606 34119 33197 33197 33163 32954 31793 
32041 32328 32963 32665 32618 32622 32665 32617 32613 
32590 32617 32591 32395 32591 31945 32592 31945 31529 
32181 31518 31518 27975 31516 31517 29863 30894 31221 
31219 29702 30899 30899 30650 30650 30651 30651 29910 
29910 28849 28849 28968 28968 28905 28905 28607 28203 
28203 27746 28600 25237 25237 27284 27098 27971 27609 
25655 27517 27135 26360 26707 26866 27230 26866 27699 
27544 27734 27171 27171 27697 27554 27554 27172 27172 
27172 27702 27702 27093 27093 26770 26770 27102 27102 
25324 25324 24781 24781 24896 22791 23390 24655 25178 
25179 25178 25180 22450 23377 19820 23614 23424 23424 
22358 24262 22626 22626 23666 23666 23052 23666 23052 
23052 21414 21414 21532 21532 22848 22848 22844 22844 
15353 15353 21608 21608 21772 21772 19889 17679 21377 
21377 21316 21374 20973 20973 20147 20147 19813 19813 
18887 18887 19850 19850 18464 18464 19159 19344 16545 
16545 13905 13905 19325 19325 19332 19331 19332 17820 
17820 13839 13839 13839 18214 18214 18215 17876 17195 
17195 15872 15872 17314 17823 17314 15048 15048 15709 
12606 15709 14121 14121 11797 11797 17964 17964 17959 
17959 17958 17958 17953 17953 12378 14674 14934 13061 
16059 14483 16059 15505 15516 15516 15026 10285 14425 
10285 15301 15301 15316 15316 14629 10866 14995 14995 
11899 11744 11442 11442 14415 14415 14103 13082 11762 
14644 13377 13377 14400 14400 14666 13414 14156 14666 
9746 14115 13949 12604 13949 13475 13475 13475 12854 
12854 13032 13032 10874 10874 11894 11894 11109 11109 
10295 10295 10210 10210 12101 12101 11031 11031 10710 
10710 10747 9567 9830 9830 10439 10439 9544 9544 
9760 9760 8276 8276 9803 9938 8919 9805 8735 
9098 9230 7722 9303 9303 9398 7240 8765 8766 
8661 8766 8661 8661 7502 7502 8174 8174 8167 
8167 7821 7821 8165 8165 5429 6841 6397 4764 
5821 5821 8384 8384 8386 8386 7171 7171 7332 
7332 7860 7860 7613 7791 7857 7474 7857 7329 
8294 8294 8198 8198 7300 7300 7659 7659 6825 
6825 7356 6825 7356 7356 
EdgePCoordArray 1 196 double
0 0.3 0.424 0.324 0.78 0.72 0.72 0.656 0.592 
0 0.164 0.004 0.152 0.432 0.872 0 0.224 0 
0 0.064 0.12 0 0 0.808 0.856 0.18 0.504 
0.928 0.684 0 0.256 0.628 0.408 0.1 0.892 0.556 
0.416 0.5 0.832 0.988 0.78 0 0.932 0.112 0.416 
0.32 0 0 0 0 0 0 0 0.904 
0.144 0.26 0.872 0.948 0.312 0.272 0.012 0.984 0.972 
0.924 0 0.732 0.684 0 0 0 0 0 
0 0 0.22 0.856 0.396 0.524 0.62 0.184 0 
0.056 0 0 0.976 0 0 0 0 0 
0 0 0 0.04 0 0.248 0 0 0 
0 0 0 0.092 0 0 0 0.736 0.072 
0.964 0 0 0.82 0 0 0.372 0.676 0.256 
0.432 0 0 0 0 0 0 0.064 0.228 
0.464 0.532 0 0.984 0.988 0 0 0.968 0 
0.872 0 0 0.324 0.708 0 0 0.348 0.28 
0.096 0.344 0.664 0 0 0 0 0 0 
0 0 0 0 0 0.06 0 0 0 
0 0 0.98 0.812 0.968 0.96 0 0.772 0.852 
0.38 0 0 0 0 0 0 0.796 0.932 
0 0 0 0 0 0 0.1 0.172 0.212 
0 0 0 0 0 0.996 0 
CurvatureArray 1 196 double
0 8.4169548053e-06 3.3509633893e-05 5.7531095472e-05 7.9436611251e-05 9.822323446e-05 0.00011336636215 0.00012489208181 0.00013352459812 
0.00014085947099 0.00014934627234 0.00016158506323 0.0001800837614 0.00020604328455 0.00023945138056 0.00027929586109 0.00032451206586 0.0003737507622 
0.00042574610772 0.0004796867353 0.0005344408162 0.00058935105981 0.00064371555225 0.00069699417347 0.00074852288423 0.00079810363918 0.00084522067873 
0.00088940393099 0.00093072838406 0.00096849666593 0.0010029113827 0.0010334095228 0.0010599484802 0.0010822638062 0.00110044367 0.0011140193288 
0.0011233645667 0.0011284129961 0.0011297081707 0.0011277572742 0.0011236166178 0.0011183611429 0.0011134635076 0.0011108917302 0.0011122836481 
0.0011197078668 0.0011348782656 0.0011595435205 0.0011945062583 0.0012402193966 0.0012966751675 0.0013626664054 0.0014366820305 0.0015166408474 
0.0015996884914 0.0016824226794 0.0017614587799 0.0018333616185 0.0018942165472 0.001940617354 0.0019705520984 0.0019816454483 0.0019735279195 
0.0019465607695 0.0019022399315 0.0018433144525 0.0017727575075 0.0016945217092 0.0016120479101 0.0015292258386 0.0014489065131 0.0013737465029 
0.0013053471518 0.0012449037505 0.0011927925963 0.0011489548875 0.0011124893678 0.0010825485051 0.0010577700224 0.0010366980949 0.0010179548025 
0.0010000518606 0.0009816777046 0.00096159868564 0.00093892652062 0.00091305507395 0.00088360297029 0.00085064541282 0.0008150803586 0.00077809047712 
0.00074181362428 0.00070972986419 0.00068566261175 0.00067516672445 0.00068346524896 0.00071553107848 0.0007741290058 0.00086063871903 0.0009750532845 
0.001117033899 0.0012868050116 0.0014848262697 0.0017121157179 0.0019690310757 0.0022572393078 0.002574819929 0.0029217362808 0.0032932427933 
0.0036849719637 0.0040899036897 0.004497434804 0.0048983281502 0.0052784137391 0.0056268345031 0.0059303293124 0.0061783728292 0.0063623945155 
0.0064783159656 0.0065237420473 0.0065009853785 0.0064159392567 0.0062769006731 0.0060931156148 0.0058760011767 0.0056357274262 0.005382234378 
0.0051240274412 0.0048674533291 0.0046176833504 0.004379489486 0.0041541053153 0.0039446531912 0.0037516380997 0.0035757943167 0.0034194210306 
0.0032812709405 0.0031623179783 0.0030632148692 0.0029799720755 0.0029127720915 0.0028577151022 0.0028125394554 0.0027719545409 0.0027332094848 
0.0026936592368 0.0026490475601 0.0025983397087 0.0025392862995 0.0024724563624 0.0023962228447 0.0023118810158 0.0022196005154 0.0021206763217 
0.0020157258467 0.0019060284657 0.0017924958622 0.0016751082147 0.0015557614872 0.0014337685683 0.0013097802156 0.0011847322467 0.0010574388612 
0.00092894007239 0.00079962653368 0.00066947236562 0.00054026791139 0.00041527089418 0.00030432230297 0.00023119877689 0.00023920618238 0.00032462264258 
0.00044540314296 0.00057965963023 0.0007187594531 0.00085866078847 0.00099686254887 0.0011313638407 0.0012604681126 0.0013816412819 0.0014939418173 
0.0015938631169 0.0016809290464 0.001750868641 0.0018021977225 0.0018315294826 0.0018364041233 0.001813185621 0.0017599512861 0.0016748402729 
0.0015545866024 0.0014014559772 0.0012133245815 0.00099384344223 0.00074765505749 0.00047832010535 0 
TorsionArray 1 196 double
0 0 0.0033374361026 0.0076185667825 0.012678701718 0.018579591832 0.025791764453 0.034246316175 0.043928218222 
0.054023174611 0.062073408213 0.065424429574 0.062654633513 0.055284155012 0.046289686116 0.03773286522 0.030630956042 0.0251766251 
0.02111495282 0.01812715137 0.016087495723 0.014696859901 0.013770411072 0.013353497285 0.013266528969 0.013397934044 0.013760351631 
0.014304015825 0.014997044906 0.015765118231 0.016596577173 0.017471198728 0.018400918037 0.019299688579 0.020202434463 0.021182281013 
0.02216261993 0.023220743216 0.024328061987 0.025531689914 0.026873644454 0.028289564902 0.02969068844 0.031029855037 0.032191262135 
0.033003383543 0.033276832123 0.032919868896 0.031942112415 0.030381417874 0.028258667834 0.025819673802 0.023269503064 0.02065879495 
0.018127039456 0.015739123244 0.013528822788 0.01151271748 0.0096334620216 0.0079123227076 0.0063179489101 0.0048054889568 0.0033646039151 
0.001943182715 0.00055666428187 -0.00082244847304 -0.0022228864037 -0.0036023595621 -0.0049575916244 -0.0062728162368 -0.0074842732024 -0.0085633511084 
-0.0094699727336 -0.010160348239 -0.010614101791 -0.010856074865 -0.010940354391 -0.010910339232 -0.010871407973 -0.01089359865 -0.011057091391 
-0.011465729964 -0.012201196736 -0.013317458422 -0.014911497804 -0.017100578801 -0.020019261541 -0.02382324931 -0.028646917516 -0.034768162872 
-0.042232605022 -0.050918090231 -0.060263761399 -0.068865729402 -0.074953871765 -0.076976006262 -0.074935653346 -0.070119478388 -0.0640264842 
-0.057981985675 -0.052479971988 -0.047590216894 -0.0432769247 -0.03953499377 -0.036012126595 -0.032766230453 -0.02967329671 -0.026692878628 
-0.023874482013 -0.021074219643 -0.018397466489 -0.015783961883 -0.013248922491 -0.010816423475 -0.0084303201871 -0.0061229110429 -0.0039419703904 
-0.0018710657924 8.4485187633e-05 0.001830619296 0.0033316525613 0.00454869949 0.0053824426162 0.0057869953266 0.0056359062683 0.0048867389157 
0.0035284206588 0.0014785567759 -0.001200953683 -0.0044581718776 -0.0081961430081 -0.012302274033 -0.016534418113 -0.020748881208 -0.02473563948 
-0.028212174638 -0.030948504287 -0.032890756366 -0.033966600343 -0.034006242923 -0.033244426194 -0.031793197857 -0.029937534753 -0.027692241585 
-0.025338054987 -0.022977877168 -0.020666531409 -0.018467372228 -0.016381097005 -0.014526801086 -0.01274292344 -0.011120042416 -0.0095633421537 
-0.0081043549649 -0.0067098991641 -0.0053577059009 -0.0039727999954 -0.0025071172729 -0.0010551854208 0.00070701381961 0.0027759597625 0.0052381769056 
0.0087672751153 0.013671942964 0.021484306861 0.035410921603 0.062795519917 0.12110104396 0.21450190367 0.20359963773 0.11168413218 
0.060324931665 0.036069348366 0.023805791326 0.016952905904 0.012679766237 0.010150818795 0.0082217762416 0.0070476878754 0.0061537513501 
0.0052986944912 0.004899641409 0.0044188609141 0.0039921804491 0.0037841086675 0.00351623938 0.0032020684761 0.0030564700474 0.0026618830849 
0.0023572688519 0.002277571598 0.0017672114981 0.0013969421859 0.0011637705481 0 0 
TangentArray 3 196 double
-0.015718449598 -0.028509149728 0.99946993888 -0.015718449598 -0.028509149728 0.99946993888 -0.015713194399 -0.02857102116 0.99946825476 
-0.015702770582 -0.028705610522 0.99946456211 -0.015691202548 -0.028908771918 0.99945888813 -0.01568580248 -0.029173375132 0.99945128435 
-0.015696672686 -0.029489428566 0.99944183826 -0.015736437641 -0.029844632052 0.99943066917 -0.015819392721 -0.030224891809 0.99941793196 
-0.015960897069 -0.030614932106 0.99940381013 -0.016176944162 -0.030998978971 0.99938849792 -0.01648313405 -0.031361146399 0.99937219532 
-0.016894153348 -0.031685967737 0.99935508556 -0.017423392382 -0.03195893137 0.99933730647 -0.018082396676 -0.032166562937 0.99931893766 
-0.018880426708 -0.032296346713 0.99929999273 -0.019824348027 -0.032337181744 0.99928039203 -0.020918562635 -0.032279250318 0.99925995804 
-0.022164539917 -0.032113666907 0.99923843279 -0.023561201475 -0.031832516395 0.9992154726 -0.025104790799 -0.031428827868 0.99919066161 
-0.026788635403 -0.030896000106 0.99916355327 -0.028603641071 -0.030227910379 0.99913367732 -0.030538423958 -0.029419195931 0.99910055328 
-0.032578918658 -0.028464333411 0.99906375962 -0.034708976426 -0.027358023761 0.99902293542 -0.0369107769 -0.026095588901 0.99897778493 
-0.039164305872 -0.024672997946 0.9989281257 -0.041448270024 -0.023086755692 0.99887388725 -0.043739884859 -0.021334326638 0.99881513253 
-0.046015457153 -0.019414736707 0.99875204415 -0.048250714956 -0.017328677979 0.99868492801 -0.050420802647 -0.015079100603 0.9986142215 
-0.052500718313 -0.012671059373 0.99854049434 -0.054466219985 -0.010112266752 0.99846440745 -0.056293663722 -0.0074132738421 0.99838673208 
-0.057959941455 -0.0045869142716 0.9983083719 -0.059443572854 -0.0016483542976 0.99823030638 -0.060724338048 0.0013853377201 0.99815361323 
-0.061783918375 0.0044957300453 0.99807942361 -0.062605656455 0.0076637687404 0.99800891701 -0.06317407955 0.010870539764 0.99794331855 
-0.063475136506 0.0140975488 0.99788384402 -0.063496402505 0.017327829305 0.99783162568 -0.06322628543 0.020546151924 0.9977876991 
-0.06265374753 0.023739209645 0.99775295432 -0.061768248371 0.026895968105 0.99772806435 -0.060559967458 0.030007953203 0.99771339226 
-0.059019669793 0.033068860922 0.99770894003 -0.057138711185 0.03607386875 0.99771430965 -0.054909292245 0.039019787098 0.99772863337 
-0.05232603389 0.041904918867 0.99775045174 -0.049386416043 0.044728093767 0.99777772051 -0.046090920375 0.047488319531 0.9978078405 
-0.042445082967 0.05018498389 0.99783760318 -0.038460710707 0.052817100821 0.99786328101 -0.034156582051 0.055383486584 0.99788075305 
-0.029558591535 0.057883037547 0.99788568665 -0.024700483675 0.060314337022 0.99787377301 -0.01962442414 0.062676361167 0.99784094711 
-0.014378588923 0.064968875048 0.99778369472 -0.0090161787772 0.067192492736 0.99769929209 -0.0035938556271 0.069349162739 0.99758597516 
0.0018315876734 0.071442453453 0.99744304155 0.007205128228 0.073477918668 0.99727081658 0.012476686552 0.075462687011 0.99707056679 
0.017602853576 0.077405439457 0.99684428949 0.022548439538 0.079316503489 0.99659443112 0.027287520436 0.081206860781 0.99632366076 
0.031803558638 0.083087950555 0.99603460087 0.036088922883 0.084971414481 0.99572960605 0.04014371155 0.086868190194 0.995410669 
0.043974271358 0.088788396941 0.99507933554 0.047591478426 0.090740961832 0.99473671342 0.051009273695 0.092733350936 0.99438351737 
0.054243096947 0.094771316657 0.99402016276 0.057307967949 0.096858754345 0.99364690837 0.060217235525 0.098997761136 0.99326397691 
0.062981819112 0.10118855956 0.99287167644 0.065608942717 0.10342953448 0.99247055273 0.068101926846 0.10571729756 0.99206148023 
0.070459895944 0.10804672414 0.99164575755 0.072677478566 0.11041114702 0.99122518265 0.074744951298 0.11280243938 0.99080210028 
0.07664888283 0.11521094842 0.99037941524 0.078372722389 0.11762579 0.98996054967 0.07989725268 0.12003481879 0.98954942842 
0.081201250163 0.12242445984 0.98915044791 0.082262636263 0.12478001343 0.98876832824 0.083059557211 0.12708528206 0.98840803368 
0.083570402718 0.12932226833 0.98807476372 0.083775350606 0.13147152099 0.98777372399 0.083656638609 0.13351126345 0.98751015658 
0.083198981668 0.13541740091 0.98728924687 0.082390143274 0.13716329212 0.98711604971 0.081220758138 0.13871939266 0.98699550077 
0.079684921189 0.14005302904 0.98693234945 0.077779805691 0.14112829586 0.98693115562 0.075505405131 0.14190603749 0.98699625649 
0.072864609964 0.14234451334 0.98713159616 0.069862874489 0.14239933818 0.98734067436 0.066507753803 0.14202403533 0.98762639296 
0.062808931121 0.14117187794 0.98799065737 0.058778255545 0.13979685377 0.98843409307 0.054428925101 0.13785409596 0.98895588392 
0.049775788813 0.13530346059 0.98955310338 0.044835292491 0.13211104251 0.99022041435 0.039625247855 0.12825105051 0.99094980084 
0.034165272894 0.12370935821 0.99173016936 0.028476232402 0.11848343117 0.99254762139 0.022580734882 0.1125870769 0.99338525282 
0.016502876293 0.10604987153 0.994223858 0.010268293965 0.09891838289 0.99504256978 0.0039038678959 0.091255937004 0.99581981994 
-0.002562420764 0.083140029291 0.9965345802 -0.0091018703708 0.074661689789 0.99716738215 -0.015685605888 0.06592103081 0.99770154829 
-0.02228490426 0.057021946732 0.99812418097 -0.028871853626 0.048068122298 0.9984266982 -0.035419723096 0.039159157706 0.99860502882 
-0.041903086343 0.030384642399 0.99865955403 -0.048298243824 0.021820714879 0.99859458042 -0.054583134858 0.013528351584 0.99841758052 
-0.060737058092 0.0055512623549 0.99813836379 -0.066741013035 -0.0020842657578 0.99776815594 -0.072576458113 -0.0093689832642 0.99731884565 
-0.078225547198 -0.016309063197 0.99680227639 -0.083670837348 -0.022923392154 0.99622974713 -0.088894122102 -0.029241460509 0.99561175769 
-0.093877476499 -0.035301222185 0.99495770921 -0.098602327483 -0.041145567949 0.99427592913 -0.10304955648 -0.046819919749 0.9935736933 
-0.10719976608 -0.052370569185 0.99285725743 -0.11103346155 -0.057840886319 0.99213204882 -0.11453213917 -0.063271836099 0.99140257406 
-0.11767794761 -0.068699504731 0.99067263952 -0.12045468703 -0.074153069829 0.9899454483 -0.12285007467 -0.079656392929 0.98922329037 
-0.12485349972 -0.085225083312 0.98850811265 -0.12645763333 -0.09086700109 0.98780142493 -0.1276610092 -0.096583295339 0.98710401366 
-0.12846671934 -0.10236837246 0.98641625004 -0.12888294796 -0.10820980324 0.98573821282 -0.12892217024 -0.11408899279 0.98506993444 
-0.12860316713 -0.11998452345 0.9844109607 -0.12794886941 -0.1258707472 0.98376096782 -0.12698660038 -0.13171956369 0.9831197078 
-0.12574738466 -0.13750207383 0.98248703551 -0.12426527962 -0.14319013914 0.98186288469 -0.12257661806 -0.14875643344 0.98124741845 
-0.12071824472 -0.15417459124 0.98064127019 -0.11872820156 -0.15942130418 0.9800451326 -0.11664397718 -0.16447564939 0.97946002642 
-0.11450275051 -0.16931974797 0.97888709414 -0.11234027804 -0.17393828657 0.97832772341 -0.11019045875 -0.17831885993 0.97778343563 
-0.10808561662 -0.18245028741 0.97725605248 -0.10605620484 -0.18632406016 0.97674737062 -0.10413076809 -0.18993342593 0.97625922626 
-0.10233513406 -0.19327118705 0.97579391707 -0.10069374894 -0.1963328622 0.97535335963 -0.099229048288 -0.19911354724 0.97493968597 
-0.097960977294 -0.20160762045 0.97455529053 -0.096908119267 -0.20381147195 0.97420208392 -0.09608602561 -0.2057203323 0.97388224163 
-0.095508558324 -0.20732936321 0.97359778679 -0.095187494053 -0.20863462009 0.97335036666 -0.09513192787 -0.20963349682 0.97314115796 
-0.095348642509 -0.2103235118 0.97297104621 -0.095840869455 -0.21070215938 0.9728407515 -0.096609329709 -0.21076950908 0.97275014853 
-0.097652305264 -0.21052820078 0.97269825946 -0.098964427608 -0.20998112205 0.97268390058 -0.10053741785 -0.20913354933 0.97270518974 
-0.10235970568 -0.20799379255 0.97275951443 -0.1044167359 -0.2065722585 0.97284379388 -0.10669181711 -0.20488295058 0.97295417812 
-0.1091646564 -0.20294095348 0.97308686518 -0.11181293215 -0.20076593446 0.97323733373 -0.11461135535 -0.19837918754 0.97340122004 
-0.11753192614 -0.19580531652 0.97357409803 -0.12054627659 -0.19307343703 0.9737511197 -0.12362190799 -0.1902136605 0.97392832756 
-0.12672488344 -0.18726128113 0.97410164588 -0.12982016199 -0.18425474533 0.97426737314 -0.13286952205 -0.18123475031 0.97442272931 
-0.1358335803 -0.17824618694 0.97456530582 -0.13867212552 -0.17533738043 0.97469320539 -0.14134403742 -0.17255711327 0.97480557331 
-0.14380860421 -0.16995835701 0.97490165773 -0.14602585592 -0.16759278319 0.97498159389 -0.14795660333 -0.1655100621 0.97504628755 
-0.14956535561 -0.16375972456 0.97509638345 -0.15082160602 -0.16238379769 0.97513298858 -0.15169888956 -0.16141759967 0.97515732342 
-0.15169888956 -0.16141759967 0.97515732342 
NormalArray 3 196 double
-0.085727334593 0.99595107818 0.027060561373 -0.085727334593 0.99595107818 0.027060561373 -0.084319561295 0.99606886621 0.027148210927 
-0.073048125939 0.99694960117 0.027485705886 -0.045127910748 0.99858381868 0.028174966476 -0.00051795630065 0.9995743647 0.029168838752 
0.064298459418 0.99746631782 0.030440974585 0.15317271159 0.98768423657 0.031905630308 0.26774544946 0.96291201994 0.033358899187 
0.40758314332 0.91251756714 0.034462602216 0.56313575599 0.82563448529 0.034724876062 0.71431256711 0.69901409822 0.033717161058 
0.8388419194 0.54346804384 0.031412093036 0.92424399705 0.3807527704 0.028290665516 0.97284434967 0.23010512191 0.025010081746 
0.99468550183 0.10057251257 0.022043642161 0.99978915812 -0.0059905553415 0.019640584068 0.99547866209 -0.093297811448 0.017825591021 
0.9861199679 -0.16520604785 0.016564138104 0.97408530593 -0.22562975925 0.015780637479 0.9606300796 -0.27740289914 0.015410441478 
0.94608575724 -0.32355183153 0.015360737428 0.93074968999 -0.36532432451 0.015593347989 0.91448844872 -0.40429365031 0.016047475689 
0.89690507812 -0.44190928996 0.016657139303 0.8778643995 -0.4785933197 0.017393401813 0.85700691835 -0.5149829533 0.018212624944 
0.83397639162 -0.5514702889 0.019076128398 0.80841836677 -0.58827016867 0.019948757644 0.7799232646 -0.625529653 0.020793136965 
0.74836450394 -0.66293614399 0.021592550626 0.71329482852 -0.70050900518 0.02230742635 0.67468346198 -0.73775108271 0.022925228178 
0.63200242192 -0.77461306408 0.023399564798 0.58564365677 -0.81022087621 0.023741083245 0.53493514515 -0.84455527153 0.023891082388 
0.4800238186 -0.87693145945 0.023840071531 0.42058888647 -0.90694568732 0.023548011058 0.35651004519 -0.93400870904 0.022985193554 
0.28765894167 -0.9574774412 0.022119739321 0.21380517035 -0.97665246738 0.020911888999 0.13469566574 -0.99069868056 0.019318435973 
0.050700647166 -0.99856348773 0.017332205648 -0.03762584801 -0.99917995643 0.014956945998 -0.12935354954 -0.99152323177 0.012220477886 
-0.22284796606 -0.97480980243 0.0091996260414 -0.31599352053 -0.94874229545 0.0060126365816 -0.4060301323 -0.91385527555 0.0028402492804 
-0.490697206 -0.87133015003 -0.00014722882789 -0.56789096198 -0.823099158 -0.0027625008886 -0.63638424944 -0.77135692377 -0.0048562561288 
-0.6952289059 -0.71876102922 -0.0062730602286 -0.74501297328 -0.6670135097 -0.0069747777557 -0.78630411214 -0.6178009227 -0.0069183186573 
-0.82008131372 -0.57221444168 -0.0061050484009 -0.8474520335 -0.53085234211 -0.0045652805456 -0.86945020472 -0.49401503613 -0.0023421356949 
-0.88703626433 -0.46169947979 0.00050609575552 -0.90101841063 -0.43376318134 0.0039148720711 -0.91193792469 -0.41025340018 0.0078338473468 
-0.92041344503 -0.39075662951 0.012179766151 -0.92674155914 -0.37531907793 0.016901843044 -0.93125154382 -0.36371644914 0.021929586187 
-0.93409670521 -0.35598148388 0.027212652225 -0.93537374922 -0.35214545303 0.03270365704 -0.93516650708 -0.3521259571 0.038352501364 
-0.93340729636 -0.35609415983 0.044133529537 -0.93001737935 -0.36409574972 0.050019587601 -0.92491414711 -0.37603187637 0.055980786286 
-0.9179198249 -0.39189174347 0.062000455332 -0.90889815741 -0.41142817956 0.068051396157 -0.89776561893 -0.43419632243 0.074097550952 
-0.88443167152 -0.45974297831 0.080106256378 -0.86897660211 -0.48731794969 0.086028372663 -0.85152519901 -0.51621088068 0.091821359762 
-0.83239910754 -0.54554364099 0.097436448744 -0.81180175431 -0.57480396541 0.10285092636 -0.79006694353 -0.60342467961 0.10804110691 
-0.76734176073 -0.63120249223 0.11300458419 -0.74362716719 -0.65814461837 0.11774675167 -0.71878410768 -0.68439646713 0.12227380067 
-0.69240292483 -0.71031873027 0.12659182876 -0.66377154788 -0.73642745275 0.13069789233 -0.63193720072 -0.76324754567 0.13456804366 
-0.59574648222 -0.79120249165 0.138147552 -0.55352722736 -0.82074972691 0.14134176437 -0.50325813098 -0.85205523815 0.14399001614 
-0.44224152307 -0.88496044926 0.14583359875 -0.36735120739 -0.91847649361 0.1464719124 -0.27493967626 -0.95041815093 0.14530489601 
-0.16056748946 -0.9768392727 0.14143237478 -0.02179465543 -0.99077946334 0.13372003598 0.14219302127 -0.98244250192 0.12078027625 
0.32435379708 -0.94045720138 0.10166054637 0.51085918365 -0.85626791322 0.076342355693 0.68095701086 -0.73083412632 0.04668007242 
0.81760772778 -0.57556257296 0.015662952381 0.91285253831 -0.40806318098 -0.013589835159 0.96926129077 -0.24288629088 -0.039227540211 
0.99410045666 -0.090098359667 -0.060386816825 0.99588277197 0.047356448394 -0.077297291599 0.98162052405 0.1681377154 -0.090282088054 
0.95671372998 0.27335487723 -0.099879677399 0.92521591394 0.36418089721 -0.10652599075 0.88985770254 0.44261152141 -0.11067208474 
0.85314205978 0.50938981056 -0.11256396728 0.81638881699 0.56643187033 -0.11253548673 0.7810568331 0.61455700346 -0.11076963919 
0.74784774216 0.65511160795 -0.10748272268 0.71733584755 0.68909595948 -0.10283987769 0.69008125139 0.71720588257 -0.096972101572 
0.66606546626 0.74043932533 -0.090035549441 0.64560836667 0.75923843396 -0.082139133635 0.62853287058 0.77430987853 -0.073420995774 
0.61486347861 0.78603262338 -0.063997012902 0.60451330429 0.79476338702 -0.05398910623 0.59733915743 0.80080703253 -0.043520428061 
0.59308177378 0.80447720761 -0.032717457962 0.59161605273 0.80592796247 -0.021692520668 0.59267005254 0.80537611546 -0.010560372585 
0.59586022722 0.80308795748 0.00056760298804 0.6008334213 0.79929016601 0.011594411274 0.60712218428 0.79429189118 0.02242866365 
0.61413001622 0.78851527525 0.032984600634 0.62130724645 0.78237561631 0.043193755467 0.62773766408 0.7766201426 0.052977157338 
0.63281329047 0.77179496606 0.062288600526 0.63556753374 0.76876724904 0.071069169604 0.63516566211 0.76829669976 0.079276496003 
0.63071362517 0.77113807837 0.086869943681 0.62136865586 0.77788196032 0.093811776002 0.60628156142 0.78893036711 0.10005770398 
0.58463728307 0.80439893856 0.10555375354 0.55600609098 0.8238332853 0.11025400142 0.51972716556 0.84668177756 0.11407734625 
0.47586767912 0.87170328453 0.1169757911 0.42471061354 0.897486724 0.11890531943 0.36735371172 0.92232183657 0.11989028432 
0.30456862133 0.94490931854 0.11993470985 0.23848522276 0.96380417581 0.11919022283 0.17086407791 0.97822581169 0.11781225838 
0.10359650799 0.98783100802 0.11600716844 0.038212576597 0.99274839327 0.1139755529 -0.024277321338 0.99342519607 0.11187936128 
-0.082432679393 0.99051190706 0.10995915305 -0.13657364958 0.98470012445 0.10822801459 -0.18568772312 0.97677818573 0.10688519711 
-0.23059795631 0.96727372735 0.10585895773 -0.27055914308 0.95692595378 0.10531129602 -0.30663405927 0.94600611376 0.10510940216 
-0.33854148114 0.93503757453 0.10532995665 -0.36676816085 0.9242635491 0.10591509801 -0.39142194873 0.91398493183 0.10686628297 
-0.41260783053 0.90446188886 0.10818257614 -0.4305898327 0.89584042877 0.10982860356 -0.44531638745 0.88836261066 0.11182659363 
-0.45698214191 0.88212128541 0.11414622112 -0.46510176459 0.87750595823 0.11689158156 -0.46973389725 0.87460689682 0.12005349561 
-0.47076214503 0.87355232395 0.12365007126 -0.46651007942 0.87520361413 0.12801163857 -0.45709546072 0.87940526628 0.13307936516 
-0.43980983409 0.88721713669 0.13933076543 -0.41129055483 0.89952756605 0.14727605856 -0.36646499445 0.91699630484 0.15754740476 
-0.29143865099 0.94103477779 0.17180529589 -0.15997932092 0.96828681514 0.1919043004 0.091466338918 0.97159868882 0.21824274727 
0.5382141483 0.81134614909 0.22812925487 0.93058678004 0.3279272399 0.16270209017 0.99226768408 -0.096905714729 0.077550793537 
0.94788973031 -0.31749933428 0.026442993453 0.89993510468 -0.43601632423 -0.0025636637698 0.86281056529 -0.50515383329 -0.019430211732 
0.83389472767 -0.55110277967 -0.030088359871 0.81158276648 -0.5830834599 -0.036702751293 0.79365592538 -0.60699788924 -0.040790128244 
0.77836542786 -0.626316467 -0.043300621982 0.76601099307 -0.64130013523 -0.044286510832 0.75440302996 -0.65489177473 -0.044641144431 
0.74470810806 -0.6659362993 -0.044030433431 0.73589776215 -0.67573339006 -0.042882038451 0.72748844898 -0.68486869597 -0.041417700231 
0.7202368989 -0.69260571043 -0.039447932108 0.7132713709 -0.69989357198 -0.037322102688 0.70674044171 -0.70660399076 -0.03505350615 
0.70070449514 -0.71270236355 -0.03268870565 0.69527395406 -0.71810747975 -0.030261796411 0.6897742103 -0.72348086605 -0.028053079211 
0.68580521553 -0.72733351846 -0.025635117956 0.68124309031 -0.7316723105 -0.023737774837 0.67784682353 -0.73487739413 -0.021883770874 
0.67498403406 -0.73755210215 -0.020333479178 0.67302826765 -0.7393719541 -0.01902799085 0.6707004056 -0.74150000971 -0.018403845757 
0.6707004056 -0.74150000971 -0.018403845757 
BinormalArray 3 196 double
-0.99619463683 -0.085256543796 -0.018098820242 -0.99619463683 -0.085256543796 -0.018098820242 -0.99631486344 -0.083848139653 -0.0180605197 
-0.99720479055 -0.072577411471 -0.017751761921 -0.99885797681 -0.044661392395 -0.016973573439 -0.99987683608 -6.0135446689e-05 -0.015694236582 
-0.99780725723 0.064740392493 -0.01376077748 -0.98807412928 0.15358758661 -0.010971248179 -0.96335980875 0.26811732092 -0.0071401061568 
-0.91302860363 0.40789020042 -0.0020864687021 -0.82620604379 0.56335313969 0.0041003904909 -0.69963266273 0.71441988283 0.010879717908 
-0.54411287602 0.83883161884 0.017398085522 -0.38140458744 0.9241244259 0.022903845552 -0.23075289434 0.97263402424 0.02713220691 
-0.10121404019 0.99440540812 0.030225855885 0.0053511233536 0.99945906366 0.032449122566 0.092653370438 0.99511485185 0.034084961033 
0.16454829713 0.98573610776 0.035329644222 0.22495040912 0.97369292009 0.036323694687 0.27669405422 0.96023948072 0.037155619167 
0.32280661231 0.9457059001 0.037897777705 0.36453648144 0.93038938695 0.038584224068 0.40345790588 0.9141559797 0.039250005746 
0.44102142227 0.89660803095 0.039926731993 0.47764985402 0.87761037646 0.040628119352 0.51398126079 0.85680311511 0.041372521123 
0.5504085168 0.83382957709 0.042174648871 0.58714715803 0.80833483803 0.043046538129 0.62434487569 0.77990864832 0.043999732678 
0.66168961527 0.74842416917 0.045034609534 0.6992012272 0.71343314374 0.04616051672 0.7363830313 0.67490440856 0.047371621542 
0.77318601466 0.63230850477 0.048675882491 0.8087366309 0.5860374338 0.050051853359 0.84301566647 0.535417068 0.051508731169 
0.87533866518 0.48059356597 0.053028724154 0.90530185586 0.42124435091 0.054605371538 0.93231600997 0.35724755042 0.056223173775 
0.95573797701 0.28847311487 0.057863471126 0.97486813514 0.21468866905 0.059505415467 0.98887113079 0.13563906408 0.061122262666 
0.99669471325 0.051693520808 0.062669198846 0.99727253167 -0.036594548824 0.06409630696 0.98958076783 -0.12829472515 0.065348048544 
0.97283775212 -0.22177082545 0.066365721836 0.94674852969 -0.31490421356 0.067101101396 0.91185087707 -0.40492969525 0.067527178957 
0.86932901171 -0.48958167867 0.067652415396 0.8211181541 -0.56675078482 0.067516849092 0.76941539931 -0.63520544108 0.067186240678 
0.71688126952 -0.69399319929 0.066743424869 0.66521925074 -0.7437018055 0.066264416823 0.61611806522 -0.78489927979 0.065815274062 
0.57067070524 -0.81856710178 0.06544345697 0.52947693495 -0.84581685059 0.065176917853 0.49283838063 -0.86768762437 0.065027048865 
0.46075259678 -0.88514583224 0.064991539729 0.43307702527 -0.89900594173 0.065058488461 0.40985863843 -0.90981526773 0.065207937459 
0.39068189923 -0.91819840001 0.065416755047 0.37559125533 -0.92445700747 0.065654019386 0.36435922704 -0.92892466769 0.065888659271 
0.35701539266 -0.93175810111 0.066082149085 0.35358738014 -0.93305657673 0.066192063126 0.35398861044 -0.9329055114 0.066176812233 
0.358386605 -0.93123860921 0.065982528613 0.36682317536 -0.92797800476 0.065555935715 0.37919547955 -0.92304142578 0.064848396867 
0.39548922706 -0.91625174154 0.063804524981 0.41545364254 -0.90747270581 0.062382362211 0.43864037193 -0.89662002605 0.060557022611 
0.46459324347 -0.88360229428 0.058310407835 0.49255935294 -0.86849714666 0.055659590995 0.52182649362 -0.8514263634 0.052633243014 
0.55151555935 -0.83270675109 0.049295582798 0.58111419576 -0.81253848097 0.045689259471 0.61005582473 -0.79125097114 0.041878292504 
0.63813784773 -0.76898913466 0.037891926268 0.66536764488 -0.74575330553 0.033732839164 0.69188982802 -0.72140510726 0.029379195255 
0.71806238778 -0.69553807001 0.024762883989 0.74439594056 -0.66744586706 0.019766087551 0.77140687488 -0.63618298759 0.014235157146 
0.7995067715 -0.60060390822 0.0079917301551 0.82913528749 -0.55904745712 0.00078468690889 0.86043458939 -0.50950320256 -0.0076683741024 
0.89321262432 -0.44928527116 -0.017718715244 0.9264372343 -0.37527440486 -0.029718209118 0.95786704942 -0.28382154512 -0.044000524475 
0.98348058909 -0.17047224473 -0.060869899454 0.99624629667 -0.032730630854 -0.080137520415 0.98629747618 0.13031298078 -0.10117220726 
0.94226988903 0.3117729621 -0.12216822963 0.85570716882 0.4979874417 -0.14061916349 0.72780542579 0.66831011507 -0.15382084479 
0.57023496631 0.80567541458 -0.16037209711 0.4008123565 0.90197962529 -0.16056839803 0.23416123505 0.95961915687 -0.15588325686 
0.080343205536 0.98570803238 -0.14806972755 -0.057764030859 0.98867577865 -0.13850459002 -0.17887947185 0.97547879631 -0.1282312462 
-0.28417226647 0.95149756278 -0.11789194626 -0.3748608132 0.9207763647 -0.10793635598 -0.45297986857 0.88605377339 -0.09857965977 
-0.51929856218 0.84983233314 -0.090077793431 -0.57575958181 0.81345043409 -0.082457839122 -0.62320146277 0.77837738761 -0.075819385768 
-0.66299056455 0.74533534454 -0.070133697362 -0.69614537706 0.71491848148 -0.065369555827 -0.72337955244 0.6877062397 -0.061499195026 
-0.7457107011 0.66370402308 -0.058416778542 -0.76359963268 0.64325123701 -0.056066452182 -0.77777322557 0.62619211587 -0.054334552566 
-0.78862940388 0.61256873126 -0.053133913937 -0.79654304397 0.60230954727 -0.052367818122 -0.80183532772 0.59528355794 -0.051938356505 
-0.8048337671 0.59124015428 -0.051746374863 -0.8057027133 0.59005895885 -0.051706506942 -0.80466617429 0.59146924942 -0.051734659053 
-0.80199421505 0.5950852931 -0.051756863947 -0.79791382962 0.60054898795 -0.0517149261 -0.79273156537 0.60738568908 -0.051568303776 
-0.78686424049 0.61499011714 -0.05130129492 -0.7807195032 0.62280338057 -0.050921571787 -0.77503424623 0.62989949695 -0.05048307558 
-0.7703428478 0.63566228834 -0.050053491599 -0.76749794856 0.63911770035 -0.049754035636 -0.7672433882 0.63942561579 -0.049723889013 
-0.77031639113 0.63568851476 -0.050127535013 -0.77728924766 0.6270619571 -0.051134405544 -0.78854515228 0.61269631218 -0.052912870373 
-0.80418123417 0.59177670715 -0.055613590769 -0.82372859439 0.56387334562 -0.059313176303 -0.84662037684 0.52832437224 -0.064088183148 
-0.87160877268 0.48519456075 -0.069888379575 -0.89728009179 0.43476304175 -0.076612886673 -0.92193226955 0.37812337782 -0.08404523489 
-0.94427197274 0.31604282131 -0.092018349213 -0.96287759632 0.25064855636 -0.10020995807 -0.97698932113 0.1837006489 -0.10837867865 
-0.98628802363 0.11709233928 -0.11629840295 -0.99092329911 0.052357102215 -0.12381336411 -0.99135749641 -0.0094911292776 -0.13084430739 
-0.98826417459 -0.067006537777 -0.13727361408 -0.98233228851 -0.12050817358 -0.14318189495 -0.97436875607 -0.16898027229 -0.14849644701 
-0.96488972313 -0.21324801541 -0.15333983868 -0.95464961655 -0.25256544306 -0.15765407256 -0.94390175675 -0.28799992402 -0.16157201912 
-0.93317563778 -0.31927250059 -0.16507058922 -0.92270511559 -0.34687424173 -0.16820680748 -0.91278860676 -0.37091684397 -0.17099021673 
-0.90368351667 -0.39150927772 -0.17342602788 -0.89552892634 -0.40891979488 -0.17553502056 -0.88856703622 -0.42310076361 -0.17729739413 
-0.88288437604 -0.43425099936 -0.1787211462 -0.87888135149 -0.44188984812 -0.17972460082 -0.87664522409 -0.44608078836 -0.18029165632 
-0.87630504001 -0.44671309089 -0.18037985277 -0.8787656768 -0.44212220147 -0.17971879213 -0.88386499861 -0.43243516618 -0.17827644624 
-0.89273229849 -0.41497002269 -0.17558167189 -0.90633817967 -0.38640786977 -0.17099725804 -0.92545712139 -0.3417556463 -0.16349983087 
-0.95180965954 -0.26733514946 -0.15030066488 -0.98252020735 -0.13744904122 -0.1255460203 -0.99125366337 0.10977151226 -0.073255647914 
-0.83739725755 0.54541859772 0.035838335847 -0.35330266423 0.92090625221 0.16464781226 0.077919705713 0.97272066725 0.21850176879 
0.303264054 0.9245929101 0.23056206137 0.42464437996 0.87509867637 0.23211948901 0.49542926441 0.83730685131 0.23122949794 
0.54234866444 0.80809919471 0.22985564532 0.5748308955 0.78571087609 0.22853415667 0.59893833428 0.76783887569 0.22736827552 
0.618247797 0.75269027665 0.22633384401 0.63302845646 0.74055869188 0.22549456134 0.64632832648 0.7292204477 0.22471589407 
0.65695972489 0.71985354295 0.22408658276 0.66627552774 0.71141199981 0.22353945438 0.67489123603 0.7034014733 0.22304301576 
0.68205543278 0.69658491404 0.22264286233 0.68876024638 0.69007186345 0.22228393169 0.69488390265 0.68400640751 0.22197206202 
0.70040163403 0.67844206667 0.22170681816 0.70524050536 0.67348233128 0.22148900436 0.71009393878 0.66843060905 0.22128515314 
0.7134355554 0.66490609096 0.22115514575 0.71734531525 0.66073314513 0.22101450093 0.72016145923 0.65769418041 0.22092043296 
0.72251419236 0.65513330645 0.22084744194 0.72407582068 0.65342223389 0.22080215161 0.72604986939 0.65124656937 0.22074757765 
0.72604986939 0.65124656937 0.22074757765 
