# vtk DataFile Version 4.1
vtk output
ASCII
DATASET POLYDATA
POINTS 165 float
-26.4526 6.88974 158.67 -24.6691 7.02343 155.44 -22.8866 7.157 152.211 
-21.108 7.29008 148.987 -19.3364 7.42231 145.769 -17.5745 7.55334 142.56 
-15.8253 7.68284 139.365 -14.0914 7.81052 136.185 -12.3756 7.93612 133.024 
-10.6804 8.05943 129.885 -9.00806 8.18028 126.77 -7.36086 8.29853 123.684 
-5.74077 8.41412 120.629 -4.14959 8.52702 117.608 -2.5889 8.63722 114.624 
-1.06002 8.74477 111.679 0.43593 8.84973 108.778 1.89813 8.9522 105.92 
3.326 9.05224 103.109 4.71922 9.14996 100.347 6.07774 9.24542 97.6331 
7.40177 9.33865 94.9697 8.69176 9.42967 92.3565 9.94841 9.51843 89.7932 
11.1726 9.60483 87.279 12.3656 9.68871 84.8125 13.5286 9.76983 82.3917 
14.6632 9.84788 80.0141 15.771 9.92249 77.6769 16.8537 9.99319 75.3766 
17.9132 10.0595 73.1094 18.9513 10.1207 70.8712 19.9701 10.1762 68.6575 
20.9714 10.2254 66.4637 21.957 10.2673 64.2849 22.9287 10.3012 62.1162 
23.8883 10.3263 59.9527 24.8372 10.3417 57.7895 25.7768 10.3465 55.6219 
26.7083 10.3399 53.4455 27.6327 10.3211 51.2559 28.5507 10.2891 49.0492 
29.4628 10.2433 46.8218 30.3691 10.1828 44.5707 31.2697 10.1071 42.2932 
32.1642 10.0155 39.9871 33.0521 9.90734 37.6509 33.9324 9.78227 35.2834 
34.804 9.63984 32.8841 35.6656 9.47976 30.4531 36.5155 9.3018 27.9909 
37.3522 9.10583 25.4987 38.1736 8.89181 22.9781 38.9777 8.6598 20.4311 
39.7624 8.40997 17.86 40.5255 8.14255 15.2678 41.265 7.85788 12.6574 
41.9788 7.55641 10.0321 42.6648 7.23863 7.39538 43.3212 6.90514 4.75064 
43.9463 6.55661 2.1014 44.5386 6.19377 -0.548911 45.0969 5.81742 -3.19699 
45.6203 5.42838 -5.83972 46.1079 5.02755 -8.47418 46.5593 4.61582 -11.0977 
46.9745 4.19415 -13.7081 47.3534 3.76346 -16.3032 47.6966 3.32472 -18.8813 
48.0045 2.87885 -21.4412 48.2781 2.42678 -23.9818 48.5184 1.96942 -26.5025 
48.7265 1.50764 -29.0028 48.9038 1.04228 -31.4828 49.0516 0.574154 -33.9425 
49.1713 0.104026 -36.3824 49.2646 -0.367371 -38.8032 49.3328 -0.839341 -41.2054 
49.3774 -1.31122 -43.5899 49.3998 -1.78237 -45.9577 49.4013 -2.25217 -48.3096 
49.3833 -2.72003 -50.6464 49.347 -3.18534 -52.9689 49.2934 -3.6475 -55.2776 
49.2238 -4.10591 -57.5731 49.1391 -4.55993 -59.8554 49.0403 -5.00892 -62.1244 
48.9284 -5.4522 -64.3798 48.8042 -5.88906 -66.6209 48.6688 -6.31876 -68.8466 
48.5229 -6.74054 -71.0557 48.3676 -7.15361 -73.2464 48.2037 -7.55718 -75.4168 
48.0322 -7.95043 -77.5648 47.8539 -8.33259 -79.6881 47.67 -8.70288 -81.7841 
47.4813 -9.06057 -83.8503 47.2887 -9.40499 -85.8843 47.0933 -9.73554 -87.8837 
46.8958 -10.0517 -89.8461 46.6972 -10.3531 -91.7698 46.4983 -10.6394 -93.653 
46.2998 -10.9104 -95.4947 46.1024 -11.166 -97.2942 45.9067 -11.4064 -99.0511 
45.7133 -11.6318 -100.766 45.5224 -11.8424 -102.439 45.3344 -12.0386 -104.073 
45.1497 -12.2211 -105.669 44.9683 -12.3904 -107.229 44.7903 -12.5471 -108.757 
44.6158 -12.6921 -110.255 44.4446 -12.826 -111.728 44.2766 -12.9496 -113.178 
44.1119 -13.0637 -114.611 43.9501 -13.1691 -116.029 43.7911 -13.2663 -117.436 
43.6348 -13.3562 -118.837 43.481 -13.4392 -120.234 43.3297 -13.5161 -121.632 
43.1806 -13.5871 -123.034 43.0337 -13.6528 -124.441 42.8891 -13.7134 -125.856 
42.7467 -13.7693 -127.283 42.6065 -13.8207 -128.722 42.4688 -13.8678 -130.174 
42.3335 -13.9105 -131.642 42.2009 -13.9491 -133.126 42.0711 -13.9836 -134.626 
41.9444 -14.0139 -136.144 41.8208 -14.0399 -137.68 41.7007 -14.0617 -139.234 
41.5842 -14.0791 -140.806 41.4714 -14.0921 -142.398 41.3626 -14.1006 -144.008 
41.2578 -14.1043 -145.638 41.157 -14.1032 -147.289 41.0604 -14.0972 -148.96 
40.9679 -14.0861 -150.652 40.8793 -14.0697 -152.366 40.7946 -14.0479 -154.103 
40.7137 -14.0205 -155.863 40.6362 -13.9873 -157.647 40.5619 -13.9483 -159.456 
40.4904 -13.9032 -161.291 40.4216 -13.8518 -163.152 40.3548 -13.7941 -165.039 
40.2899 -13.7298 -166.953 40.2263 -13.6588 -168.895 40.1637 -13.581 -170.864 
40.1016 -13.4964 -172.861 40.0397 -13.4049 -174.884 39.9777 -13.3065 -176.934 
39.9151 -13.2013 -179.009 39.8518 -13.0894 -181.108 39.7875 -12.9709 -183.231 
39.7219 -12.8462 -185.376 39.6551 -12.7156 -187.542 39.5869 -12.5794 -189.725 
39.5173 -12.4383 -191.926 39.4465 -12.2927 -194.14 39.3745 -12.1433 -196.367 
39.3015 -11.9909 -198.603 39.2277 -11.8362 -200.846 39.1535 -11.68 -203.093 

LINES 1 166
165 164 163 162 161 160 159 158 157 156 155 154 153 152 151 150 149 148 147 146 145 144 143 142 141 140 139 138 137 136 135 134 133 132 131 130 129 128 127 126 125 124 123 122 121 120 119 118 117 116 115 114 113 112 111 110 109 108 107 106 105 104 103 102 101 100 99 98 97 96 95 94 93 92 91 90 89 88 87 86 85 84 83 82 81 80 79 78 77 76 75 74 73 72 71 70 69 68 67 66 65 64 63 62 61 60 59 58 57 56 55 54 53 52 51 50 49 48 47 46 45 44 43 42 41 40 39 38 37 36 35 34 33 32 31 30 29 28 27 26 25 24 23 22 21 20 19 18 17 16 15 14 13 12 11 10 9 8 7 6 5 4 3 2 1 0 

CELL_DATA 1
FIELD FieldData 2
LengthArray 1 1 double
380.2005399 
TortuosityArray 1 1 double
0.032782594668 
POINT_DATA 165
FIELD FieldData 8
RadiusArray 1 165 double
61.896923781 62.391422467 62.554153168 62.771682609 62.149554749 61.382404981 61.136878268 60.823170148 60.368038709 
60.251246987 60.005174591 59.692094497 59.677591535 59.357436478 58.90711213 58.888216541 58.715762614 58.401836221 
58.345277001 58.111114174 58.11340016 58.014760702 58.084982583 58.133268284 58.072899982 58.057300317 58.058179765 
57.91222364 57.623690103 57.511359388 57.390091031 57.364035041 57.261623075 57.188713841 57.166803287 57.147943221 
57.01342002 56.996435723 56.941687071 56.907848082 56.705461243 56.485751661 56.317502647 55.776916032 55.596473366 
55.340840655 54.649105471 54.588861402 54.361203066 54.361178291 54.36031826 54.18109205 53.03494019 52.497858679 
52.325396127 52.101371935 51.497652162 51.428090416 51.255313284 50.51582577 50.2650256 49.808873689 49.722107938 
49.598070216 49.597061539 49.319258398 48.011516223 47.55634486 46.265464501 46.161194413 45.429822032 44.850374319 
44.513187624 44.199598197 44.054296016 43.980403996 43.711223853 43.587497794 43.582910191 43.384671441 43.318646721 
43.321700383 43.602844757 43.649238578 43.956416997 44.084271947 44.157177358 44.159018804 44.169819586 44.258655468 
44.462463774 44.69994476 44.81755724 44.996830442 45.252199365 45.477442803 45.893139661 46.250220954 46.43254732 
46.774176648 47.164667103 47.175854109 47.544906798 47.621048477 47.717156553 47.98904388 48.001196984 48.171111875 
48.415710503 48.534943637 48.535518278 48.544119996 48.563059535 48.570825099 48.598215062 48.641614885 48.690723102 
48.724624982 48.775760304 48.885145815 49.034476938 49.076416143 49.155950849 49.168254317 49.310668352 49.49560151 
49.414390636 49.17228949 48.832699877 48.759379977 48.474674514 48.439247343 48.336111518 48.114111855 48.004566617 
47.847138188 47.832764952 47.817105064 47.675298939 47.550896987 47.546114169 47.535036645 47.277276409 47.012071486 
46.705052335 46.298838745 46.138646755 46.008702091 45.72030686 45.249108389 44.926959567 44.740176864 44.416417696 
44.102350966 43.906784204 43.777004761 43.611001064 43.583883577 43.206817597 41.932064655 41.068053476 41.04412143 
40.941858808 40.379345626 39.926075234 
EdgeArray 2 165 int
13230 13230 13846 12233 13846 13899 12741 12741 13227 
13227 14301 14301 15051 15051 11871 15058 15591 15591 
15592 15592 14746 14746 15380 15380 12168 13906 14485 
14485 13812 13812 13743 13743 15668 15668 13819 13819 
16362 16362 13555 13555 16603 14390 16602 16602 16599 
16599 17345 17345 17342 17343 18010 17343 18010 18010 
18006 18006 14284 14284 11973 17068 17677 17677 14654 
14654 17372 17372 17374 17374 18336 18336 18731 18731 
14959 14959 17150 17150 19032 19032 19030 19030 19676 
19676 18416 19674 20058 20058 20064 20064 22477 22476 
22479 22479 22513 22513 22512 22512 19369 19369 23067 
19369 23067 23067 23065 23066 20446 20446 23665 23665 
17118 17118 19022 19022 23345 23345 20941 23229 21443 
21443 24486 24486 23195 23195 25675 25675 22691 22691 
23277 23277 22810 22810 25673 25673 26438 26438 26458 
26458 27116 27116 27114 27114 26656 26656 20364 20364 
24986 25591 26303 26303 26257 26284 25553 26287 24673 
24673 25035 25035 25030 27350 23014 26668 19802 20968 
19802 17382 19087 19087 25342 25953 25342 24978 24203 
24203 15783 15783 27301 28425 27430 27301 22075 27430 
22075 22075 24120 24120 28371 28371 22165 22165 18520 
28380 25516 25516 17214 17214 25165 25165 29898 29898 
29906 29906 29959 29959 30092 27766 25604 25604 29394 
29394 20006 20006 29367 29761 29761 29761 28949 28949 
18138 29128 30147 30516 30147 15835 30400 30676 29956 
21381 24949 24949 27201 30090 25878 28736 28736 28167 
28944 28944 19419 19419 31010 31010 30952 30952 12456 
12456 31259 29748 30403 30403 18834 18834 31568 31568 
31996 31996 31305 31305 32646 29243 31776 31776 32727 
32924 32512 32727 32025 32025 33382 33382 30454 30454 
34210 34210 33575 34205 34419 29409 34578 34578 33628 
34583 34583 34584 34571 34584 35155 34443 35155 34969 
35341 34969 35153 35575 35013 35013 35610 35610 35608 
35608 35454 35454 35762 35987 36185 36185 36187 36187 
36317 36320 36315 36315 36696 35956 36684 36684 36663 
36683 36867 36338 35950 35950 37538 37538 37596 37596 
37595 37595 37855 37855 39559 39559 
EdgePCoordArray 1 165 double
0 0.452 0.372 0 0 0 0 0.1 0 
0 0 0 0.08 0 0 0 0 0 
0 0 0.804 0 0 0 0.84 0.344 0 
0 0 0.568 0 0 0 0 0 0 
0 0 0 0 0 0.26 0 0 0.496 
0 0 0 0 0.972 0 0.852 0 0 
0 0 0 0.272 0 0 0 0 0 
0 0 0 0 0 0 0 0 0 
0.884 0 0.812 0.788 0 0 0.812 0.324 0.06 
0.04 0 0.572 0.716 0 0 0.468 0.1 0.688 
0 0 0 0 0.812 0 0 0 0 
0 0 0.984 0 0 0 0.932 0 0 
0.592 0.256 0.344 0.052 0.64 0 0.54 0.408 0.612 
0 0 0 0 0 0.004 0 0 0 
0 0 0.728 0 0.036 0.728 0 0 0 
0 0.968 0.068 0 0.976 0.356 0.988 0.516 0.328 
0.1 0.204 0 0 0 0 0.728 0 0 
0.98 0 0.068 0 0.892 0.216 0 0 0 
0 0 0 
CurvatureArray 1 165 double
0 2.9233118398e-05 0.00011866991064 0.00020667043374 0.00029428961054 0.00037804210573 0.0004599149449 0.00053527853896 0.00060619038984 
0.00067013950803 0.00072818167585 0.00077789922479 0.00082081345023 0.00085623859585 0.00088519124654 0.00090696501758 0.00092333045105 0.00093436251609 
0.000940939211 0.00094467270234 0.00094561184071 0.00094683384588 0.00094741662241 0.00095164221362 0.00096035105332 0.00097792081331 0.0010079161632 
0.0010537059027 0.0011209222732 0.0012120972106 0.0013300505587 0.0014732659397 0.0016398655906 0.0018248173864 0.0020236669851 0.0022294192269 
0.0024364998392 0.002638395438 0.0028304962622 0.0030077620246 0.003169194855 0.0033120450632 0.0034363245686 0.0035437435538 0.0036352996324 
0.0037142523992 0.0037829062072 0.0038445201052 0.0039012280483 0.0039559700537 0.0040106689897 0.0040674941052 0.0041274918406 0.004191218914 
0.0042584084345 0.0043310160746 0.0044073155118 0.0044852815381 0.0045648186636 0.004645061687 0.0047217867683 0.0047951520304 0.0048609292519 
0.004918315827 0.0049630519892 0.0049932024434 0.0050082467229 0.0050034765908 0.0049794902247 0.0049340823529 0.0048689348388 0.0047821273711 
0.0046760026967 0.0045525135736 0.004414325207 0.0042631241704 0.004101957729 0.0039360170955 0.0037681923639 0.0035993941804 0.0034357057563 
0.0032784342559 0.0031284927227 0.0029911274631 0.0028627427945 0.0027487017856 0.0026466387017 0.0025588320872 0.0024818649526 0.0024208205049 
0.0023703280283 0.0023353438463 0.0023117950183 0.0023039611374 0.0023088280197 0.0023283026847 0.0023627880101 0.0024108934297 0.0024753327527 
0.0025537080217 0.0026460956002 0.0027511051374 0.0028673330461 0.0029920819589 0.0031220569251 0.0032549752728 0.0033837926088 0.0035055262852 
0.0036128721301 0.0037021986805 0.0037679785695 0.0038062014226 0.0038157019684 0.0037951719573 0.0037474836814 0.0036744808301 0.0035844062316 
0.003481253267 0.003372815731 0.0032650601223 0.0031618066985 0.0030707356596 0.0029891313585 0.0029267018134 0.0028737469472 0.0028341123218 
0.002806969532 0.0027897653744 0.0027774859306 0.0027694731557 0.0027633427772 0.0027567750885 0.0027455557613 0.0027272199812 0.0026996773643 
0.0026651801916 0.002617332058 0.0025591888329 0.002489874215 0.0024094842598 0.0023211858005 0.0022271031233 0.0021252815513 0.0020258664703 
0.0019251773082 0.0018280556085 0.0017368712873 0.0016509763667 0.0015721729163 0.0014996530442 0.001431591883 0.0013678096458 0.0013047295059 
0.0012403472501 0.0011725144972 0.001100018132 0.0010209509651 0.00093372190372 0.00083797436816 0.00073326382712 0.00062039940468 0.00049891121855 
0.00037045465308 0.00023506391908 0 
TorsionArray 1 165 double
0 0 7.596357268e-05 0.00042383122938 0.00068178566153 0.0010093786519 0.0012829513809 0.0015880041202 0.0019558561203 
0.0022891864334 0.0026699767651 0.0030519143279 0.0033923304264 0.0037296281886 0.0039781594 0.0041649716786 0.0041522282501 0.0038741450319 
0.003270022558 0.002153058174 0.00038288404 -0.0021414243632 -0.005518249293 -0.0098019181578 -0.014823415122 -0.020229477798 -0.025393750035 
-0.029430367006 -0.031631482637 -0.031584957892 -0.029546611218 -0.026183114305 -0.021999768936 -0.017658879347 -0.013494041241 -0.0097691231534 
-0.0065046993851 -0.0036906919582 -0.0012934937237 0.00077806821128 0.002503415809 0.0039350432552 0.0051510946281 0.0060845106144 0.0068745936855 
0.0074852741333 0.0079008435932 0.0081603221291 0.0082589179026 0.0082737776129 0.0081808893215 0.0080035932438 0.007738959571 0.0074041453822 
0.0070934528378 0.006785346484 0.0064140774623 0.0060537155895 0.0057560440576 0.005452851813 0.0051913940695 0.0049672335441 0.0047852616401 
0.0046514430143 0.0045424631456 0.004513249159 0.0045270142565 0.0046008833799 0.0047356481806 0.0049587908382 0.0052670054803 0.0056438272591 
0.0061454568603 0.0067560596931 0.0074756057613 0.0083187446677 0.0092959786519 0.010409816074 0.011631064038 0.012956625356 0.014369957019 
0.015850284503 0.017367251247 0.018851902066 0.020354669621 0.02176969968 0.023082194638 0.024422148739 0.025580220453 0.026655560532 
0.027727144167 0.028554900383 0.029385551657 0.030009146569 0.030581692146 0.030849494309 0.031042385791 0.030957509359 0.030596442978 
0.030286421906 0.029727190434 0.029034742909 0.028519961747 0.027645265911 0.026943466025 0.026781498971 0.026425610096 0.026094418365 
0.026397348898 0.026834427652 0.027003759866 0.027899207286 0.029280514256 0.030275223988 0.031641840924 0.033138448073 0.034442224393 
0.035323390822 0.035858970684 0.03608700723 0.035787586951 0.03434792077 0.0327102749 0.030734846636 0.027411043321 0.024350592388 
0.021494845155 0.018255847628 0.014954070572 0.011883961095 0.0090935418376 0.0065302414129 0.0036346527137 0.00078669791578 -0.0015193903335 
-0.0041089507337 -0.0068050416333 -0.0094790836336 -0.012370819001 -0.015232201918 -0.018110212742 -0.021295867046 -0.024320469775 -0.027121355925 
-0.0299805207 -0.03192808582 -0.033799683835 -0.035057310012 -0.034835447595 -0.034276554503 -0.032994725669 -0.030708868498 -0.028374756183 
-0.025587654222 -0.022840201216 -0.020186878091 -0.017475486669 -0.014698096032 -0.012689049532 -0.010996117039 -0.0088113777741 -0.0067377567441 
-0.0056753971075 0 0 
TangentArray 3 165 double
-0.48304929955 -0.036203900539 0.87484435861 -0.48304929955 -0.036203900539 0.87484435861 -0.48281565535 -0.036153344368 0.87497541602 
-0.48230226999 -0.036042574843 0.87526307655 -0.4815132085 -0.035873571084 0.87570435476 -0.48045686998 -0.035650447723 0.87629346777 
-0.47914455237 -0.035378924887 0.87702270758 -0.4775921619 -0.035066395086 0.8778815836 -0.47582010286 -0.034721715554 0.87885700326 
-0.47384971271 -0.034354869734 0.87993533438 -0.47170493656 -0.033976203621 0.8811016232 -0.46941188567 -0.033596713971 0.88233992452 
-0.46699811775 -0.033227260936 0.88363380829 -0.46448986368 -0.032877385135 0.88496793393 -0.4619126622 -0.032555593898 0.88632771919 
-0.45929127276 -0.032268378969 0.88769943026 -0.45664844726 -0.032020213274 0.88907080795 -0.45400367973 -0.031812304428 0.89043171332 
-0.45137444794 -0.031642294985 0.89177344259 -0.44877392543 -0.031504102626 0.89308983611 -0.44621216608 -0.031387010231 0.8943766312 
-0.44369435246 -0.031275270842 0.89563227891 -0.44122234085 -0.03114827884 0.89685708486 -0.43879399525 -0.030980581723 0.89805346906 
-0.43640197378 -0.030741583539 0.89922648556 -0.43403545558 -0.030396368619 0.90038285416 -0.43167869623 -0.029905928399 0.90153155168 
-0.42931409375 -0.029228486313 0.90268217247 -0.42692048352 -0.02832119482 0.90384556793 -0.42447356923 -0.02714120733 0.90503344905 
-0.42194660424 -0.025647952177 0.90625782519 -0.41931158548 -0.023804784982 0.90753023448 -0.41654082969 -0.021580538333 0.90886083509 
-0.41360665241 -0.018952499767 0.91025839179 -0.41048206075 -0.015906954342 0.91172991977 -0.40714131011 -0.012440270318 0.91328045708 
-0.40356125459 -0.0085589492804 0.91491259593 -0.39972142172 -0.0042792576679 0.91662668135 -0.39560435481 0.00037341594698 0.91842095741 
-0.39119609955 0.0053657871943 0.92029170377 -0.38648463709 0.01065904028 0.92223424907 -0.38146058068 0.016211255678 0.92424294457 
-0.37611791577 0.021978068471 0.92631111293 -0.37045132946 0.027915706301 0.9284322947 -0.36445763524 0.033983114599 0.9305996884 
-0.35813366677 0.040141623173 0.93280701478 -0.35147616207 0.046356848387 0.93504842126 -0.34448224904 0.052599426343 0.93731813193 
-0.33714905999 0.058844660611 0.93961046038 -0.32947394399 0.06507286447 0.94191955205 -0.32145325832 0.071268070615 0.94423972847 
-0.31308313949 0.077418281213 0.94656503078 -0.30435974579 0.083514647126 0.94888906035 -0.29528075391 0.089550761711 0.95120446669 
-0.28584641371 0.09552177213 0.95350271044 -0.27605650406 0.10142334825 0.95577513621 -0.26591209084 0.10725123556 0.95801249074 
-0.25542106657 0.11300082632 0.960203568 -0.24459524668 0.1186667291 0.96233641348 -0.23344810349 0.12424213557 0.96439922995 
-0.22200052002 0.12971855242 0.96637925592 -0.2102788627 0.13508549335 0.96826376024 -0.19831468328 0.14033083416 0.97004048543 
-0.18614566781 0.14544054868 0.97169791456 -0.17381514499 0.15039879134 0.97322582114 -0.16137351652 0.1551885629 0.97461535906 
-0.14887250597 0.15979205134 0.97586037797 -0.13636864426 0.16419076782 0.97695700244 -0.12392150808 0.16836593023 0.97790407166 
-0.11159027424 0.1722997387 0.9787034335 -0.09943211299 0.17597515914 0.97935999422 -0.087501867723 0.17937628835 0.97988140625 
-0.075851685179 0.1824893505 0.98027759273 -0.064526064479 0.18530244284 0.98056075369 -0.053562166191 0.18780613562 0.98074458947 
-0.042990673586 0.18999340169 0.9808436722 -0.032835904854 0.19185940475 0.98087296433 -0.023112160753 0.19340199893 0.98084733513 
-0.013824517826 0.19462122342 0.98078104697 -0.0049746599741 0.19551890996 0.98068731439 0.0034424778894 0.19609900281 0.98057805933 
0.011438926982 0.19636699226 0.98046374502 0.019027199602 0.19632933041 0.98035338511 0.02622484408 0.19599350214 0.98025445914 
0.033049193976 0.1953679717 0.98017299821 0.039517441904 0.19446115848 0.98011388605 0.045648340308 0.19328168106 0.9800808236 
0.051458778658 0.19183858293 0.98007650324 0.056962248377 0.19013935565 0.98010322298 0.062172924976 0.18819204038 0.980162376 
0.067102788176 0.18600353956 0.98025501738 0.071761600442 0.18357947525 0.98038199135 0.076158870718 0.18092549812 0.98054361991 
0.080302230267 0.17804540089 0.98074022403 0.084199081242 0.17494213885 0.98097184607 0.087853804683 0.17161825402 0.98123844395 
0.0912721789 0.16807558652 0.9815396001 0.094457257562 0.16431582599 0.98187480659 0.097412845251 0.16034040079 0.98224319466 
0.1001429716 0.15615098137 0.98264350415 0.10264829153 0.15175009681 0.98307437987 0.1049297737 0.1471418562 0.98353394285 
0.10698798863 0.14233269511 0.98401980376 0.10882060516 0.13733103344 0.98452946281 0.11042747323 0.13215026293 0.98505943027 
0.1118075032 0.1268065308 0.98560599936 0.11295447289 0.12132018594 0.98616565522 0.11386505122 0.11571767626 0.98673409261 
0.11453776743 0.11003032567 0.98730665311 0.11496802969 0.10429365596 0.98787913505 0.11515319443 0.098546142086 0.98844746936 
0.11509685489 0.09282943513 0.98900728509 0.11480051692 0.087185165792 0.98955524766 0.1142656184 0.081653720378 0.99008890429 
0.11350080277 0.076271672362 0.99060597604 0.11251493834 0.071071028348 0.99110508907 0.11131797671 0.066076148939 0.99158572529 
0.10992177288 0.061302995298 0.9920479558 0.10834035547 0.056759335491 0.99249218899 0.10658709792 0.05244440842 0.99291931927 
0.10467394595 0.048351607503 0.99333050245 0.10261081011 0.044467392417 0.99372716208 0.10040937065 0.040773126877 0.99411041158 
0.098076408193 0.037246883147 0.99448161765 0.095616686271 0.03386662202 0.99484194786 0.093040847631 0.030609647183 0.99519166504 
0.090353936113 0.02745256268 0.99553127677 0.087559262209 0.024374669075 0.99586106014 0.084663898568 0.021357339628 0.99618065045 
0.081677244029 0.018383977623 0.99648926596 0.078608711591 0.015439480517 0.99678598149 0.075468926642 0.012511547036 0.9970696577 
0.0722714388 0.0095914388068 0.99733888094 0.0690356216 0.0066712724525 0.99759188904 0.065784044389 0.0037452039197 0.9978268552 
0.062537216211 0.00080975639044 0.99804230416 0.059320306793 -0.0021376635488 0.9982367112 0.056161451191 -0.0050976080279 0.99840868676 
0.053088050511 -0.0080704482567 0.99855722258 0.050129260177 -0.011055197573 0.99868155079 0.047312334565 -0.01404998628 0.99878132786 
0.044661270329 -0.017053159391 0.99885662669 0.042201587046 -0.020060998169 0.99890769464 0.039952096174 -0.023070424269 0.9989352259 
0.037927139673 -0.026078453335 0.99894016155 0.036139441905 -0.029079710153 0.99892357625 0.034592950299 -0.032068511836 0.99888684962 
0.033290162246 -0.035038804791 0.99883134075 0.032229235716 -0.037982821126 0.9987585202 0.031399500214 -0.040890970421 0.99867011567 
0.030789576826 -0.043751950763 0.99856785887 0.030383635743 -0.046553874017 0.99845359005 0.030161055675 -0.049282585149 0.99832937326 
0.030100539298 -0.051921423709 0.99819743703 0.030177668006 -0.054452068071 0.99806025902 0.030367126388 -0.056855525109 0.99792048125 
0.030643199297 -0.059111853818 0.9977809294 0.030978737556 -0.061199655087 0.99764468627 0.031346160874 -0.06309724474 0.99751499032 
0.031721367049 -0.064782915747 0.99739507152 0.032081877587 -0.066236227332 0.99728808041 0.032404736305 -0.067438404234 0.99719706914 
0.032670383694 -0.068372274295 0.9971248057 0.032863895584 -0.069022439052 0.99707365188 0.032863895584 -0.069022439052 0.99707365188 

NormalArray 3 165 double
-0.85658457645 -0.18752098953 -0.48072730511 -0.85658457645 -0.18752098953 -0.48072730511 -0.85719260022 -0.18493710338 -0.48064447769 
-0.85747225419 -0.18500974312 -0.48011741089 -0.85830983717 -0.18287010522 -0.47944003592 -0.85937457005 -0.1802749009 -0.47851468991 
-0.86085896452 -0.1760565612 -0.47741588837 -0.86255719389 -0.17125362311 -0.47609587672 -0.86458298716 -0.16504304624 -0.47461252745 
-0.86686468849 -0.15763611294 -0.47296560947 -0.86934125695 -0.14917396302 -0.47116123324 -0.87202995531 -0.13924123832 -0.46922876573 
-0.87481425066 -0.12829760314 -0.4671613767 -0.87765938941 -0.11625137665 -0.464972702 -0.88049329492 -0.10330221489 -0.46266641331 
-0.88322846793 -0.089895979395 -0.46024578903 -0.88582967598 -0.076115466583 -0.45772504946 -0.88818674258 -0.063191253832 -0.45511666168 
-0.89029068596 -0.051633642438 -0.45245603262 -0.89210112394 -0.042931948095 -0.44979154339 -0.89360865887 -0.038603687893 -0.44718376543 
-0.89475681609 -0.040804579825 -0.44468553645 -0.89539983585 -0.051371712775 -0.44228958961 -0.89511802739 -0.072670654838 -0.43986667635 
-0.89309536674 -0.1065433287 -0.43706885614 -0.88803813476 -0.15381498976 -0.43327730167 -0.87824961061 -0.2140319998 -0.42763059353 
-0.86218938649 -0.28433847398 -0.41926255978 -0.83934954635 -0.35952085281 -0.40772183585 -0.81053697023 -0.43410341152 -0.39317177925 
-0.77845949892 -0.50212702035 -0.37665536499 -0.74580555755 -0.56095931457 -0.35930310007 -0.71547378504 -0.60899928338 -0.34236988151 
-0.68938274467 -0.64654051872 -0.32670596719 -0.66849882417 -0.67475854567 -0.31274626636 -0.65311803247 -0.69502494392 -0.3006279478 
-0.64286235805 -0.70888345558 -0.29019344412 -0.63739177232 -0.71735690182 -0.28130198007 -0.63606809658 -0.72146489528 -0.27368920584 
-0.63840163728 -0.72185028683 -0.26716196008 -0.64392247048 -0.71899932256 -0.26154125139 -0.65200573864 -0.71347878352 -0.25658632514 
-0.66227685557 -0.705549302 -0.252169683 -0.6743430671 -0.69547082106 -0.24815673458 -0.68761879561 -0.68372773114 -0.24432924832 
-0.70210751795 -0.67014757104 -0.24072238421 -0.71716170945 -0.65533951406 -0.23708480297 -0.73270218373 -0.63927161908 -0.23340802683 
-0.74825301452 -0.62245086605 -0.22950456558 -0.76371425774 -0.60494580846 -0.22534662489 -0.77887895716 -0.58700194715 -0.2208535355 
-0.79358929676 -0.56883825255 -0.21596080781 -0.80773326549 -0.55064168218 -0.21061982261 -0.82116972889 -0.53268335488 -0.20476503557 
-0.83385448915 -0.51510611937 -0.19837433481 -0.84589823488 -0.49777968209 -0.19149820971 -0.85722464733 -0.48090934113 -0.18409809785 
-0.86777500533 -0.46469194488 -0.17614748506 -0.87765480365 -0.44899533948 -0.16770578627 -0.88693151225 -0.4337388312 -0.15881787961 
-0.89555257477 -0.4190980552 -0.14947376341 -0.90366562161 -0.40478484728 -0.1397772218 -0.91122314536 -0.39094964797 -0.1297333886 
-0.91835363251 -0.37730298935 -0.11945317025 -0.92502917393 -0.36393314993 -0.10896646165 -0.93131417769 -0.35068267338 -0.098364449966 
-0.93727779872 -0.33735886872 -0.087745778956 -0.94291373943 -0.32397327082 -0.077168645108 -0.94830201709 -0.31027018317 -0.066751013673 
-0.95343703508 -0.29624178751 -0.056556374218 -0.95842029955 -0.28150922568 -0.046723497996 -0.9632304047 -0.26607390683 -0.037307687839 
-0.96791890738 -0.249650309 -0.028420273713 -0.97251618473 -0.23196072308 -0.020161681302 -0.97701351527 -0.21280421656 -0.01260779091 
-0.98139831449 -0.19189369807 -0.0058443952888 -0.98562082966 -0.16897211893 5.6213569946e-05 -0.98960741912 -0.14370796877 0.005017541968 
-0.99322968636 -0.1158192686 0.008982602462 -0.9962994998 -0.085119373367 0.011916332232 -0.99858267268 -0.051406136297 0.013786042538 
-0.99978838192 -0.014520137499 0.014572473586 -0.99957092163 0.02557540242 0.014278355155 -0.99754748879 0.068787490517 0.012934015314 
-0.99331541079 0.11494576876 0.010581348407 -0.98645482515 0.16387243354 0.0072597155053 -0.97659395889 0.21506929455 0.0030721329413 
-0.96341026245 0.26802450581 -0.0018789614136 -0.9463919896 0.32292995071 -0.0076451918503 -0.92573211713 0.37792651366 -0.01384187823 
-0.90063783748 0.43407653558 -0.02071344871 -0.87170727542 0.48923751454 -0.027804322427 -0.83835502046 0.54398319367 -0.035258256708 
-0.80128926013 0.5967495311 -0.042726089737 -0.76022794886 0.64770954057 -0.050257505095 -0.71599740884 0.69572458367 -0.057576160173 
-0.66904445159 0.74041202716 -0.064572067034 -0.61974354834 0.7815702354 -0.071175146117 -0.5694088231 0.81842820056 -0.07712893562 
-0.51834131888 0.8511911843 -0.082436914757 -0.4669567759 0.87998217561 -0.087078929962 -0.41640646105 0.90462191093 -0.090911261434 
-0.36672539138 0.92556763325 -0.094005550895 -0.31785092969 0.9432235569 -0.096437068575 -0.27149013975 0.95743780033 -0.098010012339 
-0.22585236772 0.96911150602 -0.099063600237 -0.1810480027 0.97841482215 -0.099629596623 -0.13784499976 0.98542736995 -0.099657687069 
-0.095511928589 0.99046284355 -0.099301697066 -0.052876750633 0.99370593348 -0.098755085973 -0.010697326698 0.99513223115 -0.0979663704 
0.030878028737 0.99480845868 -0.096967406327 0.074131478219 0.99261172399 -0.096054616422 0.11818816777 0.98842139231 -0.09515623057 
0.16265767322 0.98216990605 -0.094258988965 0.20896370009 0.97344074991 -0.093526886287 0.25583268647 0.96225257321 -0.092841918786 
0.30396022761 0.94820556332 -0.092273450851 0.35127644116 0.93177699166 -0.091632416239 0.39892726948 0.91245424019 -0.09101809283 
0.44483922172 0.89105175236 -0.09024877523 0.48968931176 0.86730416931 -0.089374805492 0.53008807976 0.84335020833 -0.088130890195 
0.56903737658 0.81772347676 -0.086745487575 0.60313404914 0.79310139562 -0.084967611716 0.63282677896 0.76984900539 -0.082841877854 
0.65876584797 0.74803787524 -0.080417005338 0.68115006092 0.72800832798 -0.077707585889 0.69930415195 0.71091311817 -0.074674235709 
0.71405581042 0.69644077986 -0.0713760447 0.72536131247 0.68501987155 -0.067814024702 0.73403750871 0.6760823635 -0.064043528649 
0.73986628038 0.67006785581 -0.060057936758 0.74239183838 0.66763482617 -0.055839924592 0.74213616579 0.66827263904 -0.051435312161 
0.73964076175 0.6713663852 -0.046890514823 0.73352827146 0.67835147229 -0.04213733518 0.72471215754 0.68804398002 -0.037252788803 
0.71187513339 0.70156857571 -0.032176513698 0.69537205911 0.71814423218 -0.026954799032 0.6742474428 0.73819087736 -0.021554917272 
0.64871517832 0.76086274493 -0.016015642139 0.61666671562 0.78715768144 -0.010244335213 0.58002904934 0.81458398679 -0.0043852474823 
0.53594059165 0.8442540018 0.0016919380935 0.48653204777 0.87362763999 0.0078302705663 0.43145152357 0.90202721906 0.014017092571 
0.37064609549 0.92855404581 0.020220185801 0.30615428287 0.95161825465 0.026310691591 0.24140237293 0.96989330728 0.032122684133 
0.17445974385 0.98394110908 0.03773183859 0.1113237576 0.99285757118 0.04290529496 0.050371693425 0.99758963872 0.047724262292 
-0.0053228708475 0.99862746244 0.052104302173 -0.056341832995 0.99683481411 0.056088779989 -0.10147554388 0.99304718137 0.059665815804 
-0.14202482062 0.9878634979 0.062886086228 -0.17583119371 0.98222457352 0.065713609689 -0.20479902341 0.97642525194 0.068198881107 
-0.23017165423 0.9706029252 0.070363137997 -0.25177798834 0.96508829737 0.072197111222 -0.26716571832 0.96083118297 0.073660822563 
-0.28043707545 0.95695302423 0.074806123657 -0.29076349633 0.95380271293 0.075610673957 -0.29076349633 0.95380271293 0.075610673957 

BinormalArray 3 165 double
0.18145588335 -0.98159317238 0.059570179834 0.18145588335 -0.98159317238 0.059570179834 0.17919232429 -0.98208513047 0.058300149502 
0.17923686467 -0.98207552039 0.058325111181 0.1773393737 -0.98248237211 0.057263732146 0.175032981 -0.98296999226 0.05597722644 
0.17129606284 -0.98374408203 0.053900277562 0.16703536797 -0.98460273436 0.05154261675 0.1615285982 -0.98567499479 0.048510994683 
0.15495825765 -0.9868994877 0.044914803378 0.14744569096 -0.98822707226 0.040829179202 0.13862264834 -0.98968840468 0.036064151258 
0.12889059262 -0.99117893145 0.0308470578 0.11816582721 -0.99267552351 0.025142440327 0.10662199637 -0.99411708853 0.019051618952 
0.094651995231 -0.995428282 0.012788087872 0.082328493078 -0.99658473884 0.0063935544788 0.070745806208 -0.99749428205 0.00043379472272 
0.060362258322 -0.99816468187 -0.0048647336568 0.052512365431 -0.99858116313 -0.0088381064882 0.04856199775 -0.99876153854 -0.010822268925 
0.050453559411 -0.99867754741 -0.0098790001377 0.059849644029 -0.99819373463 -0.0052238163965 0.07888945919 -0.99687470601 0.0041561697747 
0.10924277178 -0.9938327194 0.019040553114 0.15166243607 -0.9876320214 0.039768024664 0.2057452908 -0.9763687513 0.066128184651 
0.2689216814 -0.95827831437 0.096870023594 0.33649849894 -0.93270717072 0.12971543429 0.40354926455 -0.9004540982 0.16226647255 
0.46471698022 -0.86441346472 0.19190489913 0.51764067133 -0.82750104508 0.21746299864 0.56088412362 -0.79287713626 0.23823275734 
0.59471082757 -0.76264418991 0.25434793329 0.62017239529 -0.73786711124 0.26634249806 0.63849259139 -0.71887799174 0.27484840135 
0.65105015352 -0.70527369921 0.28057567037 0.65875223992 -0.69669273239 0.28401535705 0.66250627995 -0.69245091194 0.28565217238 
0.66287929611 -0.6920284472 0.28581054399 0.66029802158 -0.69492903165 0.2847457878 0.65526814525 -0.70048927233 0.2827338628 
0.6480159566 -0.70831994674 0.27992529902 0.63877009977 -0.71801187344 0.27646285327 0.6279737447 -0.72894549699 0.27255722037 
0.61545536797 -0.741141608 0.26818614231 0.60178367375 -0.75391058085 0.26358157389 0.58692375148 -0.76717996414 0.25875743963 
0.57135622654 -0.780443608 0.25388941907 0.55514633454 -0.79360323282 0.2490109558 0.53853075382 -0.80644254362 0.24420288907 
0.52172308349 -0.81879756483 0.23953198532 0.50490802823 -0.83055345497 0.23505072105 0.48835392159 -0.8415634881 0.23082751734 
0.47220601298 -0.8517871077 0.2268924954 0.45634305384 -0.86135282697 0.22320915009 0.44097240725 -0.87018582963 0.21981801098 
0.42629405213 -0.87823243484 0.21675140485 0.41218346756 -0.88561921418 0.21397055065 0.39856552228 -0.89243180023 0.21144977274 
0.38561814653 -0.89862668405 0.2092097698 0.37305662335 -0.90437886801 0.20718981364 0.36103139166 -0.90965137813 0.20540375971 
0.34925119329 -0.91459799968 0.20379917311 0.33780071456 -0.9192022987 0.20238036294 0.326515682 -0.92354651888 0.20112020503 
0.31519407513 -0.92771520092 0.19999300233 0.30383757644 -0.93170956395 0.19899752659 0.29217587892 -0.93562028995 0.19811090026 
0.28018820608 -0.93944324117 0.19733465433 0.26747669864 -0.94328431516 0.19664922188 0.25402875942 -0.94711605587 0.19606265862 
0.23954020664 -0.95098494214 0.19557128938 0.22371557265 -0.95491215702 0.1951771373 0.20633876352 -0.95887601953 0.19488738756 
0.18710732294 -0.96284958117 0.19470884352 0.16575096828 -0.96676697908 0.1946489781 0.14192598085 -0.97053783364 0.19471345469 
0.1153415486 -0.97401667153 0.19490472224 0.085805357958 -0.97699900109 0.19521883214 0.053111158562 -0.97923571741 0.19564410185 
0.017098021198 -0.98042295463 0.19615934266 -0.022269672431 -0.98020441379 0.19673171803 -0.064894261354 -0.97818956663 0.19731676709 
-0.11059948222 -0.97397064939 0.19786088207 -0.15920191497 -0.96712495747 0.19830296746 -0.21019150432 -0.95728124932 0.19857527843 
-0.26304497773 -0.94411907214 0.19861147325 -0.31795833734 -0.92712635189 0.19834117915 -0.37303428089 -0.90650720141 0.19771221275 
-0.42935847671 -0.88146482887 0.19664957145 -0.48474395167 -0.85261083188 0.19513603123 -0.53977836755 -0.81935843752 0.1931089454 
-0.59286345259 -0.78242560819 0.19058618581 -0.64417697917 -0.74153057867 0.18753245161 -0.69255282798 -0.69750589859 0.18400027687 
-0.73759671309 -0.65079999021 0.18002905761 -0.77909932665 -0.60178756756 0.17565865407 -0.81626241477 -0.5517845924 0.17102465856 
-0.84929009319 -0.50108925231 0.16618032022 -0.87830216764 -0.45011473951 0.16118940285 -0.90310320661 -0.40001059038 0.15619259201 
-0.92415694425 -0.35080758285 0.15122163274 -0.94187518408 -0.3024392649 0.14629295492 -0.95608518301 -0.25661092437 0.14160493041 
-0.96772402586 -0.21152539479 0.13699349304 -0.97696617535 -0.16728971364 0.13248110786 -0.98388693769 -0.12466883312 0.12815684101 
-0.98881675316 -0.082925767863 0.12395461143 -0.99196088703 -0.040882161025 0.1197591229 -0.99329014342 0.00070739499501 0.11564683558 
-0.99287424246 0.041699238865 0.11163293484 -0.99061867803 0.084384312906 0.10748917379 -0.98639491354 0.12788987906 0.10329207803 
-0.98013266914 0.17182813405 0.099070900029 -0.97142913313 0.21762815843 0.094675360905 -0.96029055217 0.26401501452 0.090211570834 
-0.94632202969 0.31168598375 0.085594764169 -0.92998238116 0.35856661258 0.081010833123 -0.91076683307 0.40580394723 0.0763343448 
-0.88947255824 0.45131906304 0.071761211512 -0.86583797537 0.49578839127 0.067219576637 -0.84197659468 0.53581524636 0.063066915126 
-0.816441965 0.57440489661 0.059004512824 -0.79188810326 0.60814737374 0.055407614457 -0.76868307416 0.63749161437 0.052256799578 
-0.74690275389 0.66308799869 0.049503355657 -0.72688924199 0.68513484067 0.047141064755 -0.70979273548 0.70295547687 0.045253399851 
-0.69530793711 0.717378749 0.043756177488 -0.68386521832 0.7283607609 0.042649327665 -0.67490249438 0.73671982391 0.041839265479 
-0.66886076749 0.74223788162 0.041330385879 -0.66639961078 0.74445902036 0.041137887006 -0.66701302156 0.7439070193 0.041182225673 
-0.67009002391 0.74112517237 0.041386455955 -0.67706526729 0.73473444893 0.041808054098 -0.68675918641 0.72565108416 0.042335846913 
-0.70029668952 0.71255624441 0.042990059414 -0.71689940485 0.6958064705 0.04368751456 -0.73698841841 0.67444556968 0.044398701083 
-0.75971967748 0.64868873362 0.04504374007 -0.78609235329 0.61642545446 0.045590253265 -0.81361546933 0.57958664926 0.045925854038 
-0.84340335208 0.53530841083 0.045996641156 -0.87291494845 0.48572535152 0.045720626272 -0.90147263442 0.43048636055 0.045039791048 
-0.92817737367 0.36953980324 0.043898711026 -0.9514361941 0.30492622503 0.042298532404 -0.96991698909 0.24007269947 0.040325342401 
-0.98418280809 0.17304814553 0.037928084493 -0.99331961406 0.10984798658 0.035349174974 -0.99827501382 0.048848126995 0.032570803905 
-0.99953270311 -0.0068816436328 0.029782854145 -0.99795536283 -0.057925173014 0.027014220752 -0.99437445242 -0.10307640296 0.024386543933 
-0.98938867219 -0.14363668839 0.021875947609 -0.98393277674 -0.17745278075 0.019667268876 -0.97830198722 -0.20642786896 0.017684928926 
-0.97263290324 -0.23180408846 0.015877660766 -0.96725311978 -0.25341140556 0.014285020544 -0.96310560793 -0.26880383081 0.013118251408 
-0.95931626315 -0.28207470914 0.012089901833 -0.95623038729 -0.29239748241 0.011276467062 -0.95623038729 -0.29239748241 0.011276467062 

