# vtk DataFile Version 4.1
vtk output
ASCII
DATASET POLYDATA
FIELD FieldData 4
Angle 1 2 double
0 0 
METADATA
INFORMATION 0

Offset 1 2 double
0 0 
METADATA
INFORMATION 0

Normal 3 2 double
0.085068 0.966759 -0.241124 0.002762 -0.997136 0.075581 
METADATA
INFORMATION 1
NAME L2_NORM_RANGE LOCATION vtkDataArray
DATA 2 1 1 

Binormal 3 2 double
0.021136 0.240196 0.970494 -0.000209 0.075581 0.99714 
METADATA
INFORMATION 1
NAME L2_NORM_RANGE LOCATION vtkDataArray
DATA 2 1 1 

POINTS 2 double
44.821385 87.805338 25.17247 48.792555 -64.051598 23.532082 
METADATA
INFORMATION 1
NAME L2_NORM_RANGE LOCATION vtkDataArray
DATA 2 66.8322 72.4716 

