# vtk DataFile Version 4.1
vtk output
ASCII
DATASET POLYDATA
POINTS 288 float
11.0305 1.56019 257.964 11.3815 1.1918 256.142 11.7327 0.824042 254.317 
12.0843 0.458807 252.485 12.4367 0.0979675 250.638 12.7902 -0.256644 248.771 
13.1451 -0.603267 246.879 13.5017 -0.94023 244.955 13.8602 -1.26598 242.996 
14.221 -1.57909 240.997 14.5841 -1.8783 238.954 14.9499 -2.16248 236.865 
15.3183 -2.43069 234.726 15.6894 -2.68218 232.538 16.0634 -2.91634 230.298 
16.44 -3.13276 228.007 16.8193 -3.33118 225.666 17.2009 -3.5115 223.276 
17.5848 -3.67377 220.839 17.9705 -3.81817 218.359 18.3578 -3.945 215.837 
18.7462 -4.05464 213.278 19.1352 -4.14758 210.686 19.5244 -4.22437 208.066 
19.9132 -4.28562 205.423 20.3011 -4.33197 202.76 20.6874 -4.36411 200.084 
21.0716 -4.38273 197.399 21.453 -4.38854 194.711 21.8312 -4.38226 192.023 
22.2056 -4.3646 189.342 22.5756 -4.33627 186.671 22.9408 -4.29795 184.014 
23.3007 -4.25034 181.375 23.655 -4.19409 178.758 24.0032 -4.12985 176.165 
24.345 -4.05825 173.599 24.6802 -3.97989 171.061 25.0087 -3.89535 168.552 
25.3302 -3.80517 166.074 25.6447 -3.70988 163.627 25.952 -3.60995 161.209 
26.2524 -3.50585 158.82 26.5457 -3.39799 156.458 26.8321 -3.28675 154.121 
27.1117 -3.17247 151.806 27.3847 -3.05546 149.512 27.6513 -2.93599 147.233 
27.9118 -2.81431 144.968 28.1663 -2.69062 142.713 28.415 -2.5651 140.463 
28.6583 -2.43793 138.217 28.8962 -2.30926 135.97 29.1291 -2.17923 133.72 
29.3569 -2.04797 131.464 29.5797 -1.91565 129.201 29.7977 -1.7824 126.929 
30.0107 -1.64841 124.646 30.2187 -1.51386 122.353 30.4215 -1.37896 120.05 
30.6188 -1.24395 117.736 30.8103 -1.1091 115.414 30.9957 -0.974716 113.083 
31.1746 -0.841113 110.747 31.3465 -0.708652 108.407 31.511 -0.577717 106.065 
31.6675 -0.44872 103.723 31.8156 -0.3221 101.382 31.9547 -0.198319 99.0454 
32.0843 -0.0778586 96.7136 32.2041 0.0387759 94.3879 32.3135 0.151062 92.0688 
32.4121 0.258459 89.7564 32.4997 0.360411 87.4505 32.5759 0.456346 85.1502 
32.6404 0.545676 82.854 32.693 0.627801 80.5602 32.7335 0.702109 78.2665 
32.7618 0.767975 75.9703 32.7777 0.824765 73.6688 32.781 0.87184 71.3589 
32.7716 0.908554 69.0375 32.7494 0.934264 66.7016 32.7142 0.948333 64.3482 
32.6658 0.950136 61.9746 32.604 0.939067 59.5785 32.5286 0.914552 57.1578 
32.4393 0.876057 54.7112 32.3358 0.823101 52.2377 32.2177 0.755268 49.737 
32.0848 0.672225 47.2094 31.9366 0.573735 44.6559 31.7729 0.459672 42.0781 
31.5932 0.330038 39.478 31.3972 0.18498 36.8585 31.1848 0.0247992 34.2229 
30.9556 -0.150031 31.5746 30.7096 -0.338859 28.918 30.4467 -0.540847 26.2572 
30.167 -0.754972 23.5968 29.8707 -0.980022 20.9415 29.558 -1.21461 18.2961 
29.2293 -1.45717 15.6651 28.8853 -1.706 13.0533 28.5266 -1.95927 10.465 
28.154 -2.21504 7.90433 27.7684 -2.47131 5.37532 27.371 -2.72605 2.88154 
26.9629 -2.97723 0.426276 26.5452 -3.22288 -1.98757 26.1194 -3.4611 -4.35748 
25.6868 -3.69012 -6.68131 25.2488 -3.90834 -8.95734 24.8068 -4.11435 -11.1842 
24.3623 -4.30696 -13.3611 23.9166 -4.48523 -15.4874 23.4711 -4.64848 -17.5631 
23.027 -4.7963 -19.5884 22.5855 -4.92854 -21.564 22.1477 -5.04531 -23.4909 
21.7147 -5.147 -25.3706 21.2872 -5.23418 -27.2047 20.866 -5.30767 -28.9953 
20.4518 -5.36844 -30.7447 20.0449 -5.41758 -32.4555 19.6459 -5.45633 -34.1304 
19.2548 -5.48595 -35.7724 18.8718 -5.50775 -37.3846 18.497 -5.52304 -38.9701 
18.1303 -5.53308 -40.532 17.7714 -5.53909 -42.0735 17.4203 -5.54218 -43.5977 
17.0767 -5.54335 -45.1076 16.7401 -5.54349 -46.6058 16.4104 -5.54335 -48.0951 
16.0872 -5.54356 -49.5776 15.7701 -5.5446 -51.0556 15.4588 -5.54682 -52.5308 
15.1529 -5.55045 -54.0045 14.8524 -5.5556 -55.4781 14.5567 -5.5623 -56.9522 
14.2659 -5.57048 -58.4274 13.9796 -5.57999 -59.904 13.6978 -5.59066 -61.3818 
13.4204 -5.60225 -62.8606 13.1472 -5.61452 -64.3398 12.8783 -5.6272 -65.8187 
12.6137 -5.64005 -67.2965 12.3533 -5.65282 -68.7722 12.0972 -5.66531 -70.2447 
11.8454 -5.67732 -71.7128 11.5979 -5.6887 -73.1755 11.3549 -5.69933 -74.6317 
11.1162 -5.70915 -76.0801 10.882 -5.71812 -77.52 10.6522 -5.72622 -78.9502 
10.4269 -5.73349 -80.3701 10.2059 -5.73999 -81.7789 9.98932 -5.7458 -83.1762 
9.77696 -5.75103 -84.5616 9.56877 -5.75577 -85.935 9.36462 -5.76016 -87.2963 
9.16438 -5.76432 -88.6457 8.96787 -5.76837 -89.9837 8.77492 -5.77242 -91.3108 
8.58533 -5.77656 -92.6279 8.39887 -5.78088 -93.9358 8.21533 -5.78543 -95.2358 
8.03444 -5.79026 -96.5291 7.85596 -5.79538 -97.8173 7.67962 -5.80076 -99.1017 
7.50517 -5.80636 -100.384 7.33232 -5.81209 -101.666 7.16082 -5.81784 -102.95 
6.9904 -5.82345 -104.236 6.8208 -5.82876 -105.527 6.6518 -5.83354 -106.824 
6.48316 -5.83755 -108.129 6.31468 -5.84051 -109.443 6.14615 -5.84212 -110.766 
5.97743 -5.84205 -112.099 5.80835 -5.83995 -113.444 5.63881 -5.83546 -114.8 
5.46871 -5.82819 -116.168 5.29796 -5.81775 -117.547 5.12651 -5.80376 -118.938 
4.95433 -5.78581 -120.34 4.78138 -5.76351 -121.751 4.60767 -5.73649 -123.173 
4.43318 -5.70436 -124.603 4.25791 -5.66678 -126.042 4.08186 -5.62341 -127.489 
3.90503 -5.57392 -128.942 3.7274 -5.51802 -130.403 3.54895 -5.45544 -131.869 
3.36964 -5.38593 -133.342 3.18942 -5.30925 -134.82 3.00824 -5.2252 -136.304 
2.82601 -5.13359 -137.794 2.64266 -5.03426 -139.29 2.45808 -4.92707 -140.792 
2.27217 -4.81187 -142.301 2.08482 -4.68857 -143.818 1.89592 -4.55704 -145.342 
1.70535 -4.41722 -146.874 1.51301 -4.26901 -148.415 1.31881 -4.11234 -149.965 
1.12263 -3.94715 -151.524 0.924418 -3.77339 -153.092 0.724094 -3.591 -154.67 
0.521608 -3.39993 -156.257 0.316924 -3.20014 -157.853 0.110023 -2.99159 -159.459 
-0.0990982 -2.77425 -161.074 -0.310427 -2.54808 -162.697 -0.523931 -2.31307 -164.329 
-0.739564 -2.06919 -165.97 -0.957262 -1.81644 -167.618 -1.17694 -1.55482 -169.274 
-1.39851 -1.28435 -170.938 -1.62184 -1.00505 -172.608 -1.84681 -0.716969 -174.286 
-2.07326 -0.420169 -175.97 -2.30102 -0.114733 -177.66 -2.5299 0.199234 -179.357 
-2.75971 0.521605 -181.059 -2.99019 0.852232 -182.768 -3.22113 1.19094 -184.483 
-3.45224 1.53754 -186.203 -3.68324 1.89181 -187.93 -3.91383 2.25351 -189.662 
-4.1437 2.62239 -191.399 -4.3725 2.99817 -193.142 -4.59988 3.38055 -194.891 
-4.82546 3.76923 -196.645 -5.04884 4.16388 -198.405 -5.26962 4.56414 -200.171 
-5.48735 4.96965 -201.941 -5.70158 5.38003 -203.718 -5.91183 5.79487 -205.499 
-6.11757 6.21373 -207.286 -6.31828 6.63616 -209.078 -6.51339 7.06166 -210.875 
-6.70229 7.48972 -212.676 -6.88437 7.91976 -214.481 -7.05897 8.35121 -216.289 
-7.22541 8.78343 -218.099 -7.383 9.21576 -219.911 -7.53101 9.64753 -221.722 
-7.66872 10.078 -223.532 -7.79542 10.5065 -225.34 -7.91039 10.9322 -227.143 
-8.01294 11.3544 -228.939 -8.10241 11.7725 -230.728 -8.1782 12.1856 -232.506 
-8.23975 12.5931 -234.273 -8.28659 12.9944 -236.025 -8.31833 13.389 -237.762 
-8.33467 13.7763 -239.481 -8.33542 14.1559 -241.18 -8.32051 14.5274 -242.858 
-8.28999 14.8907 -244.513 -8.24402 15.2454 -246.145 -8.18291 15.5916 -247.751 
-8.10705 15.9292 -249.331 -8.017 16.2583 -250.884 -7.9134 16.5791 -252.41 
-7.79698 16.8916 -253.908 -7.66857 17.1963 -255.377 -7.52907 17.4935 -256.819 
-7.37943 17.7834 -258.233 -7.22065 18.0665 -259.619 -7.05373 18.3432 -260.977 
-6.87967 18.6139 -262.309 -6.69948 18.879 -263.615 -6.51409 19.139 -264.895 
-6.32441 19.3942 -266.151 -6.13128 19.6452 -267.384 -5.93545 19.8922 -268.595 
-5.73758 20.1358 -269.785 -5.53827 20.3762 -270.956 -5.33798 20.614 -272.11 
-5.1371 20.8493 -273.249 -4.93592 21.0827 -274.374 -4.73465 21.3144 -275.487 
-4.5334 21.5448 -276.592 -4.33224 21.7743 -277.689 -4.13115 22.0032 -278.783 

LINES 1 289
288 287 286 285 284 283 282 281 280 279 278 277 276 275 274 273 272 271 270 269 268 267 266 265 264 263 262 261 260 259 258 257 256 255 254 253 252 251 250 249 248 247 246 245 244 243 242 241 240 239 238 237 236 235 234 233 232 231 230 229 228 227 226 225 224 223 222 221 220 219 218 217 216 215 214 213 212 211 210 209 208 207 206 205 204 203 202 201 200 199 198 197 196 195 194 193 192 191 190 189 188 187 186 185 184 183 182 181 180 179 178 177 176 175 174 173 172 171 170 169 168 167 166 165 164 163 162 161 160 159 158 157 156 155 154 153 152 151 150 149 148 147 146 145 144 143 142 141 140 139 138 137 136 135 134 133 132 131 130 129 128 127 126 125 124 123 122 121 120 119 118 117 116 115 114 113 112 111 110 109 108 107 106 105 104 103 102 101 100 99 98 97 96 95 94 93 92 91 90 89 88 87 86 85 84 83 82 81 80 79 78 77 76 75 74 73 72 71 70 69 68 67 66 65 64 63 62 61 60 59 58 57 56 55 54 53 52 51 50 49 48 47 46 45 44 43 42 41 40 39 38 37 36 35 34 33 32 31 30 29 28 27 26 25 24 23 22 21 20 19 18 17 16 15 14 13 12 11 10 9 8 7 6 5 4 3 2 1 0 

CELL_DATA 1
FIELD FieldData 2
LengthArray 1 1 double
545.2373723 
TortuosityArray 1 1 double
0.014678522414 
POINT_DATA 288
FIELD FieldData 8
RadiusArray 1 288 double
75.842765033 76.473548069 76.537319631 76.581564406 77.551450625 78.013505607 78.321709672 78.31082373 78.296532071 
78.268767753 78.021653677 77.952392322 77.638569179 77.614284591 77.2267428 76.9639176 76.542703713 75.923355209 
75.778562512 75.538386793 75.471372777 74.746406888 74.458220527 73.373185533 72.754238369 72.586404046 72.532236083 
72.121423073 71.570380005 70.691901397 69.628360118 69.169646418 68.931283814 68.795585405 68.050653219 67.59803073 
66.650345739 65.839728663 65.594898656 65.367888356 65.324431816 64.909148667 64.646242406 64.342625565 63.981942597 
63.903088706 63.638521197 63.572180299 63.384013333 63.369098558 63.016772393 62.91194181 62.667440033 62.656987026 
62.235283684 61.845209465 61.517938395 61.353595553 60.929252492 60.674814581 60.535294987 60.524050267 60.491815175 
59.889013094 59.620307328 59.571507289 59.480570765 59.474237448 59.319238723 59.314420694 59.33183177 59.337270149 
59.318264563 59.296358742 59.340713277 59.36463171 59.37392374 59.415581102 59.436504466 59.459130235 59.472116208 
59.5012486 59.510564658 59.552660901 59.549703515 59.480673422 59.515106595 59.508328392 59.492703514 59.397272242 
59.346952519 59.033278535 58.858136871 58.592992116 58.248583093 57.376118401 57.353682786 56.848034051 56.054555086 
55.088988378 54.842943642 54.814724057 53.926441222 53.451271882 51.696844542 51.27916457 51.23084941 50.650119409 
50.374780704 49.774378966 49.301444289 48.950266017 48.863111888 48.644866968 48.626928776 48.511535354 48.507034767 
48.514213433 48.525953381 48.549443608 48.712222333 48.719556233 48.728178863 48.806568305 48.853065663 48.86195832 
48.889087591 48.93090183 48.946703975 48.953728475 48.960625874 48.99182638 48.997661081 49.000477868 49.004690354 
49.004489933 48.962712376 48.879453548 48.875262677 48.875256163 48.874719781 48.763502413 48.75677854 48.69959644 
48.670812341 48.703673538 48.784568995 48.810422933 48.912061363 48.899334867 48.876816027 48.825636325 48.726002822 
48.725539698 48.726156214 48.784126261 48.905788991 48.907180405 48.954782949 49.030786317 49.058147432 49.142377267 
49.185135028 49.261456724 49.215694027 49.214892798 49.186893469 49.185772028 49.178228076 49.15089234 49.14369976 
49.091231965 49.083960983 49.049585223 49.027794446 48.989095044 48.916489654 48.890164479 48.844963879 48.76720168 
48.709154835 48.513008891 48.248653139 48.159944153 48.06133028 48.047325922 47.966177892 47.68506235 47.31473036 
47.26826366 47.173662946 46.838016441 46.723398216 46.705136529 46.703153564 46.52273313 46.517017857 46.358466453 
46.337216558 46.307660484 45.905359346 45.898989197 45.725697815 45.663482218 45.529381727 45.451844907 45.041709629 
44.877538491 44.758417859 44.689132595 44.464953902 44.417150464 44.001426714 43.786868878 43.744990198 43.47767388 
43.3016162 43.301586512 43.294194287 43.195311953 43.180376445 42.541598413 42.423823431 42.417960733 42.115391475 
41.887702517 41.824951769 41.639738904 41.206176736 41.088663262 40.720117472 40.578443402 40.349427918 40.3467089 
40.196818012 40.045170573 39.839965598 39.82748939 39.255330603 39.211572041 39.15287208 38.942405654 38.755187572 
38.678241889 38.585157827 38.44429696 38.017076079 37.863964803 37.756597028 37.515669336 37.318411775 37.109677483 
37.09184319 37.089004308 36.921470511 36.805209294 36.800890548 36.775800178 36.740756109 36.71547989 36.592009417 
36.557043978 36.515397584 36.520639467 36.447985623 36.399129808 36.395330368 36.203612045 36.125146147 35.764008284 
35.665919916 35.325841389 35.202317181 35.139418916 35.045533684 34.867834028 34.487880185 34.212179529 33.982994953 
33.976167249 33.792299662 33.622099973 33.438873049 33.438805909 33.422088094 33.169353261 33.133324723 32.844224575 

EdgeArray 2 288 int
53591 53591 47631 47631 45447 45447 41880 41880 42316 
42316 47711 47711 42153 42153 37675 42018 40366 37675 
40366 40366 41170 41170 40919 40919 39923 39923 40259 
40609 40749 40354 40350 40646 39902 39902 39763 39763 
40257 39907 40257 40251 40251 39764 39688 39688 39531 
39531 38855 38855 38842 38842 38436 38843 37224 36696 
33109 36229 33758 33758 22814 22814 33816 33816 34714 
34714 36878 36878 36999 36999 35973 35973 32933 32933 
34899 34899 35251 36068 36004 30830 34037 35115 35115 
33034 32545 32545 34140 34140 28840 28840 33774 33774 
32604 31970 35242 35045 35241 35242 35241 35244 35244 
35244 35238 35238 34550 34550 30418 34690 30372 30418 
30385 30385 32863 32863 33907 32948 34146 34146 26726 
33556 33506 33506 28243 28243 32405 32405 30865 30865 
32374 32399 29734 31540 32579 31540 29959 31000 32351 
31454 16809 30231 30231 30860 31893 31893 30544 31888 
30544 29179 27854 29933 30543 27854 29774 30543 26728 
26728 28907 28907 29652 29652 29873 29873 27818 28914 
28914 29730 29730 29730 27596 27596 28688 28688 25034 
25034 27826 28854 27826 28829 28829 28829 27822 27822 
27945 27945 26983 26983 26745 25742 25738 25738 26212 
26212 24879 24879 25447 25423 25375 25375 25164 25164 
24979 24979 14267 14267 24034 24034 24208 24208 21760 
21760 17624 17624 23156 23148 21332 21581 16994 22278 
16994 21888 21863 21863 23339 23339 20225 20225 22383 
22383 23167 23167 19809 22929 15897 15897 22921 20210 
22718 22720 22720 22719 20185 20185 22677 22677 22676 
22678 22455 22455 22202 22202 21656 21656 21922 21922 
21923 21923 21920 21637 21321 20064 19812 20064 19812 
19812 20740 20740 20681 20725 20755 20755 20142 20148 
20140 20392 19607 19607 19269 19269 19530 19530 19406 
19530 19406 19406 18366 18366 19069 19069 19074 19074 
16695 16695 18829 18829 18835 18835 17364 17359 17599 
17858 17599 14932 17676 17679 17677 17677 17601 17601 
17594 17596 17589 17594 17555 17555 17101 17101 17107 
16908 16863 16863 16848 16848 16387 15604 16618 16618 
16625 16625 16624 16624 15716 15716 15447 14609 15700 
15591 15700 15690 15692 15692 15449 15449 15424 15657 
15426 15426 15429 15429 15031 14264 14602 15031 14602 
14794 14794 14833 14806 14833 14819 14819 14795 14795 
14441 14441 14431 14422 14212 14212 12425 14069 13178 
13164 13973 13787 13411 13643 13879 12955 13602 13604 
13604 13603 13599 13597 12744 12744 13350 13348 13347 
13349 13347 13177 12038 13175 12596 13175 12739 12829 
12739 12727 12727 12815 12633 12544 12639 12544 12638 
12638 12333 11192 11890 11890 12118 12118 11632 11632 
11785 11785 11825 12131 11834 10802 10517 11838 11521 
11837 9797 9797 10965 10965 11175 11175 11078 11078 
10961 10961 11072 10961 11072 11072 10640 10640 10080 
10080 10528 10528 10646 10646 10526 10526 10355 10355 
10363 10363 4046 10127 10128 10128 9903 9903 9273 
9273 9149 9574 9038 9574 9226 9226 9041 8419 
9041 5001 8423 8423 8993 8993 8628 8628 8351 
8351 9018 9024 9025 9025 8889 8889 8890 8890 
8800 8800 8798 8798 8241 8241 5094 5094 8539 
8539 7360 7360 7469 7469 6769 6769 7592 7592 
7355 7355 7367 7367 7586 7586 7585 7585 5993 
5993 4577 4577 7392 7392 6766 6766 6939 6939 
6940 6940 6889 6889 6357 6357 4651 4651 3568 
3568 6361 6361 6305 6305 5033 5033 5069 5069 
5190 5190 5727 4388 4224 4388 4190 4224 3895 
3895 4781 4781 3710 3710 2652 4309 4169 4169 
4638 4638 4037 4037 4127 4127 4606 4606 4801 
4606 4801 4801 3968 3968 3515 3515 2921 2921 

EdgePCoordArray 1 288 double
0 0 0 0 0 0 0 0.424 0.52 
0 0 0 0 0.964 0.66 0.432 0 0 
0.34 0.724 0.232 0 0 0 0 0.932 0.848 
0.964 0 0 0 0 0 0 0 0 
0 0.904 0.972 0.668 0.336 0 0 0 0 
0.04 0.392 0.264 0.924 0 0 0 0.18 0.64 
0 0 0.4 0 0.012 0 0 0 0 
0.172 0.872 0.728 0.44 0.712 0.952 0.196 0 0.316 
0.352 0.276 0.4 0.952 0 0 0 0 0.176 
0.744 0 0 0 0 0.02 0.256 0 0 
0 0 0.184 0 0 0 0.048 0 0 
0 0 0 0 0 0 0.276 0.308 0.364 
0.496 0 0 0 0 0 0.968 0 0.124 
0.452 0.964 0 0 0.86 0 0 0 0 
0 0.844 0.984 0.48 0 0 0.928 0 0.06 
0.988 0 0 0 0.988 0 0 0 0 
0 0 0 0.936 0.196 0.72 0.024 0 0 
0.036 0.98 0 0 0.972 0 0 0.208 0 
0 0 0 0.004 0.12 0.1 0 0 0.04 
0 0 0.592 0.168 0.544 0.616 0.784 0 0 
0 0.576 0 0.88 0.908 0.096 0.084 0.316 0.264 
0.82 0.46 0 0.892 0.024 0.028 0.96 0.912 0.048 
0.196 0.612 0.872 0.872 0 0.168 0 0 0 
0 0.18 0.16 0.348 0.292 0 0 0 0 
0 0.996 0 0 0 0 0 0 0 
0 0.196 0 0 0 0.556 0.52 0 0.972 
0.684 0 0 0 0 0.508 0 0 0 
0 0 0 0 0 0 0 0 0 
0 0 0 0 0 0 0 0 0 
0 0 0 0 0 0 0 0 0 
0 0.764 0.356 0.952 0 0 0 0.58 0 
0 0 0 0 0.996 0 0 0 0 

CurvatureArray 1 288 double
0 0.00029326360636 0.0011630376331 0.0019960655581 0.0027537308508 0.0034159391855 0.0039589283208 0.0043781790856 0.0046670962921 
0.0048367659513 0.0048971919709 0.0048649300429 0.0047561030099 0.0045898121821 0.0043826930832 0.0041484387486 0.0038998373038 0.0036468323397 
0.0033976359246 0.0031570446078 0.0029291225265 0.0027169637258 0.0025214183962 0.002342957757 0.0021821084245 0.0020372350935 0.0019084165448 
0.0017941590204 0.001693338933 0.0016046411903 0.0015266724165 0.0014584044752 0.0013984593712 0.0013460906048 0.001299592817 0.0012584044901 
0.0012216757128 0.00118862611 0.0011588895274 0.0011320275304 0.0011082410517 0.0010874293942 0.0010703715829 0.0010568017812 0.0010477323686 
0.0010427233887 0.0010423243931 0.0010457400929 0.0010517073274 0.0010599590297 0.0010682769787 0.0010779338181 0.0010858729452 0.0010940622775 
0.0011022446109 0.0011098845663 0.001120343777 0.0011330245444 0.0011503631162 0.0011720536124 0.0012019737634 0.0012376425435 0.0012835610556 
0.0013375815433 0.0014020329905 0.0014761794789 0.0015602126403 0.0016540818168 0.0017577431275 0.0018686346707 0.001986811277 0.002110478976 
0.0022376507665 0.0023657065303 0.0024920079806 0.0026143709124 0.002729438439 0.0028363997148 0.0029291000956 0.0030098440956 0.0030760765673 
0.003126559131 0.0031620480511 0.0031839488878 0.0031925304925 0.0031901797402 0.0031796273031 0.0031610277187 0.0031388919676 0.0031121302319 
0.0030844026216 0.0030565289883 0.0030283072196 0.0030007707624 0.002973944958 0.0029472743036 0.0029210425697 0.0028945612538 0.002866717101 
0.0028379583169 0.0028077378102 0.0027764424993 0.0027441987162 0.0027130217676 0.0026841126152 0.0026608908211 0.002645891841 0.0026429533093 
0.0026553051465 0.0026871408249 0.0027397523735 0.0028134901731 0.0029077676058 0.0030175830203 0.0031377378553 0.0032611253808 0.0033787587217 
0.0034818891303 0.0035604153952 0.0036065598629 0.0036111491654 0.0035686188535 0.0034751457784 0.0033299255437 0.0031370946427 0.0029046765817 
0.0026478777428 0.0023868106757 0.0021488084466 0.0019643309533 0.0018608372956 0.0018449363466 0.0019020714787 0.0020050454435 0.0021167762287 
0.0022187830647 0.0022931674396 0.002332100164 0.0023384687008 0.0023108040088 0.0022584803644 0.002186046697 0.0021014638743 0.0020125921255 
0.0019226108712 0.0018395855496 0.0017634889018 0.0016975557263 0.0016402668092 0.0015918902562 0.0015490918809 0.0015110122268 0.0014752574445 
0.0014398968437 0.0014019021237 0.0013643813017 0.0013241916115 0.0012827393783 0.0012419385136 0.0012015845612 0.0011621879908 0.0011286572461 
0.0010982472729 0.0010753562537 0.0010545369481 0.0010397394843 0.0010263320146 0.0010119436654 0.00099734736033 0.00097744870183 0.00095534707366 
0.00092845228596 0.0009023017688 0.0008800358186 0.00086753298034 0.00087095218208 0.00089788863977 0.00095076236896 0.0010292710886 0.0011294803526 
0.0012477256632 0.0013794053712 0.0015192867681 0.0016645385136 0.0018124124031 0.0019593287907 0.0021054137613 0.0022472248063 0.002384346431 
0.0025155732815 0.0026391678537 0.0027537628374 0.0028592206552 0.0029525367469 0.0030348778288 0.0031031310176 0.0031567389671 0.0031978013425 
0.0032234522237 0.0032355818168 0.0032346519837 0.003222950451 0.003200039714 0.003170009493 0.0031329388506 0.0030942699409 0.0030513674838 
0.0030097402191 0.0029679624034 0.0029283458639 0.0028937252616 0.0028585742883 0.0028277713474 0.0027976553575 0.0027711788679 0.002742960901 
0.0027141638525 0.0026835466994 0.0026488766361 0.0026121897302 0.0025686035994 0.0025222588891 0.0024674120164 0.0024094897122 0.0023450802434 
0.0022755127908 0.0022033261562 0.00212863437 0.0020526852534 0.0019769929171 0.0019025311238 0.0018342286841 0.0017701812249 0.001716025997 
0.0016738493281 0.0016446647588 0.0016329716987 0.0016391792141 0.0016657494304 0.0017130207837 0.0017808956382 0.0018690370562 0.0019757089466 
0.0020992388189 0.0022385861875 0.0023922212259 0.0025574072688 0.0027357613752 0.0029236794686 0.003121441835 0.0033281926422 0.0035426826002 
0.0037644761056 0.0039921920652 0.0042246235232 0.004459338522 0.0046950593684 0.0049283518788 0.0051562521545 0.0053746248817 0.0055800649303 
0.005766444803 0.0059306581619 0.006066706002 0.0061693405762 0.0062356726971 0.0062609927903 0.0062421479873 0.0061782060032 0.0060680732618 
0.0059120712754 0.0057118282247 0.0054728147903 0.0051981462944 0.0048947594725 0.0045657340554 0.004210590392 0.0038528785206 0.0034776617012 
0.0031050662083 0.0027337045677 0.0023608778091 0.001991682853 0.0016298360192 0.0012796818238 0.00092030906074 0.00057749181107 0 

TorsionArray 1 288 double
0 0 -0.00033066496455 0.00025015857203 0.00032779769998 0.00043833901917 0.00051487810546 0.00065595035414 0.00078201173644 
0.00082567535938 0.00089953864836 0.00097750929898 0.0010508199759 0.001015478578 0.00099699774087 0.00098054329961 0.00092745451544 0.00079568168694 
0.00062970229974 0.00051277646067 0.00031998790014 8.2869979962e-05 -0.00012046683702 -0.00042266356537 -0.00067998756137 -0.00091303265311 -0.0012800909656 
-0.0016045322019 -0.0019955781557 -0.0023743899915 -0.0029058091671 -0.0035211079798 -0.0044472942698 -0.0054824876864 -0.0066330769309 -0.0083019361458 
-0.010199581465 -0.012451651369 -0.015017916779 -0.017955658449 -0.021057562066 -0.024293987782 -0.027423139019 -0.030202887507 -0.032478099831 
-0.033943201691 -0.034693771374 -0.03443684181 -0.033364785177 -0.031622091745 -0.029653774715 -0.027324767518 -0.024886608111 -0.02267458872 
-0.020390443195 -0.018469530006 -0.016812552244 -0.01530190427 -0.01405013374 -0.013083014712 -0.012344163174 -0.011826141321 -0.011493145735 
-0.011359586956 -0.011358816306 -0.011498068389 -0.011724484611 -0.012021607741 -0.012375327832 -0.012769631721 -0.013154411302 -0.013471977239 
-0.01376979283 -0.01402307533 -0.014148060654 -0.014151313141 -0.013955345247 -0.013719372935 -0.013286365316 -0.012533837037 -0.011709203973 
-0.010720145034 -0.0094938515673 -0.0081484302272 -0.0067218241457 -0.0051087466799 -0.0035154427609 -0.0018546039576 -0.00022209546826 0.0013418623968 
0.0029868941691 0.0044888549015 0.0059308355108 0.0073675376683 0.0087589084649 0.010182920086 0.011676249714 0.013199686798 0.014868343674 
0.016730932612 0.018787032607 0.021086124628 0.023673492552 0.026538299174 0.029664732335 0.032951323354 0.036273260362 0.039431279665 
0.042171730686 0.044223603786 0.045435568556 0.045693896108 0.045055439371 0.043769619614 0.042012055027 0.040093160368 0.038243052122 
0.036689369174 0.035599298626 0.035109240558 0.035540718348 0.03701710444 0.039771952758 0.044431173632 0.05152734863 0.061963428343 
0.07662707781 0.095895373226 0.11894766088 0.14070264871 0.1513067435 0.14424476258 0.12313988063 0.09669464951 0.072201241602 
0.051551721914 0.034858252544 0.02117189798 0.0097874417614 6.4508347031e-05 -0.0085477546175 -0.016189933173 -0.023129191593 -0.028888765584 
-0.033583100309 -0.036955949668 -0.038553571456 -0.038540664998 -0.036911882326 -0.03371219672 -0.029133943714 -0.02373781887 -0.017817391298 
-0.011301436275 -0.0046195785032 0.0020950916943 0.0090525169902 0.015921783891 0.022483666785 0.028599924094 0.03374007193 0.037729627681 
0.040024863871 0.03961624793 0.036413393942 0.030851011 0.022737997693 0.012028608687 -0.00061848088139 -0.015434418505 -0.032000948477 
-0.05081033478 -0.070817722495 -0.091155612497 -0.10949656437 -0.12154816632 -0.12453034253 -0.11808958484 -0.10559051705 -0.090067119684 
-0.074573627881 -0.061147012974 -0.049680322952 -0.040540859033 -0.033154805046 -0.027124219135 -0.022561168657 -0.018694882124 -0.015376143921 
-0.012992398994 -0.011078206145 -0.0094343790628 -0.007958344381 -0.0070112126892 -0.0062987190985 -0.0054348453792 -0.0051161351408 -0.0049323721805 
-0.0046028197918 -0.0045182858494 -0.0045649500484 -0.0044711941232 -0.0044495748076 -0.004492824379 -0.0045834266346 -0.0045064006189 -0.0043116005001 
-0.0040833938688 -0.0036479882237 -0.0033932499876 -0.0027209093993 -0.0018838877992 -0.0011164331836 -0.00029897127238 0.00068762926077 0.001898760952 
0.0030102996851 0.0043063416381 0.0055422164295 0.0069363923573 0.0084135759528 0.01003822563 0.01182680437 0.013632959052 0.015884336212 
0.018169348863 0.020638334502 0.0234771069 0.026660670148 0.030326633329 0.03400072079 0.038136073766 0.042713522484 0.046533241413 
0.050557734722 0.05400552133 0.056041765029 0.056786112482 0.056274385212 0.053913098372 0.050381776142 0.046434128621 0.041440916621 
0.036433852073 0.031792696431 0.02717367795 0.023300918827 0.019723859956 0.016351935771 0.013547945309 0.010991503282 0.0088761183355 
0.0068933400662 0.0052516345465 0.0037765062868 0.0023866056667 0.0012793995543 0.00020555210555 -0.00077223722402 -0.001569969069 -0.002536337884 
-0.0033201762526 -0.0041119428825 -0.0050294537856 -0.0057977768643 -0.0067405153143 -0.007638912031 -0.0087415667534 -0.010060691028 -0.01131642185 
-0.012679555185 -0.014215547721 -0.016309340727 -0.01869335332 -0.02103293729 -0.02259435776 -0.025086658364 -0.028042481218 -0.029752672468 
-0.032214398126 -0.033301036079 -0.03353332212 -0.032846976611 -0.032228185796 -0.029733671104 -0.023997835812 0 0 

TangentArray 3 288 double
-0.18548540023 0.19445138272 0.96321535809 -0.18548540023 0.19445138272 0.96321535809 -0.18517682067 0.19314238329 0.96353804536 
-0.18450210275 0.19029092468 0.96423458664 -0.18347909762 0.18597132462 0.96527202754 -0.18213571295 0.18030064273 0.9666013968 
-0.18050772947 0.17343099155 0.96816251258 -0.17863752334 0.16554056077 0.96988914727 -0.17657257464 0.15682380636 0.97171416561 
-0.17436237551 0.14748095035 0.97357440974 -0.17205366868 0.13770601692 0.97541508498 -0.16969138004 0.12768170878 0.97719098276 
-0.16731664147 0.11757319434 0.97886755256 -0.1649651891 0.10752349384 0.98042092218 -0.16266423339 0.097650675676 0.98183740646 
-0.16043585643 0.08804948841 0.98311119593 -0.15829667197 0.078792208748 0.98424283156 -0.15625744793 0.069929836045 0.98523775202 
-0.15432271444 0.06149468254 0.98610491522 -0.15249318063 0.053503823752 0.98685519237 -0.15076789731 0.045962037038 0.98750014293 
-0.14914219935 0.038863176193 0.9880517486 -0.1476093411 0.032193392425 0.98852165778 -0.14616256846 0.025933577071 0.98892060003 
-0.1447928072 0.020060338738 0.98925862432 -0.14349214297 0.014548272759 0.98954451778 -0.14225291197 0.0093709164742 0.98978598442 
-0.1410660343 0.0045014270819 0.98998995506 -0.13992364608 -8.6071619758e-05 0.99016229269 -0.13881780723 -0.0044160298757 0.99030809099 
-0.13774155217 -0.0085110189529 0.9904316369 -0.13668705948 -0.012391337159 0.99053677495 -0.13564671424 -0.016075046581 0.99062685295 
-0.1346109554 -0.01957750215 0.99070510854 -0.13357086965 -0.022911412921 0.99077438902 -0.13251808127 -0.026086891922 0.990837238 
-0.13144150292 -0.029111332392 0.99089639299 -0.13033030952 -0.031989803398 0.99095442019 -0.12917314972 -0.034725092519 0.99101385729 
-0.12795867978 -0.037317987632 0.99107716353 -0.1266752752 -0.039767446237 0.99114677262 -0.12531232443 -0.042071243072 0.99122491487 
-0.12386008062 -0.044226220263 0.99131363446 -0.12231067134 -0.046228588503 0.99141465456 -0.12065872764 -0.048074679084 0.99152927172 
-0.11890118987 -0.049761263127 0.99165837048 -0.11703813022 -0.051286449522 0.99180228683 -0.11507158096 -0.052649319872 0.99196097724 
-0.1130073671 -0.05385065529 0.99213378226 -0.11085344662 -0.054893460961 0.99231961651 -0.10861981484 -0.05578259643 0.9925170214 
-0.106316022 -0.056524133001 0.99272449645 -0.1039520635 -0.05712580086 0.99294038661 -0.10153759821 -0.057596571916 0.99316300326 
-0.099078546257 -0.057945171941 0.99339106032 -0.096580554922 -0.058181049001 0.9936232495 -0.094044924951 -0.058312362875 0.99385875275 
-0.091469082944 -0.058345769747 0.99409716729 -0.088847930377 -0.058286882077 0.99433831498 -0.086173756015 -0.05813925993 0.99458227927 
-0.083434787272 -0.057903984247 0.99482951549 -0.080617977551 -0.057579660598 0.99508056175 -0.077708401514 -0.057162421758 0.99533605474 
-0.074689163491 -0.056645634055 0.995596706 -0.071544067291 -0.056020090036 0.99586304076 -0.068256187625 -0.05527393041 0.99613547546 
-0.064810521118 -0.054392940065 0.99641407277 -0.061193279998 -0.053360693698 0.99669855967 -0.057392253284 -0.05215862899 0.99698826808 
-0.053399649061 -0.050767003036 0.99728190041 -0.049211818228 -0.04916523116 0.99757755437 -0.044828101841 -0.047332172877 0.99787279084 
-0.040252518121 -0.045247831008 0.99816449976 -0.035494284213 -0.042893717875 0.99844893948 -0.030567957052 -0.040253862445 0.99872179638 
-0.025491740049 -0.037316067772 0.99897831922 -0.020287639912 -0.03407281216 0.99921341821 -0.014978669163 -0.030521891099 0.99942185969 
-0.0095923516962 -0.026666845013 0.99959835242 -0.0041557190365 -0.022517406952 0.99973781382 0.0013094397997 -0.018088953459 0.99983552404 
0.0067812393613 -0.013402174176 0.9998871919 0.012241660782 -0.0084820779756 0.9998890919 0.017679447461 -0.0033570682474 0.9998380705 
0.023088078474 0.0019422423249 0.99973154813 0.02846575092 0.0073842516113 0.9995674934 0.033818356433 0.012937155841 0.99934425939 
0.039154364038 0.018569757208 0.99906060872 0.04448726634 0.024251903826 0.99871553923 0.049832520534 0.029954648687 0.99830828852 
0.055206225417 0.035650032956 0.99783833752 0.060628381328 0.041310794232 0.9973051778 0.066116194565 0.046909943545 0.99670863647 
0.07168509457 0.05241987839 0.99604889617 0.077349434781 0.057811996073 0.99532649822 0.083120069851 0.063056039903 0.99454260332 
0.089005246572 0.068119507744 0.99369904838 0.095010430689 0.072967336941 0.99279846182 0.10113570767 0.077561891718 0.99184460556 
0.10737760051 0.081862770096 0.9908423375 0.11372935895 0.085827093236 0.98979762728 0.12017975173 0.089410243662 0.98871767234 
0.12671319942 0.09256634396 0.9876108733 0.13331070751 0.095249293997 0.98648660774 0.13994987743 0.097413975806 0.98535503709 
0.14660522114 0.099017409494 0.9842268345 0.15324852871 0.10002042916 0.98311281255 0.1598484475 0.10038891629 0.9820236959 
0.16637126166 0.10009539598 0.98096968098 0.17278221118 0.099120729338 0.97995989128 0.179045527 0.097455447308 0.97900211187 
0.18512339973 0.095100947413 0.97810282521 0.19097862242 0.092070603575 0.97726668302 0.19657365377 0.088390939455 0.9764967181 
0.20187026903 0.084101979505 0.97579467693 0.20683201717 0.079257432478 0.97516089753 0.21142343864 0.073924635847 0.97459493012 
0.21561103697 0.068183890115 0.97409590794 0.21936351658 0.062127473613 0.97366309605 0.22265308608 0.055857369735 0.97329623317 
0.22545624657 0.049483570173 0.9729958156 0.227752833 0.043120960761 0.97276370708 0.22952854945 0.036885456891 0.97260274936 
0.23077629339 0.030891227276 0.9725163415 0.2314949814 0.025245493608 0.97250847741 0.23169108285 0.020044704739 0.97258287664 
0.23137841426 0.015370607483 0.9727423985 0.23057885095 0.011286605824 0.97298818391 0.22932328234 0.0078354741351 0.97331877487 
0.22764858678 0.0050374131946 0.97373032478 0.22559633616 0.002889474948 0.97421657964 0.22321372618 0.0013666678 0.9747685698 
0.22055261978 0.00042457138465 0.97537498515 0.21766361939 1.869400261e-06 0.97602384642 0.21459895473 2.4760790998e-05 0.97670225146 
0.21140900238 0.00041197535495 0.9773975977 0.20813891837 0.0010788368685 0.97809867946 0.20483225899 0.0019411922043 0.97879516624 
0.20152491369 0.0029194589669 0.97947903802 0.19824752732 0.0039418773797 0.98014406059 0.19502540247 0.0049464124938 0.98078571839 
0.19187703353 0.005881920714 0.98140134859 0.18881680847 0.0067084076782 0.98198941446 0.18585296672 0.0073966386898 0.98254972622 
0.18299117041 0.0079286528012 0.98308258454 0.18023314545 0.0082958464135 0.98358893457 0.17757758124 0.0084976626022 0.98407011558 
0.17502225226 0.008541233671 0.98452742905 0.17256339025 0.0084389105505 0.98496226381 0.1701965995 0.0082072799019 0.98537594758 
0.16791730132 0.0078663371473 0.9857696996 0.16572101364 0.0074387769805 0.98614461933 0.16360289458 0.0069478596125 0.98650180949 
0.16155893609 0.0064168047447 0.98684220359 0.15958679294 0.0058692429781 0.9871664538 0.15768319557 0.0053269921021 0.98747538349 
0.15584477343 0.0048095921831 0.98776984891 0.15406967752 0.0043352307228 0.98805047454 0.152354844 0.0039188756673 0.98831808843 
0.15069753266 0.0035723653321 0.98857346306 0.14909638908 0.0033045861529 0.98881714511 0.14754806552 0.0031201752297 0.9890499648 
0.14604892924 0.0030206863346 0.98927275598 0.14459498029 0.0030041484283 0.98948636512 0.14318282709 0.0030642565657 0.98969151171 
0.14180906424 0.0031904764781 0.98988888778 0.1404690819 0.0033696388589 0.99007933145 0.13916073285 0.0035849893614 0.99026331765 
0.13788088936 0.003816542227 0.99044146438 0.13662783698 0.0040420926775 0.99061420121 0.13540088031 0.0042372534599 0.99078183638 
0.13420041825 0.0043767434775 0.9909445453 0.13302831222 0.0044343139161 0.99110231813 0.13188649627 0.0043844146598 0.99125512811 
0.13077887324 0.0042022140592 0.9914026567 0.1297106833 0.0038642121938 0.99154435428 0.12868679503 0.0033496255675 0.99167963012 
0.12771173406 0.0026398314041 0.9918078162 0.12679012597 0.0017191522696 0.99192807626 0.12592731115 0.00057474307276 0.99203930465 
0.12512748906 -0.00080313869118 0.99214034614 0.12439328543 -0.0024215634963 0.99223003712 0.12372727528 -0.0042850618831 0.99230700874 
0.12313037568 -0.0063953541175 0.99236989577 0.12260289837 -0.008752749352 0.99241720999 0.12214438251 -0.011354838045 0.99244738776 
0.12175294354 -0.014197761736 0.99245888797 0.1214272364 -0.017276143197 0.99244997916 0.12116461378 -0.02058220153 0.99241901904 
0.12096091475 -0.024107089211 0.99236450226 0.12081340185 -0.027840080541 0.99228476349 0.12071932341 -0.031768260174 0.99217822119 
0.12067526923 -0.035877616007 0.99204348497 0.12067699249 -0.040151974803 0.9918794697 0.12072194605 -0.044573898069 0.99168512107 
0.12080804033 -0.049124732001 0.99145962 0.12093112778 -0.05378333449 0.99120281238 0.12109001452 -0.058529787671 0.99091446268 
0.121283956 -0.063343830883 0.99059465025 0.12151063753 -0.0682045991 0.99024405963 0.12176919168 -0.073093016364 0.98986346276 
0.12205949419 -0.077992003208 0.98945375198 0.12238016201 -0.082885891161 0.98901619046 0.12273027107 -0.087761540189 0.98855206875 
0.12310936971 -0.09260879167 0.9880625966 0.12351752908 -0.097421336485 0.9875487346 0.1239535941 -0.10219493031 0.98701150081 
0.12441568643 -0.10692728884 0.98645187002 0.12490192246 -0.11161916822 0.98587051434 0.12540898808 -0.11627194654 0.98526819707 
0.12593538854 -0.12089071683 0.98464496774 0.12647630784 -0.12547877132 0.98400143369 0.12702572986 -0.13003890618 0.98333836843 
0.1275782635 -0.13457484548 0.9826562968 0.128128112 -0.13908969486 0.98195582574 0.1286679232 -0.14358477958 0.98123798164 
0.12918829163 -0.14805811417 0.98050455386 0.12968058142 -0.15250745941 0.97975732793 0.13013455521 -0.15692773297 0.97899881724 
0.1305406763 -0.16131335783 0.97823163536 0.13088827466 -0.16565622691 0.97745909072 0.13116667194 -0.16994719342 0.97668482922 
0.13136464425 -0.17417533159 0.97591305151 0.13147098941 -0.17832880835 0.97514830413 0.13147557381 -0.18239669649 0.97439500132 
0.13136677748 -0.18636541115 0.97365841202 0.13113472052 -0.19022352387 0.97294331594 0.13077019981 -0.19396059674 0.9722543092 
0.13026382528 -0.19756579469 0.97159615715 0.12960636444 -0.20102879414 0.97097353941 0.128788131 -0.20433901282 0.97039125365 
0.1278013161 -0.20748886182 0.96985318261 0.12663701115 -0.21046984867 0.9693634562 0.12528565872 -0.21327305054 0.96892626635 
0.12374026511 -0.21589370656 0.96854439973 0.12199182477 -0.21832462024 0.96822123241 0.12003081254 -0.22055936716 0.96795979751 
0.11784875368 -0.22259315547 0.96776234603 0.11543697961 -0.2244213357 0.9676308014 0.11278539514 -0.2260389243 0.96756697925 
0.10988484057 -0.22744321253 0.96757165465 0.10672576499 -0.22863231232 0.96764501593 0.10329729652 -0.22960265045 0.96778731725 
0.099590219502 -0.23035493714 0.96799710284 0.095594678249 -0.23089090589 0.96827219679 0.091299933852 -0.23121191824 0.96861002005 
0.08669674253 -0.23132255439 0.96900647607 0.081774734651 -0.23122605336 0.96945727344 0.076523770889 -0.23092717924 0.96995708687 
0.070935602544 -0.23043414803 0.97049896636 0.065002038331 -0.22975438849 0.97107551508 0.058716603273 -0.22889750639 0.97167808047 
0.05207485278 -0.22787282206 0.97229737564 0.045074412626 -0.22669214279 0.97292290019 0.037716237339 -0.22536741668 0.97354353418 
0.030005583205 -0.22391195889 0.9741473706 0.021951665795 -0.22234177433 0.97472163193 0.013569235366 -0.22067207226 0.97525366566 
0.00487910963 -0.21892071064 0.97573045291 -0.0040913748691 -0.21710693443 0.97613925219 -0.013308178851 -0.21524960303 0.97646838186 
-0.02273026628 -0.21337214177 0.9767065394 -0.032309872422 -0.21149695344 0.97684446604 -0.041993151114 -0.20964704972 0.97687496119 
-0.05172018123 -0.20784817972 0.97679279125 -0.06142672954 -0.20612296476 0.97659617053 -0.071046474718 -0.20449530347 0.97628585429 
-0.080510612092 -0.20298638759 0.97586606038 -0.089751419358 -0.20161705375 0.97534365552 -0.098704102404 -0.20040695798 0.9747279371 
-0.10730695102 -0.19936994428 0.97403123337 -0.11550359646 -0.19851568712 0.9732679185 -0.12324628014 -0.19784968413 0.9724535243 
-0.13049645711 -0.19737678063 0.97160335587 -0.13722469456 -0.19709721965 0.9707327486 -0.14341001673 -0.19700371441 0.9698572594 
-0.14903540223 -0.19707676125 0.96899391074 -0.15409918598 -0.19729958114 0.96815614245 -0.15860690065 -0.19765326586 0.9673556934 
-0.16256765049 -0.19810830033 0.96660481085 -0.16600245779 -0.19863832484 0.96591200423 -0.16893117248 -0.19920982022 0.96528633394 
-0.17137575471 -0.19978797386 0.96473577533 -0.17336373598 -0.20033911506 0.96426617385 -0.17492544987 -0.20083557292 0.96388078082 
-0.17608265406 -0.20124638019 0.9635843468 -0.1768573452 -0.20154500681 0.96338003388 -0.1768573452 -0.20154500681 0.96338003388 

NormalArray 3 288 double
-0.22257441831 0.94643532025 -0.23392480181 -0.22257441831 0.94643532025 -0.23392480181 -0.22334684473 0.94656420311 -0.23266369794 
-0.22452742795 0.94697303016 -0.22984671905 -0.22444057974 0.9480806479 -0.22532090724 -0.22510123837 0.94929167929 -0.21948744865 
-0.22530468192 0.95086787445 -0.21233955271 -0.22590072367 0.95251176885 -0.20418176521 -0.22592238801 0.95441144601 -0.19508425443 
-0.22614353666 0.95629446321 -0.18536450701 -0.22609178292 0.95822829954 -0.17516001728 -0.2260093093 0.96010160272 -0.16469579404 
-0.2255556215 0.96196608598 -0.15409708314 -0.22502964174 0.96371862366 -0.14355512792 -0.22454650072 0.96531563626 -0.13320882629 
-0.22387213857 0.96681013036 -0.12312366714 -0.2232351103 0.96814514421 -0.11340663681 -0.2225477924 0.96934829691 -0.10409783562 
-0.22231270048 0.97030655959 -0.095300806019 -0.22215382953 0.97112424911 -0.086979128635 -0.22228220338 0.97176295463 -0.079166798998 
-0.22288658121 0.97219051335 -0.071883083291 -0.22402619426 0.97240502802 -0.065120855048 -0.22548894549 0.97246791003 -0.058829409484 
-0.22809648698 0.9721895037 -0.053099543569 -0.23068712303 0.971856145 -0.047739760132 -0.23448087792 0.97117391828 -0.042894502471 
-0.23884009731 0.9702975866 -0.0384447832 -0.24425701484 0.96909901595 -0.034432658593 -0.2505367382 0.96761687987 -0.03080448989 
-0.25780996726 0.96580264643 -0.027554835094 -0.2667220014 0.96345557949 -0.024753188136 -0.27695748213 0.96062254329 -0.022335675878 
-0.29041052338 0.95668137788 -0.020554053978 -0.30546944113 0.95200895758 -0.01916677377 -0.32425035877 0.94579106088 -0.018465481018 
-0.34684991412 0.93773897051 -0.018459692922 -0.37388483161 0.92727557186 -0.019239192238 -0.40585606767 0.91369834406 -0.020885123764 
-0.44296400684 0.89623280219 -0.023444677906 -0.48565878249 0.87373095794 -0.027014072759 -0.53289030566 0.8455986176 -0.031478564975 
-0.58461558699 0.81047145243 -0.036886857488 -0.63857530458 0.76835968568 -0.04295315817 -0.69354616246 0.71870610292 -0.049550561611 
-0.74699805136 0.66243595058 -0.056325151038 -0.79698727751 0.6007029236 -0.06298632442 -0.84214725554 0.53477498349 -0.069308852374 
-0.88071144133 0.46768868708 -0.074930962155 -0.9127597728 0.40062570719 -0.079803758601 -0.93804270551 0.33624411715 -0.083760231113 
-0.95772942987 0.27421374757 -0.086954929701 -0.97203683895 0.2171995762 -0.089267731136 -0.98223908124 0.16414412932 -0.09090155164 
-0.98903264126 0.11562409737 -0.09189941579 -0.99313320199 0.071849773244 -0.092325799167 -0.99523110314 0.031473170361 -0.09232816959 
-0.99575128196 -0.005287717354 -0.09193162957 -0.99506707637 -0.039036325802 -0.091201309126 -0.99343994939 -0.070311780976 -0.090184923454 
-0.99103963012 -0.099669487731 -0.088918191296 -0.9879541154 -0.12768263647 -0.087428886578 -0.98425658431 -0.15456719403 -0.085720235467 
-0.97990184101 -0.18101957852 -0.083811062359 -0.97489934312 -0.20711874598 -0.081689019146 -0.96914755895 -0.23335745547 -0.079355572934 
-0.96260447964 -0.25979872142 -0.076793490106 -0.95516730953 -0.28667181104 -0.073991104535 -0.94677945972 -0.31397119598 -0.070927728986 
-0.93731530872 -0.3418646007 -0.067591470114 -0.92674200642 -0.37021339558 -0.063963233792 -0.91498338292 -0.39900097526 -0.060030248306 
-0.9021251567 -0.42785440063 -0.055774667248 -0.88803217348 -0.45692183889 -0.051198554861 -0.87284230159 -0.48580143802 -0.04629556541 
-0.85664172256 -0.5142744583 -0.041069949024 -0.83959690755 -0.54204669585 -0.03553044258 -0.82206669885 -0.56861682235 -0.02968588845 
-0.80383856073 -0.5943803527 -0.023570417927 -0.78578428716 -0.61826167682 -0.017191655915 -0.76806426736 -0.64028539343 -0.010578098605 
-0.75096015654 -0.66033682408 -0.0037579324839 -0.73493803011 -0.67812650732 0.0032453000782 -0.72055537015 -0.69331920793 0.010413187113 
-0.70794386044 -0.7060463525 0.017721133785 -0.69756402766 -0.71608074894 0.025155284113 -0.68989788183 -0.72316738994 0.032708389913 
-0.68467592602 -0.72772932417 0.040359720889 -0.68267246909 -0.72913869964 0.048115035451 -0.68319451826 -0.72808989064 0.055949632383 
-0.68683378991 -0.72400306756 0.063866291615 -0.69335578893 -0.71700434401 0.071850682902 -0.70246025011 -0.70722579718 0.079882844271 
-0.71413065246 -0.6944661933 0.087943831967 -0.72818531297 -0.67862287587 0.096005949385 -0.7443693933 -0.65961462372 0.10403246845 
-0.76267017462 -0.63702003296 0.11198072313 -0.78284330947 -0.61057835657 0.11979325235 -0.80459075081 -0.58000300177 0.12739796565 
-0.82784638073 -0.54454142641 0.13470339579 -0.85222797476 -0.50364523253 0.14159434587 -0.87731460389 -0.45654945362 0.14792458279 
-0.90246829894 -0.40247363088 0.15351203817 -0.92684295802 -0.34052478289 0.15812970436 -0.94919969975 -0.27006168146 0.1615135233 
-0.96798033743 -0.19059779252 0.16336017822 -0.98124019196 -0.10236071793 0.16337064945 -0.98689106773 -0.0061581817438 0.16127026148 
-0.98292755326 0.096108596197 0.15689666271 -0.96787006451 0.20161917954 0.15025726162 -0.94115960902 0.30687908953 0.14157618004 
-0.90333761552 0.40834988882 0.13126888695 -0.85609770358 0.50270411966 0.11993869269 -0.80166656224 0.58790426245 0.10816330789 
-0.74251140299 0.66284880842 0.096479394695 -0.68088815521 0.72740354053 0.085296009945 -0.61832765692 0.78235335922 0.074793916933 
-0.55596355578 0.82865688645 0.065056046512 -0.49395010222 0.86769018146 0.055919992043 -0.43231851089 0.90048378114 0.047219329068 
-0.3701845676 0.92815702733 0.038573546931 -0.30616571851 0.9515209487 0.029503169225 -0.23866867696 0.97090518729 0.019503331452 
-0.16541450522 0.9861922761 0.0079269173371 -0.082724115787 0.99655333607 -0.0061781088494 0.013042327596 0.99963381887 -0.023709193636 
0.12756657112 0.99076278686 -0.045998588026 0.26451437043 0.96155083698 -0.073838578987 0.42483897805 0.89888352805 -0.10733240768 
0.5988752006 0.78777380164 -0.14408654187 0.76169852568 0.622935622 -0.17823177839 0.88273983708 0.42387405802 -0.20273421757 
0.95004734572 0.22631328863 -0.21492402445 0.97435345594 0.058479654928 -0.21729121669 0.97428547611 -0.070309947242 -0.2140661635 
0.96430539668 -0.16321566272 -0.20850839162 0.95265547463 -0.22682956989 -0.20247442525 0.94327554422 -0.26734602828 -0.19686886204 
0.93784002618 -0.28905902898 -0.19209623387 0.93654327374 -0.29572393132 -0.1882393499 0.93922835291 -0.28898506128 -0.18530443991 
0.94510578531 -0.27060647725 -0.18315891747 0.95325296608 -0.24148516448 -0.18164167471 0.96249870161 -0.20249208837 -0.18053587886 
0.97131741302 -0.15590543414 -0.17954380738 0.97859736623 -0.10247585171 -0.17845418075 0.98316175721 -0.045344607042 -0.17702210532 
0.98446073801 0.0129975217 -0.17512315595 0.98248168206 0.069962188655 -0.17272821591 0.97777409018 0.12283945772 -0.16990672793 
0.97130487296 0.16953621197 -0.16680622471 0.96435374758 0.20796105068 -0.16362778164 0.95788118079 0.23810226532 -0.16053334463 
0.95297927241 0.25877002594 -0.15769774898 0.95029088333 0.26990892056 -0.15523018927 0.95017293575 0.27148454876 -0.15319116145 
0.95258386236 0.26383347864 -0.1515779691 0.95749596191 0.24614177286 -0.15038520732 0.96404523267 0.21970720292 -0.14948422777 
0.97159235174 0.18405050315 -0.14877403783 0.978872262 0.14101390561 -0.14806813672 0.98484630427 0.091689208242 -0.14721021041 
0.98854367803 0.038060487279 -0.14605750902 0.98936159795 -0.016606276217 -0.1445263301 0.98740402758 -0.068462698095 -0.14263991477 
0.98357260419 -0.11328591709 -0.14053908098 0.9790123994 -0.14960947701 -0.13838976196 0.97552766344 -0.17240319569 -0.13646580514 
0.97428218064 -0.18046197334 -0.13493594283 0.97621326428 -0.17048794725 -0.13394596856 0.98105561994 -0.14041121904 -0.13347119598 
0.98720709529 -0.087470831528 -0.13330793163 0.99108059545 -0.0085857878888 -0.13298698267 0.98661504392 0.096162993959 -0.13169447102 
0.96573572952 0.22556814757 -0.12834917815 0.92082486494 0.37043382718 -0.12190302615 0.84947897238 0.51560349767 -0.11197548249 
0.7564280899 0.64652229536 -0.099123490764 0.65343913183 0.7522111362 -0.084827516568 0.54997006188 0.8322209219 -0.070294154664 
0.45598290433 0.88817486976 -0.056789010236 0.37319999086 0.92668184685 -0.044525515656 0.30290653205 0.95242581844 -0.033655507833 
0.24414374661 0.96944090387 -0.024045059676 0.19485466059 0.98071086421 -0.015422777451 0.15404752843 0.98803378567 -0.0076548910421 
0.12019965727 0.99274958903 -0.00054394188213 0.091369717373 0.99579801549 0.0061552490985 0.067852616025 0.99761822174 0.012405892107 
0.048174345781 0.9986696682 0.018388208978 0.031288691822 0.9992167748 0.024225084446 0.016969420825 0.99940779026 0.02993505508 
0.0047585774652 0.99935609896 0.03556323114 -0.005345474183 0.99914089184 0.041096279242 -0.014785324025 0.99879983233 0.046693566357 
-0.022865588354 0.99837204999 0.052253369948 -0.029783197025 0.9978850031 0.05777959646 -0.036922825198 0.99730372275 0.0634191577 
-0.043349044401 0.99667163814 0.069039887575 -0.049534268261 0.99597670648 0.074677683522 -0.055749967894 0.99520676561 0.080345720316 
-0.062123870449 0.99435277188 0.086041790845 -0.068113687298 0.99345566104 0.091686286591 -0.074483621574 0.99245860123 0.097355610824 
-0.080672214163 0.99140728032 0.10297377522 -0.08739427077 0.99023459948 0.10861712312 -0.093417636451 0.98906288834 0.11413916114 
-0.099616944612 0.98780723472 0.11963833577 -0.1049987893 0.98658482492 0.12500254991 -0.10990767149 0.98536754795 0.13027317141 
-0.11455293586 0.98413563654 0.13547942194 -0.11737812662 0.9831051719 0.1404514022 -0.11940120622 0.98215547409 0.14530649215 
-0.11978448962 0.98140967589 0.14995574052 -0.11918428411 0.98078164129 0.15447484759 -0.11633959345 0.98044467564 0.15872409083 
-0.11175116988 0.98031772667 0.16275389644 -0.10518886064 0.98040934498 0.16653173836 -0.096215859777 0.98073641433 0.16999586448 
-0.085443446693 0.98117328058 0.17320049332 -0.071623407323 0.98178463647 0.17598015545 -0.055744705497 0.98237345583 0.178423432 
-0.036155900581 0.98294736525 0.18029760953 -0.014027995463 0.98325351999 0.1817023136 0.012044937716 0.98314875883 0.18241008054 
0.0421533881 0.98233185412 0.18233820294 0.076304166859 0.98044362468 0.18140554825 0.11513571113 0.97701122942 0.17942359266 
0.1591574248 0.97140445268 0.17618826137 0.20881050738 0.96280716553 0.17146583918 0.26492004465 0.95006606832 0.16489947173 
0.32578776376 0.932392734 0.15654431505 0.39393168402 0.90753700579 0.14558300533 0.46627880879 0.87469793653 0.13224066058 
0.54142081613 0.83265079231 0.11643091481 0.61872703715 0.77949330389 0.09781126057 0.69370546889 0.71611474721 0.07715174179 
0.76382176774 0.64308797221 0.054901430945 0.82568909336 0.56321022541 0.032121069303 0.87819327184 0.47821452929 0.0093510039219 
0.91896545709 0.39416412936 -0.011710157943 0.94967171345 0.31169966244 -0.031095933986 0.97096063347 0.23436773848 -0.048033440513 
0.98438121809 0.16474448671 -0.06207150365 0.99201618519 0.10247541197 -0.073502913308 0.99544725167 0.047923401791 -0.082390027898 
0.99605168118 0.0014810374531 -0.08876291429 0.99486988549 -0.039186673017 -0.09326476073 0.9927404623 -0.072888642005 -0.095674554516 
0.99018262525 -0.10121355956 -0.096406348444 0.98757700662 -0.1247007564 -0.095610550393 0.98519733149 -0.1437476627 -0.093396078622 
0.98307649994 -0.1595396537 -0.090042735195 0.98146484575 -0.17154243875 -0.085439734679 0.98014609303 -0.18143333788 -0.079972371646 
0.97935319407 -0.18833873372 -0.073456399631 0.97889024608 -0.19338312817 -0.066157780089 0.97877213636 -0.19654651887 -0.058091057844 
0.97895836432 -0.19800977379 -0.049321905893 0.97939365225 -0.19797446333 -0.039927256449 0.97996616108 -0.19688481933 -0.030044817434 
0.98083902503 -0.19383957218 -0.019519918921 0.98168450263 -0.19031352806 -0.0087348914197 0.98274695132 -0.18493754573 0.0025561412543 
0.98380733498 -0.17867599916 0.014071779193 0.98491141402 -0.17112037195 0.025832631146 0.98603644043 -0.16218663865 0.037784022973 
0.98710129479 -0.15215857049 0.049787581358 0.98818180532 -0.14021055929 0.061949323605 0.98917666433 -0.12662487125 0.074132777741 
0.99002386516 -0.11140433466 0.086265987721 0.990672442 -0.094339525916 0.098326835126 0.99104456064 -0.075284758586 0.11028546575 
0.99107334011 -0.052935820717 0.12235780891 0.99053959946 -0.02812381099 0.13431438181 0.98925123903 -0.00025683219938 0.14622557955 
0.98714179486 0.027616484594 0.15744334418 0.98370117956 0.06125341895 0.16905622734 0.97906239912 0.095130782219 0.17996375444 
0.97276399824 0.13187135647 0.19063092372 0.96472209131 0.1702540759 0.20081044839 0.95532658252 0.20787916213 0.2100889685 
0.94447043342 0.24534884642 0.21858532422 0.93325338029 0.27935615786 0.22582795496 0.92014537455 0.31499231123 0.23262057855 
0.91016540874 0.33958017755 0.23724298042 0.89924507482 0.36480530442 0.2414029521 0.89924507482 0.36480530442 0.2414029521 

BinormalArray 3 288 double
-0.95710803707 -0.25777673352 -0.13227003077 -0.95710803707 -0.25777673352 -0.13227003077 -0.9569878432 -0.25828710608 -0.1321440078 
-0.95684189299 -0.25890431465 -0.13199298343 -0.95705895686 -0.2579878902 -0.13221346983 -0.95716039124 -0.25755967437 -0.13231401885 
-0.95742088963 -0.25646047748 -0.13256418666 -0.95763119117 -0.2555731851 -0.13275861086 -0.95800897724 -0.25397851384 -0.13309287746 
-0.95836155121 -0.25248815599 -0.13338991059 -0.95879092652 -0.25067025923 -0.13373249549 -0.95923126912 -0.24880171564 -0.13406371113 
-0.95975507454 -0.2465720856 -0.13443363979 -0.96028545065 -0.24430536769 -0.1347840517 -0.96079093261 -0.24213646551 -0.13509521044 
-0.9613228394 -0.23984465687 -0.135399184 -0.9618254775 -0.23766945025 -0.1356649669 -0.96231808154 -0.23552854883 -0.13590516039 
-0.96268456049 -0.23393072573 -0.13606929317 -0.96301272364 -0.23249738415 -0.1362037462 -0.96325472394 -0.23143951943 -0.13629411449 
-0.96336814162 -0.23094427744 -0.13633255087 -0.96333989158 -0.23106719145 -0.13632390228 -0.96321920612 -0.23158932087 -0.13629067253 
-0.96281204584 -0.23333484889 -0.13619035458 -0.9623894514 -0.2351254584 -0.13609762172 -0.96165629355 -0.23818775446 -0.13595501718 
-0.96075792054 -0.24187255031 -0.13580091135 -0.9595623398 -0.24667202896 -0.13562089132 -0.95810279157 -0.25238477067 -0.13542883122 
-0.95632697629 -0.25913859364 -0.13522538112 -0.95403145742 -0.26758139157 -0.13499695234 -0.95125943991 -0.27739127996 -0.13475739605 
-0.94738673128 -0.29047798993 -0.13446530693 -0.94278695542 -0.30521142154 -0.13415940088 -0.93664329548 -0.32372634002 -0.13379310074 
-0.92866477719 -0.34611869859 -0.13335508277 -0.9182723687 -0.3730102764 -0.13281261455 -0.90476248249 -0.40490678434 -0.1321186825 
-0.88736095525 -0.44201146148 -0.13121129148 -0.86492133841 -0.48478114996 -0.12999351907 -0.83685407538 -0.53215880001 -0.12838328589 
-0.80180003485 -0.58410621144 -0.12624039715 -0.75977738849 -0.63834654461 -0.12349902397 -0.71023601146 -0.69365002909 -0.12006017311 
-0.65410734464 -0.74746399784 -0.11593598933 -0.59254818839 -0.79782560605 -0.11117979477 -0.52682685129 -0.8433526938 -0.10587588305 
-0.45997466462 -0.88225132412 -0.10027915539 -0.39316804362 -0.91459594941 -0.094515283401 -0.32905564645 -0.94012137281 -0.088849231422 
-0.26730365247 -0.96000616823 -0.083288140494 -0.21056674054 -0.97445419953 -0.078106727028 -0.15778625869 -0.98475344108 -0.073240404533 
-0.10953481724 -0.99160144471 -0.068765533932 -0.066019993321 -0.99571711626 -0.06472082246 -0.025896012112 -0.99780213864 -0.060994169175 
0.010620326534 -0.99828243058 -0.057614212366 0.044131154372 -0.99753636758 -0.054531060583 0.075174136089 -0.99582934276 -0.051698833183 
0.10430286574 -0.99333434544 -0.049069240624 0.13208863524 -0.99014227615 -0.046592546731 0.15874627735 -0.98632724796 -0.044251320415 
0.18497002687 -0.98184682325 -0.0419869602 0.21083813037 -0.97671058896 -0.039795831478 0.23684193428 -0.9708187733 -0.037640504466 
0.26304412581 -0.96412967614 -0.035521197247 0.28967359783 -0.95654164004 -0.033426001833 0.31672509201 -0.94799871599 -0.031363204171 
0.34436679504 -0.93837695314 -0.029329239419 0.37246134093 -0.92764477133 -0.027344610642 0.40099357882 -0.91572806397 -0.025421695306 
0.42959275649 -0.90271437656 -0.023596989624 0.45840922183 -0.88847203789 -0.0218728879 0.48704406019 -0.87314179225 -0.020285316451 
0.51528160297 -0.85681345264 -0.01885674977 0.54283095388 -0.83965732474 -0.01761057954 0.5691941515 -0.82203608406 -0.016573906996 
0.59477016995 -0.80374179666 -0.015734332931 0.61848668867 -0.78564970907 -0.01512450275 0.64037142861 -0.76792408787 -0.014731893963 
0.6603126972 -0.75084995871 -0.01454240088 0.67802377071 -0.73489624739 -0.014535196349 0.69317198132 -0.72062279037 -0.014676454064 
0.70589123178 -0.70816295851 -0.014926255063 0.71595679223 -0.69797839066 -0.015232787943 0.72311633325 -0.69055163176 -0.015531016142 
0.72779517181 -0.68561300663 -0.015779513168 0.72936903079 -0.68393610948 -0.015881280464 0.72853412419 -0.68482686145 -0.015817702647 
0.72471485269 -0.68887490397 -0.015483829305 0.71804035356 -0.69584350895 -0.014827734457 0.7086453597 -0.70542974774 -0.013806707732 
0.69633229024 -0.71761331002 -0.012348232785 0.68100162622 -0.73220814353 -0.010393249424 0.66257472055 -0.74895426029 -0.0078902274321 
0.64063427228 -0.76783149862 -0.0047454082382 0.61492224784 -0.78858724199 -0.000889321094 0.58515407573 -0.81091347929 0.0037465666559 
0.55058189293 -0.83472937039 0.0092982461934 0.51065948728 -0.85963666151 0.015865000412 0.46462448608 -0.88519399271 0.023572912514 
0.4116973822 -0.91073950634 0.032539469522 0.35098488063 -0.93539854834 0.042885537666 0.2818403126 -0.95790250314 0.054670217367 
0.20376696366 -0.97666167843 0.067904273934 0.11697253577 -0.98970611657 0.082457435684 0.022237227176 -0.99492921471 0.09808854899 
-0.078574985369 -0.99032522408 0.11437623107 -0.1826850999 -0.9744356251 0.13077219436 -0.28663790678 -0.94674582661 0.146666459 
-0.38692438441 -0.90785801649 0.16150338277 -0.48023315974 -0.85954148942 0.17482717254 -0.56452592644 -0.80408682368 0.1864265495 
-0.63869023079 -0.74401499596 0.19625614608 -0.7025751467 -0.68161745035 0.20441578857 -0.75694850438 -0.61843218669 0.21111748431 
-0.80275550785 -0.5555886263 0.21657532858 -0.84136374067 -0.49320779193 0.22102744144 -0.8737999247 -0.43128750752 0.22464366774 
-0.90118414699 -0.36888468238 0.22757685364 -0.92433284042 -0.30454632969 0.22991375166 -0.94358566523 -0.23660638277 0.23165386249 
-0.95884323217 -0.16269765405 0.23269965512 -0.96931253693 -0.079019702697 0.23278550713 -0.97270197893 0.018177953239 0.23134481234 
-0.96446399588 0.13473249272 0.22728034684 -0.93641098954 0.2743949716 0.21872781769 -0.87574121458 0.43811757366 0.20280610627 
-0.76780506318 0.61594404122 0.17631881081 -0.60738920726 0.78226776859 0.13833108518 -0.41345617963 0.90572010862 0.093408095812 
-0.22083157113 0.97405447236 0.049510625782 -0.057077943944 0.99828860053 0.012727071896 0.068666583324 0.99752519302 -0.015112565264 
0.15944069633 0.98659032922 -0.034902530487 0.22164326589 0.97393386959 -0.04823982118 0.26129483989 0.96359863685 -0.056592170037 
0.28256644256 0.95730682361 -0.06099058134 0.28911003842 0.95526531291 -0.062318276898 0.28251582873 0.95732082781 -0.061005238743 
0.26449623548 0.96267208201 -0.057482205403 0.23591734886 0.9703813233 -0.051991267567 0.19762318733 0.97925596444 -0.044753010497 
0.15184437662 0.98774016425 -0.036230556394 0.099313685332 0.99470089914 -0.026587838538 0.043117998568 0.99893526134 -0.016406762537 
-0.014292184419 0.99987904856 -0.0061336536816 -0.070367753683 0.99751394825 0.0037818374312 -0.12243751912 0.99239261796 0.012881992348 
-0.16843581475 0.98549256393 0.020827451587 -0.20629686174 0.97810882114 0.027289903658 -0.23600367872 0.97121523799 0.032298995844 
-0.25637709828 0.96591764571 0.035691528167 -0.26735611565 0.96286796945 0.037496410922 -0.268900357 0.96242805598 0.037746987471 
-0.26133578355 0.96455625205 0.036535528803 -0.24385245005 0.96922413993 0.033772017657 -0.21772641291 0.97555798772 0.029695483221 
-0.18247891849 0.98291029626 0.024265073874 -0.13992627148 0.99000210007 0.017789896414 -0.091144529836 0.99578278435 0.010455672262 
-0.038093397066 0.99927087157 0.0025726130342 0.015997505344 0.9998575932 -0.0053733732717 0.067319865878 0.99764897098 -0.012828341938 
0.11169208383 0.99355730678 -0.019203035152 0.14765892745 0.98873942468 -0.024314424103 0.17023533208 0.98501994191 -0.027489011354 
0.17822203241 0.98357455751 -0.028600646462 0.16834635966 0.98535147096 -0.027239343952 0.13855133416 0.99008420614 -0.023168783984 
0.086095288756 0.99615746634 -0.016059374391 0.0079196882516 0.99995330946 -0.0055369153483 -0.095899464066 0.99535594412 0.0083568708817 
-0.22416821149 0.97421832881 0.025441319919 -0.36777262913 0.92885082093 0.04449096217 -0.5116885618 0.85682075909 0.063505925137 
-0.64148753519 0.76289052484 0.08057164082 -0.74628517669 0.6589199125 0.094249583352 -0.82563626576 0.55444387165 0.10448325149 
-0.88114851327 0.45950490279 0.11150130882 -0.91937374194 0.37583891596 0.11617672695 -0.94495459901 0.30474037903 0.11913902466 
-0.96189019206 0.2452415816 0.12092900841 -0.97313934796 0.19526799583 0.12194350842 -0.98048462956 0.15381906912 0.12243196139 
-0.9852554304 0.11935944471 0.12257675075 -0.98838605869 0.089932459215 0.12249551736 -0.99031063756 0.065835071509 0.12227258276 
-0.9914876144 0.045582256094 0.12196133985 -0.99218200936 0.028120577302 0.12158985745 -0.9925416282 0.013222950173 0.12118692123 
-0.99268063109 0.00042911327982 0.12076829271 -0.99267743471 -0.010261441479 0.12035868655 -0.99257624691 -0.020299324044 0.11991801994 
-0.9924125061 -0.028982934764 0.11948810498 -0.99221400086 -0.036508540415 0.11907351917 -0.99195459239 -0.044266788218 0.11860243715 
-0.99167084376 -0.051314762164 0.11813438457 -0.99135337859 -0.058125147828 0.11764329966 -0.99099152622 -0.064968489687 0.11711059009 
-0.99057665256 -0.071970914173 0.11652503128 -0.99014323285 -0.078586122137 0.11593360108 -0.98964108175 -0.085579418701 0.11526791581 
-0.98910872858 -0.092386233962 0.11458056913 -0.98848655097 -0.099722220174 0.11379726427 -0.98788088943 -0.10635224081 0.11305109095 
-0.98721689679 -0.11315220697 0.11224694536 -0.98659756943 -0.11912826921 0.11150646378 -0.98599842264 -0.12462595994 0.11079476817 
-0.98540240653 -0.12985562548 0.11008911724 -0.98500056799 -0.13326401966 0.10961104926 -0.98468665874 -0.13586945054 0.10923221368 
-0.98456866837 -0.13683807597 0.10908656305 -0.98457010585 -0.13682627269 0.10908839427 -0.98483991823 -0.13457952699 0.10944718535 
-0.98530303021 -0.1305984288 0.11009990489 -0.98596057244 -0.12465548968 0.11109796799 -0.98681685528 -0.11631754913 0.11252876031 
-0.98775429599 -0.10619319212 0.11429985433 -0.98880652662 -0.093042689518 0.11663923374 -0.98979181244 -0.077848215938 0.11938100055 
-0.99067455862 -0.058969746601 0.12282706498 -0.99122075961 -0.037567958935 0.1267677174 -0.99124623226 -0.012245942907 0.13145700406 
-0.99043720732 0.017089818788 0.13690170359 -0.98842367393 0.050451063252 0.14308504822 -0.98470448504 0.088477932229 0.15009574492 
-0.97862160714 0.13168578542 0.15798292302 -0.96932985217 0.18052641337 0.16676286088 -0.95563119835 0.23583899948 0.17649073367 
-0.93676526227 0.29595973005 0.18675835082 -0.91037404166 0.36342678206 0.19783851584 -0.87572117491 0.43522192701 0.20903181111 
-0.83159596358 0.5099829071 0.21992177659 -0.77607657366 0.58713248028 0.23017515596 -0.71018682505 0.66221841894 0.2389590742 
-0.63457700744 0.73272788069 0.24580861353 -0.55218821505 0.7952542399 0.25031753651 -0.46481827841 0.84865615456 0.25244147714 
-0.37871864291 0.89045169672 0.25232511828 -0.29450508953 0.92226383763 0.25039202471 -0.21578951962 0.94464511118 0.2471446887 
-0.14517370853 0.95905988188 0.24316401321 -0.08225293803 0.96756817823 0.23884361969 -0.027369530776 0.9717223865 0.23453467198 
0.019097729185 0.97287598509 0.23053762032 0.059555047719 0.97211054768 0.22683535744 0.092792709864 0.97023702452 0.22367304093 
0.1204429697 0.96780985673 0.22099224481 0.14306079479 0.96522673104 0.21879434789 0.16105458247 0.96277855244 0.21706883799 
0.17563827878 0.96053166312 0.21570841236 0.18626608355 0.95874077002 0.21475819429 0.19465641978 0.95723114837 0.21405001013 
0.19991744857 0.956238441 0.21363767858 0.20320435649 0.95559777162 0.21340311238 0.20450178712 0.95533936506 0.21332068963 
0.20400175295 0.95544013519 0.21334814941 0.20191912883 0.95586122993 0.21344314118 0.19871893597 0.95650612978 0.21355750555 
0.19348938465 0.95754819689 0.21368974859 0.18775411962 0.95867085056 0.21377228736 0.18012497034 0.96012823035 0.21379610927 
0.17160463425 0.96170370776 0.21372371883 0.16179080143 0.96344752929 0.21352422549 0.15061386582 0.96533785024 0.21316261004 
0.13838018345 0.96728708039 0.21261850566 0.12426343933 0.96937689404 0.21181840087 0.10856807506 0.97149533873 0.21073628047 
0.091312456328 0.97357110656 0.20933546231 0.072298214783 0.97554680862 0.20756057506 0.051390984251 0.97733704914 0.20535641973 
0.027282030647 0.97889744374 0.2025228023 0.00082771312919 0.979980478 0.19909188238 -0.02855789174 0.98040270835 0.19492300088 
-0.05778862976 0.97999902038 0.19042687394 -0.092657596646 0.97842776634 0.1846447287 -0.1275957276 0.9756450793 0.17842648215 
-0.16523305587 0.97126878189 0.17127460573 -0.20433910676 0.96517167672 0.1633681851 -0.24251469996 0.95765427033 0.15519316616 
-0.28036752862 0.94862464076 0.14664699054 -0.31461586613 0.9390550442 0.13853692914 -0.35033352207 0.92760170144 0.12969775172 
-0.3749584346 0.91879551451 0.12337331495 -0.40009970616 0.90900863587 0.11671985707 -0.40009970616 0.90900863587 0.11671985707 

