# vtk DataFile Version 4.1
vtk output
ASCII
DATASET POLYDATA
POINTS 276 float
30.2823 -15.1587 221.559 30.3364 -14.4586 219.371 30.39 -13.76 217.184 
30.4417 -13.0677 215.002 30.4902 -12.3864 212.826 30.5342 -11.7204 210.66 
30.5723 -11.0742 208.506 30.6035 -10.4515 206.367 30.6268 -9.85594 204.245 
30.6412 -9.2905 202.143 30.6462 -8.75773 200.061 30.6413 -8.2596 198.002 
30.626 -7.79752 195.967 30.6003 -7.3723 193.956 30.5642 -6.98422 191.969 
30.5179 -6.633 190.007 30.4618 -6.31787 188.069 30.3963 -6.03762 186.154 
30.3221 -5.79065 184.262 30.2398 -5.57505 182.391 30.1502 -5.38866 180.54 
30.054 -5.22912 178.707 29.9522 -5.09399 176.89 29.8454 -4.98075 175.088 
29.7346 -4.88692 173.298 29.6204 -4.81006 171.52 29.5037 -4.74785 169.751 
29.3851 -4.6981 167.991 29.2653 -4.65879 166.237 29.1449 -4.62809 164.49 
29.0246 -4.60435 162.748 28.9047 -4.58614 161.012 28.7859 -4.57221 159.281 
28.6685 -4.5615 157.556 28.553 -4.55313 155.837 28.4398 -4.5464 154.125 
28.3294 -4.54075 152.42 28.222 -4.53576 150.725 28.118 -4.53111 149.04 
28.0178 -4.52663 147.366 27.9216 -4.5222 145.705 27.8299 -4.51779 144.056 
27.7428 -4.51346 142.422 27.6607 -4.50927 140.803 27.5838 -4.50539 139.199 
27.5123 -4.50196 137.61 27.4464 -4.49921 136.036 27.3864 -4.49734 134.477 
27.3323 -4.49658 132.93 27.2842 -4.4972 131.396 27.2423 -4.49943 129.873 
27.2067 -4.50353 128.358 27.1772 -4.50974 126.85 27.154 -4.51831 125.346 
27.1369 -4.52949 123.843 27.126 -4.54349 122.339 27.1212 -4.56055 120.831 
27.1223 -4.58087 119.316 27.1292 -4.60464 117.792 27.1418 -4.63206 116.254 
27.16 -4.66329 114.7 27.1835 -4.6985 113.128 27.2122 -4.73783 111.535 
27.2459 -4.78142 109.918 27.2845 -4.82938 108.276 27.3276 -4.88182 106.607 
27.3751 -4.93883 104.909 27.4269 -5.0005 103.181 27.4825 -5.06687 101.423 
27.542 -5.13801 99.6339 27.6049 -5.21395 97.8138 27.671 -5.29469 95.9632 
27.7401 -5.38026 94.0828 27.8119 -5.47064 92.1736 27.8862 -5.56581 90.237 
27.9625 -5.66574 88.2744 28.0406 -5.77038 86.2878 28.12 -5.87969 84.279 
28.2006 -5.99361 82.2502 28.2817 -6.11208 80.2035 28.3632 -6.23505 78.1411 
28.4444 -6.36247 76.0652 28.5249 -6.49431 73.978 28.6043 -6.63053 71.8814 
28.6821 -6.77114 69.7775 28.7577 -6.91615 67.668 28.8307 -7.0656 65.5546 
28.9004 -7.21958 63.4385 28.9664 -7.37818 61.3211 29.028 -7.54157 59.2034 
29.0847 -7.70991 57.086 29.136 -7.88343 54.9694 29.1812 -8.0624 52.8538 
29.2197 -8.2471 50.7392 29.2511 -8.43788 48.6253 29.2746 -8.63509 46.5115 
29.2897 -8.83913 44.397 29.2958 -9.0504 42.2806 29.2924 -9.26935 40.1609 
29.2787 -9.49639 38.0366 29.2543 -9.73198 35.9057 29.2185 -9.97654 33.7664 
29.1708 -10.2305 31.6167 29.1105 -10.4942 29.4544 29.037 -10.768 27.2775 
28.9497 -11.0523 25.0839 28.8481 -11.3473 22.8716 28.7315 -11.6531 20.6389 
28.5994 -11.97 18.3842 28.4512 -12.298 16.1062 28.2865 -12.6371 13.8041 
28.1048 -12.9873 11.4773 27.9056 -13.3482 9.12575 27.6886 -13.7198 6.74986 
27.4534 -14.1017 4.35051 27.2 -14.4935 1.92906 26.9281 -14.8947 -0.512636 
26.6376 -15.3049 -2.97228 26.3288 -15.7233 -5.44718 26.0017 -16.1495 -7.93423 
25.6567 -16.5826 -10.4301 25.2942 -17.0221 -12.9311 24.9147 -17.4671 -15.4334 
24.5188 -17.917 -17.9333 24.1073 -18.3709 -20.4267 23.6811 -18.8281 -22.9099 
23.2412 -19.2879 -25.3792 22.7885 -19.7496 -27.8311 22.3242 -20.2124 -30.2623 
21.8495 -20.6757 -32.6699 21.3656 -21.139 -35.0513 20.8738 -21.6015 -37.4043 
20.3753 -22.0629 -39.7271 19.8714 -22.5225 -42.0181 19.3635 -22.98 -44.2764 
18.8527 -23.435 -46.5012 18.3403 -23.8872 -48.6921 17.8275 -24.3362 -50.8491 
17.3153 -24.7817 -52.9724 16.8049 -25.2237 -55.0624 16.2971 -25.6617 -57.1198 
15.7928 -26.0957 -59.1453 15.2929 -26.5255 -61.1398 14.7981 -26.951 -63.1044 
14.3089 -27.372 -65.04 13.8259 -27.7883 -66.9476 13.3494 -28.1999 -68.8283 
12.8797 -28.6066 -70.6831 12.4171 -29.0082 -72.5129 11.9616 -29.4046 -74.3187 
11.5132 -29.7955 -76.1015 11.0718 -30.1809 -77.862 10.6373 -30.5604 -79.6011 
10.2093 -30.934 -81.3196 9.78768 -31.3013 -83.0183 9.37192 -31.6621 -84.6981 
8.96164 -32.0163 -86.3597 8.55639 -32.3637 -88.0039 8.15572 -32.7039 -89.6314 
7.75914 -33.0368 -91.2432 7.36621 -33.3624 -92.84 6.97646 -33.6803 -94.4226 
6.58951 -33.9905 -95.9919 6.20496 -34.2928 -97.5484 5.82252 -34.5873 -99.0932 
5.44191 -34.8737 -100.627 5.06293 -35.1522 -102.15 4.68546 -35.4226 -103.663 
4.30942 -35.6851 -105.166 3.93482 -35.9396 -106.661 3.56171 -36.1862 -108.147 
3.1902 -36.4249 -109.625 2.82048 -36.6558 -111.096 2.45273 -36.8791 -112.558 
2.08722 -37.0947 -114.013 1.72419 -37.3028 -115.46 1.36394 -37.5035 -116.9 
1.00673 -37.6968 -118.333 0.652841 -37.8829 -119.758 0.302524 -38.0618 -121.178 
-0.0439968 -38.2336 -122.591 -0.386532 -38.3984 -123.998 -0.724934 -38.5564 -125.4 
-1.0591 -38.7077 -126.798 -1.38899 -38.8522 -128.192 -1.71459 -38.9902 -129.583 
-2.03596 -39.1217 -130.973 -2.35321 -39.2469 -132.362 -2.66648 -39.3658 -133.752 
-2.97598 -39.4786 -135.144 -3.28193 -39.5854 -136.54 -3.58461 -39.6861 -137.94 
-3.88431 -39.781 -139.346 -4.18133 -39.87 -140.759 -4.47602 -39.9531 -142.18 
-4.7687 -40.0305 -143.609 -5.05972 -40.1019 -145.048 -5.3494 -40.1676 -146.497 
-5.63809 -40.2273 -147.955 -5.9261 -40.2809 -149.424 -6.21376 -40.3285 -150.903 
-6.50136 -40.3698 -152.392 -6.7892 -40.4049 -153.89 -7.07756 -40.4334 -155.397 
-7.3667 -40.4553 -156.912 -7.65688 -40.4704 -158.434 -7.94836 -40.4787 -159.963 
-8.24137 -40.48 -161.497 -8.53614 -40.4741 -163.037 -8.83291 -40.4611 -164.58 
-9.13189 -40.4407 -166.128 -9.4333 -40.4131 -167.678 -9.73736 -40.3781 -169.231 
-10.0443 -40.3357 -170.786 -10.3542 -40.286 -172.344 -10.6674 -40.2291 -173.903 
-10.9841 -40.1649 -175.466 -11.3043 -40.0938 -177.031 -11.6283 -40.0157 -178.6 
-11.9563 -39.9309 -180.173 -12.2884 -39.8396 -181.751 -12.6246 -39.7421 -183.335 
-12.9651 -39.6385 -184.926 -13.31 -39.5291 -186.525 -13.6593 -39.4144 -188.132 
-14.0129 -39.2946 -189.75 -14.3709 -39.1701 -191.378 -14.7331 -39.0413 -193.018 
-15.0994 -38.9086 -194.67 -15.4696 -38.7724 -196.335 -15.8435 -38.6332 -198.012 
-16.2208 -38.4914 -199.702 -16.6012 -38.3475 -201.405 -16.9843 -38.202 -203.121 
-17.3698 -38.0553 -204.848 -17.7573 -37.9079 -206.586 -18.1464 -37.7602 -208.335 
-18.5367 -37.6128 -210.092 -18.9278 -37.466 -211.858 -19.3194 -37.3203 -213.631 
-19.7111 -37.176 -215.41 -20.1026 -37.0336 -217.193 -20.4938 -36.8933 -218.98 
-20.8844 -36.7556 -220.77 -21.2744 -36.6208 -222.563 -21.6638 -36.4891 -224.356 
-22.0524 -36.3608 -226.151 -22.4405 -36.2362 -227.946 -22.8282 -36.1156 -229.742 
-23.2156 -35.9991 -231.538 -23.6031 -35.8871 -233.335 -23.9909 -35.7796 -235.133 
-24.3795 -35.6771 -236.933 -24.7691 -35.5796 -238.734 -25.1601 -35.4874 -240.538 
-25.5529 -35.4007 -242.345 -25.948 -35.3198 -244.156 -26.3456 -35.2448 -245.972 
-26.7462 -35.1759 -247.792 -27.1501 -35.1133 -249.619 -27.5576 -35.0571 -251.452 
-27.9689 -35.0075 -253.292 -28.3843 -34.9645 -255.139 -28.8039 -34.9282 -256.994 
-29.2278 -34.8986 -258.857 -29.656 -34.8754 -260.727 -30.0886 -34.8587 -262.605 
-30.5253 -34.8481 -264.49 -30.9661 -34.8434 -266.383 -31.4106 -34.8441 -268.282 
-31.8586 -34.8497 -270.188 -32.3097 -34.8598 -272.099 -32.7635 -34.8736 -274.014 
-33.2194 -34.8904 -275.933 -33.6769 -34.9095 -277.856 -34.1354 -34.9301 -279.779 

LINES 1 277
276 275 274 273 272 271 270 269 268 267 266 265 264 263 262 261 260 259 258 257 256 255 254 253 252 251 250 249 248 247 246 245 244 243 242 241 240 239 238 237 236 235 234 233 232 231 230 229 228 227 226 225 224 223 222 221 220 219 218 217 216 215 214 213 212 211 210 209 208 207 206 205 204 203 202 201 200 199 198 197 196 195 194 193 192 191 190 189 188 187 186 185 184 183 182 181 180 179 178 177 176 175 174 173 172 171 170 169 168 167 166 165 164 163 162 161 160 159 158 157 156 155 154 153 152 151 150 149 148 147 146 145 144 143 142 141 140 139 138 137 136 135 134 133 132 131 130 129 128 127 126 125 124 123 122 121 120 119 118 117 116 115 114 113 112 111 110 109 108 107 106 105 104 103 102 101 100 99 98 97 96 95 94 93 92 91 90 89 88 87 86 85 84 83 82 81 80 79 78 77 76 75 74 73 72 71 70 69 68 67 66 65 64 63 62 61 60 59 58 57 56 55 54 53 52 51 50 49 48 47 46 45 44 43 42 41 40 39 38 37 36 35 34 33 32 31 30 29 28 27 26 25 24 23 22 21 20 19 18 17 16 15 14 13 12 11 10 9 8 7 6 5 4 3 2 1 0 

CELL_DATA 1
FIELD FieldData 2
LengthArray 1 1 double
512.55459284 
TortuosityArray 1 1 double
0.013261201948 
POINT_DATA 276
FIELD FieldData 8
RadiusArray 1 276 double
66.841258147 67.355485625 69.111585133 71.882806569 74.725351463 76.039441279 76.245120255 76.377974087 77.722010658 
77.940598178 78.072994636 78.349965931 78.465941348 78.489072895 78.515317126 78.62429541 78.639508635 78.71332811 
78.743334512 78.731221472 78.676278561 78.659396833 78.641618778 78.63505319 78.62997285 78.612615095 78.465527888 
78.463731144 78.333138619 78.166243475 78.142524419 77.798973987 77.760175657 77.550378134 77.270207006 77.255373333 
76.89848871 76.773608695 76.734483814 76.51324703 76.480207815 76.233684672 76.20243942 76.115412281 75.964225816 
75.8297621 75.709149338 75.36764332 75.275716227 75.231661836 75.157089261 74.949910944 74.816922384 74.744317424 
74.449227403 74.37388857 74.301146155 74.288735645 74.096491044 73.899855313 73.720211068 73.538651294 73.491318044 
73.328394546 73.289701101 73.131996223 72.711684878 72.70402516 72.225104192 72.192859204 72.11130682 71.540869125 
71.262795322 70.88273441 70.641146428 70.438399635 70.083584359 70.069250645 69.769158447 69.769105813 69.765868829 
69.273419431 68.866580055 68.792679895 68.61437202 68.42184876 68.413698929 68.168063861 68.011710455 67.805811524 
67.5739792 67.547219263 67.329983813 67.184853219 66.927081865 66.842665552 66.670645634 66.446126207 66.282145636 
66.236526992 66.139219004 66.103314729 65.944522617 65.699481001 65.479504241 65.409154572 65.371223247 65.237904305 
65.164996789 64.832505693 64.750589336 64.125869968 63.952124446 63.673002362 63.130179936 62.745190179 62.548270495 
62.273950444 61.798136138 61.167374788 61.150014565 60.435000522 59.965652584 59.509836619 59.182925695 58.154823591 
58.112557828 57.273933034 57.257418016 57.024471622 56.537681793 55.919248665 55.880355222 55.659196919 55.120777781 
54.752483248 54.567412824 54.065358197 53.976302178 53.937441269 53.805175129 53.464446809 53.248149567 53.21741961 
52.995794279 52.956717197 52.955992629 52.909954492 52.780432753 52.779650726 52.793746457 52.812691177 52.867418738 
52.878041717 52.855066099 52.940918725 53.014497971 53.046572557 53.05336274 53.067885268 53.090249057 53.101735558 
53.163912924 53.209164169 53.240369109 53.332529069 53.366728981 53.381831533 53.463042096 53.516604515 53.525664648 
53.587333598 53.725991286 53.824949389 53.895439033 53.916048746 53.972332625 54.108137156 54.213473027 54.227418171 
54.226325716 54.246076657 54.285963389 54.307240998 54.319659498 54.32215405 54.387314645 54.41067779 54.44315748 
54.443474579 54.448103325 54.43144574 54.435979011 54.437191327 54.466135662 54.501594394 54.379947787 54.308432301 
54.147424666 54.103582688 54.066243383 54.060166759 53.931246491 53.915146024 53.852665909 53.757310517 53.448072011 
53.44346402 53.107091321 53.083347479 52.825650552 52.462559403 52.450999199 52.202518561 52.13637478 52.074958704 
51.998526731 51.795111528 51.7942002 51.458691921 51.328238458 51.125523201 50.873160982 50.870998358 50.841509222 
50.646452316 50.62838815 50.60726628 50.12610867 50.107713293 49.642083679 49.363932821 49.241913486 48.736639105 
48.631597536 48.263193802 48.251158621 48.109051006 47.805403871 47.690221299 47.432988206 47.180078761 46.940162035 
46.676814874 46.669202603 46.638697062 46.322683579 46.196368128 45.901894317 45.855746046 45.594531922 45.556653904 
45.464924305 45.149182657 45.092644634 45.064077917 44.584119246 44.557507093 44.278208066 43.892131611 43.622650411 
43.48438751 43.286569251 42.940537336 42.489376249 42.438116332 42.043633986 41.901948729 41.842983435 41.672087632 
41.194440163 41.15350717 40.06190819 40.032805886 39.412254667 37.803211166 
EdgeArray 2 276 int
4878 4878 6423 3833 4016 3849 5415 4281 6418 
4521 7869 8257 6282 19998 6282 19989 25247 25248 
25246 25246 2459 7502 20235 24422 23992 22428 26137 
23992 26137 26137 26992 26992 26993 26594 17172 17172 
27486 27486 27487 27491 27239 27237 27239 27230 27230 
27227 27227 27228 27219 25875 25224 26600 26599 26599 
28060 27894 21953 21953 27902 27720 28086 25273 17781 
17781 27267 28276 28276 27073 28697 28697 28902 20468 
28069 28069 28919 29610 29610 29611 23679 23679 23798 
23798 29388 29387 29387 29386 29385 29386 29903 29857 
30225 29859 30232 30232 29659 30230 29408 29101 29408 
20942 20942 29657 29108 29108 28521 28521 30711 29393 
29625 20839 29632 29623 17251 29632 17251 29646 27878 
27878 29864 29864 26063 26063 29649 29650 29651 29650 
29639 29641 29640 29641 29090 29090 29824 29824 29670 
29670 26479 26479 22677 22677 29577 29577 30673 30673 
30669 30669 29341 29341 28831 28831 27633 27633 30859 
30859 31254 31248 30861 30861 26760 30861 26760 26760 
26531 26531 31501 31501 31500 31500 30475 31498 31515 
31515 31513 31513 31823 31823 31825 31825 30455 31284 
30458 30458 31295 28980 32605 32605 32602 32602 33310 
33310 32584 32584 33309 33309 32702 32702 27821 33268 
33268 33003 35394 35394 35194 35194 36212 36212 33535 
33535 36522 36522 36190 32861 36521 32861 36713 36713 
34199 27809 33884 33884 35660 35660 37161 37161 35722 
35722 29010 29010 38249 38249 38241 38241 38239 38239 
38733 38733 36875 36875 37738 37738 39156 39156 39160 
39160 38382 38382 39135 39135 29983 39143 40345 40345 
39720 40348 40356 40356 39784 40357 40359 38218 39740 
39740 38032 40775 40774 39109 40774 36312 40777 40773 
39978 40559 40044 40559 39980 35785 15122 37561 37561 
40557 40557 40557 40950 40950 40342 40342 35272 35272 
40962 40962 39995 39995 34965 34965 40740 40740 41966 
41449 41966 41965 34942 34942 42444 42444 42487 42487 
42486 42486 40101 40101 42246 42242 42250 42245 41973 
42465 42289 41973 42288 42288 42477 42477 42457 42956 
42470 42470 32819 32819 40668 40668 39846 39846 42462 
43170 43171 43171 43689 39375 39375 42570 40993 42570 
42945 42945 34879 42955 42553 42553 38799 44055 42954 
42580 42693 42619 42497 42619 41425 41425 44294 44294 
44292 44295 44083 44083 44085 42997 43819 44085 43819 
43819 41188 41188 40287 38272 44838 35276 44837 44838 
44836 44837 44836 44836 44845 44845 44850 44850 44247 
44247 44585 44585 38320 38320 45902 45902 45773 45773 
44624 43530 44808 44711 46131 41523 46131 46132 42820 
42820 44439 44439 42329 42329 44807 44807 45282 45282 
43760 46048 46475 46475 45874 45346 46256 46256 44952 
44952 44549 46072 46816 46816 46810 46821 46609 46609 
47348 47348 47342 47344 47335 47344 47339 47339 47289 
47289 46261 46261 45419 45419 47117 46493 47117 47953 
47955 47955 47956 47956 47000 45081 47561 47561 47966 
46303 45087 45087 48093 48093 47643 47445 46893 46893 
47374 47374 46049 46049 47684 47511 48480 48480 48541 
48541 48594 48594 48791 48791 47640 47640 48807 48807 
48580 48580 49407 49123 49270 47659 49231 48578 49273 
49273 49025 49025 49415 49415 49568 49568 49567 48938 
49280 49280 49446 49446 49441 49441 49313 48830 49976 
49976 49970 49975 49962 49962 50203 50203 50089 50089 
50219 50219 50217 50217 50423 50423 50432 50582 50483 
50432 50509 50509 50587 50587 49859 50878 50434 50879 
50475 51236 51235 50801 50120 50120 50757 50757 51659 
51659 54608 54608 
EdgePCoordArray 1 276 double
0 0.132 0.784 0.78 0.596 0.072 0.08 0.156 0.912 
0 0.024 0.54 0.26 0.38 0 0 0.024 0 
0 0.108 0.768 0.836 0.58 0.048 0.892 0.196 0 
0.756 0 0.044 0.668 0 0.044 0.932 0 0.788 
0 0.956 0.152 0 0 0.884 0.128 0.032 0.084 
0.124 0 0.376 0.132 0.372 0.108 0 0 0.996 
0.256 0.588 0.032 0.084 0 0 0 0.228 0.268 
0.524 0.136 0 0 0 0 0 0 0 
0 0 0 0 0 0.196 0 0.984 0 
0 0 0 0.304 0 0 0 0 0.392 
0 0.988 0 0 0 0 0 0 0.812 
0.504 0 0 0 0 0 0.22 0.144 0 
0.872 0 0 0 0 0 0 0 0 
0 0 0 0 0 0 0 0.92 0 
0.96 0 0.992 0.188 0 0.924 0.068 0.224 0.488 
0.492 0.384 0.112 0.932 0.196 0 0 0 0 
0 0 0 0 0.008 0.024 0 0 0 
0 0 0.94 0.96 0.48 0.428 0 0 0.896 
0 0 0 0 0.448 0 0.032 0.976 0.88 
0 0.316 0 0.248 0.912 0.564 0.332 0 0 
0.2 0 0.36 0.432 0 0 0.024 0.64 0.032 
0.936 0 0 0 0 0 0 0 0 
0.704 0.94 0.084 0.188 0 0 0 0 0 
0.996 0 0.192 0 0 0.028 0 0.564 0 
0 0.996 0.996 0 0 0 0 0.904 0.132 
0 0 0.076 0 0.988 0 0 0.876 0 
0 0 0.892 0 0 0 0 0 0 
0 0.988 0.844 0.768 0 0 0 0 0.396 
0 0 0 0.06 0 0.968 0 0 0 
0 0 0 0.184 0.836 0 0 0.18 0.928 
0.912 0.024 0 0 0 0 
CurvatureArray 1 276 double
0 0.00024098742457 0.00096830725206 0.0017026765986 0.0024379679157 0.0031723129059 0.003899857076 0.0046120331017 0.0053030919284 
0.0059587774357 0.0065726390727 0.0071259925834 0.0076078938091 0.008005334848 0.0083023217455 0.0084887547021 0.0085566630536 0.0085016236891 
0.0083228490597 0.0080269101238 0.0076231015762 0.007127330921 0.0065576914851 0.0059353517817 0.0052828019325 0.0046213215029 0.0039716262258 
0.0033507282713 0.002773748995 0.0022528194426 0.001797067328 0.0014162415199 0.0011203597856 0.00092115004677 0.00082655268127 0.00082384671799 
0.00088402265095 0.00097588031395 0.001084672187 0.001199106902 0.0013195061319 0.0014452624137 0.0015751131426 0.0017129533929 0.0018546525397 
0.0020030923762 0.0021542612639 0.0023049203748 0.0024508159403 0.0025906092227 0.0027152986521 0.0028224671961 0.0029055351422 0.0029636231958 
0.0029919517303 0.0029893009325 0.0029545505072 0.0028916696679 0.0028005064154 0.0026878774917 0.0025575809351 0.0024124316058 0.0022616469989 
0.0021081880712 0.0019555766266 0.0018083235693 0.0016690854218 0.0015395637987 0.0014212933242 0.00131502808 0.0012189115954 0.0011357808337 
0.0010630214481 0.001001359876 0.00094987195982 0.00090822178912 0.00087681186413 0.00085603193796 0.00084567843203 0.00084705979875 0.00086050112189 
0.00088641641933 0.0009254814056 0.00097740629354 0.0010427959399 0.0011204973785 0.0012109932931 0.0013125336591 0.0014246909964 0.0015461253912 
0.0016757607837 0.0018125833367 0.0019541792499 0.0020987386529 0.0022439157347 0.0023876225596 0.002527510419 0.0026590017406 0.0027807497232 
0.0028904751542 0.0029850016457 0.0030623636017 0.0031217517305 0.0031635588756 0.0031861151521 0.0031920696585 0.00318253145 0.0031598216884 
0.0031260623743 0.0030847356653 0.003037344581 0.0029882065318 0.0029374970496 0.0028884061769 0.0028417825272 0.0027982247859 0.0027595071715 
0.0027250613734 0.0026942703799 0.0026679324394 0.0026447311713 0.0026239677019 0.0026043976829 0.0025854696239 0.0025651371421 0.0025425714901 
0.0025162598009 0.0024843054337 0.0024445018383 0.0023968458109 0.0023379435279 0.0022681238147 0.0021850174773 0.0020885986414 0.0019773758366 
0.0018526893245 0.0017145353317 0.0015639428409 0.0014036161928 0.001234772516 0.0010618252666 0.00088688374824 0.00071581253112 0.0005515537944 
0.0004019212726 0.00027874400996 0.00020729910101 0.000216468653 0.0002800808031 0.00036046997502 0.00044057422339 0.00052149737541 0.00060595688875 
0.00069752299648 0.00080031366042 0.00091608994718 0.0010494046804 0.0011934623002 0.0013482391128 0.0015115012403 0.0016743826086 0.0018351756949 
0.0019892135891 0.0021337399935 0.0022606369681 0.002377098469 0.0024699144006 0.0025499358014 0.0026117710036 0.0026617040552 0.0026967337569 
0.0027265244817 0.0027487076124 0.0027721857603 0.0027970171813 0.0028277955431 0.0028660049038 0.0029125209677 0.002973695016 0.0030409225709 
0.0031181454142 0.0031974933226 0.0032844980268 0.0033700161157 0.0034520678394 0.0035191121818 0.0035830761587 0.0036283700496 0.0036545597617 
0.0036623024393 0.0036482491244 0.0036196940015 0.0035692451409 0.0035035434207 0.0034315966906 0.0033455630265 0.0032614770855 0.0031735617862 
0.0030961367989 0.0030225174589 0.0029636740757 0.0029153108868 0.0028860209297 0.0028696749286 0.0028639547399 0.0028757484375 0.002895180135 
0.0029223831452 0.0029512828158 0.0029824971483 0.0030128591537 0.0030327436536 0.0030449339601 0.0030454170953 0.0030270325335 0.0029942073998 
0.0029367528445 0.0028628451521 0.0027619845921 0.0026416595293 0.0024980289317 0.002338237778 0.0021580471687 0.0019642108065 0.0017608744946 
0.0015510032906 0.0013359071927 0.0011232021459 0.00091488054637 0.00071576325962 0.00052373765277 0.00034819319594 0.0001917749038 9.7438560608e-05 
0.00016528819952 0.00028053707956 0.00038968161551 0.00049455085913 0.00058549817076 0.00067010253044 0.00074477095605 0.00081313565972 0.00087871012351 
0.00093766831153 0.00099681608349 0.0010557915647 0.0011141682179 0.0011774860032 0.0012419598015 0.0013096044933 0.001383728652 0.0014581678645 
0.0015347289351 0.0016146217906 0.001691090044 0.0017648561555 0.0018336700796 0.0018961606867 0.0019468007104 0.0019876575354 0.0020131508193 
0.0020226182984 0.0020154401483 0.0019883409141 0.0019416665755 0.0018747345733 0.0017861096454 0.0016763882976 0.0015455119545 0.0013960311428 
0.0012259570326 0.0010383105714 0.00083780078267 0.00061945389392 0.00039472638502 0 
TorsionArray 1 276 double
0 0 -7.0838717448e-05 -0.00015434311381 -0.00022862009129 -0.0003627623484 -0.00039662714203 -0.00055614537134 -0.00065645666006 
-0.00077737789143 -0.000945921707 -0.0010927938388 -0.001288989612 -0.0014906346912 -0.0017301381655 -0.0020236778639 -0.0023358397781 -0.0027176163782 
-0.0031716188688 -0.0037346930705 -0.0044313265805 -0.0052442779452 -0.0063629310663 -0.0078073190722 -0.009662835036 -0.012350967892 -0.016005037166 
-0.02119143815 -0.028961775529 -0.040585953712 -0.058543229626 -0.085148516468 -0.12121360888 -0.15708898554 -0.16759308911 -0.14037720171 
-0.097164223276 -0.05934948474 -0.031576504149 -0.012476691837 0.00076816760504 0.0097187171598 0.015741972802 0.019576479804 0.021897723393 
0.023024327438 0.023463791672 0.023413492372 0.022911495601 0.022370501316 0.021774376363 0.021181727016 0.020617364499 0.020100127835 
0.019706091134 0.019500994963 0.019429023934 0.019433432212 0.019608596947 0.019738568635 0.020254137351 0.020852624215 0.021273826013 
0.021975197843 0.022898597819 0.02379859306 0.024655714804 0.025635324997 0.026656387036 0.02806166567 0.029440863717 0.030823461073 
0.032434100628 0.034225453343 0.036570051478 0.038651556144 0.040667976958 0.04245016302 0.04393448823 0.044329635244 0.043973840381 
0.042487967388 0.039680084648 0.036552465834 0.032739888517 0.02873944178 0.024893927772 0.02118242762 0.017796095654 0.014846231025 
0.012461656326 0.010370949028 0.0086953820721 0.0074244756964 0.0064730562165 0.0058563339115 0.0054001011378 0.0052011974359 0.0052698514995 
0.0054192233798 0.0056491537947 0.0060335706511 0.0065154811732 0.0069296636729 0.0073309096707 0.0077982715004 0.0081543969276 0.0083795107465 
0.0085403234914 0.0085915570978 0.0084828558358 0.0082213042424 0.0078196006169 0.0072979916942 0.0066680746137 0.0059645087719 0.0052114108762 
0.0043761653543 0.0035592497796 0.0027550220831 0.0020068875616 0.0012516111375 0.00051030401951 -0.00010811834022 -0.00071938916996 -0.0012662117564 
-0.0018191908647 -0.0023585921831 -0.00284758156 -0.0033815573644 -0.0039611903689 -0.0046296659256 -0.0053290885874 -0.0061891940764 -0.0073475025991 
-0.008611141765 -0.010308381599 -0.012580853162 -0.015575584756 -0.019726037523 -0.025353557294 -0.034195496921 -0.048180621153 -0.072541470703 
-0.12007807784 -0.21905494948 -0.3529231078 -0.30633567082 -0.18956812146 -0.13022320364 -0.10647111761 -0.095667942283 -0.089624395249 
-0.08483939486 -0.078326819187 -0.069656789615 -0.06016515627 -0.051227545984 -0.041963486196 -0.033565406603 -0.026281801546 -0.019556160925 
-0.013591851416 -0.008299542922 -0.0032682734405 0.0010838074802 0.0052208534301 0.0094169273113 0.013367492428 0.0170007511 0.020522442859 
0.024029480257 0.02685384631 0.029622633562 0.031740596115 0.032871824701 0.033720853748 0.033701613608 0.032776156943 0.031331710517 
0.029244242829 0.026778563287 0.02397450725 0.020906236403 0.017798511911 0.014557515338 0.011475115622 0.0083056099288 0.0046541262591 
0.0014104017511 -0.0019387193921 -0.0056492032461 -0.0091666593726 -0.013102884831 -0.017004983801 -0.020625888856 -0.024503799982 -0.028333345867 
-0.031870346258 -0.034760380728 -0.036427361665 -0.038386266269 -0.039169143159 -0.038471918598 -0.037749800778 -0.036390289034 -0.034085408805 
-0.031514284546 -0.029034406864 -0.026442341562 -0.023880670123 -0.021369314977 -0.018863325642 -0.016602919199 -0.014597827502 -0.012723503595 
-0.010938252489 -0.0092203527385 -0.0078605140771 -0.0061936443481 -0.0047252578632 -0.003424984562 -0.0018688107084 -0.0003653002619 0.0011727079929 
0.003637989099 0.0061951853207 0.0088699637202 0.014826103902 0.024024746427 0.040086867419 0.0835865035 0.24928509751 0.86766491525 
0.28138210859 0.093464646873 0.049711676462 0.034239250324 0.028306457415 0.025708663427 0.024819104172 0.025221282957 0.026437820492 
0.027908418023 0.028485008164 0.029263528301 0.030248197758 0.029792302059 0.028908513598 0.027892598715 0.026469658303 0.024329745653 
0.022092723228 0.020138536809 0.017483639427 0.015366487496 0.013177269026 0.011302376497 0.0096451047262 0.008112103542 0.0069296192125 
0.0057253059542 0.0047817641821 0.0041808578835 0.0035025917689 0.0027618704893 0.0021851056952 0.0021457813791 0.002109012499 0.0010816840033 
0.0011042203787 0.0012926571115 0.0010537532575 0.00078219350736 0 0 
TangentArray 3 276 double
-0.023444219582 -0.30446782024 0.95223406524 -0.023444219582 -0.30446782024 0.95223406524 -0.022973025441 -0.30322958938 0.95264057032 
-0.021934876462 -0.30049933718 0.95352976333 -0.020333434954 -0.29627895595 0.95488498348 -0.018178934963 -0.29058376435 0.9566768536 
-0.015488823341 -0.28344141973 0.95886446275 -0.012287720276 -0.27489868301 0.96139467754 -0.0086096548986 -0.26501910996 0.96420472162 
-0.004497237532 -0.25388821791 0.96722311162 -8.9405294834e-07 -0.24161222146 0.97037288423 0.0048187627809 -0.22832001028 0.97357421516 
0.0098934296212 -0.21416616472 0.9767471392 0.015148250265 -0.19932259448 0.97981683689 0.020502911086 -0.18398200282 0.98271575406 
0.025873134889 -0.16835307357 0.98538714397 0.031173906014 -0.15265181432 0.98778824207 0.036323341388 -0.13709624856 0.98989152613 
0.041243978862 -0.12189979796 0.9916851181 0.045866364582 -0.10726236883 0.99317222113 0.050131000723 -0.093363036804 0.99436926045 
0.053990459728 -0.080353880807 0.99530311167 0.057411955968 -0.068355140597 0.99600775201 0.060374527556 -0.057452010083 0.9965210399 
0.062870808629 -0.047693644389 0.9968814261 0.064906351771 -0.039094774147 0.99712524997 0.066494690181 -0.031637702849 0.99728507055 
0.067658988305 -0.025277718956 0.99738823846 0.068428107149 -0.019947985322 0.99745660158 0.068833640489 -0.015564229378 0.99750673416 
0.068908223362 -0.012031503377 0.99755044969 0.068682961602 -0.0092487804931 0.99759566501 0.068187465415 -0.0071134591843 0.99764716622 
0.067448071336 -0.0055253242584 0.99770748642 0.06648619613 -0.0043889575014 0.99777769206 0.065318162401 -0.0036159581622 0.99785793704 
0.063956283275 -0.0031256977517 0.99794780617 0.062409165785 -0.0028457903839 0.99804659085 0.060680558234 -0.0027120657489 0.99815355259 
0.058771307018 -0.0026680886652 0.99826790731 0.056680398415 -0.0026649758439 0.99838881721 0.054403510378 -0.00265982711 0.9985154898 
0.051937863798 -0.0026156590689 0.99864689287 0.049279978407 -0.0025004949466 0.99878187371 0.046428183047 -0.0022869188948 0.99891901264 
0.043383177713 -0.0019517248667 0.99905660033 0.04014724241 -0.0014757511317 0.99919268466 0.036728371327 -0.00084367612086 0.99932492962 
0.033139555824 -4.4094069964e-05 0.9994507331 0.029396436978 0.00092984275414 0.99956739887 0.025520576906 0.0020814265486 0.99967213016 
0.021539573294 0.0034093180759 0.99976218339 0.01748499089 0.0049079204607 0.99983508011 0.013391084247 0.006567574558 0.99988876673 
0.009293684053 0.0083749415322 0.99992174083 0.0052308621956 0.010313062781 0.99993313717 0.0012410671402 0.012362561911 0.99992281043 
-0.0026400632823 0.014502781091 0.9998913438 -0.0063798059085 0.016711810046 0.99983999394 -0.0099495925134 0.018967914271 0.9997705856 
-0.013327739018 0.021250234375 0.99968534995 -0.016495020765 0.023539662552 0.99958681393 -0.019439381096 0.025819691253 0.99947759055 
-0.022156437201 0.028076353868 0.99936020065 -0.024644444295 0.030298184986 0.99923704463 -0.026905591711 0.032477178846 0.99911026518 
-0.028946397929 0.034608082425 0.99898167485 -0.030775979509 0.036687647692 0.99885276973 -0.032404871023 0.038715110982 0.99872471909 
-0.03384462958 0.040691869984 0.99859837411 -0.035104578465 0.042620224813 0.99847442882 -0.03619479649 0.044503834189 0.99835331694 
-0.037124506475 0.046347603287 0.99823527822 -0.037900971918 0.048156361593 0.99812047427 -0.038529426874 0.049935866399 0.99800896414 
-0.039011722097 0.051692074048 0.9979008042 -0.039348852397 0.053430900115 0.9977959745 -0.039539891027 0.055159147155 0.9976943748 
-0.039581654672 0.056883455156 0.99759589271 -0.039468446682 0.058610935023 0.99750037595 -0.039193901684 0.060349612082 0.99740752072 
-0.038749437049 0.062107390258 0.9973169773 -0.038125484739 0.063893067845 0.99722822027 -0.037312941748 0.065716359142 0.99714046379 
-0.036300368643 0.067587354242 0.99705277332 -0.035076634949 0.069517011135 0.99696389847 -0.033630616008 0.071517038592 0.99687225604 
-0.031950826117 0.073599173686 0.99677595594 -0.030027173906 0.075775119238 0.99667271465 -0.027850371357 0.078056686495 0.9965598379 
-0.025412205756 0.080454927615 0.99643425494 -0.022704609054 0.082979517951 0.99629257767 -0.019721813915 0.085638795807 0.99613103892 
-0.016460351869 0.08843845166 0.99594562958 -0.012918512665 0.091381058203 0.99573220006 -0.0090968233957 0.094466096818 0.99548651641 
-0.0049974448189 0.097689301186 0.99520441417 -0.00062714821992 0.10104208953 0.99488195422 0.0040043008512 0.10451117952 0.99451565042 
0.0088864028531 0.1080794321 0.99410254411 0.014004942291 0.11172619689 0.9936403366 0.019341955113 0.11542746184 0.99312757983 
0.024878074435 0.1191562912 0.99256378116 0.030593782855 0.12288462811 0.99194928732 0.036466848511 0.12658467456 0.99128527131 
0.042474304459 0.13022960437 0.9905736639 0.048595364077 0.13379397757 0.98981698417 0.054809433892 0.13725584234 0.98901807855 
0.061096857923 0.14059753869 0.9881798956 0.067440720186 0.1438053804 0.98730530325 0.073826115627 0.1468698262 0.98639695803 
0.080241052966 0.14978664693 0.98545691627 0.086675594654 0.15255594206 0.98448668139 0.093121251344 0.15518152753 0.9834872272 
0.099572259734 0.1576707517 0.98245880277 0.10602317935 0.16003322655 0.98140126953 0.11247043477 0.1622806449 0.98031392604 
0.11891132047 0.16442591581 0.97919569856 0.12534114712 0.16648278 0.97804554127 0.13175547577 0.16846479635 0.97686237874 
0.13814927037 0.17038515529 0.97564526235 0.14451537313 0.17225543061 0.9743938493 0.15084429242 0.17408667006 0.97310833454 
0.15712459003 0.1758890261 0.97178954188 0.16334260766 0.17766967986 0.97043942489 0.16948173167 0.17943456051 0.96906097905 
0.1755235797 0.18118753009 0.96765828261 0.18144666259 0.18293104092 0.96623669093 0.18722603144 0.18466544858 0.9648031329 
0.19283604532 0.18638899291 0.96336566419 0.19824892696 0.18809867119 0.96193360107 0.20343547149 0.18979004145 0.96051743821 
0.2083664341 0.19145788425 0.95912841043 0.2130126414 0.19309490895 0.9577786648 0.21734569352 0.19469322405 0.95648073583 
0.22133907942 0.19624539033 0.95524696215 0.2249707785 0.19774217902 0.95408918842 0.22822163716 0.19917455205 0.95301856338 
0.23107807923 0.20053396176 0.95204466885 0.2335319348 0.20181161892 0.95117553895 0.23558167735 0.20299882371 0.95041714571 
0.23723311231 0.20408600654 0.9497733163 0.23849851982 0.20506505396 0.9492453738 0.23939713627 0.20592732243 0.94883241356 
0.23995457133 0.20666297792 0.9485316111 0.24020306053 0.20726263313 0.94833785679 0.24017971642 0.20771615408 0.94824453764 
0.23992649406 0.20801371984 0.94824341274 0.23948763194 0.20814455543 0.94832563932 0.23890797669 0.2080965006 0.94848237997 
0.23823515355 0.2078579908 0.94870388809 0.23751593735 0.20741697396 0.94898070498 0.23679249719 0.2067615374 0.94930447167 
0.23610439471 0.20588060665 0.94966725257 0.2354884936 0.20476376488 0.95006156115 0.23497621924 0.20340327693 0.95048055389 
0.23459011097 0.20179206306 0.95091926215 0.234346946 0.19992642544 0.95137318299 0.23425867889 0.19780754866 0.95183771992 
0.23432760347 0.19543653562 0.95231041935 0.23454926839 0.19282036457 0.95278903631 0.23491358669 0.18997082843 0.9532715726 
0.23540346185 0.1869011133 0.95375740311 0.23599699251 0.18362696735 0.95424659098 0.23666797395 0.18016999828 0.95473925332 
0.23738666626 0.17655030324 0.9552369136 0.23812271075 0.17279151992 0.9557408986 0.23884482233 0.16891866017 0.95625291481 
0.2395209902 0.16495236394 0.95677605158 0.2401207119 0.16091366001 0.95731334355 0.24061624848 0.15682257999 0.95786768365 
0.24098236391 0.15269602295 0.9584421865 0.24119533751 0.14854738422 0.95904039738 0.24123707008 0.14438749815 0.95966500738 
0.24109041214 0.14022265457 0.96031922834 0.24074212409 0.13605742009 0.9610055193 0.24018428396 0.13189295281 0.96172540714 
0.23940945513 0.12772955515 0.96248027176 0.23841326211 0.12356208259 0.96327126408 0.23719516376 0.11938585495 0.96409826881 
0.23575751589 0.11519795035 0.96496001261 0.23410629893 0.11099557284 0.965854142 0.23224993388 0.10677471702 0.96677770352 
0.23019920986 0.10253069101 0.96772712124 0.22796991213 0.098262492859 0.96869716716 0.22558287944 0.093974601992 0.96968094685 
0.22306042108 0.089667730364 0.97067180173 0.22042555509 0.085342981556 0.9716630847 0.21770829621 0.081008513439 0.97264624531 
0.21494227771 0.076668671204 0.97361272183 0.2121601365 0.072330173302 0.97455447386 0.20939399113 0.067996870516 0.97546429052 
0.20667844363 0.06367200662 0.9763349305 0.20404709584 0.059361714333 0.97715964384 0.20153020125 0.055063459751 0.97793332768 
0.19915718897 0.050777154139 0.97865116088 0.19695243909 0.046502068481 0.97930960087 0.1949385832 0.042233636741 0.97990574481 
0.1931350898 0.037965420869 0.98043738398 0.19155846273 0.033690163927 0.98090281283 0.190220692 0.02940204498 0.98130097732 
0.18912648569 0.025095083727 0.98163201312 0.1882837365 0.020761031882 0.98189521545 0.18769519597 0.016391897818 0.98209053508 
0.1873574286 0.011987875069 0.98221865427 0.18726814568 0.0075446053383 0.98227985857 0.18742324477 0.0030593172855 0.98227448704 
0.18781288925 -0.0014651170328 0.98220373246 0.18842513435 -0.0060232566107 0.98206908572 0.18924748146 -0.010607982229 0.98187212073 
0.19026550774 -0.015212536689 0.98161479985 0.19146184538 -0.019822911449 0.98129985934 0.19281627377 -0.024422385405 0.98093090055 
0.19430692463 -0.028996002915 0.98051213703 0.19590962372 -0.033522178807 0.98004881657 0.19759988498 -0.037979045503 0.9795467715 
0.19935161026 -0.042341866255 0.97901282006 0.20113776913 -0.046585929399 0.97845457177 0.20293078113 -0.050685648696 0.97788039304 
0.20470400606 -0.054613053827 0.97729917848 0.20643011683 -0.058343985996 0.97672032136 0.20808452259 -0.061855802045 0.97615300605 
0.2096451139 -0.065126832517 0.97560618177 0.21109007129 -0.068136830107 0.97508889553 0.21240301675 -0.070871705919 0.97460872137 
0.21357127595 -0.073320967948 0.97417213353 0.21458209217 -0.075476974104 0.97378527002 0.21542924019 -0.077335974166 0.97345230472 
0.21611253707 -0.078899182813 0.97317536461 0.21663063363 -0.080173802412 0.97295597536 0.21698669166 -0.081166466495 0.97279431555 
0.21718892198 -0.081886616278 0.97268882704 0.21724619105 -0.082348316759 0.97263705831 0.21716871322 -0.082563320142 0.97263613349 
0.21696892648 -0.082547606373 0.97268205372 0.21666206085 -0.082315395689 0.97277013062 0.21626444733 -0.081881543757 0.97289521615 
0.21579092018 -0.081258380729 0.97305259587 0.21525848965 -0.080457147703 0.97323708829 0.21468550764 -0.079489838223 0.97344311515 
0.21408912691 -0.078365586556 0.97366558971 0.21348681909 -0.077094326565 0.97389929812 0.21289479908 -0.075680531913 0.97413975466 
0.21233130192 -0.074129503551 0.97438197588 0.21181423389 -0.072445261179 0.97462116458 0.21135747442 -0.07062850136 0.97485364686 
0.21097600094 -0.068681668026 0.97507535888 0.2106850756 -0.066603615586 0.97528239875 0.21049545297 -0.064393376992 0.9754717614 
0.21041619489 -0.062052414102 0.97564057051 0.21045564693 -0.059577405398 0.97578632571 0.21062059537 -0.056967726174 0.97590657492 
0.21091347521 -0.054225986466 0.97599951248 0.21133507587 -0.051351232188 0.97606379743 0.2118859866 -0.048346645939 0.97609780786 
0.21256014452 -0.045218949954 0.97610113796 0.2133518847 -0.041975507951 0.97607327083 0.21425259718 -0.03862533292 0.97601429716 
0.21525167334 -0.035183102643 0.97592462128 0.21633718119 -0.031665748125 0.97580505452 0.21749516883 -0.028093016202 0.97565702682 
0.21871068722 -0.024490300677 0.97548237322 0.21996685253 -0.020883949893 0.97528377636 0.22124620605 -0.017304301108 0.97506444786 
0.22253171539 -0.013785450253 0.97482798329 0.22380484955 -0.010361803999 0.97457889487 0.22504559637 -0.007070141501 0.97432258141 
0.22623419525 -0.0039487470935 0.97406493433 0.22735429622 -0.0010374496382 0.97381155656 0.22838925901 0.0016262063335 0.97356853987 
0.22931820415 0.00400656083 0.97334326356 0.23012600134 0.0060665172276 0.97314193254 0.23080037853 0.0077759708843 0.97297005069 
0.23132731932 0.0091054349814 0.97283336826 0.23169570204 0.010031524563 0.97273658828 0.23169570204 0.010031524563 0.97273658828 

NormalArray 3 276 double
-0.33959058348 -0.89343478198 -0.29402810404 -0.33959058348 -0.89343478198 -0.29402810404 -0.34012922852 -0.89367781747 -0.29266374301 
-0.33995238477 -0.89468580674 -0.28977522894 -0.33968616934 -0.89622065744 -0.28531007611 -0.33925341633 -0.89827784142 -0.27929203197 
-0.33848060724 -0.90087381592 -0.27176689702 -0.33782290157 -0.90379221071 -0.26274574601 -0.33649961511 -0.90723727754 -0.25236586787 
-0.33528215364 -0.9108632898 -0.24065316275 -0.33348689433 -0.91482355977 -0.22778135526 -0.3314685742 -0.91890846891 -0.2138593231 
-0.32900712404 -0.92310596946 -0.19907205097 -0.326103561 -0.92733271979 -0.18360417838 -0.32274174571 -0.93151851246 -0.16766343227 
-0.318811125 -0.93563490974 -0.15148195353 -0.3142404808 -0.93965310289 -0.13529584792 -0.30906821721 -0.94352338374 -0.11933340457 
-0.30304201822 -0.94730281648 -0.10384078722 -0.2962098363 -0.95096496601 -0.089024526362 -0.28817230289 -0.95462881682 -0.075103568065 
-0.27893170942 -0.958292172 -0.062235155318 -0.26810993705 -0.9620601035 -0.050570929429 -0.25503260237 -0.96609449939 -0.040246614407 
-0.23930231055 -0.97043930018 -0.031336381936 -0.21983111931 -0.97524446308 -0.023927311101 -0.19470119464 -0.98069504115 -0.018129563167 
-0.16251973981 -0.98660625422 -0.013979746203 -0.1187927744 -0.99285005802 -0.011706367646 -0.058972675248 -0.99819329152 -0.011505491676 
0.026679429317 -0.99954741697 -0.013898535358 0.14925012874 -0.98860833625 -0.019441105287 0.32157889103 -0.94644689924 -0.028727752525 
0.53784451108 -0.84204535471 -0.041023194807 0.7522940586 -0.65669081624 -0.053017178909 0.89884358105 -0.43408624348 -0.060409850398 
0.96766233286 -0.24431170612 -0.062780568722 0.9913039236 -0.11590080384 -0.062318012881 0.99729420493 -0.041410387472 -0.060740831523 
0.99825209889 -0.0060730392643 -0.058786607845 0.99838900828 0.0027478675383 -0.056673074444 0.99849420892 -0.0069062989326 -0.054420747774 
0.99825100734 -0.028140085792 -0.051990979091 0.99713318788 -0.057365043251 -0.049342248058 0.99478558145 -0.090799818165 -0.046443944205 
0.99099081322 -0.12674385106 -0.043280530526 0.9858166303 -0.16302608051 -0.039850577133 0.97926217873 -0.19934415103 -0.036159296897 
0.9715867489 -0.23447958276 -0.032225993134 0.96296735817 -0.26815276953 -0.028070612726 0.95344246735 -0.30064112825 -0.023714414629 
0.94325103225 -0.33152552842 -0.019191512828 0.93232426714 -0.36133131595 -0.014530692359 0.92089295606 -0.38969301006 -0.009773504398 
0.90878786146 -0.41722907318 -0.0049521057099 0.89614934394 -0.44375256731 -0.00011119307368 0.8826268922 -0.47005055958 0.0047159939366 
0.86842712006 -0.49572614132 0.0094831406639 0.85314391432 -0.52148341614 0.014160090078 0.83690605152 -0.54702678588 0.018707123046 
0.81951779865 -0.57258806854 0.023097217538 0.80031696447 -0.59895477806 0.027311723131 0.77971577281 -0.62534980448 0.031319892739 
0.75729644021 -0.65212677722 0.035110797049 0.73266474495 -0.67949008485 0.038672937506 0.70541446371 -0.7075498252 0.041996181228 
0.67565470413 -0.73583928087 0.045069651972 0.64293889643 -0.76441901789 0.047886747045 0.60704655795 -0.79306391227 0.050439146876 
0.56766870675 -0.82156746524 0.052717543857 0.52339658713 -0.8503317578 0.054698393537 0.47564667753 -0.87782802609 0.056375480162 
0.42203557466 -0.90474107986 0.057702271526 0.36431174613 -0.92942675598 0.058675862988 0.29933467438 -0.9523095423 0.059205475747 
0.22833382614 -0.97177738643 0.059265293845 0.15093202251 -0.98679420517 0.058793887713 0.068128287493 -0.9960028451 0.057765638475 
-0.019531653581 -0.99823157746 0.056144743993 -0.1100967837 -0.99245514028 0.053958250043 -0.19974588922 -0.9785009415 0.051356472087 
-0.287587369 -0.95653100373 0.048393636918 -0.36865246451 -0.9284583204 0.045392815432 -0.44173352683 -0.89613764471 0.042530142428 
-0.50644504998 -0.86134629016 0.039949715694 -0.56120683698 -0.8268070788 0.037906999049 -0.60745304251 -0.79351955491 0.036435108306 
-0.64558799836 -0.76285411983 0.035633246139 -0.67668087006 -0.73541887015 0.035525843028 -0.70180236266 -0.71145577497 0.036112657358 
-0.722116144 -0.69076237827 0.037357881794 -0.73883945451 -0.67274073371 0.039193949343 -0.75222206307 -0.65759255243 0.041641359571 
-0.76347876859 -0.64429151909 0.044593815036 -0.77286251305 -0.63275229443 0.048042375329 -0.78112131217 -0.62221793045 0.051907058288 
-0.78854776835 -0.61240440373 0.056153925253 -0.79534938287 -0.60309927205 0.060750532697 -0.80200345233 -0.59370402635 0.065620054502 
-0.8087496077 -0.5838871105 0.070710071665 -0.81555957675 -0.57366092714 0.075998141095 -0.82263456432 -0.56271009151 0.081423132412 
-0.83012866276 -0.55075455172 0.086924260229 -0.83808260453 -0.53765218813 0.092453623972 -0.84625127248 -0.52369235173 0.098005635392 
-0.85477623626 -0.50856930502 0.10351254957 -0.86361568299 -0.49224072446 0.10893585856 -0.87248592447 -0.47508682187 0.11428395898 
-0.88131536269 -0.45715954728 0.11953401113 -0.88998236399 -0.43861874126 0.12467955567 -0.89834071699 -0.41970772618 0.12972810328 
-0.90617761254 -0.40086615145 0.13471623194 -0.91341847875 -0.38231055723 0.1396614496 -0.91989465885 -0.36452651217 0.14461755963 
-0.92561724924 -0.34763755019 0.14960227808 -0.93046214906 -0.33213586062 0.15468018378 -0.93451760117 -0.31799757719 0.15985741776 
-0.93771762541 -0.30560960348 0.16519208595 -0.94009219794 -0.29510160802 0.17070940312 -0.94173515473 -0.28638404065 0.17640600784 
-0.94265437987 -0.27958525154 0.18230416131 -0.94299058528 -0.274385888 0.18836438234 -0.94263666541 -0.27120458089 0.19463861985 
-0.94175232127 -0.26958623375 0.20106175162 -0.94038246034 -0.26940707623 0.2076069738 -0.9384981828 -0.27075673721 0.21427074026 
-0.9362280318 -0.27321249097 0.22097965349 -0.9334230872 -0.27720712293 0.22776644022 -0.93024824237 -0.28219251449 0.23453271059 
-0.92660112814 -0.28843259805 0.24128196308 -0.92249716018 -0.29582301156 0.2479672061 -0.91782504736 -0.30460734164 0.2545811263 
-0.91251563819 -0.31487326603 0.26109392256 -0.90654845013 -0.32655464884 0.26745461089 -0.89958318505 -0.3403535386 0.2736961124 
-0.89134056985 -0.35667891842 0.27980732244 -0.88176512787 -0.3753175279 0.28570441461 -0.86977080392 -0.39815538019 0.29149792774 
-0.85503657027 -0.42504854692 0.29706261338 -0.83555272677 -0.45866141395 0.30245883711 -0.80996273705 -0.49943954923 0.30744186646 
-0.77395289478 -0.55118576923 0.31175497503 -0.72039402986 -0.61814182229 0.31453637194 -0.63449917903 -0.70652272353 0.31342691803 
-0.48297845022 -0.82215802199 0.30131047693 -0.1825710868 -0.94985990863 0.25383843728 0.36755600404 -0.92356656721 0.10921254429 
0.85065609217 -0.51571205152 -0.10210432294 0.97044521072 -0.081191604551 -0.22725319876 0.93708133716 0.20665444162 -0.28137609937 
0.85933662567 0.41003667919 -0.30563129012 0.76073577014 0.56777759898 -0.31449910353 0.64809325282 0.69431895289 -0.31288388789 
0.526384785 0.79439128048 -0.30308670643 0.40098210978 0.87000142284 -0.28689871366 0.28146550544 0.92172517326 -0.2668330456 
0.17445213314 0.95359668359 -0.24539726627 0.081526390353 0.97113597705 -0.22416146357 0.0036786086136 0.97889397617 -0.20433563384 
-0.057726549842 0.98065304584 -0.18704878811 -0.10629283494 0.97934078029 -0.17202752485 -0.14244743905 0.97685562693 -0.15956757576 
-0.16809029395 0.9743762719 -0.14945411949 -0.18438725941 0.97260602911 -0.14155864758 -0.19281719062 0.97182052617 -0.13559644504 
-0.19316423873 0.9722875817 -0.13169827393 -0.18794094425 0.97364510029 -0.12920301916 -0.1756874216 0.9760196288 -0.12852865083 
-0.15769183154 0.97898600833 -0.12930460843 -0.13361232202 0.98225813748 -0.13159292821 -0.1047187785 0.98529533504 -0.13500770416 
-0.070309078523 0.98769753119 -0.13967899037 -0.03108732173 0.98889138481 -0.14535270028 0.011319162819 0.98838419073 -0.15155384542 
0.058256406284 0.98563175415 -0.15854411481 0.10616245318 0.98049406058 -0.16541139835 0.15542791987 0.97271949038 -0.1722177539 
0.20459122886 0.96241387305 -0.17861121474 0.25229715692 0.94993739593 -0.18429619754 0.29745266292 0.93582884389 -0.18906688831 
0.33949854937 0.92062439512 -0.19285087007 0.37754368932 0.90511358688 -0.19552533725 0.41152403059 0.8898231428 -0.19713636596 
0.44111895256 0.87540636088 -0.19768098799 0.46626385516 0.86238464787 -0.19720734391 0.487352466 0.85095968674 -0.19584479934 
0.50390837004 0.84179023609 -0.19356020519 0.51720338083 0.8343663087 -0.19061355085 0.52597055643 0.82972773632 -0.18683376927 
0.53048865299 0.82785653297 -0.18230564959 0.53154508703 0.82828915091 -0.1771917124 0.52810378924 0.83171455391 -0.17133968779 
0.52023771052 0.83797452168 -0.16477689632 0.5081535019 0.84673386367 -0.15754930221 0.49031538296 0.85864630277 -0.14938993263 
0.46789742448 0.8725449116 -0.1404897769 0.44002320318 0.88842670657 -0.1306811682 0.40621836951 0.90588160782 -0.11985469909 
0.36671269141 0.92404194019 -0.1080198812 0.32122673588 0.9422158369 -0.095093116763 0.27168248238 0.95893860684 -0.081396419346 
0.21911348438 0.97338937674 -0.067099942032 0.16182445393 0.98545555834 -0.051867028483 0.10493978108 0.99380325653 -0.036643275668 
0.04809914152 0.99861409018 -0.021362852698 -0.0075695138841 0.9999518985 -0.0062372383484 -0.061119725172 0.99809379259 0.0085533847513 
-0.10999924622 0.99367660906 0.022515826444 -0.15568270163 0.98715364629 0.035924574156 -0.19668184746 0.97926763818 0.04848859335 
-0.23405961661 0.97034389776 0.060405429859 -0.26692100909 0.96106290075 0.071493186391 -0.29618220699 0.95161264529 0.08191137647 
-0.32113059482 0.9426030499 0.091513012109 -0.34332925345 0.93381496529 0.1005715383 -0.36200095827 0.92579251334 0.10891982579 
-0.37853154109 0.91819061177 0.11678986627 -0.39175961484 0.91168163262 0.1239395212 -0.4032940106 0.90569758109 0.13063626076 
-0.41249768785 0.90063890528 0.13673046407 -0.4192481651 0.89667080402 0.14217047961 -0.42430123678 0.89349882257 0.14706568099 
-0.42738888158 0.89131080332 0.15134000063 -0.42799902581 0.89041047977 0.15487417932 -0.42690787822 0.89042258223 0.15778874663 
-0.42300488415 0.89191340301 0.15986666167 -0.41445493631 0.8957588792 0.16075800476 -0.4032253529 0.90086137858 0.16080451291 
-0.38581898884 0.90870836956 0.15935120631 -0.35420047307 0.92225837482 0.15485966215 -0.30596502281 0.94066723553 0.14673294389 
-0.21026262534 0.96915815366 0.12853832726 0.037455610723 0.99640448675 0.075994578759 0.82283477489 0.55154377503 -0.13690287601 
0.87404575801 -0.42729034149 -0.2312292736 0.70841927821 -0.67235069808 -0.21467804977 0.62516180234 -0.75379283092 -0.20240822349 
0.56745172775 -0.80054197202 -0.19269428563 0.52317419725 -0.83201540549 -0.18449694946 0.4820454982 -0.85820641801 -0.17639127459 
0.44312589595 -0.88051890861 -0.16830297656 0.4032516554 -0.9010419851 -0.15972302121 0.36140442117 -0.92018738598 -0.15047265216 
0.31562809754 -0.93847176143 -0.14017723442 0.26733039059 -0.95492035566 -0.12907972967 0.2178953962 -0.96888080747 -0.11743754606 
0.16558846708 -0.98060015083 -0.10489901696 0.11176176013 -0.98949341885 -0.091717408507 0.059913568448 -0.99510280199 -0.078617922772 
0.0089361402618 -0.99781975006 -0.065390303446 -0.039387344257 -0.99784758169 -0.052429389032 -0.085360335236 -0.9955592019 -0.039692425864 
-0.12582354552 -0.99166007893 -0.027905613088 -0.16324698305 -0.98644638316 -0.016551606316 -0.1965359992 -0.98047885393 -0.0059006790751 
-0.22416806822 -0.97454359333 0.0036690450025 -0.24949424553 -0.96829043354 0.012894098312 -0.26926960341 -0.96283572916 0.021005697712 
-0.28768855978 -0.95728661222 0.028941918405 -0.30155999183 -0.95276966369 0.035937992161 -0.31445902908 -0.9483059465 0.042794285442 
-0.3241581498 -0.94473508103 0.048960398287 -0.33279493015 -0.94139973106 0.054900645133 -0.33919481782 -0.9387812646 0.060304334762 
-0.34577082873 -0.93601638238 0.065695250313 -0.3497655961 -0.9341891978 0.070388710046 -0.3538861009 -0.93227864928 0.074974313486 
-0.35580490142 -0.9312268461 0.078863383259 -0.36018617881 -0.92917164018 0.08310222431 -0.3616507909 -0.92830245134 0.086390186244 
-0.36274527888 -0.92760166677 0.089280515592 -0.36459084225 -0.92661245192 0.091993922017 -0.36640226926 -0.92566432129 0.094312996773 
-0.36738566084 -0.92509905931 0.096018262183 -0.36872864751 -0.92442419715 0.097360609263 -0.36872864751 -0.92442419715 0.097360609263 

BinormalArray 3 276 double
0.9402811304 -0.33026298126 -0.082448523515 0.9402811304 -0.33026298126 -0.082448523515 0.94009805234 -0.33074427385 -0.082606763062 
0.94018680978 -0.33051090084 -0.082530643652 0.94031901915 -0.33016255607 -0.082418619159 0.940519349 -0.32963312259 -0.082251800327 
0.94084588263 -0.32876637508 -0.08198594848 0.94112948052 -0.32800968575 -0.081761524859 0.94164424433 -0.32662730074 -0.081367828627 
0.94210702805 -0.32537492235 -0.081027819911 0.9427547355 -0.32360684315 -0.080573691466 0.94345395428 -0.32167871963 -0.080108910198 
0.94427561251 -0.31938726186 -0.079594877863 0.94521267343 -0.31674047759 -0.079047275966 0.94626497146 -0.31372580956 -0.078477514006 
0.94746506398 -0.31023307091 -0.07788064101 0.94883144331 -0.30618535207 -0.077262037042 0.95034596436 -0.30160942121 -0.076644015103 
0.95208427642 -0.2962394524 -0.076011298133 0.9540209691 -0.29010414965 -0.075389474547 0.95626544778 -0.28278466269 -0.074761139227 
0.95879201694 -0.27426149368 -0.074151880252 0.96167610398 -0.26413619972 -0.073560444743 0.96504574407 -0.25171548379 -0.072979634618 
0.96890745976 -0.23658588494 -0.072425502828 0.97337631186 -0.21764612532 -0.071893808143 0.97860610104 -0.19296707495 -0.071370911464 
0.98438285005 -0.16114942152 -0.070860909324 0.9905583632 -0.11768959247 -0.070308526673 0.9958836044 -0.058033675814 -0.069627142412 
0.99726619556 0.027571800091 -0.068556043026 0.98641119715 0.15022655412 -0.066520166718 0.94442442069 0.32278114199 -0.062248276893 
0.84034162075 0.53937843061 -0.053822569829 0.65546413717 0.7541471401 -0.040359087753 0.4333748429 0.90086406193 -0.025103534964 
0.24400656423 0.96969171403 -0.012600648706 0.11585174616 0.99325671664 -0.0044122293085 0.041498658498 0.9991385412 0.00019192202636 
0.0062193680795 0.99997799951 0.0023065046549 -0.0025924078471 0.99999267354 0.0028164328167 0.0070407962417 0.9999726138 0.0022800950604 
0.028237999917 0.99960056718 0.0011495483573 0.057418545426 0.99835013865 -0.00033362159539 0.090807878243 0.99586653876 -0.0019406766359 
0.12670875264 0.99193355976 -0.0035644096019 0.16295327659 0.9866206562 -0.0050902275657 0.19924008644 0.97992917992 -0.0064954058847 
0.23435221187 0.97212104355 -0.0077277080086 0.26801066508 0.9633759534 -0.0087781442105 0.30049319728 0.95373506786 -0.0096570554986 
0.33138125617 0.94344008848 -0.010356761213 0.36120040975 0.93242457734 -0.010893648115 0.38958547501 0.92092139995 -0.011266445077 
0.41715494758 0.90876276379 -0.011488640389 0.44372175001 0.8960900065 -0.011563252974 0.47007257834 0.88255290975 -0.011494893903 
0.49580980951 0.86835779616 -0.011285860032 0.52163661637 0.85309774475 -0.010930616058 0.54725612517 0.83690018148 -0.010431668624 
0.57289872497 0.81956777102 -0.0097836409534 0.59935020704 0.80043679208 -0.0089594197772 0.62583178579 0.77991728125 -0.0079756073511 
0.6526953301 0.75758985261 -0.0068133168516 0.68014338405 0.7330588275 -0.0054527564305 0.70828421098 0.70591676401 -0.0038728249866 
0.73664973145 0.67627127202 -0.0020832170552 0.76529890536 0.64367505901 -6.2171688335e-05 0.79400529017 0.60790687711 0.0021972589274 
0.82256111045 0.56865725334 0.0047061453274 0.85136577401 0.52451827243 0.0075432577039 0.87889144657 0.47690393724 0.010604705888 
0.90581882556 0.42343296764 0.01402772869 0.93050549056 0.36585088507 0.017682249199 0.95336993658 0.30101984136 0.021744404563 
0.97280098138 0.2301665499 0.026107660291 0.98776069592 0.15291283649 0.030764785707 0.9968927392 0.070255256247 0.035623945723 
0.99902542867 -0.017262395521 0.040622685522 0.99313691903 -0.10769193482 0.045623538224 0.97906354125 -0.19721519162 0.050405856628 
0.95697021183 -0.28494053937 0.054926338874 0.92878512468 -0.36590001799 0.058952260452 0.89637003277 -0.43888344909 0.06246665083 
0.86150780298 -0.50350225221 0.065496468859 0.82693198983 -0.55817330607 0.068015032012 0.79364335996 -0.60432774979 0.07012979413 
0.76301722201 -0.64236808256 0.071888562556 0.73566389671 -0.67336261905 0.073358123923 0.71182708615 -0.69838229785 0.07459467454 
0.69130492141 -0.71859191575 0.075651597781 0.67349889471 -0.73521038133 0.076582857132 0.65861446833 -0.74849050204 0.077388309612 
0.64562313057 -0.75964931297 0.07812614528 0.63444199732 -0.76894345442 0.078799212817 0.62431301723 -0.7771235446 0.079449688129 
0.61495320357 -0.7844855937 0.080093137656 0.60615094313 -0.79124064873 0.080741996183 0.59730597522 -0.79786774747 0.08144095724 
0.58808596641 -0.80460840074 0.082220542229 0.57850362001 -0.81143724194 0.083085281665 0.56824137684 -0.81855595653 0.084070706453 
0.55701659282 -0.82611815258 0.085213339941 0.54468483404 -0.83416394838 0.086538654889 0.53153452643 -0.8424503789 0.088025032267 
0.51725575819 -0.85111545171 0.089716043573 0.50180319119 -0.86011524853 0.091625960098 0.48555559677 -0.86916819168 0.09371455074 
0.46856206146 -0.87820127559 0.095979758894 0.45098020028 -0.88709278679 0.098403488607 0.43305156834 -0.89569787247 0.10095375385 
0.41521501412 -0.90380876795 0.10356738402 0.39768583576 -0.91135356606 0.10621042163 0.3809491425 -0.91817161546 0.10880549337 
0.365127475 -0.92427705141 0.11132771104 0.35071252417 -0.92955641921 0.11369075998 0.33767921821 -0.93409985183 0.11588879323 
0.32641346918 -0.93785227433 0.11784463783 0.31704298795 -0.94084989499 0.11952078851 0.30947599737 -0.94318810089 0.12091655553 
0.30383794893 -0.94488146663 0.1219898144 0.29980670939 -0.94606577525 0.12278227034 0.29779542722 -0.94664772044 0.12319081505 
0.29734563827 -0.94677680214 0.12328527216 0.29832871269 -0.94649527845 0.12307179632 0.30082736495 -0.94577694397 0.12251068829 
0.30441508742 -0.9447359492 0.12167761024 0.30951324515 -0.94323509544 0.12045374966 0.31557031027 -0.94141704726 0.11895092437 
0.3228383635 -0.93918357082 0.11708804956 0.33120439675 -0.93654024779 0.11487389539 0.34089762596 -0.93337779467 0.11222611562 
0.35199238514 -0.92962288316 0.1090992938 0.36441119928 -0.92524397726 0.10548962213 0.37882838158 -0.91992065814 0.10116837471 
0.39562735049 -0.91338266676 0.095974494593 0.41458220909 -0.9055577198 0.08992668133 0.43750843762 -0.89543385632 0.082368537546 
0.46423634585 -0.8826776665 0.073244469089 0.49730722519 -0.86539111263 0.061512161058 0.53708624809 -0.84223014327 0.04676267613 
0.58712636381 -0.80903841054 0.027193440049 0.65126868325 -0.7588471593 0.00030173094636 0.73491482701 -0.67706689405 -0.038478799699 
0.84211259362 -0.53042115384 -0.097466810936 0.9533993329 -0.23411184268 -0.19031909294 0.89845216218 0.32230233519 -0.29816927577 
0.4677814557 0.83112656814 -0.30068112251 0.029694564268 0.9747224053 -0.22143727206 -0.25456147825 0.95602813149 -0.14563195252 
-0.4525312977 0.88806811528 -0.080934833208 -0.60404243852 0.79662211682 -0.022933282796 -0.72381244043 0.68932638011 0.030408761369 
-0.81680705979 0.57145049594 0.07918685357 -0.88530137073 0.44851903511 0.12276871804 -0.93035656909 0.33022690973 0.15933249025 
-0.95631267537 0.22345766566 0.18850129597 -0.96872852574 0.13009357589 0.21128347057 -0.97216734115 0.05136883407 0.22858675308 
-0.97044228045 -0.011142900638 0.24107595498 -0.96627556832 -0.060925717676 0.2501990867 -0.96152188425 -0.098306502697 0.25653751701 
-0.95725172407 -0.12513534513 0.26078781063 -0.9540999728 -0.14254349862 0.26339057103 -0.95226561479 -0.15199880468 0.26473866788 
-0.95201635887 -0.15325419702 0.26491131259 -0.95287762913 -0.14885667378 0.26432161201 -0.95503250245 -0.13730320623 0.2627941187 
-0.95799946843 -0.1199046001 0.26049933849 -0.96150392153 -0.096310671133 0.257360571 -0.96495481676 -0.067821686505 0.25350033618 
-0.96797940771 -0.033727013661 0.24875360257 -0.96997855007 0.0052443962172 0.24313393165 -0.97040020227 0.0474230101 0.23680056069 
-0.96875260222 0.094168213111 0.22945749789 -0.96476565197 0.14184419483 0.22160203332 -0.95820335601 0.19084297742 0.21313208699 
-0.94911829709 0.23967623515 0.2042786343 -0.93781941815 0.28696925892 0.19530331122 -0.92480288041 0.33161934891 0.18646243541 
-0.91058175288 0.37306856655 0.17793458343 -0.89591015367 0.41042584916 0.16998711387 -0.88131035422 0.4436371652 0.16272100417 
-0.86742284583 0.47238878133 0.15628962156 -0.85476765061 0.4966258165 0.15078150366 -0.84356383184 0.51675563444 0.1461631824 
-0.83445814943 0.53230526633 0.14258576467 -0.82699047003 0.54456353019 0.13977597815 -0.82216669327 0.55225854844 0.13803051891 
-0.81998878425 0.5556756929 0.1372695087 -0.82002920493 0.55561266051 0.13728319105 -0.82295840981 0.55102388915 0.13824662494 
-0.82863547202 0.54198208142 0.140066691 -0.83674655732 0.5286945725 0.14260872282 -0.84792476271 0.50960233725 0.14604470084 
-0.86105076171 0.48588790669 0.1500150922 -0.87612174805 0.4566569223 0.15451581769 -0.89274049144 0.42142001916 0.15943519812 
-0.91006628278 0.38040126129 0.16454252143 -0.9274258674 0.33330810004 0.16966723589 -0.94340061326 0.28208556869 0.17442194481 
-0.9571940521 0.227779187 0.1785950408 -0.96869091081 0.16866037498 0.18218561203 -0.9766054248 0.10993813256 0.18481193483 
-0.981113483 0.051246363205 0.1865211616 -0.98227966693 -0.0062673449678 0.1873162468 -0.98037590062 -0.061639449816 0.18725296182 
-0.9760258626 -0.11227043262 0.18646411316 -0.96966946181 -0.15966026116 0.18506684157 -0.96202995881 -0.20229276684 0.18323753666 
-0.9534228508 -0.24124945349 0.18106233389 -0.94450809243 -0.27561776607 0.17871572498 -0.93546672032 -0.30632812542 0.17625292832 
-0.92688724239 -0.33265405774 0.17384279611 -0.91855562872 -0.35618236077 0.17143419385 -0.91099373854 -0.376119415 0.16918804329 
-0.90386548108 -0.39386947943 0.1670150451 -0.89781289922 -0.40824790498 0.16512312399 -0.89228529019 -0.42088342404 0.16335269906 
-0.88766093043 -0.43112292521 0.1618366335 -0.88409138833 -0.43883647126 0.16063924976 -0.8812884272 -0.44478501977 0.15967778262 
-0.87942462447 -0.44869092656 0.15902447077 -0.87878200693 -0.45002949892 0.15879431475 -0.878996372 -0.44958294713 0.15887275305 
-0.88059876111 -0.4462224974 0.15947195596 -0.88441032982 -0.43808590106 0.16093200989 -0.88938155887 -0.42716264314 0.16288805683 
-0.89690527882 -0.40990732861 0.16594246826 -0.90973248455 -0.37816881348 0.17139181736 -0.92698553412 -0.329480131 0.17927817161 
-0.95321487638 -0.23243720715 0.1932727197 -0.97539795453 0.019921182255 0.21954948599 -0.52514824881 0.83004985537 0.18771402285 
0.43470506996 0.90033819021 -0.020558341503 0.671713985 0.73564170248 -0.087359074662 0.74993493699 0.65199062941 -0.11182937651 
0.7946274696 0.59374205393 -0.12663948024 0.82459234896 0.54888706709 -0.13700527589 0.84943644287 0.50711252174 -0.14592676185 
0.87052012388 0.4674882741 -0.15378370362 0.88983789563 0.42682526389 -0.16127217245 0.90777896477 0.38409325922 -0.16855182982 
0.92482123801 0.337306344 -0.17586957674 0.94003680385 0.28788678066 -0.1828989036 0.95281142642 0.23723742476 -0.18939057519 
0.96336368345 0.18359240907 -0.19551020622 0.9711442261 0.12832276665 -0.20102775844 0.97575715657 0.074992709411 -0.20560657806 
0.97757105641 0.022477639817 -0.20940292592 0.97680963232 -0.027399570945 -0.21234925412 0.97383395811 -0.074943670027 -0.21454805604 
0.96937296299 -0.11691804925 -0.21597737935 0.96368454809 -0.15584153521 -0.21685365496 0.95732853802 -0.19058808678 -0.21725158567 
0.95108720008 -0.21959059922 -0.21728577169 0.94458117425 -0.24627564446 -0.21705923662 0.9389300854 -0.26731150801 -0.21669068371 
0.93322130799 -0.28699214512 -0.21617932128 0.92857945022 -0.30203848819 -0.21566862611 0.92401913972 -0.31611171171 -0.21508606453 
0.92037336403 -0.32691872362 -0.21456238937 0.91698534244 -0.33664581834 -0.21402680846 0.91432871106 -0.34407891303 -0.21357132237 
0.91154932376 -0.35168635639 -0.21305993777 0.90971172198 -0.35662750277 -0.21270027542 0.90781006116 -0.36167185845 -0.21230722942 
0.90676400514 -0.36441867199 -0.21208033969 0.90475186686 -0.36964711116 -0.21162483934 0.90390655037 -0.37182242307 -0.21142619019 
0.90323254143 -0.37354932108 -0.21126258736 0.9022835149 -0.37596883023 -0.21102582173 0.90137703673 -0.37826590985 -0.21079454237 
0.90084152188 -0.37961667708 -0.21065547924 0.900197915 -0.38123388129 -0.21048620286 0.900197915 -0.38123388129 -0.21048620286 

