# vtk DataFile Version 4.1
vtk output
ASCII
DATASET POLYDATA
POINTS 154 float
31.8525 -41.2872 -215.803 31.4158 -40.9893 -213.904 30.9797 -40.6914 -212.006 
30.5454 -40.3936 -210.111 30.1145 -40.096 -208.221 29.6884 -39.7987 -206.337 
29.2683 -39.5016 -204.461 28.8556 -39.2049 -202.596 28.4515 -38.9085 -200.741 
28.0572 -38.6124 -198.899 27.6736 -38.3164 -197.07 27.3018 -38.0204 -195.253 
26.9425 -37.7241 -193.449 26.5965 -37.4273 -191.658 26.2645 -37.1296 -189.877 
25.947 -36.8306 -188.106 25.6445 -36.5298 -186.343 25.3574 -36.2266 -184.584 
25.086 -35.9203 -182.827 24.8306 -35.6103 -181.07 24.5914 -35.2957 -179.308 
24.3687 -34.9755 -177.536 24.1626 -34.649 -175.752 23.9733 -34.3149 -173.951 
23.8009 -33.9723 -172.127 23.6455 -33.6199 -170.276 23.5072 -33.2567 -168.394 
23.3862 -32.8814 -166.475 23.2825 -32.4927 -164.515 23.1963 -32.0894 -162.509 
23.1275 -31.6704 -160.453 23.0763 -31.2344 -158.343 23.0425 -30.7804 -156.176 
23.0263 -30.3072 -153.947 23.0275 -29.814 -151.655 23.0461 -29.3 -149.298 
23.082 -28.7644 -146.874 23.1349 -28.2069 -144.382 23.2047 -27.627 -141.822 
23.2911 -27.0247 -139.195 23.3937 -26.4 -136.501 23.5123 -25.7533 -133.743 
23.6463 -25.085 -130.923 23.7953 -24.3959 -128.043 23.9587 -23.6869 -125.108 
24.1359 -22.9593 -122.121 24.3263 -22.2144 -119.086 24.529 -21.4537 -116.009 
24.7433 -20.6789 -112.894 24.9682 -19.8918 -109.746 25.2028 -19.0945 -106.572 
25.4461 -18.2888 -103.375 25.6968 -17.477 -100.161 25.9539 -16.6611 -96.9371 
26.2159 -15.8432 -93.7069 26.4816 -15.0253 -90.4761 26.7495 -14.2096 -87.2497 
27.0182 -13.3979 -84.0325 27.286 -12.592 -80.8293 27.5515 -11.7939 -77.6443 
27.813 -11.005 -74.4817 28.0688 -10.2268 -71.3456 28.3174 -9.46083 -68.2395 
28.5571 -8.70823 -65.1669 28.7865 -7.97015 -62.1309 29.004 -7.24759 -59.1345 
29.2081 -6.54143 -56.1802 29.3976 -5.85244 -53.2703 29.5713 -5.18132 -50.407 
29.728 -4.52865 -47.592 29.8668 -3.89491 -44.8267 29.9869 -3.28053 -42.1122 
30.0876 -2.68582 -39.4493 30.1684 -2.11104 -36.8386 30.2289 -1.55635 -34.2801 
30.269 -1.02182 -31.7735 30.2886 -0.507433 -29.3184 30.2876 -0.013089 -26.9138 
30.2664 0.461416 -24.5584 30.2251 0.916382 -22.2507 30.1642 1.3522 -19.9888 
30.084 1.76936 -17.7708 29.9852 2.16844 -15.5942 29.8683 2.5501 -13.4567 
29.7338 2.91506 -11.3557 29.5824 3.2641 -9.28838 29.4146 3.59806 -7.25216 
29.2311 3.91777 -5.24432 29.0325 4.22409 -3.26219 28.8194 4.51788 -1.30318 
28.5922 4.79993 0.635201 28.3515 5.07105 2.55532 28.0977 5.33193 4.45944 
27.8314 5.58324 6.34967 27.5529 5.82555 8.22805 27.2626 6.05937 10.0965 
26.9609 6.28511 11.9568 26.6482 6.50312 13.8107 26.3247 6.71367 15.66 
25.9908 6.91696 17.5064 25.6468 7.11315 19.3516 25.2931 7.30234 21.1975 
24.93 7.4846 23.0457 24.558 7.65998 24.8983 24.1773 7.82851 26.7572 
23.7886 7.99024 28.6244 23.3922 8.1452 30.502 22.9888 8.29345 32.3922 
22.5788 8.43505 34.2972 22.1629 8.57011 36.2193 21.7419 8.69872 38.1606 
21.3164 8.82103 40.1234 20.8873 8.93717 42.1097 20.4553 9.04731 44.1216 
20.0214 9.15161 46.1611 19.5863 9.25024 48.2298 19.1512 9.34334 50.3293 
18.7167 9.43108 52.461 18.2839 9.51357 54.6259 17.8536 9.59094 56.8248 
17.4267 9.66326 59.0583 17.0039 9.73058 61.3266 16.5861 9.79294 63.6294 
16.1738 9.85034 65.9663 15.7676 9.90273 68.3363 15.368 9.95007 70.7382 
14.9753 9.99226 73.1704 14.5897 10.0292 75.6309 14.2113 10.0608 78.1172 
13.84 10.0869 80.6267 13.4757 10.1074 83.1565 13.118 10.122 85.7033 
12.7667 10.1308 88.2636 12.4211 10.1336 90.8339 12.0806 10.1302 93.4105 
11.7447 10.1207 95.9896 11.4124 10.1048 98.5676 11.0831 10.0826 101.141 
10.7559 10.0542 103.706 10.43 10.0195 106.261 10.1047 9.97858 108.801 
9.77931 9.93167 111.326 9.45306 9.8789 113.832 9.12541 9.8205 116.319 
8.79589 9.75675 118.785 8.46412 9.68795 121.231 8.12984 9.61449 123.656 
7.79294 9.53677 126.061 7.45341 9.45525 128.448 7.11137 9.37042 130.818 
6.76706 9.2828 133.174 6.42083 9.19296 135.518 6.07312 9.10148 137.852 
5.72444 9.00896 140.181 
LINES 1 155
154 153 152 151 150 149 148 147 146 145 144 143 142 141 140 139 138 137 136 135 134 133 132 131 130 129 128 127 126 125 124 123 122 121 120 119 118 117 116 115 114 113 112 111 110 109 108 107 106 105 104 103 102 101 100 99 98 97 96 95 94 93 92 91 90 89 88 87 86 85 84 83 82 81 80 79 78 77 76 75 74 73 72 71 70 69 68 67 66 65 64 63 62 61 60 59 58 57 56 55 54 53 52 51 50 49 48 47 46 45 44 43 42 41 40 39 38 37 36 35 34 33 32 31 30 29 28 27 26 25 24 23 22 21 20 19 18 17 16 15 14 13 12 11 10 9 8 7 6 5 4 3 2 1 0 

CELL_DATA 1
FIELD FieldData 2
LengthArray 1 1 double
364.22639866 
TortuosityArray 1 1 double
0.010427272976 
POINT_DATA 154
FIELD FieldData 8
RadiusArray 1 154 double
60.945118233 62.983422018 63.059015119 63.086657415 63.128693122 63.651768591 64.138192525 64.424984602 64.748131003 
64.770228275 65.286208619 65.346671473 65.591085503 65.923159036 66.64094323 66.955801535 67.01331823 67.473954222 
67.83588108 68.223625892 68.393951633 68.434958239 68.979107785 69.094594079 69.42539182 69.505187452 69.566226138 
69.755338689 69.962639306 70.003108031 70.193630086 70.23732521 70.272032325 70.306005287 70.333518088 70.365992279 
70.459110006 70.418199191 70.073373828 69.96406173 69.592211843 69.577940552 69.241856999 68.99972603 68.349504663 
68.328942152 67.804672207 67.658678127 66.813797547 66.503421154 66.18365491 65.895030678 65.004404359 64.470313776 
64.222313104 63.460817664 63.437504624 63.019012702 62.380548523 62.012466951 61.918600471 61.462571035 61.42709013 
61.142234423 61.03010465 60.952617447 60.78999249 60.832675895 60.861824566 60.938124923 61.582279887 61.591229764 
61.878849293 62.284401916 62.370612842 62.471126849 62.55491285 62.890472807 63.164172841 63.26385238 63.449210546 
63.717515195 63.765647011 63.869705352 63.967250575 63.978459991 64.200641518 64.307919929 64.981703743 65.042169399 
65.452556014 65.672856489 65.917959281 65.972377694 66.294290652 66.595512266 67.372949022 67.573171385 67.801345873 
68.444833271 68.594774083 68.673615812 69.00187938 69.673538949 69.891431425 70.068994986 70.261368581 70.552009033 
70.588211847 70.819243807 71.317163285 71.580268716 72.315236442 72.685225205 73.292430739 73.960439229 74.140314293 
74.603639472 75.143706348 75.505431419 75.835979784 76.236247826 76.332357489 76.788316804 77.340553527 77.599255217 
77.651524478 78.729157566 79.323017386 79.352887941 79.467026643 79.710496513 80.329165469 80.552410275 81.121417392 
81.566013587 81.748627215 82.163160719 82.494879627 82.786220163 83.000155448 83.165595353 83.489293367 83.89588085 
84.258461633 84.3258909 84.36077193 84.575852394 84.821139934 85.441873158 85.591694497 85.640965716 85.77945074 
85.943758856 
EdgeArray 2 154 int
40706 40706 38379 36643 37500 37501 37680 37501 37679 
37680 37679 37679 37005 37125 37005 37005 35921 36921 
35921 36612 36612 36611 36611 36611 36605 36605 36449 
36449 36289 36289 36447 36447 36019 35888 35888 35888 
35376 35376 35729 35729 35730 35730 35456 35720 35720 
35720 35580 35029 35580 35580 35562 35367 35579 35579 
34944 35031 35031 34956 34956 34956 34954 34954 34691 
34691 34694 34581 34445 34445 34583 34583 34181 34181 
34502 34502 34506 34506 32529 32529 33228 33228 23217 
23217 29339 29339 21915 21915 32066 32066 33392 33392 
33394 33394 29250 29250 31549 31549 15536 15536 27764 
32525 27311 27311 29655 29655 22209 22209 23135 23135 
30345 30345 30904 30904 30905 30905 30019 30019 29691 
29691 29389 29389 29390 29390 22694 22694 25757 25757 
27486 27486 24627 24627 25491 25491 24194 24194 25457 
25457 25618 25618 22070 22070 25181 23199 23199 23199 
26605 26605 26559 26266 26266 26266 25891 25891 20957 
20957 21970 25022 21970 25014 25014 25014 23947 23947 
21657 23028 23028 23028 24736 24736 22034 22034 25250 
25250 23881 24703 23881 23881 23322 23322 23390 23390 
23869 23869 24405 24405 24199 24199 24201 24201 22918 
22918 18590 18590 23699 23699 23210 22474 22474 22474 
19990 19990 22519 22519 23476 23476 22256 22256 23056 
23056 23212 23212 23213 23213 22838 22838 18380 22248 
18380 20880 20880 20880 20847 20847 21446 21446 22044 
22044 18718 18718 19641 19641 19903 19903 13785 13785 
20527 20527 20633 20633 21810 21810 17569 20807 20807 
20807 17318 17406 17406 17406 22060 22060 21492 21492 
21632 21632 17194 17194 17195 21273 20413 17192 13265 
17192 16063 16063 15873 17601 13872 12774 15479 15479 
15727 15727 14734 12767 14549 14549 14019 14510 14820 
14820 12614 12614 14742 14742 13484 13484 14166 14166 
13862 13862 13663 12743 13661 12743 12984 12984 10272 
12744 11595 11595 10932 9911 9911 10596 10596 10596 
12290 12290 
EdgePCoordArray 1 154 double
0 0.944 0.576 0.336 0.944 0 0.78 0 0.24 
0.28 0.888 0 0 0 0 0 0.032 0 
0 0 0 0.02 0 0.94 0 0.248 0 
0.316 0.824 0 0 0 0.192 0 0 0 
0 0 0 0 0 0 0 0 0 
0 0 0 0 0.548 0 0 0 0 
0 0 0 0 0 0 0 0 0 
0 0 0 0 0 0 0 0.94 0 
0 0.756 0 0 0 0.896 0.356 0 0 
0.644 0 0 0 0 0.552 0 0 0 
0 0 0 0 0 0 0 0.212 0 
0 0 0 0 0 0 0 0 0.068 
0.104 0 0 0 0 0 0 0 0 
0 0 0 0.188 0 0.036 0 0 0 
0 0 0.228 0.836 0.548 0 0.008 0.088 0 
0 0.128 0 0.412 0 0 0 0 0 
0 0.94 0.728 0 0.02 0 0.884 0.212 0 
0 
CurvatureArray 1 154 double
0 8.5039067162e-05 0.00033667855322 0.00059374788084 0.00085419033435 0.0011198352411 0.001394384007 0.0016777525691 0.0019684867266 
0.0022685694814 0.0025797286345 0.0028970872088 0.0032225571285 0.0035506517464 0.0038769997788 0.0042005178809 0.0045113914736 0.0048013204397 
0.0050658024555 0.0052950460991 0.0054792376769 0.0056132137133 0.0056905004482 0.0057079852536 0.0056652457635 0.0055636499381 0.0054075665259 
0.0052054214594 0.0049657673417 0.0046950200361 0.0044079796766 0.0041088751603 0.0038098525074 0.0035160638173 0.0032335088479 0.0029651978127 
0.0027144100074 0.0024824362387 0.0022686608182 0.0020732490785 0.0018945985153 0.0017318858411 0.0015820913234 0.0014447606437 0.0013173887522 
0.0011986484558 0.0010869309752 0.00098064353274 0.00087915032716 0.00078018929168 0.00068462536743 0.00059038788087 0.00049783241865 0.00040778717353 
0.00032204096771 0.00024760185096 0.0002030206086 0.00021395589499 0.00028056461825 0.0003804878784 0.00049897559314 0.00063113334786 0.00077419268494 
0.00092757684538 0.0010911451711 0.0012644666821 0.0014464764846 0.0016386401949 0.0018384877789 0.0020471536467 0.0022625778696 0.0024843484188 
0.0027108817428 0.0029410197082 0.0031721726776 0.0034019435035 0.0036277308882 0.0038462298376 0.0040529949751 0.0042448377416 0.0044170083311 
0.0045658277315 0.0046881813796 0.0047812382047 0.0048427321279 0.004873182225 0.0048716088567 0.004842833526 0.0047870199754 0.0047103681072 
0.0046148451039 0.0045070751398 0.0043900664283 0.0042661507757 0.0041393419637 0.004010255066 0.0038795004046 0.0037471871008 0.0036131591758 
0.0034753265789 0.0033324843241 0.0031851433942 0.003030824866 0.0028720867343 0.0027082392159 0.0025442156939 0.0023838822435 0.0022332533211 
0.0020992055557 0.0019912784431 0.0019154288725 0.0018761212896 0.0018739569924 0.001904250848 0.0019581353437 0.0020271493815 0.0021011106114 
0.0021721568625 0.0022329825038 0.002280906389 0.0023101915438 0.0023204056315 0.0023108235258 0.0022814605506 0.0022321665982 0.0021656301532 
0.0020827032843 0.0019860726601 0.0018778475774 0.0017597349633 0.0016364960805 0.0015101044008 0.0013849292713 0.0012653765777 0.0011574469949 
0.0010672461956 0.0010013274481 0.00096460256303 0.00095918794842 0.00098181360863 0.0010252037901 0.001079978425 0.0011364428488 0.0011848364793 
0.0012179580563 0.0012285459532 0.0012106618891 0.0011601360959 0.0010750386764 0.0009531215976 0.00079694974624 0.00060885326901 0.00039463910068 
0 
TorsionArray 1 154 double
0 0 -0.00037111549736 2.9190918331e-05 -0.00025283025974 -0.00066782294755 -0.00040027439085 -0.00051994219169 -0.00090586520746 
-0.00086830489125 -0.00089876468682 -0.0010108806497 -0.0010661444941 -0.00094691438022 -0.0010596175497 -0.00091581382722 -0.00061977460249 -0.00046606596965 
-0.00012997270185 0.0002297471543 0.00072568822049 0.0012087156007 0.001907345367 0.0024635778279 0.0030738731934 0.0039093442122 0.0046256157401 
0.0053518532605 0.0058795068172 0.0066251536497 0.007227202871 0.0076329298297 0.0080940832785 0.0082803725287 0.0083362891709 0.0083466579578 
0.0080971690861 0.0075295876828 0.0070037811396 0.0061413534139 0.0050842871179 0.0039621680487 0.0025324628185 0.00107169582 -0.00057377425213 
-0.00229770381 -0.0043245096475 -0.0064350010559 -0.00887134338 -0.011920083861 -0.015667240993 -0.020920195606 -0.028737918246 -0.041798953432 
-0.065774568567 -0.11118064711 -0.16968005871 -0.16089575969 -0.10159568092 -0.061489666664 -0.040459670797 -0.028875809627 -0.021871250499 
-0.017274961289 -0.013961611753 -0.011345023186 -0.0092481569364 -0.0074456927952 -0.0058532003097 -0.0044363730498 -0.0031511678333 -0.001986925939 
-0.00094547936691 -1.4641376906e-05 0.00079226936113 0.0014563957493 0.0019843687397 0.0023754242194 0.002616873489 0.0027205302945 0.002683206392 
0.0024972425594 0.002206864255 0.0018338797791 0.0013722478817 0.00091345280763 0.00043744323192 3.791952206e-05 -0.00022534911628 -0.00031351192105 
-0.0001202276307 0.00034081651098 0.0012032381114 0.0024345501028 0.0040760680236 0.0061570587602 0.0085721363087 0.011296497263 0.014365200091 
0.017770689071 0.021376814843 0.025375746046 0.029818069212 0.03474518138 0.040361195374 0.04654752532 0.053552050013 0.061145718944 
0.068484506685 0.074498129058 0.07813618201 0.078067329055 0.073978046325 0.066681042781 0.057792728389 0.048453401332 0.039708417035 
0.03201064005 0.025344012991 0.019654692707 0.014860680606 0.010738623218 0.0071233846749 0.0039140496382 0.00090514005512 -0.0019848420772 
-0.0048613985906 -0.0079326301527 -0.011292687378 -0.015134839914 -0.019683078437 -0.025143683097 -0.031819560132 -0.039776482916 -0.048806361826 
-0.058295284707 -0.066295688358 -0.070545788774 -0.069642262641 -0.063877270149 -0.055354731001 -0.046328779305 -0.038001282115 -0.030914703201 
-0.025089618919 -0.02041729919 -0.016611084745 -0.013492839487 -0.010965159004 -0.0088122695792 -0.0069035396269 -0.0053500775417 0 
0 
TangentArray 3 154 double
0.22147156509 -0.15119469076 -0.96337454364 0.22147156509 -0.15119469076 -0.96337454364 0.22107851431 -0.15130591002 -0.96344735824 
0.22021250358 -0.15155063481 -0.96360721166 0.21886801898 -0.15193005067 -0.96385374927 0.21704107395 -0.15244421753 -0.9641856319 
0.2147234394 -0.15309222296 -0.96460179133 0.21190531436 -0.15387596867 -0.96510016269 0.20857897517 -0.15479529941 -0.96567759961 
0.20473623175 -0.1558471366 -0.96633055702 0.20036631422 -0.15703137065 -0.9670545428 0.19546103136 -0.15834669274 -0.96784363929 
0.19001375422 -0.15978995787 -0.96869083952 0.18401968806 -0.16135774636 -0.969587764 0.17748101935 -0.16304651979 -0.97052373498 
0.1704012698 -0.16484983484 -0.97148748793 0.16279063736 -0.16676227098 -0.97246570807 0.15467172307 -0.16877859892 -0.97344257285 
0.14607344039 -0.170890339 -0.97440188939 0.1370335773 -0.17309059448 -0.97532632734 0.12760306763 -0.17537076193 -0.97619800911 
0.11784354428 -0.17772322143 -0.97699915846 0.1078249367 -0.18013937987 -0.97771344823 0.097626584997 -0.18261355203 -0.97832578445 
0.087331894637 -0.18513701116 -0.97882451301 0.077027671521 -0.18770182167 -0.97920108454 0.066801757931 -0.19030387058 -0.97944982617 
0.056736884528 -0.19293738975 -0.97956933883 0.04690754897 -0.19559729977 -0.97956182968 0.037381371745 -0.19827455968 -0.97943342399 
0.028214399419 -0.2009657851 -0.97919186112 0.019450131802 -0.2036651042 -0.97884739245 0.011120479572 -0.20636436445 -0.9784120216 
0.00324413345 -0.2090580335 -0.9778978547 -0.0041707938158 -0.21173695188 -0.97731779258 -0.011125215512 -0.21439153271 -0.97668444253 
-0.017627164676 -0.2170133068 -0.97600948138 -0.023692604325 -0.21959175164 -0.97530411827 -0.029341915452 -0.22211363058 -0.97457918463 
-0.034596771875 -0.22456850604 -0.9738439554 -0.039482129386 -0.22694283441 -0.97310745109 -0.044023147807 -0.22922331158 -0.97237782569 
-0.048243219696 -0.23139662166 -0.97166259331 -0.052164821362 -0.23344797442 -0.97096903898 -0.055808241146 -0.23536410397 -0.97030365287 
-0.059190509794 -0.23713153834 -0.96967268554 -0.062325425685 -0.23873806614 -0.96908187326 -0.065223469034 -0.24017092286 -0.96853695175 
-0.067891136158 -0.2414201891 -0.96804291533 -0.070330350142 -0.24247650543 -0.96760466419 -0.072540293473 -0.24333194692 -0.96722668978 
-0.074516431942 -0.24398126248 -0.96691284247 -0.076249488035 -0.24442046318 -0.96666677441 -0.077728054994 -0.24464862184 -0.96649128361 
-0.078937446205 -0.24466671365 -0.96638867896 -0.079859823918 -0.24447815485 -0.96636061609 -0.080476041207 -0.24408766825 -0.96640820412 
-0.080764934871 -0.24350190562 -0.96653186562 -0.080704277262 -0.24273008147 -0.96673105215 -0.080271653155 -0.24178154693 -0.96700472867 
-0.079445070318 -0.24066635115 -0.96735111941 -0.078203497501 -0.2393944365 -0.96776780105 -0.076527292831 -0.23797506624 -0.96825174479 
-0.074399434741 -0.23641654662 -0.96879922615 -0.071804622773 -0.23472523986 -0.96940608515 -0.068730385325 -0.23290541419 -0.97006762763 
-0.065169292245 -0.23095899731 -0.97077850456 -0.061116143614 -0.22888478214 -0.97153310468 -0.056569855188 -0.22667893737 -0.97232531122 
-0.051533980882 -0.2243350434 -0.9731485175 -0.046015513981 -0.2218443197 -0.97399572396 -0.040026664862 -0.21919665624 -0.97485931908 
-0.033583599977 -0.21638080141 -0.97573125941 -0.026706656487 -0.21338551509 -0.9766029779 -0.01942081708 -0.21020052094 -0.97746538193 
-0.011756186889 -0.20681797247 -0.9783088052 -0.0037467564818 -0.20323338555 -0.97912315508 0.0045696036704 -0.19944647108 -0.97989806812 
0.013150215532 -0.19546241868 -0.98062302375 0.02194897714 -0.19129235572 -0.98128766274 0.030916969374 -0.1869533615 -0.9818821628 
0.040002732205 -0.18246876153 -0.98239754299 0.049154587896 -0.17786735871 -0.98282604218 0.058321205058 -0.17318193229 -0.98316156117 
0.067452040763 -0.16844813993 -0.98339994222 0.076500126585 -0.16370281005 -0.98353907935 0.085421687184 -0.15898144822 -0.98357919584 
0.094179297089 -0.15431654472 -0.98352257932 0.1027412194 -0.14973552469 -0.98337353761 0.11108113061 -0.14525946814 -0.98313817408 
0.11917886559 -0.14090218568 -0.98282397817 0.12701938011 -0.1366690918 -0.982439635 0.13459363339 -0.1325577801 -0.98199439346 
0.14189381082 -0.12855891518 -0.98149821792 0.14891457063 -0.12465718332 -0.98096128226 0.15565137808 -0.12083228652 -0.98039390402 
0.16209756315 -0.11706100015 -0.97980666576 0.16824463242 -0.1133195002 -0.97921010745 0.17408174137 -0.10958469206 -0.97861470589 
0.17959356345 -0.10583570218 -0.97803116316 0.18475958781 -0.1020557252 -0.97747047202 0.18955718106 -0.098233231099 -0.97694334913 
0.19395933756 -0.094362136408 -0.97646073274 0.1979365619 -0.090442205782 -0.97603346504 0.201457936 -0.08647942262 -0.97567208092 
0.20449226806 -0.082485165412 -0.9753866463 0.20701162199 -0.07847523756 -0.97518604658 0.20898976652 -0.074468809253 -0.97507829118 
0.21040389408 -0.070487598234 -0.97507009997 0.21123868201 -0.066553828853 -0.97516604078 0.21148638387 -0.062688867348 -0.97536845107 
0.21114553899 -0.058912944566 -0.97567762418 0.21022304306 -0.05524296436 -0.97609143376 0.20873429996 -0.051691959185 -0.97660531095 
0.206703652 -0.048269613616 -0.97721217995 0.20416258359 -0.044981521336 -0.97790301268 0.20115011809 -0.041828280114 -0.97866696326 
0.19771196257 -0.038807246528 -0.97949169342 0.19389936006 -0.035913200539 -0.98036385092 0.18976754707 -0.033136914953 -0.98126969939 
0.18537582222 -0.030467271 -0.98219527078 0.18078688824 -0.027892619696 -0.98312669723 0.17606358971 -0.0253994894 -0.98405105473 
0.17126938021 -0.022973975546 -0.9849563421 0.16646812595 -0.020603173571 -0.98583156385 0.16172208156 -0.018273942166 -0.98666713302 
0.15709075316 -0.015973787758 -0.9874549779 0.15263074123 -0.013691627092 -0.98818844163 0.14839488223 -0.011416776961 -0.9888622837 
0.14443293971 -0.009140628428 -0.98947237194 0.14078896162 -0.0068553341884 -0.99001589516 0.13750149844 -0.0045538761517 -0.99049109039 
0.13460442257 -0.0022314195708 -0.9908969019 0.13212583456 0.00011589453817 -0.99123294457 0.1300871121 0.0024902442955 -0.99149944122 
0.12850262491 0.004892040613 -0.99169710261 0.12738076199 0.0073202142582 -0.99182687801 0.12672204638 0.0097710861285 -0.9918901395 
0.12651882573 0.012238732954 -0.99188870351 0.12675585076 0.014715103078 -0.99182479302 0.12740875654 0.017188991447 -0.99170133978 
0.12844392752 0.019646364456 -0.99152215197 0.12981913859 0.022070226743 -0.99129203384 0.13148247009 0.024440107491 -0.99101717503 
0.13337310945 0.026732978324 -0.99070528491 0.1354225995 0.028923741377 -0.99036565809 0.13755539365 0.030984309469 -0.99000933644 
0.13969062197 0.032885179736 -0.98964897569 0.14174547743 0.034596946461 -0.98929837305 0.14363710279 0.036089822606 -0.98897214693 
0.1452859252 0.037335807936 -0.98868500413 0.14661969745 0.038310222245 -0.98845080363 0.14757656993 0.038991496905 -0.98828175091 
0.14757656993 0.038991496905 -0.98828175091 
NormalArray 3 154 double
0.94776987361 0.26589904147 0.17615324696 0.94776987361 0.26589904147 0.17615324696 0.94719880718 0.26856858436 0.17517230137 
0.94768766988 0.26725063545 0.17454276899 0.94786762393 0.26757619306 0.17306053398 0.94853173823 0.26627754291 0.17141706949 
0.94939096301 0.26452991361 0.16935384308 0.95009869835 0.2637636597 0.16655688282 0.95117139993 0.26181703474 0.16347724084 
0.95244008016 0.25936359115 0.15996381242 0.95369252685 0.25727475988 0.15582125068 0.95513215006 0.25466105944 0.15122936461 
0.95664841367 0.2519551578 0.14609042094 0.95827027541 0.24899010731 0.14043505873 0.95982722028 0.24646222022 0.13411965261 
0.96161078527 0.2430363652 0.12742850087 0.96316602804 0.24066562371 0.1199635778 0.96474624829 0.23816265498 0.11199654542 
0.96620879071 0.23609525636 0.10343888379 0.96751579083 0.2345614216 0.094308716407 0.96864950971 0.23356197485 0.084657729929 
0.96948391185 0.23357760482 0.074447613679 0.97010203528 0.23414934304 0.063844547915 0.97019736476 0.23652346319 0.052666163525 
0.97012677963 0.2390500323 0.041341426033 0.96940746448 0.24367207272 0.029548075735 0.96825402118 0.24934859692 0.017590556616 
0.96643357141 0.25686019383 0.0053845035867 0.96406786099 0.26556744136 -0.0068624703744 0.96110035091 0.27553836484 -0.019097774288 
0.95719613882 0.28772406713 -0.031470828222 0.95273514995 0.3006536669 -0.043624610423 0.94736603514 0.31526505982 -0.055727349888 
0.94125420034 0.33086161933 -0.067610052466 0.93448409819 0.34708680367 -0.079184726742 0.92707818997 0.36380029309 -0.090417788232 
0.91903042186 0.38094778055 -0.10130089928 0.91087631368 0.39730812319 -0.11158224062 0.90277440584 0.41267567687 -0.12123183523 
0.89462957359 0.42737635606 -0.13033562961 0.88767583289 0.43916639168 -0.13843589178 0.88128710046 0.44950732874 -0.14586366226 
0.8768091616 0.45612879089 -0.1521585366 0.87393288626 0.45981900872 -0.15750488732 0.87350643943 0.45919830587 -0.16162739917 
0.87537990327 0.45455316457 -0.16459479192 0.88013441885 0.44469643492 -0.16615801374 0.88800007509 0.42878618253 -0.16612728949 
0.89861180654 0.40675423556 -0.16446219321 0.91268205248 0.37582621018 -0.16051831927 0.92969389667 0.33463475375 -0.15391179318 
0.94960672515 0.2786667863 -0.14349874481 0.97115273418 0.2014797083 -0.12754722276 0.99063057603 0.090236169899 -0.10251095295 
0.99490212265 -0.080364903612 -0.060920018217 0.93611180836 -0.35151223613 0.011568495785 0.67698192541 -0.72500488996 0.12674139894 
0.16770908701 -0.95919445307 0.22763932729 -0.26050579676 -0.93104641654 0.25551770996 -0.50077894122 -0.82903092435 0.24885372913 
-0.63406524863 -0.7366004932 0.23533162535 -0.71531096986 -0.66269525792 0.221732297 -0.76914499826 -0.60386142224 0.20920648742 
-0.8069878841 -0.55646936957 0.19776854058 -0.83488488414 -0.51762254802 0.1871740581 -0.85585106817 -0.48588610636 0.17729534895 
-0.87176546284 -0.46021385927 0.16801244459 -0.88398915502 -0.43957730075 0.159169628 -0.89322924733 -0.42358622139 0.15071902585 
-0.90010793406 -0.4116794225 0.14256844016 -0.9050498754 -0.40342920876 0.13464619026 -0.90835478815 -0.39848369513 0.1268949312 
-0.91028778288 -0.39643018648 0.11924453695 -0.91105186097 -0.39689091306 0.11163381996 -0.91080762649 -0.39951381486 0.10401047668 
-0.9097273774 -0.40388083711 0.096313904585 -0.90797490525 -0.40957459305 0.088488553858 -0.90568333676 -0.41624250502 0.080497642974 
-0.90299984445 -0.42351262295 0.072307255005 -0.90007831643 -0.43101862265 0.063890306254 -0.89703844573 -0.43848621998 0.055243658248 
-0.89403900495 -0.4455841877 0.046357192478 -0.89121691797 -0.45204630001 0.037236377034 -0.88864186252 -0.45775128988 0.027917678728 
-0.88640432669 -0.46254477464 0.018430981503 -0.884584998 -0.46629582815 0.0088080618687 -0.88309278099 -0.46919762158 -0.00085560767801 
-0.88204709509 -0.47104301192 -0.010554760633 -0.88117641084 -0.47235849548 -0.020139134356 -0.88049958831 -0.47312312951 -0.029580049254 
-0.87967707388 -0.47399284445 -0.038717297106 -0.87855434252 -0.47527754395 -0.047471290892 -0.8768237583 -0.47757331784 -0.055711964331 
-0.87409406133 -0.48161686261 -0.063283248869 -0.87010970559 -0.48784845741 -0.070092673243 -0.86434635079 -0.49712769392 -0.075956841822 
-0.85642737739 -0.50991093186 -0.080765022303 -0.84588316309 -0.52664977931 -0.084390072612 -0.83222145504 -0.54761974351 -0.08671831583 
-0.81467303963 -0.57327210933 -0.087560991129 -0.79252203266 -0.60363787885 -0.086776373329 -0.76500134668 -0.63849659814 -0.084232023254 
-0.73056545779 -0.6781898655 -0.079577749554 -0.68807319035 -0.72199667002 -0.072636720741 -0.6351905689 -0.7697879507 -0.062924177768 
-0.56997963678 -0.82012740971 -0.050142252623 -0.4897408508 -0.8712105546 -0.03385363517 -0.39160927725 -0.92003006472 -0.013669454178 
-0.27381820724 -0.96172483008 0.010437461226 -0.13789753264 -0.98972962948 0.037676664063 0.01189210273 -0.99770201542 0.066702820897 
0.16663649972 -0.98140019749 0.09532014128 0.31488516892 -0.94137303531 0.12109557709 0.44685088356 -0.88322550116 0.14225681692 
0.55693637241 -0.81537251174 0.15808081538 0.64485275581 -0.7454072712 0.16891691261 0.712331204 -0.67955898672 0.17545323987 
0.76356992116 -0.62050222175 0.17871197024 0.80181452332 -0.56998740237 0.17946540428 0.83020615105 -0.52814324985 0.1783884929 
0.85101065021 -0.49479015203 0.17596470864 0.86608866892 -0.46915684672 0.17257540597 0.87651625665 -0.45093183831 0.16846284168 
0.88319864061 -0.43945577535 0.16382546426 0.88658608205 -0.43445493091 0.15878926955 0.8868241575 -0.43589229456 0.15343018354 
0.88393569932 -0.44363632544 0.14779881668 0.87757601024 -0.45795984504 0.14189124912 0.8670067604 -0.47947879908 0.13564423562 
0.85127738048 -0.50862199344 0.12895925429 0.82861191464 -0.54645303607 0.121619794 0.79662534491 -0.5937566443 0.11331860926 
0.75179657247 -0.6512071592 0.10359126134 0.68913666938 -0.71879633854 0.091774041106 0.60319304365 -0.79385550583 0.077146535602 
0.48822583159 -0.87072284759 0.058968297097 0.34199145992 -0.93897467218 0.036991976916 0.1712622492 -0.98515024249 0.012175456067 
-0.008974543341 -0.99986883893 -0.013481932344 -0.17963473128 -0.98301677105 -0.037541858769 -0.32630624489 -0.94346608114 -0.058275108639 
-0.44443969684 -0.89264167998 -0.07526079355 -0.53607583286 -0.8394763145 -0.088894425095 -0.60576255742 -0.78935702303 -0.099835936571 
-0.65858367075 -0.74460739198 -0.10875376049 -0.69869779867 -0.70592424924 -0.11615653434 -0.72949580312 -0.67294077007 -0.12241974189 
-0.75303427526 -0.64546248299 -0.12774021815 -0.7712701323 -0.62261091992 -0.1322801021 -0.78535938415 -0.60389309356 -0.13610205467 
-0.79606909845 -0.58897453914 -0.13922278096 -0.80395720462 -0.57757361248 -0.14163874929 -0.8099877346 -0.56864733053 -0.14338787704 
-0.8099877346 -0.56864733053 -0.14338787704 
BinormalArray 3 154 double
0.22952693203 -0.95207030477 0.20218684983 0.22952693203 -0.95207030477 0.20218684983 0.23224708864 -0.95130302065 0.20269152111 
0.2310725722 -0.95163517324 0.20247459949 0.2316112212 -0.95148317936 0.20257344743 0.23060943994 -0.95176521826 0.20239134252 
0.22923927222 -0.95214846325 0.20214514586 0.2289292492 -0.95223469696 0.20209027876 0.22752533721 -0.95262282966 0.20184639044 
0.22570106138 -0.95312234136 0.20153618358 0.22432990072 -0.9534940202 0.20130884005 0.22252541682 -0.9539780237 0.20101833042 
0.22072287112 -0.9544557443 0.20073775514 0.21875747681 -0.95496994935 0.20044341392 0.21732969191 -0.95533879142 0.20023885394 
0.21510022059 -0.95590682451 0.19993508438 0.2140336675 -0.95617488073 0.19979786444 0.2129350476 -0.95644776874 0.19966554832 
0.21237495796 -0.95658534484 0.19960299415 0.21244997808 -0.95656708369 0.1996106741 0.21315624425 -0.95639630894 0.19967602704 
0.21497405361 -0.95595813668 0.19982541675 0.21743004431 -0.95536584038 0.20000071714 0.22177944747 -0.95431071564 0.20026216493 
0.2263342034 -0.95319429769 0.20048306466 0.23305773023 -0.95152086006 0.2007290394 0.2408768889 -0.94953131284 0.20091941255 
0.25057349817 -0.94699419453 0.20103461779 0.26148200944 -0.94404217618 0.20102618816 0.27365808691 -0.94061990649 0.20086175093 
0.28806162448 -0.93639073811 0.20048163528 0.3031788687 -0.9317338128 0.19988665704 0.31995926367 -0.92629460278 0.1990084884 
0.33768329236 -0.92023112721 0.1978501114 0.35598044147 -0.91361819921 0.19641718704 0.37470289465 -0.90646876254 0.19471035742 
0.39379228886 -0.89876805304 0.19272680164 0.41199878843 -0.89102509384 0.1906076611 0.42911236775 -0.88338231861 0.18840980606 
0.44546715866 -0.8757387946 0.1861197845 0.45877312167 -0.86926971093 0.18411244525 0.47052631066 -0.86336541211 0.18222282005 
0.47841225517 -0.85930328151 0.18088555636 0.4832392179 -0.85677798902 0.18003148562 0.48360308156 -0.85658662985 0.17996501064 
0.47979840401 -0.85857443132 0.18067494955 0.47061549706 -0.86327818028 0.1824056945 0.45519420661 -0.870896284 0.18530487523 
0.4334600498 -0.88106031811 0.18932802508 0.40257311501 -0.8944047205 0.1948719657 0.36111932144 -0.91038955683 0.20194972267 
0.30445749937 -0.92887995229 0.21092099304 0.225938891 -0.94850649145 0.2220068765 0.11229163504 -0.965403794 0.2353425232 
-0.062758632384 -0.96627101866 0.24976323301 -0.34251582557 -0.90369772582 0.25693059293 -0.73158668623 -0.64404124071 0.22358846302 
-0.98252261421 -0.14371090131 0.11830675981 -0.96209331641 0.2724604151 0.011906834874 -0.86184506364 0.50423150441 -0.054531424266 
-0.76918771524 0.63205966557 -0.094078891799 -0.69441661082 0.7095951655 -0.11941637961 -0.6344758034 0.76073599269 -0.13682545202 
-0.58586285001 0.79652310526 -0.14938428218 -0.54572092354 0.82278244971 -0.15880086288 -0.51263542917 0.84241899296 -0.1659372082 
-0.48556970782 0.85724042444 -0.17135026569 -0.46349540537 0.86855256212 -0.17546639571 -0.44602843316 0.87703555937 -0.17851404541 
-0.4326083169 0.8832858209 -0.18071027297 -0.42280881673 0.88771052226 -0.18221617151 -0.41628048831 0.89059731114 -0.18315835892 
-0.41261155359 0.89220090564 -0.18365524717 -0.41142588777 0.89271732653 -0.18380564135 -0.41237398001 0.89230289293 -0.18369335284 
-0.41503962566 0.89112658791 -0.1833998731 -0.41900779617 0.88935079902 -0.18299623773 -0.42393019736 0.88710950969 -0.18253740871 
-0.42943957987 0.88455158193 -0.18207181593 -0.435174984 0.88183342054 -0.18163851938 -0.44086978564 0.87907808272 -0.18126101785 
-0.44619955069 0.87644730745 -0.18095877493 -0.45090601195 0.87408085745 -0.18073854882 -0.45487831034 0.87205032822 -0.18059332171 
-0.45797116921 0.87044675633 -0.18051274905 -0.46006207401 0.8693500967 -0.18048073978 -0.46135699358 0.86866477483 -0.18047502169 
-0.46165266386 0.86850727398 -0.18047695975 -0.46148930087 0.86859468361 -0.18047410005 -0.46084862744 0.86893854284 -0.18045595404 
-0.46039618122 0.86918200481 -0.1804383519 -0.46044363859 0.86915638153 -0.18044068311 -0.46158926627 0.8685344904 -0.180508139 
-0.46457046655 0.86690126484 -0.18071103628 -0.46982289312 0.86398175284 -0.18111316865 -0.47820292176 0.85922268038 -0.18181955655 
-0.49015969569 0.85222506641 -0.18290956483 -0.50613774614 0.84249551976 -0.1844610558 -0.5264057343 0.82952022989 -0.18652933043 
-0.55141090892 0.81250101096 -0.18917747414 -0.58118217666 0.79069965232 -0.19240929646 -0.61550062119 0.7633297626 -0.19618016934 
-0.65471664654 0.72880332981 -0.20047897444 -0.69812348634 0.68595992295 -0.20514039564 -0.74561896516 0.63241427911 -0.21001080536 
-0.7958053317 0.56620422934 -0.21472457873 -0.84693570442 0.48459654007 -0.21878323962 -0.89608339537 0.38470648091 -0.22143954499 
-0.93848483778 0.26479586422 -0.22165143706 -0.96765825048 0.12651422208 -0.21824679127 -0.97730859371 -0.025705920205 -0.21025488897 
-0.96314580325 -0.18270992676 -0.19740122679 -0.92555583438 -0.33281379672 -0.18050311397 -0.86991624878 -0.46609082318 -0.16126085905 
-0.80442244955 -0.57692088843 -0.14165737242 -0.73653415588 -0.66508996593 -0.12317781632 -0.67240083715 -0.73242745617 -0.10689778129 
-0.61471209144 -0.78324388949 -0.093048665871 -0.56524022182 -0.82086820085 -0.081724466794 -0.52416221234 -0.84850848699 -0.072713978405 
-0.49134171182 -0.86847823856 -0.065794159157 -0.46605420137 -0.88267426322 -0.060659924548 -0.44801882126 -0.89219691948 -0.0571296128 
-0.43660847522 -0.89797038813 -0.054974734303 -0.43157094685 -0.90045789588 -0.054056411224 -0.43288437488 -0.89981329762 -0.054287635849 
-0.44043180486 -0.89606453387 -0.05557136324 -0.45449334767 -0.88886743651 -0.057883307124 -0.47568712023 -0.87747919544 -0.061253777114 
-0.5044461789 -0.86094141305 -0.065680559491 -0.541830936 -0.83746169092 -0.071254143935 -0.58862670495 -0.80463178508 -0.078014695142 
-0.64551031211 -0.75889673644 -0.085977790053 -0.71248397509 -0.69522069177 -0.095051433288 -0.78691517672 -0.60810133575 -0.10477246821 
-0.86320484982 -0.49174972357 -0.11427859208 -0.93102952843 -0.3439083882 -0.12211076 -0.97704184402 -0.17141623495 -0.12651367291 
-0.9919236081 0.010607466408 -0.12639239435 -0.97553283779 0.18292483042 -0.12195978354 -0.93663826705 0.33102309937 -0.11459696499 
-0.88655260045 0.45033859654 -0.10592277898 -0.83412810328 0.54294790034 -0.097148776835 -0.78470636807 0.61344777394 -0.088981709151 
-0.74059379034 0.66696715037 -0.081704700196 -0.70248281522 0.70769652502 -0.075389142451 -0.67001073641 0.73904715177 -0.069963708809 
-0.64298204517 0.7630837097 -0.06540138822 -0.62052445773 0.7817663933 -0.061568690623 -0.60214534826 0.79624786107 -0.058397973498 
-0.58750828967 0.80728869042 -0.055847827875 -0.57632931338 0.81543917556 -0.053883889134 -0.56757468743 0.82165678762 -0.052336388291 
-0.56757468743 0.82165678762 -0.052336388291 
