# vtk DataFile Version 4.1
vtk output
ASCII
DATASET POLYDATA
POINTS 224 float
99.046 -6.48424 -179.368 98.7714 -6.56925 -177.929 98.4971 -6.65459 -176.49 
98.224 -6.74127 -175.051 97.9529 -6.83025 -173.611 97.6848 -6.92249 -172.17 
97.4205 -7.01886 -170.728 97.1608 -7.12016 -169.286 96.9065 -7.22708 -167.843 
96.6586 -7.34021 -166.399 96.4176 -7.45998 -164.955 96.1845 -7.58671 -163.512 
95.9597 -7.72055 -162.07 95.744 -7.86151 -160.631 95.5379 -8.00946 -159.195 
95.3419 -8.16411 -157.763 95.1563 -8.32506 -156.336 94.9816 -8.49178 -154.917 
94.8178 -8.66361 -153.506 94.6652 -8.83983 -152.104 94.5237 -9.01963 -150.712 
94.3933 -9.20213 -149.333 94.2738 -9.38642 -147.966 94.165 -9.57156 -146.613 
94.0665 -9.75658 -145.274 93.9781 -9.94055 -143.951 93.8992 -10.1225 -142.643 
93.8294 -10.3016 -141.352 93.7681 -10.4768 -140.078 93.715 -10.6475 -138.82 
93.6694 -10.8128 -137.58 93.6309 -10.9719 -136.356 93.5991 -11.1244 -135.149 
93.5735 -11.2695 -133.959 93.5538 -11.4069 -132.784 93.5397 -11.536 -131.624 
93.531 -11.6566 -130.479 93.5276 -11.7685 -129.347 93.5294 -11.8715 -128.227 
93.5364 -11.9656 -127.117 93.5488 -12.0507 -126.016 93.5668 -12.1271 -124.921 
93.5906 -12.1948 -123.831 93.6205 -12.2543 -122.744 93.6569 -12.3057 -121.655 
93.7004 -12.3494 -120.564 93.7514 -12.386 -119.466 93.8103 -12.4157 -118.359 
93.8779 -12.4391 -117.24 93.9547 -12.4566 -116.106 94.0411 -12.4686 -114.953 
94.1379 -12.4756 -113.778 94.2456 -12.4779 -112.578 94.3647 -12.4758 -111.351 
94.4956 -12.4696 -110.093 94.6387 -12.4594 -108.802 94.7945 -12.4455 -107.475 
94.9631 -12.4279 -106.111 95.1448 -12.4065 -104.706 95.3396 -12.3813 -103.259 
95.5474 -12.3522 -101.769 95.7682 -12.3189 -100.234 96.0016 -12.2812 -98.6543 
96.2472 -12.2389 -97.0285 96.5045 -12.1915 -95.3566 96.7729 -12.1388 -93.6389 
97.0516 -12.0803 -91.8759 97.3396 -12.0158 -90.0687 97.636 -11.9448 -88.2185 
97.9396 -11.8669 -86.3272 98.2493 -11.7819 -84.3969 98.5636 -11.6893 -82.43 
98.8814 -11.5889 -80.4293 99.201 -11.4803 -78.3978 99.5212 -11.3634 -76.339 
99.8404 -11.2379 -74.2562 100.157 -11.1035 -72.1531 100.47 -10.9602 -70.0334 
100.778 -10.8078 -67.9009 101.078 -10.6462 -65.7593 101.371 -10.4752 -63.6123 
101.655 -10.2949 -61.4632 101.928 -10.1051 -59.3155 102.189 -9.90593 -57.1723 
102.438 -9.69729 -55.0363 102.673 -9.47924 -52.9104 102.894 -9.25182 -50.7967 
103.099 -9.01512 -48.6974 103.289 -8.76925 -46.6142 103.463 -8.51434 -44.5488 
103.62 -8.25059 -42.5024 103.76 -7.9782 -40.4762 103.883 -7.69743 -38.4709 
103.988 -7.4086 -36.4873 104.075 -7.11204 -34.526 104.144 -6.80816 -32.5873 
104.196 -6.49739 -30.6715 104.23 -6.18021 -28.7789 104.246 -5.85716 -26.9094 
104.244 -5.52877 -25.0632 104.225 -5.19567 -23.2401 104.189 -4.85845 -21.44 
104.135 -4.51776 -19.6627 104.064 -4.17427 -17.908 103.976 -3.82864 -16.1754 
103.872 -3.48153 -14.4646 103.75 -3.13361 -12.775 103.613 -2.78554 -11.106 
103.459 -2.43795 -9.45699 103.288 -2.09148 -7.8271 103.102 -1.74672 -6.21543 
102.899 -1.40426 -4.62096 102.679 -1.06465 -3.04255 102.444 -0.728441 -1.47895 
102.191 -0.396132 0.0712117 101.922 -0.0682214 1.60944 101.635 0.254814 3.13733 
101.331 0.57251 4.65663 101.009 0.884415 6.16916 100.669 1.19008 7.67687 
100.31 1.48906 9.18179 99.9315 1.78091 10.6861 99.533 2.06517 12.1919 
99.1136 2.34139 13.7015 98.6728 2.6091 15.2172 98.2097 2.86781 16.7414 
97.7236 3.11703 18.2764 97.2135 3.35626 19.8247 96.6786 3.58498 21.3885 
96.118 3.80269 22.9702 95.531 4.00885 24.5719 94.9165 4.20296 26.1958 
94.274 4.3845 27.844 93.6025 4.553 29.5181 92.9015 4.70799 31.2199 
92.1705 4.84903 32.9507 91.409 4.97575 34.7117 90.6167 5.08779 36.5037 
89.7935 5.18488 38.3272 88.9396 5.26681 40.1823 88.0551 5.33343 42.0687 
87.1407 5.38468 43.9857 86.197 5.42057 45.9323 85.225 5.44122 47.9068 
84.2259 5.44683 49.9074 83.201 5.43768 51.9315 82.152 5.41415 53.9765 
81.0807 5.3767 56.0392 79.989 5.32588 58.1162 78.8789 5.26232 60.2038 
77.7527 5.1867 62.2982 76.6125 5.09976 64.3955 75.4605 5.00232 66.4917 
74.2991 4.8952 68.5828 73.1302 4.77927 70.6652 71.9559 4.65541 72.7352 
70.7781 4.52449 74.7895 69.5984 4.3874 76.8251 68.4184 4.24499 78.8394 
67.2393 4.09809 80.8303 66.0622 3.94749 82.7959 64.8879 3.79393 84.735 
63.7169 3.63814 86.6467 62.5496 3.48076 88.5307 61.3859 3.3224 90.387 
60.2258 3.16363 92.2162 59.0689 3.00495 94.0189 57.9145 2.84685 95.7965 
56.762 2.68975 97.5505 55.6104 2.53406 99.2827 54.4585 2.38016 100.995 
53.3053 2.22839 102.69 52.1492 2.0791 104.37 50.989 1.93259 106.037 
49.823 1.78918 107.694 48.6495 1.64917 109.344 47.467 1.51282 110.99 
46.2737 1.38042 112.635 45.0678 1.2522 114.281 43.8474 1.12839 115.931 
42.6108 1.0092 117.589 41.3562 0.894781 119.258 40.0817 0.785261 120.939 
38.7856 0.680711 122.636 37.4661 0.581146 124.351 36.1215 0.486515 126.088 
34.7502 0.396691 127.847 33.3506 0.311464 129.632 31.9212 0.230534 131.443 
30.4606 0.153497 133.283 28.9675 0.0798448 135.152 27.4405 0.00894936 137.051 
25.8786 -0.059939 138.981 24.2806 -0.1277 140.941 22.6456 -0.195348 142.931 
20.9726 -0.264035 144.95 19.2607 -0.335055 146.996 17.5091 -0.409841 149.067 
15.7171 -0.489961 151.161 13.8839 -0.577114 153.275 12.0089 -0.673115 155.405 
10.0913 -0.779884 157.549 8.13052 -0.899424 159.701 6.12596 -1.03379 161.859 
4.077 -1.18508 164.017 1.9831 -1.35537 166.172 -0.156242 -1.54668 168.318 
-2.34145 -1.76095 170.453 -4.57283 -1.99998 172.571 -6.85053 -2.26537 174.669 
-9.17454 -2.55848 176.744 -11.5446 -2.88036 178.792 -13.9601 -3.23171 180.813 
-16.4201 -3.61286 182.804 -18.9235 -4.02368 184.764 -21.4683 -4.46358 186.692 
-24.0525 -4.93148 188.591 -26.6732 -5.4258 190.46 -29.3273 -5.94444 192.302 
-32.0109 -6.48482 194.119 -34.7197 -7.04391 195.915 -37.449 -7.61824 197.694 
-40.1935 -8.20398 199.459 -42.9478 -8.79702 201.217 
LINES 1 225
224 223 222 221 220 219 218 217 216 215 214 213 212 211 210 209 208 207 206 205 204 203 202 201 200 199 198 197 196 195 194 193 192 191 190 189 188 187 186 185 184 183 182 181 180 179 178 177 176 175 174 173 172 171 170 169 168 167 166 165 164 163 162 161 160 159 158 157 156 155 154 153 152 151 150 149 148 147 146 145 144 143 142 141 140 139 138 137 136 135 134 133 132 131 130 129 128 127 126 125 124 123 122 121 120 119 118 117 116 115 114 113 112 111 110 109 108 107 106 105 104 103 102 101 100 99 98 97 96 95 94 93 92 91 90 89 88 87 86 85 84 83 82 81 80 79 78 77 76 75 74 73 72 71 70 69 68 67 66 65 64 63 62 61 60 59 58 57 56 55 54 53 52 51 50 49 48 47 46 45 44 43 42 41 40 39 38 37 36 35 34 33 32 31 30 29 28 27 26 25 24 23 22 21 20 19 18 17 16 15 14 13 12 11 10 9 8 7 6 5 4 3 2 1 0 

CELL_DATA 1
FIELD FieldData 2
LengthArray 1 1 double
436.24581343 
TortuosityArray 1 1 double
0.073922863881 
POINT_DATA 224
FIELD FieldData 8
RadiusArray 1 224 double
30.917098773 31.322293311 31.365013319 32.386331073 34.245696378 35.518164044 35.865706714 39.765270134 39.971611683 
42.496427296 43.427632945 44.78337403 45.407002733 46.333108568 46.865443221 47.111148339 47.121414262 47.366866771 
47.60752599 47.68276479 48.156598702 48.384581045 48.621201116 48.844025989 49.076903434 49.218274336 49.336328471 
49.739521644 49.756075409 50.249651356 50.319209376 50.932968748 51.152995719 51.723718972 51.756188576 51.891300858 
52.0398105 52.054545356 52.084262716 52.088802258 52.101716736 52.12093295 52.137682028 52.144935844 52.161981715 
52.243841421 52.255946034 52.344959999 52.357335242 52.420765781 52.507552212 52.662387505 52.661257055 52.637152028 
52.636190822 52.625737275 52.616816906 52.617057625 52.611472701 52.570342249 52.562751149 52.506559238 52.425481454 
52.418348613 52.330224271 52.272730725 52.210018728 52.173469865 52.16655589 52.082089324 51.588294677 51.249538958 
51.013866698 50.773795719 50.553061337 50.521180484 50.347985866 50.091450427 50.016029106 49.903180213 49.757879401 
49.714157734 49.527815702 49.321355199 49.289688483 49.141266686 49.132967344 49.082928936 48.979530903 49.019556044 
49.011390642 48.978946253 48.936167448 48.850103838 48.824017332 48.704745492 48.584265752 48.556718139 48.555995284 
48.410031727 48.380135566 48.3545388 48.333061817 48.33647484 48.309505594 48.312046084 48.319653949 48.351138986 
48.353430244 48.368675288 48.379112779 48.427788535 48.443502349 48.661960265 48.666326488 48.813956679 48.855015248 
49.073378561 49.078030123 49.107543511 49.110404599 49.156777037 49.218351172 49.220957023 49.352956965 49.449213762 
49.651812747 49.771611741 49.892765913 49.96295196 50.07764179 50.095115736 50.107462278 50.128442556 50.221727806 
50.229789855 50.244303302 50.327900562 50.346480631 50.384839071 50.459544678 50.480197336 50.438437575 50.498203298 
50.655350811 50.881479664 50.939931818 50.846858642 50.926830483 51.255943185 51.42652988 52.052606205 52.367972589 
52.371883352 52.775324305 53.096073131 53.546942846 54.145846482 54.219960009 54.635285985 54.7924157 54.802370721 
54.937504193 55.533180507 55.93197155 55.99962645 56.59365616 56.622882321 56.873367754 57.221002858 57.758547665 
57.909513735 58.114211257 58.363300899 58.408143544 58.535538853 58.865776642 59.085249995 59.340917427 59.546904693 
59.734192278 59.749845664 59.769593521 60.017675683 60.049349434 60.520715765 60.629143915 61.005344875 61.378623709 
61.784352107 61.799314116 62.145461473 62.362112891 62.811827373 63.051278798 63.356248869 63.49226262 64.082787535 
64.615002266 64.662041976 64.992453132 64.995305731 65.499936474 66.645700731 67.584811415 67.84007079 68.530448947 
68.593274025 68.696510097 69.940670229 70.353425071 70.943816928 71.162404775 71.524220009 71.920821115 71.962112228 
69.112685633 68.600939264 67.902798074 63.153705474 61.275079037 59.300526319 56.698316038 54.438476268 
EdgeArray 2 224 int
3177 3177 3777 4283 310 3777 4571 310 4816 
4816 4318 4318 4615 1805 4633 4615 4962 4633 
7453 7453 8474 8334 12299 12299 12942 12942 13140 
13140 13726 13726 13727 13885 13885 12793 12793 13829 
13901 13829 13901 13813 14142 14142 14256 12983 14256 
14264 14710 14264 13948 14639 14850 14851 14851 14851 
15379 14364 15379 15041 15041 14794 14794 14794 15636 
15636 15638 15638 15985 15985 15984 15983 15434 15327 
16059 15925 16233 15925 16233 16233 16234 16229 16230 
16229 16230 16230 16231 16225 16225 16225 16224 16224 
16054 16221 16054 16054 16453 16453 16451 14871 16068 
16068 16066 16066 17055 17055 17268 17258 16717 17261 
17261 17539 17538 16108 17952 17952 17879 17663 16254 
17969 16399 17747 17229 17229 17648 17648 16654 16654 
18514 17458 17888 18155 18174 18174 18456 18456 17649 
17649 18170 18170 19262 19262 18474 18959 19321 19321 
18501 18501 18476 18476 20584 20584 19497 18979 20868 
20868 21094 21094 21096 20866 17603 17603 20410 20190 
21529 19745 18087 21501 20070 21277 21738 19799 22198 
22199 22198 22204 22151 20695 22160 22160 21886 22905 
22443 21886 18969 22443 22980 22980 22470 22546 22470 
22479 19516 19516 18647 18647 23061 23061 23520 23032 
18945 23364 24344 17279 23505 23505 19895 19895 22507 
22507 24321 24321 24377 24376 24376 24376 24367 24367 
21930 21930 24203 25241 25241 25241 25240 25235 25235 
25507 25507 25507 24084 25780 25780 25780 25779 25779 
25784 25777 25777 25777 25787 25765 25787 24136 24136 
24136 25504 25504 26286 26291 18297 26291 18297 18297 
24218 24218 25283 20032 25104 25104 18825 18825 23721 
25723 27040 27044 27045 27043 26989 26989 26990 26990 
25206 26392 25206 27496 27497 27007 27010 27498 25975 
26500 27267 25196 27204 27194 19758 19758 28004 28004 
27620 27620 28800 28800 22205 22205 28976 28551 27513 
27513 26300 26300 28885 29639 26758 26758 28028 29546 
29546 29546 29829 29829 28886 28886 30052 27284 27284 
30641 30531 30641 29051 30650 30650 30649 30649 28611 
30638 29677 29074 29074 31279 31279 29109 29219 31293 
31293 29276 29276 31788 31788 31960 31960 31961 31961 
31793 31793 31790 31789 31789 32135 32883 32135 31090 
13225 26970 26970 32893 32893 32902 32902 32903 33035 
33035 33035 33034 33039 33039 33292 33294 33292 33293 
33294 32349 32349 33424 31198 33418 33418 33422 33428 
33695 33695 33702 33286 33706 33706 33711 33707 34468 
34468 32544 17035 32855 32855 34363 32673 32673 34262 
33186 34263 34808 34808 34640 14954 33699 34640 15303 
15303 15006 15006 34045 35908 35810 35503 34645 34645 
34423 35685 28651 36081 35022 35022 36954 36954 36318 
36285 35580 35580 35839 35839 37489 37489 47660 43373 
48126 48126 45142 44424 43304 41143 50682 50681 50677 
50682 50133 50677 45238 45238 51232 51232 
EdgePCoordArray 1 224 double
0 0.024 0.94 0.864 0 0 0.96 0.276 0.7 
0 0.88 0 0 0 0 0.94 0.076 0.74 
0.344 0.032 0 0.52 0.212 0.304 0.984 0.472 0 
0.02 0.224 0.872 0 0 0 0 0.412 0.652 
0.948 0.712 0 0.176 0.792 0 0.064 0 0 
0.312 0 0 0.048 0 0 0 0.828 0.876 
0.32 0.016 0 0.04 0.8 0.956 0 0 0 
0.984 0.824 0 0 0 0 0 0.84 0 
0 0 0 0.048 0 0 0.88 0 0.82 
0.596 0.644 0.56 0.66 0.128 0.22 0.704 0 0.052 
0.612 0.796 0 0.112 0.176 0 0 0 0.988 
0.144 0.956 0 0 0 0 0.14 0 0 
0 0.32 0 0.732 0.008 0 0.016 0 0 
0.648 0 0.028 0.088 0 0 0.012 0.6 0 
0 0.836 0 0 0.02 0.96 0.192 0 0 
0.7 0.052 0.732 0.344 0.46 0.256 0.644 0 0 
0 0 0 0.156 0 0 0.164 0 0.984 
0 0 0 0.032 0.852 0.796 0.412 0.972 0.02 
0.472 0 0 0.912 0 0 0 0 0 
0 0.112 0.9 0.832 0.848 0 0 0 0.5 
0 0.432 0.072 0.196 0.88 0 0.032 0 0.452 
0 0.008 0 0.064 0 0.1 0 0.02 0.82 
0.08 0 0.092 0.916 0 0 0.372 0.116 0 
0.844 0.556 0 0 0.72 0 0 0 0.132 
0 0.976 0.956 0.612 0.46 0.404 0 0 
CurvatureArray 1 224 double
0 0.00021019335711 0.00083705849886 0.0014545150051 0.0020528460301 0.0026243712842 0.003161450774 0.0036495485614 0.0040882564096 
0.0044738063954 0.0048084513336 0.0050801458731 0.0053069513171 0.0054732592375 0.0055939444159 0.0056678229184 0.0056972190923 0.0056912073374 
0.0056453027703 0.0055802793865 0.0054727568341 0.0053544397883 0.005218781364 0.0050792597397 0.0049406862461 0.0048168444699 0.0047216866705 
0.0046686337927 0.0046731671416 0.0047348471092 0.0048807861112 0.005093800697 0.0053677065142 0.0056977265834 0.0060730509973 0.0064706876052 
0.006878103429 0.0072780346965 0.0076479780443 0.007983666934 0.0082678438178 0.0084929252132 0.0086412751573 0.0087120014606 0.0087155018492 
0.0086398133082 0.0084999960105 0.0082926720418 0.0080349750036 0.0077234926294 0.0073814874266 0.0069921667004 0.0065901788449 0.0061601666678 
0.005717715986 0.005267938327 0.0048187405747 0.0043701284164 0.0039337159192 0.0035164156599 0.0031207483972 0.0027581670109 0.0024250965884 
0.0021385597545 0.001893804828 0.0017003471179 0.001563595647 0.0014829479819 0.0014560922138 0.0014749640926 0.0015296119098 0.0016119205877 
0.0017110193582 0.0018249247012 0.0019479229334 0.002076771503 0.0022122961513 0.0023530094705 0.0025010703786 0.0026532871527 0.0028099550254 
0.0029703569882 0.0031391071962 0.0033099152829 0.0034868847844 0.0036634174129 0.0038430536493 0.004022184992 0.0041996599972 0.0043720360644 
0.0045423287963 0.0047036406916 0.0048614409301 0.0050037011191 0.0051411314237 0.0052671624495 0.005381697202 0.00548563144 0.0055852351108 
0.0056707608067 0.0057577286771 0.0058339198208 0.0059143600454 0.0059885869562 0.0060698363372 0.0061565905635 0.006246250821 0.0063457466328 
0.0064600116103 0.0065774054267 0.0067125904341 0.0068555946564 0.0070067063294 0.0071658225653 0.0073356278842 0.0075007725584 0.0076690702327 
0.0078364037389 0.0079927623428 0.0081369928922 0.0082596032195 0.0083711738267 0.0084465222059 0.0085050419553 0.0085193935452 0.0085069303045 
0.0084563113584 0.0083651524 0.0082395229891 0.0080793235416 0.0078769660127 0.0076514365288 0.0073924156556 0.0071107314856 0.0068096413727 
0.0064951293567 0.0061725147228 0.0058462890757 0.0055199136997 0.0051994896894 0.0048880057223 0.0045901394248 0.0043067610842 0.004040430315 
0.0037926297426 0.0035654191675 0.0033569192368 0.003169065116 0.0030021280161 0.0028539762232 0.0027259617627 0.0026161781569 0.0025241182061 
0.0024511795074 0.002392013288 0.0023517246777 0.0023244010087 0.0023094584962 0.0023086928752 0.0023181454538 0.0023353291461 0.0023613563278 
0.0023900781975 0.0024237967845 0.0024585862614 0.0024909232717 0.0025220552245 0.0025502927802 0.0025717149156 0.0025900537612 0.0026006508504 
0.0026070039716 0.0026057829272 0.0025979596734 0.0025855594705 0.0025650348774 0.0025367515684 0.0025005129587 0.0024564632448 0.0024030664906 
0.0023407622867 0.0022686886981 0.0021883188046 0.0020993978609 0.0020021406893 0.0019003228674 0.0017992014823 0.0016977824964 0.0016027774506 
0.0015256252977 0.0014673036196 0.0014419753808 0.001459974837 0.001520962179 0.0016290855979 0.0017852032254 0.0019796114885 0.0022115576997 
0.0024702150386 0.0027565237293 0.003059504697 0.0033774104883 0.0037031065301 0.0040327668709 0.0043584515562 0.0046723351548 0.0049674649364 
0.0052338027189 0.0054597231452 0.0056383457449 0.0057572288798 0.0058096358622 0.0057867603061 0.0056800001736 0.0054915137417 0.0052141188863 
0.0048536596183 0.0044140361489 0.0038998318033 0.0033184676891 0.0026776051012 0.0019923351126 0.0012662968564 0 
TorsionArray 1 224 double
0 0 -6.627136327e-05 0.0013111401892 0.0029524849859 0.0050303862361 0.005784256296 0.0067907134124 0.0085549946678 
0.0104238137 0.011777175271 0.013603333374 0.015543346064 0.01729459691 0.019621540907 0.021858247472 0.024574830696 0.027657105385 
0.031214613547 0.034789593475 0.039232206505 0.04484353556 0.050735948406 0.057508783839 0.065247766602 0.073264191314 0.080893098006 
0.087351872551 0.091329167439 0.091820981862 0.087651496025 0.081009590211 0.071595881566 0.059343848445 0.047282110538 0.035375155975 
0.02330428733 0.013252674935 0.0031970613696 -0.0067259838705 -0.015420356339 -0.022725968695 -0.028866659849 -0.035138347617 -0.040031572586 
-0.043679514068 -0.045757130033 -0.04640614823 -0.045672866581 -0.043672813128 -0.040065719724 -0.035517961427 -0.030247847576 -0.023851766267 
-0.01730921447 -0.010347525477 -0.0030102227315 0.0046859817122 0.012622351512 0.021118621503 0.03015725361 0.040272475575 0.051554617043 
0.06318564406 0.076028573019 0.087057209598 0.094175553913 0.095691092495 0.090241620906 0.079778472585 0.068117589874 0.055889874105 
0.045371748671 0.037139471401 0.02979088682 0.024229645969 0.020035220644 0.01674772048 0.014098906727 0.011748550679 0.0098149761492 
0.0086853348055 0.0076615375032 0.0068531528377 0.0062385775964 0.0058044428001 0.0056060527697 0.0054569368255 0.0054322342885 0.0056488640463 
0.0059786552951 0.0064422761071 0.0068642417686 0.0074578647668 0.0082920996569 0.0090728082359 0.0099497369505 0.011081586062 0.012172845573 
0.013400581636 0.01468142769 0.0160067578 0.017305458469 0.018628403332 0.020032095989 0.021215439547 0.022363785109 0.02347112038 
0.024331579582 0.025099051098 0.025674910677 0.026072168007 0.026334638116 0.026427124736 0.026374413672 0.026235437494 0.025900642342 
0.025485896556 0.02500552593 0.024473973248 0.023735108107 0.022962779689 0.022118760177 0.021177211092 0.020263853381 0.019072508495 
0.018069152511 0.016927902981 0.015616974178 0.014585835911 0.013375981466 0.012096547897 0.01109302553 0.009953321785 0.0088655087487 
0.0077573590172 0.0066981320759 0.0057430429011 0.0047756423356 0.0037784207754 0.0027455310612 0.0016776001708 0.0006525087258 -0.00045469026709 
-0.0017050600778 -0.0029717434825 -0.0042409916427 -0.0057643506892 -0.0072853430903 -0.0088437484013 -0.010494176976 -0.012059046844 -0.013761706329 
-0.015199643516 -0.016624238829 -0.017960179713 -0.018827585362 -0.019713820545 -0.020412336871 -0.020776394969 -0.021063100604 -0.021173415354 
-0.021321502503 -0.021462603466 -0.021544841835 -0.02179906222 -0.022153145362 -0.022606344815 -0.023184121734 -0.02382471715 -0.024528878273 
-0.025175727365 -0.025784479366 -0.026153299667 -0.026282233236 -0.026232162832 -0.025809179462 -0.024959882612 -0.023669249238 -0.021941273312 
-0.019801936417 -0.017041657045 -0.013674842629 -0.0098761494516 -0.0052579006059 0.00070095910235 0.007461281809 0.014876303387 0.023934861604 
0.033142727846 0.041592670528 0.048364230755 0.050874601827 0.049040787239 0.043885597136 0.03687019404 0.029745641456 0.02337029958 
0.018103261647 0.013922090185 0.010744101947 0.0082888696653 0.0064149116196 0.004975743404 0.0039008783019 0.0030601269371 0.0024040781475 
0.0019278479454 0.0015400624813 0.0012312092773 0.00098744747504 0.00077983265984 0.00065510297018 0.00052749237796 0.00042534521242 0.00036570608789 
0.00027287577286 0.00020838002538 0.00017128439412 0.00017788954555 0.0001330824474 3.123699226e-05 0 0 
TangentArray 3 224 double
0.18703825597 0.058048293845 -0.98063606215 0.18703825597 0.058048293845 -0.98063606215 0.18651774676 0.058609776505 -0.9807018019 
0.18537884497 0.059839015326 -0.98084350234 0.1836312967 0.061717585272 -0.98105580195 0.18128846448 0.064213203766 -0.98133131872 
0.17836517199 0.067279215892 -0.98166153665 0.1748893891 0.07085822965 -0.98203503648 0.1708961515 0.074883088369 -0.9824393256 
0.16641792241 0.079277438096 -0.98286324731 0.16148768754 0.083960968097 -0.98329664019 0.15614857469 0.088850280716 -0.98372925657 
0.15044099722 0.093861451799 -0.98415320668 0.14440634491 0.09891058213 -0.98456259542 0.1380931136 0.10391665965 -0.98495259775 
0.13154295901 0.1088021343 -0.98532154422 0.12480344147 0.11349398018 -0.98566891879 0.11791861916 0.11792393416 -0.98599652383 
0.11093401082 0.12202727816 -0.98630775554 0.10389016126 0.12574716585 -0.98660756366 0.096835866068 0.12903274541 -0.98690088948 
0.089819674527 0.13183678024 -0.98719374463 0.08287742262 0.13411666198 -0.98749382469 0.07604961253 0.13583862633 -0.9878078376 
0.069372302115 0.13697383338 -0.98814252649 0.062878400182 0.13749669133 -0.98850440903 0.056593470868 0.13738840266 -0.98889918893 
0.050536314447 0.13663626934 -0.98933139585 0.044717256804 0.13523182354 -0.98980438514 0.039143850899 0.13317325143 -0.99031946565 
0.033808048343 0.13046393937 -0.99087646879 0.028688284834 0.12711441959 -0.99147309931 0.023767067967 0.12314051625 -0.99210460121 
0.019015014583 0.11856364347 -0.99276436865 0.014384272348 0.11341617222 -0.99344343804 0.0098261994603 0.10773567175 -0.99413101291 
0.0052890132321 0.1015693836 -0.99481439809 0.00071151424976 0.094976614514 -0.99547924963 -0.0039566603952 0.088023339879 -0.99611055434 
-0.008770282942 0.080787203371 -0.99669278612 -0.01378796533 0.073355769933 -0.99721052092 -0.019056771974 0.065822348251 -0.99764936622 
-0.024607189021 0.058284738958 -0.99799668108 -0.03045201483 0.050842457872 -0.99824231491 -0.036603477755 0.043592208591 -0.99837863798 
-0.043055352193 0.036623058638 -0.99840121606 -0.049783809398 0.030014015701 -0.99830893574 -0.056749104067 0.023826635454 -0.99810411813 
-0.063898585994 0.018104486764 -0.99779216186 -0.071169754601 0.012872178623 -0.99738115736 -0.078496256648 0.0081342869077 -0.99688122215 
-0.085802661441 0.0038765828765 -0.99630460974 -0.09301654616 6.8864046827e-05 -0.99566456068 -0.10007172925 -0.0033321860639 -0.99497464568 
-0.10689840289 -0.0063792792211 -0.99424948391 -0.11343864403 -0.0091296683077 -0.99350305646 -0.1196417569 -0.011642975602 -0.99274885602 
-0.12546119429 -0.013977248701 -0.99200006313 -0.13085732771 -0.016187103417 -0.99126905403 -0.13580223024 -0.018322415906 -0.99056652646 
-0.1402731299 -0.020426534823 -0.98990211925 -0.14425645248 -0.022535602595 -0.98928369163 -0.14774087075 -0.024679657496 -0.98871813456 
-0.15072304006 -0.026882943134 -0.98821043941 -0.15320514569 -0.029162981556 -0.98776399197 -0.15518691851 -0.031532623112 -0.98738174685 
-0.15667670336 -0.034001320981 -0.98706449678 -0.15768511695 -0.036575110325 -0.9868118692 -0.15822273783 -0.039258176861 -0.98662270437 
-0.15830305714 -0.042053034511 -0.98649464489 -0.15794114149 -0.044961038514 -0.98642440199 -0.15714756727 -0.047983828926 -0.9864087359 
-0.15593709515 -0.051122938694 -0.98644313952 -0.1543232424 -0.054380325786 -0.98652274025 -0.15231383466 -0.057758584207 -0.98664301635 
-0.1499226888 -0.061261087655 -0.98679798668 -0.14715993751 -0.064891692407 -0.98698177341 -0.14403176677 -0.068654253578 -0.98718865655 
-0.14054202656 -0.072553541146 -0.98741274168 -0.1366941559 -0.076593530656 -0.98764778074 -0.1324951686 -0.080777702411 -0.98788662968 
-0.12795230743 -0.08510919839 -0.98812176951 -0.12306532306 -0.089589019404 -0.98834646449 -0.11783595938 -0.094217037913 -0.98855340596 
-0.11226788249 -0.098990841178 -0.98873491691 -0.10636599196 -0.10390490371 -0.98888323211 -0.10013742739 -0.10895062962 -0.98899052369 
-0.093587520201 -0.11411690339 -0.98904939635 -0.086725799859 -0.1193896227 -0.98905245242 -0.079564608958 -0.12475071163 -0.98899278711 
-0.072114414807 -0.13017919418 -0.98886444399 -0.064387479595 -0.13565053131 -0.98866232144 -0.056396130548 -0.14113813652 -0.98838226556 
-0.048158253589 -0.14661308143 -0.9880209446 -0.039691611497 -0.15204439773 -0.9875763652 -0.031007698437 -0.15740031132 -0.98704795458 
-0.022124716978 -0.16264771968 -0.98643611865 -0.013059765376 -0.16775379073 -0.98574241474 -0.0038223890156 -0.17268615671 -0.98496948208 
0.0055738856901 -0.17741259701 -0.98412077624 0.015119716697 -0.18190255699 -0.98320031221 0.024808136422 -0.18612661505 -0.98221252259 
0.034632578243 -0.19005676398 -0.98116207172 0.044588963608 -0.19366736383 -0.98005345595 0.054673367034 -0.19693388069 -0.97889114286 
0.064890662827 -0.19983315373 -0.97767883916 0.07523921899 -0.20234409985 -0.97641995329 0.085719106283 -0.20444661289 -0.97511733514 
0.096338620727 -0.20612180249 -0.97377239265 0.10709848314 -0.2073518685 -0.97238630057 0.11800029243 -0.20811960487 -0.97095940237 
0.12904857805 -0.20840877219 -0.96949071588 0.14023911433 -0.208203959 -0.96797939145 0.15156767843 -0.20749039181 -0.96642380774 
0.16303230083 -0.20625424444 -0.96482104845 0.17462165501 -0.20448317378 -0.96316868161 0.18631960858 -0.20216662542 -0.9614643306 
0.19811469931 -0.19929595162 -0.95970395935 0.20998649396 -0.19586551579 -0.95788432082 0.22190846177 -0.19187336933 -0.95600274306 
0.23384863457 -0.18732169621 -0.95405733488 0.24577979732 -0.18221736719 -0.95204470605 0.25766668072 -0.17657308697 -0.94996306592 
0.26947385889 -0.17040706452 -0.94781077845 0.2811632333 -0.16374416329 -0.94558716427 0.29269308757 -0.15661591436 -0.94329327987 
0.30403064873 -0.14905974893 -0.94092856045 0.31513445787 -0.14111936847 -0.93849645567 0.32596932149 -0.13284390383 -0.93600026638 
0.33650759639 -0.12428699161 -0.93344275737 0.34671408914 -0.11550593392 -0.9308317354 0.3565650028 -0.10656049401 -0.92817361517 
0.36604238585 -0.097511245583 -0.92547529883 0.37512547295 -0.088418627143 -0.92274754181 0.38380362027 -0.079341343678 -0.91999985448 
0.39207067926 -0.070335246087 -0.91724235381 0.3999269119 -0.061452248082 -0.91448460148 0.40737684535 -0.052739154736 -0.91173608431 
0.4144271851 -0.04423724249 -0.90900669669 0.42108975008 -0.035982047346 -0.90630497883 0.42738115058 -0.028002586462 -0.90363776331 
0.43332226223 -0.020321655479 -0.90100990415 0.43893660056 -0.01295629509 -0.89842461849 0.44424822529 -0.0059180194045 -0.89588419529 
0.44928381695 0.0007866573673 -0.89338873566 0.45407320492 0.0071555263601 -0.89093564471 0.45864522813 0.013189726356 -0.88852157308 
0.46302792579 0.018893591271 -0.88614229791 0.4672527501 0.024273527226 -0.88379050878 0.47134865376 0.029337278752 -0.88145888768 
0.47534359894 0.034093754971 -0.87913939669 0.47926515896 0.038552188962 -0.87682303581 0.48313767211 0.042721839944 -0.87450147752 
0.48698680218 0.046611573993 -0.87216467234 0.4908327237 0.050229783561 -0.86980469428 0.49469502711 0.053583918212 -0.86741316214 
0.49859232727 0.056680341169 -0.8649815201 0.50253482877 0.059524476894 -0.86250541014 0.50653428041 0.062120722383 -0.85997909197 
0.51060018256 0.064472259024 -0.85739767984 0.5147352022 0.066581050763 -0.85475998695 0.51894105598 0.068448335666 -0.85206514174 
0.52321519359 0.070074385575 -0.84931468943 0.52755235693 0.071457745742 -0.84651184355 0.53194678527 0.072596487381 -0.84366010197 
0.53638670635 0.073488091214 -0.84076679388 0.5408595512 0.074128841269 -0.83783999711 0.54535338459 0.074514794744 -0.83488755607 
0.54985219971 0.074641528297 -0.83192018892 0.55434048273 0.074504862029 -0.82894852358 0.55880251591 0.074101093722 -0.82598352049 
0.56322188767 0.073427467375 -0.82303676241 0.56758267526 0.072483021923 -0.82011957559 0.57186726761 0.071269100062 -0.81724448216 
0.57606124803 0.069790230778 -0.81442173486 0.58014982308 0.068054639617 -0.81166172067 0.58411683256 0.066074605871 -0.80897569332 
0.58794827705 0.063867191726 -0.80637324195 0.59163278803 0.061454392553 -0.80386192954 0.59516110039 0.058863471363 -0.80144766287 
0.598526748 0.056126503754 -0.79913424874 0.60172658591 0.05327934491 -0.79692309994 0.60476255529 0.050362220291 -0.79481186358 
0.60764163851 0.047418263287 -0.7927945178 0.61037365497 0.044492544578 -0.79086308221 0.61297491826 0.041631539831 -0.7890047937 
0.61547248027 0.038882209906 -0.78719870413 0.61789623247 0.036291230688 -0.7854216654 0.62027755849 0.033904209771 -0.78364931889 
0.62266019839 0.031765588818 -0.78184731547 0.6250891812 0.029917901591 -0.77997976558 0.62761071904 0.028401828663 -0.77800907545 
0.63028134277 0.027256402734 -0.77588821196 0.63315488861 0.026518525632 -0.7735707174 0.63628259266 0.026223142364 -0.77101025225 
0.63972120856 0.026403602655 -0.76815338643 0.64352401708 0.027091325992 -0.76494633766 0.64774148229 0.028315711655 -0.76133382468 
0.65241913951 0.030103742142 -0.7572602136 0.65759780981 0.032479510455 -0.75266871991 0.66331063372 0.03546346987 -0.74750340835 
0.66957829782 0.039071210909 -0.74171311406 0.67641150073 0.0433123335 -0.7352492934 0.68380776055 0.04818898379 -0.72806920581 
0.69175010767 0.053694203637 -0.7201379875 0.70020283948 0.059809918345 -0.71143429581 0.70911367814 0.066505480863 -0.70195071942 
0.71841273455 0.073736109547 -0.69169800418 0.72800932918 0.081441235463 -0.68071267198 0.73779819569 0.089544399049 -0.66905576975 
0.74766113596 0.097953423159 -0.65681652893 0.75746988173 0.10656110037 -0.64411498209 0.76709226579 0.11524755535 -0.63110019549 
0.77639187676 0.12388228147 -0.61795536573 0.78524062372 0.13232871812 -0.60488533891 0.79351966567 0.14044772057 -0.59211567956 
0.80112175175 0.14810130368 -0.57988787081 0.80795958106 0.15515807445 -0.56844286195 0.81396081293 0.16149540712 -0.55802063448 
0.8190675674 0.16700185717 -0.54885216564 0.82323474917 0.1715795928 -0.54115154172 0.82643286068 0.17514646225 -0.53510040511 
0.82863995982 0.17763534479 -0.53084979163 0.82863995982 0.17763534479 -0.53084979163 
NormalArray 3 224 double
0.67952028849 -0.72854192743 0.086480272391 0.67952028849 -0.72854192743 0.086480272391 0.67685786063 -0.73118598175 0.085032326754 
0.67749704876 -0.73077463479 0.083463657154 0.67977788138 -0.72888854385 0.081385027041 0.68421024267 -0.72499780109 0.078959054161 
0.69114721835 -0.71867244683 0.076324548706 0.69789700649 -0.71248047547 0.072878943532 0.70668984666 -0.70412537879 0.06925973988 
0.71712209676 -0.69386702909 0.06545566658 0.72951059541 -0.68118599363 0.061643598817 0.74246178977 -0.66740992691 0.057571522343 
0.75774421901 -0.65032948594 0.053807604233 0.77377682094 -0.63147788492 0.050051096311 0.79122088637 -0.60975237197 0.046599933993 
0.81008392182 -0.58469171113 0.043584888913 0.82966146187 -0.55676351159 0.040942042482 0.85071249402 -0.52417885606 0.039048423352 
0.87227902153 -0.4875462117 0.037788887913 0.8947735988 -0.44494177107 0.037510361925 0.91670665774 -0.39775517803 0.037943668821 
0.93868264923 -0.34249294009 0.039666989154 0.95927693466 -0.27923884528 0.042584385896 0.97716174136 -0.20729650283 0.046723560864 
0.99076237792 -0.1251571519 0.052207258318 0.99772820078 -0.032658556309 0.058922458123 0.9953711973 0.069295088877 0.066591067287 
0.9811506779 0.17820953909 0.074730900152 0.95336953337 0.29024633133 0.082726053899 0.91221736693 0.39974151526 0.089812006127 
0.86059660624 0.5003035788 0.095235551969 0.80328050799 0.587390959 0.098550934873 0.74403265037 0.66064411609 0.099823679845 
0.68906751461 0.7179118889 0.098936747914 0.64233782052 0.76037184643 0.09610816558 0.60411936221 0.79159354596 0.091757583856 
0.57681173308 0.81233694367 0.086005316865 0.56015749287 0.82460346417 0.079074079556 0.5515797602 0.83107364759 0.071248581842 
0.55363742112 0.83041383261 0.062437749337 0.56354019641 0.8243962384 0.052851576474 0.58119089649 0.8126558907 0.042515234405 
0.60364195726 0.79662742549 0.031640676163 0.63094644465 0.77556197708 0.020253485907 0.66248957641 0.74902385476 0.0084158267452 
0.69583282358 0.71819444875 -0.0036627057514 0.73049083996 0.68273733228 -0.01590181873 0.76396807467 0.64464415906 -0.028047978051 
0.79613778156 0.6037899469 -0.040029149279 0.82512390993 0.56258882643 -0.051617299906 0.85115483595 0.52114824198 -0.062769061888 
0.87256192923 0.48297793724 -0.073266580406 0.89050768508 0.44730324878 -0.083161688537 0.90400875252 0.41742673728 -0.092320606433 
0.91373867616 0.39360833425 -0.10076760836 0.91976396276 0.37718063154 -0.10848513261 0.92223340197 0.36898779356 -0.11547103748 
0.92088691416 0.37035107832 -0.12168553781 0.9153982008 0.38196474388 -0.12707898491 0.90490165175 0.40478249139 -0.13154518363 
0.88773421535 0.44015437024 -0.13487806812 0.86193710436 0.48820892896 -0.13680814966 0.8228700102 0.55153514404 -0.1367257518 
0.7672149793 0.62721921341 -0.13407920744 0.68778583546 0.71457972146 -0.12777506104 0.57942563578 0.80660843598 -0.11682792304 
0.44213911689 0.89125522826 -0.10088171004 0.28132296343 0.95623950468 -0.080395273147 0.11151250718 0.99210627387 -0.057359411558 
-0.049840908448 0.99815931711 -0.034552301129 -0.19112551826 0.98146385415 -0.014132914388 -0.3104936885 0.95056996989 0.0032251751915 
-0.40386691168 0.9146700176 0.016440089803 -0.47952100765 0.87712526451 0.026662212627 -0.53914534915 0.84152747851 0.033967564036 
-0.58538451553 0.80983347264 0.038661551514 -0.6229501333 0.78115872879 0.041523148493 -0.65316213736 0.7560120554 0.042719953264 
-0.67834298463 0.73350625167 0.042654120181 -0.69900412146 0.71391945788 0.041379292562 -0.71596797545 0.69704127693 0.039029685821 
-0.73006008956 0.68244695091 0.035755067015 -0.74300465412 0.66852475785 0.031917582975 -0.75375542794 0.6565889997 0.027269769292 
-0.76388344365 0.64497356248 0.02216276661 -0.77261400355 0.63466373846 0.016417691928 -0.78112593063 0.62428826799 0.010316925245 
-0.78900006115 0.61438154808 0.0037705289656 -0.79673029743 0.60432714889 -0.0030871143092 -0.80416869096 0.59431240245 -0.010270578147 
-0.81198177301 0.58341770893 -0.017589121474 -0.81978186715 0.57212513853 -0.025110080801 -0.8281290464 0.55958550395 -0.032654958072 
-0.83635403085 0.54670195099 -0.040359780193 -0.84530733336 0.53212428021 -0.047950626503 -0.85459159543 0.51632748946 -0.055489896768 
-0.86428934601 0.499046632 -0.062899805034 -0.87433204255 0.48023278601 -0.070142359622 -0.88502429557 0.45912289096 -0.077059504619 
-0.89577860698 0.43653552239 -0.083770071991 -0.90703472724 0.41131461839 -0.090046034183 -0.91819574129 0.3843139143 -0.096017685613 
-0.92946690726 0.35466503317 -0.10150853438 -0.94029851678 0.32320983939 -0.10664942128 -0.95078562328 0.28917705345 -0.11128041303 
-0.96054325694 0.2530278245 -0.11547108544 -0.96928857534 0.21507394962 -0.11925960723 -0.97685775466 0.17525439855 -0.12261656886 
-0.98301261944 0.13384596024 -0.1255844296 -0.98752238227 0.091383381916 -0.12825218139 -0.99027344957 0.047925742172 -0.13062012979 
-0.99113611929 0.0040015269965 -0.13278998763 -0.99005878419 -0.040149844805 -0.1348020542 -0.9870233833 -0.084224130526 -0.1367155319 
-0.98205718961 -0.12787183408 -0.13860905591 -0.97520175392 -0.17100151825 -0.14049918114 -0.96655449909 -0.21325071765 -0.14246589668 
-0.95623099256 -0.25440670541 -0.14456665283 -0.94432340305 -0.2944513087 -0.14680509959 -0.93098121821 -0.33317254873 -0.1492314448 
-0.91626989769 -0.37068090003 -0.15180627435 -0.90056961303 -0.40623930344 -0.15473849044 -0.88369640368 -0.44066383887 -0.15778481305 
-0.86624877724 -0.47286981274 -0.16126746768 -0.84789126585 -0.50388725446 -0.16485762372 -0.82927266513 -0.53272059432 -0.16886567223 
-0.81034547225 -0.55978273908 -0.1731574446 -0.79115853467 -0.58523954439 -0.17765936141 -0.77217942988 -0.60862052082 -0.18253763917 
-0.75350765996 -0.63006080818 -0.1877487267 -0.73477881837 -0.65027080658 -0.19299732173 -0.71707156007 -0.66805564512 -0.19877130769 
-0.69961446914 -0.68460759438 -0.20457770233 -0.68296063035 -0.6994298159 -0.21062457124 -0.66707258001 -0.71274331238 -0.21682053331 
-0.65214875713 -0.72448764598 -0.22320315724 -0.63829056978 -0.73470491161 -0.22976910451 -0.62551965973 -0.74350575158 -0.23648330314 
-0.61377013842 -0.75106850911 -0.24327414947 -0.60338023507 -0.75715950513 -0.25028339083 -0.59426622246 -0.76194954411 -0.25745009047 
-0.58683750952 -0.76512239428 -0.26497067611 -0.58092233873 -0.76689807929 -0.27275735069 -0.57674724113 -0.7670996727 -0.280928304 
-0.57445010762 -0.76561063064 -0.28956421758 -0.57444167358 -0.76202484419 -0.29888944527 -0.57637858382 -0.75661083489 -0.30875195972 
-0.58065810086 -0.74889044382 -0.31937325038 -0.58761347847 -0.73836661836 -0.33094582157 -0.59673738946 -0.72532202741 -0.3432381747 
-0.60846150079 -0.70900791572 -0.35648615331 -0.622294597 -0.68957103063 -0.3704608323 -0.63805950277 -0.66677613909 -0.38508395353 
-0.65580361558 -0.64001194509 -0.40038272682 -0.67416604817 -0.61049427808 -0.41568843613 -0.69375987223 -0.57678988813 -0.43128953689 
-0.71316507253 -0.54040606367 -0.44649397048 -0.73198449614 -0.50158005159 -0.46110318722 -0.75010972452 -0.46006500993 -0.47505324735 
-0.76684135104 -0.41688294224 -0.48801942052 -0.78186531635 -0.37259300214 -0.49986106254 -0.79512547453 -0.32727753467 -0.5105535183 
-0.80636527873 -0.28173314196 -0.52000141729 -0.81577893913 -0.23543895462 -0.52827381263 -0.82321357897 -0.18906996385 -0.53532415616 
-0.82875687569 -0.14244713155 -0.54117543893 -0.8324632888 -0.095309838485 -0.54582131462 -0.8343139371 -0.04762140358 -0.54922896525 
-0.83428285353 0.00086715000936 -0.55133598499 -0.83228988875 0.050117217621 -0.55207047157 -0.82823242052 0.10040645872 -0.55131624377 
-0.82199657409 0.1513781388 -0.54900481899 -0.8134551157 0.20308113374 -0.54502185999 -0.80254332198 0.25502150408 -0.53934056847 
-0.78930173102 0.30651223541 -0.53202728028 -0.77377657398 0.357235866 -0.52311791176 -0.75614168287 0.40660676215 -0.51275793158 
-0.73678437614 0.45373466087 -0.50127202256 -0.71617049372 0.49794998593 -0.48902518897 -0.69494406575 0.5384993617 -0.47651986625 
-0.6738045541 0.57482667711 -0.46428624163 -0.65351206678 0.60647117832 -0.45289589138 -0.63536996706 0.63223016286 -0.44338473826 
-0.62019182493 0.65188401008 -0.43635918426 -0.60905176095 0.66472735938 -0.43265863008 -0.60358455462 0.66907405736 -0.4336191776 
-0.60586713014 0.66215628678 -0.44099214563 -0.61581284719 0.64342179247 -0.45473391583 -0.63442898973 0.6091836424 -0.47580999025 
-0.66206323681 0.55397885195 -0.50475707231 -0.69437821942 0.47772384409 -0.53816244497 -0.72721416086 0.37818845001 -0.57282899763 
-0.75388065739 0.26026994402 -0.6032607319 -0.7689533656 0.13577188933 -0.62472131034 -0.77144383813 0.016000874833 -0.63609620075 
-0.76379220417 -0.089851993666 -0.6391776655 -0.74993428365 -0.17773085406 -0.63718938607 -0.73335824494 -0.24760486659 -0.63314888819 
-0.7161938474 -0.30225397643 -0.62905397756 -0.69969759299 -0.344011346 -0.62616249663 -0.68407027999 -0.37627256541 -0.62487343402 
-0.66940146279 -0.40093901886 -0.62541952702 -0.65543598607 -0.41995934783 -0.62772431396 -0.64199357403 -0.43447862481 -0.63172191309 
-0.62878299916 -0.44562264969 -0.63722240548 -0.61558063099 -0.45416713346 -0.6440440215 -0.60227026786 -0.46054484556 -0.65204982148 
-0.58870273202 -0.46525277264 -0.66103627045 -0.5747670357 -0.46871791737 -0.67078041759 -0.56053980341 -0.4709659023 -0.68116536 
-0.54597787297 -0.47236630726 -0.69193802756 -0.5312331484 -0.47290578653 -0.70295907356 -0.51638742911 -0.4728062062 -0.71400162076 
-0.50153353744 -0.47234599474 -0.72481264619 -0.48701756438 -0.47128001304 -0.73532920607 -0.47288545163 -0.47010189821 -0.74524060205 
-0.45949481946 -0.46863349177 -0.75448469917 -0.4470704145 -0.46699969448 -0.76291502137 -0.43581330441 -0.46537457163 -0.77038514509 
-0.42593851022 -0.46387546497 -0.77678564515 -0.41755512452 -0.46281378199 -0.7819534009 -0.41118458926 -0.46148585668 -0.78610307062 
-0.40660211945 -0.46079551694 -0.78888668897 -0.40660211945 -0.46079551694 -0.78888668897 
BinormalArray 3 224 double
-0.70941445456 -0.68253721917 -0.17571020489 -0.70941445456 -0.68253721917 -0.17571020489 -0.71209168416 -0.67965576153 -0.17604964972 
-0.71178116915 -0.67999097449 -0.17601091402 -0.71005744758 -0.68184487261 -0.17580099782 -0.70639283439 -0.68575130541 -0.17536906985 
-0.70035804271 -0.69208628167 -0.1746859775 -0.6945167168 -0.69810506613 -0.17405702146 -0.68657407905 -0.70611611936 -0.17325143565 
-0.67678724386 -0.71572594878 -0.17232351204 -0.66463224265 -0.72727999967 -0.17125356672 -0.65143542531 -0.73937109565 -0.17018304726 
-0.63497338913 -0.75383127262 -0.16895918888 -0.61677892225 -0.76905941097 -0.16772412905 -0.59573467328 -0.78575019741 -0.16642363513 
-0.57136721077 -0.80392642605 -0.16505093745 -0.54413781313 -0.82288122389 -0.16364758385 -0.51223378624 -0.84340409805 -0.16212981104 
-0.47625933464 -0.86452763683 -0.16052729152 -0.43426609502 -0.88668735789 -0.15874031648 -0.38764896324 -0.90837292395 -0.15680214393 
-0.3328773199 -0.93022451557 -0.15451550255 -0.27003535964 -0.95080933329 -0.15179761618 -0.19842224588 -0.96880133542 -0.14850112736 
-0.11652207598 -0.98263617697 -0.14439096063 -0.024181483867 -0.98996367538 -0.13923784422 0.077674697553 -0.98809038932 -0.13283080926 
0.18651924346 -0.97445979398 -0.12505471499 0.29847428664 -0.94734862699 -0.11594688077 0.40783236066 -0.90690220315 -0.10583553049 
0.50816384876 -0.85596465439 -0.095362535878 0.59490957951 -0.79925827216 -0.085257296397 0.66772040681 -0.74053073206 -0.075918991064 
0.72444764444 -0.6859629598 -0.068047250094 0.76628664156 -0.63950873883 -0.061914101153 0.7968332586 -0.6014754218 -0.057306849233 
0.81685999469 -0.57427550032 -0.054289951336 0.82838582613 -0.55768142301 -0.052615145152 0.83411276994 -0.54915251425 -0.051840168889 
0.83271164761 -0.55125882703 -0.052009783205 0.82597357042 -0.56123949712 -0.052705671749 0.81354408687 -0.5790145264 -0.053741947591 
0.79687569525 -0.60165408181 -0.054785875542 0.77522852036 -0.62922068003 -0.055696292859 0.7481762804 -0.66110739245 -0.05629626181 
0.71691207151 -0.69487803632 -0.056405641234 0.68110550214 -0.73004718613 -0.05591422876 0.64275370094 -0.76411137907 -0.054785767283 
0.60173216922 -0.79693784424 -0.052994989773 0.56045106771 -0.82663663081 -0.050660451073 0.51901231482 -0.85342740949 -0.047831723792 
0.48090912131 -0.87562393997 -0.044823351066 0.44535826584 -0.89438235609 -0.04166792725 0.41563664946 -0.90870447096 -0.038760290066 
0.3919877079 -0.9192561036 -0.036247108146 0.37572054355 -0.92609471457 -0.034389719496 0.36765663642 -0.92936131258 -0.033408806898 
0.3690891221 -0.92878668989 -0.033593223169 0.38068687101 -0.92403512493 -0.035165240319 0.40337421203 -0.91422941527 -0.038390380676 
0.43846483545 -0.89768974988 -0.043608497289 0.48606018562 -0.8724357789 -0.051003016113 0.54868714349 -0.83378648309 -0.061176132412 
0.6234290182 -0.77837867757 -0.073911389966 0.70956242 -0.69894587929 -0.089419404701 0.80011433741 -0.5902444618 -0.10690426743 
0.88315650478 -0.45222563868 -0.12460561699 0.946568959 -0.29028997744 -0.1404953197 0.98108640087 -0.11909633454 -0.15259599314 
0.98613185018 0.04369805438 -0.16010763286 0.96877532591 0.18629870642 -0.16360672325 0.93749576613 0.30678051521 -0.16427843432 
0.90142949808 0.40095536415 -0.16327784893 0.86385411967 0.47717297758 -0.16143732343 0.82832529133 0.53711772347 -0.15931654927 
0.79677359166 0.58345250512 -0.15727370382 0.76829492007 0.62095097125 -0.15537955815 0.74339361881 0.65094728324 -0.15373211104 
0.72117871154 0.67579920275 -0.15230464075 0.70193158209 0.69602617676 -0.15112781128 0.68544502947 0.71246643503 -0.15018884956 
0.67129760364 0.72596321087 -0.14945549107 0.65787461588 0.73827397065 -0.14883727367 0.64650401509 0.74834085498 -0.14838639843 
0.6355139708 0.75776640006 -0.14802728077 0.62590245029 0.76577131709 -0.14778502175 0.61629114558 0.77355925356 -0.14761878306 
0.60722341817 0.78071290866 -0.14753668929 0.59807981809 0.78774032213 -0.14753208497 0.58905194124 0.79449986044 -0.14760685037 
0.57921076602 0.8016714753 -0.14777595957 0.56904476341 0.80887066903 -0.14804154152 0.5576932481 0.81666644978 -0.14843904754 
0.54607024977 0.82439164305 -0.14894865282 0.53280398661 0.83290230611 -0.14964511459 0.51837411939 0.84180227229 -0.15052311026 
0.50250813255 0.85117458748 -0.15161595676 0.48515247284 0.86095013615 -0.15294424201 0.46552914581 0.87142737062 -0.15458639049 
0.44446554317 0.88202126285 -0.15648920991 0.42078426508 0.89315829754 -0.15877297566 0.39534938604 0.90424537513 -0.16136655327 
0.36727626227 0.91547317859 -0.16436850811 0.33741743236 0.92629819816 -0.1676935432 0.30498773992 0.93679970025 -0.17143161931 
0.27045490091 0.94659581168 -0.17552924509 0.23413397371 0.95540570516 -0.17994782827 0.19596214427 0.96306151323 -0.1846926088 
0.15622118994 0.96932918117 -0.18972579779 0.11545327813 0.97398885011 -0.19497758956 0.073718559778 0.9769285303 -0.20044006745 
0.031554041555 0.97803362491 -0.20604507033 -0.010797900976 0.97726102011 -0.21176473718 -0.053029045646 0.97460455219 -0.21756352446 
-0.094784730926 0.97010720062 -0.22340070296 -0.13597358841 0.96381798717 -0.22927291785 -0.17623110892 0.95585186456 -0.23513785161 
-0.21534357382 0.94633944856 -0.24097467358 -0.25329623529 0.93537966972 -0.24679118836 -0.28988033037 0.92313631871 -0.25256431092 
-0.32521422277 0.9096737066 -0.25832045375 -0.3585619379 0.89541412734 -0.26394483752 -0.3907538199 0.88013483403 -0.26958139062 
-0.42070998955 0.86449729471 -0.27504096446 -0.44947484639 0.8481070002 -0.28051181557 -0.47606470501 0.83167314719 -0.28580093227 
-0.50090476164 0.81512236889 -0.29098100196 -0.52417406125 0.7984860672 -0.29607693932 -0.54541995702 0.78226182245 -0.30097094814 
-0.56479097368 0.76653514056 -0.30567144835 -0.58300036747 0.75087033324 -0.31032936404 -0.59889045453 0.73644179412 -0.31461676266 
-0.61363879142 0.72236002015 -0.31881567553 -0.62677400786 0.70921088472 -0.32276038181 -0.63852091122 0.69692318217 -0.32647989845 
-0.64883170471 0.68568987449 -0.3299194068 -0.65775650029 0.67559774575 -0.3330526569 -0.66540909309 0.66664666723 -0.33587640571 
-0.67196452691 0.65874058703 -0.3384147065 -0.67721172044 0.65223828166 -0.34054296297 -0.68131711338 0.64703071595 -0.34228386412 
-0.68399821234 0.643564101 -0.34347007646 -0.68546618958 0.64163811483 -0.34414623714 -0.68556993383 0.64150063849 -0.34419586958 
-0.68421570114 0.64330377227 -0.34352457102 -0.68105380715 0.64750825113 -0.34190463069 -0.67633740309 0.65373241899 -0.33941367318 
-0.66965760643 0.66242443747 -0.33578647202 -0.66059463171 0.67396256036 -0.33074038124 -0.6494112215 0.68778432712 -0.32437291003 
-0.63547074283 0.70437588781 -0.31627763702 -0.61891384049 0.72319120739 -0.30649655071 -0.59954821383 0.74403254279 -0.29488559571 
-0.57685827748 0.76694984928 -0.28110933174 -0.55189072908 0.79042628074 -0.26578735463 -0.52342532402 0.81513323369 -0.24816071709 
-0.492748689 0.83949307637 -0.22901987733 -0.46006243413 0.86306099929 -0.20849045111 -0.42515694038 0.88570943457 -0.18644134079 
-0.38889818193 0.90667080039 -0.1634205122 -0.35175886443 0.9256032727 -0.13972931998 -0.31380831756 0.94244588208 -0.11541273406 
-0.27571887578 0.95693051848 -0.090901508954 -0.23705111931 0.96925862865 -0.06591265141 -0.19837343833 0.97927641593 -0.040812745262 
-0.15953476811 0.98707057253 -0.015502986848 -0.12031549639 0.99268371075 0.010160302529 -0.080684200865 0.99608219906 0.036198238154 
-0.040431160926 0.99721005325 0.06274895156 0.0004126592374 0.99596048618 0.089791645939 0.042080943602 0.99218323457 0.11748030996 
0.084277739819 0.98574492955 0.14561660771 0.12704598179 0.97647542962 0.17422701817 0.1699766001 0.96430531878 0.20303499104 
0.21249991984 0.94930478416 0.23165537083 0.25435407672 0.93153158941 0.25990941034 0.29505470908 0.91121078101 0.28746761768 
0.3338646531 0.88884522801 0.31382886111 0.37023029057 0.86502553092 0.33861536113 0.40352944139 0.84056738528 0.36140069278 
0.43330492128 0.81634803048 0.38186743554 0.45918089505 0.7933183606 0.3997485264 0.4801741941 0.77314207487 0.41434777107 
0.49611867475 0.75683468849 0.42552028725 0.50645824488 0.74575998228 0.43283033053 0.50985040454 0.74202878694 0.43525377005 
0.50410182171 0.74835634937 0.43109642508 0.48885456236 0.76465112538 0.41991650755 0.46125438473 0.79230410474 0.39937275593 
0.41709297261 0.83192450316 0.36597141041 0.35651424086 0.87800048289 0.31939434578 0.27796465529 0.92529283603 0.25800933704 
0.18549766403 0.96515109944 0.18459136461 0.088462469752 0.99038515834 0.106356145 -0.0043436026882 0.99952804804 0.030410759717 
-0.085896706317 0.99560507683 -0.037313360109 -0.15321687128 0.98370615713 -0.094057359013 -0.20643802144 0.96844723682 -0.1396183827 
-0.24782178948 0.95275196061 -0.17563616431 -0.27926403078 0.93840357801 -0.20349527239 -0.30342520531 0.92583005937 -0.22532608805 
-0.32181762647 0.91527118584 -0.24230574004 -0.33596301858 0.90650879088 -0.25567687069 -0.34677254434 0.89939209826 -0.26616283751 
-0.35512494773 0.89360919119 -0.2744975135 -0.36163029511 0.88890662533 -0.28119128917 -0.36664467259 0.88514149504 -0.28652437561 
-0.37055665713 0.88210137949 -0.29083486751 -0.37369141187 0.87958560647 -0.29442127911 -0.3760969971 0.87759496322 -0.29728459311 
-0.37803569673 0.8759424631 -0.29968952825 -0.37951379461 0.87464555618 -0.30160310135 -0.38067503047 0.8735973285 -0.30317359517 
-0.38168018618 0.87266399123 -0.30459447449 -0.38237554164 0.8720001489 -0.30562180139 -0.38302204875 0.87136596393 -0.30661941733 
-0.38349504529 0.87088957638 -0.30738070207 -0.38383506855 0.87053848696 -0.30795029285 -0.38410227637 0.87025613561 -0.30841481761 
-0.3843236989 0.87001720253 -0.30881282642 -0.38461963777 0.86969181124 -0.3093604495 -0.38462444065 0.86968644973 -0.30936955056 
-0.38474736315 0.86954768463 -0.30960667096 -0.38474736315 0.86954768463 -0.30960667096 
