# vtk DataFile Version 4.1
vtk output
ASCII
DATASET POLYDATA
POINTS 280 float
-42.2087 -35.2996 -173.995 -42.1673 -35.2899 -172.799 -42.126 -35.2803 -171.604 
-42.0845 -35.2707 -170.409 -42.0429 -35.2612 -169.217 -42.0012 -35.252 -168.026 
-41.9591 -35.2429 -166.839 -41.9168 -35.2342 -165.656 -41.8741 -35.2259 -164.478 
-41.8311 -35.218 -163.305 -41.7876 -35.2105 -162.138 -41.7437 -35.2037 -160.978 
-41.6994 -35.1975 -159.827 -41.6547 -35.1919 -158.684 -41.6095 -35.1872 -157.551 
-41.5638 -35.1833 -156.429 -41.5178 -35.1803 -155.318 -41.4714 -35.1784 -154.219 
-41.4247 -35.1775 -153.134 -41.3778 -35.1778 -152.062 -41.3306 -35.1793 -151.006 
-41.2832 -35.1821 -149.964 -41.2357 -35.1863 -148.939 -41.1882 -35.192 -147.931 
-41.1406 -35.1991 -146.939 -41.0932 -35.2077 -145.966 -41.0459 -35.218 -145.01 
-40.9987 -35.2299 -144.071 -40.9518 -35.2434 -143.151 -40.9051 -35.2585 -142.248 
-40.8588 -35.2754 -141.363 -40.8127 -35.2938 -140.495 -40.767 -35.314 -139.643 
-40.7216 -35.3357 -138.807 -40.6765 -35.3591 -137.986 -40.6317 -35.3839 -137.179 
-40.5872 -35.4102 -136.385 -40.5429 -35.4379 -135.604 -40.4987 -35.4669 -134.833 
-40.4547 -35.4971 -134.072 -40.4108 -35.5284 -133.32 -40.3669 -35.5607 -132.575 
-40.3229 -35.5939 -131.837 -40.2787 -35.6279 -131.104 -40.2344 -35.6625 -130.375 
-40.1897 -35.6976 -129.649 -40.1446 -35.733 -128.925 -40.0991 -35.7687 -128.201 
-40.0531 -35.8045 -127.477 -40.0065 -35.8403 -126.751 -39.9592 -35.8759 -126.023 
-39.9112 -35.9112 -125.292 -39.8624 -35.946 -124.556 -39.8128 -35.9804 -123.815 
-39.7623 -36.014 -123.068 -39.7108 -36.0468 -122.314 -39.6585 -36.0788 -121.552 
-39.6052 -36.1097 -120.782 -39.5509 -36.1395 -120.003 -39.4956 -36.168 -119.214 
-39.4394 -36.1952 -118.417 -39.3822 -36.221 -117.609 -39.3241 -36.2453 -116.793 
-39.2652 -36.2679 -115.966 -39.2054 -36.2888 -115.131 -39.1448 -36.308 -114.287 
-39.0834 -36.3253 -113.435 -39.0214 -36.3406 -112.576 -38.9588 -36.3539 -111.711 
-38.8956 -36.3652 -110.84 -38.8319 -36.3744 -109.966 -38.7677 -36.3814 -109.088 
-38.7031 -36.3862 -108.207 -38.6381 -36.3887 -107.326 -38.5728 -36.3889 -106.445 
-38.5071 -36.3869 -105.565 -38.4411 -36.3825 -104.686 -38.3747 -36.3758 -103.81 
-38.308 -36.3668 -102.937 -38.2408 -36.3554 -102.068 -38.1732 -36.3417 -101.202 
-38.1051 -36.3256 -100.341 -38.0364 -36.3072 -99.4843 -37.967 -36.2865 -98.6314 
-37.8969 -36.2635 -97.7823 -37.8259 -36.2382 -96.9366 -37.7539 -36.2106 -96.0938 
-37.6808 -36.1807 -95.2533 -37.6064 -36.1484 -94.4143 -37.5307 -36.1139 -93.576 
-37.4534 -36.0771 -92.7375 -37.3744 -36.0379 -91.8977 -37.2934 -35.9964 -91.0556 
-37.2104 -35.9525 -90.2101 -37.1251 -35.9062 -89.3599 -37.0373 -35.8574 -88.5039 
-36.9467 -35.8062 -87.6409 -36.8532 -35.7524 -86.7695 -36.7564 -35.6961 -85.8884 
-36.6561 -35.6371 -84.9963 -36.5521 -35.5753 -84.0919 -36.4441 -35.5108 -83.1739 
-36.3317 -35.4433 -82.2408 -36.2147 -35.3728 -81.2913 -36.0927 -35.2992 -80.3242 
-35.9654 -35.2223 -79.3381 -35.8325 -35.142 -78.3317 -35.6936 -35.0581 -77.3038 
-35.5484 -34.9706 -76.2532 -35.3966 -34.8791 -75.1786 -35.2378 -34.7836 -74.079 
-35.0717 -34.6838 -72.9533 -34.8979 -34.5794 -71.8005 -34.7161 -34.4704 -70.6196 
-34.526 -34.3565 -69.4099 -34.3273 -34.2375 -68.1705 -34.1197 -34.1131 -66.9009 
-33.9031 -33.9832 -65.6005 -33.6771 -33.8476 -64.2691 -33.4416 -33.7062 -62.9063 
-33.1965 -33.5588 -61.5121 -32.9416 -33.4052 -60.0866 -32.677 -33.2454 -58.6303 
-32.4026 -33.0794 -57.1435 -32.1185 -32.9072 -55.6271 -31.8248 -32.7288 -54.0821 
-31.5216 -32.5442 -52.5095 -31.2093 -32.3537 -50.9109 -30.8881 -32.1574 -49.2879 
-30.5583 -31.9556 -47.6424 -30.2204 -31.7484 -45.9764 -29.8748 -31.5363 -44.2924 
-29.5221 -31.3195 -42.5926 -29.1628 -31.0986 -40.8799 -28.7975 -30.8737 -39.1569 
-28.4268 -30.6455 -37.4266 -28.0515 -30.4143 -35.6918 -27.6722 -30.1807 -33.9555 
-27.2896 -29.9449 -32.2206 -26.9044 -29.7076 -30.4902 -26.5173 -29.4691 -28.767 
-26.1289 -29.2297 -27.0537 -25.74 -28.9899 -25.3529 -25.3511 -28.75 -23.667 
-24.9629 -28.5103 -21.998 -24.5757 -28.271 -20.348 -24.1902 -28.0323 -18.7184 
-23.8067 -27.7943 -17.1108 -23.4256 -27.5571 -15.5262 -23.0472 -27.3208 -13.9654 
-22.6718 -27.0854 -12.4291 -22.2995 -26.8508 -10.9176 -21.9305 -26.617 -9.43098 
-21.565 -26.3839 -7.96921 -21.2029 -26.1513 -6.53204 -20.8445 -25.919 -5.11907 
-20.4896 -25.687 -3.72982 -20.1383 -25.4551 -2.36368 -19.7905 -25.2231 -1.01998 
-19.4464 -24.9908 0.301988 -19.1058 -24.758 1.603 -18.7688 -24.5246 2.88386 
-18.4353 -24.2905 4.14542 -18.1052 -24.0555 5.38855 -17.7787 -23.8194 6.61418 
-17.4555 -23.5821 7.82331 -17.1358 -23.3434 9.01698 -16.8194 -23.1033 10.1963 
-16.5063 -22.8616 11.3626 -16.1964 -22.6181 12.5171 -15.8896 -22.3728 13.6612 
-15.5858 -22.1254 14.7965 -15.2849 -21.8758 15.9246 -14.9867 -21.624 17.0472 
-14.6911 -21.3697 18.1661 -14.3979 -21.1129 19.2831 -14.1071 -20.8534 20.4002 
-13.8183 -20.5911 21.5191 -13.5316 -20.3261 22.6419 -13.2467 -20.0582 23.7702 
-12.9636 -19.7874 24.906 -12.6821 -19.5138 26.0507 -12.4022 -19.2374 27.206 
-12.1238 -18.9584 28.3733 -11.847 -18.6769 29.5538 -11.5718 -18.393 30.7486 
-11.2981 -18.1072 31.9585 -11.0261 -17.8196 33.1842 -10.7559 -17.5307 34.4264 
-10.4875 -17.2408 35.6853 -10.2211 -16.9503 36.9611 -9.95687 -16.6598 38.2538 
-9.69486 -16.3697 39.5634 -9.43524 -16.0805 40.8895 -9.17814 -15.7928 42.232 
-8.92369 -15.5071 43.5903 -8.67199 -15.224 44.964 -8.42314 -14.9439 46.3526 
-8.17723 -14.6674 47.7554 -7.93434 -14.3949 49.1719 -7.69453 -14.1269 50.6015 
-7.45785 -13.8638 52.0436 -7.22435 -13.606 53.4975 -6.99408 -13.3537 54.9626 
-6.76711 -13.1072 56.4383 -6.5435 -12.8667 57.9239 -6.32334 -12.6323 59.4187 
-6.10674 -12.4041 60.922 -5.89385 -12.1821 62.4331 -5.68483 -11.9663 63.9511 
-5.47989 -11.7565 65.4752 -5.27928 -11.5525 67.0046 -5.08329 -11.3542 68.5383 
-4.89225 -11.1612 70.0753 -4.70652 -10.9733 71.6147 -4.52648 -10.79 73.1555 
-4.35257 -10.6111 74.6965 -4.18522 -10.4359 76.237 -4.02488 -10.2642 77.7758 
-3.87199 -10.0954 79.3121 -3.72701 -9.92902 80.8452 -3.59034 -9.76453 82.3742 
-3.46239 -9.60143 83.8985 -3.3435 -9.43921 85.4177 -3.23398 -9.27737 86.9314 
-3.13408 -9.11541 88.4393 -3.04397 -8.95285 89.9412 -2.96378 -8.78926 91.4371 
-2.89353 -8.62422 92.9272 -2.83318 -8.45734 94.4114 -2.78264 -8.28829 95.8901 
-2.74171 -8.11677 97.3633 -2.71012 -7.94252 98.8314 -2.68755 -7.76534 100.294 
-2.67361 -7.58507 101.753 -2.66785 -7.40159 103.206 -2.66978 -7.21484 104.654 
-2.67887 -7.02478 106.098 -2.69455 -6.83142 107.537 -2.71623 -6.63478 108.97 
-2.7433 -6.43492 110.398 -2.77515 -6.2319 111.82 -2.81116 -6.02579 113.236 
-2.8507 -5.81665 114.644 -2.89317 -5.60453 116.046 -2.93797 -5.38944 117.44 
-2.98452 -5.17137 118.826 -3.03224 -4.95026 120.204 -3.08059 -4.72597 121.574 
-3.12903 -4.49834 122.935 -3.17705 -4.2671 124.289 -3.22416 -4.0319 125.636 
-3.26987 -3.79232 126.975 -3.31375 -3.54786 128.308 -3.35534 -3.29788 129.636 
-3.39423 -3.0417 130.96 -3.43003 -2.77853 132.281 -3.46235 -2.50748 133.6 
-3.49084 -2.22762 134.92 -3.51517 -1.93792 136.242 -3.53502 -1.63734 137.568 
-3.55012 -1.32479 138.899 -3.56021 -0.999197 140.237 -3.56508 -0.65949 141.584 
-3.56456 -0.304671 142.943 -3.55852 0.0661774 144.314 -3.54687 0.453848 145.698 
-3.52957 0.858979 147.098 -3.50666 1.28201 148.514 -3.47823 1.72318 149.946 
-3.44442 2.18243 151.396 -3.40545 2.65947 152.862 -3.3616 3.15366 154.346 
-3.31323 3.6641 155.845 -3.26075 4.18953 157.36 -3.20464 4.72841 158.888 
-3.14545 5.27887 160.427 -3.08377 5.83879 161.976 -3.02023 6.40582 163.533 
-2.95552 6.97739 165.094 
LINES 1 281
280 279 278 277 276 275 274 273 272 271 270 269 268 267 266 265 264 263 262 261 260 259 258 257 256 255 254 253 252 251 250 249 248 247 246 245 244 243 242 241 240 239 238 237 236 235 234 233 232 231 230 229 228 227 226 225 224 223 222 221 220 219 218 217 216 215 214 213 212 211 210 209 208 207 206 205 204 203 202 201 200 199 198 197 196 195 194 193 192 191 190 189 188 187 186 185 184 183 182 181 180 179 178 177 176 175 174 173 172 171 170 169 168 167 166 165 164 163 162 161 160 159 158 157 156 155 154 153 152 151 150 149 148 147 146 145 144 143 142 141 140 139 138 137 136 135 134 133 132 131 130 129 128 127 126 125 124 123 122 121 120 119 118 117 116 115 114 113 112 111 110 109 108 107 106 105 104 103 102 101 100 99 98 97 96 95 94 93 92 91 90 89 88 87 86 85 84 83 82 81 80 79 78 77 76 75 74 73 72 71 70 69 68 67 66 65 64 63 62 61 60 59 58 57 56 55 54 53 52 51 50 49 48 47 46 45 44 43 42 41 40 39 38 37 36 35 34 33 32 31 30 29 28 27 26 25 24 23 22 21 20 19 18 17 16 15 14 13 12 11 10 9 8 7 6 5 4 3 2 1 0 

CELL_DATA 1
FIELD FieldData 2
LengthArray 1 1 double
346.88852525 
TortuosityArray 1 1 double
0.0085113150543 
POINT_DATA 280
FIELD FieldData 8
RadiusArray 1 280 double
46.984535528 47.075026491 47.223451147 47.345587128 47.54976031 47.603199391 47.660218206 48.010379443 48.209351778 
48.388930124 48.429219926 48.566702523 48.668607273 48.918524872 49.168421384 49.328105147 49.389898528 49.53900179 
49.752844061 49.837750405 50.254262535 50.397609848 50.613643119 50.815123705 50.925740293 51.26774217 51.400530097 
51.747156738 51.834088784 51.984287421 52.014984014 52.076796603 52.189662187 52.313285871 52.415615838 52.467513084 
52.478673695 52.645612858 52.850428467 52.898275845 52.962783288 53.076482791 53.242761348 53.373269461 53.596106578 
53.911213213 53.934923863 54.088027229 54.108318439 54.225867419 54.259787745 54.293393016 54.383751579 54.456078259 
54.502764579 54.526353953 54.574829441 54.609871234 54.828340078 54.976218671 55.172181517 55.288290228 55.332724635 
55.575279622 55.836699521 55.857157515 55.971900978 56.051848329 56.15282493 56.176162748 56.41824772 56.516542609 
56.681274588 56.703048502 56.853786617 56.937025027 57.056749762 57.108576279 57.13219533 57.168883875 57.243854897 
57.324626811 57.531456795 57.588060806 57.759892668 57.760707138 57.790227066 57.796583668 57.811680685 57.989423439 
58.037244376 58.071154107 58.150461069 58.237106035 58.263620916 58.267776624 58.334132487 58.389410269 58.521144294 
58.548530304 58.591639133 58.623762248 58.67425288 58.727477087 58.739482566 58.818440736 58.873353849 58.890623294 
58.951154236 58.973702333 58.97634774 59.028173226 59.084993053 59.095298782 59.098470077 59.097519716 59.112342871 
59.169589588 59.182707041 59.187404938 59.182086344 59.163359666 59.15020556 59.133446922 59.113494361 59.109591004 
59.095138467 59.018943675 58.949936139 58.939748744 58.857969305 58.479381066 58.408675623 58.389565651 58.355545551 
58.294028733 58.191709248 58.114040171 57.913741651 57.887482718 57.809381589 57.731396968 57.652140778 57.647689115 
57.646110129 57.666427424 57.669133251 57.673162162 57.663393641 57.660956477 57.677055403 57.679979635 57.728061987 
57.759305643 57.815697527 57.902932581 58.108202031 58.11654977 58.182697599 58.287207462 58.387643257 58.493727171 
58.581040976 58.92263857 58.978360885 59.045498683 59.227362251 59.253828245 59.413379099 59.602209623 59.69858908 
59.731821864 59.739939777 59.878446473 60.28243398 60.457786426 60.594774889 60.695221884 60.825255116 61.156182978 
61.16880244 61.480646794 61.517938596 61.716968835 61.743101411 62.005265406 62.561553103 62.620592302 62.64187204 
62.979124993 63.104473979 63.480250768 63.837153579 64.192077263 64.397104342 64.552826141 64.575250668 64.869248741 
65.020985303 65.187925298 65.249569075 65.283388242 65.369113571 65.647511119 65.725039203 65.954042813 65.992688582 
66.079427626 66.37985722 66.525708225 66.740196507 66.786779357 66.829448148 67.069030402 67.258618525 67.440846831 
68.09906566 68.311211115 68.52292792 68.62191043 69.255158335 69.397503738 69.62535982 69.768818197 69.917121576 
70.127957242 70.165653151 70.236959826 70.30907385 70.518968369 70.686958074 70.803922496 70.895699143 70.905916653 
71.322684255 71.327362015 71.453252484 71.569853828 72.120340144 72.169004221 72.276431489 72.327356027 72.70183581 
72.809336309 72.837344629 73.294449515 73.388192326 73.546688574 73.767464655 73.949462862 74.294450049 74.303666521 
74.633512613 74.851873026 75.058881496 75.10883443 75.196181241 75.762609705 75.863680992 76.349230812 76.422548465 
76.488211738 76.602194323 76.791838514 76.819942724 76.996361995 77.197960346 77.330009616 77.386957893 77.712783659 
77.81488089 78.028596183 78.659503989 78.710364395 78.976262684 78.964438859 77.725523969 77.06849863 75.929783056 
75.392072134 
EdgeArray 2 280 int
16153 16153 16274 16274 19097 19097 17757 17757 17814 
17814 17754 18439 14833 17754 14833 14833 19687 19687 
16780 16780 19727 19728 19727 19727 19733 19729 19729 
19729 19102 19102 19103 19103 16718 16713 16718 16718 
18498 18498 18499 18499 16796 16796 14839 14839 16709 
16709 17301 17301 17299 17299 17293 17293 16790 16790 
16791 16791 16788 16788 16275 16275 16271 16271 16272 
16272 16212 16212 15283 10415 15283 15283 16266 16267 
16266 16266 15715 13905 15715 15715 15716 15716 15717 
15717 15727 15273 15727 15727 15726 15726 11473 11473 
14844 14844 14846 14846 14848 14848 14267 12669 14267 
14267 15307 15307 16283 16283 16281 10909 16298 16296 
16296 16296 16297 16297 15735 15735 15736 14860 14860 
14860 15314 16304 16288 16304 16288 16288 15740 16305 
15740 15740 16311 16311 15747 15744 15747 15743 15743 
8378 7286 10570 14749 13912 13912 13912 12297 12297 
14782 14782 12613 12613 14781 14781 12350 12350 12300 
12300 15668 15668 14082 15237 15237 15237 15673 15673 
15674 15674 12998 14801 13431 12998 15242 13431 15242 
15242 15654 14800 15654 15654 15655 15062 15062 15062 
15246 15246 14294 14294 14293 14293 15249 15249 15253 
15252 15253 11877 11877 11877 14304 14304 15259 15259 
15257 15257 14813 14297 14813 14813 14809 14811 14809 
14809 14085 14808 14818 14818 14819 12620 12620 12620 
13751 11274 13751 14174 14174 14174 6750 6750 12466 
13972 6620 13972 13116 13973 13116 13116 6177 14449 
14952 3621 13620 14953 13622 13622 13981 13981 14183 
14183 14460 14460 14458 14458 14015 14015 12401 12401 
10215 8126 11584 11584 9734 9734 12452 8464 11569 
11569 7027 13595 5861 13597 7367 6250 7367 2092 
13603 8224 3723 3723 6322 6322 7310 7310 11153 
10670 11114 11114 13991 13991 13993 13993 11699 11699 
13557 13557 13094 13094 13556 13556 10816 10816 14422 
10809 14422 14424 14424 14425 14425 6672 3010 6672 
10690 3010 10690 10690 10183 12149 8901 12147 10820 
8901 10820 10820 12006 12006 12382 12382 14905 14905 
12718 12718 12720 12720 12723 12723 12724 12724 12018 
12018 12025 12394 12025 12025 13962 13962 13963 13963 
11976 13954 11976 11976 11977 11977 11279 11279 11050 
11050 12704 12704 12702 12702 11049 11049 11985 11985 
11984 11984 11986 11986 7582 10349 7582 7582 11714 
11712 11714 11714 11716 11716 9895 6475 10348 9895 
12167 10348 12167 12167 8675 8675 13268 13709 15093 
15098 13267 15094 15522 15094 15522 15522 16102 16102 
16609 16614 16610 15144 16610 11504 15112 11504 15112 
15112 11490 11490 18307 18307 18306 18306 18901 18308 
18901 18901 18904 18904 18900 18900 11492 11492 18896 
18319 18319 18319 18305 18305 18320 18320 18324 18324 
17683 17683 17920 17905 17920 17920 16316 13531 16316 
16316 5306 17352 5306 5306 11251 11251 20156 20156 
17917 17917 19193 19193 14373 14373 11125 17692 11125 
11125 19196 19196 20430 20430 17893 17893 17885 10787 
17885 17885 20193 17889 20193 20193 11249 17318 11249 
11249 14115 20046 14115 14115 15755 19445 15755 15755 
19161 19161 22387 22387 24823 24823 24821 24821 22397 
22397 22394 22394 18527 18527 22396 22396 24383 24164 
24164 24164 20609 20609 24161 24161 24168 24168 24169 
24176 24169 24169 27990 27990 27994 27994 23070 23070 
21801 21801 17423 17423 22487 22487 24125 26663 5912 
23555 23551 23539 23539 23539 27996 27996 22380 22380 
24815 26975 24815 24815 27424 28536 27424 27424 24145 
24145 27740 27740 16402 16402 21775 21775 36853 36853 
28848 28848 
EdgePCoordArray 1 280 double
0 0 0 0 0 0.824 0.952 0 0 
0 0.916 0 0.032 0 0 0 0.86 0 
0 0 0 0 0 0 0 0 0 
0 0 0 0 0 0 0.892 0 0.252 
0 0.816 0 0 0 0.856 0 0 0 
0 0 0 0.888 0 0 0 0.196 0.324 
0 0 0 0.04 0 0.192 0.636 0 0.968 
0 0 0.92 0.24 0.056 0.968 0.068 0 0 
0 0 0 0 0 0 0.076 0 0 
0 0.948 0.992 0.008 0 0.272 0 0.036 0 
0 0 0 0 0.264 0.028 0 0 0 
0 0.884 0 0.796 0 0.968 0 0.532 0 
0.628 0.62 0 0 0.556 0.848 0.752 0 0.04 
0.372 0.608 0 0 0 0 0 0 0 
0.076 0 0 0.004 0 0.72 0.724 0.224 0.528 
0.568 0 0 0 0.848 0 0 0 0 
0 0 0 0 0.108 0.232 0.92 0.032 0.924 
0.872 0 0.008 0.044 0.84 0 0 0 0 
0 0 0 0 0 0.94 0 0 0 
0.464 0 0 0 0 0 0 0 0 
0 0 0.936 0 0.964 0 0 0.656 0.984 
0.916 0 0 0.272 0.388 0.616 0.152 0 0 
0.988 0.388 0.356 0.836 0 0 0 0 0.86 
0 0 0 0 0.236 0 0 0 0 
0 0.844 0 0.988 0 0.944 0 0 0 
0 0 0 0.944 0 0 0 0 0.988 
0 0.984 0 0.968 0 0.876 0 0.964 0 
0 0 0 0 0 0 0 0 0.012 
0 0 0 0 0.96 0 0 0 0 
0 0 0 0.02 0.812 0.592 0 0 0 
0.912 0 0.192 0 0 0 0 0 0 
0 
CurvatureArray 1 280 double
0 2.105446245e-05 9.1327126452e-05 0.00016011734538 0.00023265753684 0.00029820083046 0.00036711392243 0.00043528883803 0.00050319335694 
0.00057106292433 0.00063932550776 0.00070816387149 0.00077656515231 0.00085030154707 0.00091925681024 0.00099789104018 0.0010773098388 0.0011601370744 
0.0012492454664 0.0013450422425 0.0014438250378 0.0015502349606 0.0016644052809 0.0017885043543 0.0019138621252 0.0020425774857 0.0021818087698 
0.0023132580094 0.0024509493129 0.0025843614245 0.0026958608043 0.0028123338976 0.0028993250664 0.002961284464 0.0030078446958 0.0030029572166 
0.0029817286222 0.0029037177454 0.0028030031828 0.0026473398347 0.0024752970827 0.0022504461756 0.0020143462257 0.0017597761264 0.0014937112715 
0.0012593272775 0.0010569001394 0.00096220383139 0.00097053774504 0.0010939061895 0.0012735827215 0.0014864370982 0.0017062462453 0.0019058892375 
0.0020901986116 0.002261072262 0.0023929139118 0.0025198966229 0.0026037258168 0.0026839321117 0.0027282283896 0.0027680453609 0.0027944379385 
0.0028108403479 0.002817329617 0.0028202239069 0.0028273553098 0.0028228483906 0.0028396932111 0.0028472817007 0.0028639658057 0.0028853152909 
0.0029129816986 0.0029573886445 0.002996476117 0.0030516971854 0.0031102028966 0.0031771469933 0.0032445880174 0.0033189274356 0.0033939254988 
0.0034626591076 0.0035454869286 0.0036111945551 0.0036806393029 0.0037338578671 0.0037894712159 0.0038324608282 0.0038586680973 0.003889571825 
0.0038944115975 0.0038991198167 0.0038899912574 0.0038778131212 0.0038554418047 0.0038191534159 0.0037845541509 0.0037491630949 0.0037014796642 
0.0036618272898 0.0036135513862 0.003565410386 0.0035268068798 0.003473965073 0.0034319174462 0.0033842300322 0.0033378575045 0.0032885998128 
0.0032423431331 0.0031839684402 0.0031283472083 0.0030692723991 0.003006107443 0.0029385302707 0.0028708571257 0.0027907913054 0.0027140383168 
0.0026330643238 0.0025487757815 0.0024632320139 0.0023752637286 0.0022881112719 0.0021979141108 0.0021133751745 0.0020244129708 0.0019431015786 
0.0018608585983 0.001784375886 0.0017098864936 0.0016410284619 0.0015765273014 0.0015169824316 0.0014637568983 0.0014153435383 0.0013734438044 
0.0013368329773 0.0013075813878 0.0012847295637 0.0012676652624 0.0012579117541 0.0012538367812 0.0012577534316 0.0012666931284 0.0012842918386 
0.0013081007505 0.0013388963952 0.0013763912536 0.0014217722352 0.0014742989166 0.0015318424708 0.0015977137301 0.0016681773954 0.0017440951355 
0.0018245985738 0.0019077546129 0.0019942372738 0.0020820114386 0.0021683661865 0.002255112838 0.0023391267822 0.0024177181092 0.0024929972025 
0.0025619186208 0.0026203717225 0.0026726237861 0.002711504357 0.0027359453366 0.0027497674003 0.0027504398311 0.00273258739 0.0027079962989 
0.0026672190927 0.0026245088193 0.0025759694805 0.0025351008009 0.002502972137 0.0024925982938 0.0024992624837 0.0025331418698 0.0025898938339 
0.0026671825418 0.0027583971338 0.0028608624318 0.0029667433641 0.0030745685547 0.003176727708 0.0032750168882 0.0033655839673 0.0034480884716 
0.0035239295154 0.0035932209261 0.0036548079213 0.0037107243329 0.0037605639103 0.0038055423406 0.0038442958402 0.0038786002269 0.0039049118441 
0.0039251720877 0.0039358129151 0.0039386563072 0.0039302356659 0.0039109263257 0.0038785324151 0.0038350244194 0.0037792857576 0.003712173678 
0.0036345111125 0.0035490770546 0.0034587104037 0.0033657740031 0.0032769360256 0.0031934696142 0.0031243117343 0.0030733913957 0.0030468838293 
0.0030479878993 0.0030809891451 0.0031454055447 0.0032397117514 0.0033606635333 0.0035026337625 0.0036572934404 0.0038186070085 0.0039776798966 
0.0041262735722 0.0042577323178 0.0043653647721 0.0044432341926 0.0044879700183 0.0044963797741 0.0044681896498 0.004403444728 0.0043043532035 
0.0041744525377 0.0040179868795 0.0038403770387 0.0036470941238 0.0034449528787 0.0032391339956 0.0030362114035 0.0028437758833 0.0026688930977 
0.0025175538236 0.0024008945849 0.0023245011597 0.0023001183845 0.0023312155961 0.0024216398193 0.002571693472 0.0027764602997 0.0030327289044 
0.0033322993261 0.0036665725328 0.0040279286246 0.0044083724589 0.0047963006115 0.0051788687207 0.0055488194215 0.0058851613964 0.0061848606785 
0.0064305485313 0.0066107082313 0.0067224280794 0.0067514648218 0.0067064378816 0.0065787974683 0.0063776788075 0.0060999788914 0.0057598985782 
0.0053658594882 0.0049203624098 0.0044357552558 0.0039197323823 0.0033740993795 0.0028107167527 0.0022323798734 0.0016350812098 0.0010319741768 
0 
TorsionArray 1 280 double
0 0 -0.016013147456 -0.011387599797 -0.0044543932532 -0.0088858054837 -0.012761880104 -0.012331502947 -0.018356349048 
-0.019501231584 -0.022082287896 -0.024464911549 -0.028050255936 -0.029310479293 -0.0306333833 -0.033345150307 -0.034529346659 -0.036111589643 
-0.03737113475 -0.037121811526 -0.035578934117 -0.036853487842 -0.034868231743 -0.032916135465 -0.034225527983 -0.03212838267 -0.027186891329 
-0.0263263737 -0.024799328407 -0.02220306676 -0.018964802246 -0.014119820797 -0.011751190303 -0.0085846075906 -0.0031742215359 0.003282655912 
0.0084635659776 0.012699021 0.02318098526 0.036873544042 0.049550017189 0.068212334233 0.10010249492 0.13972922108 0.19726274964 
0.29532085558 0.41676675897 0.49855565675 0.48069317946 0.36812441534 0.26344732419 0.18896905976 0.13484907808 0.10304261933 
0.082971488306 0.065190292702 0.055214966377 0.046528302809 0.041083154548 0.033340802045 0.026842895373 0.02465981571 0.020614902989 
0.01274999071 0.0077092525619 0.0079020045215 0.0031176291129 -0.0051039686379 -0.0078538927545 -0.010301898075 -0.013837256951 -0.017474203843 
-0.022620532373 -0.024188608677 -0.025914462237 -0.027950572524 -0.029352773428 -0.030992201367 -0.031042292595 -0.030935148202 -0.032310032992 
-0.032518621551 -0.032532070803 -0.033146800972 -0.032346235665 -0.032867005437 -0.032165306734 -0.032752710523 -0.033883491331 -0.034287927574 
-0.034662936669 -0.034772534803 -0.035502867441 -0.036582094354 -0.036842313464 -0.035385254785 -0.035995703015 -0.036578066938 -0.033910592912 
-0.031901143142 -0.030302909222 -0.026454867133 -0.024198702748 -0.02234458551 -0.017434766899 -0.013168887015 -0.010802994627 -0.0075369716016 
-0.0039026931338 -0.0014731443407 0.00048586742662 0.0028440604387 0.0045499197432 0.0054204035659 0.0060739388346 0.0072949117411 0.0067678812368 
0.006758197898 0.0064758361826 0.006039539321 0.0054936495648 0.0042657690404 0.004203649301 0.0027752592842 0.0016898211627 0.0011039831769 
-8.7173574371e-05 -0.0010649365102 -0.0018792827013 -0.0025572219117 -0.0031875196122 -0.0037341767527 -0.003750436604 -0.0041504290396 -0.0038103924856 
-0.0033069099264 -0.002572529179 -0.0013854346538 -0.00012594754373 0.0016654540476 0.0036874928105 0.0058793363061 0.0080986073059 0.010225124324 
0.012726464033 0.015198082858 0.017437530964 0.01908944125 0.020875953677 0.022525354489 0.023562230823 0.024714781388 0.025287528922 
0.026230714861 0.026471428718 0.026967924846 0.027684344507 0.0279669976 0.028631392427 0.029275544313 0.030402546065 0.031683115504 
0.033179601683 0.035378012631 0.037535529759 0.040727291295 0.044636127167 0.048726001336 0.053942572836 0.06045513639 0.067619136379 
0.07522847485 0.084085678247 0.093134870736 0.10131406901 0.1083892042 0.1125342913 0.11405890352 0.11111526454 0.10634527527 
0.098580110717 0.089575489041 0.08086651444 0.072306968887 0.064816044122 0.058180349671 0.052249918675 0.047431592958 0.043533073427 
0.0400164068 0.037130977893 0.034588490891 0.032186842626 0.030185194449 0.028175773775 0.026214781821 0.024237720248 0.022227443691 
0.020010513688 0.01772863074 0.015362974639 0.012771063776 0.0099086745453 0.0067934600515 0.0034675373925 -0.00014364597362 -0.004189900186 
-0.0086803145394 -0.013535929962 -0.018847413067 -0.024628002842 -0.030716844779 -0.037038628604 -0.043070423936 -0.048669442198 -0.053158545964 
-0.056131161972 -0.057362867634 -0.056759754567 -0.054489484819 -0.050996874621 -0.046986198286 -0.042584054113 -0.038279602151 -0.03434614527 
-0.030834216141 -0.027826914228 -0.025306405329 -0.023280065706 -0.021665132799 -0.020621175039 -0.020051711362 -0.019815566896 -0.020100625229 
-0.020875336307 -0.022217148002 -0.024257450463 -0.027074523668 -0.030805807183 -0.035469528904 -0.04150361846 -0.048967442756 -0.057478130891 
-0.067042156043 -0.076533339564 -0.084503576252 -0.089155921817 -0.089128459259 -0.084130271984 -0.075284669744 -0.064216703997 -0.052600341497 
-0.041778203295 -0.032228261957 -0.024042276486 -0.017252933877 -0.01187290405 -0.0074675002365 -0.0041316765692 -0.001478816045 0.00065389178025 
0.002050461556 0.0031727704624 0.0039025096795 0.0044061351492 0.0047396102396 0.0048595532458 0.0048099520633 0.0046334329203 0.0045337818041 
0.0042685729806 0.0039217997413 0.0036290636151 0.0032321622779 0.0028368957809 0.0025610895795 0.0021013318039 0.001624342411 0 
0 
TangentArray 3 280 double
-0.034576091416 -0.0080775872313 -0.99936942443 -0.034576091416 -0.0080775872313 -0.99936942443 -0.034634727222 -0.0080449048584 -0.99936765766 
-0.034764367147 -0.0079692296979 -0.99936376268 -0.034965041707 -0.0078485768034 -0.99935771659 -0.035234730789 -0.0076841956009 -0.99934952188 
-0.035569832379 -0.0074755191218 -0.99933923351 -0.03596880595 -0.0072186195849 -0.99932684169 -0.036429209029 -0.006912649517 -0.99931232756 
-0.036946264648 -0.0065530903341 -0.9992957673 -0.037516319363 -0.0061369186693 -0.99927717076 -0.038135169096 -0.0056606505055 -0.9992565566 
-0.038797331574 -0.0051204768718 -0.9992339805 -0.039498192184 -0.004510585682 -0.99920946124 -0.040231634602 -0.0038278019143 -0.99918304805 
-0.040993168151 -0.0030685144186 -0.99915471494 -0.041778242635 -0.0022251830305 -0.99912443019 -0.042580464484 -0.0012948118785 -0.9990922017 
-0.043394359252 -0.00027210926035 -0.99905798407 -0.044215005714 0.0008488077724 -0.99902167784 -0.045037436016 0.002070770229 -0.99898315365 
-0.045858615719 0.0033950903422 -0.99894217086 -0.046672879799 0.0048269366614 -0.99889856491 -0.047478906583 0.0063697722412 -0.99885193068 
-0.048274583969 0.0080231435644 -0.99880187911 -0.049051000326 0.0097861148119 -0.99874833233 -0.049807031206 0.011658847563 -0.99869080847 
-0.050545523357 0.013634583186 -0.99862868385 -0.051262886749 0.015707134052 -0.99856166679 -0.051957340826 0.017872319673 -0.99848936646 
-0.052626977031 0.020113327306 -0.99841166627 -0.053273431396 0.022417750421 -0.99832829569 -0.053902213176 0.024770516029 -0.9982389358 
-0.054511610196 0.027146657795 -0.99814404939 -0.055103878289 0.029528120163 -0.99804391322 -0.055683642132 0.031887173217 -0.99793914653 
-0.056257283982 0.034196504079 -0.9978305052 -0.056827665518 0.036429625175 -0.99771914828 -0.057393867989 0.038559097907 -0.99760670601 
-0.057963512834 0.040557105392 -0.99749453752 -0.058544495298 0.042397795887 -0.99738406292 -0.05913767869 0.044057583452 -0.99727712513 
-0.059743256441 0.045513254561 -0.99717565502 -0.060369072318 0.046747919916 -0.99708084281 -0.061011251246 0.047744754017 -0.99699451638 
-0.061667000993 0.048495154005 -0.996917951 -0.06233739516 0.048989135846 -0.99685210224 -0.0630188413 0.049224769678 -0.99679764631 
-0.06370803435 0.049205328408 -0.99675479533 -0.064398765208 0.048933434965 -0.99672379222 -0.065085942184 0.048417146327 -0.99670436945 
-0.065761768102 0.047666074101 -0.9966962101 -0.066419812751 0.046689524188 -0.99669879944 -0.067054387637 0.045505935956 -0.99671105085 
-0.06765844088 0.044134869471 -0.99673188405 -0.068226561873 0.042589245567 -0.9967603987 -0.068756301677 0.040890912935 -0.99679511647 
-0.069244012186 0.039056381931 -0.99683492405 -0.069687642673 0.037104138171 -0.99687858608 -0.070084600747 0.035051892463 -0.99692502906 
-0.070438841208 0.032916165755 -0.99697286607 -0.070755117284 0.030714020132 -0.99702074319 -0.071033303314 0.028453135345 -0.99706804628 
-0.071277356743 0.026144416333 -0.99711383899 -0.071499892423 0.023798563864 -0.99715665456 -0.07170927541 0.021423499348 -0.99719547407 
-0.071904474677 0.019020653629 -0.99723014458 -0.072094572683 0.016596137095 -0.99725971583 -0.072296821715 0.014149461333 -0.99728278954 
-0.072517582096 0.011678665611 -0.99729875617 -0.072762307747 0.0091872587231 -0.99730699428 -0.073039579431 0.0066732058351 -0.99730671719 
-0.073358364146 0.0041361814668 -0.99729706829 -0.073732056996 0.0015713849203 -0.99727684949 -0.074165960705 -0.0010214447768 -0.99724538952 
-0.074665576057 -0.0036420122257 -0.99720197929 -0.075238364908 -0.0062933490845 -0.99714571764 -0.07588980478 -0.008975161174 -0.99707581658 
-0.076625989764 -0.011685676283 -0.99699142557 -0.077449127497 -0.014423466748 -0.9968919682 -0.078361160406 -0.017187478803 -0.99677686526 
-0.079365822957 -0.019970350244 -0.99664549929 -0.080465946008 -0.022771451442 -0.9964972115 -0.081662494661 -0.025586241833 -0.99633156188 
-0.082955929135 -0.028406094011 -0.99614828597 -0.08434343619 -0.031224892328 -0.99594738359 -0.08582475595 -0.034035199926 -0.99572873637 
-0.087397710414 -0.03683307124 -0.99549232296 -0.08905888537 -0.039606373614 -0.99523858954 -0.090809620084 -0.042349152337 -0.99496741766 
-0.092647538485 -0.045053200267 -0.99467916574 -0.094568621018 -0.047709441917 -0.99437446924 -0.096571076016 -0.050313398035 -0.99405361488 
-0.09865364555 -0.052858949672 -0.99371695651 -0.10081659371 -0.055340183052 -0.99336472585 -0.10305513305 -0.057749393203 -0.99299780822 
-0.10536393798 -0.060086021693 -0.99261679946 -0.10774601618 -0.062349148978 -0.99222143679 -0.11019993239 -0.064533298904 -0.99181219403 
-0.11272055438 -0.066642909515 -0.99138932778 -0.11530569715 -0.068681457886 -0.99095280087 -0.11795123147 -0.07064990352 -0.9905029521 
-0.12065582792 -0.072559608663 -0.9900390267 -0.12341593862 -0.07441394154 -0.98956104986 -0.12622930089 -0.076216250109 -0.9890688787 
-0.12909153636 -0.077980698186 -0.9885617765 -0.13199577574 -0.079717726161 -0.98803957376 -0.13493926979 -0.081433681767 -0.98750187288 
-0.13791819883 -0.083138533 -0.98694810135 -0.14092308599 -0.08484148505 -0.98637853091 -0.14394617629 -0.086548183477 -0.98579354343 
-0.14698359955 -0.088265371844 -0.98519289766 -0.1500267967 -0.089999340244 -0.9845771067 -0.15306707474 -0.09175389046 -0.98394699767 
-0.15609883454 -0.09353064784 -0.98330319422 -0.15911165796 -0.095327749476 -0.98264749554 -0.16209521671 -0.097146060979 -0.98198155968 
-0.16504690149 -0.098981487743 -0.98130636673 -0.16795847882 -0.10082979101 -0.98062393538 -0.17082413371 -0.10268538911 -0.97993613374 
-0.17363790635 -0.10454256844 -0.97924497898 -0.1763957689 -0.10639471332 -0.97855234796 -0.17909424096 -0.1082324764 -0.97786041126 
-0.18172995842 -0.11005255775 -0.97717074084 -0.18430207829 -0.1118453059 -0.97648521314 -0.18681014415 -0.11360363534 -0.97580540277 
-0.18925430795 -0.11532383806 -0.97513241116 -0.19163547307 -0.11699915523 -0.97446756905 -0.19395562614 -0.11862542264 -0.97381169853 
-0.19621649597 -0.12019925149 -0.97316557001 -0.19842100473 -0.12171941994 -0.97252942767 -0.20057182607 -0.123184733 -0.97190352615 
-0.20267288277 -0.12459582313 -0.97128759049 -0.2047270491 -0.12595536754 -0.9706812457 -0.20673861917 -0.12726502196 -0.97008389201 
-0.20871078775 -0.12852960462 -0.96949468684 -0.21064748894 -0.12975491336 -0.96891243044 -0.21255335469 -0.13094814389 -0.96833550747 
-0.21443131192 -0.13211724672 -0.96776249441 -0.21628513663 -0.13327074847 -0.96719162904 -0.21811764896 -0.134418809 -0.96662106071 
-0.21993176831 -0.13557249985 -0.96604871232 -0.22172950175 -0.13674304343 -0.96547261387 -0.2235129611 -0.13794191007 -0.96489065995 
-0.22528477682 -0.13918083736 -0.96430050495 -0.22704485192 -0.14047188205 -0.963700309 -0.22879253342 -0.1418272993 -0.96308825858 
-0.23052715432 -0.14325899445 -0.9624625144 -0.23224849134 -0.1447775077 -0.96182124718 -0.23395311986 -0.1463921406 -0.96116350268 
-0.23563741439 -0.14811249035 -0.9604882608 -0.2372981187 -0.14994605745 -0.95979465654 -0.23892922531 -0.15189893826 -0.95908265434 
-0.2405257796 -0.15397551696 -0.95835217406 -0.24207994555 -0.15617916298 -0.95760397295 -0.2435852629 -0.15851072729 -0.95683884173 
-0.2450340723 -0.16097024011 -0.9560579926 -0.24641608387 -0.16355548442 -0.95526368984 -0.24772293047 -0.16626203756 -0.95445811044 
-0.24894481156 -0.16908539084 -0.95364385983 -0.25007116068 -0.172017013 -0.95282451786 -0.25109035006 -0.17504839885 -0.95200404105 
-0.25199076048 -0.17817033919 -0.95118662042 -0.25275976794 -0.18136893748 -0.95037771871 -0.25338348131 -0.18463048347 -0.9495832749 
-0.25384928419 -0.18793879022 -0.94880954466 -0.25414187068 -0.19127221751 -0.94806479123 -0.2542459072 -0.19460994703 -0.94735737037 
-0.25414830535 -0.19793008584 -0.94669547374 -0.2538351295 -0.20120407651 -0.9460891325 -0.25329223269 -0.20440402973 -0.94554853788 
-0.25250768231 -0.20749968162 -0.9450839923 -0.25147396365 -0.21045929876 -0.9447051017 -0.25018348801 -0.21325085528 -0.94442167227 
-0.24863276582 -0.21584242493 -0.94424244522 -0.24682241928 -0.21820434002 -0.9441745386 -0.2447552032 -0.22030992686 -0.94422371641 
-0.24243947218 -0.22213463656 -0.94439361792 -0.2398865429 -0.22365670028 -0.94468625848 -0.2371104118 -0.22486227158 -0.94510084723 
-0.23412756451 -0.22573720946 -0.94563576275 -0.23095784495 -0.22627430258 -0.94628664465 -0.22762243148 -0.22647140134 -0.94704737636 
-0.22414272589 -0.22632785574 -0.9479112512 -0.22054029767 -0.22584731527 -0.94887036379 -0.21683757743 -0.22503450019 -0.94991627986 
-0.21305629824 -0.22389651094 -0.95104014961 -0.2092161216 -0.22244249158 -0.95223313973 -0.20533724751 -0.22068169549 -0.95348634183 
-0.20143821972 -0.21862263009 -0.95479148993 -0.1975350184 -0.21627486383 -0.9561407322 -0.19364389409 -0.21364809364 -0.95752625779 
-0.18977952575 -0.21075264294 -0.95894058997 -0.18595434256 -0.2075999033 -0.96037662541 -0.18218009532 -0.20420083126 -0.96182765264 
-0.17846671196 -0.20056829416 -0.96328707668 -0.17482210282 -0.19671629283 -0.96474863695 -0.17125292515 -0.19266115005 -0.96620604267 
-0.16776405065 -0.1884213958 -0.96765314081 -0.16435755089 -0.18401856578 -0.96908398135 -0.16103337519 -0.1794763117 -0.97049291889 
-0.15778938903 -0.1748203158 -0.97187466573 -0.15462095959 -0.17007966928 -0.97322415966 -0.15152040919 -0.16528625789 -0.97453682257 
-0.1484768216 -0.16047344873 -0.97580884691 -0.14547662344 -0.15567509361 -0.97703726503 -0.14250417948 -0.15092644247 -0.97821969301 
-0.13954088953 -0.1462635977 -0.9793545324 -0.13656545879 -0.14172230861 -0.98044105519 -0.13355480919 -0.13733650836 -0.98147939174 
-0.13048466687 -0.13313934069 -0.98247018666 -0.12732884184 -0.12916134544 -0.98341482238 -0.12406130752 -0.1254314481 -0.98431486009 
-0.12065583396 -0.12197622173 -0.9851720515 -0.11708669917 -0.11881765805 -0.98598837164 -0.11332935433 -0.11597588517 -0.98676544908 
-0.10936183745 -0.11346763768 -0.98750447275 -0.10516514886 -0.11130616381 -0.98820606624 -0.10072349657 -0.10950172159 -0.98887013819 
-0.096026635444 -0.10806152571 -0.98949562503 -0.091069266027 -0.10698859896 -0.99008071816 -0.085851816792 -0.10628194784 -0.990622841 
-0.080382145331 -0.10593850899 -0.99111843037 -0.074675098414 -0.10595018034 -0.99156350728 -0.068752288179 -0.10630509609 -0.99195380407 
-0.062643486511 -0.10698818304 -0.99228489976 -0.056385131249 -0.10798054685 -0.99255272831 -0.050019395745 -0.10926022707 -0.99275387828 
-0.043594053784 -0.11080212044 -0.99288591922 -0.037160399459 -0.11257887484 -0.99294768324 -0.030771602583 -0.11456101134 -0.99293951636 
-0.024481530211 -0.11671941149 -0.99286314951 -0.01834273032 -0.11902542835 -0.99272175943 -0.012404798881 -0.12145026598 -0.99252000174 
-0.0067130152282 -0.12396761583 -0.99226355655 -0.0013072233501 -0.12655372688 -0.99195889299 0.0037788011891 -0.12918826121 -0.99161288507 
0.0085174934385 -0.13185507829 -0.99123241 0.012887844846 -0.13454248075 -0.99082401279 0.016874620091 -0.1372431469 -0.99039364185 
0.020467904308 -0.1399531573 -0.98994655343 0.023662310773 -0.1426744294 -0.9894867873 0.026456140665 -0.14541422035 -0.98901707626 
0.028850221232 -0.14818247873 -0.98853913313 0.030847000345 -0.15099449974 -0.98805319878 0.032449948976 -0.1538695431 -0.98755818285 
0.033663263412 -0.15683084708 -0.98705160458 0.034491047316 -0.15990606531 -0.98652948153 0.034936696176 -0.16312472164 -0.98598668979 
0.035003738397 -0.16652006694 -0.98541656451 0.034695302077 -0.17012709713 -0.98481115288 0.03401524412 -0.1739828835 -0.98416102311 
0.032968425095 -0.17812556733 -0.98345531938 0.031560918749 -0.18259065421 -0.98268232985 0.02980124124 -0.18741087051 -0.98182944121 
0.027701192724 -0.1926159486 -0.98088314302 0.025276738764 -0.19822922046 -0.97982971104 0.022548209887 -0.20426341585 -0.97865623953 
0.019541035184 -0.21072321936 -0.97735043498 0.016285583552 -0.21759874524 -0.97590243664 0.012817570861 -0.22486759478 -0.97430502138 
0.0091773858057 -0.23249645204 -0.97255394471 0.0054087922114 -0.24043289796 -0.97065069234 0.001558569881 -0.24861452311 -0.96860125426 
-0.0023247564867 -0.25696510268 -0.96641788659 -0.0061927651889 -0.26540068741 -0.96411831472 -0.0099984567837 -0.27383235687 -0.9617254656 
-0.013696978007 -0.28216519183 -0.9592680529 -0.017246894154 -0.29030152122 -0.95677979254 -0.020610872874 -0.29814431268 -0.95429825565 
-0.023756556239 -0.30560612154 -0.95186160996 -0.026656268848 -0.31260090483 -0.9495104621 -0.029286872025 -0.31904820775 -0.9472858704 
-0.031629937824 -0.32487852835 -0.94522668649 -0.033670493348 -0.33002680012 -0.94337087568 -0.035396958695 -0.33443722682 -0.9417530444 
-0.036800974315 -0.33806554815 -0.94040277192 -0.037875303178 -0.34086813738 -0.93934784522 -0.038614650558 -0.34281135343 -0.93861029438 
-0.038614650558 -0.34281135343 -0.93861029438 
NormalArray 3 280 double
0.89497238043 -0.44528147212 -0.027365102672 0.89497238043 -0.44528147212 -0.027365102672 0.8678758434 -0.49609589853 -0.026084092871 
0.8607106798 -0.50843584154 -0.02588669015 0.85396558609 -0.51968962729 -0.025796687165 0.85330846363 -0.52075370568 -0.026081486097 
0.84465745359 -0.53467225759 -0.026064593967 0.83691331316 -0.54670927643 -0.02617390545 0.82873364037 -0.55902285496 -0.026343897918 
0.8134465415 -0.58104637668 -0.026264658236 0.80183316948 -0.59696283871 -0.026437426617 0.78322265681 -0.62118178209 -0.026371641311 
0.76649247868 -0.64170748619 -0.026472292796 0.7423589618 -0.66948508424 -0.026322876362 0.72145123928 -0.691961887 -0.026398035533 
0.6949349467 -0.7185913141 -0.02630481238 0.66785519615 -0.74382749457 -0.026269665037 0.63824362977 -0.7693883314 -0.026204285264 
0.60724842455 -0.79408124257 -0.026159722306 0.57433099416 -0.81820655285 -0.026114096269 0.5424655209 -0.83966951463 -0.026196656797 
0.51159847523 -0.85881882929 -0.026404897261 0.47720854529 -0.87838917 -0.026541860097 0.44898056773 -0.89313237529 -0.027037196821 
0.41835978628 -0.90786459455 -0.027513036555 0.38775250994 -0.92133598936 -0.028071083932 0.36095092117 -0.93213742778 -0.028883355818 
0.33916518052 -0.94024822315 -0.030004319576 0.31488274722 -0.94862135579 -0.031086634349 0.29573684673 -0.95471718941 -0.032477772961 
0.27655637254 -0.96039870136 -0.03392502355 0.26333121161 -0.96404470152 -0.035699950511 0.25265704077 -0.96682372694 -0.037633771786 
0.2437484924 -0.9690269524 -0.039666585097 0.23849279296 -0.97024111661 -0.041873181692 0.23838314994 -0.97016024169 -0.044301007572 
0.2433628138 -0.96879969005 -0.046922291146 0.25122709075 -0.96665625798 -0.049604715234 0.26236692019 -0.9635478363 -0.052337045676 
0.28612450756 -0.95658260695 -0.055520106716 0.31614031539 -0.94688801393 -0.058808078183 0.35791229725 -0.9316690092 -0.062383048793 
0.41177751313 -0.90888005066 -0.066153859997 0.49549920524 -0.86573527088 -0.070590214398 0.59129758552 -0.80299204017 -0.074638788644 
0.72747393829 -0.68166907976 -0.078159675027 0.87775785548 -0.47269274849 -0.078119860897 0.98545455265 -0.15487522509 -0.069949905685 
0.97669805337 0.20818598928 -0.052148886973 0.86722135626 0.4969167902 -0.031635784472 0.73168474173 0.68148519987 -0.014675186147 
0.61152007184 0.79122494271 -0.0025083414369 0.511594021 0.8592052482 0.006156228083 0.43723118717 0.8992737878 0.011642316872 
0.37209965993 0.92805768749 0.015835775206 0.32007084532 0.94721171756 0.018563838547 0.27686982956 0.96069272602 0.020312155182 
0.23818886166 0.97098089933 0.02149789087 0.20572971203 0.97836078424 0.022033189765 0.17477327493 0.98435561391 0.022323255291 
0.15282208324 0.98801273561 0.021823041788 0.13181989682 0.99104748899 0.021175206648 0.11267003631 0.99342461559 0.020322304235 
0.097738121969 0.99502880981 0.019103067007 0.091183007848 0.99568516552 0.017225279167 0.084495942842 0.99630591777 0.015328204691 
0.077495034883 0.99690232406 0.013426684008 0.078816110915 0.99682967625 0.010891152985 0.085869243874 0.99627501328 0.0079101749725 
0.092069196632 0.99574022963 0.0049656952053 0.10335867977 0.9946428269 0.0016217924184 0.11579955801 0.99327090798 -0.001834590868 
0.13341634031 0.99104366726 -0.005703484154 0.15473783805 0.98790612635 -0.0098836730343 0.17519877703 0.98443299575 -0.014037998773 
0.1990955505 0.97980571442 -0.018485771932 0.22294238077 0.97456090243 -0.022972642569 0.24876068685 0.96817026818 -0.027648734132 
0.27499097606 0.96090080236 -0.032397702332 0.30028015484 0.95312852859 -0.037119221356 0.32570139648 0.9445441685 -0.041891694825 
0.35254613223 0.93462335191 -0.046801866493 0.37744658912 0.92459224732 -0.051606671581 0.40362818825 0.9131748255 -0.056533385917 
0.42854538182 0.9014320572 -0.061393012414 0.45274255792 0.88917897789 -0.066218740042 0.47743086517 0.87578904649 -0.071086672696 
0.49987494487 0.86277352169 -0.075808243342 0.52451960736 0.84756836026 -0.080666326215 0.54764525724 0.83233993835 -0.085410182372 
0.57210924808 0.8152010888 -0.090211934241 0.59472945837 0.79830935521 -0.094863294955 0.61848797601 0.77946450881 -0.099537445417 
0.64112584224 0.76034335272 -0.10409438214 0.6653577305 0.73857246705 -0.10867291006 0.68738021585 0.71744372298 -0.11306167882 
0.70870746316 0.6956761463 -0.11733895827 0.73053685971 0.67196754782 -0.12155456089 0.75162943596 0.64750810954 -0.12564409689 
0.7692536471 0.62567773553 -0.12952296204 0.7872565095 0.60203838682 -0.13333030055 0.8022983245 0.58099383775 -0.13698014092 
0.81539336612 0.56159131112 -0.14053062928 0.82760359051 0.54252392985 -0.14401417471 0.83824464938 0.5249845919 -0.14743502315 
0.84507757516 0.51293116239 -0.15081616165 0.85113651807 0.50178824297 -0.15419204529 0.85548278922 0.49327353039 -0.15757671643 
0.85812778909 0.48754495189 -0.16098638914 0.85866591871 0.48544326425 -0.16443137545 0.85873082603 0.48414019576 -0.16789770481 
0.85707679897 0.48584192782 -0.17139714651 0.85441223153 0.48926886205 -0.17491632069 0.85060504133 0.49459906095 -0.17844560115 
0.84669276637 0.49999783678 -0.18197121365 0.84174068363 0.50701963294 -0.18548238012 0.83592164378 0.51529425819 -0.18896251727 
0.83135243179 0.52137268392 -0.19241532842 0.8250571645 0.53003585701 -0.19581283308 0.82066824787 0.53556562317 -0.19918104884 
0.81452337079 0.5436523717 -0.20246920056 0.81084926502 0.54790132098 -0.20573675385 0.80627979551 0.55341144737 -0.20892262029 
0.80258539842 0.55757364332 -0.21205732838 0.80031774797 0.55964336475 -0.21515298413 0.79841552414 0.56118495362 -0.21818363516 
0.79716912029 0.56179325537 -0.22115544732 0.7974994526 0.56015960143 -0.22408891991 0.79806167803 0.55820394492 -0.22694914395 
0.80003207375 0.55421859765 -0.22976167434 0.80188990753 0.55038229115 -0.23249066601 0.80517854335 0.54441173442 -0.23516669993 
0.80806065926 0.53899052869 -0.23775445513 0.81142581943 0.5327827317 -0.24027213815 0.81506493542 0.52607720129 -0.24271779771 
0.81772503833 0.52082498875 -0.24508588857 0.82039085803 0.51551404061 -0.24739465233 0.82160681543 0.51248189865 -0.24964884216 
0.82202346792 0.51072741887 -0.2518629028 0.82085394792 0.51152710661 -0.25404490823 0.81789721505 0.51517600566 -0.25619880718 
0.81290312199 0.52197673791 -0.25831918114 0.80571464668 0.53199799195 -0.26038825759 0.79634629469 0.54496747863 -0.26237954602 
0.7847651924 0.56063420992 -0.26425910669 0.77008283336 0.5798638036 -0.26595187352 0.75295723014 0.60128343302 -0.26742034842 
0.73295021468 0.62501635215 -0.26858619167 0.71144643593 0.64901648004 -0.26948390942 0.68662975097 0.67503382532 -0.26994243786 
0.66046806531 0.70060271624 -0.270069933 0.63221734913 0.72630670512 -0.26977730365 0.60239012996 0.75147722702 -0.26908754822 
0.57180615722 0.77535059781 -0.26808425736 0.53889659509 0.79908544027 -0.26655753403 0.50688666372 0.8202914803 -0.26492979728 
0.47222548378 0.84142283544 -0.26269888556 0.43781555261 0.86056519402 -0.26027886724 0.40213181823 0.87864753716 -0.25742670064 
0.36573256383 0.89532816651 -0.25421873654 0.32824396895 0.91075272857 -0.25057007852 0.28902280678 0.92508806842 -0.24632881037 
0.24832314532 0.93808938962 -0.24150344216 0.20546137166 0.94980781184 -0.23590410198 0.15964116555 0.96017783679 -0.2292885082 
0.11168836178 0.96868438519 -0.22175723604 0.058570699989 0.97540650809 -0.21248909874 0.0018943374247 0.97944353894 -0.20170960689 
-0.060102092612 0.98017558536 -0.18879502197 -0.12788661567 0.97651934178 -0.17336374668 -0.20276564308 0.96692870651 -0.15470930974 
-0.2841449975 0.94957230016 -0.13256721754 -0.37098265363 0.92248310971 -0.10675571653 -0.46473288156 0.88217596186 -0.076084959909 
-0.55968110012 0.82765223723 -0.041819138914 -0.65495213149 0.75566261514 -0.0034230880829 -0.74312556089 0.66814294703 0.036734222259 
-0.82129222271 0.56516386391 0.077903092609 -0.88378580717 0.45298131319 0.11717754456 -0.92915454546 0.33652633043 0.15304201898 
-0.95792733366 0.21965370839 0.18473622225 -0.97132829545 0.10998942213 0.21076923277 -0.97269575345 0.0076488923633 0.2319578963 
-0.96490701631 -0.084995821724 0.24845554966 -0.95059796582 -0.16812104701 0.2609575079 -0.93165323148 -0.24291236086 0.27021443561 
-0.90982029083 -0.30934245852 0.27664829974 -0.88602827936 -0.36889132091 0.28084351786 -0.86093946784 -0.42258044642 0.28321193304 
-0.83483401219 -0.47152982005 0.28409822402 -0.8084864582 -0.51563895765 0.2836654936 -0.78145456974 -0.55649727496 0.28220478096 
-0.75469862532 -0.5934250012 0.27977982932 -0.7278352874 -0.62750552574 0.27657297335 -0.70129449616 -0.65866315269 0.27266991206 
-0.67525509574 -0.68710742771 0.26816774314 -0.6500438922 -0.71287686004 0.26315303654 -0.62586279405 -0.73612495905 0.25771264556 
-0.60311741091 -0.75682204427 0.25193209792 -0.58230412815 -0.77488958847 0.24590247664 -0.56356177765 -0.79053068002 0.23970683494 
-0.54734074261 -0.80369612234 0.2334323337 -0.53413920428 -0.81430333991 0.22716817793 -0.52446932804 -0.82224711965 0.22100135333 
-0.51877602929 -0.82743148534 0.21500829866 -0.51739245385 -0.82977121521 0.20924812809 -0.52090100908 -0.82893720494 0.20377744968 
-0.5299219874 -0.8244555849 0.19863452821 -0.54491858497 -0.81577980247 0.19382221141 -0.56611023064 -0.80230017181 0.1892977577 
-0.59393094535 -0.78296027329 0.1849844388 -0.62819053513 -0.75677808232 0.18073069936 -0.66850886748 -0.72249918426 0.17632589953 
-0.71375830258 -0.67907241715 0.17149267553 -0.76189828047 -0.62608357188 0.16592278695 -0.81093558144 -0.56303113004 0.15930922559 
-0.85750203736 -0.49168078367 0.15146043341 -0.89929930014 -0.41354129003 0.14228271222 -0.93399585919 -0.33204425129 0.13190280588 
-0.96070407155 -0.25003623414 0.12053865987 -0.9792526458 -0.17110887247 0.1085633891 -0.99061784779 -0.097007525203 0.09625912786 
-0.99605481766 -0.028967971277 0.083878822399 -0.99691670952 0.031960166191 0.071663254548 -0.99446646757 0.086470667675 0.0596596054 
-0.98972468343 0.1347036407 0.047958108704 -0.98341375661 0.17765789178 0.03653842904 -0.97608117579 0.21591562381 0.025416169182 
-0.96802413627 0.25043447129 0.01455497105 -0.95945588285 0.28183111853 0.0039534143796 -0.95044998734 0.31081150962 -0.0064052356544 
-0.94085945417 0.3383911085 -0.01658147137 -0.93064275018 0.36496368492 -0.026562760097 -0.91963746923 0.39108157857 -0.036361024285 
-0.90746187799 0.41760487075 -0.04603381277 -0.89385322042 0.44490113505 -0.055582374756 -0.87814104672 0.47395269029 -0.065093390129 
-0.85971685035 0.50529342586 -0.074602218521 -0.8375033987 0.53990492931 -0.084206439633 -0.81037102021 0.57833574828 -0.093949836939 
-0.7767823558 0.62114352663 -0.10387440035 -0.73427204702 0.66920598782 -0.11405221099 -0.68055755242 0.72206217007 -0.12436896874 
-0.61317226479 0.7784012749 -0.134577966 -0.5295723394 0.83590516538 -0.14427644239 -0.42986175139 0.88987572704 -0.15277455653 
-0.31648987969 0.93511212314 -0.15937212183 -0.19567375976 0.9669314586 -0.16357057837 -0.076011959195 0.98329746313 -0.16537315704 
0.034404004244 0.98563716365 -0.16533525371 0.13028534751 0.97776515719 -0.16431988803 0.20903572738 0.96418923867 -0.16322737734 
0.27147472071 0.94859201226 -0.16271038775 0.31947118705 0.93344002288 -0.1631805268 0.35538908952 0.92006954624 -0.16483514529 
0.38131628773 0.90909715588 -0.16775055851 0.39940417577 0.90051844162 -0.17188030918 0.41149565052 0.89403556468 -0.17712068961 
0.41848138907 0.88951184515 -0.18341756826 0.42217488189 0.88625797018 -0.19056542025 0.42256784371 0.88431805569 -0.19853965307 
0.42085762126 0.88315687788 -0.20715402887 0.41764406404 0.88249693886 -0.21626971283 0.41296559485 0.88231119335 -0.22580162876 
0.40768658137 0.88221572534 -0.23555692587 0.40149306069 0.8823531639 -0.2454714166 0.39508290838 0.88243892887 -0.25536450874 
0.38829790664 0.88256526132 -0.26514768566 0.38175316053 0.88251459361 -0.27464980701 0.37517546367 0.88244111944 -0.28379753732 
0.36865462375 0.88235109537 -0.29248985092 0.36261828173 0.88212778381 -0.30059699729 0.35688527193 0.88189212224 -0.30805711711 
0.35155181209 0.88165571741 -0.31479281976 0.34690919798 0.88136028201 -0.3207149227 0.34265311463 0.88116066944 -0.32579858451 
0.33881790923 0.88108068271 -0.32999887113 0.33618054352 0.88088322203 -0.33320772996 0.33353869402 0.88101795172 -0.33549859662 
0.33353869402 0.88101795172 -0.33549859662 
BinormalArray 3 280 double
-0.4447796445 -0.89535421101 0.022625310358 -0.4447796445 -0.89535421101 0.022625310358 -0.49557235204 -0.8682304642 0.02416412471 
-0.5079060587 -0.86106299794 0.024534651377 -0.51915337198 -0.8543190804 0.024873383983 -0.52021455155 -0.85367237928 0.024905605769 
-0.53412411771 -0.84502644549 0.025332455526 -0.54615231507 -0.83729138214 0.025705838708 -0.55845632421 -0.82912343044 0.026093505634 
-0.58046507014 -0.81384406685 0.026798081874 -0.59636909218 -0.80224541596 0.027316633452 -0.62057068795 -0.7836460621 0.028122422028 
-0.64108037498 -0.76693238482 0.028821345125 -0.66883709874 -0.74281180429 0.029791924226 -0.69129554093 -0.72192388441 0.030600330231 
-0.7179031829 -0.69542584617 0.031589752474 -0.74311776686 -0.66836794274 0.032561905596 -0.76865595236 -0.63878002393 0.033587317953 
-0.79332608709 -0.60781157125 0.034623884635 -0.81742824909 -0.57492374834 0.035689510797 -0.83886994701 -0.54309374707 0.036693240589 
-0.85799999272 -0.51226818349 0.037647319623 -0.87754979722 -0.47792171609 0.038693496726 -0.8922792182 -0.44974880346 0.039545044655 
-0.90699760406 -0.41918672108 0.040470224976 -0.92045748973 -0.3886440874 0.041397861333 -0.93125382799 -0.36191696149 0.042218726185 
-0.93936794197 -0.34021666186 0.042900962657 -0.94774520413 -0.31602343153 0.043683163609 -0.95385541473 -0.29697755545 0.044319062939 
-0.95955561282 -0.27790248016 0.044980411558 -0.96323341642 -0.26479285855 0.045454675889 -0.96605329623 -0.25424063909 0.045855493355 
-0.96830530144 -0.24545839666 0.046206262588 -0.96957967713 -0.24033365507 0.046421804553 -0.96957351749 -0.24035871865 0.046420690915 
-0.96830246249 -0.2454745601 0.04617988183 -0.96625853958 -0.25347299918 0.04578070975 -0.96325985233 -0.26474282451 0.045185105554 
-0.95643765994 -0.28862577376 0.043842506407 -0.94690434736 -0.31875620147 0.042031428316 -0.93188063744 -0.36062693555 0.039327991607 
-0.90932393732 -0.4145667584 0.035558119163 -0.86650799922 -0.49831423092 0.029100078012 -0.80414227135 -0.5940742562 0.02076019134 
-0.68335850774 -0.73005170072 0.0067575271462 -0.47503178452 -0.87986455213 -0.01353416417 -0.15782252784 -0.98670694064 -0.038748716151 
0.20494438002 -0.97685077137 -0.061321868627 0.49374073995 -0.86641746437 -0.074436947537 0.67852874578 -0.73022852745 -0.079781193523 
0.78849133895 -0.60966469097 -0.081181112257 0.85665627072 -0.50949625101 -0.080954333118 0.89684591657 -0.4350124876 -0.08019686756 
0.92572359723 -0.36981217123 -0.079213506104 0.94493374912 -0.31776739652 -0.078256574685 0.9584444003 -0.27458590533 -0.077375138984 
0.96874730088 -0.2359463756 -0.076537408378 0.97612443779 -0.20355210338 -0.075813080399 0.98211122135 -0.17267133576 -0.075114304233 
0.98574021959 -0.15082228056 -0.074624789218 0.98874527973 -0.12992891726 -0.074170400282 0.99109017387 -0.11089613257 -0.073772047832 
0.99265643499 -0.09609441789 -0.073478329598 0.99326402556 -0.089692137451 -0.073361406858 0.99384013577 -0.083159797327 -0.073254574227 
0.99439643306 -0.07631494618 -0.073155744133 0.99427883074 -0.077814939354 -0.073174052529 0.99367984911 -0.085064038557 -0.07324252056 
0.99310848517 -0.091460395073 -0.073283919209 0.99197914791 -0.10296232889 -0.073322090401 0.99058350592 -0.11562167479 -0.073320843666 
0.98834135325 -0.13347412332 -0.073253176421 0.98520037822 -0.15504520717 -0.07308350352 0.98173560534 -0.17575731431 -0.072832463004 
0.97713152314 -0.19991872784 -0.072432649662 0.9719238053 -0.22403446433 -0.071921314574 0.96558731258 -0.25013152201 -0.071241585387 
0.95838844984 -0.27664615125 -0.070416519518 0.95070156267 -0.30222172587 -0.069487892103 0.94221978799 -0.32793429881 -0.06841759125 
0.93242280688 -0.35507798463 -0.067136681742 0.92252875505 -0.3802770532 -0.065803183176 0.91127137704 -0.40676416054 -0.064244805877 
0.89970393438 -0.43198766195 -0.062605833453 0.88764314959 -0.45649288208 -0.060859572759 0.8744677697 -0.48149262842 -0.058914926232 
0.86167666773 -0.50424713696 -0.056992500946 0.84672764006 -0.52920620731 -0.054709173903 0.8317681679 -0.5526452536 -0.052392161156 
0.81492787526 -0.57742306324 -0.049751021719 0.79834431624 -0.6003548805 -0.047120804318 0.77983757976 -0.62442264652 -0.044155494615 
0.76106840207 -0.64736691097 -0.041121404987 0.73968581499 -0.67189893217 -0.037639341737 0.71894928779 -0.69421863411 -0.034240467965 
0.69759026099 -0.71583822856 -0.030715766326 0.6743194292 -0.73795135225 -0.02685347478 0.65031466684 -0.75932121096 -0.022850222837 
0.62892201667 -0.77722975617 -0.019261440014 0.60574894507 -0.79550778634 -0.015348531099 0.58515374518 -0.81083583519 -0.011846639416 
0.56619416252 -0.82422709399 -0.0085946410431 0.54757721198 -0.83673792244 -0.0053708548225 0.53048286625 -0.84769231534 -0.0023805741636 
0.5188248907 -0.85488047899 -0.00031533246902 0.50807848094 -0.86130926116 0.0016167394831 0.49994058728 -0.86605414363 0.003103143216 
0.49456573681 -0.86913054498 0.0041021638981 0.49278141592 -0.87014180431 0.0044403288325 0.49179352045 -0.87069953646 0.0046314631203 
0.49377644954 -0.86957854464 0.0042394069956 0.49746527405 -0.86747685813 0.0034930970364 0.50303233921 -0.86426442278 0.0023394903558 
0.50866935551 -0.86096119606 0.0011426433643 0.51590319036 -0.85664678368 -0.00043148940115 0.52436642358 -0.85148955972 -0.0023202394707 
0.53067188964 -0.84756898808 -0.0037624454648 0.53950961503 -0.84195922914 -0.0058336747909 0.54527308963 -0.83822740002 -0.0072168952566 
0.55353550556 -0.8327742492 -0.0092462943664 0.55803942704 -0.82974954501 -0.0103773997 0.56377135809 -0.82584593053 -0.011847144166 
0.56818210149 -0.82280013782 -0.013001259105 0.57054732164 -0.82115158883 -0.013631651889 0.57239376382 -0.81985709844 -0.014132136026 
0.57332730667 -0.8192000675 -0.014389191225 0.57207557942 -0.82008073907 -0.014039687968 0.57050746985 -0.82117986153 -0.013596391802 
0.56696363877 -0.82364669972 -0.012583574801 0.56356160363 -0.82599256437 -0.01160183279 0.5580846315 -0.8297236799 -0.010007951825 
0.55313802395 -0.83304567152 -0.008557781254 0.54742577116 -0.83682603102 -0.0068715991547 0.54122850478 -0.84086050714 -0.005031217267 
0.53643785173 -0.84393214883 -0.0035999178211 0.53158863369 -0.84699996245 -0.002141993461 0.5289454719 -0.84865475145 -0.0013418592904 
0.52753827412 -0.84953077445 -0.00091247313498 0.5286014906 -0.84886920477 -0.0012398901199 0.53241791557 -0.84647815505 -0.0024282096199 
0.53927593266 -0.84211660853 -0.0045919586049 0.54923577467 -0.83563118458 -0.0077837767661 0.56202716585 -0.8270323311 -0.011957765889 
0.57739965547 -0.81628302517 -0.017078076246 0.59617368692 -0.80251206821 -0.023480106491 0.61701652022 -0.78634804657 -0.030779269503 
0.64003219757 -0.767353517 -0.039081530332 0.66325304905 -0.74687152972 -0.047731656488 0.68833532729 -0.723117332 -0.057409070404 
0.71292141478 -0.69801040408 -0.067264642619 0.73755733765 -0.67081648009 -0.077552715771 0.76160288643 -0.64203480422 -0.088047450536 
0.78433734318 -0.61247284892 -0.098447658341 0.80683812488 -0.58057775379 -0.10927814072 0.82688096474 -0.54954184252 -0.11946394216 
0.84673572966 -0.51584512579 -0.13016301438 0.8646367188 -0.48236619944 -0.14044997023 0.88143255584 -0.44758847204 -0.15080188729 
0.89680888296 -0.4120650493 -0.1610472682 0.91088984595 -0.37541925182 -0.17128944485 0.92380704331 -0.33700166724 -0.18168770738 
0.93532682637 -0.29705828942 -0.19214603966 0.94546185775 -0.25489297576 -0.20280889144 0.95410246287 -0.20969050122 -0.21381857738 
0.9607737771 -0.16226389932 -0.22490926219 0.96539182857 -0.10953119551 -0.23668868697 0.96713775139 -0.053078456517 -0.2486508542 
0.96529600504 0.0089164441458 -0.26100597631 0.95875582948 0.07698632819 -0.27360622199 0.94590123102 0.15253809086 -0.28636164546 
0.92493323584 0.23506664778 -0.29873429721 0.89394223321 0.32362292234 -0.31005723313 0.84937127991 0.4198686045 -0.31981054364 
0.79053071663 0.51807704235 -0.32658439072 0.71422433366 0.61754423167 -0.32942787243 0.62278350272 0.7106676709 -0.32724940073 
0.51643217099 0.79450991823 -0.31945547827 0.40171767896 0.86300962354 -0.3063287386 0.28363794397 0.91443260427 -0.28872569853 
0.16601056278 0.94910218662 -0.26766683095 0.056389860061 0.96783380134 -0.24518955253 -0.045287966384 0.97398778166 -0.22202882984 
-0.13680090752 0.97033572129 -0.19933414082 -0.2184616316 0.95954588412 -0.17761253273 -0.29155397662 0.94358521537 -0.15698159144 
-0.3561376871 0.92421728817 -0.1377982296 -0.41374207259 0.90246248193 -0.11991232662 -0.46542437355 0.87904798253 -0.10322207576 
-0.51232296037 0.85432065082 -0.087529479935 -0.55437312652 0.82906070262 -0.072998547673 -0.59315326664 0.80291050251 -0.05919397972 
-0.62802365922 0.77680762834 -0.046434814618 -0.66005816176 0.75042594259 -0.034411157792 -0.68919985673 0.72419946962 -0.023209603133 
-0.7156676522 0.69832352256 -0.01280895929 -0.73951346883 0.67313392617 -0.0032475929266 -0.76089959827 0.6488464579 0.005484106837 
-0.7798106257 0.62587360618 0.013327307368 -0.79618370858 0.60471753169 0.020204184461 -0.81022612575 0.58553351525 0.026155834331 
-0.82190061454 0.56877974658 0.031128438636 -0.83113637227 0.55496213989 0.035062144599 -0.83783858203 0.54460088797 0.037899647415 
-0.8419180868 0.53814998775 0.039604618494 -0.84329212064 0.53595241919 0.04016719593 -0.84163810368 0.53859476346 0.039509280052 
-0.83648731456 0.54669913894 0.037536969322 -0.8272929416 0.56072997167 0.034180223131 -0.81343857771 0.58090715074 0.029403443934 
-0.79386383207 0.60765707962 0.023088735954 -0.7675702037 0.64078411416 0.015221742036 -0.73328349638 0.67989843402 0.0057821581667 
-0.68992119494 0.72386632302 -0.0051274921654 -0.63702567851 0.77065019636 -0.017220910525 -0.57405569434 0.81825762487 -0.030241017433 
-0.50272283062 0.86335108859 -0.043527616541 -0.42450095433 0.90365620638 -0.056607423892 -0.34279222899 0.93688632616 -0.068829496534 
-0.26043535128 0.96218739769 -0.079805009421 -0.18102664023 0.97942595098 -0.089186109176 -0.10632847782 0.98959268773 -0.096956522148 
-0.037596687604 0.99395064714 -0.10319205458 0.024097799738 0.99385768954 -0.10801013371 0.079432787656 0.99056652991 -0.11166190966 
0.12853343769 0.98509312142 -0.11432715129 0.17238938564 0.9781502313 -0.11620681876 0.2115740965 0.9702796742 -0.11744681994 
0.24704013858 0.96177204456 -0.11817658075 0.27939848527 0.95283640651 -0.1184874207 0.30935082032 0.94354225139 -0.11844868003 
0.33791144134 0.93373874112 -0.11810089393 0.36546903532 0.92338207482 -0.11746458243 0.39257234511 0.91230753137 -0.11654150357 
0.4200807963 0.9001323248 -0.11529927333 0.44835779409 0.88659299244 -0.11370204148 0.47838689649 0.87102195181 -0.11165454193 
0.51069990164 0.8528146294 -0.10905419917 0.54628011187 0.83090371776 -0.10572157394 0.58567401922 0.80417167377 -0.10145867293 
0.62943644366 0.77109910718 -0.095999636966 0.67844281706 0.72925122767 -0.088926885278 0.73221683295 0.67637336366 -0.07985976755 
0.7894222181 0.61002738319 -0.068404337095 0.84770372178 0.5276961394 -0.054177343537 0.90231140717 0.42947101664 -0.037266209345 
0.94799838647 0.3177568293 -0.018156450204 0.98006231812 0.19867965333 0.0020610576817 0.99649466096 0.080724371775 0.021953735034 
0.99879482517 -0.028114923698 0.04022994252 0.99086929725 -0.12260533513 0.056088925459 0.97731623738 -0.20017259624 0.069165770936 
0.96188074051 -0.26161895293 0.079630173343 0.94707025561 -0.30878856306 0.087792677764 0.93424326654 -0.34401917925 0.094022993141 
0.92402950853 -0.36937982825 0.098630674 0.91642642413 -0.38700350446 0.10193574781 0.91113276082 -0.39871903144 0.10421240874 
0.90801512925 -0.40541879849 0.10556572781 0.90636810892 -0.40889802685 0.10629795279 0.90624065641 -0.40916517593 0.10635662399 
0.90708028212 -0.40740560728 0.10595297515 0.90859461849 -0.40421674197 0.1051886152 0.91074529278 -0.39964706552 0.10404438808 
0.91311896644 -0.39454321685 0.10271028751 0.91584112808 -0.38860695989 0.10109232834 0.91859105502 -0.38251454502 0.099363456467 
0.92143210737 -0.37611349887 0.097475676341 0.92410338657 -0.36999056589 0.095602887446 0.9267246427 -0.3638786055 0.09366854902 
0.92926282311 -0.35785673527 0.091701486333 0.93155645298 -0.35232264662 0.089840567614 0.93368901772 -0.34709440482 0.088035744659 
0.93563394041 -0.34225303179 0.086324919829 0.93729414072 -0.33806266355 0.084813497031 0.93879491815 -0.33422689292 0.083405549601 
0.94013196557 -0.33076958099 0.082118034633 0.94103565478 -0.32841081295 0.081229516593 0.941945247 -0.32601801286 0.080320650778 
0.941945247 -0.32601801286 0.080320650778 
