# vtk DataFile Version 4.1
vtk output
ASCII
DATASET POLYDATA
POINTS 226 float
-31.2931 -11.5232 -176.333 -31.0779 -11.6775 -174.924 -30.8625 -11.8318 -173.514 
-30.646 -11.9864 -172.103 -30.4276 -12.1415 -170.686 -30.2065 -12.2974 -169.265 
-29.9821 -12.4542 -167.835 -29.7535 -12.6122 -166.397 -29.5201 -12.7715 -164.948 
-29.2812 -12.9322 -163.487 -29.0362 -13.0944 -162.014 -28.7847 -13.2582 -160.526 
-28.5261 -13.4237 -159.023 -28.26 -13.5909 -157.505 -27.986 -13.7596 -155.971 
-27.704 -13.9299 -154.419 -27.4136 -14.1017 -152.851 -27.1147 -14.2748 -151.266 
-26.8072 -14.449 -149.664 -26.491 -14.6242 -148.044 -26.1663 -14.8001 -146.407 
-25.8331 -14.9765 -144.754 -25.4915 -15.1531 -143.084 -25.1417 -15.3297 -141.397 
-24.7839 -15.5058 -139.695 -24.4183 -15.6813 -137.976 -24.0454 -15.8557 -136.243 
-23.6655 -16.0287 -134.494 -23.2788 -16.2 -132.73 -22.886 -16.3692 -130.953 
-22.4873 -16.536 -129.162 -22.0833 -16.6999 -127.358 -21.6746 -16.8606 -125.541 
-21.2615 -17.0177 -123.712 -20.8448 -17.1708 -121.872 -20.4249 -17.3195 -120.022 
-20.0025 -17.4635 -118.161 -19.5781 -17.6024 -116.292 -19.1524 -17.7358 -114.415 
-18.726 -17.8634 -112.53 -18.2994 -17.9847 -110.64 -17.8733 -18.0994 -108.744 
-17.4483 -18.2073 -106.844 -17.0248 -18.3078 -104.94 -16.6035 -18.4009 -103.034 
-16.1849 -18.4861 -101.126 -15.7694 -18.5631 -99.2176 -15.3575 -18.6318 -97.3088 
-14.9495 -18.692 -95.4006 -14.546 -18.7433 -93.4933 -14.1472 -18.7856 -91.5877 
-13.7534 -18.8188 -89.6841 -13.3648 -18.8428 -87.7828 -12.9818 -18.8574 -85.8842 
-12.6044 -18.8626 -83.9885 -12.2328 -18.8583 -82.0961 -11.8671 -18.8446 -80.207 
-11.5074 -18.8214 -78.3217 -11.1537 -18.7889 -76.4402 -10.806 -18.7471 -74.563 
-10.4643 -18.6962 -72.6905 -10.1285 -18.6362 -70.823 -9.79855 -18.5674 -68.961 
-9.47436 -18.49 -67.1053 -9.1558 -18.4042 -65.2564 -8.84273 -18.3103 -63.4151 
-8.535 -18.2086 -61.5825 -8.23247 -18.0994 -59.7593 -7.93496 -17.9831 -57.9469 
-7.64232 -17.86 -56.1462 -7.35438 -17.7306 -54.3586 -7.07097 -17.5953 -52.5855 
-6.79195 -17.4545 -50.8282 -6.51716 -17.3087 -49.0882 -6.24647 -17.1583 -47.3669 
-5.97976 -17.0039 -45.666 -5.7169 -16.8459 -43.9869 -5.45781 -16.6848 -42.3311 
-5.20238 -16.5211 -40.7001 -4.95054 -16.3553 -39.0954 -4.70221 -16.1878 -37.5182 
-4.45733 -16.0191 -35.9697 -4.21585 -15.8496 -34.4511 -3.97768 -15.6797 -32.9633 
-3.74279 -15.5098 -31.5069 -3.51108 -15.3401 -30.0824 -3.28248 -15.171 -28.6902 
-3.05689 -15.0026 -27.3302 -2.83422 -14.8351 -26.0021 -2.61433 -14.6686 -24.7053 
-2.39709 -14.5031 -23.4391 -2.18233 -14.3387 -22.2022 -1.9699 -14.1753 -20.9932 
-1.7596 -14.0127 -19.8107 -1.55125 -13.8507 -18.6525 -1.34463 -13.6892 -17.5167 
-1.13956 -13.5279 -16.4011 -0.93583 -13.3664 -15.3033 -0.733253 -13.2045 -14.221 
-0.531654 -13.0418 -13.1516 -0.330877 -12.8779 -12.0927 -0.130792 -12.7126 -11.042 
0.0687019 -12.5453 -9.99714 0.26767 -12.3759 -8.95595 0.466139 -12.2039 -7.91639 
0.664092 -12.029 -6.87659 0.861468 -11.8509 -5.83486 1.05816 -11.6695 -4.78969 
1.254 -11.4844 -3.73979 1.44878 -11.2955 -2.68403 1.64223 -11.1027 -1.62148 
1.83406 -10.9058 -0.551371 2.02388 -10.7048 0.526893 2.21128 -10.4997 1.61378 
2.39581 -10.2905 2.70963 2.57696 -10.0774 3.8147 2.75417 -9.86029 4.92914 
2.92686 -9.6395 6.05309 3.0944 -9.41519 7.18661 3.25614 -9.1876 8.32979 
3.4114 -8.95698 9.48269 3.55949 -8.72364 10.6454 3.69969 -8.4879 11.8181 
3.83128 -8.25011 13.001 3.95355 -8.01062 14.1942 4.06579 -7.76982 15.3982 
4.1673 -7.52808 16.6133 4.25743 -7.28578 17.84 4.33553 -7.04332 19.0787 
4.40102 -6.80108 20.33 4.45336 -6.55942 21.5946 4.49206 -6.3187 22.873 
4.51671 -6.07928 24.1659 4.52696 -5.84147 25.4739 4.52256 -5.60558 26.7976 
4.50333 -5.3719 28.1374 4.46919 -5.1407 29.4938 4.42015 -4.91221 30.8671 
4.35632 -4.68668 32.2574 4.2779 -4.46431 33.6647 4.18521 -4.24529 35.0888 
4.07863 -4.02981 36.5293 3.95866 -3.81804 37.9855 3.82587 -3.61014 39.4566 
3.68092 -3.40629 40.9416 3.52451 -3.20662 42.4392 3.35744 -3.0113 43.948 
3.18052 -2.82049 45.4664 2.99462 -2.63433 46.9926 2.80061 -2.45298 48.5249 
2.59939 -2.2766 50.0614 2.39183 -2.10531 51.6002 2.17881 -1.93927 53.1396 
1.96117 -1.7786 54.6778 1.73971 -1.62342 56.2133 1.51518 -1.47381 57.7446 
1.28828 -1.32986 59.2707 1.05965 -1.19162 60.7906 0.829862 -1.05911 62.3035 
0.599433 -0.932329 63.8092 0.368813 -0.811255 65.3073 0.138396 -0.695831 66.7981 
-0.0914827 -0.585975 68.2816 -0.320533 -0.481583 69.7585 -0.548509 -0.382532 71.2291 
-0.775198 -0.288679 72.6943 -1.00042 -0.199869 74.1547 -1.22401 -0.115937 75.611 
-1.44582 -0.0367121 77.0638 -1.66572 0.0379808 78.5138 -1.88359 0.108316 79.9613 
-2.09929 0.174465 81.4067 -2.31272 0.236598 82.8502 -2.52377 0.294881 84.2919 
-2.73233 0.349473 85.7316 -2.93831 0.400534 87.1692 -3.14165 0.448219 88.6042 
-3.34228 0.492682 90.0365 -3.54019 0.534079 91.4655 -3.73537 0.572569 92.8909 
-3.92787 0.608315 94.3123 -4.11776 0.641484 95.7296 -4.30518 0.672251 97.1424 
-4.49028 0.700799 98.5508 -4.67328 0.727316 99.9551 -4.85443 0.751999 101.356 
-5.03406 0.775051 102.753 -5.21249 0.796679 104.148 -5.39012 0.817094 105.541 
-5.56737 0.836509 106.934 -5.74468 0.855137 108.328 -5.92254 0.873188 109.726 
-6.10142 0.890869 111.128 -6.28182 0.908381 112.536 -6.46425 0.925917 113.953 
-6.64919 0.943662 115.381 -6.83712 0.961793 116.82 -7.02851 0.980477 118.275 
-7.22378 0.999872 119.746 -7.42334 1.02012 121.234 -7.62756 1.04138 122.743 
-7.83678 1.06376 124.272 -8.05127 1.0874 125.824 -8.27128 1.11241 127.398 
-8.49702 1.13892 128.996 -8.72864 1.16703 130.619 -8.96626 1.19686 132.265 
-9.20995 1.2285 133.935 -9.45975 1.26206 135.628 -9.71566 1.29762 137.344 
-9.97763 1.33529 139.082 -10.2456 1.37512 140.84 -10.5194 1.4172 142.618 
-10.7989 1.46155 144.415 -11.084 1.50822 146.228 -11.3743 1.5572 148.056 
-11.6697 1.60846 149.899 -11.9699 1.66196 151.754 -12.2744 1.7176 153.62 
-12.583 1.77526 155.495 -12.8951 1.83479 157.379 -13.2105 1.89597 159.269 
-13.5284 1.95859 161.165 -13.8486 2.02237 163.065 -14.1702 2.08703 164.969 
-14.4929 2.15225 166.874 
LINES 1 227
226 225 224 223 222 221 220 219 218 217 216 215 214 213 212 211 210 209 208 207 206 205 204 203 202 201 200 199 198 197 196 195 194 193 192 191 190 189 188 187 186 185 184 183 182 181 180 179 178 177 176 175 174 173 172 171 170 169 168 167 166 165 164 163 162 161 160 159 158 157 156 155 154 153 152 151 150 149 148 147 146 145 144 143 142 141 140 139 138 137 136 135 134 133 132 131 130 129 128 127 126 125 124 123 122 121 120 119 118 117 116 115 114 113 112 111 110 109 108 107 106 105 104 103 102 101 100 99 98 97 96 95 94 93 92 91 90 89 88 87 86 85 84 83 82 81 80 79 78 77 76 75 74 73 72 71 70 69 68 67 66 65 64 63 62 61 60 59 58 57 56 55 54 53 52 51 50 49 48 47 46 45 44 43 42 41 40 39 38 37 36 35 34 33 32 31 30 29 28 27 26 25 24 23 22 21 20 19 18 17 16 15 14 13 12 11 10 9 8 7 6 5 4 3 2 1 0 

CELL_DATA 1
FIELD FieldData 2
LengthArray 1 1 double
349.55804594 
TortuosityArray 1 1 double
0.016482148074 
POINT_DATA 226
FIELD FieldData 8
RadiusArray 1 226 double
46.809727996 46.825863301 46.840196528 46.845852051 46.853206994 46.865227572 46.908324272 46.909137498 46.894115622 
46.885378821 46.921475738 46.942318529 46.902389053 46.893298488 46.872039941 46.917171229 46.91985237 46.882722723 
46.825467194 46.821552947 46.668320207 46.619975299 46.584849578 46.58347429 46.524961977 46.518603287 46.509751916 
46.502345978 46.49098423 46.489789985 46.325475494 46.32585765 46.259657193 46.214600949 46.187888669 46.100522966 
46.076152808 46.017716321 46.025901332 45.96409763 45.922997728 45.847072792 45.744139442 45.743328216 45.690979362 
45.680278694 45.616591012 45.619983603 45.606596053 45.605358777 45.573565846 45.538480377 45.534016121 45.53189478 
45.519866884 45.427091696 45.428186919 45.427730422 45.489509538 45.489475638 45.491384955 45.518141489 45.520774159 
45.570329913 45.633239233 45.712123305 45.801066867 45.839909001 46.066377038 46.139472636 46.158965377 46.267476912 
46.435201234 46.4442134 46.523783298 46.687759775 47.140481285 47.206331901 47.221959961 47.46145894 47.699173506 
48.041213334 48.255744302 48.524911857 48.836147762 49.061983885 49.100844235 49.358015389 49.535455627 49.93016331 
49.945217489 50.092762336 50.09333341 50.240108904 50.265194696 50.389782548 50.570476864 50.863098095 51.034991769 
51.23702674 51.385252907 51.45831697 51.519527757 52.206404944 52.278005285 52.284862161 52.351217609 52.531879302 
52.811148285 53.182770998 53.466946435 53.580333145 53.898250556 54.278361538 54.593026162 54.944359763 55.007849426 
55.142976073 55.556629997 55.617458083 56.188755529 56.690881924 56.855526634 57.206373605 57.602158426 57.747063644 
57.931603695 58.211198498 58.470291241 58.685498419 58.775562273 59.216020171 59.626520279 59.783986585 60.152044982 
60.187678198 60.227078355 60.313050427 60.339821376 60.390441518 60.448468573 60.51178884 60.565821849 60.576112391 
60.586462087 60.583132734 60.550740338 60.418438164 60.387578293 60.416713336 60.181738154 60.119621074 60.091779399 
60.028666758 60.027562903 59.907911002 59.884653375 59.85564154 59.759583341 59.726166218 59.667234336 59.647471304 
59.644319121 59.565571582 59.499411442 59.417103264 59.364551752 59.207747559 59.162041035 58.989904787 58.902352334 
58.889728909 58.719967732 58.706702828 58.640874645 58.617522001 58.567802609 58.50302955 58.396403216 58.265054771 
58.247915921 58.10654463 58.012839894 57.996569831 57.960452247 57.950910364 57.900838314 57.740980515 57.678151037 
57.583777212 57.548459229 57.532429902 57.517842755 57.51082387 57.510823697 57.510780386 57.448583169 57.381039114 
57.276398355 56.999345379 56.988771546 56.981264011 56.86290417 56.848534336 56.583860895 56.486795883 56.454881636 
56.435518596 56.400694114 56.399897297 56.261168141 56.178137568 56.173495592 56.157402044 56.154471283 56.096032074 
56.079658974 55.930100809 55.906851243 55.791354411 55.781558393 55.784632755 55.766152836 55.762367498 55.755943616 
55.736172232 
EdgeArray 2 226 int
4891 4891 4909 4715 5407 4715 5412 5412 5404 
5404 5409 5409 5669 5963 5816 5669 5806 5734 
5734 6495 5962 6482 5966 6481 5966 6284 6284 
6284 6515 6515 6722 6722 6723 6723 6725 6725 
7184 7183 6727 6727 7342 7356 7340 7340 7346 
7346 7623 7347 7339 7348 7348 7619 7620 7325 
7325 7614 7747 7747 7589 7844 7753 7753 8076 
8092 7584 7584 8216 8216 8679 8679 8677 8677 
8862 6985 8676 8676 8188 8188 9133 9133 9496 
9496 9199 9199 9112 9112 9909 9464 9683 9683 
7998 7998 9856 9858 9858 9918 10107 10107 10153 
9865 9686 9686 8128 8128 10771 10771 10997 10997 
10991 10999 9192 10991 10464 10744 11173 10205 11479 
11479 11480 9915 11631 11631 11634 11634 11629 11630 
11650 11650 9389 9389 11099 11099 12369 12369 11101 
11101 9903 9903 11564 11564 11104 11104 11477 11477 
13627 13627 13623 13628 13447 13447 13448 13448 8095 
8095 10050 10050 13632 13632 10692 10692 12250 8304 
14253 14263 14262 14262 14680 14680 14679 14682 14682 
14681 14681 12009 14665 14665 16102 16102 16660 16660 
16661 14669 15210 11569 11569 11569 15638 15638 15735 
15735 15229 15229 14995 14995 16107 16107 12782 12782 
16687 16687 16692 16692 15973 15973 15641 15641 15696 
15696 15881 15881 17397 16836 17397 17397 16303 16303 
17419 17419 15678 15678 17423 17423 6783 6783 14353 
14353 16869 16869 17594 17594 16902 16902 17135 17135 
17795 17795 17390 17390 16105 16105 11018 11018 18354 
18354 18353 18353 17063 17063 17779 17779 17695 17695 
18248 18248 15391 15391 17928 17928 17589 16075 17589 
17589 18347 18648 18132 17052 18649 13406 12669 14882 
14882 14882 11942 17472 17623 17472 17623 17623 19264 
19264 16909 16909 15292 15292 18779 9969 9969 19664 
11702 11702 19183 19183 16158 16158 17849 17849 20678 
20678 20635 20635 20969 20969 21117 21117 20870 20870 
21178 21178 20321 20321 21618 21618 21619 21619 21813 
21813 21818 21818 22030 22019 21543 22231 22230 22049 
22241 22049 22426 22426 21847 21847 19640 19640 22707 
22823 22820 22675 22667 22609 23340 23340 23346 23346 
23744 23744 23738 23031 23738 23085 23762 23762 23755 
23755 23752 23230 22156 22156 24056 24056 24283 24283 
24284 24282 22165 24040 24410 24407 24412 24406 24404 
24887 24887 24148 24041 24148 24041 24909 24910 24910 
24902 24902 24888 23703 24219 24904 24022 24022 23542 
23542 24917 23542 24917 24917 25931 24763 25928 25931 
25927 25924 25305 25305 25934 25934 25733 25733 24548 
24548 26264 25124 26275 26275 26131 26131 26049 26049 
26050 26349 26706 26087 25423 26706 26871 26871 26565 
26565 27009 27009 26876 26876 26707 27030 24811 27008 
27148 24811 27037 27037 27548 27548 27884 27493 27884 
27587 27587 27480 27954 27755 28025 28025 27931 27931 
33256 33256 
EdgePCoordArray 1 226 double
0 0.404 0.336 0 0 0 0.656 0.284 0.448 
0.46 0.916 0.32 0.82 0 0 0 0 0 
0.256 0 0.78 0 0 0.968 0.864 0.248 0.38 
0.608 0 0.852 0 0.764 0 0 0 0 
0.988 0 0 0 0 0 0 0.98 0 
0 0.32 0.408 0 0.968 0 0 0 0 
0.896 0.592 0.048 0.068 0 0.016 0 0 0.972 
0 0 0 0 0 0 0 0 0 
0 0.964 0 0 0 0 0 0 0.864 
0.272 0 0 0.648 0.788 0.044 0 0 0 
0.004 0.988 0 0 0 0 0 0 0 
0 0 0 0 0 0 0.956 0 0 
0 0 0 0 0 0 0 0 0 
0 0 0 0 0 0 0 0 0 
0 0 0 0.964 0 0.604 0.972 0.796 0.776 
0 0.132 0.456 0 0 0 0 0.112 0.108 
0 0 0 0 0 0 0 0 0 
0 0 0 0 0 0 0.584 0.464 0.844 
0.872 0 0 0 0.972 0.036 0.536 0 0 
0 0.536 0.544 0 0 0.548 0 0 0 
0.016 0.724 0.58 0.532 0.352 0.628 0.62 0.708 0 
0 0.348 0.672 0 0 0.996 0 0.348 0.672 
0.08 0 0 0 0 0.912 0 0 0 
0.484 0.004 0.992 0 0 0 0 0.02 0.236 
0.744 0 0 0.72 0.596 0.552 0.22 0 0 
0 
CurvatureArray 1 226 double
0 8.589188885e-05 0.00033882031328 0.00058951922783 0.00082859534938 0.0010516440944 0.0012565644567 0.0014360779341 0.0015953407967 
0.0017300471605 0.0018353229699 0.0019180932636 0.00197894031 0.0020151647241 0.0020336464233 0.0020309895996 0.0020169702356 0.0019871088647 
0.0019467900476 0.0018968168143 0.0018415661907 0.0017803963008 0.0017172730021 0.0016535805542 0.0015920844661 0.0015322923437 0.0014812716342 
0.0014364836644 0.0014032268065 0.0013803133058 0.0013716455248 0.0013747733731 0.0013916622294 0.0014213316737 0.0014620607753 0.0015128162901 
0.0015724340094 0.0016381052392 0.0017102318282 0.0017867373193 0.0018665655662 0.0019487276611 0.002032276342 0.0021179107724 0.0022030914911 
0.0022878147397 0.0023717046261 0.0024525681004 0.0025306644365 0.0026052546881 0.0026741270678 0.0027366120759 0.0027915444108 0.0028394882939 
0.0028768737007 0.0029048186706 0.0029222519304 0.0029291518829 0.002925094779 0.0029094654249 0.0028837169793 0.0028481587345 0.0028041943696 
0.0027501490746 0.0026901008988 0.0026244323206 0.0025527099039 0.0024782532929 0.0024007086031 0.0023232892344 0.0022442881969 0.0021671615802 
0.00209349917 0.0020228776539 0.0019562084959 0.0018970448798 0.0018441975521 0.0018009189212 0.0017685735159 0.0017453523217 0.0017376455359 
0.0017399762873 0.0017586701923 0.0017899615766 0.0018360563307 0.0018924847349 0.0019614425843 0.0020384724679 0.0021198981229 0.0022041629448 
0.002286276337 0.0023610493191 0.0024271425915 0.0024785263021 0.0025130879787 0.0025292453961 0.0025278254832 0.0025100474617 0.0024815989005 
0.0024495030927 0.0024183097895 0.0024026281111 0.0024032070239 0.0024329658167 0.0024872439375 0.0025722041078 0.0026817994067 0.002813597952 
0.0029648861236 0.0031309220828 0.0033127928371 0.0035071880255 0.0037164953456 0.0039390017942 0.0041780949775 0.0044339262603 0.0047068660494 
0.0049968048386 0.0053034445212 0.0056253878194 0.0059595353039 0.0063018168937 0.0066475051265 0.0069902302804 0.0073227464083 0.0076380308257 
0.0079270501069 0.0081819188676 0.0083943865402 0.0085575492223 0.0086651449014 0.0087129982141 0.0086986624739 0.0086216060143 0.0084833267692 
0.0082876884952 0.0080404112091 0.0077481540708 0.0074189608724 0.0070615559388 0.0066844144907 0.0062962986621 0.0059049783335 0.0055175591216 
0.0051401687912 0.004778254141 0.0044357691242 0.0041155362623 0.0038204918449 0.0035514531343 0.0033098063799 0.0030958861455 0.0029090207278 
0.0027491666441 0.0026148756386 0.0025047866146 0.0024169610253 0.0023488998957 0.0022980039998 0.0022613187327 0.0022353546175 0.0022176287609 
0.002204767439 0.0021948762515 0.002185240877 0.0021742275627 0.0021620695461 0.0021461747274 0.0021279900864 0.0021055475738 0.0020803656906 
0.00205079558 0.0020183838618 0.0019815409565 0.0019402183616 0.0018934840248 0.0018407028289 0.0017820136201 0.0017139978654 0.0016384233118 
0.0015525169296 0.00145603152 0.0013495647899 0.0012317662641 0.0011042012418 0.00096728594714 0.00082451682638 0.00067876797074 0.0005365158754 
0.00040988301624 0.00032246704736 0.00030646495747 0.00036385875933 0.00045734833761 0.00055969518987 0.00065845642666 0.00074472770926 0.00081960172946 
0.00088045938115 0.00092784177253 0.00096444397585 0.0009910414387 0.001010344196 0.0010230832434 0.0010323732098 0.0010388246916 0.0010434780021 
0.0010469104693 0.0010486978893 0.0010514765806 0.0010487545594 0.001045300112 0.0010375479976 0.0010234251137 0.0010035141178 0.00097450007841 
0.00093581339886 0.00088623049754 0.00082629642513 0.00075410998263 0.00066797846363 0.00057283779763 0.00046480217923 0.00034739819866 0.00022221843676 
0 
TorsionArray 1 226 double
0 0 0.00023266298417 0.00077748350652 0.0022147894554 0.0030848455636 0.0045241052541 0.0054065512839 0.0059037006459 
0.0073212586025 0.0087096220373 0.0096940340759 0.011099188263 0.012641778325 0.014332119825 0.016058635666 0.017711764992 0.019964256782 
0.022353284027 0.024647849099 0.027424602785 0.030640668796 0.033711496668 0.037045337933 0.04100423181 0.044632620879 0.047760687571 
0.051141948192 0.053043672501 0.054433111707 0.05499421467 0.053588631868 0.051141705636 0.047971297095 0.044070946936 0.039770821821 
0.035437002639 0.031677811576 0.027741795078 0.024256444795 0.021270338232 0.018564630488 0.016321343972 0.014322021827 0.012483370158 
0.011009266045 0.0097428924864 0.0085104957272 0.0075421219182 0.0066876910686 0.0057547623391 0.0049225399875 0.0041735921786 0.0033673965889 
0.0026480901953 0.0017906073715 0.00093563351424 7.1078991776e-06 -0.00095350309603 -0.001902410923 -0.0030838182199 -0.0042363073254 -0.0054203451483 
-0.0067941914125 -0.0082889958681 -0.0097578246265 -0.011385940615 -0.013198240902 -0.015179115879 -0.017148729679 -0.019292306908 -0.021776032376 
-0.024263038097 -0.026837389572 -0.029688940829 -0.032572034066 -0.035445502562 -0.038294040063 -0.040865480879 -0.042988794174 -0.04437520171 
-0.045173142129 -0.044737113906 -0.043412047614 -0.040969023305 -0.037466157374 -0.032915889585 -0.027835811733 -0.022161903793 -0.015483438054 
-0.0086982493518 -0.0011491634011 0.0071777355525 0.015826372834 0.025565890278 0.036316842544 0.047984571383 0.060605751603 0.074122054979 
0.087395259021 0.09994173625 0.11019599827 0.11710399104 0.11952182149 0.11786680553 0.112556844 0.10536063939 0.097134574878 
0.089122763376 0.081744564006 0.075242818358 0.06965068284 0.064970620393 0.060780669817 0.056867360242 0.05355283205 0.050391333953 
0.047425944641 0.044295749493 0.041396637318 0.038604303545 0.03575815612 0.033249536544 0.030760922098 0.028339299366 0.026199006167 
0.024217073377 0.022343046484 0.020671384876 0.019156010603 0.017802824165 0.016642332029 0.015612191708 0.014687937484 0.013965955442 
0.013391199595 0.012906360876 0.012628402651 0.012514228318 0.012532587079 0.012727259276 0.013177011213 0.01380360632 0.014681041375 
0.015883531012 0.01729829369 0.019026203799 0.021128895299 0.023604569725 0.026327105174 0.029242243347 0.032401859023 0.035697647925 
0.038803376516 0.041599317412 0.044041849401 0.045878996141 0.047078539006 0.047732041408 0.047670673142 0.047178631222 0.046345763803 
0.045302624894 0.044041097976 0.042424856561 0.041099505471 0.039514500033 0.037786374198 0.035933405891 0.03386967603 0.031666517715 
0.029307705023 0.026879646412 0.024177717071 0.02136348704 0.018478347974 0.015709103161 0.01262148825 0.0094842820485 0.0063443733709 
0.0026818269149 -0.0011260826983 -0.005669639563 -0.011426804959 -0.019004286899 -0.029772981468 -0.045970488522 -0.073469780945 -0.12268129131 
-0.2121284117 -0.33695389328 -0.35872434 -0.23929098524 -0.13964969714 -0.084764466042 -0.055089064197 -0.038375301701 -0.02818524167 
-0.021977422026 -0.017935389009 -0.015229397635 -0.01348920889 -0.012353544321 -0.011539748494 -0.010834929031 -0.010368670448 -0.0098760172622 
-0.0093631151357 -0.0086226573514 -0.0081066972122 -0.0075645402364 -0.0066371119757 -0.0060500597126 -0.0053531810713 -0.0046981577006 -0.0041838868494 
-0.003682585527 -0.0030604809556 -0.0024610379873 -0.0024083230054 -0.0019460351013 -0.0013220540079 -0.0013511460012 -0.00078065830113 0 
0 
TangentArray 3 226 double
-0.1501631588 0.10758314499 -0.98279036048 -0.1501631588 0.10758314499 -0.98279036048 -0.15046404921 0.10759760312 -0.98274275662 
-0.15112285986 0.10762881975 -0.98263824391 -0.15213219739 0.10767562132 -0.98247735602 -0.15347612881 0.10773371225 -0.98226194324 
-0.15513491988 0.10779775147 -0.98199429806 -0.15708268803 0.10785982277 -0.98167779223 -0.15929208368 0.10791201253 -0.98131596829 
-0.16173600298 0.10794759048 -0.98091221985 -0.16438003232 0.1079561557 -0.98047165865 -0.16719023118 0.10792708281 -0.97999957724 
-0.17013688431 0.1078515895 -0.97950062544 -0.17318715308 0.10771953317 -0.97898044525 -0.17630975124 0.10752083029 -0.97844475709 
-0.1794741591 0.10724552851 -0.97789949526 -0.18265313336 0.10688467716 -0.9773502436 -0.18582178869 0.10643073754 -0.97680231416 
-0.18895400195 0.10587510805 -0.97626166915 -0.19202673452 0.10521002477 -0.97573386941 -0.19501968278 0.1044300059 -0.97522392157 
-0.19791337589 0.10352896262 -0.97473691299 -0.20068910577 0.1025011103 -0.97427788911 -0.20333104905 0.10134299083 -0.97385116045 
-0.20582489449 0.10005161977 -0.97346072658 -0.208155014 0.098623471312 -0.97311093975 -0.21031024033 0.097056776771 -0.97280500867 
-0.21228138508 0.095351110356 -0.97254551529 -0.21405857822 0.09350505011 -0.97233519462 -0.21563612288 0.091519734662 -0.97217549891 
-0.21700851715 0.089395276842 -0.9720677898 -0.21817010764 0.087131337937 -0.97201334048 -0.21911947775 0.084730280111 -0.9720120545 
-0.21985676421 0.082192906587 -0.97206343895 -0.22038229543 0.079520151552 -0.97216674977 -0.22069813438 0.076713570625 -0.97232060637 
-0.22080801441 0.07377376529 -0.97252313717 -0.22071658439 0.070702285407 -0.97277200629 -0.22042691299 0.067500231591 -0.97306510305 
-0.21994506195 0.064167651556 -0.97339954911 -0.21927710525 0.060705519084 -0.97377224805 -0.21842850383 0.057115082382 -0.97418009427 
-0.21740556145 0.053397925789 -0.97461966088 -0.21621348637 0.04955500591 -0.9750877036 -0.21485800893 0.045588094351 -0.97558073046 
-0.21334622269 0.041500255548 -0.97609483046 -0.21168416302 0.037294731663 -0.97662629399 -0.20987838489 0.032976672383 -0.97717122483 
-0.20793719532 0.028552009851 -0.97772537327 -0.20586798814 0.024027148628 -0.97828475793 -0.20367923379 0.019410695358 -0.97884523528 
-0.20138219457 0.014712596587 -0.97940224179 -0.19898884765 0.0099439701493 -0.97995130286 -0.19651136658 0.0051161357749 -0.98048819879 
-0.19396433653 0.00024203309761 -0.98100855122 -0.1913631622 -0.0046634759721 -0.98150822317 -0.18872489659 -0.0095867023139 -0.98198320176 
-0.18606733493 -0.014513425241 -0.98242979768 -0.18340929412 -0.019429539223 -0.98284460818 -0.18077030976 -0.024320297645 -0.98322460213 
-0.17816923348 -0.029171372258 -0.98356736184 -0.1756258196 -0.033970717064 -0.98387070384 -0.17315817831 -0.0387069704 -0.98413312907 
-0.17078401836 -0.043367951142 -0.98435361526 -0.16852061007 -0.047943375175 -0.98453148084 -0.16638311597 -0.05242612872 -0.9846665221 
-0.16438511411 -0.056807687707 -0.98475906742 -0.16253873397 -0.0610812228 -0.98480975025 -0.16085470697 -0.065241636565 -0.98481942106 
-0.15934214598 -0.069285191075 -0.98478913622 -0.15800766077 -0.073207942276 -0.98472035438 -0.15685657651 -0.077006270268 -0.98461467019 
-0.15589317808 -0.080680104138 -0.98447348254 -0.15511968762 -0.084228836958 -0.98429842301 -0.15453700536 -0.087650952309 -0.9840912684 
-0.15414533965 -0.090947647738 -0.98385351533 -0.15394372195 -0.094120855729 -0.98358659761 -0.15393015882 -0.097172887654 -0.98329188754 
-0.15410238052 -0.10010866988 -0.98297035079 -0.15445734579 -0.10293160945 -0.98262302645 -0.15499121177 -0.10564782502 -0.98225061025 
-0.15569931027 -0.10826372905 -0.98185370079 -0.1565767263 -0.11078596215 -0.98143272789 -0.15761741468 -0.1132238994 -0.98098781807 
-0.15881443175 -0.11558656605 -0.98051910844 -0.16015921176 -0.11788341807 -0.98002679894 -0.16164117588 -0.1201249876 -0.97951116258 
-0.16324802909 -0.12232370973 -0.97897241587 -0.1649644646 -0.12449020796 -0.97841142345 -0.16677288952 -0.12663570734 -0.9778293312 
-0.16865159528 -0.12877278261 -0.97722781882 -0.17057563996 -0.13091157013 -0.97660949814 -0.17251686499 -0.1330626966 -0.97597758687 
-0.17444348241 -0.13523651598 -0.97533612472 -0.17632141391 -0.13744031486 -0.97469016556 -0.17811419106 -0.13968078739 -0.97404548794 
-0.17978438737 -0.14196323688 -0.97340845149 -0.18129483053 -0.14429067495 -0.97278588885 -0.18260980124 -0.14666413926 -0.97218480278 
-0.18369592856 -0.14908380909 -0.97161197178 -0.18452344625 -0.15154619368 -0.97107406976 -0.18506708585 -0.15404737177 -0.97057693203 
-0.18530590429 -0.15658165123 -0.9701257178 -0.18522360812 -0.15914205916 -0.96972471351 -0.18480815036 -0.16172046242 -0.96937734634 
-0.18405107274 -0.16430720434 -0.9690863456 -0.18294652401 -0.16689311691 -0.96885357866 -0.18149019493 -0.16946662112 -0.96868073867 
-0.17967852289 -0.1720162632 -0.96856906497 -0.17750778194 -0.17452875728 -0.9685198502 -0.17497309937 -0.17699028816 -0.96853438369 
-0.17206805452 -0.17938582825 -0.96861411782 -0.16878442816 -0.18169905579 -0.96876068765 -0.16511197934 -0.18391166903 -0.96897602255 
-0.16103887157 -0.18600457167 -0.96926197757 -0.15655152839 -0.1879586158 -0.96962012031 -0.1516352145 -0.18975185323 -0.97005205835 
-0.14627533734 -0.19136141478 -0.97055877443 -0.1404577226 -0.1927632781 -0.97114053915 -0.1341696907 -0.19393477198 -0.97179617118 
-0.12740111298 -0.19485238932 -0.97252326594 -0.12014580059 -0.19549288682 -0.9733177887 -0.11240258835 -0.19583570376 -0.97417351394 
-0.10417629028 -0.19586028213 -0.97508258647 -0.095479133701 -0.19554974909 -0.97603485115 -0.086331008429 -0.19489170988 -0.97701800311 
-0.076760627709 -0.19387672256 -0.97801821173 -0.06680603335 -0.19250033392 -0.97902021192 -0.056514206485 -0.19076432433 -0.98000771274 
-0.045940842903 -0.18867595682 -0.98096423088 -0.035149425912 -0.18624865436 -0.98187369687 -0.02420998402 -0.18350179055 -0.98272120642 
-0.013197344659 -0.18045975484 -0.98349382661 -0.0021891264638 -0.17715215237 -0.9841810416 0.0087364016912 -0.17361328491 -0.98477515332 
0.019502271563 -0.16987953882 -0.98527184254 0.030035530533 -0.16598891684 -0.98567010018 0.040269177722 -0.16198057153 -0.9859719508 
0.05014315138 -0.15789198602 -0.98618242994 0.059606110313 -0.15375843013 -0.98630900674 0.068616253092 -0.1496125396 -0.98636093688 
0.077141588748 -0.14548298687 -0.98634875973 0.085159515607 -0.14139312281 -0.98628385454 0.092656817525 -0.1373620263 -0.98617766548 
0.099628585078 -0.13340354512 -0.98604139831 0.10607724447 -0.12952602608 -0.98588570675 0.11201206954 -0.12573388868 -0.98572018622 
0.1174470996 -0.12202748601 -0.98555338336 0.1224001996 -0.11840296991 -0.98539277847 0.12689170877 -0.11485322908 -0.9852447564 
0.13094389913 -0.11136945721 -0.98511448029 0.13458039674 -0.1079413435 -0.98500598129 0.13782407135 -0.10455750234 -0.98492246094 
0.14069673398 -0.10120607489 -0.98486636629 0.14321956267 -0.097876161077 -0.98483928332 0.14541223681 -0.094558389913 -0.98484211541 
0.14729237981 -0.091244814973 -0.98487529088 0.14887602822 -0.087929993757 -0.98493870084 0.15017756776 -0.084611113182 -0.98503180541 
0.15120951244 -0.081287890668 -0.9851537759 0.15198382161 -0.07796336135 -0.98530331993 0.1525114941 -0.074643092042 -0.98547889525 
0.15280303739 -0.071334939012 -0.98567872973 0.15286880683 -0.068048700027 -0.98590085826 0.15271976416 -0.0647955343 -0.98614309934 
0.1523687842 -0.061587726567 -0.98640291237 0.15182778003 -0.058436780126 -0.98667799608 0.15111040462 -0.055353862732 -0.98696585326 
0.1502315899 -0.052349080672 -0.98726391768 0.14920710003 -0.049430949844 -0.9875696545 0.14805390469 -0.046606335074 -0.98788050433 
0.14678949476 -0.043880325178 -0.98819398971 0.14543186633 -0.041256292788 -0.9885077089 0.14399890811 -0.038736138414 -0.98881941023 
0.1425096441 -0.036320966113 -0.98912678093 0.14098326894 -0.034011113646 -0.98942759312 0.13943913739 -0.031806749516 -0.9897196864 
0.1378956378 -0.029707842277 -0.99000112989 0.13637261058 -0.027715017892 -0.99026985659 0.13488963592 -0.025829458146 -0.99052391451 
0.13346548901 -0.024052927098 -0.99076153536 0.13212006675 -0.022388210488 -0.99098085551 0.13087151373 -0.020838562462 -0.99118030711 
0.12973764768 -0.019407824854 -0.99135840094 0.1287355483 -0.018100225744 -0.9915137621 0.12788076321 -0.016919998973 -0.99164521077 
0.12718669093 -0.015870939131 -0.99175181318 0.12666398111 -0.014956171379 -0.99183292385 0.12632137098 -0.014177892809 -0.99188804741 
0.12616415673 -0.013536900655 -0.99191701159 0.12619368924 -0.01303230834 -0.99192001277 0.12640762705 -0.012661532785 -0.99189757405 
0.12680045959 -0.012420277646 -0.99185048276 0.12736280961 -0.012302493754 -0.99177989664 0.12808223201 -0.012300775855 -0.9916872656 
0.12894530899 -0.012406726061 -0.99157409226 0.12993549056 -0.012611124263 -0.99144224635 0.13103585696 -0.012904547039 -0.99129363806 
0.1322305517 -0.013277861591 -0.9911300518 0.13350286522 -0.013722439857 -0.9909534195 0.13483837017 -0.014230705682 -0.99076541166 
0.13622467417 -0.014796198213 -0.99056746901 0.13765122567 -0.015413773709 -0.99036082094 0.13910921553 -0.01607945185 -0.99014649289 
0.14059205895 -0.016790318224 -0.98992522858 0.14209544793 -0.017544327158 -0.98969746906 0.14361572691 -0.018340104172 -0.98946357364 
0.1451502384 -0.019176406796 -0.98922377333 0.14669624337 -0.020051628334 -0.98897833363 0.14825290223 -0.020964115816 -0.98872725401 
0.14981597142 -0.021910855104 -0.98847108665 0.15138004332 -0.022887479383 -0.98821062824 0.15294113399 -0.023888674872 -0.98794652727 
0.15449049338 -0.024906922144 -0.98768027857 0.15601847245 -0.025933099791 -0.98741364716 0.15751329261 -0.02695635307 -0.98714888324 
0.15896003276 -0.027963719012 -0.98688891898 0.16034243428 -0.028940889896 -0.98663708052 0.16164402022 -0.029872534742 -0.98639689902 
0.16284721725 -0.03074254367 -0.9861722364 0.16393089467 -0.031534007074 -0.9859676811 0.16487730075 -0.032230663608 -0.98578733002 
0.16566950832 -0.032817092063 -0.98563515181 0.16628982721 -0.033278764611 -0.98551520394 0.16672510766 -0.03360371474 -0.98543063116 
0.16672510766 -0.03360371474 -0.98543063116 
NormalArray 3 226 double
0.98645315466 -0.050096308855 -0.15620670119 0.98645315466 -0.050096308855 -0.15620670119 0.98662439023 -0.046715025655 -0.15617304179 
0.98651695387 -0.046749800074 -0.15683990536 0.98646325926 -0.045015023503 -0.15768286459 0.98649908972 -0.040772460341 -0.1586100642 
0.98650121156 -0.035847607072 -0.15978206611 0.98658367886 -0.027622213879 -0.16090263484 0.9865522632 -0.019466536384 -0.16228273454 
0.98645880848 -0.0097242062975 -0.16372067365 0.98628271932 0.0028527405454 -0.16504017525 0.98592393611 0.01710106645 -0.166317605 
0.98531740227 0.03299285225 -0.16751444263 0.98434682744 0.051906856453 -0.16842506216 0.9828963522 0.072948009493 -0.16909567925 
0.98072022528 0.097622833054 -0.16928562313 0.97770659409 0.12446856125 -0.16910763773 0.97348176965 0.15493715508 -0.16830841372 
0.96764394822 0.18936700424 -0.16674929436 0.95972600512 0.2278814812 -0.16430467318 0.94935965466 0.26983408762 -0.1609528231 
0.93535333643 0.31735238032 -0.15621012369 0.91719270109 0.36909044614 -0.1500992726 0.89376759108 0.42534305636 -0.14234738333 
0.86404635489 0.48558486778 -0.13278265239 0.82574422714 0.55095864991 -0.12079336667 0.77974009949 0.61688823567 -0.10702467916 
0.72332910777 0.68451102945 -0.090772531229 0.65733194529 0.75009814842 -0.072577416783 0.58293130492 0.81079289878 -0.052971398268 
0.50030823688 0.86525143385 -0.032118909261 0.41203521064 0.91110378966 -0.010810627414 0.32361865761 0.94613968069 0.0095220310066 
0.23519830403 0.97151614596 0.028950577332 0.15167773827 0.9873413856 0.046377278899 0.073212063411 0.99539257761 0.06191615461 
0.0029452838322 0.99718102284 0.074975549341 -0.06067163325 0.99444230192 0.086043367377 -0.11728878277 0.98852986526 0.095142245738 
-0.16621261611 0.9807784306 0.10221074463 -0.20943279717 0.97186849083 0.10774757541 -0.24685698346 0.96258286458 0.11178487613 
-0.27959303002 0.95325528102 0.11459540466 -0.30831359448 0.94414304686 0.11634704346 -0.3333944144 0.93548192909 0.11713976603 
-0.35511774051 0.92746450811 0.11705117073 -0.37458205037 0.91986867563 0.11631812899 -0.39157872952 0.91294090933 0.11491298733 
-0.40647125806 0.90665846614 0.11292272642 -0.41988660584 0.90082649174 0.11048470491 -0.43167750456 0.89558935211 0.10758366252 
-0.4417574941 0.89106049445 0.10421857625 -0.45059032808 0.88705607193 0.10049816655 -0.45804212679 0.88368659343 0.096412730919 
-0.46409098029 0.88099930392 0.091977108621 -0.46906208623 0.87884216245 0.087276645021 -0.47220682982 0.87764826616 0.082184127303 
-0.47428735049 0.87700755902 0.076871650098 -0.47431895646 0.8774718536 0.071166520744 -0.47318600823 0.87854157037 0.065266459624 
-0.47003841727 0.880670097 0.059025981878 -0.46495744854 0.88377607733 0.052482532213 -0.45794405489 0.88780780332 0.045656839125 
-0.44885811624 0.89277142328 0.038543186832 -0.43719015471 0.89883249803 0.031062986313 -0.42300707161 0.90582808373 0.023248657715 
-0.40626903583 0.91362850401 0.015113807603 -0.38644101744 0.92229067244 0.0065768963775 -0.36337038089 0.93164175472 -0.0023679433817 
-0.33660899375 0.94157082291 -0.011780100458 -0.3065790128 0.95160118209 -0.021552242381 -0.27225954655 0.96169688477 -0.03184087215 
-0.23354975289 0.97141005507 -0.042626492161 -0.1905820005 0.98019357086 -0.05384296352 -0.14308705834 0.98754106195 -0.065488508122 
-0.090722238432 0.99285098316 -0.077565460738 -0.034038265276 0.99536709744 -0.089920730869 0.026796661625 0.99437580527 -0.1024631486 
0.091151144811 0.98917113593 -0.115030138 0.15793255086 0.97919715374 -0.12739797282 0.22544193341 0.9642488042 -0.13928452266 
0.29249529543 0.94434786679 -0.15051115784 0.35713622223 0.92010015293 -0.16083975677 0.41750335118 0.89261150711 -0.17010481807 
0.4725907928 0.86305979909 -0.17828551752 0.5209980052 0.83318743068 -0.18536392296 0.56208579497 0.80461967311 -0.1914333846 
0.5954246025 0.7789791582 -0.19662404184 0.6216555284 0.75702631861 -0.20113566801 0.64041870244 0.74013942294 -0.20507930215 
0.65153917269 0.72938371482 -0.20855719361 0.65621835451 0.72426515008 -0.21170135469 0.65290013251 0.72645161881 -0.21445153882 
0.64230165901 0.73514716629 -0.21681149123 0.62342829656 0.75069100206 -0.21863251928 0.59513015336 0.77302086641 -0.21967894907 
0.55609812814 0.80157683917 -0.21961202788 0.50483853949 0.83523974548 -0.21797388975 0.43962284005 0.87227507678 -0.21416803902 
0.35877976818 0.91007249395 -0.207473212 0.26288063534 0.94443123285 -0.19734086748 0.15239725069 0.97119079008 -0.18320351319 
0.031534104549 0.98576760955 -0.16512970727 -0.094377378212 0.98511925583 -0.14364178455 -0.21902365458 0.96833813415 -0.11979105432 
-0.33632455725 0.9369440807 -0.094982007938 -0.44275586241 0.89387632436 -0.070373027865 -0.53648582147 0.84260536127 -0.046895293141 
-0.61724418123 0.78636945947 -0.025153408311 -0.68644621507 0.72716180241 -0.0052256034344 -0.74496385576 0.66698395876 0.012698518412 
-0.79473515093 0.60626796688 0.028899692236 -0.8365560343 0.54616664961 0.043312727143 -0.87203189633 0.48619882338 0.056312307112 
-0.90136476367 0.42774045564 0.067673225299 -0.92563752566 0.37035726937 0.077657350646 -0.94535182619 0.31443242464 0.086268041935 
-0.96100802214 0.26022289249 0.093528752867 -0.97308622396 0.20786271058 0.099480120057 -0.98191226677 0.15822184627 0.10399109448 
-0.98806125258 0.11056764626 0.10728353436 -0.99183910243 0.065770594719 0.10922190144 -0.99366176072 0.023535301603 0.10991994749 
-0.99385645651 -0.016339179053 0.10946403557 -0.99272959499 -0.053487773146 0.10782861106 -0.99053982081 -0.088206829531 0.10512097129 
-0.98748793551 -0.12073866984 0.10143840901 -0.98376182171 -0.15111040361 0.096841747565 -0.97950852881 -0.17945957174 0.091418291952 
-0.97481617041 -0.20605779938 0.085285504169 -0.96979036752 -0.23095519397 0.078526055858 -0.96446041908 -0.254434016 0.071270130725 
-0.95886623649 -0.27663556239 0.063626300726 -0.95303605672 -0.2976900194 0.055703922157 -0.94700178119 -0.31768125984 0.047605079143 
-0.94067969635 -0.33699069114 0.039483958262 -0.9341258742 -0.35555890826 0.03141200269 -0.92727494623 -0.37364202263 0.023511975922 
-0.92005083184 -0.39147639991 0.015896387573 -0.91239911998 -0.40921017106 0.0086534248847 -0.90424649512 -0.42700678898 0.001865000619 
-0.89545510875 -0.44513029993 -0.0043777052689 -0.8858065402 -0.46394753968 -0.0099726507592 -0.87522819207 -0.48348103125 -0.014889735662 
-0.86330548053 -0.50432408459 -0.01899644657 -0.84982891214 -0.52658859544 -0.022254690353 -0.83442834483 -0.5505674888 -0.024592226857 
-0.81665483914 -0.57654339619 -0.025934263379 -0.79590978906 -0.60484865329 -0.026186146995 -0.77160379584 -0.63560080568 -0.025282366688 
-0.74325076679 -0.66861030548 -0.023206832394 -0.71023158452 -0.70368606868 -0.019925187403 -0.67187292228 -0.74050617689 -0.015407086197 
-0.62777220879 -0.77833666617 -0.0096998951976 -0.57803587875 -0.81600596866 -0.0029634420402 -0.5227215685 -0.85249067159 0.0046708327626 
-0.46234316206 -0.88660584683 0.012995109065 -0.3979385037 -0.91715472535 0.02172917497 -0.33045687808 -0.94332338202 0.030647163959 
-0.26099297275 -0.96453112541 0.03952690581 -0.19119561703 -0.98037361891 0.048081216414 -0.12146247939 -0.99100012074 0.056263903047 
-0.053165041645 -0.99654047856 0.063879205786 0.013713051826 -0.99738435598 0.070967588816 0.077928351324 -0.99395169214 0.077377036302 
0.13917933853 -0.98677346819 0.083109771993 0.19822014994 -0.97617059555 0.088316139739 0.25337112643 -0.96290796445 0.092797221322 
0.30566575679 -0.9472117661 0.096738385824 0.3537707042 -0.92997139428 0.09999747334 0.39842184634 -0.91143317121 0.10271127874 
0.43872603729 -0.89248885213 0.10480034839 0.47533136582 -0.87335155059 0.10638214957 0.50774679196 -0.85478220947 0.10742704332 
0.53607583413 -0.83723543869 0.10797925846 0.56032003092 -0.82119592888 0.10806807736 0.58068024091 -0.8069706447 0.10774431035 
0.59758257788 -0.7946248518 0.10708131262 0.61018865746 -0.78513238756 0.10600441651 0.61954064104 -0.77795669087 0.1046555361 
0.62479822951 -0.7739684483 0.10295636665 0.62583038523 -0.77340384043 0.10091000213 0.62256143324 -0.776344382 0.09852239532 
0.61329427285 -0.78404644072 0.095610217458 0.59686735731 -0.79704261161 0.092045820433 0.56946399022 -0.81735850708 0.087383263541 
0.52622604585 -0.84647505426 0.08103166785 0.45527491354 -0.88747339693 0.071524281521 0.33258870786 -0.94141895214 0.055813152186 
0.11064271843 -0.99347607551 0.027631073856 -0.27025698991 -0.96254282867 -0.021736199883 -0.70496688611 -0.70461727115 -0.080846711035 
-0.93152030185 -0.34510672768 -0.1147661699 -0.98806693949 -0.088894786597 -0.12578330572 -0.98940089164 0.067394571781 -0.12862288798 
-0.97775240447 0.16523805354 -0.12921540626 -0.96436461258 0.23081706328 -0.12932276404 -0.95202429766 0.27729263992 -0.12945473539 
-0.94104561689 0.312413608 -0.1297338987 -0.93117106884 0.34055479264 -0.13016479465 -0.92220880036 0.36392198866 -0.13073528485 
-0.91379001583 0.3843435811 -0.13140707225 -0.90569532607 0.40280473171 -0.13215265581 -0.89767764771 0.42012101809 -0.13294047901 
-0.8897648406 0.43637658932 -0.13376845937 -0.88188866813 0.45182753143 -0.13462636767 -0.87387560701 0.46688667602 -0.13549263902 
-0.86601578345 0.48105351886 -0.1363971217 -0.85812032795 0.49474595242 -0.13731695206 -0.85088663693 0.50681019555 -0.13833060682 
-0.84326194117 0.51913451691 -0.1393149379 -0.83654094557 0.52960704193 -0.1404123482 -0.83017456517 0.53923296713 -0.14155563746 
-0.82421077294 0.54799802845 -0.1427401926 -0.8189339006 0.5555310947 -0.14398774002 -0.81403860462 0.56235602244 -0.14524756179 
-0.80964892998 0.5683324927 -0.14651548699 -0.80566813457 0.57364285924 -0.14775901659 -0.80255693635 0.57766583652 -0.14901189629 
-0.79979377181 0.58118283643 -0.1501879929 -0.79670053126 0.58516115089 -0.15117768016 -0.79524324099 0.58687693197 -0.152196105 
-0.79323914381 0.5893865725 -0.15295466285 -0.79206752783 0.59079314317 -0.15359848095 -0.79139058785 0.59157739651 -0.15406856073 
-0.79139058785 0.59157739651 -0.15406856073 
BinormalArray 3 226 double
-0.066039377621 -0.99293314314 -0.098603112787 -0.066039377621 -0.99293314314 -0.098603112787 -0.062712698057 -0.99309640125 -0.099129487653 
-0.06281863535 -0.99309138218 -0.09911269192 -0.061204841688 -0.99316645545 -0.099369809905 -0.057136887142 -0.99334337151 -0.10002160969 
-0.052426293196 -0.9935263428 -0.10078139678 -0.044471043616 -0.99378230611 -0.10207376915 -0.036615079483 -0.99396984437 -0.10335997504 
-0.027211845018 -0.99410902698 -0.10491309723 -0.015020071602 -0.99415156305 -0.10694422439 -0.0011911360363 -0.99401171941 -0.10926702555 
0.014249820513 -0.99361939713 -0.11188134908 0.032673128371 -0.99282535243 -0.11502298143 0.053194289597 -0.99152299972 -0.11854327729 
0.077310193048 -0.98942820815 -0.12269863475 0.10357436339 -0.98644981781 -0.12723642638 0.13342978303 -0.98217461588 -0.13239908201 
0.16721714808 -0.97618164252 -0.13823106086 0.20506518068 -0.96798805841 -0.14473213346 0.24634035284 -0.9572272139 -0.15176459251 
0.29316280746 -0.94263949663 -0.15964444154 0.34421131866 -0.92372385752 -0.1680857018 0.39979491946 -0.89934024853 -0.17706253064 
0.45941267876 -0.86844516785 -0.18639469154 0.52423082844 -0.82868448579 -0.19612256758 0.58972449505 -0.78104346024 -0.20541697388 
0.65706287021 -0.72273979849 -0.21427918301 0.72256047414 -0.6546828036 -0.22202879966 0.78338506256 -0.57813407914 -0.22818595551 
0.83821177014 -0.49330359891 -0.23249212396 0.88466309368 -0.40286227724 -0.23467679104 0.92046597923 -0.3124747738 -0.23473793222 
0.94675485793 -0.22226269199 -0.23292602846 0.963548394 -0.13723532265 -0.22965399766 0.97259052394 -0.057520818079 -0.22529764365 
0.97531284523 0.013690845507 -0.22040284634 0.97344909589 0.078010864558 -0.21520028512 0.96832603882 0.13510153301 -0.2099815666 
0.96124790557 0.18427203414 -0.20505189945 0.95291943761 0.22756642215 -0.20039478269 0.94411366817 0.26490016267 -0.19615627798 
0.93518049563 0.29741054239 -0.19231331171 0.92638785386 0.32578859472 -0.18885797779 0.91797832243 0.35042158323 -0.18579696865 
0.9101509653 0.37160101586 -0.1831335725 0.90270598905 0.39044938543 -0.18075169363 0.8958890345 0.40675721893 -0.17869360008 
0.88968715804 0.42089809753 -0.1769224472 0.88391945883 0.43351393046 -0.17536265963 0.87873164378 0.44445802647 -0.1740337925 
0.8742399717 0.45364604565 -0.17294431806 0.87027110417 0.46155459341 -0.17203360878 0.8669375369 0.46805109737 -0.17131105439 
0.86429011227 0.47311749906 -0.17077012009 0.86218379677 0.47708982959 -0.17036547505 0.86104797966 0.47920936557 -0.17016098458 
0.86048268782 0.48025732885 -0.17006599322 0.86103574744 0.47923443025 -0.17015229205 0.86221638626 0.4770463628 -0.17032225637 
0.86447649507 0.47283105999 -0.17061998178 0.86773852199 0.46667529988 -0.17100883585 0.87195383357 0.45858377077 -0.17145680889 
0.87713123907 0.44841766979 -0.171937148 0.8834396259 0.43566222383 -0.17243217253 0.89071975171 0.42038908614 -0.17289112229 
0.89884537312 0.40256160184 -0.1732661304 0.90787912191 0.38163988228 -0.17351224814 0.91765338202 0.3574733133 -0.17356583979 
0.92806490389 0.32961181371 -0.17335393397 0.93863884857 0.29848917473 -0.17280429544 0.94935280782 0.26307629343 -0.17181417321 
0.95976654972 0.22327835924 -0.17027901909 0.96933811624 0.17923745886 -0.16809982077 0.97757066635 0.1306903268 -0.16515335531 
0.98387432618 0.07730103891 -0.1612943262 0.98749315287 0.019636849541 -0.15643422634 0.98771830252 -0.042121108727 -0.15046051665 
0.98384141259 -0.10732529089 -0.14330860692 0.97529494908 -0.17486571384 -0.13498794173 0.96184908324 -0.24302835362 -0.12563264068 
0.94350634705 -0.31062207175 -0.11536768011 0.92083519022 -0.37568893938 -0.10450058981 0.89490094555 -0.43637718316 -0.093419760634 
0.86685403548 -0.49169861597 -0.082441204674 0.83839734343 -0.54027974708 -0.072025616481 0.81112988439 -0.58151282789 -0.062539120946 
0.78665089064 -0.61500274888 -0.054332266035 0.76572261912 -0.64141510822 -0.047492415328 0.74970039942 -0.66042185929 -0.042335314836 
0.73963054687 -0.67187570801 -0.039111214829 0.73503838148 -0.67698017193 -0.037635416336 0.73753599795 -0.67421240296 -0.038448503602 
0.74633641897 -0.66428136256 -0.041378993197 0.76174005937 -0.64619902451 -0.046678717521 0.78364241559 -0.61881177892 -0.054557737872 
0.8114385041 -0.58079343168 -0.065165510668 0.84396103788 -0.53061734677 -0.07858115451 0.87942334459 -0.46650382708 -0.09480907296 
0.91516822703 -0.38670670233 -0.11368835737 0.94701893822 -0.29169058537 -0.13443114615 0.97083739716 -0.18181819633 -0.15625905339 
0.98217479202 -0.06119155554 -0.17773089614 0.97815393751 0.064914226438 -0.19748675331 0.95805771554 0.19017820588 -0.21437738619 
0.92358594338 0.30844599567 -0.2277061109 0.8777800497 0.41609110093 -0.23742447235 0.82416277064 0.51117244594 -0.24384105071 
0.76597992738 0.59332409221 -0.24746974046 0.70518265801 0.66390920012 -0.24888148352 0.64374938299 0.72374500804 -0.24855561799 
0.58205551668 0.77476440093 -0.24688357287 0.52123489742 0.81773311293 -0.24418586718 0.46075851166 0.85427583493 -0.24065409158 
0.40200503064 0.88455661318 -0.23654080709 0.34450949195 0.90967414593 -0.23196154462 0.28864629991 0.9301217579 -0.22706128913 
0.23466381714 0.94639571806 -0.22196404611 0.18268779077 0.95897623128 -0.21677121334 0.13359189521 0.96817103426 -0.21165550773 
0.086625155445 0.97458059799 -0.20661253705 0.042663584997 0.97849719472 -0.20179955015 0.0014012171911 0.98035425572 -0.19723987903 
-0.037371705862 0.98049568133 -0.19295485091 -0.073291788538 0.97923406485 -0.18902105697 -0.10666686629 0.97685043719 -0.18543301484 
-0.13775116424 0.97356766075 -0.18218294842 -0.16658220811 0.96959232018 -0.17927939252 -0.19331111313 0.96509234515 -0.17671326738 
-0.21822665479 0.96017788281 -0.17445790469 -0.24139420235 0.95497179913 -0.17250420848 -0.26311589976 0.9495211553 -0.17082037036 
-0.28355135446 0.94387872235 -0.1693859111 -0.30284894307 0.93808196191 -0.16818070764 -0.32110948554 0.93216792717 -0.16718748114 
-0.3387349558 0.92605519078 -0.16637431697 -0.35567782903 0.91979646784 -0.16573394249 -0.37220903725 0.91332027973 -0.16524678277 
-0.38857705953 0.90654087005 -0.16489851347 -0.4049382144 0.89939167278 -0.16468048294 -0.42146184391 0.89178545074 -0.16458622046 
-0.43841683762 0.88356873904 -0.16461154236 -0.4561739035 0.87450595495 -0.16475650067 -0.47475291044 0.86451013074 -0.16502093163 
-0.49475023226 0.85314753229 -0.1654131066 -0.51627360798 0.84019489389 -0.16593402901 -0.53961341127 0.82526748967 -0.16658612446 
-0.56504960181 0.80790284376 -0.16736768664 -0.59291297744 0.78748894807 -0.1682716787 -0.62331859951 0.76342671658 -0.16927365985 
-0.65607316128 0.73522588597 -0.17032587487 -0.6909842351 0.70226389848 -0.17136570174 -0.72773023963 0.66386619939 -0.1723089308 
-0.76557591584 0.61963647771 -0.17304378804 -0.80334468303 0.56969686343 -0.17344395075 -0.8400103828 0.51411901905 -0.1733902853 
-0.87438192762 0.45343627568 -0.17277670141 -0.90525182987 0.38871007959 -0.17153308292 -0.93179662474 0.32090801869 -0.16962633543 
-0.95342453898 0.25114136843 -0.16706184944 -0.96971395473 0.1810781092 -0.16390718218 -0.98080941587 0.11111781809 -0.16020524409 
-0.98682557228 0.042642714044 -0.15606693701 -0.98815134474 -0.024368440191 -0.1515358011 -0.98519228869 -0.088665508636 -0.14674665885 
-0.97847476479 -0.14995023978 -0.14178173458 -0.96832695789 -0.20898830376 -0.13662646713 -0.95549396539 -0.26409127565 -0.13148034157 
-0.94021216463 -0.31630593405 -0.12629980824 -0.92335449863 -0.36429354513 -0.12127111292 -0.90517405711 -0.40879998037 -0.11637225779 
-0.88655079292 -0.44893002337 -0.11175654651 -0.86770367345 -0.48534007395 -0.10740273597 -0.84938654906 -0.51753926031 -0.10341955483 
-0.83205390534 -0.54563504985 -0.099843332194 -0.81618942705 -0.56963189038 -0.096717778248 -0.8021017297 -0.58973443963 -0.094053739622 
-0.78986065587 -0.6063734732 -0.09182241178 -0.78043085113 -0.61870753333 -0.090159163782 -0.77328790254 -0.62778676812 -0.088935895738 
-0.76929457014 -0.63276717498 -0.088269851167 -0.76868759381 -0.63351816678 -0.088170944626 -0.77155032807 -0.62996440761 -0.088628079132 
-0.77912661209 -0.62039867434 -0.089817633059 -0.79194476852 -0.60365176808 -0.091804283718 -0.81200817375 -0.57588087704 -0.094889099573 
-0.84077921854 -0.5321917848 -0.099308659564 -0.88129506352 -0.4606161989 -0.10560174395 -0.93457351912 -0.33694115793 -0.11420592566 
-0.98581985901 -0.11323444575 -0.12384331181 -0.95448222205 0.27081628813 -0.12498890303 -0.69788451861 0.70947458502 -0.097994958569 
-0.34086884676 0.93848126418 -0.055329432461 -0.08661661393 0.99596504234 -0.023477577133 0.068416499921 0.9976505714 -0.0035383514202 
0.1654489131 0.9861756734 0.0091759656327 0.23047269316 0.97291543458 0.017829606382 0.27654898456 0.96069884173 0.024049836371 
0.31136510423 0.94985337602 0.028815550291 0.33926011486 0.94012452784 0.032687101593 0.36242177427 0.93132071446 0.035946965805 
0.38266257345 0.92307154879 0.038836460904 0.40095899591 0.9151561417 0.041486382221 0.41811896268 0.90732562038 0.044008540741 
0.43422620993 0.89960744634 0.046411648351 0.44953449334 0.89193277685 0.048730492157 0.46445230806 0.88412695487 0.051025299696 
0.47848518379 0.87648147579 0.053217961992 0.49204645608 0.86880629301 0.055370662758 0.50399703182 0.86180272193 0.057297996365 
0.51620196947 0.85441165007 0.059298051739 0.52657699235 0.84793428072 0.061025623304 0.53611491387 0.84181775841 0.062639131206 
0.54480206426 0.8361087286 0.064131932233 0.55227303275 0.83109125682 0.065435618224 0.5590444641 0.82645572117 0.066635036676 
0.56497815725 0.82232366387 0.067701356483 0.57025359334 0.81859409656 0.068662539681 0.57425915286 0.81572655528 0.069401818198 
0.57776353849 0.81319210931 0.07005631267 0.58171722105 0.8103036677 0.070802830802 0.58344122528 0.80903439423 0.071131467027 
0.58593965111 0.80718430772 0.071611581665 0.58734719266 0.80613645608 0.071883860876 0.58813576319 0.80554762385 0.07203714156 
0.58813576319 0.80554762385 0.07203714156 
