# vtk DataFile Version 4.1
vtk output
ASCII
DATASET POLYDATA
POINTS 148 float
14.4406 -30.1206 -191.601 14.6968 -30.2429 -189.771 14.9529 -30.3651 -187.941 
15.2087 -30.4866 -186.114 15.464 -30.607 -184.291 15.7185 -30.7258 -182.474 
15.9721 -30.8424 -180.664 16.2244 -30.9565 -178.864 16.4753 -31.0676 -177.074 
16.7246 -31.1753 -175.297 16.9722 -31.2791 -173.535 17.2178 -31.3787 -171.788 
17.4613 -31.4736 -170.058 17.7026 -31.5637 -168.346 17.9417 -31.6485 -166.653 
18.1785 -31.7277 -164.981 18.413 -31.8011 -163.33 18.6453 -31.8685 -161.699 
18.8756 -31.9296 -160.09 19.1039 -31.9841 -158.501 19.3306 -32.0319 -156.932 
19.556 -32.0727 -155.382 19.7805 -32.1064 -153.849 20.0044 -32.1328 -152.332 
20.2284 -32.1516 -150.827 20.4529 -32.1626 -149.333 20.6787 -32.1655 -147.847 
20.9063 -32.1602 -146.365 21.1365 -32.1463 -144.885 21.3701 -32.1235 -143.401 
21.6078 -32.0914 -141.912 21.8504 -32.0497 -140.412 22.0987 -31.9979 -138.898 
22.3534 -31.9356 -137.367 22.6153 -31.8623 -135.814 22.885 -31.7774 -134.236 
23.1631 -31.6804 -132.629 23.4503 -31.5707 -130.99 23.747 -31.4476 -129.317 
24.0536 -31.3106 -127.605 24.3703 -31.159 -125.853 24.6974 -30.9921 -124.059 
25.0348 -30.8093 -122.22 25.3825 -30.6101 -120.335 25.7402 -30.3938 -118.403 
26.1076 -30.1599 -116.423 26.4841 -29.9078 -114.394 26.8692 -29.6373 -112.317 
27.262 -29.348 -110.192 27.6616 -29.0397 -108.019 28.0669 -28.7121 -105.8 
28.4768 -28.3653 -103.536 28.8901 -27.9994 -101.229 29.3053 -27.6145 -98.881 
29.721 -27.2111 -96.4946 30.1357 -26.7895 -94.0727 30.5477 -26.3503 -91.618 
30.9556 -25.8941 -89.1339 31.3575 -25.4217 -86.6238 31.7519 -24.9339 -84.091 
32.1371 -24.4317 -81.5392 32.5114 -23.916 -78.9718 32.8732 -23.3877 -76.3923 
33.221 -22.8479 -73.8042 33.553 -22.2976 -71.2104 33.868 -21.7377 -68.6141 
34.1644 -21.1692 -66.0178 34.4409 -20.593 -63.4239 34.6961 -20.0099 -60.8344 
34.9289 -19.4207 -58.2509 35.1382 -18.8261 -55.6747 35.3228 -18.2267 -53.1065 
35.4819 -17.6231 -50.5466 35.6145 -17.0159 -47.9953 35.7198 -16.4053 -45.4519 
35.7972 -15.792 -42.9159 35.8461 -15.1763 -40.3862 35.8659 -14.5586 -37.8615 
35.8563 -13.9392 -35.3405 35.8169 -13.3187 -32.8214 35.7474 -12.6976 -30.3027 
35.6478 -12.0762 -27.7826 35.5181 -11.4553 -25.2594 35.3583 -10.8354 -22.7315 
35.1685 -10.2173 -20.1976 34.949 -9.60183 -17.6563 34.7002 -8.98976 -15.1068 
34.4226 -8.38204 -12.5482 34.1167 -7.77963 -9.98018 33.7831 -7.18355 -7.40262 
33.4228 -6.59482 -4.81578 33.0364 -6.01448 -2.22025 32.6251 -5.44356 0.383025 
32.1898 -4.88307 2.99277 31.7317 -4.33398 5.6074 31.2522 -3.79721 8.22504 
30.7525 -3.2736 10.8435 30.2341 -2.76394 13.4606 29.6985 -2.2689 16.0736 
29.1472 -1.78909 18.6801 28.5819 -1.32501 21.2773 28.0041 -0.877063 23.8626 
27.4155 -0.445574 26.4334 26.8178 -0.030762 28.9873 26.2125 0.367236 31.5222 
25.6013 0.748361 34.036 24.9855 1.11263 36.5271 24.3666 1.46012 38.9944 
23.7459 1.79096 41.4371 23.1245 2.10533 43.8548 22.5035 2.40345 46.2477 
21.8838 2.68557 48.6164 21.2661 2.95194 50.9621 20.6509 3.20285 53.2863 
20.0387 3.43857 55.5912 19.4297 3.65938 57.8792 18.8239 3.86552 60.1533 
18.2214 4.05724 62.4167 17.6219 4.23474 64.6728 17.0251 4.39819 66.9255 
16.4305 4.5477 69.1787 15.8377 4.68334 71.4364 15.246 4.80512 73.7027 
14.6547 4.91298 75.9816 14.0631 5.0068 78.2771 13.4704 5.08636 80.5931 
12.8758 5.15142 82.9333 12.2785 5.20163 85.3009 11.6777 5.23662 87.6991 
11.0727 5.25595 90.1307 10.4627 5.25916 92.598 9.84699 5.24579 95.1028 
9.225 5.21537 97.6467 8.59619 5.16749 100.231 7.96009 5.10182 102.855 
7.31639 5.01811 105.52 6.66484 4.91626 108.224 6.00534 4.79632 110.968 
5.33792 4.65857 113.748 4.66275 4.50347 116.564 3.98013 4.33178 119.413 
3.29048 4.14447 122.291 2.59439 3.94282 125.196 1.89256 3.72835 128.125 
1.18579 3.50287 131.073 0.475023 3.26842 134.037 -0.238742 3.02724 137.012 
-0.954416 2.78175 139.995 
LINES 1 149
148 147 146 145 144 143 142 141 140 139 138 137 136 135 134 133 132 131 130 129 128 127 126 125 124 123 122 121 120 119 118 117 116 115 114 113 112 111 110 109 108 107 106 105 104 103 102 101 100 99 98 97 96 95 94 93 92 91 90 89 88 87 86 85 84 83 82 81 80 79 78 77 76 75 74 73 72 71 70 69 68 67 66 65 64 63 62 61 60 59 58 57 56 55 54 53 52 51 50 49 48 47 46 45 44 43 42 41 40 39 38 37 36 35 34 33 32 31 30 29 28 27 26 25 24 23 22 21 20 19 18 17 16 15 14 13 12 11 10 9 8 7 6 5 4 3 2 1 0 

CELL_DATA 1
FIELD FieldData 2
LengthArray 1 1 double
341.05453049 
TortuosityArray 1 1 double
0.022409807305 
POINT_DATA 148
FIELD FieldData 8
RadiusArray 1 148 double
60.104600959 60.58569285 60.59645241 60.860448423 60.952996735 61.000584858 61.336317092 61.52625374 61.724403177 
61.772684301 62.278290686 62.299768365 62.516235665 62.744427134 62.846326749 62.954708066 63.036393713 63.157480514 
63.168547062 63.201085675 63.216050651 63.220037405 63.240984493 63.26319281 63.303612311 63.306377577 63.292619322 
63.292609311 63.290116607 63.15783405 63.153237684 63.137494363 63.130462254 63.041496549 63.01703424 62.908327335 
62.860991407 62.820114017 62.763504131 62.636763199 62.622199053 62.60809451 62.503866195 62.20147375 62.14950798 
61.942310682 61.727198915 61.663300449 61.471600436 61.362604995 60.903429181 60.899297465 60.577177758 60.220941545 
60.043049614 59.969011004 59.756909613 59.554561598 59.06777784 58.917174338 58.808510761 58.568357364 58.346999187 
58.146634085 57.764511576 57.702557319 57.462363136 57.183042888 57.134720945 57.090107147 57.076338387 57.056968746 
57.080410384 57.082381498 57.285142462 57.44739155 57.565923522 57.601954905 57.610189655 57.648865228 57.658977118 
57.877431619 58.136659543 58.638628416 59.020228975 59.250658996 59.311919765 59.664868094 59.708190334 59.939501456 
60.571958311 60.571987006 61.133726334 61.616034219 62.298402268 62.359858915 62.471243552 62.524555741 62.522891604 
62.444707976 62.401340419 62.456846718 62.562237432 62.59855937 62.722922101 62.921254587 63.152260303 63.349901792 
63.414008237 63.606951867 64.068902645 64.542740752 64.611038707 64.735923198 64.760788215 64.862038678 65.296572908 
65.430388931 65.61292359 65.615644956 65.938074863 66.173516332 66.407493917 66.684783173 66.765619171 67.026873339 
67.448864529 67.487514258 67.700706071 67.738400315 67.812463269 67.823910257 68.089925194 68.172216928 68.578181337 
68.649241127 69.165975461 69.833913547 70.495499916 70.593726522 70.872498738 71.383482174 72.551171008 72.80791161 
73.337198927 73.712109022 70.525927567 69.837361008 
EdgeArray 2 148 int
43481 43481 37839 37839 38171 38172 37536 37202 37090 
37657 37641 37657 36641 37288 37080 36915 37068 37086 
36657 37084 36336 36336 36607 36298 35912 36338 35896 
36338 35759 35919 35903 35516 35515 35774 35250 35758 
35269 35758 35373 35373 35291 35291 35378 35378 34362 
34362 35142 35142 22896 22896 34089 35014 34883 34883 
34888 34883 34888 34888 32271 32271 33969 33969 12805 
12805 33436 33436 34273 34273 31745 31745 34123 34123 
34376 33337 34249 34249 33713 32420 33521 30265 32632 
32632 32265 32567 32915 32915 31399 31399 33012 32786 
32528 32528 33010 33010 32332 32332 32724 32724 31986 
31986 27220 27220 29203 29203 17377 17377 26658 26658 
32193 32193 32192 32190 28988 28988 31201 31201 29423 
29423 30438 27573 30390 27927 20961 20961 26370 26370 
26929 29361 20398 20398 29399 29393 30486 30486 29675 
29675 30204 30204 29727 29727 30993 31253 29430 29430 
30986 30988 30988 30987 30747 30747 27580 30751 30748 
27580 30748 30748 30750 30740 30740 30741 27497 30741 
30157 30157 29716 29594 29486 29486 28529 28529 29610 
29279 29610 29610 26020 26020 29600 29600 29570 28021 
25909 29011 25909 28677 28820 28820 28248 28819 22215 
22215 23035 24101 17758 19426 21297 21399 21297 21936 
15277 23413 22512 22517 21671 21671 21670 21669 21669 
21675 21675 21675 16745 21677 18054 21287 18054 18054 
19923 17728 17728 17728 18823 18823 18134 18134 19919 
19622 19622 19622 20657 16720 20657 20657 20656 20656 
18868 18031 18720 19644 17307 18720 15948 15948 18724 
18724 18721 18721 19690 19691 19690 19690 16175 19692 
18765 18765 18771 18767 18771 18771 18772 17538 17538 
17538 17807 17807 14312 14312 10815 10815 8970 8970 
15139 15139 5321 5321 13424 13424 13430 13430 13429 
13429 11873 11873 12948 11388 9335 10477 14308 14308 
14296 14284 14290 14290 14289 14289 8615 8615 
EdgePCoordArray 1 148 double
0 0 0.668 0.372 0.692 0.152 0.768 0.448 0.704 
0.696 0 0.972 0.268 0.328 0.632 0.44 0.628 0.916 
0.812 0 0 0 0 0 0 0.424 0 
0.996 0 0 0 0 0 0 0 0 
0.848 0 0.888 0.68 0 0.972 0 0 0.916 
0 0 0 0 0 0 0 0 0 
0 0.028 0 0 0 0.18 0.708 0 0 
0.296 0 0.996 0 0 0 0 0.348 0 
0.424 0.572 0 0.616 0.568 0 0.056 0.588 0.964 
0 0.944 0 0 0.492 0 0 0 0.08 
0.004 0.004 0 0.532 0 0.644 0.716 0.02 0.02 
0.156 0.048 0 0.492 0.068 0 0.884 0.812 0 
0.1 0 0 0 0.144 0 0.908 0 0 
0.904 0.148 0.848 0 0 0 0.64 0 0.94 
0 0.936 0 0.068 0 0 0 0 0 
0 0 0 0 0 0 0.888 0.756 0 
0.044 0 0 0 
CurvatureArray 1 148 double
0 3.5935856779e-05 0.00014605799412 0.00025549760225 0.00036642736191 0.00047774132121 0.00059022439838 0.00070449792824 0.00081818716508 
0.00093677332526 0.0010565425221 0.0011811738374 0.0013108078451 0.0014453940193 0.0015878353762 0.0017391889582 0.0018989279185 0.0020701401323 
0.0022499664745 0.002440393983 0.0026386277295 0.0028467604746 0.0030552301811 0.0032645746881 0.0034743385714 0.0036678280856 0.0038513290283 
0.0040107637343 0.0041446750726 0.0042520460305 0.0043264255714 0.0043630035387 0.0043682414628 0.0043425213573 0.0042829760597 0.0042012282349 
0.0040969794287 0.0039740283619 0.0038402781606 0.0036976377841 0.0035525813605 0.0034069901889 0.0032636022138 0.003126629851 0.0029965581155 
0.0028766113158 0.0027653898999 0.0026659993085 0.002577560131 0.0025000983367 0.0024349067637 0.0023806382641 0.0023380882709 0.0023071417714 
0.0022874761299 0.0022791940125 0.0022821349044 0.0022979281654 0.0023241939474 0.0023637217168 0.0024157163963 0.0024792923541 0.0025570075697 
0.0026458960463 0.0027476936309 0.0028599110505 0.002984697358 0.0031172396654 0.0032576080371 0.0034031591378 0.0035519109006 0.0036994425494 
0.0038430892068 0.0039800759405 0.0041041013078 0.0042157918271 0.004308127224 0.0043805023978 0.0044306452136 0.0044578608543 0.0044617331253 
0.0044445713175 0.0044072088858 0.0043522066136 0.0042826696428 0.0042012759024 0.0041122201644 0.0040174346864 0.0039189011797 0.0038202186402 
0.0037212871149 0.0036239417458 0.0035286103186 0.0034351708213 0.0033441015099 0.0032553096371 0.0031683535048 0.003082932357 0.0029997280912 
0.002917746578 0.0028381903478 0.0027601659438 0.0026852047764 0.002613210542 0.0025448271159 0.0024815384235 0.0024239204338 0.0023737646238 
0.0023321510671 0.0023005038981 0.0022803593444 0.0022730661405 0.0022788987521 0.0022977181582 0.0023289093787 0.0023702785205 0.0024195984341 
0.0024735640814 0.0025287742489 0.0025820496188 0.0026301962713 0.0026707954747 0.0027018716129 0.002722457431 0.0027315710408 0.0027300102745 
0.0027172931082 0.0026948616992 0.0026630173774 0.0026227198953 0.0025743175023 0.0025180035682 0.002453627643 0.002381158095 0.002299353803 
0.0022081061765 0.0021059830718 0.0019924319271 0.0018666959399 0.0017277623773 0.0015755184036 0.0014097482334 0.0012301750481 0.0010378032527 
0.00083288289376 0.00061715216706 0.00039151035055 0 
TorsionArray 1 148 double
0 0 0.0002533510647 -0.002048889989 -0.001580228029 -0.00174344254 -0.0024910136133 -0.0038729599721 -0.0039660444686 
-0.0046215805782 -0.0057079762398 -0.0061217083158 -0.0065846484834 -0.007182810983 -0.0078896520256 -0.0084646008251 -0.0089701579059 -0.0090053688048 
-0.0094540119141 -0.0099656044855 -0.0097190528797 -0.0094852763906 -0.0097126812603 -0.009671434901 -0.0088848893727 -0.0084398683679 -0.0079455952644 
-0.0068957694341 -0.0058761844077 -0.0047557998786 -0.0032209304012 -0.0015356480158 3.0535240944e-05 0.0020853339282 0.0041538553516 0.0060969222851 
0.0085087821207 0.010780195947 0.01292710241 0.01509435603 0.017155489662 0.01908759901 0.020829848428 0.02245585183 0.023757027934 
0.024864516406 0.025871981124 0.026437891791 0.02679325792 0.027090129805 0.027126996296 0.026929129089 0.026575642405 0.026098200048 
0.025511408357 0.024828682771 0.024049934978 0.02311200843 0.022146949409 0.021111717121 0.019965155621 0.018815321859 0.017676594316 
0.016529130375 0.015331490356 0.014302895843 0.013302196318 0.012321419914 0.011551544587 0.010894242808 0.0103414528 0.0099470848771 
0.0096975171194 0.0095875788153 0.0095999139411 0.0097629002845 0.010051558001 0.01041499852 0.010891493304 0.01144539489 0.012043220673 
0.01265416254 0.013266929373 0.013861061566 0.014389032353 0.014807794414 0.015117356267 0.015297874366 0.015320360415 0.0151958908 
0.014935806714 0.014536221089 0.014059045137 0.013522109273 0.012954824909 0.012404836332 0.011932897025 0.01153870738 0.011289680564 
0.011218911217 0.011346967802 0.011721608372 0.012340596145 0.013292816666 0.014494771581 0.015984107566 0.017727467234 0.019644982494 
0.021681869297 0.0236122819 0.025308195896 0.0265829269 0.027327577434 0.027371872814 0.02662703628 0.025319454933 0.023385133209 
0.021001058193 0.018335123133 0.015506038047 0.012616927368 0.0096860125759 0.0069616075172 0.0043073864196 0.0018698742719 -0.00035602030613 
-0.0023720397831 -0.0040592508621 -0.0054621944584 -0.0065283529339 -0.0073442737422 -0.007892943161 -0.0080851411425 -0.0081109534232 -0.0079668563845 
-0.0076105860041 -0.0071967532388 -0.0066856856445 -0.0061270901048 -0.0054932789238 -0.0049381560399 -0.0043339759191 -0.0037228988773 -0.0031394859055 
-0.0025970727652 -0.0021120672355 0 0 
TangentArray 3 148 double
-0.13834825524 0.066028895096 -0.98818011783 -0.13834825524 0.066028895096 -0.98818011783 -0.13835582159 0.065861068972 -0.98819025811 
-0.13837258266 0.065491245406 -0.98821248987 -0.1384001055 0.064919814607 -0.98824633997 -0.1384396945 0.064146753419 -0.98829127539 
-0.13849232649 0.063172936954 -0.98834662722 -0.13856085119 0.061998639252 -0.98841138159 -0.13864997413 0.060626454747 -0.9884839997 
-0.13876286842 0.059056733582 -0.9885631839 -0.13890382857 0.057288957638 -0.98864741022 -0.1390797869 0.055323522312 -0.98873460582 
-0.13929612172 0.053158033894 -0.98882294366 -0.13955886266 0.050790737864 -0.98891032192 -0.13987513622 0.048218209511 -0.98899441381 
-0.14025366787 0.045434414681 -0.98907260735 -0.14070331094 0.042433519772 -0.98914203969 -0.14123352854 0.039208112156 -0.98919958267 
-0.14185202178 0.035750464002 -0.98924208778 -0.14256870326 0.032054071397 -0.98926573849 -0.14339493241 0.028112869479 -0.98926617244 
-0.14433781514 0.02391982415 -0.98923932248 -0.14540340432 0.019472228851 -0.98918081376 -0.14659959353 0.014773205613 -0.98908559365 
-0.14793322386 0.009823250747 -0.98894856541 -0.14940257861 0.0046311761702 -0.98876560504 -0.15100583158 -0.00078900662937 -0.98853255702 
-0.15273953444 -0.0064211456464 -0.98824561902 -0.15459165476 -0.012242428838 -0.98790259804 -0.15654913662 -0.018231131723 -0.98750189552 
-0.15859556479 -0.024362693105 -0.98704301123 -0.16070691915 -0.030607154621 -0.98652748985 -0.16285674526 -0.036936683265 -0.98595809341 
-0.16502000063 -0.043327285971 -0.98533808699 -0.16716465047 -0.049753090713 -0.98467284394 -0.16925943689 -0.056191962186 -0.98396834624 
-0.17127558734 -0.062626369077 -0.98323070084 -0.17317923421 -0.069038844992 -0.98246760289 -0.17493998836 -0.075415895732 -0.98168652998 
-0.17653016346 -0.081746634383 -0.98089479005 -0.17792333968 -0.088022323669 -0.98009966623 -0.17909550528 -0.09423625123 -0.97930808684 
-0.18002488462 -0.10038103806 -0.97852679479 -0.18069286754 -0.10645103883 -0.97776186464 -0.18108258739 -0.11244122499 -0.97701896986 
-0.18118127525 -0.11834674405 -0.97630292106 -0.1809779005 -0.1241618081 -0.97561818604 -0.18046255414 -0.12988041508 -0.97496889403 
-0.17962967888 -0.13549744014 -0.97435805646 -0.17847553582 -0.14100613198 -0.97378835168 -0.17699591565 -0.14640051696 -0.9732622126 
-0.17518856769 -0.15167465314 -0.97278145816 -0.17305290439 -0.156822546 -0.97234735632 -0.17058839824 -0.16183955232 -0.97196067703 
-0.16779446472 -0.1667210704 -0.97162189266 -0.1646702066 -0.1714629552 -0.97133113718 -0.16121410138 -0.17606147078 -0.97108824111 
-0.15742275767 -0.18051505763 -0.97089257353 -0.15329311758 -0.18482241889 -0.97074295958 -0.14882030627 -0.18898294634 -0.97063791521 
-0.14399641088 -0.19299811522 -0.97057547938 -0.13881453983 -0.19686907612 -0.97055298176 -0.13326467569 -0.2005984292 -0.97056725497 
-0.12733560419 -0.20418811563 -0.97061468016 -0.12101655274 -0.20763969335 -0.9706908631 -0.11429709261 -0.21095556892 -0.97079035974 
-0.10716508955 -0.21413607951 -0.97090750488 -0.09961058196 -0.21718025429 -0.97103577128 -0.091628883536 -0.22008607114 -0.97116747731 
-0.083216368692 -0.22284779683 -0.971294958 -0.074373838015 -0.22545713146 -0.97141011632 -0.065108850584 -0.22790301918 -0.9715045298 
-0.055436265443 -0.23017061129 -0.9715700233 -0.0453762089 -0.23224225224 -0.97159895839 -0.034958823009 -0.23409678553 -0.9715845695 
-0.024220212021 -0.23571140188 -0.97152123824 -0.013203403428 -0.23706080707 -0.97140508743 -0.001960539094 -0.23811830366 -0.97123417863 
0.0094526387366 -0.23885845043 -0.97100838734 0.020976201374 -0.23925637433 -0.97072982148 0.032547777292 -0.23928941616 -0.97040260588 
0.04410582604 -0.23893859662 -0.97003248562 0.055590881754 -0.23818954381 -0.96962642037 0.066945648059 -0.23703291602 -0.96919228068 
0.078117872903 -0.23546457975 -0.96873837005 0.089060816457 -0.23348643879 -0.96827281996 0.099735223787 -0.23110663113 -0.96780298108 
0.11010886241 -0.22833851704 -0.96733528833 0.1201544625 -0.22520091362 -0.96687509723 0.12985274616 -0.22171717151 -0.96642628284 
0.1391902418 -0.21791427607 -0.96599143106 0.14815770082 -0.21382255783 -0.96557195975 0.15675117558 -0.20947453564 -0.96516811379 
0.16496937065 -0.20490389182 -0.96477950946 0.17281373966 -0.20014466138 -0.96440527057 0.18028823109 -0.19523019393 -0.96404425475 
0.18739765547 -0.19019266187 -0.96369542393 0.19414664857 -0.18506213596 -0.96335823279 0.20054087035 -0.17986585134 -0.96303252014 
0.20658516049 -0.17462773104 -0.9627189242 0.21228371459 -0.16936783974 -0.96241891055 0.2176397229 -0.16410235592 -0.9621347971 
0.22265517982 -0.15884316469 -0.96186980404 0.2273315008 -0.15359766621 -0.96162786237 0.23166756465 -0.14836924691 -0.96141390985 
0.23566210836 -0.14315743949 -0.96123322779 0.23931277978 -0.13795812928 -0.96109153986 0.24261642006 -0.13276412644 -0.96099477597 
0.24556962246 -0.1275657024 -0.96094877704 0.24816824415 -0.12235152639 -0.96095922213 0.25040932267 -0.11710948923 -0.96103097695 
0.25229120952 -0.11182677648 -0.96116799659 0.25381399223 -0.10649111566 -0.96137302835 0.25497948918 -0.10109172833 -0.96164750432 
0.25579288861 -0.095619265583 -0.96199114039 0.25626386315 -0.090066742688 -0.96240158682 0.25640473786 -0.084429481984 -0.96287500382 
0.25623278952 -0.078705056051 -0.96340555932 0.25576992717 -0.072893617747 -0.96398561444 0.25504212376 -0.066997070879 -0.96460608935 
0.25407924786 -0.061018915469 -0.96525666419 0.25291449795 -0.054963808141 -0.96592610303 0.25158458291 -0.048836887969 -0.96660237741 
0.25012620992 -0.042643916834 -0.96727368178 0.24857777321 -0.036390922231 -0.96792809208 0.24697667125 -0.030083920424 -0.96855432557 
0.2453590884 -0.02372960866 -0.96914179737 0.24375944287 -0.017335520045 -0.96968077931 0.2422081827 -0.010910546 -0.97016295344 
0.24073205454 -0.0044657688425 -0.97058133859 0.23935295111 0.0019850232996 -0.97093059715 0.23808892745 0.0084246244438 -0.97120682057 
0.23695358935 0.014831775952 -0.97140774905 0.23595407517 0.021180848594 -0.97153334789 0.23509418627 0.027441196973 -0.9715851503 
0.23437349624 0.033577504333 -0.97156657799 0.23378686749 0.039549569204 -0.97148316103 0.23332650945 0.0453125673 -0.97134211853 
0.23298151558 0.050818105818 -0.97115247697 0.23273862042 0.056014155811 -0.97092489355 0.23258227196 0.060846305029 -0.97067152731 
0.23249709288 0.065259435776 -0.97040522868 0.23246642305 0.069197920952 -0.97013968576 0.23247382519 0.072607880939 -0.96988866177 
0.23250368257 0.075438515546 -0.96966544125 0.23254235514 0.077643609793 -0.96948209005 0.23257773232 0.079183043569 -0.96934908265 
0.23257773232 0.079183043569 -0.96934908265 
NormalArray 3 148 double
0.040441518009 0.99731951298 0.06097764057 0.040441518009 0.99731951298 0.06097764057 0.046060705926 0.99713460443 0.060008266281 
0.044685648975 0.99720786195 0.059830367211 0.050354111628 0.99701992504 0.058444268393 0.051589212266 0.99701248183 0.057486209234 
0.055742123949 0.99687871737 0.055907409822 0.060208256183 0.99671980853 0.054079470972 0.068648989919 0.99631189093 0.051477491905 
0.074287079488 0.99602864273 0.049075173695 0.083991567817 0.9954096814 0.04588009058 0.093709414468 0.99469311393 0.042475342766 
0.10447446111 0.99377405349 0.038706815828 0.11556287306 0.99269470031 0.034676423546 0.1279039873 0.99132536567 0.03024217944 
0.14101073706 0.98968046672 0.025466562776 0.15482350797 0.98773253934 0.020349744777 0.16909311688 0.9854871654 0.014918600876 
0.18263307563 0.98313676636 0.00934121654 0.19759912507 0.98027740459 0.0032857004575 0.21233551659 0.97719219072 -0.0030084527491 
0.22604479464 0.97407127627 -0.0094286568817 0.23954040505 0.97075287118 -0.016101473139 0.25338895216 0.96708834937 -0.023111975856 
0.26638081519 0.96339220044 -0.030277539866 0.27764797839 0.95995240353 -0.037456415385 0.28889708861 0.95630693599 -0.044894502768 
0.29859662637 0.95294301873 -0.052341740371 0.3066599773 0.94994128702 -0.059759597821 0.31332867437 0.94726691827 -0.067160459861 
0.31816216864 0.94510854444 -0.074449134854 0.32044610604 0.94375583889 -0.081481345596 0.32042869773 0.94315194059 -0.08826022108 
0.31815639648 0.94329036596 -0.094761769003 0.3120273598 0.94472068682 -0.10070625912 0.30344972512 0.9469023965 -0.10627377766 
0.29107700682 0.95021183254 -0.11122791644 0.2745055835 0.95462740368 -0.11546949716 0.25419519692 0.95979995329 -0.119032985 
0.22956184882 0.96564416791 -0.12178956668 0.20067613996 0.97181549309 -0.12370826261 0.16726499913 0.9779941389 -0.12469917542 
0.1295794339 0.98369028048 -0.1247501599 0.087614271288 0.98843123942 -0.12380397574 0.041400312678 0.9916905066 -0.12180292787 
-0.0080101714708 0.99287758777 -0.11886939408 -0.061136447364 0.99150067892 -0.1148422331 -0.11685532498 0.98705390711 -0.10986090059 
-0.17433098626 0.97917659321 -0.10402839292 -0.23312008116 0.96756009136 -0.097378115462 -0.29287393097 0.95191276205 -0.089927493067 
-0.35225345743 0.93231187317 -0.081927241363 -0.41087730567 0.90872820711 -0.073436266889 -0.46778991318 0.88147053982 -0.064670584966 
-0.52276609377 0.85065549559 -0.055685177843 -0.57496894846 0.81684039833 -0.046716934476 -0.62433214868 0.78024326667 -0.037812867288 
-0.67013169753 0.7416660903 -0.029238988927 -0.71231162106 0.70154653184 -0.021085971005 -0.75066721594 0.66054228978 -0.013513487281 
-0.78527609963 0.61911051289 -0.0066045581563 -0.8159251043 0.57815732496 -0.00057599176261 -0.84308788319 0.53775599226 0.0046167083976 
-0.86683382359 0.49851865492 0.0088472017593 -0.88748339437 0.46068083834 0.012099169199 -0.90516831537 0.42481412394 0.014257662775 
-0.92059742589 0.39020318043 0.015551765988 -0.93369293958 0.35772721943 0.015771209519 -0.94495109845 0.32686384126 0.015081472424 
-0.95467391689 0.29734411784 0.013571588094 -0.96305251818 0.26907719783 0.011283121966 -0.97029774316 0.24177098468 0.0083114727468 
-0.97659086737 0.21505225249 0.0047756126959 -0.98204566678 0.18864175313 0.00077287414273 -0.98675866012 0.16215619897 -0.0035656428572 
-0.99075172093 0.13544157466 -0.0081613313039 -0.99407988907 0.10789282237 -0.012818464609 -0.99667886123 0.079532670947 -0.01748719021 
-0.99850726599 0.049985258072 -0.022016215336 -0.99947176164 0.019089086645 -0.026302175986 -0.99945379458 -0.013352009535 -0.030229726071 
-0.99831046454 -0.04730635949 -0.033739068557 -0.99588592146 -0.082829480213 -0.036749267188 -0.99202372388 -0.11979277309 -0.039225282249 
-0.98656072632 -0.15813683582 -0.041117811651 -0.97938800226 -0.19747371663 -0.042464953483 -0.9704234749 -0.23749533638 -0.043292546269 
-0.95963783825 -0.27783053031 -0.043651068995 -0.94707189093 -0.31804481509 -0.043615696792 -0.93286531408 -0.35761352494 -0.043299798784 
-0.9171527307 -0.3962344802 -0.0427680403 -0.90021131785 -0.43340834655 -0.042151967494 -0.88227574406 -0.46889812253 -0.041521827141 
-0.86358908151 -0.5025316616 -0.040936870717 -0.84440007502 -0.53418380315 -0.040449694255 -0.82489425193 -0.56386466828 -0.040076289841 
-0.80518812231 -0.59168227149 -0.039801724881 -0.7852528393 -0.617910715 -0.039551569694 -0.76516721422 -0.64263021406 -0.039313385332 
-0.7445825771 -0.66639603808 -0.038898667249 -0.7234442644 -0.68932156512 -0.038264555038 -0.70118408733 -0.71201070327 -0.037170339051 
-0.67756045612 -0.73460838387 -0.035529574328 -0.65185832756 -0.75761852258 -0.03308919823 -0.6234506236 -0.78130006962 -0.029656721646 
-0.59184750371 -0.80565863783 -0.025113575101 -0.55615246271 -0.83085804213 -0.019218534215 -0.51599596559 -0.85650777425 -0.011941363038 
-0.47070509654 -0.88228492774 -0.0031651804982 -0.42018714645 -0.90741031601 0.0070199970236 -0.36479382685 -0.93090675751 0.01838675362 
-0.30513143968 -0.95181699035 0.030646719364 -0.2425581869 -0.96916934098 0.043316445738 -0.17837194279 -0.98236970845 0.055975047605 
-0.11485523238 -0.9910542921 0.067968122737 -0.053741378137 -0.99543698908 0.078848367484 0.0037279071964 -0.99608392637 0.088334106344 
0.055714195177 -0.99382011759 0.096007824338 0.10189224184 -0.98956656502 0.1018625763 0.14138571534 -0.98429046487 0.10574667968 
0.17447744362 -0.97874264944 0.10779818104 0.20082793727 -0.97365640307 0.10798772322 0.22076693755 -0.96950072151 0.10644393023 
0.23500655618 -0.96648057116 0.10337903138 0.24320857995 -0.96493545055 0.098737849383 0.24662216745 -0.96465348363 0.092850218349 
0.2448269225 -0.9657780307 0.085630446925 0.23900020028 -0.9679310731 0.077384378228 0.22921968384 -0.97098632237 0.068146153966 
0.21648396292 -0.97455116949 0.058178276433 0.2011277308 -0.97840872596 0.047581518118 0.18381216522 -0.98228197946 0.036540398752 
0.16500922759 -0.9859701331 0.025196258387 0.14594425568 -0.98919545135 0.013879238238 0.12613764558 -0.99200959028 0.0025034312004 
0.10703097252 -0.99421900097 -0.0085410200038 0.088272728407 -0.99590932796 -0.01930118913 0.070667815194 -0.99706249055 -0.029537261906 
0.053985327409 -0.99776964193 -0.039259725688 0.038882097114 -0.99807771597 -0.048260288065 0.025188962548 -0.99808315264 -0.056529077313 
0.012722361313 -0.99786507933 -0.064057981347 0.0021353464148 -0.99749974664 -0.070637778539 -0.0072520587548 -0.99705243257 -0.0763796723 
-0.014605970169 -0.99660411104 -0.081036482515 -0.02139620829 -0.99615868036 -0.084912224147 -0.02532918942 -0.99584903377 -0.087425019926 
-0.02532918942 -0.99584903377 -0.087425019926 
BinormalArray 3 148 double
0.98955760009 -0.03152735385 -0.14064772329 0.98955760009 -0.03152735385 -0.14064772329 0.98931091069 -0.037214247894 -0.14099298476 
0.98937162944 -0.035880034003 -0.14091274611 0.98909548287 -0.041673573608 -0.1412566424 0.98902629094 -0.043026795143 -0.14133538388 
0.98879355334 -0.047349792945 -0.14158144647 0.98852205661 -0.052017228147 -0.14183917502 0.98795926073 -0.06072107521 -0.14230056279 
0.98753546578 -0.066627659952 -0.14259894375 0.98673762619 -0.076665125766 -0.14307800512 0.98583738949 -0.086746279356 -0.1435260412 
0.98472416313 -0.097915034842 -0.14398252846 0.98344727679 -0.10944191577 -0.14440886694 0.98187347265 -0.12226619998 -0.14482907182 
0.98002289804 -0.13589807854 -0.14521305578 0.97787128993 -0.150279164 -0.14554694499 0.97542842292 -0.165159834 -0.1458136516 
0.97289422015 -0.17934325458 -0.14598915519 0.96986017065 -0.19500960634 -0.14609073487 0.96661860201 -0.21048774065 -0.14609376881 
0.96336407756 -0.22497331123 -0.14600227155 0.95993658351 -0.23928998181 -0.14581515781 0.95619171618 -0.25401156844 -0.14551812602 
0.95244791069 -0.26791597912 -0.1451344396 0.94899445183 -0.28012485638 -0.14470520113 0.94537596279 -0.29236350944 -0.14417998239 
0.94207785737 -0.30308146092 -0.1436347406 0.93918106806 -0.3121885234 -0.14309873253 0.93665228855 -0.31992657187 -0.14258148187 
0.93467656506 -0.32584704758 -0.14213873612 0.93353499091 -0.32922350864 -0.14186014978 0.93316832897 -0.33030304023 -0.14176308201 
0.93356569494 -0.32912920226 -0.14187692361 0.93525125307 -0.32407939436 -0.14239957786 0.93769371724 -0.31657276396 -0.14322073094 
0.94124324661 -0.30524647613 -0.14451899366 0.94586237766 -0.28968976169 -0.1463700943 0.95119966481 -0.27036362982 -0.14873703419 
0.95715122053 -0.24667555362 -0.15169941428 0.96336512914 -0.21869320503 -0.15524467794 0.96950875192 -0.18613702812 -0.15939192799 
0.97508984777 -0.14925508126 -0.16408141116 0.97962943355 -0.10803638865 -0.16927584482 0.98259610759 -0.062505280175 -0.17492278096 
0.98341709496 -0.013716554603 -0.18083880523 0.98158511314 0.038861923642 -0.18703052307 0.97661563554 0.094104528238 -0.19330348727 
0.96816418323 0.15117421414 -0.19951057938 0.95592965791 0.20963000824 -0.20555716667 0.93962615247 0.2691263311 -0.21136156584 
0.91936198936 0.32831291589 -0.21675830267 0.89511593214 0.38680710266 -0.22169288071 0.86722096118 0.44364134922 -0.22607555761 
0.83579939508 0.49858731684 -0.22989140627 0.80143273664 0.5507923553 -0.2330951522 0.7643424505 0.60018564071 -0.23570705345 
0.72535617688 0.64602300615 -0.2377239832 0.68491851677 0.68823915694 -0.2391934118 0.64370120969 0.72661498017 -0.24016540806 
0.60216815011 0.76121869417 -0.24070649895 0.56124571063 0.79181858684 -0.24088706448 0.5210022528 0.81888873664 -0.24078598295 
0.48206303135 0.84248819821 -0.24047633913 0.4446664128 0.86293622182 -0.24002678683 0.40939772284 0.88035828391 -0.2395053162 
0.37552100211 0.89548155617 -0.23894928236 0.34394073114 0.90822022309 -0.23841308656 0.31412031013 0.91908767295 -0.23792074352 
0.28578444394 0.92839934028 -0.23749087681 0.25884045173 0.93635812779 -0.23713936212 0.23298739706 0.94318980318 -0.23687521609 
0.20783911626 0.94909115389 -0.23670421067 0.18310463682 0.95418961703 -0.23663234505 0.1583831663 0.95859483732 -0.23666582029 
0.13350808516 0.96233866953 -0.23681190071 0.10784639211 0.96548501419 -0.23708193326 0.081408868411 0.96797429083 -0.23748340664 
0.053794863911 0.96976704142 -0.23802940571 0.024823308935 0.97076876449 -0.23872957341 -0.005723171344 0.97085647711 -0.23959329322 
-0.03782713979 0.96988167082 -0.24062138744 -0.071560361213 0.9676802253 -0.24181417716 -0.10680454792 0.96408769738 -0.24316188086 
-0.14351143234 0.95893126596 -0.24465342007 -0.18129344171 0.95209674621 -0.24626098727 -0.21984350002 0.94349652371 -0.24795795057 
-0.25878805579 0.93309791451 -0.24971388452 -0.29768731675 0.92094084723 -0.25149595891 -0.33600680069 0.90716815566 -0.25326935712 
-0.37343934602 0.8919145727 -0.25501264646 -0.40947390504 0.87546394495 -0.25669827072 -0.44386775102 0.85805301095 -0.25831463373 
-0.47644412584 0.83992638023 -0.25985509568 -0.50707388485 0.82133414575 -0.26131646777 -0.53576639207 0.80245984775 -0.2627024284 
-0.56263150145 0.78341485879 -0.26402074275 -0.58794987645 0.76415859226 -0.26528586214 -0.61180265904 0.74476485114 -0.26650107484 
-0.63475929087 0.72485962502 -0.26769229849 -0.6569353247 0.70437938266 -0.26885993462 -0.67895053332 0.68272335189 -0.27002777283 
-0.70095399222 0.65963578691 -0.27119020893 -0.72346465673 0.63436734719 -0.27235447358 -0.74675260925 0.60626460212 -0.2735027839 
-0.77083065782 0.5748218044 -0.27459058641 -0.79587928209 0.53911266763 -0.27556070101 -0.821514112 0.4987665981 -0.27630860356 
-0.84742685384 0.45310075905 -0.27670820287 -0.87284321877 0.40204057307 -0.27660096358 -0.89678349394 0.34597395329 -0.27582854936 
-0.91828315356 0.28555067668 -0.27425692504 -0.93634608095 0.22219457867 -0.27181903151 -0.95035199275 0.15725844458 -0.26851605443 
-0.95988451062 0.093103953525 -0.26448701311 -0.96511175349 0.031514800343 -0.25993483922 -0.96656231724 -0.026238792037 -0.25508589275 
-0.96500812744 -0.078275718012 -0.25026431215 -0.96135306491 -0.12427603907 -0.24567407414 -0.95653729389 -0.16335137973 -0.24156310176 
-0.95131559299 -0.19580479597 -0.23803177184 -0.94641555161 -0.22129660763 -0.23521355214 -0.94232009261 -0.24017349848 -0.23312986445 
-0.93925970725 -0.25317346214 -0.23172052219 -0.93758129104 -0.2599524515 -0.23101092107 -0.93711260283 -0.26179880492 -0.23082754464 
-0.93800783353 -0.25828221212 -0.23115277015 -0.93992565572 -0.25061707339 -0.23179914635 -0.94275847001 -0.23888600157 -0.23267992066 
-0.94614098934 -0.22412067053 -0.23363893795 -0.94987251813 -0.20666984455 -0.23458425918 -0.95369111904 -0.18721949292 -0.2354190114 
-0.95740532237 -0.16626158621 -0.23607654192 -0.96074239453 -0.14506457415 -0.23649592107 -0.96375308972 -0.12314200546 -0.23667705538 
-0.96623673868 -0.10198592699 -0.23661241623 -0.96827249574 -0.08124310468 -0.23632167047 -0.96982720104 -0.061750799103 -0.23584325076 
-0.9709815641 -0.043281194041 -0.23520531546 -0.97176175943 -0.026519563137 -0.23446917853 -0.97225048364 -0.011302547514 -0.23366910255 
-0.97251387822 0.002547448499 -0.23283098415 -0.97260207817 0.014349327409 -0.23203295962 -0.97257561569 0.024789964147 -0.2312620363 
-0.97248583703 0.033004185117 -0.23061227318 -0.97235089106 0.040488929315 -0.22998780678 -0.9722479265 0.044885939411 -0.2296066677 
-0.9722479265 0.044885939411 -0.2296066677 
