# vtk DataFile Version 4.1
vtk output
ASCII
DATASET POLYDATA
POINTS 237 float
-21.7037 2.13305 182.488 -20.9396 2.23729 180.672 -20.1752 2.34155 178.855 
-19.4095 2.4459 177.036 -18.6415 2.5504 175.215 -17.8701 2.6551 173.389 
-17.0945 2.76006 171.557 -16.3138 2.86531 169.718 -15.5271 2.97088 167.87 
-14.7336 3.07678 166.014 -13.9325 3.18299 164.146 -13.1233 3.28948 162.267 
-12.3053 3.39622 160.376 -11.478 3.50311 158.471 -10.6411 3.61008 156.552 
-9.79425 3.71699 154.618 -8.93721 3.82373 152.669 -8.06987 3.93012 150.703 
-7.19223 4.03599 148.722 -6.30436 4.14115 146.724 -5.40648 4.2454 144.71 
-4.49888 4.34852 142.68 -3.58201 4.45029 140.634 -2.6564 4.55048 138.573 
-1.72272 4.64888 136.499 -0.781756 4.74527 134.411 0.165575 4.83945 132.311 
1.11824 4.93123 130.2 2.07509 5.02044 128.081 3.03485 5.10694 125.955 
3.99617 5.19061 123.824 4.95758 5.27138 121.69 5.91756 5.34919 119.556 
6.87452 5.42404 117.423 7.82683 5.49595 115.295 8.77287 5.56498 113.173 
9.71101 5.63124 111.061 10.6397 5.69486 108.96 11.5573 5.756 106.872 
12.4625 5.81486 104.8 13.3539 5.87165 102.745 14.2304 5.9266 100.71 
15.0908 5.97997 98.6952 15.9343 6.032 96.7025 16.7601 6.08294 94.7326 
17.5677 6.13304 92.7864 18.3567 6.18255 90.8644 19.1268 6.23167 88.9668 
19.8781 6.28063 87.0937 20.6106 6.32961 85.245 21.3245 6.37876 83.4203 
22.0203 6.42823 81.6191 22.6983 6.47814 79.8409 23.3592 6.52857 78.0847 
24.0035 6.57959 76.3497 24.632 6.63125 74.635 25.2454 6.68356 72.9395 
25.8443 6.73654 71.2621 26.4296 6.79017 69.6017 27.002 6.84441 67.9571 
27.5622 6.89921 66.3273 28.1108 6.95451 64.7111 28.6484 7.01024 63.1074 
29.1757 7.06629 61.5151 29.6931 7.12257 59.9333 30.201 7.17895 58.3611 
30.6997 7.23529 56.7977 31.1896 7.29142 55.2425 31.6708 7.34719 53.6948 
32.1434 7.40238 52.1542 32.6075 7.45678 50.6206 33.063 7.51015 49.0938 
33.5098 7.56221 47.574 33.9477 7.61269 46.0612 34.3767 7.66127 44.556 
34.7963 7.7076 43.0587 35.2064 7.75133 41.5701 35.6067 7.79208 40.0909 
35.9968 7.82945 38.6218 36.3766 7.86303 37.1637 36.7457 7.89238 35.7175 
37.1039 7.91709 34.2839 37.451 7.93673 32.8637 37.7869 7.95086 31.4575 
38.1115 7.95907 30.0659 38.4247 7.96096 28.6891 38.7266 7.95614 27.3273 
39.0173 7.94426 25.9803 39.2969 7.925 24.6478 39.5656 7.89804 23.3293 
39.8236 7.86313 22.0237 40.0713 7.82004 20.7299 40.309 7.76858 19.4465 
40.5371 7.70858 18.1718 40.7559 7.63992 16.9038 40.9661 7.56251 15.6404 
41.168 7.47628 14.3792 41.3621 7.38118 13.1178 41.5489 7.27718 11.8534 
41.7291 7.16428 10.5833 41.9031 7.04246 9.30482 42.0714 6.91172 8.01503 
42.2347 6.77207 6.71117 42.3936 6.6235 5.39051 42.5485 6.466 4.05041 
42.7002 6.29956 2.68832 42.8491 6.12416 1.30189 42.996 5.93976 -0.11111 
43.1413 5.74634 -1.55269 43.2858 5.54385 -3.02465 43.43 5.33226 -4.5286 
43.5744 5.11153 -6.06589 43.7198 4.88165 -7.63766 43.8666 4.6426 -9.24481 
44.0153 4.39439 -10.888 44.1665 4.13706 -12.5678 44.3207 3.87065 -14.2843 
44.4782 3.59528 -16.0376 44.6395 3.31107 -17.8276 44.8048 3.0182 -19.6539 
44.9744 2.71691 -21.516 45.1487 2.40748 -23.4131 45.3276 2.09025 -25.3445 
45.5113 1.76563 -27.3089 45.6998 1.43408 -29.3052 45.8931 1.09616 -31.3318 
46.091 0.752454 -33.3871 46.2934 0.403655 -35.4693 46.4999 0.0505072 -37.5761 
46.7103 -0.306173 -39.7054 46.9242 -0.665507 -41.8545 47.1412 -1.02656 -44.0208 
47.3607 -1.38833 -46.2012 47.5823 -1.7498 -48.3928 47.8053 -2.1099 -50.5922 
48.0291 -2.46754 -52.7961 48.2532 -2.82165 -55.0011 48.4768 -3.17114 -57.2039 
48.6994 -3.51496 -59.4011 48.9203 -3.85209 -61.5897 49.1389 -4.18155 -63.7665 
49.3545 -4.50246 -65.9289 49.5666 -4.81397 -68.0743 49.7747 -5.11534 -70.2007 
49.9781 -5.40592 -72.3061 50.1765 -5.68514 -74.3891 50.3695 -5.95253 -76.4486 
50.5565 -6.20772 -78.4839 50.7373 -6.45042 -80.4945 50.9115 -6.68042 -82.4803 
51.079 -6.89762 -84.4413 51.2394 -7.10195 -86.378 51.3926 -7.29343 -88.2908 
51.5384 -7.47212 -90.1802 51.6768 -7.63814 -92.0471 51.8075 -7.79165 -93.892 
51.9307 -7.93284 -95.7157 52.0463 -8.06193 -97.519 52.1543 -8.17919 -99.3026 
52.2548 -8.28488 -101.067 52.348 -8.37931 -102.813 52.4341 -8.46282 -104.542 
52.5132 -8.53576 -106.254 52.5857 -8.5985 -107.949 52.6519 -8.65145 -109.63 
52.7123 -8.69504 -111.296 52.7672 -8.7297 -112.948 52.8171 -8.75591 -114.589 
52.8627 -8.77414 -116.218 52.9044 -8.78488 -117.838 52.9429 -8.78863 -119.45 
52.9788 -8.78589 -121.055 53.0127 -8.77714 -122.656 53.0453 -8.76287 -124.253 
53.0771 -8.74353 -125.848 53.1089 -8.71956 -127.443 53.1411 -8.69136 -129.04 
53.1743 -8.65929 -130.639 53.2089 -8.62366 -132.242 53.2454 -8.58475 -133.85 
53.2841 -8.54276 -135.462 53.3254 -8.49786 -137.081 53.3692 -8.45013 -138.705 
53.4159 -8.39963 -140.335 53.4654 -8.34634 -141.97 53.5177 -8.29017 -143.609 
53.5727 -8.23101 -145.253 53.6301 -8.16866 -146.899 53.6898 -8.10292 -148.546 
53.7515 -8.03351 -150.194 53.8148 -7.96016 -151.842 53.8794 -7.88254 -153.487 
53.9451 -7.80032 -155.131 54.0114 -7.71319 -156.77 54.078 -7.62082 -158.406 
54.1447 -7.5229 -160.038 54.2112 -7.41916 -161.665 54.2773 -7.30935 -163.287 
54.343 -7.19328 -164.906 54.4082 -7.0708 -166.522 54.4729 -6.94182 -168.135 
54.5372 -6.80634 -169.748 54.6014 -6.66441 -171.359 54.6658 -6.51614 -172.972 
54.7305 -6.36173 -174.587 54.7961 -6.20144 -176.206 54.863 -6.03562 -177.828 
54.9317 -5.86466 -179.456 55.0027 -5.689 -181.091 55.0766 -5.50916 -182.732 
55.1538 -5.32567 -184.38 55.2349 -5.13909 -186.035 55.3205 -4.95001 -187.697 
55.4109 -4.75903 -189.366 55.5066 -4.56673 -191.04 55.6081 -4.37369 -192.72 
55.7155 -4.18045 -194.404 55.8293 -3.98752 -196.091 55.9495 -3.79538 -197.78 
56.0764 -3.60445 -199.469 56.2099 -3.41509 -201.159 56.3501 -3.22762 -202.846 
56.4969 -3.04229 -204.531 56.6502 -2.85927 -206.212 56.8097 -2.6787 -207.889 
56.9753 -2.50065 -209.56 57.1466 -2.32512 -211.226 57.3232 -2.15209 -212.885 
57.5048 -1.98145 -214.538 57.691 -1.81307 -216.185 57.8814 -1.64679 -217.825 
58.0753 -1.4824 -219.46 58.2724 -1.31966 -221.09 58.4721 -1.15832 -222.715 
58.6739 -0.998098 -224.337 58.8771 -0.838703 -225.956 59.0814 -0.679831 -227.573 

LINES 1 238
237 236 235 234 233 232 231 230 229 228 227 226 225 224 223 222 221 220 219 218 217 216 215 214 213 212 211 210 209 208 207 206 205 204 203 202 201 200 199 198 197 196 195 194 193 192 191 190 189 188 187 186 185 184 183 182 181 180 179 178 177 176 175 174 173 172 171 170 169 168 167 166 165 164 163 162 161 160 159 158 157 156 155 154 153 152 151 150 149 148 147 146 145 144 143 142 141 140 139 138 137 136 135 134 133 132 131 130 129 128 127 126 125 124 123 122 121 120 119 118 117 116 115 114 113 112 111 110 109 108 107 106 105 104 103 102 101 100 99 98 97 96 95 94 93 92 91 90 89 88 87 86 85 84 83 82 81 80 79 78 77 76 75 74 73 72 71 70 69 68 67 66 65 64 63 62 61 60 59 58 57 56 55 54 53 52 51 50 49 48 47 46 45 44 43 42 41 40 39 38 37 36 35 34 33 32 31 30 29 28 27 26 25 24 23 22 21 20 19 18 17 16 15 14 13 12 11 10 9 8 7 6 5 4 3 2 1 0 

CELL_DATA 1
FIELD FieldData 2
LengthArray 1 1 double
424.35302756 
TortuosityArray 1 1 double
0.015313334979 
POINT_DATA 237
FIELD FieldData 8
RadiusArray 1 237 double
63.728437295 63.691940307 63.436523871 63.252638761 63.243057791 63.160996505 63.136926919 63.116963607 63.096764355 
62.776567923 62.34012623 62.284047977 62.197136164 62.086137815 62.093697928 62.082045578 62.081983078 62.053280612 
62.074698501 62.133505298 62.177471443 62.141744729 61.973840788 61.899181436 61.703072748 61.668945696 61.61856991 
61.520053161 61.436147492 61.445282967 61.438066369 61.439430601 61.447799324 61.558857445 61.570794532 61.505756292 
61.571694943 61.582821094 61.617449173 61.671818711 61.680805334 61.666143267 61.729949366 61.734410404 61.729264006 
61.832806226 61.832040003 61.823037632 61.836183365 61.822785972 61.830985905 61.8758843 61.883978658 61.901691457 
61.905406792 61.926057706 61.99453761 62.000596157 62.02446055 62.042982448 62.074098308 62.104762044 62.118768989 
62.147217249 62.200782087 62.20554368 62.326497521 62.429648713 62.430055328 62.426749135 62.431199083 62.54103805 
62.651154764 62.721823119 62.781311862 62.782701102 62.791434849 62.895878848 62.977101133 63.007270686 63.047468465 
63.157254976 63.289476879 63.297450119 63.329020918 63.347898824 63.356928964 63.35649559 63.348821886 63.337226158 
63.305485206 63.270239524 63.223626002 63.130771925 63.121881638 63.076330547 62.940075 62.791336368 62.75164718 
62.724476418 62.57047742 62.267331365 62.230265738 62.211078251 62.209276471 61.844152737 61.836964799 61.824881398 
61.612137458 61.414267575 61.25712129 61.04876823 60.847824596 60.76663391 60.264936164 60.125327535 59.327894782 
58.943315665 58.580315851 58.430238759 58.322745174 58.153211666 58.093637678 57.763426431 57.686648568 57.673476664 
57.273202722 57.27117072 57.107346395 56.865218172 56.615428564 56.233589704 55.974287104 55.601311479 55.551714281 
55.41181359 55.121757603 54.773351944 54.748281544 54.572957276 54.535671281 54.488578115 54.421324439 54.419167792 
54.285196001 54.169048096 54.091399134 54.087017456 54.077905331 54.065171471 53.960140963 53.962744501 53.959481484 
53.951059037 53.97126035 53.977461944 53.986879693 53.989526195 53.98271422 54.004633597 54.107160875 54.108195952 
54.101055555 53.897414675 53.883122398 53.88071872 53.853822815 53.85173297 53.849681139 53.868762341 53.871860612 
53.852682574 53.836790479 53.732546449 53.717556733 53.688573965 53.657421202 53.645186007 53.588965002 53.584314842 
53.54435948 53.49691066 53.3393559 53.17203826 53.076998848 53.049908782 52.97325931 52.845574672 52.832066754 
52.60010619 52.584730336 52.359597712 52.322965596 52.09043789 52.043077391 52.02824226 51.986548439 51.902742853 
51.832913863 51.652382767 51.600704982 51.576427238 51.488570788 51.367657784 51.231049525 51.218091871 50.959394221 
50.890751636 50.881886023 50.61067568 50.534446336 50.175371075 50.159515995 49.796394351 49.751875945 49.371812609 
49.213280677 49.002585819 48.882733222 48.635150994 48.483662127 48.295784163 48.240990519 47.768044163 47.720223005 
47.580288672 47.217403693 46.991932649 46.966474669 46.733046236 46.708362794 46.424153386 45.99182095 45.629029494 
45.305759071 45.28569288 45.231814079 
EdgeArray 2 237 int
8724 8724 8721 8721 7238 8142 8312 7238 8312 
9387 9735 9734 10762 9734 10762 10764 10760 10776 
7646 5768 9384 9383 9384 9686 8320 9033 7672 
9035 7672 6894 6894 9007 10261 10528 9028 8567 
8341 7473 9339 7785 11368 4551 11368 10069 11526 
11526 10257 10257 10974 10974 10941 10485 11221 10941 
11563 11563 11564 11564 11912 11912 10482 11910 10482 
10582 11878 10117 12017 12017 12518 12518 11696 11696 
11545 11545 11406 12427 12871 12871 12742 12742 13355 
13355 13281 13281 13364 13364 13362 13764 13774 12687 
13772 13772 13780 13778 12395 13780 14418 14418 14428 
14428 14431 14431 14860 14860 14763 15027 14627 14866 
14986 14854 14680 14680 15192 15192 15191 15427 15194 
15621 15622 15541 15538 15624 15538 15618 16079 16079 
16089 16090 16269 16089 16268 16269 16268 16267 16267 
16174 16721 16174 16723 16721 16196 16728 16727 17241 
17240 17240 17237 17238 17649 16621 17649 17647 17648 
17648 17720 17720 17968 17968 17963 17970 18177 18178 
18179 18179 17125 17125 14945 18460 18145 18145 18575 
18360 18144 18706 18578 18824 18824 17139 17139 17139 
17320 17320 18843 18843 18823 18823 19176 19459 16658 
19176 19240 19240 19345 19345 18976 18976 19587 19587 
19977 19975 19930 19930 20188 20188 20158 20158 20602 
20602 20618 20275 20369 20369 17141 17141 20861 21091 
21085 21085 20610 21082 21076 20890 21567 21566 20781 
21566 21558 20781 19405 21774 22332 22332 21773 22195 
22820 21584 21414 22819 23082 23080 23081 23079 22800 
23078 23377 23078 23377 19961 22301 19961 23362 22301 
23362 23375 23375 21036 21036 23893 23607 23607 23584 
23584 23712 23712 23609 23609 23453 21559 25067 25067 
14162 22816 24296 23804 14296 14296 25071 24489 25002 
25002 26075 24206 19863 19863 26071 26071 24389 24389 
19801 19801 25980 25980 26328 26328 26154 26382 25005 
26382 25005 26423 25800 25800 24246 25751 25751 25751 
26076 26076 25607 26161 26161 26420 25606 26420 26176 
22370 26126 26176 26052 26670 27172 26675 27172 27285 
27285 26451 27213 26613 26962 24367 26611 26893 26430 
27176 26177 26964 26177 25768 20786 20786 20891 27639 
26616 28048 28048 20870 20870 27701 26163 26306 26612 
27777 27630 27925 28114 27830 28326 28122 28132 28122 
28247 28373 27835 28373 28322 28322 28576 28576 28318 
28318 17804 17804 29340 29340 29135 29135 29260 29255 
29447 29263 29755 29270 29806 29756 29748 29748 29862 
29862 29893 29899 29900 29899 29900 29900 30039 30039 
30038 29644 29820 29820 29651 30217 30251 30245 30348 
30245 30477 30477 30657 30657 30491 30491 30682 30682 
31088 31088 31089 31089 29240 29240 31097 30675 31268 
31167 31347 31353 30752 30752 30374 29084 31681 31681 
31695 31695 30753 30753 31873 31873 31868 31868 31300 
31300 32060 32060 32252 32252 32254 32286 32378 32286 
32002 32379 31917 31917 33133 33133 33240 33240 33253 
33253 33348 33151 33251 33251 33437 33437 33659 33659 
33199 33199 33265 33666 34225 34225 
EdgePCoordArray 1 237 double
0 0 0.324 0.172 0.152 0.836 0.528 0.076 0.132 
0.728 0.528 0.276 0.892 0.392 0.324 0.54 0.48 0.604 
0.896 0.772 0.384 0.432 0 0 0 0.936 0.096 
0 0 0 0.02 0.036 0.524 0 0 0 
0 0.708 0 0 0 0 0 0.96 0.924 
0 0.788 0.5 0 0 0 0 0.764 0.948 
0.936 0 0 0.048 0.52 0.012 0.932 0.904 0 
0.54 0.084 0.944 0.452 0.42 0.352 0.576 0.496 0.636 
0 0.184 0.012 0.064 0 0 0 0.864 0.936 
0 0 0.092 0 0.74 0.788 0.768 0.456 0 
0 0 0 0.332 0.576 0 0 0 0 
0.036 0 0 0 0 0.996 0 0 0.024 
0 0.564 0.192 0.924 0.276 0.984 0.08 0 0.14 
0.696 0.784 0.616 0.648 0.604 0.524 0.84 0.14 0.972 
0.996 0.012 0.084 0 0 0 0 0.076 0 
0.564 0.952 0 0.028 0 0.36 0 0 0 
0 0 0 0.304 0.484 0.076 0 0.712 0 
0 0.96 0.272 0.784 0.448 0.712 0.732 0.276 0.676 
0.664 0.76 0.504 0.636 0.22 0.04 0.04 0 0.984 
0.92 0.176 0.62 0.716 0.632 0.08 0.2 0.896 0.752 
0.788 0.544 0 0 0 0 0 0 0.368 
0.98 0.984 0.248 0 0 0.912 0.756 0 0 
0.06 0 0.88 0.276 0.668 0 0 0 0 
0 0 0 0.852 0.024 0.084 0 0.876 0 
0 0 0 0 0 0 0 0.896 0.912 
0.096 0 0 0 0 0.036 0 0 0 
0 0.032 0 
CurvatureArray 1 237 double
0 3.4980286387e-05 0.00013663663559 0.00023565992312 0.00033337290931 0.00042129193968 0.00050134170755 0.00057225719062 0.00063125239011 
0.0006767722617 0.00071100070077 0.00073642305556 0.00074685007537 0.00075117498575 0.0007443380125 0.00073213378875 0.00071421881326 0.0006925414763 
0.00067081664115 0.0006469305828 0.00062496134884 0.00060366899692 0.00058702907933 0.00057161575313 0.00055965360236 0.00055175333872 0.00054761306369 
0.0005474208425 0.00055217363059 0.00056294127656 0.00057984417289 0.00060512574804 0.00063840044705 0.00068243786001 0.00073632011948 0.00080077177412 
0.00087526567092 0.0009594204057 0.0010521450784 0.0011524194825 0.0012590801165 0.0013708267554 0.0014845761772 0.0015989816052 0.0017125885389 
0.0018221421344 0.0019258078918 0.002021485807 0.0021063573749 0.0021819812762 0.0022429807816 0.0022914401864 0.0023266338086 0.0023468058301 
0.0023559390367 0.002354826117 0.0023420340204 0.0023230284924 0.0023013021972 0.0022747295684 0.0022512271292 0.0022292577143 0.0022131124828 
0.0022054311178 0.0022067295987 0.0022176565788 0.0022419309767 0.0022771504203 0.002325449005 0.0023879936802 0.0024625846184 0.0025487668948 
0.0026487083718 0.0027599050639 0.0028829145842 0.0030221755141 0.0031718326998 0.0033345250629 0.0035131355359 0.0037085644233 0.0039191019816 
0.0041453647203 0.0043910026909 0.0046513321041 0.0049283781118 0.0052152084589 0.0055118651141 0.0058108207058 0.0061036862782 0.0063857303365 
0.0066465675482 0.006871015558 0.0070588623985 0.0071888494114 0.0072613208557 0.0072628348665 0.0071939074136 0.0070531730303 0.0068427052768 
0.0065681112722 0.006236334152 0.0058561005803 0.0054458643376 0.0050101744526 0.0045673494181 0.0041211844458 0.00368854101 0.0032724946128 
0.0028831460381 0.0025238872644 0.0021999213166 0.0019127848584 0.0016632977354 0.0014523888842 0.0012776808118 0.0011366944698 0.0010248752194 
0.00093629804299 0.00086450092387 0.00080427166554 0.00075080079716 0.00069821935709 0.00064638272983 0.0005944941493 0.00053931255204 0.00048579857508 
0.00043494823273 0.00039005375206 0.00036009645188 0.00034983961601 0.00036474437191 0.00040459392808 0.00046623147338 0.00054296292033 0.00063182639756 
0.00073015608444 0.00083670812456 0.00095060162471 0.0010709108723 0.0011982577448 0.0013323728785 0.0014729739655 0.0016193040716 0.0017717790812 
0.0019296862785 0.0020916622659 0.0022565999278 0.0024234302378 0.0025887427318 0.00275364009 0.0029139539286 0.0030678690417 0.0032142539142 
0.0033496530421 0.0034751248453 0.0035859881219 0.003681056952 0.0037606632577 0.0038211210862 0.003862066667 0.0038820419262 0.0038779698318 
0.0038495646503 0.0037938535382 0.0037130433279 0.0036011528274 0.0034642802753 0.0032992360697 0.0031112413263 0.002902850766 0.0026809983662 
0.002452342277 0.0022259111797 0.0020116440876 0.0018200172946 0.0016599684536 0.0015389014239 0.0014569164452 0.0014098033016 0.001388997946 
0.0013856803586 0.0013905799482 0.0013966271657 0.0014028089014 0.0014094039884 0.0014193665619 0.0014367062521 0.0014679595269 0.0015150992602 
0.0015840261994 0.001672835063 0.0017802025307 0.0019019402588 0.0020310237287 0.0021590957548 0.0022807117801 0.0023850544254 0.0024672228141 
0.0025191187568 0.0025372416425 0.0025183369517 0.0024620345467 0.0023703005787 0.0022485516592 0.0021048548441 0.0019515965633 0.0017994562241 
0.0016677569946 0.001569813817 0.00152176859 0.001520828032 0.0015709086651 0.0016578205564 0.0017676155377 0.0018840981327 0.0020051650258 
0.0021145610004 0.002215996499 0.0022982147807 0.0023643708612 0.0024103694193 0.0024354547277 0.0024394951409 0.0024213119098 0.0023773258862 
0.0023133470008 0.0022216634302 0.0021104633325 0.0019740294981 0.0018147940221 0.001632584509 0.0014303879925 0.0012082413065 0.00097010600759 
0.00071790018085 0.00045511078194 0 
TorsionArray 1 237 double
0 0 0.00098029109515 0.0016064226936 0.0030113083179 0.0042815398619 0.0055329776971 0.0069694401376 0.0087179889197 
0.010573952682 0.012210975166 0.014464207844 0.016894868147 0.019368632067 0.022457662383 0.025411291631 0.02881608113 0.031875528591 
0.035253483514 0.038829621356 0.041957183724 0.044443283863 0.046697969913 0.049965722465 0.051513441272 0.052648547007 0.055123201676 
0.056418600887 0.05759848175 0.058610539312 0.058498266853 0.05770170079 0.056030147909 0.053345899125 0.049641161097 0.04560105133 
0.041277885862 0.036993934833 0.033003081667 0.029325740936 0.02604513304 0.023063085344 0.020449320425 0.018201219209 0.016183437413 
0.014411375246 0.012843081341 0.011452315925 0.010162512126 0.0089808539765 0.0079030858153 0.0068215189197 0.0057846847808 0.0046849236454 
0.0034402953281 0.0022540494557 0.00095019325691 -0.00070442362152 -0.0023842825399 -0.0042412955899 -0.0063065021742 -0.0084804684559 -0.010743293285 
-0.013044227689 -0.015265238961 -0.017293502688 -0.019151971195 -0.020813697284 -0.022183699994 -0.023304106425 -0.024252941384 -0.02499231135 
-0.025672411933 -0.026300652805 -0.02667264266 -0.027089145731 -0.027550447091 -0.027754264722 -0.027805734467 -0.027703871414 -0.027479293283 
-0.026875939856 -0.025987378912 -0.024839818904 -0.023513805649 -0.021833615824 -0.019817823157 -0.017852809459 -0.015622580484 -0.013078135137 
-0.010862437155 -0.0083674051517 -0.0060034180523 -0.0038533903807 -0.0018111739334 -0.00021337624668 0.0014308242306 0.0026419144145 0.0034095438497 
0.0036262479498 0.0031638954652 0.0024253815249 0.0010676658066 -0.0010359411836 -0.003881521337 -0.0074970133981 -0.01175302668 -0.017088970178 
-0.023045291345 -0.029823197399 -0.037431926766 -0.045676800293 -0.054005843079 -0.061800857414 -0.068116882193 -0.071555669036 -0.073153254999 
-0.071683094052 -0.067410911511 -0.064255011486 -0.059639029406 -0.056478563534 -0.056446090227 -0.057750903066 -0.062556757398 -0.072160090152 
-0.085974195436 -0.10480869352 -0.12305826996 -0.13220227848 -0.12457176726 -0.10355323794 -0.080655372766 -0.061997314897 -0.047314486848 
-0.036690629064 -0.029425822343 -0.02400796311 -0.020318652248 -0.017460813483 -0.015215730615 -0.013498746235 -0.012298488389 -0.011592098598 
-0.010908966173 -0.010258151296 -0.0098719780724 -0.0094137930687 -0.0091610459797 -0.0090043309869 -0.0085425529599 -0.0081632977574 -0.0077009292363 
-0.0073342474165 -0.006808809467 -0.0058593606109 -0.0051855442547 -0.0043174345122 -0.0031953313075 -0.0020872345297 -0.00068748338137 0.00087722835652 
0.0027422752127 0.0046058860245 0.0069831106612 0.0098521282056 0.01288162038 0.016734746694 0.021487640501 0.027149730455 0.033818856831 
0.042072486472 0.052128110366 0.06270474507 0.073024535811 0.082772149936 0.087220208259 0.084636608725 0.075477349407 0.061224266243 
0.044481935016 0.02670411676 0.0097339461311 -0.0059345629946 -0.02035687709 -0.03350417336 -0.043881299163 -0.051474248217 -0.055504376501 
-0.055734924252 -0.05301314203 -0.04759514159 -0.041131919029 -0.034145354526 -0.027642178595 -0.020794220698 -0.014224626031 -0.0083979840477 
-0.0024821090105 0.0035132041955 0.010193604653 0.017221062923 0.025378401449 0.03543108306 0.047361542822 0.060990668898 0.077123457153 
0.093836115363 0.10672661319 0.11236043155 0.108556872 0.09652346606 0.08062657182 0.064956162022 0.051476862104 0.04005720455 
0.031220657483 0.024524783897 0.019100889326 0.014574710258 0.011303352486 0.0085530394477 0.0063538431887 0.0046089542066 0.003104294521 
0.002135779994 0.0010604094411 0.00026791665837 -0.00020438261838 -0.00062484934626 -0.00069039897185 -0.0010719709964 -0.0009422747905 -0.0008616326051 
-0.0011909163746 0 0 
TangentArray 3 237 double
-0.38723106256 -0.052825195905 0.92046814332 -0.38723106256 -0.052825195905 0.92046814332 -0.38738726289 -0.052816086419 0.9204029387 
-0.3877264259 -0.052795548072 0.92026129374 -0.38824565273 -0.052762501465 0.92004425523 -0.38893576248 -0.052714286893 0.91975549828 
-0.38978176787 -0.05264743069 0.9194011211 -0.39076931493 -0.052557552166 0.91898696738 -0.39188017966 -0.052439461804 0.91852056462 
-0.39309175799 -0.0522872298 0.91801139176 -0.39438148761 -0.052094560618 0.917469018 -0.3957305524 -0.051855561858 0.91690148358 
-0.39711556824 -0.051563807097 0.9163189397 -0.39851477399 -0.051213386227 0.91573094519 -0.39990870877 -0.05079897071 0.9151461573 
-0.40127723453 -0.050315550917 0.91457363093 -0.40260411331 -0.049759369073 0.91402075093 -0.40387310171 -0.049127596988 0.91349493536 
-0.40507257637 -0.048418987722 0.91300153861 -0.40619067554 -0.047633032259 0.91254601492 -0.4072164267 -0.046770599312 0.91213337449 
-0.40814068439 -0.045834262107 0.91176773477 -0.40895733624 -0.044827950878 0.91145178257 -0.40965956514 -0.04375685239 0.91118844295 
-0.41023749068 -0.042627252375 0.91098195295 -0.41068580715 -0.041447034856 0.91083440378 -0.41099941509 -0.040225146407 0.91074772489 
-0.41116888534 -0.038971302127 0.9107257465 -0.41118732086 -0.037696216831 0.91077109221 -0.41104697034 -0.036411235174 0.91088671641 
-0.41073875885 -0.035128348549 0.9110761061 -0.41025480243 -0.033859910299 0.91134214407 -0.40958617086 -0.032618509161 0.91168810539 
-0.40872379835 -0.031416665037 0.91211723469 -0.40765813153 -0.0302664759 0.91263288799 -0.40638166867 -0.02917990608 0.91323735822 
-0.40488720546 -0.028168584544 0.91393264615 -0.4031691733 -0.02724313311 0.91471986389 -0.4012237868 -0.026413064371 0.91559916063 
-0.39904927963 -0.02568698683 0.91656961063 -0.3966459869 -0.025071958973 0.91762920504 -0.39401639998 -0.024573601553 0.91877484437 
-0.39116698719 -0.024195721191 0.92000160609 -0.38810801092 -0.023940277364 0.92130290078 -0.38485160449 -0.023807519385 0.92267136324 
-0.38141347123 -0.023795482039 0.92409823017 -0.37781298358 -0.023900216212 0.92557340557 -0.3740717643 -0.024115864549 0.92708615578 
-0.37021442286 -0.024434792475 0.92862490922 -0.36626493969 -0.024847627488 0.9301787943 -0.36224890224 -0.025343670027 0.93173678215 
-0.35819309237 -0.025911209032 0.93328790725 -0.35412115888 -0.026537647041 0.9348229555 -0.35005727384 -0.027209849626 0.93633302255 
-0.34602208493 -0.027914239842 0.93781102145 -0.34203069579 -0.028636997196 0.93925232261 -0.33809783742 -0.029365144051 0.94065272053 
-0.33423409323 -0.03008612305 0.94200976435 -0.33044184484 -0.030787102418 0.94332409145 -0.3267223097 -0.031456313775 0.94459675665 
-0.32307210831 -0.032082654895 0.94583038442 -0.31948298446 -0.032655380335 0.94702916997 -0.31594516485 -0.033164067798 0.94819765735 
-0.31244419328 -0.033598816654 0.94934174332 -0.30896417518 -0.033949560084 0.95046755117 -0.30548952177 -0.034206104517 0.95158083971 
-0.30200259822 -0.034358547803 0.95268773523 -0.29848610987 -0.034396282853 0.95379397038 -0.29492447495 -0.034307958615 0.95490445493 
-0.29130106607 -0.034081711641 0.95602412409 -0.28760162525 -0.033704834766 0.95715687809 -0.28381558601 -0.033163713538 0.95830521299 
-0.27993277162 -0.032443974453 0.95947122515 -0.27594518502 -0.031529775438 0.96065609253 -0.27184834712 -0.030404413046 0.96185968199 
-0.26763592751 -0.029050645507 0.96308206831 -0.26330509152 -0.027449950257 0.96432200484 -0.25885775945 -0.025583565548 0.96557658502 
-0.25429379439 -0.023432589772 0.96684309992 -0.24961243227 -0.020977521634 0.96811857602 -0.24481519366 -0.018199953557 0.96939892853 
-0.23990570433 -0.015082905821 0.97067901954 -0.23488479043 -0.011610859026 0.97195386885 -0.22975339766 -0.0077712366709 0.9732178503 
-0.22451268594 -0.0035550695261 0.97446468142 -0.21916468919 0.0010423988082 0.97568732308 -0.21371116172 0.0060195555886 0.97687834673 
-0.20815244107 0.011368041789 0.97803033128 -0.2024932405 0.017072154202 0.97913483704 -0.19673792797 0.023107890198 0.98018376497 
-0.19089002888 0.029441976614 0.98116979514 -0.18496152865 0.036032195813 0.98208498297 -0.17896353176 0.04282826397 0.98292308657 
-0.17291218206 0.049772187273 0.98367886359 -0.1668304205 0.056799753435 0.98434821014 -0.16074448327 0.063843388916 0.98492904962 
-0.15468837403 0.070834823581 0.9854206892 -0.14869581251 0.07770659704 0.98582515697 -0.14280519917 0.084395904541 0.98614603705 
-0.13705778739 0.090847051538 0.98638834956 -0.13149711983 0.097013542777 0.98655809763 -0.12616861695 0.10285910174 0.9866617887 
-0.12111081286 0.10835912655 0.98670688186 -0.11635928161 0.1135001648 0.98670067912 -0.11194553526 0.118279217 0.98665000074 
-0.10789618395 0.1227024873 0.98656095255 -0.10423100718 0.12678345335 0.98643897586 -0.10096177023 0.13054163405 0.9862888029 
-0.098095224226 0.13400022988 0.98611422532 -0.095629823809 0.13718414683 0.98591858014 -0.093557942554 0.14011838117 0.98570469748 
-0.091866866677 0.14282760387 0.98547488775 -0.090539759596 0.14533374679 0.98523126928 -0.089555372894 0.14765622873 0.98497587448 
-0.088888998753 0.14981133315 0.98471077498 -0.088513355167 0.15181153048 0.98443823837 -0.088397083256 0.1536663464 0.98416086574 
-0.08851181125 0.15538159383 0.98388120196 -0.088826123981 0.15696030562 0.98360224794 -0.089307048182 0.15840282642 0.98332741024 
-0.089927352989 0.15970704153 0.98305988224 -0.090655452244 0.16086899359 0.98280351845 -0.091461795748 0.16188330992 0.98256222902 
-0.092322528858 0.16274377795 0.98233956115 -0.09321144053 0.16344339043 0.98213944299 -0.094104834201 0.16397487124 0.98196564185 
-0.094983840682 0.16433082567 0.98182149587 -0.095828519498 0.16450405216 0.98171040112 -0.096622934862 0.16448769029 0.98163527249 
-0.09735379215 0.16427552431 0.98159858968 -0.098007812629 0.1638615977 0.98160269227 -0.098573738541 0.16324015353 0.98164956596 
-0.099043515919 0.16240578803 0.98174066941 -0.099408999761 0.16135347852 0.98187723557 -0.099661475261 0.16007861251 0.98206029762 
-0.099795146 0.15857666061 0.98229037028 -0.099804919323 0.15684294516 0.98256769163 -0.099684354089 0.15487271411 0.98289240102 
-0.099427605038 0.15266210169 0.98326417308 -0.099027554097 0.15020764985 0.98368247187 -0.098477115938 0.14750570426 0.98414649562 
-0.097770113652 0.14455367849 0.98465488315 -0.096900346382 0.14135065293 0.98520572257 -0.09586111564 0.13789693865 0.98579667316 
-0.094643865327 0.13419432972 0.98642507096 -0.093242027096 0.13024683168 0.98708747698 -0.091651125827 0.12606067225 0.98777972142 
-0.089866596436 0.12164452546 0.98849714429 -0.087887093073 0.1170103451 0.98923426852 -0.085711681897 0.11217197502 0.98998533101 
-0.083340157633 0.1071454325 0.99074430325 -0.080778824554 0.10194920817 0.99150448333 -0.078035398418 0.096602989023 0.99225920963 
-0.075121091061 0.09112813985 0.99300175418 -0.072048098184 0.085546648346 0.99372573807 -0.06883219665 0.079880757899 0.99442505661 
-0.065497014702 0.074152878164 0.99509371002 -0.06206413796 0.068385794211 0.99572658191 -0.058558618054 0.062602009865 0.99631916403 
-0.055010129756 0.056823870719 0.99686756058 -0.051448497588 0.051073766304 0.99736879964 -0.04790782579 0.045374467574 0.99782062412 
-0.044424091546 0.039749341856 0.99822166372 -0.041035822165 0.034222000368 0.9985714376 -0.037779380644 0.028816769726 0.99887051823 
-0.034694435002 0.023558772061 0.99912025324 -0.031820673426 0.018472440375 0.9993228776 -0.029193014564 0.013582383209 0.99948150897 
-0.026846055299 0.0089124045321 0.99959984912 -0.024810862436 0.0044831479648 0.99968211072 -0.023112448324 0.00031295513964 0.9997328227 
-0.021768030767 -0.0035836886199 0.99975662539 -0.020788681644 -0.0071974354358 0.99975798453 -0.020179218333 -0.010525041624 0.99974097778 
-0.019931888975 -0.013569306342 0.9997092546 -0.020029876249 -0.016339611992 0.99966585474 -0.020453935762 -0.018852951728 0.99961302649 
-0.02117419337 -0.021132516575 0.99955243498 -0.022153303193 -0.023206398593 0.99948521461 -0.023350393907 -0.025107533541 0.99941201257 
-0.024721892642 -0.026873186902 0.99933310755 -0.026223379416 -0.028543257454 0.99924852606 -0.027808014765 -0.030159122032 0.99915821654 
-0.029430734056 -0.031762184699 0.99906205789 -0.031050060545 -0.033393274701 0.99895985052 -0.032627256267 -0.035091710976 0.99885135729 
-0.034125802836 -0.036895005983 0.99873629558 -0.035515587512 -0.038836860538 0.99861421045 -0.036769836623 -0.040946388473 0.99848453788 
-0.037867595708 -0.043248629825 0.99834643347 -0.038794019538 -0.045763004218 0.99819876352 -0.039538950783 -0.04850252909 0.99804016755 
-0.04010083715 -0.051473408593 0.99786893481 -0.040483546357 -0.054674631641 0.99768319978 -0.040697946963 -0.058095605954 0.99748111645 
-0.040759426346 -0.061718506651 0.99726099648 -0.040693293326 -0.065516570906 0.99702138132 -0.040531991653 -0.069454258414 0.99676138751 
-0.040310219032 -0.073489147602 0.99648102412 -0.040068304097 -0.077572027258 0.99618126443 -0.039849357957 -0.081649725591 0.99586412275 
-0.039700021316 -0.085666118856 0.99553263351 -0.039664241993 -0.08956447437 0.99519091276 -0.039784440598 -0.093289827907 0.99484381 
-0.040101345936 -0.096791664081 0.99449648356 -0.040650048115 -0.10002619421 0.99415407964 -0.041456266692 -0.10295685232 0.99382154561 
-0.042541961019 -0.10555479399 0.99350307852 -0.043922716544 -0.10780152328 0.99320170487 -0.045604440296 -0.1096888996 0.99291922145 
-0.047585816082 -0.11121474944 0.9926564711 -0.049858945342 -0.11238519896 0.99241304537 -0.052414566051 -0.11321517858 0.99218699679 
-0.05523640332 -0.11372424561 0.99197567294 -0.058301153707 -0.11393524675 0.99177605084 -0.061585781535 -0.11387437602 0.99158449867 
-0.065063533546 -0.11357173322 0.99139709401 -0.068705481772 -0.11305784503 0.99121010913 -0.072481533171 -0.11236173362 0.99102031673 
-0.076358588943 -0.11151406953 0.99082489785 -0.080305404491 -0.11054603785 0.99062132802 -0.084287655267 -0.10948568658 0.99040823684 
-0.088271497073 -0.10836052884 0.99018490121 -0.09222268818 -0.10719630655 0.98995147742 -0.096103569987 -0.10601767963 0.98970922772 
-0.099879006468 -0.1048473779 0.98946006055 -0.10351226774 -0.1037048551 0.98920701244 -0.10696807158 -0.10260964514 0.98895353399 
-0.11021333622 -0.10157791656 0.98870367016 -0.11321241368 -0.10062425981 0.98846229454 -0.1159319103 -0.09976138829 0.98823451548 
-0.11834054612 -0.098999301713 0.98802563398 -0.12041000856 -0.098347849348 0.98784064017 -0.12211453046 -0.097813596898 0.98768443428 
-0.12343294372 -0.097402165165 0.98756120146 -0.12434807008 -0.097118301486 0.98747435055 -0.12434807008 -0.097118301486 0.98747435055 

NormalArray 3 237 double
0.92164394383 -0.049239411891 0.38489988454 0.92164394383 -0.049239411891 0.38489988454 0.92142203012 -0.054894456107 0.38466614239 
0.92123602121 -0.056314343406 0.3849063366 0.92088685963 -0.060248373194 0.38514610902 0.92031650353 -0.06752033703 0.38530317597 
0.91952067946 -0.077015096899 0.3854223591 0.91840590998 -0.089383886234 0.38541030784 0.9168613028 -0.10487039059 0.38518508877 
0.91466727273 -0.12445359327 0.38457129809 0.9116619031 -0.1476444071 0.38350189503 0.90767264007 -0.17400512216 0.38190652775 
0.90191577396 -0.20669625328 0.37924213316 0.89439758804 -0.2427702102 0.37565353658 0.88384564191 -0.2857323245 0.37036997721 
0.86984997002 -0.33373435312 0.36329383589 0.85111631261 -0.38786621491 0.35378075377 0.82643619288 -0.44779132326 0.34130067376 
0.7954627709 -0.51095597646 0.32582659534 0.75509491722 -0.57991022314 0.30583622918 0.70608193523 -0.64959283497 0.28191745156 
0.64544172831 -0.72080042089 0.2526889958 0.57701838911 -0.78648147126 0.22021960399 0.49495869888 -0.84970140315 0.18172344892 
0.40229073996 -0.90492644385 0.13881747643 0.30177098034 -0.94884453742 0.092888746482 0.19350269421 -0.98011104679 0.044034569277 
0.07428458138 -0.99719525301 -0.0091339121494 -0.04450534795 -0.99712277917 -0.061363158927 -0.16973632066 -0.97867224534 -0.115716108 
-0.28970729326 -0.94244295814 -0.16694596397 -0.40576721037 -0.88816843326 -0.21566132049 -0.51058410393 -0.81997943552 -0.25872301433 
-0.60399115837 -0.73993075471 -0.29613706091 -0.68223189955 -0.6542153932 -0.32643813278 -0.74586230048 -0.56672980611 -0.35000965072 
-0.7958867732 -0.48121194924 -0.3674225145 -0.83393861407 -0.40065984286 -0.37949713869 -0.86226755327 -0.32637062647 -0.38726848666 
-0.88289747849 -0.25904257681 -0.39164905958 -0.89760884447 -0.19878703157 -0.39342353565 -0.90790887824 -0.14513796595 -0.39323840054 
-0.91491636206 -0.097941937121 -0.39158067801 -0.9195824435 -0.056277833852 -0.38884564422 -0.9225759482 -0.019597495241 -0.38531747688 
-0.92440102484 0.012577130314 -0.38121458663 -0.92543365589 0.04085163511 -0.37670106512 -0.92594814183 0.065622213007 -0.37190558452 
-0.92613797888 0.087380954338 -0.36692371535 -0.92616940197 0.10618378718 -0.36184975085 -0.92612481723 0.12261842392 -0.356731755 
-0.92610989668 0.13662439118 -0.35164504121 -0.92618354612 0.14841867156 -0.34663516387 -0.92639600401 0.15811097238 -0.34174751522 
-0.92683142853 0.16548086247 -0.33704537861 -0.92755773582 0.17037878365 -0.33257738468 -0.92852714382 0.17331285112 -0.32832910141 
-0.92988074113 0.1734728074 -0.32439018539 -0.93166328973 0.1705793658 -0.32078995392 -0.93380166227 0.16495851625 -0.31749510777 
-0.93636560004 0.15580460946 -0.31455426675 -0.93924007597 0.1433106123 -0.31191368694 -0.94235745669 0.1270333156 -0.30955607013 
-0.94552416294 0.10720667061 -0.30739353779 -0.94856605002 0.083522762651 -0.30536273 -0.95120114019 0.05662071129 -0.30333230285 
-0.95318915981 0.026602710939 -0.30120212713 -0.95427849821 -0.0060821975939 -0.29885708078 -0.95424291698 -0.041087419451 -0.29619635272 
-0.95291052449 -0.077720151463 -0.29312302941 -0.95012965574 -0.1157780186 -0.28956706943 -0.94581212489 -0.15474451511 -0.28547076813 
-0.93990418034 -0.19425662479 -0.28079262011 -0.93229854174 -0.2343584372 -0.27549147353 -0.92300187709 -0.2746127875 -0.26954656708 
-0.91213384754 -0.31442456948 -0.26296203962 -0.89946225561 -0.35439201409 -0.25568330231 -0.88519063877 -0.39377914687 -0.24774082529 
-0.86941813656 -0.43234287261 -0.23914795488 -0.8523248637 -0.46975717664 -0.22993590782 -0.83407986802 -0.50581633358 -0.22013770793 
-0.81490483656 -0.5402903214 -0.20980103898 -0.79541437949 -0.57244302477 -0.19906016251 -0.77574856768 -0.6024039368 -0.18794588761 
-0.75657525789 -0.62960560037 -0.17660879684 -0.73788227489 -0.65443777413 -0.16504832078 -0.72065337312 -0.6760911703 -0.15349086372 
-0.70486256715 -0.69499843392 -0.14193638816 -0.69072667823 -0.71125264502 -0.13044665935 -0.67875181931 -0.72463690028 -0.11915255158 
-0.66920411373 -0.73516834968 -0.10813580255 -0.66134238478 -0.74375095839 -0.09726644836 -0.65646891441 -0.74933391738 -0.086874879395 
-0.65310311598 -0.75337633677 -0.07668386459 -0.65227931803 -0.7550131454 -0.066983890183 -0.65274866379 -0.75538415152 -0.057567052691 
-0.65486938734 -0.75417862292 -0.048586935053 -0.65833573196 -0.75165817168 -0.040050680013 -0.66259290319 -0.74829965448 -0.031910370394 
-0.66733699072 -0.74436360544 -0.024169479064 -0.67179909203 -0.74054464385 -0.016721555739 -0.6754620253 -0.73733347987 -0.0095074626576 
-0.67834202021 -0.73474178079 -0.002572776073 -0.67912674656 -0.73400816202 0.0043451343391 -0.6777008706 -0.73525164185 0.011249583726 
-0.67241518131 -0.73994319485 0.018490330813 -0.66323860122 -0.74795446172 0.026051507317 -0.64810524791 -0.76077569828 0.034350029703 
-0.62609332895 -0.77853319282 0.043511045894 -0.59529408799 -0.80170401692 0.053810947366 -0.55394923878 -0.8299774666 0.065403713844 
-0.49914704212 -0.86295067834 0.078538889055 -0.42931475261 -0.89834727674 0.093064566678 -0.34238362783 -0.93324290291 0.10877102358 
-0.23922022867 -0.96289874663 0.12489870269 -0.12172934836 -0.98255798385 0.14057657745 0.001933619326 -0.98800035228 0.15443951896 
0.13265934616 -0.97711978682 0.16624806788 0.25371811898 -0.95136587143 0.17472863181 0.36944571745 -0.91157366708 0.18039764782 
0.47534433073 -0.86049790809 0.18327879696 0.56861275851 -0.80183230086 0.18369673963 0.65488263194 -0.73353416205 0.18181411247 
0.73621730047 -0.65308329321 0.17738742519 0.81105886539 -0.55968250009 0.17011471413 0.88289177781 -0.44204457756 0.15842569274 
0.9462724396 -0.29134529356 0.14030819642 0.98887370625 -0.097000124135 0.11278195341 0.98679855386 0.14461835351 0.072898188823 
0.91267976551 0.40807065488 0.022225801498 0.76458930744 0.64376579675 -0.031125389793 0.58003832455 0.81097836078 -0.076613578396 
0.40515492556 0.90769318285 -0.10928207588 0.25605445577 0.95768265273 -0.13145361286 0.1372605822 0.97974991795 -0.14577253118 
0.044591862622 0.98693945272 -0.1547969071 -0.028543727952 0.98664052575 -0.16039242048 -0.088271537646 0.98254138413 -0.16376985104 
-0.13655743069 0.97671742756 -0.16545432853 -0.17851932666 0.96982164913 -0.16606269567 -0.2135057639 0.96279229161 -0.16566922467 
-0.2445562725 0.9555679534 -0.16456644865 -0.27141488979 0.94859493912 -0.16279311739 -0.29637443569 0.94148602378 -0.16051872442 
-0.31951460068 0.93435539476 -0.15776696816 -0.3409193486 0.92729968081 -0.15456163729 -0.36070311095 0.92038797165 -0.15092795429 
-0.37978981813 0.913331031 -0.1469221626 -0.39719774238 0.90659846026 -0.14252433234 -0.41451666262 0.89954628884 -0.1378129553 
-0.43075240266 0.89265007971 -0.13277124236 -0.44577224585 0.88603094451 -0.12742162378 -0.46003876223 0.87950434785 -0.12180492334 
-0.47294114158 0.87343350465 -0.11593355665 -0.48539727942 0.86736380624 -0.10986131604 -0.49614745492 0.86203660816 -0.10358855712 
-0.50511667889 0.8575656105 -0.097151244956 -0.51334456101 0.85338604301 -0.090606971446 -0.51935283562 0.85042539719 -0.083959966305 
-0.52389076329 0.84827402071 -0.077263535498 -0.52638603493 0.84731425081 -0.07054291322 -0.52663121886 0.84769391128 -0.063832531659 
-0.52443855134 0.84952697542 -0.057167507429 -0.51918522174 0.85316407176 -0.050574422326 -0.51157532252 0.85810574479 -0.044104649884 
-0.49933937766 0.86558370701 -0.037749596921 -0.4834063528 0.87482685136 -0.031563875142 -0.46213348305 0.88644240188 -0.025544314394 
-0.43462756166 0.90039478505 -0.019700601331 -0.39868167677 0.91698240058 -0.014007056714 -0.35341510381 0.93542831741 -0.0084632966241 
-0.29579738353 0.95524594189 -0.0030163566389 -0.22327528722 0.97475253626 0.0023746942933 -0.13187977661 0.9912352375 0.0077735748569 
-0.02439501738 0.99961680308 0.013081671283 0.10064590002 0.99475443858 0.018275933292 0.23619691026 0.97142930372 0.023154426349 
0.3680686084 0.9293934593 0.027446262558 0.48523483467 0.8738326056 0.031044043181 0.57865079502 0.8148667799 0.03399100529 
0.64619308501 0.76230134981 0.036484914237 0.68922024596 0.72351472605 0.038754273936 0.70974894964 0.70326167911 0.040980961167 
0.71177901309 0.70107027555 0.043256274301 0.69591345661 0.71667720486 0.045587771833 0.66340103374 0.74672905201 0.047903980164 
0.61304203276 0.78846182352 0.050074134141 0.5493226344 0.83399258907 0.0519711911 0.47160880824 0.88018571964 0.053462425514 
0.38887115262 0.91967336822 0.054590497672 0.30310843944 0.95134466514 0.055394964076 0.22280672773 0.97324570993 0.056124417053 
0.15029317681 0.98699968335 0.056952489658 0.088506799778 0.99438054868 0.058085030753 0.037764194211 0.99750548604 0.05963783158 
-0.0028890365862 0.99809352786 0.061651951475 -0.031294322162 0.99744194151 0.064266933342 -0.050108570861 0.99646720401 0.06739616056 
-0.05931168761 0.99570901894 0.071032903015 -0.058668025695 0.99544452433 0.075154918241 -0.048192385826 0.99565293474 0.079703999229 
-0.025602692814 0.99607818693 0.08469207544 0.0079404363814 0.99591497953 0.089946111747 0.05750257188 0.99376827964 0.095488536479 
0.12383852628 0.98714182867 0.10106942913 0.21160167365 0.97154668993 0.10640376404 0.3189185891 0.94128129638 0.1108172126 
0.44991014186 0.88584725509 0.11338211896 0.59060234793 0.79903370278 0.11284506388 0.72764137065 0.67736261991 0.10824932737 
0.84104473465 0.53166427246 0.0998842115 0.92085841925 0.37954580651 0.08924546184 0.96791841495 0.23872912892 0.078373114046 
0.99050511229 0.11902195093 0.068799692689 0.99790270649 0.021340226022 0.061112872146 0.99690309149 -0.055693144918 0.05552026474 
0.99193611267 -0.11564711007 0.051850692443 0.98550084615 -0.16219454149 0.049809767505 0.97873593939 -0.19918589028 0.048999408683 
0.97263186227 -0.2270385343 0.049404093266 0.96729021089 -0.2485588839 0.050676712118 0.96273605505 -0.26527675083 0.052607354809 
0.95913414064 -0.27752863358 0.055132184826 0.95620646634 -0.28688603553 0.058013759949 0.95404695294 -0.2933372165 0.06121837139 
0.95246756202 -0.29771234414 0.064598014296 0.95120015717 -0.30099329427 0.067980128048 0.95069551477 -0.30176635339 0.071519970356 
0.95018296926 -0.30257615437 0.074833119299 0.95021087828 -0.30165552857 0.078123164816 0.95009423764 -0.30125138799 0.081046534995 
0.95028467263 -0.29990265633 0.083770147981 0.95057408428 -0.2983015249 0.086169081059 0.95065549787 -0.29748415247 0.088075555065 
0.95107282654 -0.29565556126 0.089712138071 0.95145004147 -0.29407822156 0.090889043345 0.95145004147 -0.29407822156 0.090889043345 

BinormalArray 3 237 double
0.024990898236 0.99738908105 0.067753051674 0.024990898236 0.99738908105 0.067753051674 0.0302084585 0.99709430833 0.06993131867 
0.031502569522 0.99701621092 0.070471719739 0.035109897502 0.99678796741 0.071979463257 0.041791219071 0.99632434882 0.074774901965 
0.050516269493 0.99563895208 0.078429481861 0.061886404184 0.994609584 0.083197646512 0.076126711631 0.99310236332 0.089176340775 
0.094141648531 0.99084678368 0.096747099648 0.11548080647 0.98766759884 0.10572084718 0.13974157708 0.98337847148 0.11592701785 
0.16984452345 0.97704546091 0.12858851106 0.20307370439 0.9687310329 0.14255264456 0.24267242516 0.95696212219 0.15916529382 
0.2869453096 0.94132339123 0.17768697874 0.33691386192 0.92037155786 0.19850754426 0.39228782394 0.89278743833 0.22145169486 
0.45072739876 0.85824215216 0.24548975593 0.51462685617 0.81328668213 0.27152158584 0.57932985644 0.7588423155 0.29754874834 
0.64562075331 0.69162560223 0.32377132244 0.70696794535 0.61598486197 0.3475039195 0.76628645238 0.52544539521 0.36974614204 
0.81845425149 0.42342773714 0.38838330248 0.86039028541 0.31301148078 0.40218449705 0.89086260901 0.19433032073 0.41060874116 
0.90852735165 0.063897300353 0.41291062751 0.91046376159 -0.06576593728 0.40832656089 0.89567291442 -0.2021753154 0.39609995231 
0.86450179654 -0.33251657068 0.37692091214 0.81672759723 -0.45826885192 0.35063612377 0.75600465704 -0.5714628231 0.3191977449 
0.68420723269 -0.67194900952 0.28345192067 0.60693861554 -0.75570242804 0.24604746946 0.52777207969 -0.8233868228 0.20854441241 
0.45014508229 -0.87615157978 0.1724175575 0.37683020799 -0.91582176324 0.13881459695 0.30905361911 -0.94487277673 0.10817253026 
0.247490838 -0.96552427318 0.080691777769 0.1922766845 -0.97972195696 0.056343266196 0.14301239585 -0.98910621722 0.034876147824 
0.099581316364 -0.99489795659 0.016174591254 0.061158004152 -0.99812808223 -0.00017318060123 0.027255500951 -0.99952445703 -0.014422117283 
-0.0025513190144 -0.99963772979 -0.026793654914 -0.028807950129 -0.99887933384 -0.037552342611 -0.051868620489 -0.99755308141 -0.046877456965 
-0.072178425951 -0.99587524808 -0.054979678897 -0.089778799314 -0.99403601481 -0.061904510697 -0.10520720385 -0.99213024372 -0.067889791232 
-0.11839834396 -0.99028399209 -0.07293454029 -0.12954629957 -0.98856848585 -0.077136924015 -0.13874562617 -0.98704637404 -0.080554991919 
-0.14578141113 -0.98581787333 -0.083131827839 -0.15050465064 -0.98496243201 -0.0848372422 -0.15338577355 -0.98442894307 -0.085863033495 
-0.15365343539 -0.98437899728 -0.08595703288 -0.1510354321 -0.9848628505 -0.085049773447 -0.1458320537 -0.98579875646 -0.083269585527 
-0.13727299767 -0.98726674558 -0.080377218064 -0.12553367014 -0.98913886514 -0.07645654403 -0.11018655376 -0.99134387643 -0.071387968422 
-0.091447708459 -0.99366888313 -0.065264594707 -0.069018745334 -0.99592739469 -0.05800894158 -0.04350336754 -0.99780961985 -0.049833919632 
-0.014995208753 -0.99905544689 -0.040784283136 0.016080736075 -0.99938976511 -0.031008181645 0.049396452086 -0.99856636632 -0.020620440896 
0.08429247429 -0.99639250047 -0.0098368587394 0.12057753707 -0.99270309485 0.0012739832655 0.15775974629 -0.98739774314 0.012552262866 
0.19549367037 -0.98041407183 0.023884568166 0.23382404483 -0.97163881982 0.035274918652 0.27233437362 -0.96107408071 0.046589702068 
0.3104558817 -0.94883784184 0.057653234225 0.34876651146 -0.93469396092 0.068623027529 0.38656201754 -0.91884898904 0.079286454949 
0.4236115791 -0.90140476715 0.089569391019 0.45960413441 -0.88254639458 0.099377568172 0.49434430787 -0.86244918597 0.1086513088 
0.52761288876 -0.8413434938 0.1173275972 0.55869947211 -0.81986228804 0.12522271568 0.58773083636 -0.79815355966 0.13237582553 
0.61415627734 -0.77690678299 0.13866476678 0.63835459379 -0.75611514546 0.14419881897 0.65953487789 -0.7367933865 0.14882624248 
0.67811600977 -0.71892137573 0.15267852767 0.69418523719 -0.70272912029 0.15581604527 0.70752396107 -0.68874333984 0.1582480848 
0.71814124728 -0.67724490964 0.16003899937 0.7269219236 -0.66748497568 0.16139493251 0.73281690668 -0.66080588683 0.16221886828 
0.73726365514 -0.65570330529 0.1627743169 0.73939116986 -0.65324492978 0.16300846496 0.74032451872 -0.6521647072 0.16309752191 
0.7397415714 -0.652837677 0.16305022243 0.73789133303 -0.65495929471 0.16292545201 0.73523963422 -0.65797033246 0.16278120861 
0.73203586233 -0.6615660482 0.16264642676 0.72896809768 -0.66496767064 0.16255309772 0.72652084105 -0.6676521135 0.16250576257 
0.72469598773 -0.66963633059 0.16248972313 0.72473952541 -0.66958922533 0.16248966009 0.72676662493 -0.66739422381 0.16246606694 
0.73226787273 -0.66138352565 0.16234406231 0.74111433328 -0.6515290317 0.16204772713 0.75482866174 -0.63575090931 0.16141397935 
0.77355314648 -0.61313131225 0.16026703812 0.79779689496 -0.58176557058 0.15833172546 0.82727695014 -0.53991132993 0.15526945473 
0.8616337442 -0.48468175365 0.15056855092 0.89860524989 -0.41454827514 0.14373006802 0.93528246353 -0.32749858365 0.13413199144 
0.96688801218 -0.22446061613 0.12142900686 0.98860879609 -0.10739212073 0.10544942248 0.99608343867 0.015554995486 0.08703921718 
0.98720168008 0.14523595456 0.065873821497 0.96319106921 0.26507817928 0.044682469352 0.92495087059 0.37939688199 0.022888707554 
0.87519188663 0.48377371886 0.0014664623608 0.81759471613 0.57548773071 -0.018781692343 0.75017563164 0.6600919838 -0.038924216363 
0.67041825538 0.73959223554 -0.059520483685 0.57749038453 0.81242953985 -0.080393398723 0.4600504199 0.88187801484 -0.10317353391 
0.3091060337 0.94239763352 -0.12782863636 0.11377911912 0.98159533044 -0.15337835346 -0.12997162215 0.97571990426 -0.17628966465 
-0.39691042413 0.89804893672 -0.18965817272 -0.63702249538 0.74747239129 -0.18838090309 -0.80860296816 0.56184228269 -0.17462671405 
-0.9088673546 0.38693338681 -0.15570062917 -0.96153729332 0.23834636902 -0.13651755172 -0.98550856055 0.1202702627 -0.11961580576 
-0.99400829706 0.028354177301 -0.10556299544 -0.99459752346 -0.04405409747 -0.093994695715 -0.99109594147 -0.1030867154 -0.084273150629 
-0.98562985927 -0.1507227568 -0.07626553025 -0.97894044433 -0.1920511151 -0.069224097314 -0.97196581546 -0.22643557678 -0.063319690057 
-0.964693337 -0.25689320831 -0.058074478618 -0.95757207586 -0.28317421207 -0.053554506291 -0.95024883077 -0.30755243672 -0.049382773223 
-0.94284301912 -0.33010888834 -0.045553958473 -0.93545706589 -0.35092886004 -0.042059636949 -0.92816665362 -0.37012793538 -0.038884117152 
-0.92069739268 -0.38862454535 -0.035878598975 -0.91351508599 -0.4054476674 -0.033202058349 -0.90599638189 -0.42217759564 -0.030604472636 
-0.89861381345 -0.43783066532 -0.028240445869 -0.89149418749 -0.45227814929 -0.026126410726 -0.88446300874 -0.46598279434 -0.024191352697 
-0.87788581164 -0.47834043848 -0.022515031347 -0.8713200059 -0.49026706864 -0.020967802302 -0.86550553533 -0.50051168888 -0.019703238604 
-0.86056218937 -0.5090015465 -0.018712131851 -0.85593539737 -0.51677426865 -0.017859193598 -0.85255118344 -0.52235776262 -0.017287204679 
-0.85000726689 -0.52649998433 -0.016894162944 -0.84868768951 -0.52863033471 -0.016708527855 -0.84874283475 -0.5285415693 -0.016715561061 
-0.85028860157 -0.52604553782 -0.016893376867 -0.85367603154 -0.52051889625 -0.017242732276 -0.85840748353 -0.51266375387 -0.017676755299 
-0.8657115467 -0.5002097864 -0.018267115082 -0.8748175483 -0.48408341129 -0.018907884513 -0.88632974211 -0.46263958653 -0.019601051888 
-0.90021007101 -0.4349825285 -0.02029847154 -0.91675369741 -0.39890246729 -0.020963775249 -0.93518104083 -0.35351628682 -0.021509435574 
-0.9550026496 -0.2957910541 -0.02185386877 -0.97453372278 -0.22317188439 -0.021870829622 -0.99106030274 -0.13168875216 -0.021390392415 
-0.9995036783 -0.024127182222 -0.0202552746 -0.99472066776 0.10097833435 -0.018280293348 -0.97148991559 0.23657910746 -0.015416543628 
-0.9295575039 0.36848502623 -0.011900940856 -0.87410318978 0.48567277097 -0.0080977256665 -0.81524107878 0.57910425899 -0.0044989660472 
-0.76277344272 0.64666411985 -0.0014802645822 -0.7240771968 0.68971858293 0.00069958974891 -0.70390563487 0.71029109389 0.0018490940283 
-0.70178662599 0.71238446948 0.0019746436438 -0.71745407842 0.69660510567 0.00098595862301 -0.74755235976 0.66420199842 -0.001083842805 
-0.78931292631 0.61397614887 -0.0042887032664 -0.83485524876 0.55040717622 -0.0082857702387 -0.88104092476 0.47285990761 -0.01305360764 
-0.92051359135 0.39029533919 -0.018007674762 -0.9521661084 0.30471146278 -0.023035330734 -0.97406048757 0.22458916443 -0.027674424432 
-0.98782786145 0.15225673476 -0.031843411471 -0.99525254527 0.09065323524 -0.035416974364 -0.99845758185 0.04009620791 -0.03840249162 
-0.99916481255 -0.00036822532962 -0.040860026659 -0.99868149141 -0.028585875139 -0.042639494178 -0.99792098323 -0.047214588001 -0.043869054025 
-0.99742529041 -0.056239619333 -0.044496014011 -0.99747310428 -0.0554326579 -0.044436771601 -0.99804284608 -0.044816914838 -0.043611025275 
-0.99888358202 -0.022126039002 -0.041737608579 -0.99918151373 0.011469894473 -0.038791031742 -0.99755233071 0.061005035701 -0.034172110054 
-0.99149175562 0.12720999906 -0.027599178923 -0.97651026891 0.21468998525 -0.018327709587 -0.94687502421 0.32154223306 -0.0061871543739 
-0.89206000124 0.45181060868 0.009804492941 -0.80576650563 0.59154372061 0.028572101921 -0.6844401148 0.72742575322 0.048923438093 
-0.53886857806 0.83962157005 0.068236901144 -0.38669607868 0.91832159281 0.084567103037 -0.24573696357 0.96446395803 0.097070172504 
-0.12589107302 0.98635722289 0.10607010218 -0.028127635256 0.99325895632 0.1124521313 0.048902123679 0.99193291109 0.11695162335 
0.10876343585 0.98677616882 0.12018031318 0.1551374842 0.98026060534 0.12256225606 0.19189160556 0.97349875292 0.12440976562 
0.21944618107 0.96748029243 0.12579847924 0.24062562192 0.96228792716 0.12689072198 0.2569725267 0.95793586941 0.12776537331 
0.26883050992 0.95458674479 0.12843015068 0.27778439393 0.95194818897 0.12895920289 0.28382832032 0.95011237705 0.12933659792 
0.28780154165 0.94888059707 0.12959893956 0.29069480806 0.94797064292 0.12980057293 0.29109426285 0.94784404238 0.1298298943 
0.29155676198 0.94769699676 0.12986553381 0.29031403029 0.9480921371 0.12976541678 0.2896217046 0.94831179822 0.12970736904 
0.288018326 0.9488190212 0.12956816315 0.28619982552 0.94939133173 0.129405406 0.28520547999 0.94970294266 0.12931417126 
0.28323980481 0.95031605654 0.12913018879 0.28156771133 0.9508343889 0.12897127128 0.28156771133 0.9508343889 0.12897127128 

