# vtk DataFile Version 4.1
vtk output
ASCII
DATASET POLYDATA
POINTS 320 float
-58.2885 5.10111 252.494 -57.8711 5.26507 250.058 -57.4536 5.42891 247.622 
-57.0358 5.59227 245.188 -56.6171 5.7548 242.758 -56.1975 5.91615 240.333 
-55.7766 6.07601 237.914 -55.3543 6.23406 235.502 -54.9303 6.39003 233.1 
-54.5047 6.54368 230.709 -54.0775 6.6948 228.329 -53.6486 6.84324 225.963 
-53.2183 6.98886 223.611 -52.7869 7.13158 221.275 -52.3545 7.27137 218.955 
-51.9216 7.40824 216.654 -51.4886 7.54222 214.371 -51.0559 7.6734 212.107 
-50.624 7.8019 209.864 -50.1934 7.92783 207.64 -49.7647 8.05138 205.436 
-49.3382 8.17269 203.253 -48.9146 8.29196 201.09 -48.4941 8.40935 198.947 
-48.0772 8.52503 196.822 -47.6642 8.63915 194.717 -47.2555 8.75183 192.629 
-46.8512 8.86315 190.558 -46.4515 8.97319 188.503 -46.0566 9.08194 186.464 
-45.6666 9.18938 184.439 -45.2814 9.29542 182.428 -44.901 9.39995 180.43 
-44.5255 9.50277 178.444 -44.1546 9.60367 176.47 -43.7884 9.70239 174.507 
-43.4267 9.7986 172.556 -43.0693 9.89198 170.614 -42.7162 9.98214 168.683 
-42.3671 10.0687 166.761 -42.022 10.1512 164.848 -41.6806 10.2294 162.944 
-41.3429 10.3026 161.048 -41.0088 10.3706 159.158 -40.6782 10.4329 157.275 
-40.3509 10.4891 155.397 -40.027 10.5389 153.522 -39.7063 10.5818 151.649 
-39.3889 10.6175 149.778 -39.0749 10.6458 147.905 -38.7643 10.6662 146.029 
-38.4573 10.6786 144.149 -38.1539 10.6825 142.263 -37.8545 10.6779 140.367 
-37.5593 10.6643 138.462 -37.2687 10.6416 136.544 -36.9829 10.6095 134.613 
-36.7025 10.5678 132.666 -36.428 10.5162 130.702 -36.1598 10.4546 128.719 
-35.8986 10.3826 126.717 -35.645 10.3 124.694 -35.3996 10.2065 122.65 
-35.163 10.102 120.583 -34.9361 9.98614 118.493 -34.7194 9.85867 116.379 
-34.5137 9.71934 114.241 -34.3197 9.56791 112.079 -34.138 9.40416 109.892 
-33.9694 9.22786 107.681 -33.8143 9.03884 105.445 -33.6735 8.83694 103.185 
-33.5474 8.62203 100.901 -33.4366 8.39406 98.5945 -33.3414 8.15303 96.2649 
-33.2623 7.89898 93.9135 -33.1996 7.63206 91.5414 -33.1535 7.35248 89.1497 
-33.1242 7.06055 86.74 -33.1119 6.75668 84.3137 -33.1164 6.44138 81.8726 
-33.1378 6.11525 79.4188 -33.1759 5.77902 76.9543 -33.2305 5.43349 74.4815 
-33.3012 5.07957 72.0026 -33.3876 4.71826 69.5203 -33.4893 4.35064 67.037 
-33.6055 3.97785 64.5554 -33.7357 3.60108 62.0781 -33.8789 3.22158 59.6076 
-34.0345 2.8406 57.1465 -34.2012 2.45939 54.6972 -34.3783 2.07921 52.262 
-34.5646 1.70126 49.8432 -34.7589 1.3267 47.4429 -34.96 0.956648 45.0629 
-35.1669 0.592112 42.705 -35.3782 0.234027 40.371 -35.5927 -0.116776 38.0622 
-35.8093 -0.459573 35.78 -36.0267 -0.793754 33.5257 -36.2439 -1.11883 31.3003 
-36.4597 -1.43441 29.1048 -36.6732 -1.74024 26.9401 -36.8833 -2.03617 24.8068 
-37.0893 -2.32214 22.7057 -37.2904 -2.5982 20.6373 -37.4858 -2.86448 18.602 
-37.6751 -3.12119 16.6001 -37.8576 -3.36862 14.6318 -38.033 -3.60709 12.6972 
-38.201 -3.83698 10.7961 -38.3612 -4.05872 8.92833 -38.5136 -4.27272 7.09346 
-38.658 -4.47947 5.29093 -38.7943 -4.6794 3.52004 -38.9226 -4.87301 1.77988 
-39.0429 -5.06073 0.0694392 -39.1553 -5.24304 -1.61247 -39.2599 -5.42036 -3.26714 
-39.3568 -5.59313 -4.896 -39.4461 -5.76176 -6.50053 -39.5281 -5.92663 -8.08232 
-39.6029 -6.08811 -9.64296 -39.6706 -6.24656 -11.1841 -39.7315 -6.4023 -12.7074 
-39.7857 -6.55565 -14.2143 -39.8334 -6.70689 -15.7066 -39.8746 -6.8563 -17.1856 
-39.9097 -7.00411 -18.6528 -39.9387 -7.15055 -20.1096 -39.9618 -7.29582 -21.5572 
-39.979 -7.4401 -22.9967 -39.9906 -7.58354 -24.4294 -39.9966 -7.72626 -25.8562 
-39.9971 -7.86838 -27.2781 -39.9924 -8.00998 -28.696 -39.9823 -8.15113 -30.1108 
-39.9671 -8.29188 -31.5233 -39.9469 -8.43226 -32.9343 -39.9218 -8.57231 -34.3447 
-39.8917 -8.71204 -35.7551 -39.8569 -8.85146 -37.1665 -39.8174 -8.99061 -38.5794 
-39.7732 -9.1295 -39.9949 -39.7244 -9.26817 -41.4135 -39.6711 -9.40667 -42.8361 
-39.6132 -9.54505 -44.2635 -39.5509 -9.68341 -45.6963 -39.4841 -9.82183 -47.1354 
-39.4127 -9.96042 -48.5815 -39.3369 -10.0993 -50.0352 -39.2564 -10.2386 -51.4974 
-39.1714 -10.3785 -52.9686 -39.0816 -10.5192 -54.4497 -38.9869 -10.6607 -55.9413 
-38.8874 -10.8032 -57.4442 -38.7827 -10.9468 -58.9592 -38.6728 -11.0917 -60.487 
-38.5576 -11.2379 -62.0285 -38.4367 -11.3856 -63.5848 -38.3101 -11.5346 -65.1566 
-38.1776 -11.6851 -66.7451 -38.0389 -11.8371 -68.3514 -37.894 -11.9903 -69.9764 
-37.7425 -12.1448 -71.6214 -37.5845 -12.3003 -73.2874 -37.4197 -12.4568 -74.9754 
-37.248 -12.6139 -76.6863 -37.0695 -12.7715 -78.421 -36.884 -12.9292 -80.18 
-36.6916 -13.0867 -81.9637 -36.4923 -13.2438 -83.7723 -36.2864 -13.4 -85.6056 
-36.0739 -13.555 -87.4632 -35.8552 -13.7084 -89.3443 -35.6305 -13.8598 -91.2477 
-35.4002 -14.0088 -93.1721 -35.1647 -14.1552 -95.1157 -34.9245 -14.2984 -97.0765 
-34.68 -14.4383 -99.0523 -34.4318 -14.5744 -101.041 -34.1805 -14.7065 -103.039 
-33.9266 -14.8344 -105.045 -33.6706 -14.9579 -107.056 -33.4132 -15.0768 -109.069 
-33.1548 -15.1911 -111.081 -32.8959 -15.3006 -113.092 -32.637 -15.4054 -115.098 
-32.3786 -15.5055 -117.098 -32.1209 -15.601 -119.091 -31.8642 -15.6919 -121.075 
-31.6089 -15.7785 -123.049 -31.355 -15.8607 -125.013 -31.1026 -15.9389 -126.966 
-30.8519 -16.0131 -128.908 -30.6027 -16.0835 -130.84 -30.355 -16.1503 -132.761 
-30.1086 -16.2135 -134.672 -29.8633 -16.2731 -136.574 -29.619 -16.3293 -138.466 
-29.3753 -16.3819 -140.349 -29.1319 -16.4309 -142.224 -28.8884 -16.4761 -144.091 
-28.6445 -16.5173 -145.95 -28.3999 -16.5543 -147.8 -28.1539 -16.5866 -149.644 
-27.9063 -16.6139 -151.479 -27.6565 -16.6358 -153.306 -27.404 -16.6516 -155.125 
-27.1484 -16.6609 -156.935 -26.8891 -16.6631 -158.737 -26.6256 -16.6576 -160.529 
-26.3574 -16.6438 -162.311 -26.0839 -16.6212 -164.084 -25.8045 -16.5891 -165.846 
-25.5187 -16.5473 -167.597 -25.226 -16.4951 -169.337 -24.9259 -16.4324 -171.066 
-24.6179 -16.359 -172.784 -24.3015 -16.2747 -174.491 -23.9764 -16.1797 -176.186 
-23.6421 -16.0741 -177.871 -23.2984 -15.9584 -179.545 -22.9451 -15.8329 -181.208 
-22.582 -15.6986 -182.86 -22.2092 -15.556 -184.503 -21.8266 -15.4064 -186.136 
-21.4345 -15.2506 -187.759 -21.0331 -15.0901 -189.373 -20.6228 -14.9261 -190.978 
-20.204 -14.7599 -192.575 -19.7773 -14.593 -194.162 -19.3434 -14.427 -195.742 
-18.903 -14.2631 -197.312 -18.457 -14.1028 -198.875 -18.0061 -13.9476 -200.428 
-17.5515 -13.7986 -201.973 -17.0938 -13.657 -203.509 -16.6343 -13.5239 -205.036 
-16.1737 -13.4001 -206.553 -15.7131 -13.2865 -208.061 -15.2534 -13.1837 -209.558 
-14.7953 -13.0921 -211.046 -14.3398 -13.012 -212.523 -13.8875 -12.9437 -213.989 
-13.4392 -12.8872 -215.445 -12.9953 -12.8424 -216.89 -12.5563 -12.8091 -218.324 
-12.1228 -12.787 -219.748 -11.6948 -12.7758 -221.162 -11.2728 -12.775 -222.566 
-10.8569 -12.7842 -223.961 -10.447 -12.803 -225.347 -10.0434 -12.8307 -226.725 
-9.64587 -12.867 -228.096 -9.25448 -12.9113 -229.461 -8.86911 -12.9632 -230.82 
-8.48967 -13.0222 -232.174 -8.11606 -13.0878 -233.525 -7.74818 -13.1598 -234.872 
-7.38593 -13.2378 -236.217 -7.02925 -13.3214 -237.56 -6.67807 -13.4103 -238.903 
-6.33237 -13.5043 -240.245 -5.99211 -13.6031 -241.588 -5.65732 -13.7065 -242.931 
-5.32802 -13.8143 -244.275 -5.00423 -13.9261 -245.62 -4.68602 -14.0418 -246.966 
-4.37344 -14.1612 -248.313 -4.06653 -14.284 -249.662 -3.76535 -14.4098 -251.011 
-3.46994 -14.5385 -252.36 -3.18031 -14.6698 -253.71 -2.89647 -14.8032 -255.059 
-2.61841 -14.9385 -256.408 -2.34609 -15.0754 -257.755 -2.07945 -15.2135 -259.101 
-1.81841 -15.3523 -260.445 -1.56288 -15.4917 -261.786 -1.31274 -15.6312 -263.123 
-1.06786 -15.7705 -264.458 -0.828117 -15.9092 -265.788 -0.593361 -16.0472 -267.115 
-0.363458 -16.184 -268.437 -0.138277 -16.3196 -269.755 0.0823041 -16.4537 -271.07 
0.298391 -16.5862 -272.381 0.510073 -16.717 -273.689 0.717417 -16.8462 -274.995 
0.920466 -16.9737 -276.3 1.11924 -17.0998 -277.604 1.31373 -17.2247 -278.91 
1.50389 -17.3485 -280.218 1.68968 -17.4717 -281.53 1.87101 -17.5947 -282.848 
2.04777 -17.7179 -284.173 2.21985 -17.8418 -285.508 2.38712 -17.9672 -286.854 
2.54944 -18.0944 -288.214 2.70666 -18.2244 -289.589 2.85865 -18.3576 -290.981 
3.0053 -18.4949 -292.392 3.14649 -18.6368 -293.824 3.28215 -18.784 -295.279 
3.41223 -18.937 -296.756 3.53674 -19.0964 -298.259 3.6557 -19.2627 -299.786 
3.76923 -19.436 -301.339 3.87747 -19.6166 -302.917 3.98063 -19.8045 -304.519 
4.07899 -19.9997 -306.146 4.1729 -20.2018 -307.795 4.26276 -20.4104 -309.465 
4.34906 -20.6249 -311.153 4.4323 -20.8445 -312.857 4.51309 -21.0684 -314.574 
4.59205 -21.2955 -316.301 4.66984 -21.5246 -318.034 
LINES 1 321
320 319 318 317 316 315 314 313 312 311 310 309 308 307 306 305 304 303 302 301 300 299 298 297 296 295 294 293 292 291 290 289 288 287 286 285 284 283 282 281 280 279 278 277 276 275 274 273 272 271 270 269 268 267 266 265 264 263 262 261 260 259 258 257 256 255 254 253 252 251 250 249 248 247 246 245 244 243 242 241 240 239 238 237 236 235 234 233 232 231 230 229 228 227 226 225 224 223 222 221 220 219 218 217 216 215 214 213 212 211 210 209 208 207 206 205 204 203 202 201 200 199 198 197 196 195 194 193 192 191 190 189 188 187 186 185 184 183 182 181 180 179 178 177 176 175 174 173 172 171 170 169 168 167 166 165 164 163 162 161 160 159 158 157 156 155 154 153 152 151 150 149 148 147 146 145 144 143 142 141 140 139 138 137 136 135 134 133 132 131 130 129 128 127 126 125 124 123 122 121 120 119 118 117 116 115 114 113 112 111 110 109 108 107 106 105 104 103 102 101 100 99 98 97 96 95 94 93 92 91 90 89 88 87 86 85 84 83 82 81 80 79 78 77 76 75 74 73 72 71 70 69 68 67 66 65 64 63 62 61 60 59 58 57 56 55 54 53 52 51 50 49 48 47 46 45 44 43 42 41 40 39 38 37 36 35 34 33 32 31 30 29 28 27 26 25 24 23 22 21 20 19 18 17 16 15 14 13 12 11 10 9 8 7 6 5 4 3 2 1 0 

CELL_DATA 1
FIELD FieldData 2
LengthArray 1 1 double
579.4791066 
TortuosityArray 1 1 double
0.0084774583038 
POINT_DATA 320
FIELD FieldData 8
RadiusArray 1 320 double
76.205805026 75.957290851 75.957275809 75.953530367 74.946899738 74.625912572 74.555406614 74.269249947 73.826953024 
73.823980773 73.588752395 73.297683457 72.936173403 72.649603504 72.496223345 72.076665993 71.865412981 71.781092151 
71.304287673 71.301415689 71.240465464 71.224764651 70.919059293 70.807394414 70.655478416 70.416359308 70.36469197 
70.229497067 70.079505211 69.866783765 69.471537872 69.443984422 69.36735815 68.939702486 68.580768972 68.317575949 
68.268422305 67.987710225 67.819457525 67.497368074 67.337005523 67.324733519 67.301951351 67.276361554 67.276356407 
67.275074866 66.923354073 66.879371318 66.763360346 66.709493815 66.593838294 66.558007504 66.552676349 66.489845987 
66.22729788 66.224572372 66.196906475 66.098723589 66.003809469 65.920174963 65.887564395 65.798910298 65.666961074 
65.520656093 65.484339258 65.375554092 65.264220144 64.961757633 64.8380125 64.830993625 64.588418566 64.448708497 
64.444522465 64.302316712 64.170083929 64.079224539 63.656857176 63.577235614 63.552820431 63.269456977 62.970308759 
62.736613386 62.450436384 61.924823019 61.486898266 61.189699987 60.746112379 60.733651187 60.340470885 60.286020266 
60.174578877 59.759332466 59.006984287 58.71081569 58.066397033 57.967626572 57.899811175 57.424771134 57.349537815 
57.312694637 57.297665766 57.214536916 57.241726379 57.256668565 57.266136952 57.415756348 57.592634835 57.686316336 
58.085927917 58.116768092 58.29960828 58.547886706 58.561992845 58.624723139 58.768476706 58.934732778 59.068381418 
59.134016358 59.366352131 59.382395344 59.487985367 59.511398396 59.559588715 59.82504843 59.853270377 59.985376694 
60.005698507 60.055716998 60.127240906 60.138468515 60.197822637 60.204367222 60.225961736 60.25326929 60.296809494 
60.331403675 60.351847294 60.310278474 60.310517336 60.310050091 60.303548676 60.295665006 60.275150873 60.240256824 
60.208844089 60.152244686 60.150347382 60.08996173 59.976085129 59.84694284 59.815976892 59.751433807 59.74357043 
59.702472843 59.422151739 59.165093433 59.130366129 58.897810969 58.780230692 58.369234669 58.323281582 58.26524776 
58.099199485 57.96523447 57.901192941 57.831806486 57.718019726 57.696490594 57.538109653 57.303973073 57.054201669 
56.655083276 56.605520205 56.033387932 55.921599974 55.476199599 54.978595576 54.780263689 53.749184886 53.658602223 
53.507664626 52.947542543 52.901782572 52.410632989 52.268932123 52.071354583 51.186370559 50.653756449 50.542051334 
50.323390736 50.159081702 50.042346964 49.990765953 49.826219482 49.475862182 49.268859262 49.01695216 49.014365361 
48.814029799 48.397477903 48.192252693 47.848428781 47.832982284 47.592186028 47.380868152 47.267687639 47.253565991 
46.925026722 46.799650702 46.623283036 46.609119774 46.588098158 46.561120515 46.536854791 46.382676431 46.373095799 
46.336039208 46.350334122 46.245920355 46.234396719 46.224777457 46.19268408 46.030188425 45.964416138 45.868304372 
45.882875121 45.847453767 45.840238316 45.362003625 44.396304257 43.244906487 43.012906832 42.567578341 42.050376636 
41.778927365 41.035699479 40.557612328 39.770261269 39.303858361 38.178983952 38.104686919 37.798994458 37.056796014 
36.428627435 35.74485324 35.74114998 35.522936558 35.183296428 34.502932689 34.468313514 34.227130607 33.817035403 
33.689576666 33.513841087 33.348354886 33.330446598 33.003359499 32.991177043 32.646853634 32.601240366 32.499724647 
32.180082253 31.993826509 31.930268219 31.755008725 31.726636918 31.652650042 31.440607376 31.433719858 31.368906785 
31.324117984 31.21478618 31.174329657 31.165930609 31.157199046 30.989419087 30.809918771 30.790108871 30.691922126 
30.717541964 30.712717138 30.678459212 30.719585318 30.746440564 30.786065395 30.80364457 30.775782647 30.797012588 
30.8580136 30.936731855 30.994000694 31.033716308 31.052986972 31.129199026 31.20074037 31.196948308 31.200482144 
31.234530643 31.274528098 31.353952719 31.396474558 31.413443859 31.420249042 31.36785234 31.353333082 31.355738123 
31.366307262 31.367137388 31.356596602 31.323070234 31.325015525 31.314335708 31.311541198 31.310914914 31.598471673 
31.825744064 31.829274524 31.635059527 31.518170464 29.344098787 
EdgeArray 2 320 int
16214 16214 18175 18175 18174 18175 18174 18174 17134 
17134 15215 10355 15215 17048 19221 9819 18835 19973 
19990 19973 19991 19989 20208 20208 18395 18395 20493 
20493 18997 17675 18604 18097 12899 17587 19346 19346 
21709 21720 21720 21286 22089 22088 21732 22088 21945 
22462 17795 21707 22935 20481 22944 22944 22618 22618 
21975 21975 22476 22476 24019 24018 24014 20802 24013 
20802 24011 24013 23790 23790 24490 23136 24254 24254 
18797 24253 24527 19294 23561 10273 24510 24510 21563 
23721 23721 23252 23252 24832 22816 22816 24833 22816 
24833 24833 25101 25101 25495 25495 21737 21737 15550 
15550 25092 25092 25766 25766 25478 25767 23126 23126 
20017 20017 23268 24823 24823 24905 22508 22508 17718 
17718 21295 21295 17005 17005 26432 26432 26070 20016 
22622 22622 22554 18407 12990 12990 27697 27697 25466 
25466 25473 25473 25486 27293 27288 27288 28322 28322 
28320 28320 17541 17541 24540 28960 27579 27579 29259 
29259 29264 29263 29465 29269 28831 28831 30274 29270 
20416 26437 30564 30564 28110 28110 31283 31283 29997 
29997 31279 31279 28068 28068 31714 31714 26451 31713 
29478 31707 28993 28993 27531 27531 30381 28786 28426 
28426 28994 28994 29632 29632 29762 29762 27158 25597 
31027 28755 30884 28755 30884 27144 29857 29857 31205 
30865 31013 31205 23580 31013 28731 30227 26590 29641 
27903 31727 30004 31727 31717 31993 19422 31720 29432 
31720 32102 29432 31540 31540 32310 32310 32411 31814 
31814 25271 23327 30294 31246 30294 33004 33003 33005 
33006 32401 33006 32997 32997 32817 32817 32639 32987 
29141 33041 24409 32909 32909 33624 33624 24006 33616 
33616 33765 33622 33622 33326 34169 34169 32618 32640 
34439 34439 34238 34238 34032 34032 34176 35261 35261 
34946 35496 34946 35738 35496 35718 35718 36165 35493 
36182 35034 36895 36895 36167 36896 35901 35901 36446 
36446 37187 36656 37189 36656 37190 37190 37194 36905 
36444 35985 37420 37420 37643 37643 37689 37689 38180 
38180 38186 38186 37163 38177 38177 38588 38588 38589 
38132 38810 38728 39505 39058 38728 39058 39058 38966 
38966 39284 36634 38975 39284 39414 39414 39737 39038 
39905 39905 39906 40157 40134 40134 40186 40400 40688 
40688 40919 40919 41345 41345 41946 41946 41945 41947 
42194 41941 42191 42191 42202 42202 41322 41790 41790 
42506 42344 42506 41370 41370 42892 42891 43498 42893 
43108 42886 42884 42887 43107 42862 43107 43105 43755 
43105 43991 43277 43979 43979 43335 39611 43335 44301 
43978 43978 42940 42940 44154 44154 42875 42875 44333 
44333 44327 44327 44037 44037 43826 43826 44346 44345 
43748 43748 42640 42640 44152 44152 43577 43103 42797 
42797 43957 43957 44340 44340 43974 43974 44999 44999 
43506 43506 44236 44236 42428 42428 39022 43856 43856 
44493 44493 44493 45682 44254 44692 43074 45391 42372 
50044 40865 47933 42911 47933 50562 47478 50532 45444 
45444 47795 47795 42012 45212 50549 49623 50897 50168 
43866 50897 43866 46880 50161 50161 46758 50987 50983 
50595 50567 50632 47670 50567 49033 49033 47934 50970 
50966 50969 50222 50294 45776 47097 48507 50594 50594 
49322 51311 47576 47576 50629 50635 46270 50635 44875 
51663 51664 51663 51662 51660 51659 49906 45031 46371 
46371 50467 51176 49893 49893 51272 49544 49171 52387 
52390 52390 50679 50679 50473 48229 51694 51694 52705 
52705 52023 39110 50241 50241 52347 52347 48922 48922 
52715 52715 52718 50790 47983 50938 49582 51169 49582 
53486 53158 53158 53202 53202 50918 53632 51629 51629 
53027 53027 51037 46237 54123 54123 47923 52737 53228 
52737 53228 50576 50576 52021 54518 54518 54796 53615 
54126 54797 54476 54803 53881 53881 53815 54799 53129 
53633 53679 53679 53834 53834 54571 54571 54785 54785 
44867 44867 55256 55256 53627 54581 54789 54581 54789 
55491 52280 52280 55250 55674 53172 55668 44916 55698 
55845 56132 56132 56150 56411 56411 56283 56283 56307 
56307 57451 57451 57310 56169 57457 56395 56154 56154 
57785 44207 44207 44207 57783 58086 57776 57776 58791 
58791 
EdgePCoordArray 1 320 double
0 0 0.996 0 0 0.156 0.364 0.204 0.996 
0.988 0.576 0 0 0 0.016 0.128 0.764 0 
0.984 0.016 0.952 0.828 0.92 0.032 0.112 0 0 
0 0 0.72 0.988 0.66 0.944 0 0.672 0 
0.848 0.912 0.712 0 0.944 0.332 0.088 0 0.996 
0 0 0 0 0 0 0 0.872 0 
0 0.092 0.448 0 0 0 0 0 0.712 
0 0.892 0 0 0 0 0.96 0 0 
0 0 0.712 0 0 0.972 0.832 0 0.484 
0.352 0 0 0 0 0 0 0 0.856 
0.056 0 0 0.64 0 0 0 0 0.84 
0.944 0.872 0.616 0 0.036 0.924 0.732 0.64 0.436 
0.904 0.852 0.116 0.952 0.824 0.608 0 0 0.724 
0.232 0.808 0.736 0.856 0.388 0.784 0 0 0.884 
0.836 0.564 0.852 0.072 0 0.056 0.208 0 0.764 
0 0 0 0.896 0.264 0.876 0.168 0 0.252 
0.376 0 0.992 0 0 0.784 0.88 0 0.392 
0.084 0 0 0 0 0 0.588 0.672 0.14 
0.476 0.088 0.54 0 0 0.9 0.636 0 0.056 
0 0.128 0 0.876 0 0 0 0 0.052 
0.816 0 0 0.744 0.452 0.696 0 0.236 0.928 
0.948 0.576 0.056 0.264 0.4 0.14 0 0.028 0.1 
0 0 0 0 0 0 0 0 0.956 
0 0 0 0.432 0 0 0 0 0 
0 0 0 0.988 0.364 0 0.712 0.824 0.924 
0.244 0.036 0.44 0.564 0 0 0.172 0.124 0.508 
0.648 0.576 0 0.2 0.8 0.056 0.788 0 0.908 
0.776 0.892 0.852 0.472 0.204 0.416 0.52 0.704 0.66 
0.652 0.792 0.096 0.14 0 0.008 0 0.04 0.528 
0 0 0.116 0 0 0.032 0 0 0 
0 0.208 0.144 0.088 0.06 0 0 0.12 0 
0 0.964 0 0.8 0.312 0.656 0.096 0 0.844 
0.708 0.456 0 0.172 0.288 0 0 0 0 
0 0 0.268 0.476 0.712 0 0.944 0.088 0.98 
0.928 0.06 0 0 0 0 0.16 0.24 0 
0.984 0 0.56 0 0 
CurvatureArray 1 320 double
0 3.3854976771e-05 0.00013412056133 0.00023417460876 0.00033142849452 0.00042313539043 0.00050770888226 0.00058432041553 0.00064987194193 
0.00070396901499 0.00074466767089 0.00077289755605 0.0007845860355 0.00078372297078 0.00076625421047 0.000734000152 0.00068904105597 0.00062927795504 
0.00055934533474 0.00047886678082 0.00039169088152 0.00030096455838 0.00021246896325 0.00014502313149 0.00013433927159 0.00018723510114 0.00026322474218 
0.00034231405217 0.0004138103152 0.00047883518705 0.00053751929833 0.00058686808818 0.00063482448648 0.00067879293931 0.00072883611782 0.00078332717377 
0.00084717008134 0.00092416550908 0.0010137472628 0.001115905247 0.0012294626799 0.0013517302931 0.001483278177 0.0016179174382 0.0017554410429 
0.001893299956 0.0020300971242 0.0021624961646 0.0022928097541 0.0024156499615 0.002533599905 0.0026466953622 0.0027516180407 0.0028529616672 
0.0029478258114 0.0030396840741 0.003124721039 0.0032059048713 0.0032846264992 0.0033575701085 0.0034270306482 0.0034913594054 0.0035491348027 
0.0036027188748 0.0036485740166 0.0036864486518 0.0037171818652 0.0037372174561 0.0037497176725 0.0037502345504 0.0037415084291 0.0037218742794 
0.0036918061513 0.0036515687625 0.0036025305094 0.0035423017841 0.0034751284056 0.0033987366021 0.0033162253495 0.0032267411177 0.0031310428665 
0.0030307565664 0.002925703546 0.0028162549079 0.0027039384945 0.002587417786 0.0024671348875 0.0023461165511 0.0022211272117 0.0020942921573 
0.0019666265179 0.001838415974 0.0017114747684 0.0015869863649 0.001467324997 0.0013571031824 0.0012570115264 0.0011739115608 0.0011102863753 
0.0010698581912 0.0010551330633 0.0010644609424 0.0010962407775 0.0011452192414 0.0012066936893 0.001276721838 0.0013520590517 0.0014286736054 
0.0015058538972 0.0015839302441 0.0016599303751 0.0017347144276 0.0018096519023 0.0018836418845 0.0019564638036 0.0020307997261 0.0021028069387 
0.0021758345784 0.0022446972046 0.0023152107113 0.0023779159211 0.0024424178318 0.0024974947827 0.0025481418215 0.0025938847875 0.002631879073 
0.0026623616412 0.0026829277572 0.0027016792003 0.0027102323699 0.002710281137 0.0027076982598 0.0026957552511 0.0026787428369 0.0026553935427 
0.0026263200642 0.0025959345658 0.002557250691 0.002516473151 0.002472209899 0.0024265189665 0.0023779381668 0.0023284557308 0.0022760751525 
0.0022283044371 0.0021757499683 0.0021293652568 0.0020784987232 0.0020338186494 0.0019926587703 0.0019564676156 0.0019244301511 0.001896700767 
0.0018765859783 0.0018637541078 0.0018492762941 0.0018424250697 0.0018371255892 0.0018310664324 0.0018251236622 0.0018115239661 0.001796944883 
0.0017788182668 0.0017563601018 0.0017268054339 0.0016964948537 0.0016633753639 0.0016286106971 0.0015939020682 0.0015569872746 0.0015250951597 
0.0014918735227 0.0014619854187 0.0014333764209 0.0014061808375 0.0013811374859 0.0013560551209 0.0013323935263 0.0013091795007 0.0012866429743 
0.0012654194722 0.0012427870782 0.0012212097097 0.001198255975 0.0011755686064 0.0011517850483 0.0011278810055 0.0011026081103 0.0010765314638 
0.001049591296 0.0010219646535 0.00099385843866 0.00096608350167 0.00093867338321 0.00091358038206 0.00089127176081 0.00087414778878 0.00086505591811 
0.00086656382118 0.00088199455826 0.00091460393884 0.00097064477073 0.0010487568293 0.0011535668265 0.0012863360199 0.0014438254108 0.0016281535107 
0.0018372003875 0.0020679695214 0.0023196711798 0.002589814527 0.0028737592856 0.0031675026248 0.0034658125235 0.003765717697 0.0040569137223 
0.0043351352353 0.0045907340352 0.0048202062147 0.0050106921129 0.0051592228081 0.0052576541159 0.005304218954 0.0052927399524 0.0052268152237 
0.0051003937615 0.0049255928284 0.0047063983641 0.0044501087657 0.0041716912927 0.0038908181921 0.0036187385626 0.0033834790793 0.0032070246339 
0.0031033219866 0.00308653552 0.0031519758659 0.0032888456547 0.0034756511515 0.0036922749313 0.0039209310528 0.0041468402258 0.0043570516317 
0.0045457419749 0.0047061152388 0.0048341559567 0.0049289654739 0.0049894848796 0.0050175522264 0.0050135025676 0.0049819016533 0.0049251877203 
0.00484865095 0.0047536466731 0.0046503332409 0.0045375132035 0.0044238895875 0.0043094934049 0.0042044737731 0.0041026318943 0.0040140422138 
0.003933236293 0.0038627856766 0.0038020063553 0.0037505388849 0.0037027420687 0.0036602443994 0.0036151820345 0.0035727572247 0.0035229185577 
0.0034697871079 0.0034054384499 0.0033351473076 0.0032551064262 0.003164407554 0.0030678290937 0.0029631107331 0.0028509318358 0.0027435629461 
0.0026305808606 0.0025306601022 0.0024352995127 0.0023580987021 0.0022947666942 0.0022553076439 0.0022334280627 0.0022396527435 0.0022589825594 
0.0022974946799 0.0023591711773 0.0024284632792 0.002507974958 0.0026054324968 0.0027108109473 0.0028326920741 0.0029581143931 0.0030933197 
0.0032366221963 0.0033782169945 0.0035151245765 0.0036388849912 0.0037460015316 0.0038241873626 0.0038697761355 0.0038831202754 0.0038544818292 
0.0037870348956 0.0036783428624 0.0035319728705 0.0033490682958 0.0031329848109 0.0028879689602 0.002616474683 0.0023231531122 0.0020101923418 
0.001682152523 0.0013397429401 0.00098619049076 0.00062290167356 0 
TorsionArray 1 320 double
0 0 -0.00013440779858 -0.00054078228367 6.7517759888e-05 0.00029854792488 0.00026986364547 0.00025336524166 0.0003629407652 
0.00067914350704 0.00064100851242 0.00098308692496 0.0012569406771 0.0015792375747 0.0025649830482 0.0035113896186 0.0050119928069 0.0073819170583 
0.011170704399 0.01811827886 0.031015062009 0.059001042013 0.12702724751 0.2820663689 0.32379274793 0.15180151656 0.063493787719 
0.023762267185 0.0031986369986 -0.0099634732551 -0.020189784353 -0.029113575235 -0.03657767456 -0.042281232796 -0.046407233323 -0.048619051008 
-0.047175821479 -0.043795794019 -0.038673572772 -0.032465223425 -0.026110754928 -0.019158161908 -0.013274618151 -0.0080961659732 -0.0028767525791 
0.0013335060272 0.0046878083018 0.0083479004184 0.011039606699 0.01296785054 0.014992967307 0.016169337614 0.017084391749 0.017621079566 
0.017776644194 0.017499225532 0.016821110524 0.016230661579 0.015292133889 0.014169195613 0.013023153358 0.011717260943 0.01059773917 
0.0095047923904 0.0083524249336 0.0073557913985 0.0064348653547 0.0056624533471 0.0050005248478 0.0044104638434 0.0040003020843 0.0036759163544 
0.0034962925067 0.0034898093432 0.003499908233 0.0036675897458 0.0039843130601 0.0044020095877 0.0049272730677 0.0055610980419 0.0063346976983 
0.0072358568738 0.0082287465195 0.0094047621818 0.010763822521 0.012157140448 0.013892329936 0.015881295638 0.018093345186 0.020722167075 
0.023811335626 0.027482427247 0.03187149021 0.037130147041 0.043321806194 0.05053413841 0.058593960731 0.066734318519 0.074258230448 
0.079433140397 0.081524744665 0.079820371562 0.075506545456 0.069678965659 0.063183640935 0.057881239724 0.052691238656 0.048195922016 
0.045116368748 0.042225044095 0.039604381051 0.037626713319 0.035718302854 0.033797660938 0.032024328729 0.030113399402 0.028279003476 
0.026240026116 0.024371251997 0.022422334142 0.020620078066 0.018908441571 0.017246635671 0.015892299682 0.01455203684 0.013230847007 
0.012031996948 0.010990604744 0.0097865162802 0.0084335367433 0.0070647479305 0.0055686748193 0.00386200817 0.001948445664 9.2234333516e-05 
-0.0019256320579 -0.0038884751876 -0.0056930714032 -0.0074206592356 -0.0085401482989 -0.0093067008244 -0.0097208936424 -0.0093376317264 -0.0082682484063 
-0.0065794623537 -0.004342505924 -0.0017223197393 0.0013009227104 0.0044657834414 0.0074562054781 0.010123402603 0.012022225027 0.013000298542 
0.01303824587 0.012019280373 0.0099306681964 0.0068700590598 0.0028988350123 -0.0012106580469 -0.0058324652142 -0.010690619746 -0.015291117009 
-0.019833403277 -0.024103416005 -0.027847765056 -0.031273211422 -0.034074500487 -0.036143978452 -0.037848053155 -0.038489171168 -0.038677716273 
-0.038456394515 -0.037351498809 -0.036280894565 -0.034645789287 -0.033030689735 -0.031518470114 -0.029819596921 -0.028285894108 -0.026477995687 
-0.025171672552 -0.024084202014 -0.023300982917 -0.022384338491 -0.021288390234 -0.020471511014 -0.019737996252 -0.019130161272 -0.017667335968 
-0.016697087123 -0.015174454959 -0.012678155295 -0.0098525504019 -0.006011926186 -0.0011614074782 0.0047375767169 0.011428122157 0.018635471565 
0.02583127915 0.032387706719 0.036344177917 0.037388801758 0.036062264811 0.032673321558 0.028487642313 0.023732545695 0.019375050378 
0.015725241305 0.012696655182 0.010589493861 0.0088893856042 0.0079122860821 0.0072601340742 0.0071031436498 0.0071811233851 0.0075294386666 
0.0083101088159 0.0091369342154 0.010292142533 0.011612120346 0.013338959873 0.01541900756 0.017711969881 0.020621882414 0.024013722772 
0.028251185828 0.033423493253 0.039696125124 0.047515491425 0.057013864693 0.068349306896 0.08144370891 0.094778676739 0.10638883566 
0.11362719324 0.11382095414 0.1073904076 0.096416526952 0.083858379965 0.072106109132 0.061590779093 0.052781621206 0.045954321055 
0.040408015234 0.036270218514 0.033003437425 0.030479197113 0.028735666648 0.02743863581 0.026639474941 0.026166579862 0.026313349523 
0.026446925035 0.026862779348 0.027514842023 0.028074654358 0.028540024505 0.029367690102 0.029718428235 0.029954841046 0.030045725751 
0.029289420634 0.028948139872 0.028410452827 0.027341596278 0.026474136064 0.02532779793 0.024560005167 0.024200875879 0.023562060382 
0.023204336929 0.023509390673 0.024398461341 0.025006360011 0.026444887868 0.028425366634 0.03020796628 0.033337612327 0.036314568878 
0.039728336758 0.043175890916 0.045811785676 0.047604758981 0.047647612154 0.045879244814 0.041804365471 0.034702007527 0.025369888639 
0.015284269292 0.0041128977728 -0.0074832472463 -0.018318296786 -0.027800971206 -0.035611224733 -0.041937840696 -0.046182047636 -0.048051850166 
-0.048534029652 -0.047627636392 -0.045489986206 -0.042615088851 -0.039545628102 -0.036676195834 -0.033331751766 -0.030054566621 -0.027276476328 
-0.024440013253 -0.021893980138 -0.019783362383 -0.01756808401 -0.015404502314 -0.013845436467 -0.012236334175 -0.010250723493 -0.008870767501 
-0.0078533938149 -0.0061399113761 -0.0048039967127 0 0 
TangentArray 3 320 double
-0.16853313748 -0.066174531116 0.98347217195 -0.16853313748 -0.066174531116 0.98347217195 -0.16871900227 -0.066085089144 0.98344631743 
-0.16912612634 -0.065888985175 0.98338954388 -0.1697508286 -0.065588979788 0.98330195867 -0.17058254281 -0.06518945236 0.98318458663 
-0.17160548125 -0.064696940198 0.98303909624 -0.17280128104 -0.064119995555 0.98286740888 -0.17414713213 -0.06346929553 0.98267208411 
-0.17561626821 -0.062757028084 0.98245635107 -0.17717912213 -0.061995718918 0.98222405261 -0.17880589983 -0.061199626946 0.98197915245 
-0.18046329732 -0.060383203977 0.9817264726 -0.18211858803 -0.059561078704 0.98147098673 -0.18373978282 -0.058747755477 0.98121781141 
-0.18529231999 -0.057956550385 0.98097288159 -0.18674707587 -0.057199541329 0.9807414247 -0.18807548089 -0.056487972744 0.98052879735 
-0.18925209861 -0.055831227424 0.98034000082 -0.19025615931 -0.055236101884 0.98017935445 -0.19106978979 -0.054706868515 0.98005076091 
-0.19168074426 -0.054244978881 0.97995712893 -0.19207993586 -0.05384918249 0.97990079283 -0.19226598595 -0.053514634188 0.97988263306 
-0.19224129387 -0.053233905955 0.97990276874 -0.19201321635 -0.052996043495 0.97996037885 -0.19159524512 -0.05278705967 0.980053462 
-0.19100100696 -0.052590529927 0.98018000974 -0.19025178211 -0.052387152567 0.98033659814 -0.18937169213 -0.052156084928 0.98051930375 
-0.18838223735 -0.051874844071 0.98072479993 -0.1873089943 -0.05152059027 0.98094901469 -0.18617556974 -0.051069188827 0.98118835867 
-0.1850039746 -0.050496888858 0.98143955168 -0.18381258709 -0.049781564875 0.98169991781 -0.18261642993 -0.048900657945 0.98196739517 
-0.18143051586 -0.047834065757 0.98223972128 -0.18026097973 -0.046564387282 0.9825160238 -0.17911031288 -0.04507531377 0.98279586482 
-0.17797722347 -0.043353720881 0.98307912337 -0.17685527834 -0.041389554183 0.98336621628 -0.1757348278 -0.039175951847 0.98365772253 
-0.17459813009 -0.036709350295 0.98395524114 -0.17342671053 -0.033989402045 0.9842600757 -0.17220107961 -0.031020266318 0.98457327369 
-0.17089518412 -0.027809908775 0.98489666718 -0.16948363194 -0.024368663111 0.98523168177 -0.16794299677 -0.020710211588 0.98557913785 
-0.16624389839 -0.016851690544 0.98594066088 -0.16436075149 -0.012812138401 0.98631708516 -0.16227291718 -0.0086119950425 0.98670833274 
-0.15995607694 -0.0042717565295 0.98711488974 -0.15739307265 0.00018702050788 0.98753601742 -0.15456825692 0.0047437378045 0.98797072371 
-0.15146817303 0.0093797853848 0.98841763045 -0.14808287031 0.01407825619 0.98887474749 -0.14440685372 0.018824200742 0.98933933009 
-0.14043982883 0.023605032204 0.98980778787 -0.13617889989 0.028411125601 0.99027678715 -0.13162640521 0.033234782838 0.99074211511 
-0.12678834002 0.038070320998 0.99119895455 -0.12167158838 0.042914055164 0.99164227847 -0.11628812639 0.04776336437 0.9920663953 
-0.11064878572 0.052615957423 0.9924658217 -0.10476636113 0.057469877441 0.99283494236 -0.098658805764 0.062322936372 0.99316780639 
-0.092343533489 0.067172914209 0.99345884234 -0.085841083477 0.072016026764 0.99370267197 -0.07917234772 0.076847324344 0.99389447533 
-0.072359773535 0.081660237245 0.99403001405 -0.065428195235 0.086446696113 0.99410568855 -0.058401041447 0.091197010089 0.99411891829 
-0.051303517247 0.095899612584 0.99406801247 -0.044159979086 0.10054121051 0.99395239385 -0.036992842967 0.10510673101 0.99377266247 
-0.029826756037 0.10958021033 0.99353034283 -0.022684246052 0.11394427389 0.99322813463 -0.015585719526 0.11818046557 0.99286981166 
-0.0085511283801 0.12226947129 0.99246010227 -0.0015984774447 0.12619215562 0.99200452858 0.0052536658513 0.12992835685 0.99150946596 
0.011988936518 0.13345829642 0.9909819113 0.018591996319 0.13676253285 0.99042937521 0.02504656507 0.13982238278 0.98985977333 
0.031337972196 0.14261979759 0.98928131734 0.037450817647 0.1451372042 0.98870249732 0.043366484627 0.14735992404 0.98813177299 
0.04906982947 0.14927426002 0.98757751449 0.054543903761 0.15086807899 0.9870480157 0.05976816695 0.15213215728 0.98655135342 
0.064723981373 0.15306016973 0.98609502112 0.069391865716 0.15364878436 0.98568596421 0.073752051534 0.15389805736 0.98533041303 
0.077785007483 0.153811597 0.98503374827 0.08147140618 0.15339689842 0.98480038664 0.084795420747 0.15266566374 0.98463339966 
0.087741556993 0.15163310218 0.98453482493 0.090296813376 0.15031861448 0.98450535785 0.092452521578 0.14874522025 0.98454425533 
0.09420158449 0.14693916888 0.98464965451 0.095542337806 0.144929705 0.98481827882 0.096475532005 0.14274807674 0.98504591685 
0.097007508719 0.14042719835 0.98532722748 0.097147315727 0.13800077225 0.98565622095 0.096907213549 0.13550274744 0.9860263675 
0.096304669069 0.13296611072 0.98643064841 0.095354984817 0.13042250405 0.98686240039 0.094078661936 0.12790172275 0.98731471917 
0.092499092141 0.12543071697 0.98778087307 0.090635523211 0.1230332868 0.98825503402 0.088509653107 0.12072975491 0.98873169646 
0.086145156313 0.11853694758 0.98920574407 0.083562044618 0.11646783698 0.98967299026 0.08077971352 0.11453151266 0.99012987557 
0.077818204935 0.11273395608 0.99057325934 0.074694275414 0.11107749272 0.99100078498 0.071424492329 0.10956168807 0.99141049944 
0.068024274445 0.10818425339 0.99180081942 0.06450899676 0.10694040221 0.99217051947 0.060891652882 0.10582415333 0.99251874299 
0.057186052083 0.1048287476 0.99284474573 0.053404278597 0.10394661578 0.99314806756 0.049557486452 0.10317029576 0.99342837971 
0.045660341758 0.10249242352 0.99368528031 0.041722186349 0.10190607825 0.99391871417 0.037753701983 0.10140433226 0.99412867345 
0.033766563414 0.10098004609 0.99431526665 0.02977304688 0.1006265529 0.99447868883 0.025780475604 0.10033735606 0.99461941568 
0.021795819849 0.10010504053 0.99473811785 0.017830685202 0.099921449455 0.99483554953 0.01389076988 0.099778042862 0.9949127543 
0.0099821702057 0.099665771943 0.99497089916 0.006112670347 0.099574636698 0.99501132003 0.0022878178842 0.099493762062 0.99503555575 
-0.001486339994 0.099413021784 0.99504514566 -0.0052071976478 0.099321834677 0.99504173694 -0.0088701144136 0.099210491136 0.99502693407 
-0.012469623161 0.099070725839 0.99500226119 -0.016003376468 0.098895108798 0.99496917007 -0.019469335083 0.098679726123 0.99492876963 
-0.02286570201 0.098422651075 0.99488197362 -0.026191003527 0.098123885249 0.9948295002 -0.029443967946 0.0977872198 0.99477168858 
-0.032627550128 0.097419057735 0.99470848502 -0.035743710483 0.09702822911 0.99463958795 -0.038795925668 0.096625390992 0.99456443229 
-0.041788024847 0.096222146402 0.99448230729 -0.044724039363 0.095831236377 0.99439234432 -0.047613489675 0.095464599821 0.99429345054 
-0.050464642544 0.095133227462 0.99418458492 -0.05328565664 0.094846557121 0.99406477123 -0.056083515903 0.09461104299 0.99393329242 
-0.058867227037 0.094429419166 0.99378958255 -0.061647744637 0.094301043233 0.99363316613 -0.064429189421 0.094221788781 0.99346420875 
-0.067216294734 0.094183168337 0.99328319251 -0.070016664723 0.094172706634 0.99309071488 -0.07283210517 0.094173829594 0.99288809756 
-0.075663637925 0.094168816961 0.99267680934 -0.07850675677 0.094137002413 0.9924590238 -0.081355521117 0.094056242818 0.99223722082 
-0.084205901046 0.093904996113 0.99201371862 -0.08704953531 0.093661937299 0.9917912179 -0.089872936267 0.093307543146 0.99157276975 
-0.092663341454 0.092825531998 0.991361148 -0.095408845111 0.092201363289 0.99115894834 -0.09809500511 0.091424934028 0.990968643 
-0.10070817287 0.090490257087 0.99079229775 -0.10323300615 0.089394727626 0.99063188376 -0.10565898792 0.088140433785 0.99048848666 
-0.10797613176 0.086731585164 0.99036295726 -0.11017444783 0.085175960113 0.99025584919 -0.11224838829 0.083483996839 0.99016701702 
-0.11419183456 0.081667341141 0.99009629345 -0.11600238635 0.079739291124 0.99004297473 -0.11767772103 0.077713913126 0.99000631396 
-0.11921648453 0.075605394674 0.98998548177 -0.12061964041 0.073427904926 0.98997941652 -0.12188871947 0.071195287765 0.98998705601 
-0.1230282736 0.068920755354 0.99000705724 -0.1240408837 0.066617504614 0.99003836655 -0.12492959155 0.064297945349 0.99007998231 
-0.125697002 0.061973469687 0.99013107857 -0.12634747471 0.059655688485 0.99019064551 -0.12688709341 0.057355494053 0.99025754874 
-0.12732159332 0.055082722735 0.99033080611 -0.12765690032 0.05284658942 0.99040948793 -0.12789906284 0.050655811493 0.99049271501 
-0.12805837081 0.048517935775 0.99057915563 -0.1281430747 0.046438980703 0.99066784215 -0.12816375864 0.044423380427 0.99075759611 
-0.12813430263 0.042473396598 0.99084691606 -0.12806879763 0.04058912064 0.99093436027 -0.12798359651 0.038767572544 0.99101830172 
-0.12789670398 0.037002557967 0.99109699012 -0.12782761752 0.035284836291 0.99116854295 -0.12779662911 0.0336006516 0.99123106176 
-0.12782502361 0.031932576246 0.9912825399 -0.12793530123 0.030260186389 0.99132077544 -0.128151854 0.028560380244 0.9913432337 
-0.12849797845 0.026804583513 0.99134745868 -0.12899631783 0.024962676567 0.99133083013 -0.12966977265 0.023003455225 0.9912903667 
-0.13054155582 0.020891113475 0.99122271139 -0.13163482818 0.018591940518 0.99112391342 -0.13297053829 0.01607193878 0.99098967135 
-0.13456956849 0.013296637655 0.9908149326 -0.1364513468 0.010235690564 0.99059389287 -0.13863316713 0.0068615800978 0.99032003095 
-0.14113278559 0.0031508992127 0.98998566084 -0.1439642129 -0.00091391843045 0.98958247264 -0.14713927216 -0.005341681039 0.98910136034 
-0.15066604362 -0.010133052977 0.98853278375 -0.1545506318 -0.015280142047 0.98786670126 -0.15879404508 -0.020763808581 0.98709336716 
-0.16339109582 -0.026552830982 0.98620398345 -0.16833361021 -0.032602748247 0.98519077162 -0.17360648078 -0.038859938402 0.98404811621 
-0.17918861119 -0.045257478121 0.98277322018 -0.18505082781 -0.051717732804 0.98136714192 -0.19116005034 -0.058153880211 0.97983466022 
-0.19747815156 -0.064471935789 0.97818492585 -0.20395954943 -0.070574913544 0.97643211939 -0.21055625762 -0.076362915645 0.97459466831 
-0.21721395366 -0.081736592742 0.97269585572 -0.22387668912 -0.086599871898 0.9707624273 -0.23049076004 -0.090866140376 0.96882266389 
-0.23699814436 -0.094456554096 0.966907358 -0.2433419844 -0.097303288025 0.96504753705 -0.2494715585 -0.09935459464 0.96327182354 
-0.25533644367 -0.10057141773 0.96160734735 -0.26088927614 -0.10092905706 0.96007817965 -0.26609236629 -0.10042087755 0.95870250858 
-0.27091007529 -0.099054374484 0.95749462766 -0.27531219352 -0.096850239008 0.95646391845 -0.27927609293 -0.09384323333 0.95561410176 
-0.28278473177 -0.090079402007 0.95494423754 -0.28582763403 -0.085614905605 0.95444887321 -0.28839981979 -0.080515362784 0.95411887116 
-0.29050020789 -0.074851220131 0.9539428306 -0.2921351421 -0.068698007799 0.95390651663 -0.29331664455 -0.06213575275 0.95399396972 
-0.2940585116 -0.055244370715 0.95418952586 -0.29437989628 -0.048102701116 0.95447713792 -0.29430076524 -0.040788957205 0.95484203958 
-0.29384452017 -0.033377789253 0.95527028696 -0.29303698953 -0.025939225391 0.95574917178 -0.29190360694 -0.018537664466 0.95626807918 
-0.29047131512 -0.011231398458 0.95681778348 -0.28876643357 -0.0040715138519 0.95739091787 -0.28681491645 0.0028991645457 0.95798162746 
-0.28463852064 0.0096448355424 0.9585864018 -0.28226041416 0.01613717439 0.95920209039 -0.2797005882 0.022356895798 0.95982693762 
-0.27697590139 0.028291512681 0.96046027526 -0.27410283816 0.033934820749 0.96110148374 -0.27109599128 0.039287314432 0.96175021208 
-0.26796363555 0.044354225964 0.96240749824 -0.26471497637 0.049145044499 0.96307359318 -0.26135730534 0.053671286212 0.96374880129 
-0.25789513508 0.057947028597 0.96443363752 -0.25433724772 0.061987817744 0.96512697345 -0.25068725572 0.065807304326 0.96582881429 
-0.24694856675 0.06941860524 0.96653890901 -0.24312845348 0.072833945829 0.96725579422 -0.23923409234 0.076062175068 0.96797809613 
-0.23527612774 0.07911078328 0.96870358092 -0.23126463803 0.081984138337 0.9694303834 -0.22721054865 0.084682613771 0.97015680254 
-0.22312941126 0.087206518339 0.97088016201 -0.21903827674 0.089553981447 0.97159781686 -0.21495436849 0.091719595311 0.97230763409 
-0.21089325524 0.093696416583 0.97300823039 -0.20687523175 0.095479261881 0.97369725739 -0.20291735612 0.097061263296 0.97437346934 
-0.19903530575 0.098435336654 0.97503611808 -0.19524757488 0.099597545083 0.97568371592 -0.19156372356 0.10054204479 0.97631687328 
-0.18799372773 0.10126644381 0.9769357531 -0.18454338615 0.1017696592 0.97754113729 -0.18121263589 0.10205275124 0.97813455954 
-0.17799936559 0.1021212345 0.97871726219 -0.17489517135 0.10198301368 0.97929114361 -0.17188707225 0.10165039301 0.97985816932 
-0.16895746023 0.10113787958 0.98042057605 -0.16608240071 0.10046340041 0.98098100968 -0.16323551131 0.099651182729 0.98154154758 
-0.16039011104 0.098731684421 0.98210338904 -0.15750889748 0.097733662475 0.98266936374 -0.15455746397 0.096692057958 0.98324088415 
-0.15150658189 0.095648931724 0.98381758345 -0.14832090908 0.094645589342 0.98439987828 -0.14496893413 0.093724878538 0.98498713458 
-0.14142389956 0.092929923232 0.98557765295 -0.13766652298 0.092305920088 0.98616811222 -0.13368719816 0.091895423518 0.98675375053 
-0.12947847953 0.091733885376 0.98732984236 -0.12504373067 0.091853544641 0.98789017191 -0.12039669847 0.092279432494 0.98842761057 
-0.11555926911 0.093026836943 0.98893481228 -0.11056006366 0.094101187398 0.98940458805 -0.1054370251 0.095498915611 0.98982977873 
-0.10023734799 0.097207823278 0.99020357158 -0.095007128792 0.099203584207 0.99052122358 -0.08979709153 0.10145205813 0.99077947206 
-0.08466129261 0.10391279879 0.9909765869 -0.079651728798 0.10653728283 0.99111321728 -0.074819278149 0.10927249599 0.99119200826 
-0.070212733305 0.11206403133 0.99121734497 -0.065876574325 0.11485302464 0.99119577263 -0.061850325684 0.11758025317 0.99113542025 
-0.058171403956 0.12019034626 0.991045089 -0.054871784236 0.1226287314 0.99093454957 -0.051977334842 0.12484172793 0.99081426091 
-0.049511999759 0.12678338305 0.9906939667 -0.047496278888 0.12841278673 0.99058278791 -0.045945870331 0.12969159834 0.99048930651 
-0.044874237039 0.13058935099 0.99042047851 -0.044874237039 0.13058935099 0.99042047851 
NormalArray 3 320 double
0.89583155493 -0.42650518729 0.12481646692 0.89583155493 -0.42650518729 0.12481646692 0.89364329597 -0.43121010124 0.12433627045 
0.89403733064 -0.43021954972 0.12493354415 0.89451169756 -0.42897667686 0.12580871844 0.89391740069 -0.42998603287 0.12658472372 
0.89349820768 -0.4305452496 0.12763910422 0.89295110746 -0.43131752067 0.12885463148 0.89247322264 -0.43188178541 0.13026768708 
0.8916840951 -0.43306745904 0.13172718195 0.89050987773 -0.43503575927 0.13317674657 0.88972297907 -0.43613640891 0.13482601135 
0.88786638125 -0.43948698443 0.13617811706 0.88648865795 -0.44179305612 0.13768353169 0.88394965075 -0.44650839642 0.1387921715 
0.88054657671 -0.45294585363 0.13956281712 0.87602047619 -0.46154019697 0.13988842655 0.8693004271 -0.474213485 0.13942144057 
0.85944437367 -0.49228567833 0.13787740741 0.84338505679 -0.52023236823 0.13438723539 0.81495061036 -0.56537104531 0.12732275444 
0.75908579052 -0.64111003335 0.11298976842 0.62280078029 -0.77835045124 0.079308026904 0.25447881489 -0.96707405152 -0.0028829920606 
-0.45071173297 -0.88219502948 -0.13634831762 -0.81445470541 -0.54849724316 -0.18924668315 -0.91382497369 -0.35470786755 -0.19775299279 
-0.94210193366 -0.27055746104 -0.19809746813 -0.94918191732 -0.24519989896 -0.19730863482 -0.94750898978 -0.25228459744 -0.1964158756 
-0.93921122166 -0.28235329904 -0.19534302044 -0.92368203701 -0.33057196796 -0.19373607953 -0.89939904404 -0.39313495398 -0.19111846466 
-0.8647160443 -0.46615708154 -0.18698593013 -0.82029560994 -0.54251012519 -0.18110183979 -0.76447350544 -0.62098229316 -0.17309318607 
-0.70176678264 -0.69341632368 -0.16339273187 -0.63731786638 -0.75531526101 -0.15272456804 -0.57387372346 -0.80661256434 -0.14158079167 
-0.51721624814 -0.84577959789 -0.13093595554 -0.46860374983 -0.87506761529 -0.12110819257 -0.42989555913 -0.89584470997 -0.11248139342 
-0.40323863737 -0.9089970376 -0.10546557241 -0.3844290647 -0.91778424673 -0.09943023017 -0.37543680396 -0.92199608935 -0.094712287745 
-0.37493128646 -0.92256498554 -0.091106409749 -0.3808324824 -0.92042034663 -0.088278003268 -0.39208864834 -0.91589329453 -0.086057915866 
-0.41042686174 -0.90794926881 -0.084722585164 -0.43103240001 -0.89846483467 -0.083498568798 -0.45545370648 -0.88641556078 -0.082640031811 
-0.48242334934 -0.87209647631 -0.08194783712 -0.51021540895 -0.8562090738 -0.081155766329 -0.53933058336 -0.83825165132 -0.080353537026 
-0.56807381403 -0.81915007127 -0.079279899991 -0.59667573956 -0.79868456648 -0.07798092773 -0.62365789307 -0.77797176031 -0.07622842361 
-0.64917794442 -0.75702295396 -0.074055679378 -0.67342943562 -0.73578590239 -0.071497560002 -0.69536628963 -0.71539438071 -0.068385695015 
-0.71554566118 -0.69555275555 -0.064813355201 -0.73356324772 -0.67690394459 -0.060712530734 -0.74952297546 -0.65959682456 -0.056101143326 
-0.76395927521 -0.64324019895 -0.051071247102 -0.77658370908 -0.62836352154 -0.045574418074 -0.78761595202 -0.61488912358 -0.039654480591 
-0.79734237909 -0.60260404859 -0.033369014614 -0.80576416408 -0.59163305884 -0.026728927495 -0.81329679167 -0.58151125093 -0.019824069022 
-0.81986567259 -0.5724159968 -0.012657231792 -0.82573709019 -0.5640302977 -0.0052991667447 -0.83112459341 -0.55608194163 0.0021873324944 
-0.83603551503 -0.54858823431 0.0097758267554 -0.84083077876 -0.54101934294 0.017368709155 -0.8455803505 -0.53326600603 0.024924639678 
-0.85025160006 -0.52537713288 0.032420438802 -0.8552570332 -0.51667792677 0.039740749225 -0.86053839941 -0.50722502666 0.046866144098 
-0.86636593851 -0.49651368033 0.053704988943 -0.87268240122 -0.48455884296 0.060234162305 -0.87973261542 -0.47081546909 0.066357512195 
-0.88748414367 -0.45517323221 0.072036264627 -0.89610993721 -0.43707110395 0.077174027528 -0.90541341542 -0.41658465096 0.081754362316 
-0.91569039797 -0.39265919979 0.085614530813 -0.92660869599 -0.36540627439 0.088738825483 -0.93802561036 -0.33439562444 0.091035820814 
-0.94999686 -0.29830866888 0.092292491863 -0.96195389644 -0.25709351159 0.092453379685 -0.97350987428 -0.20962400001 0.091303358635 
-0.98393829015 -0.15495010987 0.088633541199 -0.99221553336 -0.091790302766 0.084159822195 -0.99680819037 -0.018902912774 0.077563596504 
-0.99551488297 0.065348091661 0.0684086595 -0.98517885423 0.16204058229 0.056262552902 -0.96153144242 0.27166531205 0.04068468331 
-0.91889400311 0.39393339775 0.021220018694 -0.85159956835 0.52418933203 -0.0019285693144 -0.75435424212 0.65585942009 -0.028250636675 
-0.62631946194 0.77754439497 -0.056112792202 -0.47329526442 0.87697151991 -0.083141722078 -0.30483973198 0.94634192806 -0.1072832373 
-0.1373631937 0.98241139656 -0.12648794772 0.022585765719 0.9897798057 -0.14080418823 0.16469364916 0.97484876653 -0.15015286985 
0.28957384067 0.9444275203 -0.15557522201 0.39878074198 0.90334715549 -0.15791718236 0.49111435202 0.85668736085 -0.15777661103 
0.57082326685 0.8061517657 -0.15582082232 0.64021596364 0.75291589757 -0.15245055295 0.69936635299 0.69927476924 -0.14799155861 
0.75029226072 0.6455232966 -0.14269266641 0.79428122346 0.59196504498 -0.13672864949 0.83168571668 0.53974452823 -0.1302870405 
0.86339565048 0.48917881087 -0.12349915677 0.89009197684 0.44064605931 -0.11647885295 0.91221582734 0.39484680845 -0.10935393088 
0.93054207233 0.35164025395 -0.10217917314 0.94529543663 0.31204721917 -0.095095060307 0.95738829736 0.27505018432 -0.088062728662 
0.96692635206 0.24177790861 -0.08122113395 0.97463103704 0.21105527471 -0.074498407033 0.98067483298 0.18345690788 -0.067973781074 
0.98544266808 0.15844617657 -0.061624321961 0.98922959729 0.13547657824 -0.055415707138 0.99214259591 0.11494523406 -0.049403062107 
0.99439324276 0.096358842764 -0.043555162357 0.996095709 0.079735340781 -0.037889496428 0.99738748232 0.064580050798 -0.03236706895 
0.99829598136 0.051691751372 -0.027075753657 0.99892916224 0.040704568065 -0.021992429686 0.99934153175 0.031969955053 -0.017158813897 
0.99959841061 0.025395866438 -0.012572488417 0.99973083813 0.021661152034 -0.0083093792272 0.99977817625 0.020605741973 -0.0043590936583 
0.99975372213 0.022180461682 -0.00072263332185 0.99963609982 0.026854455549 0.0025507160746 0.99940742727 0.033975077432 0.005521633555 
0.99901090552 0.043709239646 0.0081678039785 0.99839387705 0.055667610461 0.010525370031 0.99757093676 0.068485118327 0.012728499269 
0.99647544833 0.082581047463 0.014732667221 0.99519375813 0.096493835029 0.016683032851 0.9938134375 0.10948475861 0.01865312519 
0.99251858265 0.12031361154 0.020772529289 0.99142932458 0.12858851171 0.023084389005 0.99077424519 0.13305950223 0.025720885155 
0.99057066406 0.13397126177 0.02866113248 0.99101737639 0.12983342062 0.032059984283 0.99191698138 0.12173001525 0.035812085194 
0.99324346659 0.10894046423 0.039992390891 0.99467113749 0.093028111579 0.04444208253 0.99600973613 0.074518961169 0.049107331055 
0.99700701729 0.055539816614 0.053780444834 0.9976202004 0.036620842985 0.058419599547 0.99782055944 0.020296716691 0.062786737891 
0.99773782909 0.0074353354871 0.066812724744 0.99752431046 7.1866278244e-05 0.070322435111 0.99731410509 -0.00085883738488 0.073238228935 
0.99712946963 0.0043510588567 0.075590271056 0.99685848389 0.017879374237 0.077158869029 0.99620751189 0.038490662954 0.078032442752 
0.9946934247 0.066981327495 0.078092846236 0.99170867885 0.10261911571 0.0773512339 0.98645347751 0.14552231306 0.075715210523 
0.97832123085 0.1936836467 0.073309032605 0.96618269909 0.24819893842 0.069916227981 0.94992320968 0.30546627679 0.06585020461 
0.92853398754 0.36621272899 0.06093333333 0.90210873606 0.4279388798 0.055390824784 0.87111765121 0.48857845976 0.049448219401 
0.83502505177 0.54852890139 0.043002409951 0.79543274535 0.60494384083 0.036465011623 0.75267061292 0.65771930717 0.02987074518 
0.70721323029 0.70661689829 0.023281021307 0.66105382155 0.75014503331 0.017037429727 0.61305997491 0.78996171126 0.010861026588 
0.56545918196 0.8247604704 0.0051068576615 0.51745989758 0.85570735476 -0.00042119210698 0.47049027232 0.88238785424 -0.0055297696617 
0.42499426126 0.90513859147 -0.010198437573 0.37947144327 0.92508660786 -0.014703458671 0.33558788762 0.94182090433 -0.01881897588 
0.29081272791 0.95650470426 -0.022950120186 0.24897893544 0.96814470126 -0.026557995752 0.20711963843 0.97785253897 -0.030097631281 
0.16773119688 0.98527231962 -0.033237054286 0.12809856098 0.9910942579 -0.036372113285 0.090901619625 0.99508991088 -0.039153094612 
0.057034708466 0.99750995276 -0.041484167866 0.023720359424 0.99876086805 -0.043750119913 -0.0037276087614 0.99896766552 -0.045273702837 
-0.026889204486 0.99856646653 -0.046281558013 -0.042830860756 0.99800362878 -0.046414160584 -0.050660552037 0.9976757185 -0.045570485798 
-0.047523396117 0.99792725835 -0.043390250781 -0.032547658136 0.99867943059 -0.03974977827 -0.0039088854299 0.9994011351 -0.03438156152 
0.038109397474 0.99890157523 -0.027263837496 0.093190026102 0.99547903706 -0.018360441543 0.15852801609 0.98732246104 -0.0079514798405 
0.22634527562 0.97404250611 0.0030020822885 0.29334139071 0.95590376638 0.014100280445 0.35370384258 0.93503471783 0.024569660318 
0.40599699687 0.91323345055 0.034221386974 0.44960385949 0.89219354044 0.04297738858 0.48388546858 0.87365807369 0.050758482763 
0.51138780142 0.85739397291 0.057949044666 0.53278071582 0.84377868139 0.06467028436 0.54971756577 0.83231182861 0.071187202809 
0.56376755012 0.82226545973 0.077753862736 0.57500801144 0.81378241682 0.084403583161 0.58543188222 0.80554845674 0.091439570898 
0.59435910687 0.79811140055 0.098769653194 0.60367025959 0.7900664402 0.10666413527 0.61242489854 0.78212333186 0.11497320301 
0.62207374406 0.77309665512 0.12387824181 0.63243524231 0.76305541019 0.13331205974 0.64367627206 0.75177234631 0.1432452307 
0.65638404463 0.73860603641 0.15369160331 0.67025216938 0.72366727036 0.164522677 0.68635672347 0.70570037411 0.17578802611 
0.70420949466 0.68483999317 0.18730502233 0.72436314918 0.6600688423 0.1990154555 0.74706976921 0.63043724619 0.21079762461 
0.77232863173 0.59499300596 0.22246754251 0.80057635063 0.55171862585 0.23384624158 0.83137502064 0.49898968449 0.24459123009 
0.86431989831 0.43394765421 0.25424505262 0.89800086443 0.3534304515 0.26207129458 0.9296419465 0.25396816061 0.26695697165 
0.95455708157 0.13188621625 0.26725793532 0.96527865384 -0.013687805457 0.26086349767 0.95272343563 -0.17872840539 0.24571164463 
0.90914438296 -0.3532026784 0.22069064071 0.8330683399 -0.52057457677 0.18708086775 0.7317365722 -0.66520849283 0.14852356707 
0.6177911893 -0.77868193633 0.10949195615 0.50345103518 -0.86088798431 0.073545452977 0.39657837271 -0.91701707384 0.042488593475 
0.29978184656 -0.95386601248 0.016446115393 0.21505914321 -0.97659079878 -0.0044695249241 0.14033628666 -0.9898742268 -0.021324675149 
0.074419544736 -0.99662079565 -0.034766665573 0.015938404927 -0.9988406979 -0.045422763775 -0.037246408242 -0.99784030049 -0.054105820252 
-0.085316295793 -0.99448537254 -0.060991585287 -0.13011451431 -0.98925006938 -0.066742141104 -0.17201990433 -0.98249119622 -0.07155558589 
-0.21191331925 -0.97434678768 -0.075769931113 -0.25026695336 -0.96490005906 -0.079588492114 -0.2874951675 -0.95416269574 -0.08318701059 
-0.32478764155 -0.94178024174 -0.086965304439 -0.36082900947 -0.92822446337 -0.090563632508 -0.39753762468 -0.91269780367 -0.094586236544 
-0.43349794262 -0.89574125385 -0.098626263683 -0.46969940119 -0.87679746204 -0.10299846157 -0.50481199124 -0.8565338701 -0.10730602438 
-0.54082468562 -0.83362347289 -0.11216311725 -0.57454744078 -0.8101257496 -0.11658262358 -0.60873636984 -0.78402634685 -0.12141960091 
-0.64031322507 -0.75775981438 -0.12569422231 -0.67056710817 -0.73040507967 -0.12980051247 -0.69913721945 -0.70239314055 -0.13360772618 
-0.72605111734 -0.67383308449 -0.13710853095 -0.75046945283 -0.64590663954 -0.14000076202 -0.77369697477 -0.61727290463 -0.1427135328 
-0.79421932803 -0.59014990134 -0.14470229066 -0.81422196611 -0.56170388692 -0.14673558982 -0.83235818842 -0.53402213789 -0.1483246521 
-0.84952883671 -0.50582500014 -0.14980595724 -0.86536860895 -0.47783038968 -0.15104730831 -0.88100857613 -0.44783934993 -0.15252476991 
-0.89592151436 -0.41663981049 -0.1540646242 -0.91005797495 -0.38413024824 -0.15568697637 -0.92401845707 -0.34829492427 -0.15773565455 
-0.93726056434 -0.30971689553 -0.16005648736 -0.94951658438 -0.26827430762 -0.16262580318 -0.9611696911 -0.22053673325 -0.16588060221 
-0.97077049005 -0.17026503288 -0.16915813378 -0.97845285508 -0.11273039086 -0.17297938998 -0.98287464476 -0.05263090743 -0.17659960436 
-0.98356982486 0.011969787063 -0.18013085196 -0.98012309326 0.076571411984 -0.18301787049 -0.97266308051 0.14014617876 -0.1851636584 
-0.96215542931 0.19884876246 -0.18632256843 -0.95015318594 0.24988731481 -0.18645442646 -0.93915043796 0.28908997097 -0.18553555875 
-0.93109277016 0.31512858617 -0.18373956442 -0.92700720558 0.3283422089 -0.1812430265 -0.92829716506 0.32645328739 -0.17802422443 
-0.93442651623 0.31069880959 -0.17410725282 -0.94444345233 0.28166722102 -0.16938164585 -0.95651518475 0.24138281503 -0.16374687158 
-0.9688162504 0.19162160091 -0.15708671183 -0.97974697419 0.13347738098 -0.1492637107 -0.98753150432 0.071160649371 -0.14041969219 
-0.99140880767 0.0066454501011 -0.13063083119 -0.99105934569 -0.058264797439 -0.12002744141 -0.98664404858 -0.1211669386 -0.10886732476 
-0.97868856323 -0.18080626839 -0.097353939417 -0.9679578063 -0.23603103163 -0.085714860603 -0.95496865654 -0.28733008027 -0.074001959419 
-0.94031950766 -0.33453267488 -0.062346715704 -0.92502832985 -0.3764562847 -0.051022100009 -0.90914005211 -0.41457033963 -0.039947454899 
-0.89320755912 -0.44869159584 -0.029259325991 -0.87762551217 -0.47896839511 -0.019045652478 -0.86244327607 -0.50606809651 -0.0093100622632 
-0.84763431353 -0.53058087732 -5.6183376158e-05 -0.83405960196 -0.5516091076 0.0084836772906 -0.82124020722 -0.57034650455 0.016413006522 
-0.80907033652 -0.58723266281 0.023727416605 -0.79822083661 -0.60160495861 0.030248467339 -0.78912684822 -0.61318237823 0.035863469687 
-0.78016839669 -0.62423142193 0.040895044657 -0.77299381559 -0.63281764027 0.044971048741 -0.76737370014 -0.63939166989 0.048123765496 
-0.7628623473 -0.64459146642 0.050426981808 -0.7628623473 -0.64459146642 0.050426981808 
BinormalArray 3 320 double
0.41119631172 0.9020611158 0.13116149047 0.41119631172 0.9020611158 0.13116149047 0.41585521259 0.89982810002 0.13180983493 
0.41484166234 0.90031648917 0.13166857835 0.41356194109 0.90093123846 0.131489256 0.41450365117 0.90047895413 0.13162209667 
0.41498495357 0.90024724047 0.13169052487 0.41566577555 0.89991878663 0.13178824115 0.41613017583 0.89969426582 0.13185562107 
0.41720306912 0.8991741385 0.13201313484 0.41904619835 0.89827636003 0.132287054 0.42002555957 0.89779710319 0.13243447745 
0.42323313596 0.89621708263 0.13292348714 0.42540648705 0.89513762823 0.13325894831 0.42996826296 0.89284878516 0.13397141372 
0.4362390198 0.8896522309 0.13496083009 0.4446500365 0.88527332449 0.13629925161 0.45710434359 0.8785958568 0.13829294807 
0.47490947741 0.8686412867 0.14114993202 0.50249799983 0.85223661978 0.14556271525 0.54712689397 0.82302049771 0.15260872267 
0.62213122001 0.7655294948 0.16406504102 0.75843555185 0.6255164591 0.18304281762 0.94777335024 0.24880506988 0.19955378669 
0.87172370548 -0.46786545204 0.14560116791 0.54753489165 -0.83447120599 0.062155842824 0.35807147262 -0.93348586226 0.019722207414 
0.27561306562 -0.9612662984 0.0021311075625 0.25071487237 -0.96805609124 -0.0030752201653 0.25761420092 -0.96624646167 -0.0016427982263 
0.28704427143 -0.9579068927 0.0044689105219 0.33425564343 -0.94237349431 0.014330459095 0.39549970519 -0.91806146086 0.027260544432 
0.46694720485 -0.88325966711 0.042575442892 0.54159767829 -0.83857293056 0.058884590511 0.61824873554 -0.7822977165 0.07601831203 
0.68891679519 -0.71894763662 0.092238522888 0.7492208729 -0.65370529623 0.106477553 0.79911729135 -0.58935930224 0.11860509062 
0.83714482653 -0.53176811364 0.12810625564 0.86552454394 -0.48222771951 0.13536502637 0.8856111328 -0.44263698492 0.14058954812 
0.89828397197 -0.4151828624 0.14390655463 0.90671796623 -0.39562203807 0.14610178885 0.91071070841 -0.38595460134 0.14712257234 
0.91116484045 -0.38483822112 0.1472351082 0.90897850297 -0.39016990372 0.14671580479 0.90446760123 -0.40088721628 0.14569762574 
0.89661182092 -0.41874114414 0.14402463953 0.88724101208 -0.43885850791 0.14214990865 0.87534531563 -0.4628102064 0.13991887382 
0.86120947827 -0.48931532583 0.13743633597 0.84552212103 -0.51662944841 0.1348567977 0.82778691449 -0.54526293292 0.13212553948 
0.80891874398 -0.5735025548 0.12940357519 0.78870116352 -0.6015852109 0.126671657 0.76824312103 -0.62801718895 0.12408431556 
0.74755912873 -0.65296175204 0.12164004036 0.72660037329 -0.67661799695 0.11933140302 0.70649855817 -0.69793003177 0.11727513827 
0.68696369889 -0.71746568901 0.11542903228 0.66864114903 -0.73481932042 0.1138401518 0.65168426475 -0.7501004533 0.11250301788 
0.63570675004 -0.76385444129 0.11137019564 0.62124210447 -0.77579410799 0.1104615302 0.60821669836 -0.78614707104 0.10975076547 
0.59642082654 -0.7952082496 0.10920639837 0.58598244024 -0.80298444292 0.1088143564 0.57643739298 -0.80990070613 0.1085392933 
0.56796508879 -0.81588696047 0.10837031723 0.560247632 -0.82121665351 0.10828572774 0.55301105648 -0.82610893927 0.10827184245 
0.54627151374 -0.83057462849 0.10831998794 0.53949374208 -0.83497876354 0.1084295472 0.53256492602 -0.83939260296 0.10860321207 
0.52553076145 -0.84378376718 0.10884104474 0.51770728423 -0.84856385878 0.10917209086 0.50914707942 -0.85367215597 0.10960429568 
0.49933649856 -0.85937438968 0.11017585747 0.48828564536 -0.86560861108 0.11090022976 0.47543971685 -0.8726118359 0.11182870604 
0.46068227678 -0.88034437114 0.11298507892 0.44344257588 -0.88896842447 0.11442824037 0.42379147791 -0.89827998411 0.11616304658 
0.40066073749 -0.90855838896 0.11829043612 0.37415740106 -0.91946367334 0.12080063177 0.3438419729 -0.930840813 0.12372581998 
0.30837982719 -0.94272431462 0.12717212278 0.26771190425 -0.95453745293 0.13110525268 0.22069501784 -0.96587451842 0.13557331508 
0.16636179672 -0.97599336468 0.14057277367 0.10340746746 -0.98385293179 0.14608321016 0.030562501674 -0.98790590029 0.15201271546 
-0.053848030505 -0.98593692473 0.15820483578 -0.15094712698 -0.97478830586 0.16432505473 -0.2612795856 -0.95020584788 0.1698288103 
-0.38462349152 -0.90654502396 0.17389907794 -0.51635710578 -0.83823019412 0.17534389349 -0.64992477153 -0.74008329297 0.17284244508 
-0.77385398692 -0.61141932787 0.16527677521 -0.87570728806 -0.45816627318 0.15238245225 -0.94750472797 -0.28993092588 0.13481412642 
-0.98575904575 -0.12307741411 0.11459081057 -0.99501370957 0.035940549415 0.093037598173 -0.98157271452 0.17694317686 0.072153435649 
-0.95229848342 0.30062713168 0.052449272443 -0.91207529661 0.40859991079 0.03412867136 -0.86599994146 0.499727841 0.017781628917 
-0.81584601241 0.5782615895 0.0029695348326 -0.76282941857 0.64651408456 -0.010526947959 -0.70926211348 0.70458436215 -0.022541761135 
-0.65546970605 0.75448569609 -0.03332864909 -0.60177630625 0.79750399903 -0.043042406552 -0.5493391544 0.83400142497 -0.051653814828 
-0.4984899976 0.86486712629 -0.05926699039 -0.44961876962 0.89078215127 -0.065955446962 -0.40343627284 0.91219089798 -0.07174217309 
-0.35981126957 0.92986305396 -0.076749926197 -0.31977355554 0.94402875136 -0.080960421149 -0.2823116269 0.95558811455 -0.084566545628 
-0.24856223594 0.96465246415 -0.08753535443 -0.21735299552 0.97193146471 -0.090038343246 -0.18926417384 0.97759882008 -0.092084849339 
-0.16376165948 0.98203366147 -0.093765700718 -0.14029990383 0.98552587382 -0.09515612971 -0.11928003758 0.98818255124 -0.096267949336 
-0.10020927074 0.99021109048 -0.097160168508 -0.083107786569 0.99172404039 -0.097859713514 -0.067480198511 0.99285539331 -0.098410318524 
-0.054130174885 0.9936332038 -0.098807795574 -0.04269186679 0.99416238215 -0.099088659455 -0.033519388906 0.99449598498 -0.0992682549 
-0.026521194828 0.99469683013 -0.099372241365 -0.022380494897 0.99479429342 -0.099415427521 -0.020937148543 0.99482480604 -0.099424549797 
-0.022142399887 0.99479901398 -0.099421506265 -0.026467962294 0.99469292315 -0.099425527901 -0.033258313155 0.99448628576 -0.099453064528 
-0.042681602014 0.99411995939 -0.099517773278 -0.054346648566 0.99353956871 -0.099627140821 -0.066881769694 0.99275984015 -0.099773386545 
-0.080708367318 0.99171233347 -0.099964028978 -0.094357909674 0.99048505438 -0.1001795485 -0.10708830095 0.98916669337 -0.10040591878 
-0.11765333003 0.98794441244 -0.1006157635 -0.12565938691 0.9869399766 -0.10079286219 -0.12985095771 0.98638669024 -0.10089611538 
-0.13047421384 0.98630269165 -0.10091322987 -0.12603301157 0.98689394416 -0.10077709546 -0.11761657052 0.98796169641 -0.10048894851 
-0.10450232499 0.98948554526 -0.099988098218 -0.088260789935 0.99113566229 -0.09929819687 -0.069420780613 0.9927213481 -0.098412805307 
-0.050116434999 0.99398109316 -0.097416268541 -0.030878654978 0.99486995487 -0.096334218025 -0.014248182832 0.99534431119 -0.095324138997 
-0.0010927596684 0.99552711997 -0.094469885615 0.0065510843178 0.99555587295 -0.093944596086 0.0077498539086 0.99555539887 -0.09385833765 
0.0027990511761 0.99554673532 -0.094227719455 -0.010481041662 0.99539869035 -0.095244921188 -0.030852430053 0.994822543 -0.096830963578 
-0.059113087344 0.9933254016 -0.099046905215 -0.094531871327 0.99030134736 -0.10181830243 -0.13723116275 0.98494515522 -0.10512206798 
-0.18520549239 0.97666271845 -0.10876056261 -0.23955822725 0.96431125451 -0.11276373612 -0.29668715118 0.94780369021 -0.11681138276 
-0.35732687822 0.92612080773 -0.12090389406 -0.41897825094 0.89937583791 -0.12482118176 -0.47957295172 0.86805665287 -0.12840339323 
-0.53951303774 0.83162111354 -0.13165107532 -0.59594323444 0.79169944124 -0.13440110142 -0.64875823523 0.7486225586 -0.13666388325 
-0.69771747278 0.70286770053 -0.13844610408 -0.74131726769 0.65644807445 -0.1397305771 -0.78122302906 0.60821134686 -0.14060418351 
-0.81611478565 0.56040520229 -0.14107680848 -0.84716359503 0.51222384344 -0.14121110959 -0.87394624762 0.46510526303 -0.14104981596 
-0.89679647735 0.41949262176 -0.14064856379 -0.9168507419 0.37386745784 -0.14002800096 -0.93368804578 0.32990780287 -0.13923891255 
-0.94848733306 0.28505795864 -0.1382524475 -0.96023216221 0.2431810771 -0.13717564797 -0.97005212278 0.2012827845 -0.13595631564 
-0.97757631798 0.16187757671 -0.1346855326 -0.9835112986 0.12222687895 -0.13328959295 -0.98761263928 0.085029747913 -0.13187576235 
-0.99012529293 0.051184998403 -0.13050670574 -0.99147198496 0.017892722401 -0.12908583784 -0.99174601381 -0.0094956046189 -0.12786585779 
-0.99139223881 -0.032573340501 -0.12680854197 -0.9908399974 -0.048386777341 -0.12607465779 -0.99048155333 -0.056037808911 -0.12572213998 
-0.99064825238 -0.052649764912 -0.12587311993 -0.9912622005 -0.037341334344 -0.12651037349 -0.99179269114 -0.0082684563207 -0.12758875509 
-0.99106429517 0.03429217965 -0.12890154868 -0.98739464133 0.09003226032 -0.13017685803 -0.97900253852 0.15613667922 -0.1310548243 
-0.96553409352 0.22477257527 -0.1312295838 -0.94726489351 0.29261724862 -0.13063065232 -0.92632572123 0.35380915408 -0.12938214978 
-0.90450281411 0.40690075716 -0.12769664479 -0.88347532028 0.45127045787 -0.12580275161 -0.8649703401 0.48627488425 -0.12394776197 
-0.84874822403 0.51448884793 -0.12217887526 -0.8351800637 0.53659367073 -0.12058811602 -0.82376661917 0.55426522413 -0.11915795595 
-0.81378601995 0.5690954099 -0.11782498956 -0.80538195422 0.58116894516 -0.11663003469 -0.7972575154 0.592505823 -0.11540062323 
-0.78996012265 0.60242469533 -0.11422561477 -0.7821101712 0.61283075749 -0.11288110018 -0.77441603476 0.62277761522 -0.11148025425 
-0.76572031889 0.63373220607 -0.10979929067 -0.75610148787 0.64551026467 -0.107828745 -0.74534666204 0.65827672336 -0.10549933111 
-0.73283792722 0.67261644616 -0.10264350334 -0.71869202067 0.6882085134 -0.099251304832 -0.7016924421 0.70611975486 -0.094987412362 
-0.6819760753 0.7258357619 -0.089839186644 -0.6585579172 0.7478825476 -0.083505477038 -0.63051790007 0.77247497288 -0.075694081453 
-0.59693097 0.79956391381 -0.066113272389 -0.55583876698 0.8295221637 -0.054187129872 -0.50565757643 0.86183098071 -0.039468672299 
-0.44360229141 0.89597287503 -0.021204109568 -0.3665775854 0.93038647136 0.0013739693411 -0.2711637749 0.96209606481 0.029006365918 
-0.15370126402 0.98614979384 0.062325801569 -0.013187343494 0.99479946191 0.10099566599 0.14667279163 0.97876034066 0.14323158778 
0.31632929367 0.93028818055 0.18574089237 0.47979197279 0.84830545279 0.22400339645 0.6217446846 0.74073686868 0.25444535474 
0.73373485804 0.62091878967 0.2758496234 0.81537697956 0.50153959606 0.28916848857 0.87152231081 0.390636612 0.2963982104 
0.90870263216 0.29075234321 0.29953731191 0.9318833745 0.20384061287 0.30007062647 0.94565906789 0.12762508905 0.29906648754 
0.95288578703 0.060786916174 0.29717608871 0.9555555682 0.0018412946288 0.29480530137 0.95498678768 -0.051487820717 0.29214592187 
0.95203809149 -0.099422165478 0.28937640776 0.94720617393 -0.14391475539 0.28651179251 0.94085144246 -0.18538447711 0.28360387669 
0.93312333602 -0.22477142395 0.28063970987 0.92411059885 -0.26258579321 0.27761178344 0.91382915929 -0.29927436394 0.27450158966 
0.90193896715 -0.33609069226 0.27119945817 0.88889340448 -0.37167046857 0.26782378211 0.87391728323 -0.40802314688 0.26416981978 
0.85753360505 -0.44367465158 0.26036305374 0.83919610738 -0.47966096204 0.25627183782 0.8195558657 -0.51459327269 0.25203560601 
0.79731057277 -0.55054936934 0.24736863679 0.77448125838 -0.58419263469 0.2426885782 0.7490877058 -0.61840284644 0.23758267726 
0.72352544745 -0.64995554124 0.23252681845 0.69688759342 -0.68019550869 0.22733620937 0.66959916981 -0.7087406259 0.22208934461 
0.64176801135 -0.73561541005 0.21680357034 0.6145601317 -0.75993409539 0.21169793383 0.5866515493 -0.7830636671 0.20652179781 
0.56023281115 -0.80340810172 0.20167949671 0.53250282356 -0.82326626585 0.19665553239 0.50552469055 -0.84121888422 0.19182172993 
0.47803140213 -0.85821680967 0.18694888656 0.4507320756 -0.87387539335 0.18216034948 0.42144810861 -0.88939722986 0.17707077472 
0.3909586615 -0.90423019737 0.17181116133 0.3591616916 -0.91832873359 0.16635869784 0.32405931181 -0.93234637174 0.16036148393 
0.28622994531 -0.94571979419 0.15390415618 0.24555374258 -0.95818016306 0.14694942878 0.19863575891 -0.97018289333 0.13888480393 
0.14920795548 -0.98018106793 0.13031523352 0.092594540923 -0.9884001191 0.12038046166 0.033457633964 -0.99338573754 0.10984244709 
-0.030110222198 -0.99469994353 0.098312750228 -0.093650419599 -0.9918348067 0.086563936604 -0.15614533681 -0.98489910457 0.074782268047 
-0.21379968773 -0.97479756821 0.063713378073 -0.26386655609 -0.96304903046 0.053953734819 -0.30224265536 -0.95210116609 0.046397702676 
-0.32762976915 -0.94389937423 0.041384848621 -0.34036537429 -0.93948897017 0.038882990021 -0.33819574756 -0.94025469798 0.039303171083 
-0.32232412477 -0.94568363186 0.042303983413 -0.29330440379 -0.95483285921 0.047610268867 -0.25310612296 -0.96589336044 0.054656260097 
-0.20345602375 -0.97705946157 0.062932145735 -0.14540906097 -0.98674384005 0.072061078971 -0.083121964742 -0.99322273087 0.081236357993 
-0.018544524896 -0.9957613832 0.090085339149 0.046534274811 -0.99406646645 0.09831796149 0.10971853265 -0.98833348589 0.10563505225 
0.16974908404 -0.97910934064 0.11193814161 0.22546431546 -0.96717853504 0.11718158481 0.2773407629 -0.95305896045 0.12149370003 
0.32519486096 -0.93735720434 0.12493908067 0.36782636455 -0.92110765635 0.12753215654 0.40669503072 -0.90434446612 0.12946134015 
0.44160244776 -0.88762491069 0.13080250786 0.47268283499 -0.87134326408 0.13165049812 0.50059331916 -0.85554345495 0.1321049791 
0.52591467237 -0.84019377855 0.1322428519 0.5477269916 -0.82615747599 0.13213238639 0.56722046794 -0.81294510811 0.13183774853 
0.58482585299 -0.80044492652 0.13140259234 0.59986046986 -0.78932481781 0.13089594605 0.61202710241 -0.78001404731 0.13038754508 
0.62360711564 -0.77088332818 0.1298193347 0.63263312003 -0.76357841141 0.12931877311 0.63955185977 -0.7578643558 0.12889932845 
0.64500181544 -0.75329161871 0.12854724908 0.64500181544 -0.75329161871 0.12854724908 
