# vtk DataFile Version 4.1
vtk output
ASCII
DATASET POLYDATA
POINTS 148 float
17.8857 -22.7699 94.166 17.9546 -22.8436 92.0219 18.0237 -22.9171 89.8778 
18.0941 -22.99 87.7331 18.1666 -23.0617 85.5875 18.2419 -23.1318 83.4404 
18.3212 -23.1998 81.291 18.4051 -23.2651 79.1384 18.4946 -23.3274 76.9809 
18.5904 -23.3862 74.817 18.6935 -23.4411 72.6443 18.8047 -23.4917 70.4602 
18.9246 -23.5377 68.2618 19.0541 -23.5785 66.0456 19.1938 -23.614 63.808 
19.3445 -23.6437 61.5451 19.5068 -23.6673 59.2528 19.6811 -23.6845 56.9271 
19.8681 -23.6949 54.564 20.0682 -23.6981 52.1596 20.2816 -23.6938 49.7104 
20.5086 -23.6816 47.2132 20.7494 -23.6612 44.6654 21.004 -23.632 42.0648 
21.2723 -23.5938 39.41 21.554 -23.5459 36.6999 21.8487 -23.4881 33.9346 
22.1559 -23.4199 31.1145 22.4748 -23.3407 28.2411 22.8046 -23.2503 25.3161 
23.1443 -23.1482 22.3423 23.4925 -23.034 19.323 23.8479 -22.9074 16.262 
24.2089 -22.7682 13.1637 24.5738 -22.616 10.0328 24.9407 -22.4506 6.87453 
25.3077 -22.2721 3.69437 25.6725 -22.0804 0.498002 26.033 -21.8754 -2.70877 
26.387 -21.6574 -5.92005 26.7321 -21.4265 -9.12998 27.0661 -21.183 -12.3328 
27.3866 -20.9273 -15.5229 27.6914 -20.6598 -18.695 27.9783 -20.381 -21.844 
28.2454 -20.0914 -24.9651 28.4907 -19.7917 -28.0541 28.7125 -19.4825 -31.1071 
28.9093 -19.1645 -34.1208 29.0797 -18.8384 -37.0922 29.2227 -18.505 -40.0189 
29.3375 -18.165 -42.899 29.4234 -17.8193 -45.731 29.4801 -17.4686 -48.5141 
29.5076 -17.1137 -51.2476 29.5061 -16.7554 -53.9315 29.4759 -16.3944 -56.5659 
29.4177 -16.0315 -59.1515 29.3324 -15.6673 -61.6891 29.221 -15.3026 -64.1799 
29.0847 -14.938 -66.6251 28.9249 -14.5741 -69.0264 28.7431 -14.2116 -71.3853 
28.5408 -13.8509 -73.7036 28.3197 -13.4926 -75.9832 28.0813 -13.1371 -78.2261 
27.8275 -12.7848 -80.4343 27.5599 -12.4361 -82.6097 27.2801 -12.0913 -84.7543 
26.9897 -11.7508 -86.8702 26.6903 -11.4147 -88.9592 26.3835 -11.0834 -91.0233 
26.0705 -10.757 -93.0642 25.7528 -10.4357 -95.0836 25.4315 -10.1197 -97.0829 
25.1078 -9.80914 -99.0635 24.7827 -9.50417 -101.027 24.4573 -9.20494 -102.973 
24.1324 -8.91161 -104.904 23.8087 -8.62434 -106.819 23.4872 -8.34329 -108.719 
23.1682 -8.06865 -110.605 22.8526 -7.8006 -112.474 22.5408 -7.53936 -114.329 
22.2333 -7.28512 -116.166 21.9304 -7.03812 -117.987 21.6327 -6.79856 -119.789 
21.3403 -6.56669 -121.573 21.0536 -6.34271 -123.336 20.7727 -6.12684 -125.079 
20.498 -5.91927 -126.799 20.2294 -5.72018 -128.497 19.967 -5.52971 -130.171 
19.711 -5.348 -131.821 19.4611 -5.17512 -133.447 19.2174 -5.01114 -135.049 
18.9796 -4.85608 -136.627 18.7476 -4.7099 -138.182 18.5212 -4.57256 -139.716 
18.2999 -4.44397 -141.229 18.0835 -4.32399 -142.724 17.8715 -4.21247 -144.202 
17.6636 -4.10924 -145.667 17.4593 -4.01409 -147.12 17.258 -3.92681 -148.565 
17.0594 -3.84719 -150.006 16.863 -3.775 -151.445 16.6683 -3.71001 -152.886 
16.4748 -3.65203 -154.333 16.2822 -3.60085 -155.789 16.0901 -3.55628 -157.259 
15.8982 -3.51817 -158.745 15.7061 -3.48638 -160.25 15.5138 -3.46078 -161.779 
15.3212 -3.44127 -163.334 15.1281 -3.42776 -164.918 14.9346 -3.4202 -166.533 
14.7409 -3.41853 -168.181 14.5471 -3.42269 -169.865 14.3536 -3.43265 -171.585 
14.1608 -3.44836 -173.342 13.9692 -3.46975 -175.138 13.7792 -3.49676 -176.971 
13.5915 -3.52931 -178.843 13.4067 -3.56727 -180.752 13.2256 -3.61052 -182.697 
13.0488 -3.65888 -184.677 12.8772 -3.71217 -186.691 12.7115 -3.77014 -188.737 
12.5524 -3.83255 -190.813 12.4006 -3.89912 -192.916 12.2568 -3.96954 -195.044 
12.1216 -4.04349 -197.196 11.9955 -4.12064 -199.368 11.8788 -4.20064 -201.559 
11.7719 -4.28316 -203.766 11.6748 -4.36785 -205.987 11.5877 -4.4544 -208.22 
11.5104 -4.5425 -210.463 11.4425 -4.63187 -212.715 11.3838 -4.72226 -214.974 
11.3335 -4.81344 -217.239 11.2909 -4.90522 -219.508 11.2553 -4.99744 -221.781 
11.2255 -5.08997 -224.057 11.2004 -5.18269 -226.335 11.1789 -5.27554 -228.614 
11.1597 -5.36846 -230.894 
LINES 1 149
148 147 146 145 144 143 142 141 140 139 138 137 136 135 134 133 132 131 130 129 128 127 126 125 124 123 122 121 120 119 118 117 116 115 114 113 112 111 110 109 108 107 106 105 104 103 102 101 100 99 98 97 96 95 94 93 92 91 90 89 88 87 86 85 84 83 82 81 80 79 78 77 76 75 74 73 72 71 70 69 68 67 66 65 64 63 62 61 60 59 58 57 56 55 54 53 52 51 50 49 48 47 46 45 44 43 42 41 40 39 38 37 36 35 34 33 32 31 30 29 28 27 26 25 24 23 22 21 20 19 18 17 16 15 14 13 12 11 10 9 8 7 6 5 4 3 2 1 0 

CELL_DATA 1
FIELD FieldData 2
LengthArray 1 1 double
328.03662893 
TortuosityArray 1 1 double
0.0074990423984 
POINT_DATA 148
FIELD FieldData 8
RadiusArray 1 148 double
63.211717549 63.170323661 62.869478982 62.815608841 62.320915682 62.163264451 62.143755808 62.122910827 62.085422456 
61.991595197 61.98791891 61.874267074 61.77520099 61.734146294 61.548502001 61.462912292 61.4333999 61.380616881 
61.216546141 60.972480573 60.925832644 60.71885459 60.541455037 60.254455056 60.159115677 59.687574765 59.591487519 
59.386730324 59.043190371 59.020833643 58.907223055 58.787927923 58.521722661 58.238344932 58.155752842 58.027076835 
57.461626244 57.394376235 56.874137081 56.848359045 56.631288367 56.304679646 56.118201579 55.800143599 55.785292725 
55.756137233 55.73564481 55.737853794 55.864089742 56.034840643 56.049445664 55.811376571 55.503572044 55.358039919 
54.908678473 54.770456612 54.074839519 54.043065303 53.866488133 53.474201996 53.463019047 53.039849175 52.871667396 
52.186928747 52.130538575 51.047118854 50.946514645 50.544960515 50.427200615 49.988349517 49.565172723 49.385876656 
49.348954815 49.030497522 48.86396674 48.731730122 48.314967803 48.277541381 47.676600453 47.427419622 47.385101662 
47.149482589 47.100495356 46.963319746 46.948322302 46.710108146 46.557407593 46.501911479 46.482616515 46.500012343 
46.505240624 46.522018775 46.52083175 46.529748798 46.587337403 46.716106072 46.733521338 46.766052861 46.791431996 
46.900223662 46.958336722 47.000979905 47.006060155 47.116419034 47.127225531 47.240774041 47.403145565 47.449930874 
47.534658367 47.567804763 47.586266606 47.615440188 47.714589681 48.060972664 48.035798415 48.015032473 47.991031681 
47.980374139 47.967870563 47.97877605 47.997650808 48.012435597 48.100093797 48.170190509 48.285726816 48.367772711 
48.377094989 48.361532302 48.400090048 48.595106043 48.9248144 48.938223636 48.855705302 48.604406526 48.514343819 
48.512695916 48.500435273 48.486076292 48.266197893 48.148915703 47.970250751 47.866005454 47.777006032 47.722735971 
47.423071567 46.98497379 46.639601816 46.538592578 
EdgeArray 2 148 int
6498 6498 9714 8345 9721 9714 8873 9721 3225 
3225 10376 10376 10375 10770 10764 10770 10764 10768 
10769 10769 9707 8670 6945 8670 8043 8870 10054 
8870 3729 3729 10753 10753 12878 10752 10920 12879 
10703 10703 13351 13351 13347 13347 9196 9196 12639 
12640 12910 12910 5598 5598 15581 15581 15572 15576 
15565 15565 16079 16079 15136 16528 16597 16597 17888 
17888 17891 17891 16607 16607 19628 19633 19630 19630 
17246 17246 21448 21448 22218 22218 22221 22221 22539 
22539 22541 22541 20364 20364 23244 23244 23239 18122 
18124 22945 18207 17000 7612 17000 18148 22946 23613 
23613 20918 20918 18503 18503 23302 18484 20306 19683 
24271 24271 24986 12900 24921 25438 25437 25438 24930 
24930 25433 25433 23451 24593 24962 24962 19258 22507 
22666 21546 22666 25661 19218 24157 24156 22676 24160 
22058 24161 21600 22522 22522 23544 23544 22320 22320 
24698 24698 24494 24494 24386 24351 24489 24489 14777 
14777 25639 25639 25642 25642 25686 25686 23870 23870 
24057 24057 21191 21191 26523 26523 26525 26525 26343 
26343 24061 24061 26701 26701 26698 25860 26706 26706 
23714 26083 23714 14487 26314 14487 26777 26777 26632 
24191 26632 26632 24903 23134 27010 24903 20515 26749 
26323 26323 27157 23444 26940 26954 26940 20194 27310 
26948 27310 27310 27436 27436 27430 27430 27678 27677 
27686 27677 27686 27686 27829 27568 27685 27828 27685 
27685 27993 27993 27350 27350 28025 28025 25878 25878 
27662 27662 28198 27660 28077 28077 26912 26912 28069 
28069 24626 24626 28415 28415 28622 28622 28852 28852 
29084 29084 28745 28745 29066 28472 29070 28989 29454 
29454 29811 29811 29715 29463 30082 30082 30347 30331 
30648 30347 30796 30796 30132 30132 30840 30840 31229 
31229 31454 31210 31454 31576 30637 31088 31921 31921 
31814 31814 32588 32588 32547 32547 32063 32063 
EdgePCoordArray 1 148 double
0 0.308 0.16 0.944 0 0 0.152 0.368 0.556 
0 0.024 0.48 0.432 0.18 0 0 0.824 0.748 
0 0 0 0 0.944 0 0 0 0.672 
0 0 0.16 0 0 0 0 0.12 0 
0 0 0 0 0 0 0 0 0.156 
0.244 0.596 0.648 0.696 0 0 0 0.78 0.764 
0 0.936 0.976 0.44 0 0 0.984 0 0.284 
0.196 0.136 0.892 0.292 0.436 0.288 0 0 0 
0 0 0.372 0 0 0 0 0 0 
0 0 0 0 0 0 0 0.204 0 
0.94 0.884 0.988 0 0.748 0 0.768 0.868 0.248 
0 0.596 0.676 0.672 0.14 0 0 0 0.504 
0.292 0 0.036 0.82 0 0 0 0 0 
0 0.896 0 0 0 0 0 0 0 
0 0 0.004 0.268 0 0 0.416 0 0.028 
0.884 0 0 0 0 0.404 0.38 0.172 0 
0 0 0 0 
CurvatureArray 1 148 double
0 7.3663738049e-05 0.00029338293597 0.00051212853837 0.00072793097575 0.00093974802505 0.0011450384124 0.0013401014125 0.0015233768479 
0.001691000132 0.0018392892013 0.0019659590082 0.0020669192562 0.0021419262868 0.0021877976631 0.0022061380875 0.0021982190517 0.0021661731411 
0.0021140143575 0.0020449865898 0.0019635446128 0.0018748787456 0.0017810554469 0.0016875678103 0.0015954238783 0.0015088049566 0.0014279166062 
0.0013559338346 0.0012929295157 0.0012404521133 0.0011996498814 0.0011712749755 0.0011566429542 0.0011564111966 0.0011713954673 0.0012025030561 
0.001249876172 0.0013135131837 0.0013940158109 0.0014902379684 0.0016022238847 0.0017293212362 0.0018708483439 0.0020260746818 0.0021933536871 
0.0023722933613 0.0025605374423 0.0027566658602 0.0029576586531 0.0031606653077 0.0033634138212 0.0035605002543 0.0037494743356 0.0039250261864 
0.004082914795 0.004218597384 0.0043280701141 0.0044075713186 0.0044537726671 0.0044641767751 0.0044378393444 0.0043730437765 0.0042721016199 
0.0041332947366 0.0039621029637 0.0037599471661 0.0035310385345 0.0032807297711 0.0030135428377 0.0027357614038 0.0024533435846 0.0021741724448 
0.0019052913498 0.0016541897421 0.001431502425 0.0012473436462 0.0011123992986 0.0010341272494 0.0010133832891 0.0010406666118 0.0011018874869 
0.0011830028829 0.0012748467374 0.0013696840375 0.0014647825501 0.001560105616 0.001653491278 0.0017481877467 0.0018440429826 0.0019419902844 
0.0020454547698 0.002151949858 0.0022655603382 0.0023851310301 0.0025093232445 0.0026390100438 0.0027726160747 0.0029058158418 0.0030368305375 
0.0031632185019 0.0032803203313 0.0033824055938 0.0034670376166 0.0035314316452 0.003570009223 0.0035829039395 0.0035668457804 0.0035276216701 
0.0034629905452 0.0033776751971 0.0032767204337 0.0031643960481 0.003046805117 0.0029268857228 0.0028111750591 0.0027017328739 0.0026025943174 
0.0025150457828 0.0024393694244 0.0023774559271 0.002328589602 0.0022913553559 0.0022644089472 0.0022482451382 0.0022394479276 0.0022377521202 
0.0022406146619 0.0022463823299 0.0022536397891 0.0022611569011 0.0022644722912 0.0022644043109 0.0022567862658 0.0022394150673 0.0022113417705 
0.0021691198469 0.002110685239 0.0020347582527 0.0019386120058 0.0018221100118 0.0016839385244 0.0015237922614 0.0013424787461 0.0011407492919 
0.00092060057143 0.00068438914951 0.00043489498204 0 
TorsionArray 1 148 double
0 0 -0.000954262768 -0.00024786410815 -0.00084810552227 -0.00093512172704 -0.0011353389403 -0.0015364152167 -0.0017114500222 
-0.0022630121276 -0.0027289410005 -0.003041418149 -0.0035850688131 -0.0042476269794 -0.004856341292 -0.0055568355937 -0.0064664779365 -0.0074585602592 
-0.0085531236802 -0.009743793336 -0.01109814528 -0.012637490336 -0.014250412295 -0.015988411229 -0.017944386651 -0.019968789356 -0.022121576431 
-0.024320492297 -0.026528448 -0.028637270699 -0.030626443136 -0.032271762656 -0.033394017381 -0.033945356844 -0.033867240303 -0.033052785688 
-0.031673304455 -0.029874078556 -0.027740778201 -0.025510493025 -0.023236852089 -0.021089402486 -0.019108278779 -0.017264879528 -0.015615039824 
-0.014180126302 -0.012938404544 -0.011825367134 -0.010870305406 -0.010046778233 -0.0093363372871 -0.008745690078 -0.008246098274 -0.0078554288044 
-0.0075290057979 -0.0072656392288 -0.0071185263242 -0.0070513577578 -0.0070404751409 -0.0071387728927 -0.0073519388452 -0.0076549117729 -0.0081363837142 
-0.0088003375054 -0.0096552236342 -0.010876652303 -0.012413799112 -0.01446860154 -0.017229159815 -0.020905610147 -0.025958604097 -0.03261211084 
-0.041651928419 -0.053926831578 -0.069538948689 -0.087470657619 -0.10353759254 -0.11207875357 -0.10759935842 -0.092364132561 -0.073731369786 
-0.056016010593 -0.041330051115 -0.029666979472 -0.020758334991 -0.013614111583 -0.0081282781147 -0.0037932218091 -8.3419696406e-05 0.0024934687153 
0.0047076900439 0.0065552329246 0.0077388407137 0.0085819722123 0.0091718081573 0.0092731018455 0.0091519703722 0.0091029290301 0.0085694168726 
0.0075687529769 0.006701786561 0.0056808876592 0.0039836810533 0.0023348373209 0.00044787866565 -0.0014874267528 -0.0040845215099 -0.0070112211322 
-0.0095252408883 -0.012666990881 -0.015822678526 -0.019029372106 -0.022080999953 -0.025008156078 -0.027639889831 -0.029759228805 -0.031555463886 
-0.03250155057 -0.032975703545 -0.033110332431 -0.032523259574 -0.031404923406 -0.030212330463 -0.02869319557 -0.026991805884 -0.025266297748 
-0.023431913926 -0.021710617642 -0.020092831115 -0.018401260405 -0.016840104177 -0.01542221471 -0.014009714396 -0.012743737006 -0.011572887459 
-0.010416635324 -0.009379035675 -0.0084065410948 -0.0074582287429 -0.0066538027672 -0.0058691554194 -0.0050351662565 -0.0043206494017 -0.0037256831655 
-0.0030194374864 -0.0023121423839 0 0 
TangentArray 3 148 double
-0.032163046517 0.034303191769 0.9988938029 -0.032163046517 0.034303191769 0.9988938029 -0.032503553662 0.034104987479 0.99888956788 
-0.033250194305 0.033668513945 0.99887980045 -0.034399670966 0.032995421612 0.99886333639 -0.035945192303 0.032086969462 0.99883851024 
-0.037877023554 0.030945847967 0.99880312654 -0.040180259473 0.02957763881 0.99875457948 -0.042834855531 0.027988383469 0.99869005479 
-0.04581723718 0.026187301804 0.99860653212 -0.049096254777 0.024184431999 0.99850121233 -0.052636089804 0.021992282001 0.99837156489 
-0.056396465905 0.019627600377 0.99821550576 -0.060332360043 0.017107518122 0.99803173254 -0.064394791857 0.01445030361 0.99781987328 
-0.068533138185 0.011676573077 0.99758050633 -0.072697930293 0.0088060036139 0.99731512835 -0.076840114324 0.0058565243711 0.99702622731 
-0.080914098202 0.0028443449842 0.99671702023 -0.084878486857 -0.00021653274545 0.99639128638 -0.08869658525 -0.0033142776963 0.99605317696 
-0.092337868004 -0.0064413801711 0.99570689801 -0.095775638837 -0.0095931252863 0.99535671945 -0.098988679256 -0.012767153028 0.99500665384 
-0.1019595862 -0.015963630309 0.99466044723 -0.10467326992 -0.019185261807 0.994321594 -0.10711693427 -0.022435863894 0.99399325672 
-0.10927867201 -0.025720324216 0.99367833667 -0.11114712973 -0.029044415251 0.99337945293 -0.11271002565 -0.032413059468 0.99309911071 
-0.1139547207 -0.035831503021 0.99283957668 -0.11486640003 -0.039304495683 0.99260307614 -0.11542905856 -0.042836070584 0.99239165832 
-0.11562555885 -0.046429287318 0.99220716154 -0.11543702053 -0.050086000992 0.9920512521 -0.11484277596 -0.053807431511 0.99192534856 
-0.11382168358 -0.057594087557 0.99183040154 -0.11235175472 -0.061444775419 0.99176691959 -0.11040986028 -0.065358192773 0.99173482816 
-0.10797349668 -0.069331869929 0.99173323824 -0.10502063886 -0.073361677361 0.99176041951 -0.10153065048 -0.077443331167 0.9918135195 
-0.09748436181 -0.08157100543 0.99188858763 -0.092864774932 -0.085737494376 0.99198045124 -0.087659358972 -0.089934250087 0.99208249024 
-0.081859595299 -0.094151668649 0.99218671123 -0.075461536621 -0.098378158622 0.99228387793 -0.06846748526 -0.10259982924 0.99236358181 
-0.060887328568 -0.10680156996 0.99241430757 -0.052739774802 -0.1109659214 0.99242384113 -0.044050913556 -0.11507445508 0.9923796586 
-0.034857088975 -0.11910698183 0.99226937382 -0.025204216324 -0.12304174591 0.9920813859 -0.015146907278 -0.12685667725 0.9918054016 
-0.0047497037343 -0.13052836516 0.99143319805 0.0059145037003 -0.13403412604 0.99095906661 0.016765670438 -0.13735256508 0.99038032349 
0.027718866006 -0.1404626057 0.98969789374 0.038685345569 -0.14334490379 0.98891641841 0.049574322476 -0.14598319818 0.98804417533 
0.060296356565 -0.14836361919 0.98709299759 0.070764230095 -0.15047484195 0.98607796126 0.080896125841 -0.15230967619 0.98501653761 
0.09061565583 -0.15386298527 0.98392834327 0.099854375589 -0.155132785 0.98283412776 0.10855460863 -0.15612092479 0.98175463013 
0.1166671636 -0.1568302023 0.98071048765 0.12415423431 -0.15726723524 0.97972074737 0.13098878514 -0.15744029756 0.97880258013 
0.1371541786 -0.1573591122 0.97797077722 0.14264429207 -0.15703492458 0.97723724776 0.14746352708 -0.156479145 0.97661086691 
0.15162622619 -0.15570556259 0.97609695487 0.15515369932 -0.15472812335 0.9756979745 0.15807468386 -0.15355978021 0.9754136498 
0.16042475763 -0.15221360531 0.97524095253 0.16224397897 -0.15070273145 0.97517463976 0.16357687773 -0.14904060735 0.97520741508 
0.16446806749 -0.14723796891 0.97533134641 0.16496415793 -0.14530444744 0.9755375155 0.16511252774 -0.14324952188 0.97581628786 
0.16495760692 -0.14108025872 0.97615846486 0.16454250847 -0.13880154255 0.97655511605 0.16390727628 -0.13641689507 0.97699786874 
0.16308931099 -0.13392872529 0.97747888631 0.16212111344 -0.1313364615 0.97799155337 0.16103249297 -0.12863839447 0.97852986652 
0.15984891556 -0.12583135269 0.9790887574 0.15859155593 -0.12290998817 0.97966415327 0.15728040129 -0.11986856667 0.98025221351 
0.15592960015 -0.11670007075 0.98085016862 0.1545521519 -0.11339759732 0.98145535673 0.15315975605 -0.10995390074 0.98206528746 
0.15176013915 -0.1063611969 0.98267805306 0.15036039335 -0.10261449144 0.98329142082 0.14896645603 -0.098709595959 0.98390315105 
0.14758151905 -0.094643529955 0.98451119723 0.14620840856 -0.09041756555 0.98511307224 0.14485135654 -0.086036211406 0.98570576484 
0.14351147279 -0.081506610155 0.98628653528 0.14218692846 -0.07684028194 0.98685279979 0.14087753133 -0.072053863991 0.98740152008 
0.13958229309 -0.067167799177 0.98792979012 0.13829495464 -0.062205348056 0.9884356328 0.13700987388 -0.057193442329 0.98891718795 
0.13571992651 -0.052161565494 0.98937317158 0.13441782146 -0.047140377506 0.98980282586 0.13309121513 -0.04215952398 0.99020669711 
0.13172569517 -0.037247234509 0.9905861824 0.13031075783 -0.032430231596 0.99094267567 0.12883153645 -0.027731565565 0.99127866692 
0.12727353009 -0.023170219758 0.99159698943 0.12562196604 -0.01876087508 0.9919007769 0.12386335784 -0.014514618779 0.99219312355 
0.12198437093 -0.010438769933 0.99247712585 0.11997254056 -0.0065370042442 0.99275568852 0.11781710488 -0.0028102957638 0.99303133487 
0.11550722583 0.00074216406885 0.9933063626 0.11303565833 0.0041226751057 0.99358237882 0.11039543944 0.0073344340251 0.99386068089 
0.1075791138 0.010380688931 0.99414233165 0.10458240442 0.013264843458 0.99442775736 0.10140367865 0.015990065069 0.99471685005 
0.098040551427 0.018558656543 0.99500936003 0.09449294665 0.020972743951 0.99530459009 0.090763314042 0.023233882209 0.99560143006 
0.086855831337 0.025343046469 0.99589848607 0.082778242157 0.027301313706 0.99619395747 0.078540451128 0.029109228654 0.99648585055 
0.074154370788 0.03076739727 0.99677203841 0.069637809307 0.032277285277 0.99705002501 0.06501187092 0.033640818216 0.99731727749 
0.06030086307 0.034860315703 0.99757133294 0.055535797742 0.035939379837 0.9978096693 0.050750663703 0.036882509441 0.99803008503 
0.045983892499 0.037695237935 0.99823071014 0.041279619007 0.038384838214 0.99841003463 0.036685010252 0.038959488121 0.99856715764 
0.032251104708 0.039428516352 0.99870178649 0.028031386672 0.039802651734 0.99881429219 0.024080078148 0.040092610984 0.99890576752 
0.02045239583 0.040309961861 0.99897788088 0.017202159212 0.040467180268 0.99903277876 0.014380510801 0.040575745978 0.99907297519 
0.012034655363 0.040646099552 0.99910112684 0.010206173027 0.040688570771 0.9991197497 0.0089300982639 0.040711701021 0.99913102782 
0.0089300982639 0.040711701021 0.99913102782 
NormalArray 3 148 double
0.86546541748 0.50085509771 0.010666875683 0.86546541748 0.50085509771 0.010666875683 0.86387415509 0.50358939715 0.010916191562 
0.86289199835 0.50525307104 0.011693305377 0.86285423709 0.50528499379 0.013024615049 0.86136002213 0.50778267535 0.014685601617 
0.8605154509 0.50914532932 0.016858006949 0.85881888138 0.51191223387 0.019390559739 0.85690622664 0.51498882726 0.022320988915 
0.85473622062 0.51842989277 0.025621074224 0.85154263025 0.52347207111 0.029191430978 0.84810205033 0.52880016219 0.033065097761 
0.84403011477 0.53500642308 0.037165745378 0.8391008359 0.54239612449 0.041427422463 0.83314874628 0.5511504438 0.045785968067 
0.82635720482 0.56090394843 0.050204886971 0.81817126983 0.5723776643 0.054585553366 0.80840428495 0.58567710577 0.058862890287 
0.79675351997 0.60101508692 0.062965813802 0.78288459717 0.61856778645 0.066825153012 0.76642305983 0.63846953339 0.070372923072 
0.74668956935 0.66109699841 0.073521736304 0.72304351052 0.68658803326 0.076190251865 0.6950819824 0.71465163084 0.078320394989 
0.66164507942 0.74555986632 0.079788937831 0.62196696353 0.77889424463 0.08050373877 0.57507676956 0.81414416859 0.08034912485 
0.52002517696 0.85047089377 0.079202740938 0.45597098572 0.8866625123 0.076941857687 0.38243504447 0.92105713937 0.073465520929 
0.2993861998 0.95165495788 0.068707674311 0.20699080834 0.97633718935 0.06261387994 0.10741343726 0.99267297104 0.055341901489 
0.0026881735508 0.99888867321 0.047055204383 -0.10371655205 0.99387652318 0.038109493534 -0.20882458253 0.97752750221 0.028849196585 
-0.3085151109 0.95101295285 0.019818926613 -0.40110561353 0.91596200096 0.011309270064 -0.48425403572 0.87491941548 0.0037477068352 
-0.55770332415 0.83003599811 -0.0026914799859 -0.62128070304 0.78354897069 -0.0078293400389 -0.67567965171 0.73710388356 -0.01161348799 
-0.72195819002 0.69179375017 -0.014063395658 -0.76113399928 0.6484162726 -0.015210935852 -0.79412540628 0.6075665411 -0.015090965673 
-0.82199761992 0.56932385837 -0.013793372841 -0.84562917087 0.53364906235 -0.011401036329 -0.86574031822 0.5004296432 -0.0079920975344 
-0.88283815195 0.46966338015 -0.0036203330087 -0.89752599843 0.44095860997 0.0016082437289 -0.91011992824 0.41427450047 0.0076390099762 
-0.92102637544 0.38923513941 0.014367393306 -0.93047303851 0.36571605422 0.021718478321 -0.93871117942 0.34343226226 0.029590587435 
-0.9459282221 0.32215638714 0.037882197008 -0.95223238946 0.30181236931 0.046505593108 -0.95776160887 0.28218644585 0.055348987012 
-0.9626717041 0.26292874659 0.064278023865 -0.96700640841 0.24400960541 0.073197804324 -0.97085345841 0.22521470426 0.081987189693 
-0.97430088442 0.20626306857 0.090517032442 -0.97740788664 0.18691944548 0.09866581997 -0.98019625574 0.16705926101 0.10633204378 
-0.98277124806 0.14599607293 0.1133394048 -0.98508570265 0.12369418382 0.11960730467 -0.98717568896 0.099352140338 0.12495323661 
-0.98898378117 0.072234010843 0.12920266351 -0.9903383811 0.041825988612 0.13221375719 -0.99100648295 0.0064445746903 0.13365858824 
-0.99046118246 -0.034985996791 0.13327650228 -0.98778895981 -0.085086124173 0.1305117709 -0.98133619963 -0.14636544654 0.12472537573 
-0.96827789644 -0.22182624746 0.11502621961 -0.94349175794 -0.31597203429 0.099924852948 -0.89866818961 -0.43169671097 0.077675187273 
-0.82185413541 -0.56779107473 0.046573335354 -0.70104092296 -0.71309201485 0.0064344929563 -0.53532549948 -0.84373780853 -0.03915507723 
-0.34039442169 -0.93652498598 -0.083979689928 -0.15259348191 -0.98093927017 -0.12030535117 0.0070920601787 -0.98919798581 -0.14641395955 
0.13005177303 -0.9779640582 -0.16331820841 0.22027967898 -0.95987425764 -0.17354616833 0.28445509051 -0.94178796921 -0.17922255031 
0.32865356769 -0.92678431693 -0.18181766234 0.35869199662 -0.9154619107 -0.18239940135 0.3768066453 -0.90835166524 -0.18142217153 
0.38730442832 -0.90431819733 -0.17945438916 0.39069944312 -0.90342079427 -0.17659222413 0.38889527624 -0.90488349795 -0.17305004841 
0.38395090682 -0.9077482815 -0.16904070097 0.37526579159 -0.91220528442 -0.16449043967 0.36463487257 -0.91737461114 -0.15957829593 
0.35248072415 -0.92300443074 -0.15433781112 0.33948271783 -0.92876224709 -0.14883605973 0.32582069849 -0.93454093597 -0.14308777526 
0.31276160843 -0.93986518416 -0.13723560724 0.2997823712 -0.94493965934 -0.13122335967 0.28715785735 -0.94968037417 -0.125090175 
0.2759846243 -0.95376985578 -0.11897709592 0.26651079916 -0.95719318604 -0.11293006033 0.25806513192 -0.9601965045 -0.10688807431 
0.25165312246 -0.96253331877 -0.10099661489 0.24813434848 -0.96401808993 -0.095385886705 0.24646943954 -0.96496674948 -0.089955476604 
0.24827769598 -0.96495836723 -0.084932533181 0.25205245302 -0.96438790921 -0.080159350588 0.26113302301 -0.96230086542 -0.076069630689 
0.27307809499 -0.95926486935 -0.072382763577 0.28922806002 -0.95474993667 -0.069279778675 0.31003054717 -0.948375218 -0.066824439471 
0.33510638103 -0.93993723237 -0.064974707454 0.36501868348 -0.92881181171 -0.063796388213 0.39872717202 -0.91489204105 -0.063160078518 
0.43684001166 -0.89732127496 -0.063129499646 0.47769745936 -0.8762266149 -0.063498477672 0.52122626066 -0.85099664885 -0.06424864861 
0.5661782325 -0.82169823091 -0.065224430751 0.61096452648 -0.78888241611 -0.066233533296 0.65535921185 -0.75231814559 -0.067243670732 
0.69819305902 -0.71266205289 -0.06811204524 0.73832908504 -0.67093261872 -0.068699223552 0.77529439051 -0.62782599198 -0.068942960768 
0.80920827879 -0.58347372827 -0.068850344629 0.8392799417 -0.53939070861 -0.068314295153 0.86598625501 -0.49550706729 -0.067383621155 
0.88914395282 -0.45284009969 -0.066021778756 0.90908292655 -0.41162973159 -0.064258826028 0.92612569908 -0.37206387887 -0.062126158289 
0.94057645845 -0.33430109986 -0.059654844253 0.95253467074 -0.29907548325 -0.056846779645 0.96252611731 -0.26580330007 -0.053778054794 
0.97070702882 -0.23490600374 -0.050468144495 0.97734367719 -0.20638264982 -0.046963161191 0.9827168855 -0.17997449044 -0.04332096194 
0.98699740471 -0.15578594092 -0.03958362936 0.99034837555 -0.13389758595 -0.035798484804 0.99297708937 -0.11388667508 -0.032036311123 
0.99497364079 -0.096043525933 -0.028338935326 0.99647999089 -0.080086547957 -0.024774434199 0.9976082178 -0.065722261228 -0.021410935334 
0.99841210001 -0.053279649153 -0.018290914339 0.99896848642 -0.042691775214 -0.015471763806 0.99935494929 -0.033466775617 -0.013025370098 
0.999610048 -0.025667638516 -0.010996557545 0.99975688207 -0.019945142791 -0.0094004270985 0.99984881755 -0.015271388458 -0.0083142488397 
0.99984881755 -0.015271388458 -0.0083142488397 
BinormalArray 3 148 double
-0.49993514537 0.86485112137 -0.045797251991 -0.49993514537 0.86485112137 -0.045797251991 -0.50265789874 0.8632696965 -0.045830862237 
-0.50429339056 0.8623141918 -0.045852054065 -0.50428090206 0.86232150455 -0.045851876873 -0.50672167452 0.86088743806 -0.045890778639 
-0.50801426147 0.86012405391 -0.045914289947 -0.5107011609 0.85852840844 -0.045970601061 -0.51368949172 0.85673984277 -0.046042892084 
-0.51703653057 0.85471905998 -0.046136260731 -0.52198151944 0.85169953858 -0.046294593007 -0.52721186849 0.84846138863 -0.046485672282 
-0.5333222328 0.84461996458 -0.046738757297 -0.54061982346 0.8399486752 -0.047078971025 -0.54928724485 0.83428075431 -0.047530470447 
-0.55896062384 0.82779853725 -0.048089528096 -0.57036022316 0.81994284173 -0.0488154907 -0.58359070324 0.81052330558 -0.049737935161 
-0.59886287005 0.79923261632 -0.050896835642 -0.61635002229 0.78573140874 -0.052333577581 -0.63618284253 0.7696399616 -0.054089928545 
-0.65873242303 0.75027279526 -0.056234575991 -0.68413091503 0.7269833867 -0.05882216052 -0.71208305633 0.69936402991 -0.061868203029 
-0.74285263118 0.66624743769 -0.065454718012 -0.77601585218 0.62686177217 -0.069596808476 -0.8110565156 0.58022918297 -0.074306283267 
-0.84713162329 0.52539292322 -0.079563113705 -0.88302705266 0.46150407499 -0.085306582625 -0.91708226833 0.38807620332 -0.091416483962 
-0.94730260477 0.30507203171 -0.097718117406 -0.97157630447 0.21265194407 -0.10401266882 -0.9874910055 0.11298426271 -0.10998213692 
-0.99328923475 0.0081080093521 -0.11537225109 -0.98788520139 -0.098492888938 -0.11992489194 -0.97118660953 -0.203825275 -0.12349828636 
-0.9443850119 -0.30373884273 -0.12601454171 -0.90911570771 -0.39653266242 -0.12755578241 -0.86793299951 -0.47983780912 -0.12824969903 
-0.82298768292 -0.55338353214 -0.12828850342 -0.77651848236 -0.61698385297 -0.12786700797 -0.7301702098 -0.67132733841 -0.1271655198 
-0.68503516046 -0.71747305058 -0.12632992768 -0.64191211916 -0.75644260819 -0.1254727532 -0.6013989324 -0.789160775 -0.12467796641 
-0.5635768976 -0.81670423507 -0.12399706818 -0.52840974808 -0.83996453268 -0.12346141897 -0.49578816532 -0.85967636192 -0.12308796804 
-0.46571400095 -0.87636164567 -0.12288504919 -0.43779629773 -0.89064138046 -0.12285085718 -0.41199664226 -0.90284799831 -0.12298072501 
-0.38793736491 -0.91340545933 -0.12326827565 -0.3654923694 -0.92255758435 -0.12370461372 -0.34437173639 -0.93057061241 -0.12428371775 
-0.32434123842 -0.93764471316 -0.12500061178 -0.30531704031 -0.94389837736 -0.12584656573 -0.28707422886 -0.94947621489 -0.12681996876 
-0.26924868542 -0.95453587183 -0.12793128929 -0.25179763726 -0.95912019634 -0.12917584467 -0.2344908289 -0.96331056406 -0.13056342645 
-0.21703026518 -0.96718342782 -0.13211389386 -0.19916386938 -0.97078238697 -0.13384808661 -0.18075153401 -0.9741113724 -0.13577892732 
-0.16108841334 -0.97724681041 -0.13798258817 -0.14012587955 -0.98011916006 -0.14046768302 -0.11704723865 -0.98272855309 -0.14333364878 
-0.091103531853 -0.98498047459 -0.14667518931 -0.061770680876 -0.98666995667 -0.15055490556 -0.027351214239 -0.98750747853 -0.15518018855 
0.013243010398 -0.98692152162 -0.160656568 0.062654423709 -0.98392092362 -0.16725441475 0.12342516548 -0.97677604047 -0.17514221447 
0.19861370242 -0.96257409778 -0.18440093138 0.29283208889 -0.93606670777 -0.1950089391 0.40915507977 -0.88885169946 -0.20623961079 
0.54664401328 -0.80897732589 -0.21618512654 0.69441955303 -0.68468128724 -0.22134366781 0.82865506375 -0.51564853129 -0.21780123391 
0.92578717449 -0.31818537231 -0.20414743788 0.97442396105 -0.12901459528 -0.18399233226 0.98624923618 0.031095326795 -0.16231304565 
0.97768886884 0.15389171993 -0.14297487291 0.96145859294 0.24367096934 -0.12736495893 0.94457382256 0.30728789725 -0.11556142063 
0.93026270971 0.35090444061 -0.10713246231 0.91926970805 0.380368537 -0.10130636667 0.9121870906 0.39793142089 -0.097802331273 
0.90798876865 0.40789100096 -0.095819243048 0.90675391564 0.41076027471 -0.095254045492 0.9077573131 0.40843283642 -0.095704120327 
0.91009211674 0.40295676061 -0.096737728585 0.91394158348 0.39372897277 -0.098429050562 0.91846801732 0.38253622383 -0.10041184506 
0.92343175128 0.36979739944 -0.10258500914 0.92851668612 0.35618949245 -0.10481321036 0.93362190817 0.3418912907 -0.10705362175 
0.93829626 0.32817074494 -0.10910586893 0.94273730762 0.31450549128 -0.11105253158 0.94686770431 0.30117263695 -0.11285651636 
0.95038778629 0.28927449715 -0.11438234553 0.95328635326 0.27906410673 -0.11562159411 0.95580118689 0.26987203158 -0.11667552323 
0.95769905994 0.26271295556 -0.11744962142 0.95880334304 0.25845621864 -0.11788355451 0.95941706772 0.25606265357 -0.11811353697 
0.95913413412 0.25716632867 -0.11801352538 0.95833261981 0.26025707554 -0.11774907401 0.95608382098 0.2686998678 -0.11706454755 
0.95293058261 0.28004205746 -0.11618842792 0.94834921611 0.29563632814 -0.11503445482 0.94195726816 0.31593576271 -0.11358300402 
0.93354440812 0.34056003895 -0.11186464113 0.92248603369 0.37007654344 -0.10983109594 0.90866633638 0.40343757766 -0.10753422737 
0.89122983425 0.44125453153 -0.10489909887 0.87029404619 0.48185494386 -0.10200042278 0.84524689588 0.52516359916 -0.098797161473 
0.81614967367 0.56992233376 -0.095332280266 0.78354660827 0.61453033863 -0.091690651495 0.74720623016 0.6587591471 -0.087859181184 
0.70778046498 0.7014307091 -0.083915277049 0.66628273493 0.74139966622 -0.079961566204 0.6234066907 0.77818946382 -0.07606087289 
0.57928405106 0.81191993736 -0.072221904581 0.53542530991 0.84179439739 -0.068570620773 0.49176196169 0.86829311467 -0.065094086202 
0.4493095767 0.891231493 -0.061865419835 0.40830870096 0.91094215093 -0.058893143763 0.36894794625 0.92775057146 -0.056180869632 
0.33138656446 0.94196398121 -0.053728977274 0.29635835833 0.95368340248 -0.051572194774 0.26328108581 0.96344013879 -0.049660535975 
0.23257615982 0.9713927773 -0.048004188246 0.20424277668 0.97781110795 -0.046586750743 0.17802217021 0.98297958437 -0.045378889647 
0.1540181961 0.98707132957 -0.044368745972 0.13231057438 0.99025150375 -0.043541603505 0.11247537515 0.99272956213 -0.042863812961 
0.094801478755 0.99459591454 -0.042327844277 0.079005500535 0.99599291852 -0.04190748303 0.064791925494 0.99703217948 -0.041579315378 
0.052487884945 0.99776569693 -0.041335650147 0.042024384167 0.99826841062 -0.041159828536 0.032907236977 0.99861583393 -0.041030841892 
0.025197599392 0.99884386514 -0.040939150707 0.01954509613 0.99897278816 -0.040882242229 0.014919630833 0.9990542238 -0.040841921126 
0.014919630833 0.9990542238 -0.040841921126 
