# vtk DataFile Version 4.1
vtk output
ASCII
DATASET POLYDATA
POINTS 295 float
-40.5299 13.721 290.35 -40.1002 12.7064 287.527 -39.6707 11.6929 284.701 
-39.2423 10.6837 281.862 -38.8158 9.68224 278.999 -38.392 8.69166 276.105 
-37.9719 7.71508 273.169 -37.5561 6.75551 270.184 -37.1457 5.81577 267.142 
-36.7414 4.89853 264.036 -36.3442 4.00624 260.863 -35.955 3.14109 257.616 
-35.5745 2.30507 254.294 -35.2038 1.49986 250.895 -34.8436 0.726899 247.419 
-34.4949 -0.0126575 243.867 -34.1583 -0.717929 240.241 -33.8346 -1.3883 236.547 
-33.5245 -2.02343 232.788 -33.2286 -2.62321 228.971 -32.9474 -3.18777 225.102 
-32.6813 -3.71745 221.191 -32.4307 -4.2128 217.244 -32.1958 -4.67452 213.273 
-31.9768 -5.10349 209.285 -31.7737 -5.5007 205.29 -31.5867 -5.86723 201.298 
-31.4156 -6.2043 197.319 -31.2604 -6.51314 193.362 -31.1208 -6.79507 189.434 
-30.9968 -7.05143 185.544 -30.8881 -7.28358 181.7 -30.7944 -7.4929 177.907 
-30.7156 -7.68075 174.171 -30.6513 -7.8485 170.497 -30.6013 -7.99748 166.888 
-30.5654 -8.12901 163.347 -30.5433 -8.24437 159.875 -30.5347 -8.3448 156.473 
-30.5393 -8.43148 153.141 -30.5568 -8.50555 149.877 -30.5869 -8.56809 146.68 
-30.6292 -8.62009 143.548 -30.6833 -8.66247 140.477 -30.7487 -8.69608 137.466 
-30.8251 -8.72165 134.51 -30.9118 -8.73983 131.606 -31.0084 -8.75117 128.75 
-31.1144 -8.75609 125.939 -31.229 -8.75491 123.17 -31.3517 -8.74785 120.439 
-31.4819 -8.73501 117.744 -31.6189 -8.71638 115.081 -31.7622 -8.69186 112.449 
-31.9112 -8.66122 109.846 -32.0653 -8.62418 107.268 -32.224 -8.58037 104.715 
-32.3868 -8.52932 102.184 -32.5534 -8.47053 99.6749 -32.7234 -8.40343 97.1848 
-32.8966 -8.32741 94.7125 -33.0728 -8.24185 92.2561 -33.2518 -8.14609 89.8139 
-33.4337 -8.03946 87.3839 -33.6186 -7.92131 84.9638 -33.8066 -7.79098 82.5513 
-33.9978 -7.64784 80.1439 -34.1927 -7.4913 77.7389 -34.3915 -7.3208 75.3333 
-34.5946 -7.13583 72.9242 -34.8026 -6.93591 70.5085 -35.0159 -6.72067 68.0832 
-35.235 -6.48976 65.6451 -35.4605 -6.24293 63.1914 -35.6928 -5.98001 60.7193 
-35.9326 -5.70089 58.2262 -36.1804 -5.40558 55.7099 -36.4366 -5.09415 53.1686 
-36.7016 -4.76678 50.6009 -36.9759 -4.42373 48.0058 -37.2597 -4.06535 45.383 
-37.5532 -3.69209 42.7326 -37.8567 -3.30448 40.0555 -38.17 -2.90314 37.3528 
-38.4932 -2.48877 34.6267 -38.826 -2.06213 31.8796 -39.1681 -1.62407 29.1147 
-39.5192 -1.17549 26.3356 -39.8786 -0.717339 23.5461 -40.2457 -0.250619 20.7508 
-40.6197 0.223635 17.9544 -40.9998 0.704363 15.1617 -41.3851 1.19049 12.3776 
-41.7746 1.68093 9.60733 -42.1672 2.17462 6.85561 -42.5618 2.6705 4.12721 
-42.9574 3.16753 1.42658 -43.3528 3.66472 -1.2422 -43.747 4.16112 -3.87545 
-44.139 4.65581 -6.46998 -44.5279 5.14796 -9.0231 -44.9126 5.63678 -11.5327 
-45.2924 6.12153 -13.9971 -45.6667 6.60156 -16.4153 -46.0347 7.07625 -18.7868 
-46.396 7.54507 -21.1114 -46.7502 8.00752 -23.3896 -47.0969 8.46317 -25.622 
-47.436 8.9116 -27.8096 -47.7673 9.35248 -29.9539 -48.0907 9.78546 -32.0563 
-48.4064 10.2103 -34.1183 -48.7142 10.6266 -36.1418 -49.0145 11.0343 -38.1284 
-49.3072 11.4331 -40.0799 -49.5927 11.8227 -41.9981 -49.871 12.203 -43.8845 
-50.1424 12.5739 -45.7409 -50.4071 12.9351 -47.5687 -50.6652 13.2866 -49.3695 
-50.9169 13.6283 -51.1446 -51.1622 13.96 -52.8956 -51.4014 14.2819 -54.6236 
-51.6345 14.5938 -56.3302 -51.8615 14.8958 -58.0165 -52.0824 15.1879 -59.6841 
-52.2972 15.4702 -61.3341 -52.5058 15.7429 -62.9681 -52.7083 16.006 -64.5875 
-52.9044 16.2597 -66.1937 -53.0942 16.5043 -67.7884 -53.2775 16.7398 -69.3731 
-53.4541 16.9665 -70.9495 -53.624 17.1846 -72.5193 -53.787 17.3944 -74.0843 
-53.943 17.596 -75.6464 -54.0921 17.7898 -77.2075 -54.2341 17.9759 -78.7694 
-54.369 18.1546 -80.3342 -54.4968 18.3262 -81.9036 -54.6178 18.491 -83.4798 
-54.7318 18.6491 -85.0645 -54.8392 18.8009 -86.6596 -54.9402 18.9465 -88.2667 
-55.035 19.0863 -89.8876 -55.124 19.2205 -91.5237 -55.2075 19.3494 -93.1762 
-55.286 19.4732 -94.8462 -55.3598 19.5921 -96.5347 -55.4295 19.7065 -98.2422 
-55.4956 19.8166 -99.9693 -55.5585 19.9226 -101.716 -55.6188 20.0248 -103.483 
-55.6769 20.1234 -105.268 -55.7333 20.2188 -107.073 -55.7884 20.3111 -108.897 
-55.8427 20.4007 -110.738 -55.8965 20.4878 -112.595 -55.9501 20.5727 -114.468 
-56.0038 20.6557 -116.356 -56.0576 20.7371 -118.257 -56.1118 20.8171 -120.169 
-56.1663 20.8961 -122.093 -56.2211 20.9742 -124.026 -56.2761 21.0519 -125.967 
-56.3311 21.1292 -127.915 -56.3859 21.2065 -129.869 -56.4404 21.284 -131.827 
-56.494 21.3618 -133.788 -56.5466 21.4401 -135.752 -56.5977 21.519 -137.717 
-56.6469 21.5986 -139.682 -56.694 21.679 -141.646 -56.7386 21.7602 -143.608 
-56.7803 21.8422 -145.568 -56.8188 21.925 -147.524 -56.8539 22.0086 -149.476 
-56.8853 22.0928 -151.423 -56.9129 22.1775 -153.365 -56.9365 22.2627 -155.3 
-56.956 22.3482 -157.229 -56.9715 22.4339 -159.152 -56.9828 22.5197 -161.068 
-56.9902 22.6055 -162.977 -56.9936 22.691 -164.879 -56.9932 22.7763 -166.775 
-56.9892 22.8612 -168.665 -56.9817 22.9457 -170.549 -56.9709 23.0298 -172.428 
-56.957 23.1133 -174.303 -56.9403 23.1964 -176.174 -56.9209 23.279 -178.042 
-56.899 23.3612 -179.907 -56.8749 23.4431 -181.771 -56.8488 23.5247 -183.635 
-56.8208 23.606 -185.498 -56.7912 23.6873 -187.361 -56.7602 23.7685 -189.224 
-56.728 23.8498 -191.088 -56.6947 23.9311 -192.952 -56.6605 24.0125 -194.816 
-56.6258 24.0941 -196.68 -56.5906 24.1758 -198.543 -56.5551 24.2576 -200.403 
-56.5196 24.3393 -202.261 -56.4843 24.421 -204.115 -56.4492 24.5024 -205.963 
-56.4145 24.5834 -207.805 -56.3804 24.6637 -209.638 -56.3469 24.7432 -211.461 
-56.3141 24.8217 -213.272 -56.2819 24.8988 -215.07 -56.2504 24.9743 -216.855 
-56.2195 25.048 -218.623 -56.1889 25.1196 -220.375 -56.1585 25.189 -222.11 
-56.1279 25.2557 -223.826 -56.097 25.3198 -225.523 -56.0652 25.3809 -227.201 
-56.0321 25.439 -228.86 -55.9972 25.494 -230.501 -55.9601 25.5458 -232.123 
-55.9201 25.5943 -233.728 -55.8766 25.6396 -235.317 -55.8291 25.6817 -236.89 
-55.7769 25.7206 -238.45 -55.7194 25.7564 -239.997 -55.6559 25.7893 -241.534 
-55.586 25.8194 -243.063 -55.5089 25.8467 -244.585 -55.4242 25.8716 -246.102 
-55.3314 25.8941 -247.618 -55.23 25.9143 -249.133 -55.1196 25.9325 -250.65 
-54.9999 25.9489 -252.172 -54.8706 25.9634 -253.699 -54.7315 25.9764 -255.234 
-54.5825 25.9879 -256.779 -54.4236 25.9981 -258.335 -54.2546 26.0071 -259.902 
-54.0758 26.015 -261.483 -53.8874 26.0218 -263.078 -53.6894 26.0278 -264.687 
-53.4824 26.033 -266.31 -53.2665 26.0375 -267.947 -53.0423 26.0414 -269.597 
-52.8103 26.0448 -271.261 -52.5709 26.0479 -272.935 -52.3248 26.0508 -274.62 
-52.0724 26.0536 -276.314 -51.8144 26.0564 -278.015 -51.5514 26.0594 -279.72 
-51.2839 26.0627 -281.429 -51.0123 26.0665 -283.139 -50.7374 26.0708 -284.848 
-50.4593 26.0759 -286.554 -50.1786 26.0818 -288.254 -49.8956 26.0886 -289.948 
-49.6104 26.0964 -291.633 -49.3233 26.1053 -293.307 -49.0343 26.1152 -294.97 
-48.7435 26.1262 -296.618 -48.4506 26.1383 -298.252 -48.1556 26.1513 -299.869 
-47.8581 26.1652 -301.469 -47.558 26.1798 -303.051 -47.2547 26.1949 -304.615 
-46.9479 26.2105 -306.159 -46.6369 26.2262 -307.683 -46.3213 26.2418 -309.186 
-46.0005 26.2571 -310.668 -45.6738 26.2719 -312.129 -45.3405 26.2858 -313.569 
-45 26.2986 -314.987 -44.6516 26.3101 -316.383 -44.2947 26.3199 -317.757 
-43.9285 26.328 -319.109 -43.5525 26.3339 -320.439 -43.166 26.3376 -321.747 
-42.7686 26.339 -323.033 -42.3598 26.3377 -324.298 -41.9393 26.3338 -325.541 
-41.5068 26.3272 -326.764 -41.0622 26.3179 -327.966 -40.6055 26.3058 -329.149 
-40.137 26.291 -330.314 -39.6569 26.2736 -331.461 -39.1658 26.2537 -332.592 
-38.6644 26.2316 -333.708 -38.1536 26.2073 -334.811 -37.6343 26.1811 -335.902 
-37.1078 26.1534 -336.983 -36.5754 26.1244 -338.057 -36.0387 26.0944 -339.125 
-35.4992 26.0638 -340.189 
LINES 1 296
295 294 293 292 291 290 289 288 287 286 285 284 283 282 281 280 279 278 277 276 275 274 273 272 271 270 269 268 267 266 265 264 263 262 261 260 259 258 257 256 255 254 253 252 251 250 249 248 247 246 245 244 243 242 241 240 239 238 237 236 235 234 233 232 231 230 229 228 227 226 225 224 223 222 221 220 219 218 217 216 215 214 213 212 211 210 209 208 207 206 205 204 203 202 201 200 199 198 197 196 195 194 193 192 191 190 189 188 187 186 185 184 183 182 181 180 179 178 177 176 175 174 173 172 171 170 169 168 167 166 165 164 163 162 161 160 159 158 157 156 155 154 153 152 151 150 149 148 147 146 145 144 143 142 141 140 139 138 137 136 135 134 133 132 131 130 129 128 127 126 125 124 123 122 121 120 119 118 117 116 115 114 113 112 111 110 109 108 107 106 105 104 103 102 101 100 99 98 97 96 95 94 93 92 91 90 89 88 87 86 85 84 83 82 81 80 79 78 77 76 75 74 73 72 71 70 69 68 67 66 65 64 63 62 61 60 59 58 57 56 55 54 53 52 51 50 49 48 47 46 45 44 43 42 41 40 39 38 37 36 35 34 33 32 31 30 29 28 27 26 25 24 23 22 21 20 19 18 17 16 15 14 13 12 11 10 9 8 7 6 5 4 3 2 1 0 

CELL_DATA 1
FIELD FieldData 2
LengthArray 1 1 double
640.12243617 
TortuosityArray 1 1 double
0.014971176781 
POINT_DATA 295
FIELD FieldData 8
RadiusArray 1 295 double
71.858938494 72.585917593 73.283067446 73.37360727 74.56443594 74.776372431 74.833186153 75.698980677 75.71662855 
75.520083522 75.409617718 75.070921293 74.057924053 73.799267289 73.224033693 73.016634492 72.643161717 72.104934818 
72.035870427 72.016277684 71.138576615 70.696481486 69.995487397 69.008513169 68.966466286 67.708370984 67.444843419 
66.142674415 65.84836106 64.953944226 63.661533484 63.334708152 63.252958411 62.760401269 61.762173732 61.662902746 
61.15983924 60.55823954 60.513531118 60.275714547 59.695661424 59.49087638 59.277929918 58.860616437 58.76889509 
58.635508258 58.380896944 58.358527713 57.902724743 57.858758484 57.223308163 57.13891878 57.003218497 56.989900056 
56.862679568 56.50237878 56.480340141 56.402864455 56.397485044 56.313813096 56.051052895 56.020511129 55.929697752 
55.775796545 55.655530329 55.582226252 55.55397965 55.275120689 55.265481287 55.263850566 55.208715115 55.17859036 
55.04569543 54.996530286 54.911523935 54.714634745 54.344373394 54.344343737 54.336959056 53.810289315 53.386142116 
53.269940621 53.175718378 52.995509889 52.535804404 52.070623997 51.968353625 51.559574513 51.13394421 50.54100755 
49.464331125 49.43111111 48.500210328 48.495615601 47.797289857 47.728057599 47.493879327 47.485759505 47.410763082 
47.374900246 47.370764138 47.31969834 47.281709241 47.240077856 47.071635352 47.012123961 47.010381726 46.588339952 
46.570009053 46.425556761 46.387153423 46.304859138 46.194877623 46.186690528 46.150446766 46.071109653 46.082787983 
46.099826709 46.103454553 46.164968087 46.178284095 46.182556242 46.184838539 46.180919882 46.197078895 46.203877404 
46.234867608 46.240309825 46.239009701 46.295266959 46.297531679 46.298084888 46.297769426 46.33082345 46.359818894 
46.360061989 46.364523393 46.364372984 46.354066114 46.348504428 46.296183834 46.251626587 46.253505094 46.262836028 
46.262236622 46.209181573 46.1423256 45.976547575 45.891401294 45.882527149 45.716845638 45.566396252 45.468141038 
45.318943239 45.170897233 45.166806878 44.937183928 44.697925639 44.491686547 44.195734594 44.157521809 43.607170276 
43.58878209 43.426436708 43.412440328 42.948457988 42.870841143 42.345926563 42.292992678 42.046628298 41.645289983 
41.148307499 41.003504539 40.71911095 40.570779583 40.094872562 39.979479915 39.716315759 39.449329967 38.839454694 
38.791426425 38.226241304 37.963132475 37.623645365 37.111439373 37.106190978 37.06653766 36.504950063 36.480823542 
36.358970588 35.936581963 35.926776405 35.493027501 35.400519698 34.741285811 34.651579647 34.257377262 34.185022749 
33.893357865 33.775369891 33.466246626 33.430991712 33.105481951 32.94790263 32.920784216 32.456843571 32.034941011 
31.611942174 31.327595754 31.24182846 31.088397324 30.947215553 30.933086949 30.558376183 30.515615517 30.421607708 
30.420503778 30.275266457 30.227953564 29.93075835 29.745486197 29.726746667 29.512618854 29.429113631 29.289748587 
29.170515035 29.169997034 29.168294305 29.178913189 29.19192702 29.205919443 29.21513892 29.211190003 29.214455165 
29.235490015 29.25304321 29.253681434 29.249899055 29.317759471 29.391220176 29.393934782 29.338317233 29.311561258 
29.312928482 29.35908228 29.408875318 29.358622244 29.324921312 29.408842083 29.336835494 29.277355429 29.240100059 
29.328528502 29.329778913 29.405422162 29.405575677 29.402947523 29.613893946 29.628332307 29.71546241 29.730558966 
29.930499269 29.975662967 30.025485731 30.258297854 30.370054324 30.386249449 30.611331263 30.614542324 30.914794229 
31.022244823 31.20081093 31.579361051 31.624524308 31.826780129 31.833572787 32.248062207 32.792222947 33.007873308 
33.021256115 33.501331247 33.515901928 33.689495174 33.716547633 33.740694118 33.801723606 33.893537265 33.888393891 
33.82857036 33.729034081 33.723930226 33.520480579 33.21455019 32.905827591 32.833840194 
EdgeArray 2 295 int
14054 14054 15215 15042 15215 13534 13534 14492 15075 
15075 14007 14007 16012 15861 16292 16292 14529 14529 
16474 16192 16735 16735 17065 17065 15900 17410 17410 
17208 16417 17208 17947 16923 17806 17951 17949 19030 
18141 19031 19031 19025 18804 18804 17787 17787 19261 
19709 19432 19432 20725 20645 21545 21545 21240 21240 
17664 17664 23419 23419 23428 23428 21914 21914 23886 
23886 23235 23885 24232 24232 24387 24387 23695 23695 
24079 24079 24904 24904 24875 24900 23238 23238 23003 
23003 25655 25655 26305 26305 26483 26483 26486 26486 
26300 26300 25591 25591 25305 25305 24997 24997 26497 
26497 24158 24158 22778 22778 27637 27637 26430 26430 
28083 28083 28242 28242 28243 28243 22849 22849 27815 
28072 19303 19303 25814 25814 28498 27468 28314 28314 
27940 27940 28601 28601 28595 26955 27220 27220 29248 
28677 29242 16324 27735 29242 25757 29245 29584 29146 
29582 29582 26294 15113 30248 30073 30250 30250 28724 
28724 29876 28724 29876 29876 28555 28555 27776 27776 
27969 25303 22076 22076 32179 32179 32176 32176 32421 
32421 32422 32422 32712 32712 32954 32954 23076 23076 
34796 34796 33924 33924 33759 33759 34180 34180 22075 
22075 34612 34612 35108 35108 35797 35931 34645 34645 
35227 35227 36463 36463 34479 34479 32274 32274 34987 
34987 36485 36485 36066 36066 36458 35754 37581 37581 
37435 37435 19425 19425 37722 37722 35449 35449 37681 
37681 37913 37213 36832 36628 36403 36403 34296 38352 
36521 36521 37950 37950 38278 38564 38564 37469 37469 
38403 37384 38403 37205 37384 38691 38691 38192 38192 
38407 38407 39334 39334 38401 38401 38181 38181 38426 
38426 39366 39558 39414 39414 38799 39097 38698 39369 
38698 40293 40292 40293 40294 40292 40295 40137 39577 
39978 40158 40158 39994 39994 38311 39794 39450 39450 
40159 40375 39976 39976 40521 40521 39331 39331 41106 
41106 41095 41095 41089 41089 40149 40149 39243 39243 
40721 41654 41133 40767 41133 41079 41134 41134 41822 
41822 42364 42364 42465 42465 42436 42426 43078 43078 
42892 43079 43310 43310 40788 34042 43614 43614 44009 
44009 42928 42928 42893 42893 44243 44243 44412 44412 
44688 44688 43844 43844 42054 42054 44546 44546 44617 
44617 44801 44801 45313 45313 45077 45077 45921 45921 
43712 46015 44798 44798 46220 46220 46212 46212 44661 
44661 46644 46644 44153 44153 46648 46684 45178 46648 
45178 45178 47042 46844 47042 46855 47325 47325 46544 
47109 47144 47144 46727 46919 47392 46515 47587 46149 
47592 47506 47918 47918 47282 47913 46528 47282 46843 
46843 48231 48231 47809 47809 48360 48360 48447 48447 
47909 47909 48731 48731 49189 49189 48739 45511 49549 
49549 49548 49550 49546 49468 49468 49454 47273 49454 
47273 47273 48813 48813 47119 49559 48929 48929 49928 
49928 49929 49614 49525 49525 50225 50225 49717 49717 
44384 44384 48162 48898 50218 48162 49579 49579 50097 
48618 48371 50097 48781 48371 50624 43540 49442 44518 
44518 50627 50393 50393 47461 50551 49967 49967 50267 
49193 49625 49625 50558 49392 49529 49529 50140 51113 
43448 51113 50573 50573 42538 42538 51374 51374 51573 
51573 42867 42867 50258 50258 52189 50671 52170 50671 
52170 52209 52209 52414 51242 52309 51242 52589 46248 
52067 52198 52760 52754 52759 44414 44414 52322 52322 
48724 52909 52373 52568 47375 45458 53449 50044 50044 
52462 47305 52462 51806 53305 53305 53472 53472 47290 
53130 33337 42270 44264 53471 53471 53326 53326 51919 
54037 54278 54037 54122 54122 52398 52398 42373 54119 
53621 52389 54723 54723 54726 53468 54279 54279 52936 
40644 52936 54411 42801 42801 52656 52615 53887 55982 
46604 53654 55078 55358 55798 55358 55878 55878 56737 
56737 56732 56732 56663 56663 
EdgePCoordArray 1 295 double
0 0.756 0.864 0.072 0 0 0.012 0 0 
0.612 0 0 0.764 0.44 0.312 0.784 0.756 0.948 
0.996 0.028 0 0 0.772 0 0.964 0 0 
0 0 0 0 0 0.984 0 0 0 
0 0 0.952 0 0 0 0 0 0 
0 0 0 0 0 0 0 0 0 
0 0 0 0 0.872 0 0 0.272 0 
0 0 0.164 0 0.428 0.052 0.928 0.936 0.052 
0 0.132 0.712 0 0 0.996 0 0 0 
0.2 0 0 0 0 0 0 0 0 
0 0 0 0 0 0 0 0.976 0 
0 0 0 0 0 0 0 0.004 0 
0 0 0 0 0 0.18 0.328 0 0.34 
0 0 0.94 0.692 0.204 0.472 0.976 0 0 
0 0 0 0 0 0.132 0 0.664 0.004 
0.024 0.06 0.988 0.312 0.96 0 0 0.964 0 
0.004 0 0 0 0 0 0 0 0 
0.004 0.012 0.02 0 0 0 0 0.948 0 
0.12 0 0.012 0 0 0 0 0 0 
0 0 0 0 0 0 0 0 0 
0.064 0 0 0 0 0 0 0.04 0.86 
0 0.364 0.328 0 0.064 0 0.644 0.664 0.236 
0.248 0 0.036 0.872 0 0 0 0 0 
0 0 0 0.536 0 0.024 0.512 0.868 0.012 
0 0 0.748 0 0 0.104 0 0 0 
0 0.36 0.78 0 0.54 0.396 0.728 0.52 0.844 
0.368 0 0.952 0 0.768 0 0.02 0 0.836 
0.904 0 0 0 0 0 0 0.444 0.768 
0.844 0.08 0.128 0.172 0.96 0.568 0.364 0 0 
0.752 0.2 0.576 0.912 0.876 0.992 0.996 0.012 0.68 
0.22 0.332 0 0 0.988 0.988 0 0 0.94 
0.196 0 0.008 0 0.568 0.556 0 0.924 0.352 
0.176 0.984 0.908 0 0 0 0 
CurvatureArray 1 295 double
0 0.00024450982804 0.00097010825662 0.0016661808664 0.0023067493673 0.0028723311111 0.0033481034649 0.0037222868485 0.0039974592209 
0.0041755606871 0.0042632021383 0.0042735534761 0.0042193735289 0.0041146582761 0.0039713917849 0.0038019283839 0.0036171030873 0.0034232315273 
0.0032288546911 0.0030377720375 0.0028545737721 0.0026809433943 0.0025195768513 0.0023704033552 0.0022347143474 0.0021122638392 0.0020033031556 
0.0019071294248 0.001823622718 0.0017523900288 0.0016927415676 0.001644242658 0.0016065101962 0.0015787371281 0.0015600498021 0.0015499935944 
0.001547202 0.0015506311791 0.0015587646538 0.0015701083257 0.0015825170003 0.001594599894 0.0016042356694 0.0016090871575 0.0016085824432 
0.0016013751433 0.0015865626655 0.001564940218 0.0015377621336 0.0015064197954 0.0014736399983 0.0014432727722 0.0014186679293 0.0014045400459 
0.0014042571374 0.0014215525319 0.0014577992553 0.0015138268328 0.0015872692462 0.0016769978678 0.0017781288105 0.0018878993844 0.0020002916788 
0.0021118424001 0.0022177316863 0.0023141264789 0.0023968453862 0.0024627569776 0.0025090874195 0.0025341033703 0.0025376266716 0.0025191790596 
0.0024806982052 0.0024234971677 0.0023511708812 0.002266422948 0.0021730437754 0.0020748801853 0.0019744028951 0.0018746675376 0.0017784581856 
0.0016875288942 0.0016027162518 0.001524722425 0.0014540900808 0.0013905274259 0.0013336302434 0.0012828027778 0.0012369285736 0.0011960701652 
0.001158745983 0.0011244320731 0.0010916627793 0.0010612987899 0.0010306374455 0.0010002969672 0.00096875725443 0.00093563709021 0.00089976403546 
0.00086040768393 0.00081712034087 0.00076970535362 0.00071653226524 0.0006584868897 0.0005949947867 0.00052778178674 0.00045891742324 0.00039442858841 
0.00034342486787 0.0003256027442 0.00035273317729 0.0004248057854 0.00053020170762 0.00065836105119 0.0007988047349 0.00095021748647 0.0011104946701 
0.0012733114728 0.0014412831233 0.0016105009012 0.001780017262 0.001951247259 0.0021219814793 0.0022916635345 0.0024613281194 0.0026305763097 
0.0027975228492 0.0029667680028 0.003131336195 0.0032969167447 0.003455605015 0.0036104815398 0.0037566052237 0.0038881154679 0.004004682698 
0.0041014023078 0.0041728246272 0.0042127045915 0.0042245912131 0.0041983406821 0.004139023217 0.0040406211331 0.0039110070534 0.0037517718258 
0.0035605953754 0.0033505749738 0.0031235336726 0.0028846156112 0.002641932827 0.0023973956111 0.0021603162112 0.0019287122073 0.0017104850708 
0.0015073757506 0.0013198369541 0.0011477011613 0.00099337068667 0.00085376080637 0.00072736488168 0.00061371599006 0.00050713818515 0.00040972192583 
0.00031605537618 0.00022864010326 0.0001537117865 0.00011530999147 0.00015016030543 0.00022734166591 0.0003170575242 0.00041110564271 0.0005056866655 
0.00059704888072 0.00068534741446 0.00076855602078 0.00084337785313 0.00091013976021 0.00096760551985 0.0010140359436 0.0010504537285 0.0010779696944 
0.0010920073788 0.0010955896045 0.0010901952521 0.0010751508455 0.0010509790052 0.001020174028 0.00097891210964 0.00093509381077 0.00088503258633 
0.00083076609113 0.00077505029374 0.00071396169575 0.00065407309205 0.00059178187344 0.00053163479143 0.00046832409593 0.00040992222643 0.00035191238164 
0.00029442213706 0.00024153002741 0.00018960279087 0.00013885586022 9.3163368952e-05 4.8394342263e-05 2.3807989792e-05 5.1754737329e-05 9.314223555e-05 
0.00013661433567 0.00017906176937 0.00022320252757 0.00027133865757 0.00032312488263 0.00038129451891 0.00044895171296 0.00052878095685 0.0006238286856 
0.00073872090911 0.000873226294 0.0010290310297 0.0012082023133 0.0014088350011 0.0016290575879 0.0018668359383 0.0021172225005 0.0023762403328 
0.0026378889824 0.0028926219509 0.0031331838387 0.003359113062 0.0035522953636 0.0037143048743 0.0038376625784 0.0039209636896 0.0039571266659 
0.0039512549864 0.0039010749885 0.0038116547402 0.0036941297682 0.0035406325527 0.0033670481028 0.0031762589849 0.0029767275806 0.0027695497784 
0.0025663954824 0.0023666107469 0.0021730675139 0.0019903424761 0.0018232694737 0.0016736346073 0.0015392067998 0.0014258950288 0.0013314234344 
0.0012635405661 0.0012140387313 0.0011910211898 0.0011899369341 0.0012146409813 0.0012606851741 0.0013304664098 0.0014291635459 0.001547760313 
0.0016957503651 0.0018705353834 0.0020772177446 0.0023180761338 0.0025950517681 0.0029062788446 0.0032573625231 0.003644376281 0.0040754820721 
0.0045418750676 0.0050484867139 0.0055914425781 0.0061593587833 0.0067581209102 0.0073844997871 0.0080035947219 0.0086328024508 0.0092356698214 
0.0098100680042 0.010325616636 0.01075957795 0.011093476255 0.011297876303 0.011344903265 0.01120628926 0.010891704281 0.010350979623 
0.009596783406 0.0086458675437 0.0074703813858 0.0061085558085 0.0045861626178 0.002939677264 0 
TorsionArray 1 295 double
0 0 -0.00014592728617 -0.00024950162832 -0.00038372187198 -0.000551694003 -0.00068822011938 -0.00083646023119 -0.0010198626236 
-0.001160733981 -0.0013039255631 -0.0014687932778 -0.0016159413899 -0.0017622301274 -0.0019015449388 -0.0020487155173 -0.0021699197592 -0.002288502056 
-0.0024415814904 -0.0025840841739 -0.0027242635191 -0.0028876025622 -0.0030604564408 -0.003277737768 -0.0035421010441 -0.0038422306957 -0.0042123387921 
-0.0046305791351 -0.0051346642737 -0.0057249046228 -0.0063554549438 -0.007072164951 -0.0078150919078 -0.0085437241531 -0.0092682622744 -0.0098867456776 
-0.010400767366 -0.010762339232 -0.010914560777 -0.010826139947 -0.010494020315 -0.0098963737568 -0.0089551265051 -0.0077619115643 -0.0061994785158 
-0.004200955105 -0.0018666298641 0.00095282486506 0.0042338477612 0.0080035973495 0.012210756168 0.016570581919 0.0208826878 0.024765642497 
0.027551706459 0.029011151486 0.028848910412 0.027246578332 0.024463456033 0.020942461643 0.017248084516 0.013740413414 0.010435916995 
0.0073840287027 0.0047581795103 0.0024224377244 0.00042602076554 -0.0013424173457 -0.002766378157 -0.0041401854712 -0.0054645969025 -0.0065812646353 
-0.0075347834287 -0.0085359799046 -0.0094644940596 -0.010182570187 -0.010963285087 -0.011561250826 -0.011869296458 -0.012072231715 -0.012191214187 
-0.01192086126 -0.011329107636 -0.010536429403 -0.0094924362264 -0.008216909196 -0.0067227407958 -0.0050419896922 -0.003275821404 -0.0014580302687 
0.00044996798774 0.0024429820806 0.0043012525758 0.0062089927296 0.0082420463538 0.01015999633 0.012192651478 0.014381961963 0.016824216929 
0.019474531161 0.022305004167 0.025984523267 0.030728341308 0.03698589873 0.046143443853 0.0596682338 0.081355507755 0.11362497965 
0.15876596475 0.19088705962 0.17791110258 0.13590262745 0.096954063722 0.07005907314 0.052176553553 0.039133906271 0.030370772758 
0.023062963665 0.016938111197 0.012182056799 0.0075741735631 0.0033587321653 -0.00020496707235 -0.0033924702241 -0.0065909935366 -0.0089203675819 
-0.011198836991 -0.012808710583 -0.014084406297 -0.01518952087 -0.015169590699 -0.015157618947 -0.01467569044 -0.013668879289 -0.012811001921 
-0.011374719659 -0.0094944177628 -0.0080756669157 -0.0062157467507 -0.004271775139 -0.002466885638 -0.00024509580685 0.0017003747526 0.0038908059703 
0.0061271348423 0.0082327306392 0.010951947872 0.01348820481 0.016142428882 0.019083740157 0.021921946159 0.025495471621 0.028728936847 
0.031769245407 0.034626779242 0.037127029706 0.039163474251 0.039608212559 0.038067381569 0.034990358646 0.027695408695 0.01459510959 
-0.0096074108071 -0.064500551423 -0.2006756926 -0.39505320335 -0.2260407805 -0.082623521962 -0.028443802094 -0.0073077225715 0.0027530411509 
0.0080570123836 0.010997917317 0.012505416298 0.013367734185 0.014079243321 0.014410187067 0.01468924507 0.014858628413 0.015219956925 
0.015412795374 0.014988426618 0.015095867604 0.015200212935 0.014381027041 0.013805613967 0.013098788402 0.011261103141 0.0097172758557 
0.0075595224669 0.0047991206645 0.0016086475201 -0.0021015462083 -0.00624971845 -0.011109859308 -0.015810053553 -0.021818820485 -0.027384039656 
-0.034020094067 -0.042103796608 -0.053388188463 -0.072289060884 -0.1057307383 -0.29474407558 -1.0428014878 -0.25833653468 -0.12598612502 
-0.093542889517 -0.085578369184 -0.083714257071 -0.086188643133 -0.08821671292 -0.088256123403 -0.086875335303 -0.085381923824 -0.082706773226 
-0.076926739955 -0.070897585185 -0.064150829641 -0.058088672089 -0.052148861101 -0.046616824094 -0.041801424689 -0.037189298859 -0.03319022971 
-0.029812550815 -0.026613309086 -0.023683221907 -0.021034095756 -0.018692405397 -0.01661880466 -0.014905307953 -0.01303406029 -0.011379189429 
-0.010035789756 -0.0087165087625 -0.0076504320405 -0.0067290205113 -0.0060505158583 -0.0054979051641 -0.0051701226461 -0.0051419688702 -0.0055089285635 
-0.0061535798064 -0.0071029406937 -0.0084623060923 -0.010407182174 -0.012610653416 -0.015209392858 -0.018410913861 -0.020915094342 -0.023515225413 
-0.025015341476 -0.024461677785 -0.022289383139 -0.018446115439 -0.012731918015 -0.0062518776001 0.00062086525804 0.0069520702194 0.012104845858 
0.01613010709 0.019206195354 0.02108382772 0.021748009399 0.02146663639 0.020858725591 0.019811014905 0.018292030135 0.016647625763 
0.015013487168 0.01318767189 0.011665713649 0.010125320337 0.0084744428044 0.0073558392967 0.0061490019732 0.0049235321284 0.0041138986907 
0.0033059210906 0.0025546905681 0.0020126844692 0.0015128092335 0.0011561840942 0.00089754700287 0.0005686758947 0.00044310753149 0.00031059671925 
1.2613483383e-05 9.1183302368e-05 9.652425001e-05 -8.4503256429e-05 3.9821542537e-05 0 0 
TangentArray 3 295 double
-0.14171244374 0.33449374264 0.93168209139 -0.14171244374 0.33449374264 0.93168209139 -0.14117746523 0.33285686035 0.93234930891 
-0.14000974829 0.3292881788 0.93379150011 -0.13823099817 0.32386926304 0.93594919285 -0.13587631357 0.31673046619 0.93873289023 
-0.13299064514 0.30804263764 0.9420314335 -0.12963038467 0.29801359488 0.94571870059 -0.12585768255 0.28687090943 0.94966569121 
-0.12173567237 0.27484912539 0.95374964448 -0.11733174506 0.26218661112 0.95785773607 -0.11271172728 0.24911144628 0.96189373315 
-0.10793613366 0.23583228199 0.96578099268 -0.10306087745 0.22253396585 0.96946226826 -0.098135894648 0.20937580151 0.97289830914 
-0.0932047307 0.19648987258 0.9760658831 -0.088302600102 0.18397899676 0.97895575976 -0.083460035562 0.1719223495 0.98156870784 
-0.078701105184 0.16037612045 0.98391342913 -0.074042184092 0.14937616797 0.98600431815 -0.069495263603 0.13894154509 0.9878591273 
-0.065068050334 0.1290773728 0.98949743843 -0.060763475873 0.11977743217 0.99093953738 -0.056581203562 0.11102694999 0.99220541411 
-0.0525170974 0.10280542644 0.99331414909 -0.048563459254 0.095087243721 0.99428366501 -0.044710266742 0.087843639077 0.995130387 
-0.040944821663 0.08104453384 0.99586912047 -0.037253008079 0.074659258474 0.99651302476 -0.033618317734 0.068657245979 0.99707371407 
-0.030022812436 0.063009417223 0.99756124828 -0.026448531472 0.057688190854 0.99798424227 -0.022876367212 0.052668127822 0.99835000883 
-0.019287804696 0.047926136908 0.9986646414 -0.015666243693 0.043442079894 0.99893310812 -0.011996303489 0.039198546 0.99915942807 
-0.0082658501144 0.035180347373 0.9993467961 -0.0044664112643 0.031375117812 0.99949770042 -0.00059368450607 0.027772515896 0.99961409299 
0.003351504147 0.024363446331 0.99969754921 0.0073626096883 0.021139647721 0.99974942224 0.01142783955 0.018092798782 0.99977100134 
0.015530612304 0.01521364221 0.99976364465 0.019648143042 0.012491406954 0.99972892087 0.02375465224 0.009913480825 0.99966866481 
0.027822279778 0.0074635738019 0.9995850218 0.031820396118 0.0051219767053 0.99948047892 0.035719171327 0.0028664072405 0.99935775602 
0.039491130459 0.00067028188995 0.99921969623 0.043111508033 -0.0014956954817 0.99906914714 0.046559006091 -0.0036632364044 0.99890882449 
0.049817657587 -0.0058665794116 0.9987410997 0.052877249158 -0.0081402054327 0.99856784125 0.055733092156 -0.010518923726 0.99839029176 
0.058385617698 -0.013037336788 0.99820896985 0.060841284455 -0.015727708 0.99802353545 0.063110689664 -0.018620337753 0.99783281359 
0.065208705648 -0.021742275996 0.99763475187 0.067152641657 -0.025115839887 0.99742654732 0.06896305067 -0.028758751172 0.99720460883 
0.07066302794 -0.032682721051 0.99696468153 0.072276093901 -0.036893647606 0.99670207435 0.073824846436 -0.041390586555 0.99641191853 
0.075331689619 -0.046164603782 0.9960893363 0.076819621352 -0.051199522278 0.99572955901 0.078309390501 -0.056472065281 0.99532836049 
0.079820602623 -0.061951638209 0.99488223721 0.081370033537 -0.067601144059 0.99438875847 0.082972270597 -0.073377930033 0.99384670936 
0.084637140358 -0.079235559188 0.99325640226 0.086373395445 -0.085125335196 0.99261942046 0.08818812962 -0.090997353285 0.99193867527 
0.090084203967 -0.096803242802 0.99121842617 0.092060822089 -0.10249792565 0.99046402271 0.094116773037 -0.10804020831 0.98968143684 
0.096248881101 -0.11339504624 0.9888769976 0.09845060939 -0.11853446589 0.98805721388 0.10071659095 -0.12343760491 0.98722810232 
0.10303941485 -0.12809084343 0.98639526297 0.10540895967 -0.13248785232 0.98556375756 0.10781609547 -0.13662905438 0.98473762549 
0.11025305953 -0.14052025261 0.98391987553 0.11270995208 -0.14417261203 0.98311277311 0.11517600054 -0.14760106734 0.98231787819 
0.11764124079 -0.15082335888 0.98153596617 0.12009584314 -0.15385918131 0.98076722049 0.12252975382 -0.15672904541 0.98001146205 
0.1249326697 -0.15945373867 0.9792682642 0.12729356169 -0.1620532936 0.978537214 0.12960190753 -0.16454679161 0.97781782502 
0.13184731709 -0.16695164796 0.97710973397 0.13401850104 -0.16928305795 0.97641296984 0.13610318584 -0.1715537741 0.97572804889 
0.13809087771 -0.17377392491 0.97505565611 0.13997034228 -0.1759508153 0.97439705145 0.14172926031 -0.17808871789 0.97375419143 
0.14335694125 -0.18018871018 0.97312939331 0.14484246184 -0.18224862254 0.97252562991 0.14617521961 -0.18426332186 0.97194641488 
0.14734491174 -0.18622436742 0.97139588323 0.14834313661 -0.18812028282 0.97087850579 0.14916471706 -0.18993700177 0.97039879562 
0.1498047283 -0.19165772485 0.96996178269 0.15026053435 -0.19326354467 0.9695725729 0.15053237415 -0.19473391333 0.96923614632 
0.15062266188 -0.19604728527 0.96895731364 0.15053705557 -0.19718150379 0.96874044484 0.15028296667 -0.19811477006 0.96858947331 
0.14987293989 -0.19882605486 0.96850725438 0.14931845806 -0.19929579802 0.96849635156 0.14863237842 -0.19950741609 0.96855831369 
0.1478311985 -0.19944612367 0.96869354313 0.14692889502 -0.19910039512 0.96890192097 0.14593744127 -0.19846214306 0.96918266648 
0.1448697633 -0.19752693456 0.96953383737 0.14373644027 -0.19629418212 0.96995279772 0.14254075824 -0.19476523321 0.97043734273 
0.14128723582 -0.19294473107 0.97098416452 0.13997536085 -0.19084078701 0.97158977576 0.13859888214 -0.18846334391 0.97225095416 
0.13715173254 -0.18582450334 0.97296385145 0.1356214241 -0.18293741825 0.97372518214 0.13399187667 -0.17981623475 0.97453183565 
0.13224683468 -0.17647670207 0.97538030959 0.13036840299 -0.17293417626 0.97626730468 0.12833522046 -0.1692048802 0.97718973578 
0.12612965492 -0.16530500763 0.97814393859 0.12373206142 -0.16124954339 0.97912663212 0.1211262177 -0.15705363301 0.98013396826 
0.11829861237 -0.15273231344 0.98116169857 0.11523661255 -0.1483018508 0.9822052149 0.11193791429 -0.14377575393 0.98325908891 
0.10840115369 -0.13916772356 0.98431780163 0.10463347711 -0.13449424052 0.98537461645 0.10064982921 -0.1297702332 0.98642247463 
0.096467116415 -0.12501237575 0.98745430343 0.092112586371 -0.1202371706 0.98846259122 0.087624026335 -0.11546209234 0.9894395056 
0.083038173868 -0.11070711828 0.99037800644 0.078399564646 -0.10599111924 0.991271603 0.073757237043 -0.10133433293 0.99211452109 
0.069160714444 -0.096758533894 0.99290210076 0.064662354256 -0.092282550588 0.99363107379 0.060307672261 -0.087924111785 0.99429992217 
0.056144812234 -0.083702743047 0.99490784039 0.052215600646 -0.079635748216 0.99545551315 0.048552118889 -0.075737188943 0.99594506373 
0.045185230699 -0.072018417591 0.99637926637 0.042134762328 -0.068489702354 0.99676166784 0.039413761439 -0.065159508165 0.99709618087 
0.037027028256 -0.062033168867 0.99738702876 0.034972186129 -0.059115830871 0.99763834366 0.033243087266 -0.056410060197 0.99785409868 
0.031823319941 -0.053915691008 0.99803826308 0.030691263876 -0.05163277254 0.9981944215 0.029821540134 -0.049561564243 0.99832576201 
0.029184372212 -0.04769969837 0.99843528142 0.028748038874 -0.046043216829 0.99852569944 0.028477031593 -0.044589502799 0.99859943667 
0.028333941103 -0.043333553024 0.99865879607 0.028282675097 -0.042270666221 0.99870580306 0.028285202115 -0.041394456281 0.99874243243 
0.028305117591 -0.040697127711 0.99877052625 0.028307921054 -0.040171322983 0.99879173325 0.028260415704 -0.039806175916 0.99880769784 
0.028133390835 -0.039590748188 0.99881984611 0.027899808125 -0.039512552936 0.99882949439 0.027536278882 -0.039558551946 0.99883776176 
0.027025759628 -0.039714499866 0.99884551699 0.026354991662 -0.03996360639 0.99885350506 0.025514916079 -0.040290587981 0.99886218147 
0.024502612025 -0.040679126705 0.99887177889 0.023319081954 -0.041112388693 0.99888237141 0.021968327894 -0.041574266276 0.99889387472 
0.020460707631 -0.042048768529 0.99890603187 0.018810650597 -0.042520923797 0.99891848039 0.017034249607 -0.042976564396 0.99893085309 
0.015151442942 -0.043403234455 0.99894273761 0.013183495735 -0.043790180699 0.99895376045 0.01115012465 -0.044129172141 0.99896360839 
0.0090745127414 -0.044412378947 0.99897206859 0.0069815624717 -0.044634542668 0.99897898646 0.0048920777896 -0.04479539132 0.99898420433 
0.0028256372429 -0.04489423645 0.99898774933 0.00080165916378 -0.044932042968 0.9989897241 -0.001163690617 -0.044914833865 0.99899014185 
-0.003053555095 -0.044848585571 0.99898912916 -0.0048555756111 -0.044740660988 0.99898683507 -0.0065621333418 -0.044602000058 0.99898328314 
-0.008164482358 -0.044442253314 0.99897859204 -0.0096589374047 -0.044271913367 0.99897282376 -0.011041016541 -0.044101808629 0.99896602867 
-0.012308802913 -0.043942058606 0.99895825181 -0.013462929138 -0.043801290828 0.9989495465 -0.01450446946 -0.043686750239 0.99893998229 
-0.01543319531 -0.043604146153 0.99892967466 -0.016250572291 -0.043555746965 0.99891882343 -0.016960702711 -0.043542762517 0.99890758451 
-0.017562980724 -0.043562468339 0.99889631747 -0.018060259654 -0.043610452696 0.9988853565 -0.018455932244 -0.043680163946 0.9988750782 
-0.018750183403 -0.043763038489 0.99886597053 -0.018948194008 -0.043848333279 0.99885849329 -0.019054864457 -0.043922912411 0.99885318736 
-0.019073787843 -0.04397493611 0.99885053717 -0.019014459896 -0.043990880328 0.99885096624 -0.018886614848 -0.043956716485 0.9988548958 
-0.018701298271 -0.043857256358 0.99886275459 -0.018474480349 -0.043679508335 0.99887476399 -0.018225190178 -0.043412606404 0.99889097906 
-0.017973119037 -0.043044390359 0.99891148129 -0.017743407128 -0.042564180941 0.99893616513 -0.017565063142 -0.041964261592 0.99896469873 
-0.01746785934 -0.041239497504 0.99899658545 -0.017483788682 -0.040386305668 0.9990311624 -0.017648613578 -0.039403970509 0.99906749199 
-0.018001780207 -0.038293142992 0.99910438449 -0.018580969556 -0.037057494552 0.99914037536 -0.01942351536 -0.03570532736 0.99917358685 
-0.020565469894 -0.034245365421 0.99920183967 -0.022041500537 -0.032689596647 0.99922247899 -0.023881911099 -0.031052980498 0.99923238875 
-0.026111407678 -0.029351461442 0.99922804509 -0.028749187645 -0.02760334301 0.99920545418 -0.031806064584 -0.025826383315 0.99916033357 
-0.035285500445 -0.02403866885 0.99908812217 -0.039180501145 -0.02226018823 0.99898417022 -0.043471939737 -0.020509806365 0.9988441011 
-0.048135644372 -0.01880218606 0.99866382609 -0.053135410405 -0.017151509546 0.99844001016 -0.058424288116 -0.015570520327 0.99817040702 
-0.0639524581 -0.014068686726 0.99785377444 -0.069664762822 -0.012654514705 0.99749019247 -0.07549971726 -0.011331779438 0.99708143272 
-0.081394439249 -0.010102133449 0.99663077022 -0.087287995622 -0.0089664065439 0.99614276556 -0.093120191156 -0.0079228925138 0.99562335136 
-0.098841829026 -0.0069683917986 0.99507875786 -0.10440438068 -0.0060998510842 0.99451622265 -0.10976368338 -0.0053147197134 0.99394350321 
-0.11488821555 -0.0046091562115 0.99336773332 -0.11975363597 -0.0039799263098 0.99279566219 -0.12434188963 -0.0034250528042 0.99223352266 
-0.12864409086 -0.0029438777106 0.99168645825 -0.13265957126 -0.0025359291416 0.99115841681 -0.13638903458 -0.0022016257746 0.99065290798 
-0.13983934116 -0.0019418515836 0.99017230211 -0.14302519389 -0.0017586676757 0.98971748545 -0.14596712545 -0.0016531324278 0.98928805989 
-0.14868545605 -0.0016270668215 0.98888320231 -0.1512039154 -0.0016832292721 0.98850115969 -0.15354947544 -0.0018209782137 0.98813928301 
-0.15575389828 -0.0020413152708 0.98779378223 -0.15784902915 -0.0023435725105 0.987460476 -0.15986771329 -0.0027232571891 0.98713469097 
-0.16184697998 -0.0031758319084 0.98681075651 -0.16382472762 -0.0036954738157 0.98648254019 -0.16584029057 -0.0042732701023 0.98614336543 
-0.16793253642 -0.0048981022771 0.98578632158 -0.17014718062 -0.0055577071023 0.98540298803 -0.17252652418 -0.0062365684969 0.98498512865 
-0.17511135405 -0.0069179667048 0.98452432952 -0.17794590725 -0.0075843884716 0.98401104219 -0.18107358094 -0.0082156194101 0.98343523523 
-0.18454030666 -0.0087910274904 0.98278562925 -0.18839140949 -0.0092905319996 0.98205008164 -0.19266864255 -0.0096946864523 0.98121598399 
-0.19741328961 -0.0099832965441 0.98026951747 -0.20266480386 -0.01013681862 0.97919570168 -0.20846264424 -0.010139058642 0.97797777349 
-0.21484317293 -0.0099754582401 0.97659761482 -0.22183725744 -0.0096331681155 0.97503611896 -0.22947453178 -0.0091038327503 0.97327208914 
-0.23777172427 -0.008380069769 0.97128491266 -0.24674034557 -0.0074582977267 0.96905292717 -0.25639274505 -0.0063406704233 0.96655189006 
-0.26671473513 -0.0050288488525 0.96376239849 -0.27768007502 -0.003530720332 0.96066711714 -0.28925273034 -0.0018602389645 0.95725095847 
-0.30137254618 -3.13724745e-05 0.95350646953 -0.31396296689 0.0019366344922 0.94943325456 -0.32691941649 0.0040182367741 0.94504367565 
-0.34011832875 0.0061862826448 0.94036229846 -0.35341553451 0.0084092062307 0.9354286425 -0.36664223567 0.010652342212 0.93030102581 
-0.3796074323 0.012877880497 0.92505802928 -0.39212048895 0.015045776445 0.91979081685 -0.40397859392 0.017116842261 0.91460828192 
-0.4149673933 0.019049024365 0.90963684906 -0.42489728756 0.020802105695 0.90500252343 -0.43357746765 0.022341315693 0.90083930041 
-0.44082544401 0.023631275311 0.89728172317 -0.4464926756 0.024642022678 0.89444790869 -0.45045920916 0.025350784372 0.89243702221 
-0.45045920916 0.025350784372 0.89243702221 
NormalArray 3 295 double
-0.2902002393 0.88579069999 -0.3621583313 -0.2902002393 0.88579069999 -0.3621583313 -0.28964038201 0.88668566446 -0.36041223835 
-0.29081511374 0.88781060822 -0.35667757646 -0.29244868417 0.88953499362 -0.35100037359 -0.29488517226 0.89164594073 -0.34352620215 
-0.2980515838 0.89404821188 -0.33442943683 -0.30176601522 0.89666776812 -0.32392002975 -0.30616022094 0.89931855118 -0.31223718967 
-0.31127195 0.90185113785 -0.29962359435 -0.3167587046 0.90426025064 -0.28631682131 -0.32290262109 0.90633604926 -0.27255983398 
-0.3295343846 0.90804843411 -0.25856359118 -0.33668382664 0.90931523749 -0.24451952837 -0.34430212704 0.91010102043 -0.23059093203 
-0.35238390045 0.91037019742 -0.21691401605 -0.36098964859 0.91007438362 -0.20359540732 -0.36987205673 0.90929813542 -0.19071329939 
-0.37927514841 0.9079366565 -0.17832944113 -0.3891891438 0.90598915761 -0.1664795983 -0.39953213564 0.90348916815 -0.15518181474 
-0.41036850746 0.90040792771 -0.14444117075 -0.4217702574 0.89670885264 -0.13425007845 -0.4337009902 0.89240154277 -0.12459108135 
-0.44648139459 0.88731496717 -0.11544051857 -0.46004520505 0.88145294583 -0.10676663149 -0.47463626325 0.8746494168 -0.098533320764 
-0.49038533838 0.86677310443 -0.090700635819 -0.50733286429 0.85772179148 -0.083226757865 -0.52584272622 0.84717384217 -0.076065159122 
-0.54586124698 0.83501550681 -0.069170820749 -0.56739121474 0.82107313959 -0.062498870964 -0.59060878772 0.80501245255 -0.056001884871 
-0.61505803875 0.78691749827 -0.049643326729 -0.64064299289 0.76661216532 -0.043385984334 -0.66694059336 0.74418155516 -0.037202928427 
-0.69333803223 0.71994198393 -0.03107913835 -0.71949505159 0.69404738587 -0.025001937765 -0.7447100026 0.66711834442 -0.018977000973 
-0.76854262987 0.63966623905 -0.013012635956 -0.79041063336 0.61253585868 -0.0071310941756 -0.81007616673 0.58632310085 -0.0013511148314 
-0.82713892438 0.56198107953 0.0042972105521 -0.84128248525 0.54050728025 0.009780593524 -0.85258899112 0.52236445214 0.015079501377 
-0.86050118571 0.50904978284 0.020150135982 -0.86493325616 0.50126545897 0.024968020236 -0.86560215965 0.49986235305 0.029504732011 
-0.86182345242 0.50608615766 0.033721475 -0.85310274717 0.52038692664 0.03759187882 -0.83821607849 0.54379003977 0.041063346292 
-0.81627753925 0.57597413884 0.044099549908 -0.78624576369 0.61614992565 0.046656920235 -0.74743169986 0.6625509303 0.048704402386 
-0.69983967757 0.71253095521 0.05024005936 -0.64563332421 0.76191807571 0.051365908644 -0.58655827224 0.80822433708 0.052180592297 
-0.5273537331 0.84799426408 0.052950621044 -0.47011955128 0.88095940359 0.053834345231 -0.41930489536 0.90616995122 0.055130973528 
-0.37526445932 0.92516803239 0.056927123651 -0.33968242354 0.93866403247 0.059377481293 -0.31097039638 0.94836665191 0.062434814953 
-0.29020770829 0.95467167549 0.066192734169 -0.27556246372 0.958690464 0.070554396276 -0.26694791184 0.96074795955 0.075512717959 
-0.26320232582 0.96133595444 0.080979740608 -0.26389745631 0.96062814402 0.086900526264 -0.2684093605 0.95878600148 0.093197739 
-0.27576066988 0.95603510872 0.099764341552 -0.28667636904 0.95207897943 0.10659397899 -0.30022944725 0.94708140903 0.11357413294 
-0.31637489402 0.94093129511 0.12064503438 -0.33440314635 0.93373703586 0.12770937151 -0.35526547862 0.92500002578 0.1347642089 
-0.37761287518 0.91505964878 0.14168399938 -0.4018173 0.90360844215 0.14844069761 -0.42772946948 0.8905211241 0.15498267152 
-0.45455480207 0.8760034343 0.16123868954 -0.4816426035 0.8602780234 0.16715898107 -0.50909180313 0.84320206435 0.17273046824 
-0.53629031372 0.82506641068 0.17792728116 -0.56196984487 0.80672097009 0.18273250906 -0.58596188595 0.788426114 0.18717086039 
-0.60754047677 0.77091394177 0.19127536034 -0.62642780878 0.75466919415 0.1950964064 -0.64201010511 0.74050203591 0.19869514275 
-0.65414394196 0.72886042919 0.20213405936 -0.66235053556 0.72046582233 0.20547692547 -0.66692517564 0.71528233416 0.20876300565 
-0.66745680226 0.713824023 0.21202990662 -0.66404101563 0.71603239931 0.21528384217 -0.65618051132 0.72227135058 0.21852055441 
-0.64491051224 0.7314003586 0.22168434009 -0.62870827967 0.74445733699 0.22474245809 -0.60846684302 0.76024055518 0.22760140422 
-0.58343356135 0.77886372511 0.23016641194 -0.5536391731 0.79969535937 0.23231659048 -0.51798349793 0.82279359076 0.23388844109 
-0.47616103025 0.84746139149 0.23469099515 -0.42719063282 0.8732304217 0.23447130711 -0.37104970404 0.89891164781 0.23298061414 
-0.30313054898 0.92488414956 0.22956737611 -0.22341528322 0.94870006153 0.22372707585 -0.12390666224 0.96896042394 0.21392249973 
-0.00019593488856 0.98013346328 0.19833899204 0.16209870612 0.97156799798 0.17256776862 0.37404132659 0.9182850806 0.12979058811 
0.63132539315 0.7731138502 0.061018215224 0.87612170157 0.48073255636 -0.036152085693 0.98620194808 0.10210584991 -0.13030776266 
0.95488843364 -0.22628170963 -0.19231398076 0.86575490385 -0.44787904863 -0.2233221983 0.77270200001 -0.58888955768 -0.23694030479 
0.69139543587 -0.68074110155 -0.24199980146 0.62500454936 -0.74191318803 -0.24276353661 0.57289600714 -0.78328717983 -0.24135318293 
0.5300186602 -0.81366557159 -0.23880652723 0.49922693753 -0.8337977916 -0.23569834018 0.4759195249 -0.84826265514 -0.23227370431 
0.46039509264 -0.8577439472 -0.22871746701 0.45209667154 -0.8630927804 -0.22512097192 0.45021747433 -0.86500743137 -0.22150929887 
0.45333621508 -0.86430864411 -0.21784591762 0.46130064647 -0.86101927581 -0.21412034059 0.47395764223 -0.85506519495 -0.2103037464 
0.48868417079 -0.8477244309 -0.2062791082 0.5073019775 -0.83774174548 -0.2020729361 0.52619416239 -0.82709735669 -0.19755927216 
0.54738478596 -0.81437730181 -0.19276801185 0.56854309002 -0.80096791233 -0.18764103552 0.58873134262 -0.78753168683 -0.1821791658 
0.60888081602 -0.77339931149 -0.17640197527 0.62705544057 -0.76012344962 -0.17033442342 0.64385901598 -0.74735820898 -0.16401608156 
0.65926260918 -0.73523522274 -0.15748644191 0.67210432947 -0.72493522557 -0.15081342462 0.68265501489 -0.7164008426 -0.14405541768 
0.6918663435 -0.70886104582 -0.13724787958 0.69795937631 -0.70414807404 -0.13049214093 0.70259217674 -0.70073973593 -0.12380652516 
0.70447851827 -0.69996772862 -0.11728254854 0.70397740905 -0.70150042161 -0.11096380504 0.7013184461 -0.70508944897 -0.10488711123 
0.69553861236 -0.71161875473 -0.099120061742 0.68742010765 -0.72019371058 -0.093672914146 0.67613018909 -0.73143754456 -0.088583778414 
0.66065562595 -0.74598807713 -0.083880466555 0.64221153517 -0.76239023314 -0.079532864376 0.61836410024 -0.78225068954 -0.075562545286 
0.59061779041 -0.80374051442 -0.071915305294 0.55641462141 -0.82807035094 -0.068573048495 0.51580913805 -0.85419800179 -0.065472947374 
0.46865411147 -0.88116479288 -0.062545436123 0.41476761046 -0.90796560947 -0.059718350136 0.35417739225 -0.93344439865 -0.056920378108 
0.28781471604 -0.95615723828 -0.054092743582 0.21573105453 -0.97511090608 -0.051174534267 0.14501377854 -0.98825184274 -0.048262815391 
0.075612901809 -0.99610462933 -0.045368012035 0.015255849634 -0.99897086047 -0.042713920271 -0.025069423997 -0.99885730237 -0.040689230666 
-0.032960295734 -0.99866553971 -0.03975875631 0.03252951269 -0.99862591656 -0.041086610696 0.2689114478 -0.96206817658 -0.045950591372 
0.77021603321 -0.63605587999 -0.046906073253 0.99853043037 -0.045340662594 -0.029685079297 0.97162248687 0.23589291055 -0.017443559383 
0.94330521883 0.33169733508 -0.0123345864 0.93263034248 0.36068972769 -0.010176670094 0.93122286508 0.36433683312 -0.0090910720135 
0.9355095485 0.35319758929 -0.0085643204734 0.94201068898 0.33548307383 -0.0081834599958 0.94978184723 0.31281388144 -0.0078688153418 
0.95740978985 0.28863616028 -0.0074606484122 0.96492063927 0.26244842664 -0.0069988047941 0.97193356994 0.2351668568 -0.0064563983051 
0.97824420629 0.20737482057 -0.0058272342336 0.98386177278 0.17885623165 -0.0051439726095 0.98863498619 0.15027153418 -0.0043966015302 
0.99274621525 0.12017255991 -0.0036753168831 0.99585941022 0.09086046714 -0.0029001003299 0.99804532925 0.06245931685 -0.0020867455554 
0.99946174623 0.032777807121 -0.0013539522489 0.99999120931 0.00414752228 -0.00061591771417 0.99975499749 -0.022134052707 0.0001694293093 
0.99882033356 -0.048550782002 0.00087340191391 0.99743212127 -0.071599367181 0.0016413670433 0.99585321127 -0.09094077597 0.0024813038496 
0.99414173502 -0.10803331089 0.0033187987356 0.99290278249 -0.11884985712 0.0043331261312 0.992047197 -0.12574998336 0.005413004702 
0.99223282251 -0.12421070405 0.006762168696 0.99302853039 -0.11758677639 0.0082272625029 0.99492881582 -0.10007624572 0.010069582608 
0.99707015457 -0.075528226764 0.012107593659 0.99908159227 -0.040322017638 0.014495063766 0.99982298169 0.0073997736826 0.017298804426 
0.99781413118 0.062892041637 0.020286713015 0.99038585299 0.13625994928 0.023855574196 0.97499747141 0.22048819804 0.027656559375 
0.94030330932 0.33878287218 0.032493876392 0.87802552954 0.47713446617 0.037601471501 0.67535390431 0.73610414628 0.045252511201 
-0.5214834358 0.85281531033 0.027587545225 -0.99787882821 -0.061375858227 -0.021699037921 -0.93094281987 -0.36361549072 -0.033604181809 
-0.83845992382 -0.54352528941 -0.039562809703 -0.74202281657 -0.66899552345 -0.042978242152 -0.62943433935 -0.77573804104 -0.045198496867 
-0.50713081645 -0.86062938832 -0.046210290643 -0.36368067667 -0.93038211773 -0.046102933022 -0.21496343678 -0.97559574283 -0.044762343811 
-0.060986916129 -0.99724466541 -0.042233557528 0.087511114109 -0.99541120158 -0.038708457435 0.23191958545 -0.972131989 -0.03424473457 
0.36271314244 -0.93144436449 -0.029164570212 0.47598995965 -0.87912984599 -0.023754414409 0.57291092757 -0.81941676987 -0.018144594743 
0.65214729098 -0.75798829835 -0.012555892398 0.7185506977 -0.69544034233 -0.0069010944393 0.77152896152 -0.63619280856 -0.0013311185892 
0.81484372301 -0.57966499666 0.0042659950024 0.84957311898 -0.52737842235 0.009874975648 0.8773543094 -0.47959166933 0.015532111334 
0.8997414312 -0.43590382952 0.021288691548 0.91788320146 -0.39591894612 0.027177501277 0.93230397845 -0.36015042168 0.033180800608 
0.94388628655 -0.32792148409 0.039321474188 0.95311294574 -0.29916183616 0.045584081149 0.96048562234 -0.27343781215 0.051953172879 
0.9663730286 -0.25042389177 0.058404143805 0.97114162938 -0.22949995713 0.064913059982 0.97471439 -0.21174028365 0.071399651348 
0.97759531163 -0.19556485699 0.077857519793 0.97975771578 -0.18161008678 0.084217544147 0.98141951407 -0.16922003428 0.090445107067 
0.98265815904 -0.15833772132 0.096499266726 0.98359577074 -0.14854116195 0.1023468758 0.98430546333 -0.13960277553 0.10795285975 
0.98484149821 -0.13134684621 0.11329267141 0.98529217533 -0.1232540256 0.11835444394 0.98571891999 -0.11488024135 0.12312896055 
0.98620781957 -0.10539040188 0.1276205305 0.98673828746 -0.094707703592 0.13182565361 0.98735978373 -0.081801885698 0.13575385432 
0.98800939615 -0.066362881874 0.13940373394 0.98865729069 -0.046561707605 0.14278924662 0.98902105933 -0.023535472778 0.14588840161 
0.98886739177 0.0056446184329 0.14869236624 0.9877171577 0.039598790251 0.15115142145 0.98515039701 0.077459317651 0.15322776963 
0.98061000969 0.12008122819 0.15486932404 0.97423056964 0.16279181116 0.15612054127 0.96656338877 0.20267285424 0.15709528845 
0.95843744118 0.23758559459 0.15795808491 0.95133189365 0.26399656179 0.15897623561 0.94655816346 0.27982286405 0.16039578533 
0.94471667345 0.28487253257 0.16235161563 0.94616496702 0.27850622616 0.16494283004 0.95003080069 0.26304770937 0.16806956993 
0.95543757284 0.24017437495 0.17162550519 0.96144908628 0.21169851692 0.17549755675 0.96731422381 0.17901602352 0.17960082331 
0.97227439739 0.1444933744 0.18385907903 0.97596129926 0.10980393644 0.18826215202 0.97825331916 0.076371521668 0.19284147437 
0.97927492516 0.044159582072 0.19766272353 0.97911493495 0.014396861307 0.20279712654 0.97797826696 -0.012478456168 0.20833338064 
0.97606928946 -0.036628073155 0.21435280831 0.97356700357 -0.057939354102 0.22093057917 0.97064698726 -0.076124584652 0.22814353758 
0.96735130917 -0.0923569792 0.23601193412 0.96384685679 -0.1056854135 0.24460136964 0.96015123272 -0.11674617746 0.25392900651 
0.9561971015 -0.12653768596 0.26396082496 0.95214009608 -0.13400221173 0.27472285069 0.94788245936 -0.14013312183 0.2861495263 
0.9434068148 -0.14517195316 0.29817559559 0.93874933937 -0.14897703844 0.31073384085 0.93389106006 -0.15185919702 0.32370707779 
0.92882289219 -0.15410078993 0.33695842693 0.92360802744 -0.15557755274 0.35034816503 0.91823270936 -0.15679468761 0.36368134046 
0.91281191878 -0.15752759223 0.37677507696 0.90742933857 -0.15784255012 0.38943256781 0.90212182083 -0.15822319358 0.4014245152 
0.89709835875 -0.15814373432 0.41255920063 0.89245894361 -0.15778701484 0.4226349393 0.88820855311 -0.15800347752 0.43141681385 
0.88468345683 -0.1574925867 0.43878384923 0.88179692067 -0.15759685661 0.44451931509 0.87983750489 -0.15709266037 0.44856199243 
0.87983750489 -0.15709266037 0.44856199243 
BinormalArray 3 295 double
-0.94641502756 -0.32169670802 -0.028457400581 -0.94641502756 -0.32169670802 -0.028457400581 -0.94666645257 -0.32092809625 -0.028771246378 
-0.94647970924 -0.32149901902 -0.028540160616 -0.94623779161 -0.32223624189 -0.028246170252 -0.94582258515 -0.32349548401 -0.027754445354 
-0.94524004449 -0.3252499473 -0.027087452455 -0.94452804904 -0.32737564185 -0.02630501269 -0.94362374009 -0.33004730694 -0.025357687718 
-0.94249148496 -0.33335039137 -0.024234631428 -0.94122111358 -0.33700382796 -0.023048541898 -0.93969674035 -0.34131869732 -0.021715962665 
-0.93795355984 -0.34616639942 -0.020296391233 -0.93596071307 -0.35160266341 -0.018791239075 -0.93371590513 -0.35760020464 -0.017225044048 
-0.93120269806 -0.36416731543 -0.015610941389 -0.92837983844 -0.37137089954 -0.013947420972 -0.92532647434 -0.37897177554 -0.012300781711 
-0.92193085307 -0.38720863596 -0.010628941417 -0.91817730604 -0.39606868943 -0.0089458330784 -0.91408122228 -0.40546586796 -0.0072766056627 
-0.90959542485 -0.41545709231 -0.0056184995378 -0.90466438527 -0.42610632515 -0.0039685883357 -0.89927861006 -0.43736998392 -0.0023406552029 
-0.89325042332 -0.44955888751 -0.00069849638546 -0.88656641022 -0.46260038951 0.00093802631617 -0.87904573809 -0.47673041939 0.002587967871 
-0.87054335991 -0.49207333699 0.0042531809683 -0.86094458486 -0.50866425424 0.0059243786196 -0.84991719361 -0.52686114274 0.0076223539981 
-0.83733752441 -0.5466067295 0.0093248851145 -0.82302350186 -0.56790049487 0.011015593912 -0.80663370355 -0.59091540812 0.01269049865 
-0.7882458941 -0.6151942265 0.014299444753 -0.76767905043 -0.64063919149 0.015820931081 -0.74501431774 -0.66682627944 0.017215673742 
-0.7205650899 -0.69314203663 0.018440940291 -0.69448320491 -0.71924531847 0.019474340947 -0.66738793783 -0.74443388014 0.020286412561 
-0.63978980415 -0.76826657164 0.020868191169 -0.61253311964 -0.79016007057 0.021218864792 -0.58621327909 -0.80987522004 0.021356951404 
-0.56178287608 -0.82701016399 0.021311705921 -0.54023858664 -0.84124660162 0.021128766244 -0.52204188407 -0.85266470669 0.020860710518 
-0.50868814625 -0.8607047192 0.020585339585 -0.50087715538 -0.86527839739 0.020380633455 -0.49945674688 -0.86610011645 0.020335837327 
-0.50566865383 -0.8624826675 0.020563579128 -0.51995874899 -0.85392927662 0.021158683244 -0.54334709415 -0.83921330622 0.022247740121 
-0.57550775833 -0.81744686349 0.023904925422 -0.61564729806 -0.78758682453 0.0261801111 -0.6619967345 -0.74894299984 0.029063835015 
-0.71190978736 -0.70151954051 0.032477514374 -0.76122003966 -0.64748242069 0.036201741977 -0.80744438454 -0.58858024429 0.040085682175 
-0.84713981425 -0.52955925213 0.043830737945 -0.88004439105 -0.47252483936 0.047351303766 -0.90522234969 -0.42193477428 0.05043355911 
-0.92422038608 -0.37814805511 0.053110510878 -0.93775904015 -0.34285374858 0.05531084612 -0.94754804872 -0.31446384989 0.057141775335 
-0.95399403698 -0.29405921405 0.058519706479 -0.95820878433 -0.27980565249 0.059537571937 -0.96052405057 -0.27161418235 0.060160487233 
-0.96143289266 -0.26831917044 0.060428599942 -0.96111240248 -0.26948776268 0.060326574335 -0.95972496972 -0.27449058772 0.059857328285 
-0.95749287591 -0.28234481943 0.059066026804 -0.95412593299 -0.29376741519 0.057830872179 -0.94978162374 -0.30782509054 0.056201252982 
-0.94434726803 -0.32446483641 0.054136931026 -0.93792288635 -0.34297131527 0.051684970306 -0.93001530779 -0.3642832218 0.048675061168 
-0.92094770176 -0.38704961267 0.045254037894 -0.9104121786 -0.41163255906 0.04133160274 -0.89827816919 -0.43787587879 0.036892350531 
-0.88473883768 -0.46498464374 0.032038573293 -0.87000537568 -0.4923095484 0.026869217346 -0.8539327992 -0.51994497803 0.021354022614 
-0.83680162659 -0.54728372585 0.015606445739 -0.81944271316 -0.57307550493 0.0099048214649 -0.80211168618 -0.59715842763 0.0043191667455 
-0.78552855298 -0.61882469957 -0.00094002270854 -0.7701721813 -0.63781012827 -0.0057490366451 -0.75684178292 -0.65352332868 -0.0098880987506 
-0.74598091882 -0.66583555025 -0.013247217912 -0.7383008311 -0.67429053744 -0.015625425208 -0.73376709905 -0.67918740846 -0.017038442962 
-0.73288314354 -0.68013411283 -0.017317230778 -0.73558722864 -0.67723027799 -0.016449304875 -0.7422284415 -0.66999507366 -0.014266811352 
-0.7516790144 -0.65943622775 -0.011068913457 -0.76494065283 -0.64406877272 -0.0064197861207 -0.78082066937 -0.62475491741 -0.00061274840694 
-0.79940857318 -0.60075230039 0.0065273803852 -0.82006361171 -0.57207759246 0.01492986789 -0.84280834182 -0.53764089802 0.024826673825 
-0.86692568901 -0.4971213885 0.036196337286 -0.89190945564 -0.44953241242 0.049174517069 -0.91655441972 -0.3948186733 0.063609833317 
-0.9411006395 -0.32841532608 0.080454707381 -0.96307184729 -0.25023468094 0.099374148613 -0.98080943276 -0.15229707758 0.12173108385 
-0.98859130855 -0.030064199479 0.14759189873 -0.97522438668 0.1310537289 0.17821985233 -0.91515469508 0.34278717689 0.21210571757 
-0.76089838339 0.60229824384 0.24139278286 -0.45838276814 0.85391884518 0.24638961773 -0.072898104786 0.97456204848 0.21193083773 
0.25755390903 0.95342426634 0.1569973003 0.4784144085 0.87164407327 0.10656576972 0.61776523244 0.78346784658 0.06741105963 
0.70780301139 0.70538972404 0.037950418768 0.76727384226 0.64111887782 0.016044796206 0.80713833835 0.59036234453 -7.0124093802e-05 
0.8361328464 0.54838004009 -0.012696251642 0.85509026611 0.51803574851 -0.021438285099 0.86849925486 0.49490608796 -0.027874870666 
0.87705516413 0.47931677939 -0.032088379009 0.8815982242 0.47074914064 -0.034348474117 0.88280824803 0.46843170836 -0.034947558008 
0.88147436197 0.47098465086 -0.034298802205 0.87761369239 0.47826726562 -0.032475060628 0.87114535214 0.49013592084 -0.029539034224 
0.86329548323 0.50402137228 -0.026141249354 0.85283942252 0.52171577764 -0.021853300872 0.84169361578 0.53967037987 -0.017542469614 
0.82847772113 0.55987717468 -0.01273636005 0.81454237331 0.58004910522 -0.007984836472 0.80054063579 0.59926819941 -0.0035093618114 
0.78582017139 0.6184544039 0.00089917945757 0.77191535153 0.63570719723 0.004800985675 0.75849533909 0.65162519445 0.0083322585585 
0.74569893898 0.66618396345 0.011489963195 0.73470473099 0.67824180168 0.014036264343 0.72546823545 0.68806855614 0.01604685007 
0.71723470664 0.69660602329 0.017732002356 0.71183299817 0.70209783682 0.018772593028 0.70775991916 0.70618352817 0.019512082742 
0.70634751566 0.70758954558 0.019754040389 0.70727264014 0.70666900974 0.01960416209 0.71029249033 0.70364637391 0.019140498049 
0.71629169951 0.69756189598 0.018264788383 0.72438051234 0.68918732348 0.017137867431 0.7351806983 0.67768945441 0.015695357258 
0.74932799148 0.66205372614 0.01387172939 0.76536854253 0.64348293924 0.011861745617 0.78490279331 0.61954668687 0.0094608585746 
0.80610149785 0.59173733315 0.0068777703902 0.83016848608 0.55749871071 0.0039334822132 0.85605831008 0.51687878545 0.00070064581225 
0.88280835979 0.46972513882 -0.0027737788603 0.90940963027 0.41585154662 -0.0064510104225 0.93470265356 0.35528186834 -0.010283164018 
0.95724132884 0.28894302977 -0.014176173593 0.9760295397 0.21688416962 -0.018099574514 0.98901974839 0.14618505928 -0.021676386663 
0.99673460704 0.076796944069 -0.02494699421 0.99948354131 0.01644416949 -0.02760869335 0.99928548039 -0.023886994389 -0.029290615857 
0.99905577383 -0.031794395643 -0.0296087349 0.99906981358 0.033653284893 -0.026962270048 0.96275021794 0.26988940692 -0.016484110209 
0.63716228271 0.77062668665 0.012599020356 0.046460524361 0.99818985292 0.038189490702 -0.23492870483 0.97097356077 0.04493159159 
-0.33082453422 0.94254954055 0.046427267434 -0.35986950231 0.93182929258 0.046777246681 -0.36355599928 0.93039526039 0.046815540497 
-0.35245071524 0.93466393509 0.046709974956 -0.33477168676 0.94114870168 0.046551466891 -0.31214072987 0.94890413423 0.046358481338 
-0.28800669044 0.9565150642 0.046163602728 -0.26186698787 0.96400871075 0.045966142626 -0.23463795507 0.97100441007 0.045776256595 
-0.20690265015 0.97729823648 0.045600990402 -0.1784438497 0.98290023323 0.04544143518 -0.14992177564 0.98765939583 0.045303189828 
-0.1198858012 0.99175909194 0.045180728536 -0.09063825272 0.99486287151 0.045084077364 -0.062302394363 0.99704172764 0.045013386915 
-0.032683843111 0.99845386618 0.04496269015 -0.004115657697 0.99898143605 0.044934972884 0.022104090565 0.99874558392 0.044929586807 
0.048462532591 0.99781332219 0.044943931687 0.071453389367 0.9964295278 0.044973428537 0.090737643835 0.99485699317 0.045013810485 
0.10777546991 0.99315340701 0.045063934879 0.11853594158 0.99192474974 0.045105669299 0.12538123818 0.99108121371 0.045139483279 
0.12378416416 0.99128239997 0.045129637914 0.11710289224 0.99209616315 0.045078993899 0.099530255789 0.99402022761 0.044916759532 
0.074919445706 0.99618982398 0.04464203462 0.039647079088 0.99823696175 0.044171000893 -0.0081449277882 0.99902415946 0.043409549289 
-0.063706368082 0.9970691563 0.042362674783 -0.1371484204 0.9897127637 0.040730285328 -0.2214482091 0.97441110308 0.038518734154 
-0.33982071318 0.9398462438 0.03479828893 -0.47823857583 0.87773573749 0.029459119614 -0.73724759483 0.67544168038 0.015637145652 
-0.85304819137 -0.52035781099 -0.03919861907 0.062259895074 -0.99714482723 -0.042730539318 0.36467624259 -0.93051146257 -0.034053723871 
0.54464228406 -0.83824626503 -0.026607923269 0.67012001408 -0.74198186646 -0.020051847149 0.77683991587 -0.62956003469 -0.013187411905 
0.86168167092 -0.50740933812 -0.0063609423835 0.93135467837 -0.3641118036 0.001028378573 0.97646412602 -0.21552713826 0.0081156189297 
0.99798570629 -0.061663450812 0.014904659768 0.99601010137 0.086749559562 0.020937809704 0.97257484664 0.2310989465 0.026295334326 
0.93172695153 0.36186327674 0.030657082954 0.87925440339 0.4751394069 0.03397408024 0.81938745177 0.57208503463 0.036371926433 
0.75781328328 0.65136855506 0.037921407818 0.69512521685 0.71783989896 0.038817681157 0.635745795 0.77090493755 0.039151773891 
0.57909230823 0.81432609154 0.039052723161 0.52668681369 0.84918199174 0.038612759439 0.47878783405 0.87711163978 0.037912812306 
0.43499458667 0.89967215907 0.037009671085 0.39491178357 0.91801561649 0.035944555559 0.3590535924 0.93266876307 0.034777811498 
0.32674399428 0.94451785482 0.033531837519 0.29791331093 0.95404822808 0.03224341273 0.27212859431 0.96176365173 0.030930670425 
0.24906475601 0.96803406267 0.029610822846 0.22810251314 0.97322640374 0.028277386111 0.21031322028 0.97726027396 0.02703158003 
0.19411942699 0.98063873756 0.025793690169 0.18015444536 0.9833297412 0.024637286454 0.16776283079 0.98554645135 0.023533483261 
0.15688605835 0.98736042433 0.022497937035 0.14710229459 0.98888741271 0.021508135748 0.13818353258 0.99019332396 0.020554622502 
0.12995353528 0.99132575961 0.019629493089 0.12189502 0.99236717265 0.018681507964 0.11356630336 0.99337344396 0.017660565641 
0.10413853514 0.99442656681 0.016461127653 0.093536037035 0.99550189349 0.015066181731 0.080738396761 0.99664617811 0.013330676966 
0.065439986159 0.9977936646 0.01119870929 0.045831817337 0.99891386739 0.0083982168774 0.023042189356 0.99972163559 0.0050703880924 
-0.0058238007674 0.99998274532 0.00076968065814 -0.039397872583 0.99921424257 -0.0043249376985 -0.076819619036 0.99699385061 -0.010099900183 
-0.11893162768 0.9927619713 -0.016701385212 -0.16111635914 0.9866576579 -0.023413349362 -0.20049321621 0.97924271661 -0.029768645055 
-0.23495366866 0.9713614154 -0.035408674764 -0.26101549139 0.9645165415 -0.039733542726 -0.27663087539 0.96004213653 -0.042361006381 
-0.28161866082 0.95855289305 -0.043212048062 -0.27535757138 0.96041834316 -0.042128541409 -0.26014625924 0.96476266916 -0.039457774827 
-0.237644815 0.9707051104 -0.035447574689 -0.20964471991 0.97730558936 -0.030378881289 -0.17752619721 0.98381185545 -0.024467986913 
-0.1436223221 0.98946671626 -0.018117560665 -0.10958202029 0.99390984579 -0.011618918671 -0.076806495411 0.99703229824 -0.0052305382092 
-0.045261617794 0.99897460684 0.0010587036114 -0.016153062398 0.99984497563 0.0070073734304 0.010091348416 0.99987073546 0.012517070968 
0.03363262139 0.99927917745 0.017606029891 0.054364701548 0.99827362648 0.022231642029 0.07201295293 0.99705675257 0.026305261252 
0.087727144002 0.99569069636 0.030066349654 0.10059044948 0.99437164439 0.03326551227 0.11123115834 0.99314154376 0.036020875436 
0.12062484463 0.99194905349 0.038558036092 0.12776154887 0.990974743 0.040571484602 0.13361025869 0.99013092451 0.042297175987 
0.13841304203 0.98940643976 0.043780438165 0.14204553234 0.98883875908 0.044955258637 0.14481430542 0.98839396905 0.045893124678 
0.14699509308 0.98803576679 0.046666542192 0.14847784894 0.98778788732 0.047216713581 0.14974031682 0.98757377119 0.047706225755 
0.15057422844 0.98743061421 0.048043561997 0.15104144346 0.98734966146 0.048240318962 0.15158336335 0.98725499985 0.048477306362 
0.15171221845 0.98723234042 0.048535644705 0.15158934327 0.98725403537 0.048478249343 0.15197416138 0.98718578125 0.048662999974 
0.15168424152 0.98723738177 0.048520541128 0.15191603386 0.98719602993 0.048636582459 0.15156670438 0.98725844326 0.048459264684 
0.15156670438 0.98725844326 0.048459264684 
