# vtk DataFile Version 4.1
vtk output
ASCII
DATASET POLYDATA
POINTS 117 float
11.7919 5.61338 134.349 12.1277 5.95568 131.6 12.4632 6.29856 128.849 
12.798 6.64373 126.09 13.1312 6.99291 123.316 13.4623 7.34774 120.522 
13.7905 7.7098 117.702 14.1151 8.08056 114.851 14.4354 8.46136 111.962 
14.7503 8.85337 109.032 15.059 9.25762 106.056 15.3603 9.6749 103.03 
15.6531 10.1058 99.9501 15.9362 10.5507 96.815 16.2082 11.0098 93.6225 
16.4675 11.4829 90.3716 16.7128 11.9698 87.0625 16.9422 12.4699 83.6961 
17.1542 12.9824 80.2743 17.347 13.5065 76.8 17.5187 14.0411 73.277 
17.6677 14.5849 69.7102 17.7921 15.1366 66.1051 17.8902 15.6948 62.4681 
17.9604 16.2579 58.8064 18.0013 16.8246 55.1273 18.0115 17.3933 51.439 
17.9899 17.9627 47.7496 17.9356 18.5314 44.0671 17.8479 19.0982 40.3998 
17.7265 19.662 36.7553 17.5712 20.2219 33.1411 17.3824 20.777 29.5637 
17.1606 21.3268 26.0294 16.9067 21.8705 22.5433 16.6219 22.408 19.1099 
16.3076 22.9389 15.7327 15.9656 23.4631 12.4145 15.598 23.9806 9.15712 
15.207 24.4913 5.9616 14.7949 24.9954 2.82835 14.3644 25.4928 -0.242868 
13.918 25.9838 -3.25277 13.4586 26.4683 -6.20248 12.9887 26.9466 -9.09337 
12.5112 27.4184 -11.927 12.0286 27.8839 -14.7049 11.5435 28.343 -17.4287 
11.0583 28.7953 -20.0999 10.5754 29.2408 -22.7198 10.0968 29.6791 -25.2894 
9.62459 30.1098 -27.8096 9.16041 30.5325 -30.2812 8.70588 30.9469 -32.7045 
8.2624 31.3522 -35.0798 7.83117 31.7482 -37.4072 7.41319 32.1341 -39.6868 
7.00931 32.5095 -41.9185 6.62021 32.8739 -44.1023 6.24639 33.2266 -46.2382 
5.88825 33.5672 -48.3265 5.54601 33.8954 -50.3674 5.2198 34.2106 -52.3614 
4.90965 34.5125 -54.3095 4.61547 34.8009 -56.2127 4.33712 35.0755 -58.0724 
4.07438 35.3362 -59.8903 3.82697 35.583 -61.6684 3.5946 35.8158 -63.409 
3.37691 36.0347 -65.1149 3.17356 36.2398 -66.7888 2.98416 36.4313 -68.434 
2.80836 36.6095 -70.0538 2.64578 36.7745 -71.6518 2.49607 36.9268 -73.2316 
2.35888 37.0667 -74.7969 2.23388 37.1943 -76.3516 2.12074 37.3103 -77.8993 
2.01915 37.4147 -79.4438 1.9288 37.508 -80.9886 1.84939 37.5905 -82.5373 
1.7806 37.6624 -84.093 1.7221 37.7239 -85.6587 1.67355 37.7754 -87.2371 
1.63458 37.8168 -88.8306 1.60478 37.8484 -90.4412 1.58371 37.8703 -92.0705 
1.57089 37.8824 -93.7198 1.56581 37.8849 -95.3899 1.5679 37.8776 -97.0812 
1.57656 37.8605 -98.7935 1.59116 37.8337 -100.526 1.61102 37.7969 -102.279 
1.63547 37.7502 -104.05 1.6638 37.6935 -105.837 1.6953 37.6267 -107.64 
1.72927 37.5499 -109.454 1.76503 37.4629 -111.28 1.80192 37.3659 -113.112 
1.83932 37.259 -114.95 1.87667 37.1424 -116.79 1.91344 37.0161 -118.63 
1.94919 36.8805 -120.468 1.98353 36.736 -122.301 2.01615 36.5828 -124.127 
2.04682 36.4215 -125.946 2.07537 36.2525 -127.754 2.10171 36.0764 -129.553 
2.12583 35.8937 -131.341 2.14776 35.705 -133.117 2.16762 35.5111 -134.883 
2.18556 35.3124 -136.639 2.20178 35.1098 -138.385 2.21654 34.904 -140.122 
2.2301 34.6955 -141.853 2.24278 34.4852 -143.579 2.25489 34.2737 -145.302 

LINES 1 118
117 116 115 114 113 112 111 110 109 108 107 106 105 104 103 102 101 100 99 98 97 96 95 94 93 92 91 90 89 88 87 86 85 84 83 82 81 80 79 78 77 76 75 74 73 72 71 70 69 68 67 66 65 64 63 62 61 60 59 58 57 56 55 54 53 52 51 50 49 48 47 46 45 44 43 42 41 40 39 38 37 36 35 34 33 32 31 30 29 28 27 26 25 24 23 22 21 20 19 18 17 16 15 14 13 12 11 10 9 8 7 6 5 4 3 2 1 0 

CELL_DATA 1
FIELD FieldData 2
LengthArray 1 1 double
283.67856424 
TortuosityArray 1 1 double
0.0085382816541 
POINT_DATA 117
FIELD FieldData 8
RadiusArray 1 117 double
75.183996621 74.561353585 74.505891213 74.041316727 72.958751286 72.58797936 72.410845008 71.875782329 71.856641961 
71.094981673 70.671905062 70.517471431 69.982966475 69.908641952 69.71234136 68.547148201 68.392771622 67.570323735 
67.304434487 66.521795569 66.507295379 65.763932565 64.494477558 63.817121717 63.11882504 61.312710875 60.16577968 
60.15120166 59.988874549 59.60515416 59.214904052 59.189637354 58.599350152 58.55855334 57.952872131 57.495068869 
56.897815915 56.854317105 56.383610638 56.11207178 55.900877398 55.836210446 55.397482721 55.36390515 54.934084794 
54.739808197 54.282091296 54.228699236 53.859350479 53.805578389 53.375359191 53.345862192 52.912262786 52.650002734 
52.397897039 52.157175732 52.147714481 51.978289364 51.918875185 51.932051136 51.936857697 51.931542335 51.901085319 
51.922901838 51.973252181 51.985524998 52.001496845 52.083797331 52.10012178 52.143650074 52.206524994 52.240342739 
52.258767115 52.236872554 52.237918486 52.229844803 52.226650526 52.219219475 52.212611795 52.10654226 52.101920082 
51.989478221 51.980705806 51.888550359 51.73008855 51.713672659 51.629892954 51.518015566 51.374161013 51.244005279 
51.16675129 51.000054484 50.803740786 50.735901369 50.641429084 50.6295864 50.5390202 50.553068639 50.509518495 
50.399204294 50.340910557 50.319471895 50.319354747 50.315047292 50.313612644 50.241503346 50.139345855 50.133004464 
49.935687938 49.619469954 49.581219366 49.531731265 49.301582807 49.090760802 48.868967557 48.739385071 48.71247529 

EdgeArray 2 117 int
14452 14452 14908 14908 14915 14098 13581 13581 14910 
14910 15884 15884 16525 16525 16526 16526 16144 16144 
16548 16548 16149 16552 16149 14419 17177 17177 17179 
17179 16888 16888 14108 14108 17180 17180 17848 17848 
17849 17852 17585 17585 15900 15629 17903 17903 17580 
17580 15924 15924 20323 20323 20325 20325 20984 20984 
20983 20989 20620 20620 18979 20874 21206 21206 21208 
21208 21200 21200 21058 21058 19857 19857 20083 20083 
18628 18628 18978 20337 13250 20946 20353 20353 17436 
17436 21213 21213 21008 21008 24040 24482 21691 21691 
24832 24832 17446 17446 24831 24831 25057 24955 25521 
24955 25519 25519 25518 25518 24555 24555 25385 25385 
25841 25841 25834 25834 25858 25858 26259 26259 26257 
26257 25188 25188 26273 26273 26272 26272 26254 26254 
26255 26255 26248 26249 26249 24710 24710 23594 22644 
22644 26639 26642 26642 26652 26652 26652 26692 26692 
26556 26556 26686 26686 26696 26696 27164 27164 26681 
26711 27162 27162 27174 27174 27183 27183 27182 26088 
26279 26279 26291 26707 26518 26518 26231 26925 26925 
27400 27402 27402 27399 27399 27569 27810 27827 27827 
26124 26124 28079 28079 28074 28332 28332 27982 28342 
28291 28338 28571 28683 28683 29038 29038 29037 29035 
29545 28511 29537 30443 29314 29537 29314 29550 29550 
30001 30000 30001 30000 31035 31036 30401 31029 31036 
30440 30440 31007 31007 30968 30968 30234 30234 31004 
31290 30564 31290 30965 30965 30536 30536 33437 33437 

EdgePCoordArray 1 117 double
0 0 0.016 0 0 0 0 0 0 
0 0.676 0.88 0 0 0 0 0 0 
0.032 0 0.008 0 0 0 0 0 0 
0.048 0 0.056 0 0 0 0 0 0 
0 0.9 0.008 0 0 0 0 0.016 0 
0 0 0 0.024 0.064 0 0 0 0 
0 0 0 0 0 0 0 0 0 
0 0.016 0.424 0.128 0 0.224 0.052 0 0 
0 0 0 0 0.112 0 0 0 0.02 
0 0.036 0 0.372 0.472 0 0 0.86 0 
0 0 0.672 0.432 0.976 0.772 0 0 0.18 
0.448 0.496 0.052 0.06 0.916 0.556 0.448 0.02 0.728 
0 0 0 0 0.288 0.092 0 0 0 

CurvatureArray 1 117 double
0 7.1839790156e-05 0.00028581384444 0.00049350987451 0.00069026227454 0.0008720775776 0.0010361298342 0.001180486519 0.0013046757912 
0.0014093085573 0.0014959174278 0.0015666926602 0.0016242301211 0.0016721101676 0.0017125846911 0.0017487317602 0.0017828190713 0.0018169645282 
0.0018525229524 0.0018911698545 0.0019333133795 0.001979875372 0.0020310116258 0.0020871632974 0.0021481881472 0.0022137626141 0.0022837135168 
0.0023571506027 0.002433063107 0.0025098979234 0.0025864726093 0.0026599440251 0.002727627884 0.0027869451251 0.0028340907643 0.002865375509 
0.0028772521388 0.0028660354828 0.0028285877377 0.0027626390739 0.0026661064641 0.0025387627556 0.0023812660818 0.0021955052414 0.0019842972408 
0.0017515741232 0.0015021360044 0.0012407014418 0.00097192339816 0.00070044729018 0.00043023200304 0.00016422704226 9.5558340075e-05 0.00034803189162 
0.00059340701896 0.0008318890774 0.0010655064033 0.001296844383 0.0015288620726 0.0017640897461 0.002005695203 0.0022581641925 0.002522330205 
0.0028019281687 0.0030970696686 0.0034085330875 0.0037330266113 0.0040719794485 0.0044153525787 0.0047618285558 0.0051036383234 0.0054288425007 
0.0057300286094 0.0059973715167 0.0062249503125 0.0063991173638 0.0065167496157 0.006574439607 0.0065670118177 0.0065006591609 0.0063762017902 
0.0061983961937 0.0059780552237 0.0057240107137 0.0054437706481 0.0051496436703 0.0048498115708 0.0045559313197 0.0042719957815 0.0040051350442 
0.0037660163506 0.0035517946237 0.0033694851357 0.0032170758329 0.0030951110323 0.0030030615249 0.0029328825973 0.0028863569727 0.0028536652962 
0.0028307549091 0.0028158740348 0.0027959365771 0.0027753605983 0.002743204492 0.0026949341657 0.0026299513998 0.0025441398048 0.0024314834956 
0.0022908964873 0.002123491624 0.0019255261156 0.0016977581152 0.0014452873644 0.0011664275155 0.0008661134946 0.00054881461249 0 

TorsionArray 1 117 double
0 0 -0.0012299174824 -0.0021965598836 -0.0035542677552 -0.0049844498733 -0.0062845412642 -0.007571465659 -0.0087006192673 
-0.009772375028 -0.010687338632 -0.011332619527 -0.011808958295 -0.012044131905 -0.01198270022 -0.011649378226 -0.011108157581 -0.010340380088 
-0.0094195262854 -0.008360622029 -0.0072307845057 -0.006075642889 -0.0049389803973 -0.0038369607329 -0.0028133117372 -0.0018637547261 -0.00099176754123 
-0.00022903456509 0.00045548294424 0.0010351326635 0.0015576287602 0.0019863437933 0.0023566145366 0.0026922644753 0.0029453185786 0.0031852376236 
0.003404164898 0.0035767509142 0.0037576346669 0.0039448833604 0.0041120863764 0.0043059552625 0.0045444489877 0.004785739973 0.0050620119491 
0.0054327288157 0.0058189879229 0.0062795197283 0.0070447029568 0.0080136231234 0.0096363793481 0.021671617672 0.049631955598 0.013436374249 
0.012046661933 0.012500146085 0.013133566451 0.013942777088 0.014420589353 0.01461825006 0.015033935074 0.014903185182 0.014570753351 
0.014009502673 0.01314738602 0.011966743449 0.010777460547 0.0093145234922 0.007787399914 0.006446179099 0.0049352084232 0.0034692847594 
0.0022205225781 0.0013417533662 0.00050408453388 -0.00015181641907 -0.00027233701094 -0.00026561838761 0.00013822360345 0.0010541736229 0.0021319197549 
0.0036173391301 0.0056180752457 0.00789195674 0.010503950993 0.013483616141 0.016811439467 0.02029778869 0.023697362265 0.027344096918 
0.030693345067 0.033512431319 0.035732123689 0.03705849485 0.037518170254 0.03690049882 0.035469734702 0.033298380106 0.030656959507 
0.027795185954 0.024814445765 0.021951959971 0.019177206925 0.01671588854 0.014483315864 0.012391338527 0.010586098378 0.0090979394246 
0.00767881666 0.0063942298289 0.0054149220565 0.0044030928832 0.0034734301975 0.0028779539966 0.002318679154 0 0 

TangentArray 3 117 double
-0.12024108968 -0.12272510902 0.98512975185 -0.12024108968 -0.12272510902 0.98512975185 -0.11983149486 -0.12301237462 0.98514383139 
-0.11893455662 -0.1236375442 0.98517426322 -0.11755974159 -0.12458406867 0.98522003481 -0.11572001581 -0.12582418421 0.98528024065 
-0.1134310885 -0.12732034579 0.98535420926 -0.11071152588 -0.12902809903 0.9854413771 -0.10758156997 -0.13089768902 0.98554147595 
-0.10406254779 -0.13287743501 0.98565438842 -0.10017559436 -0.1349149991 0.98578029667 -0.09594128385 -0.13695987085 0.9859195017 
-0.091379754452 -0.13896635593 0.98607205233 -0.08650828568 -0.14089387059 0.98623791944 -0.081341896491 -0.14270809631 0.98641669447 
-0.075893639197 -0.14438231075 0.98660726932 -0.070173502365 -0.14589754682 0.9868077753 -0.064188400407 -0.14724150854 0.98701559634 
-0.057942758609 -0.14840899847 0.98722712984 -0.051438016021 -0.14940080858 0.98743786078 -0.044673503717 -0.15022353733 0.98764222616 
-0.037647129121 -0.15088839993 0.98783368258 -0.030355538529 -0.15141040356 0.98800477275 -0.022794903429 -0.1518073842 0.98814721094 
-0.014961616682 -0.15209958412 0.98825192463 -0.0068538947435 -0.15230834563 0.98830925928 0.0015279118486 -0.15245596407 0.98830908349 
0.010180037755 -0.15256530637 0.98824095955 0.019093696627 -0.15265828677 0.98809456948 0.028253887182 -0.15275632301 0.98785992106 
0.037639357004 -0.15287881406 0.98752789683 0.047220740944 -0.15304402018 0.98709053765 0.056958543357 -0.15326716883 0.98654188928 
0.066804656309 -0.15356081952 0.98587839646 0.076701475996 -0.15393517308 0.98509940923 0.086581390896 -0.15439561564 0.98420813684 
0.096368528033 -0.15494460871 0.98321171425 0.10598018119 -0.15558100668 0.9821215564 0.11532875988 -0.15629887741 0.98095358609 
0.12432495836 -0.15708918671 0.97972766224 0.13288007039 -0.15793965348 0.97846714444 0.14090949302 -0.15883416108 0.97719814984 
0.14833660294 -0.15975448708 0.97594813186 0.15509523341 -0.16068095435 0.97474463296 0.16113206101 -0.16159189658 0.97361415246 
0.16640824857 -0.16246495491 0.97258081064 0.17090080679 -0.16327841657 0.97166510327 0.1746026248 -0.16401024096 0.97088339376 
0.17752083656 -0.16463927641 0.97024752576 0.17967543167 -0.16514659204 0.96976458091 0.18109814261 -0.16551312609 0.96943739758 
0.18182946646 -0.16572040438 0.96926507865 0.18191567882 -0.16575172449 0.96924354609 0.18140648806 -0.16559053203 0.96936652603 
0.18035247292 -0.16522018805 0.96962635843 0.17880358323 -0.16462506812 0.97001436359 0.1768075968 -0.16378898963 0.97052163324 
0.17440769051 -0.16269491904 0.971139702 0.17164215419 -0.1613245356 0.97186077456 0.16854375055 -0.15966017463 0.97267755849 
0.16513919611 -0.15768584927 0.97358318538 0.16144992461 -0.15538203426 0.97457187794 0.15749115487 -0.15273165538 0.97563803615 
0.15327328891 -0.14971930692 0.97677603781 0.14880232975 -0.14633039191 0.97798020587 0.14408064521 -0.14255433302 0.97924411145 
0.13910837767 -0.13838582489 0.98056015763 0.13388384102 -0.13382229925 0.98191990984 0.1284054177 -0.12886858373 0.98331324451 
0.12267313327 -0.12353755494 0.98472827465 0.11668919406 -0.11784439234 0.986152286 0.11046030986 -0.11181605457 0.98757059995 
0.10399874918 -0.10548830621 0.98896737935 0.097322902056 -0.098901884014 0.99032654719 0.09045863261 -0.092099486217 0.99163245229 
0.083438727308 -0.085131057143 0.99286992194 0.076303518209 -0.078051278074 0.99402503545 0.069100508904 -0.070910120094 0.99508636537 
0.061882140661 -0.063759434836 0.99604484595 0.054704674334 -0.056645923558 0.9968944969 0.047627032163 -0.049607881133 0.99763255958 
0.040708336004 -0.042681445489 0.99825904734 0.034005373587 -0.035893748929 0.99877688868 0.027571385935 -0.029261030175 0.99919147854 
0.021454783314 -0.02279418725 0.99950993857 0.015697532672 -0.016496924303 0.99974068586 0.010334260501 -0.010365598696 0.99989287297 
0.0053921003128 -0.0043898709422 0.99997582685 0.00089045437371 0.001443565988 0.9999985616 -0.0031586888981 0.007147170196 0.99996946986 
-0.0067504671612 0.012741083368 0.99989604259 -0.0098863436676 0.01824449352 0.99978467615 -0.012573379087 0.023674030851 0.99964066064 
-0.014823724382 0.02904670641 0.99946813158 -0.016653667281 0.034375941727 0.9992702087 -0.018082985188 0.039675087931 0.99904899432 
-0.019134371355 0.044951301134 0.99880591526 -0.019832951156 0.050209205395 0.99854178167 -0.020205979169 0.055450305217 0.99825697196 
-0.02028216121 0.060668220078 0.99795190315 -0.020091426947 0.06585621839 0.99762683056 -0.019665052559 0.070998762576 0.99728253841 
-0.019035205588 0.076076975919 0.99692023486 -0.01823477543 0.081070195512 0.99654157784 -0.017297263258 0.085947469973 0.99614950539 
-0.016256285015 0.090676740739 0.99574768987 -0.015145699927 0.095225110924 0.99534053772 -0.013999229216 0.099553484508 0.9949337291 
-0.012849664289 0.10361902865 0.99453405323 -0.01172883371 0.10738141332 0.9941487145 -0.010667178736 0.11079993688 0.99378548253 
-0.0096928924686 0.11383239835 0.99345268278 -0.0088316253134 0.11644257741 0.99315815889 -0.0081059123827 0.1185971677 0.99290936444 
-0.0075348980995 0.12026477635 0.99271325612 -0.007133940077 0.12142075402 0.99257549204 -0.007133940077 0.12142075402 0.99257549204 

NormalArray 3 117 double
-0.8171635418 0.57572456193 -0.028017400786 -0.8171635418 0.57572456193 -0.028017400786 -0.81872129126 0.57350921535 -0.027975474122 
-0.82086626372 0.57045765068 -0.02750719658 -0.82513642505 0.56428301603 -0.027102728265 -0.83183044255 0.55437751954 -0.026901313688 
-0.84076274406 0.54073423878 -0.026916374558 -0.85147726155 0.52369122859 -0.027091883695 -0.86399166827 0.50275244591 -0.027538614512 
-0.87754854061 0.47866254404 -0.028119882771 -0.89222475221 0.45066011383 -0.028990573353 -0.90712790274 0.41978737091 -0.029958826709 
-0.92191444059 0.38615006185 -0.031014415424 -0.93608029098 0.35032233496 -0.032061666744 -0.94920000044 0.31293835931 -0.032999127902 
-0.96081637973 0.27513606224 -0.033645678735 -0.97077405197 0.23758808093 -0.033906397889 -0.97897229404 0.20119858331 -0.033650818486 
-0.98543366953 0.16687675433 -0.032751058275 -0.99033514524 0.13515400142 -0.031139942262 -0.99386225717 0.10683560948 -0.028704813666 
-0.99630451896 0.082037573894 -0.025438985381 -0.99790037032 0.061170136642 -0.02128533044 -0.99889816165 0.044015876361 -0.016280825264 
-0.99947242796 0.030770021489 -0.010395745886 -0.99977531311 0.020868750815 -0.003717328171 -0.99988867229 0.014436388067 0.0037727622587 
-0.99986918103 0.01086972051 0.011977896826 -0.99973255225 0.0099824328803 0.020860848545 -0.99947460775 0.01138422606 0.030346463787 
-0.99907806947 0.014661095888 0.040349267309 -0.99851209877 0.019748380208 0.050829028068 -0.99776002364 0.025982611799 0.061642835015 
-0.9967858457 0.03351625304 0.072764267254 -0.99557902841 0.041898945707 0.084064716345 -0.99413110055 0.050929695742 0.095443810746 
-0.99242499845 0.060660822152 0.10683111492 -0.99047028657 0.070850991915 0.11810481944 -0.9882783587 0.081388742822 0.12915788113 
-0.9858411467 0.092412847264 0.13991818728 -0.98318041356 0.10379702368 0.15027458954 -0.98031291217 0.1155143831 0.16013438586 
-0.97722536298 0.12774943381 0.16944223829 -0.97391582875 0.14055757275 0.17813345346 -0.97040324054 0.15385370444 0.18613594061 
-0.96663483397 0.16792125603 0.19344133357 -0.96255376849 0.18295711023 0.20004234197 -0.95818825652 0.19870995428 0.20588739432 
-0.95332157011 0.21593776976 0.21106601704 -0.94764501576 0.23548171418 0.21567866468 -0.94106396826 0.25715650357 0.21970239033 
-0.93046421333 0.2898485012 0.22410755022 0.94126044101 -0.2558261035 -0.22041276494 0.92532967982 -0.30499262551 -0.22526535916 
0.91489601408 -0.33378773545 -0.22704852143 0.9044005 -0.36070693497 -0.22792595874 0.89264889017 -0.38870721491 -0.22822063874 
0.87996007797 -0.41683103177 -0.22786432833 0.86575106 -0.44606118434 -0.22694607717 0.85099483116 -0.47437965589 -0.22532585164 
0.83551313622 -0.50216094998 -0.22305196596 0.81908300259 -0.52975071711 -0.22015270289 0.80306280199 -0.55515782336 -0.21654082114 
0.78691837322 -0.57938984414 -0.21228961916 0.77172870993 -0.60119120238 -0.20737390492 0.75740669245 -0.62096415482 -0.20183810507 
0.74486286271 -0.63787405718 -0.19569364562 0.73347327445 -0.65291578098 -0.18899190091 0.72441688078 -0.66497264339 -0.18174588407 
0.71687333105 -0.67514097758 -0.17400370001 0.71111281675 -0.68325067129 -0.1657922858 0.70722848261 -0.68929834127 -0.15714856061 
0.70497736139 -0.69359093805 -0.14811661143 0.70401851809 -0.69649694566 -0.13874412012 0.70377810896 -0.69859425294 -0.12908308605 
0.70463327077 -0.69948928902 -0.1191918129 0.7057824881 -0.69997118711 -0.10913943697 0.70678537335 -0.70046716828 -0.098995869542 
0.70777609874 -0.70082909605 -0.088834521396 0.70773627462 -0.70207609118 -0.078730729535 0.70654731238 -0.70431802941 -0.068753245868 
0.70394182484 -0.70780544633 -0.058969122358 0.69921266656 -0.71320237921 -0.049436961987 0.69179410845 -0.72097479501 -0.040202692324 
0.68143406851 -0.73120978636 -0.031302693314 0.66726189611 -0.74447529276 -0.022761820427 0.64884083932 -0.7607842101 -0.01459283736 
0.62510801847 -0.78050865729 -0.006797141725 0.59597125412 -0.80300552255 0.00062850715475 0.56081388135 -0.82790619756 0.0076888578231 
0.51859023416 -0.85490172804 0.01439459696 0.4701708726 -0.88233144014 0.020750429133 0.41541757572 -0.90923717502 0.026758126839 
0.35571973352 -0.93403017116 0.032420835065 0.29239234693 -0.95555325905 0.037744993979 0.22725190268 -0.97289723231 0.042749831363 
0.16264744756 -0.98554167135 0.047470220577 0.10012764872 -0.99361744037 0.051950323829 0.04147602016 -0.99755480252 0.056250828641 
-0.012430451546 -0.99809537962 0.060424308563 -0.060964028863 -0.99605219519 0.064524504143 -0.10405289391 -0.99220412868 0.068585438024 
-0.14165676312 -0.98724751624 0.07263403568 -0.17425665368 -0.98171052072 0.076675107795 -0.20241330802 -0.97597013635 0.080691670555 
-0.22641436381 -0.97034428411 0.084667031122 -0.24661769463 -0.96505655719 0.088575132597 -0.26383057878 -0.96013704842 0.092359482186 
-0.27843041896 -0.95564962203 0.095970316793 -0.29035498013 -0.95174495638 0.099375668665 -0.30031896516 -0.9483147672 0.10250668988 
-0.30870269972 -0.94531140214 0.1053043027 -0.31495003366 -0.94297123258 0.1077577414 -0.32024648855 -0.94095230807 0.10977677581 
-0.32428652385 -0.93938335021 0.11134258752 -0.32779558829 -0.93803932135 0.11239343355 -0.32779558829 -0.93803932135 0.11239343355 

BinormalArray 3 117 double
-0.56372495626 -0.80838095995 -0.16951223343 -0.56372495626 -0.80838095995 -0.16951223343 -0.56154773624 -0.8099105726 -0.16943731678 
-0.55859927348 -0.81196787279 -0.16933701672 -0.55256636453 -0.81612712714 -0.16913581859 -0.54283238001 -0.82269911906 -0.16881696217 
-0.52938775616 -0.83150226251 -0.16838227659 -0.51257139123 -0.84208030897 -0.16784314743 -0.49187864657 -0.85446227134 -0.16718141015 
-0.46805933921 -0.86788579675 -0.16641724304 -0.44034059753 -0.88244172885 -0.1655196464 -0.40977339851 -0.89722937814 -0.16451505971 
-0.3764618237 -0.91190815418 -0.16340138812 -0.34098387844 -0.92597147843 -0.16219376001 -0.30397837924 -0.93899093846 -0.16091352471 
-0.26659339822 -0.95050191772 -0.15960596615 -0.22950690531 -0.96034671324 -0.15830594046 -0.19363134241 -0.96842091481 -0.15705997261 
-0.15988470745 -0.97474453989 -0.15591652345 -0.12880384548 -0.97949619412 -0.15490892515 -0.10120322053 -0.98286267677 -0.15407422489 
-0.07720103093 -0.9851408667 -0.15341927385 -0.05721356648 -0.98657645628 -0.15294935023 -0.041022615967 -0.98742955229 -0.15264345465 
-0.028827344331 -0.98788608771 -0.1524797099 -0.020058599556 -0.98811267732 -0.15241715617 -0.014842793567 -0.98820482174 -0.15241693397 
-0.012569314526 -0.98823361432 -0.15243469377 -0.013048169119 -0.98822861652 -0.15242685711 -0.015881634881 -0.98819831268 -0.15235441738 
-0.020646789322 -0.98813618519 -0.15218603619 -0.027272518034 -0.98802202879 -0.15188377265 -0.035080757734 -0.98784314486 -0.15144392227 
-0.044216690314 -0.98757062304 -0.15082820959 -0.054215143323 -0.98719220056 -0.15004091907 -0.064861526875 -0.98669557613 -0.1490799194 
-0.076195336235 -0.98605904128 -0.14792510891 -0.087959153155 -0.98527898958 -0.14658956331 -0.10002581097 -0.98435081829 -0.14508033526 
-0.11251905706 -0.9832511648 -0.14337576057 -0.12529629396 -0.98197822977 -0.14149061801 -0.13831525228 -0.98052441916 -0.13943010584 
-0.15174597914 -0.97885575343 -0.13716621958 -0.16563039297 -0.97694687658 -0.13468991527 -0.17987220371 -0.97479079632 -0.1320185356 
-0.19474442885 -0.97232072394 -0.1291008026 -0.21043563625 -0.9694673045 -0.12589673743 -0.22669183594 -0.96623754581 -0.12245740725 
-0.24426284315 -0.96242651057 -0.11862071996 -0.26398042231 -0.95774472874 -0.11419006616 -0.28566076103 -0.95209029916 -0.10918787408 
-0.31807922416 -0.9426158252 -0.10149390737 0.28449159563 0.95240714539 0.10947676202 0.33295145253 0.93784821484 0.097898192909 
0.36116238582 0.92805605279 0.090959847977 0.38741323445 0.91803545357 0.084391301451 0.4146287889 0.90668620148 0.077479671291 
0.44187353243 0.89430545915 0.070466496058 0.47012133862 0.88034300931 0.063103985118 0.49739401031 0.86572083879 0.055916256967 
0.52406759594 0.85027616293 0.048822142866 0.55048792603 0.83379889731 0.041742569832 0.57470572661 0.81760187904 0.035220664387 
0.59771797095 0.8011813388 0.029011886469 0.61829820065 0.7855931228 0.023468713033 0.63684838847 0.77076700797 0.018502689793 
0.65255511263 0.75760547163 0.014344836436 0.66640233551 0.74551497314 0.010740207399 0.67729774216 0.73566586958 0.0079684874216 
0.68632640165 0.72727101751 0.0057391194038 0.69332690258 0.72061169805 0.0040726876046 0.69830250847 0.71579673557 0.002939390242 
0.7015633828 0.71260355592 0.0022342777646 0.7034814702 0.7107112086 0.0018436537957 0.7046372181 0.70956589151 0.001623721376 
0.70464880083 0.70955439372 0.0016216791973 0.70430735663 0.70989318577 0.0016769610165 0.70404513754 0.71015315323 0.0017155979065 
0.70372124788 0.71047400558 0.0017585993454 0.70435556659 0.70984533635 0.0016835309851 0.70606130128 0.70814911677 0.0015057376483 
0.70909007793 0.70511683029 0.0012316726891 0.7141045312 0.700038574 0.00084465055352 0.72156824361 0.69234322202 0.00036433395955 
0.7315649681 0.68177171645 -0.0001552117677 0.74465773982 0.66744617008 -0.00067865624088 0.76085397304 0.64892213711 -0.0011365184544 
0.78051962851 0.62512955851 -0.0014644374491 0.8030052748 0.59596983722 -0.001575363612 0.82793587504 0.56082104633 -0.0013931341434 
0.85499625743 0.51863349312 -0.00083641536628 0.8825200342 0.47027477947 0.00014500240757 0.90954392303 0.4156047399 0.0015975751782 
0.93447510849 0.35601113495 0.0035133191577 0.95615342431 0.29280755411 0.0058622037662 0.97366810484 0.2278088294 0.0085766470203 
0.98649869926 0.16336154556 0.011546505931 0.99477691369 0.10101196898 0.014679036482 0.99893516214 0.042540329365 0.017856713582 
0.99971701887 -0.01117945721 0.020997664762 0.9979377344 -0.059522961532 0.024026970314 0.9943773333 -0.10242139792 0.026899373049 
0.98973280354 -0.13983788976 0.029569277595 0.98453141728 -0.17225584723 0.032028291866 0.97914741353 -0.2002381716 0.034278524094 
0.97389540971 -0.22407520833 0.036304709812 0.96899448939 -0.24412705641 0.038100654355 0.96446744231 -0.26120098003 0.039706432056 
0.96037044307 -0.27567534675 0.041130466379 0.95684712466 -0.28749046955 0.042341586459 0.95377918328 -0.29735917052 0.043391165503 
0.95110918985 -0.30566082194 0.044303170458 0.94906716237 -0.31184351957 0.045001562281 0.94729957287 -0.31708589649 0.045607603475 
0.94592889572 -0.32108457596 0.046078404083 0.94472173638 -0.32456005932 0.046493103802 0.94472173638 -0.32456005932 0.046493103802 

