# vtk DataFile Version 4.1
vtk output
ASCII
DATASET POLYDATA
POINTS 272 float
-35.3055 8.07623 222.615 -34.0015 7.26151 220.884 -32.6984 6.44856 219.153 
-31.3992 5.64269 217.423 -30.1068 4.84915 215.696 -28.8239 4.07303 213.972 
-27.5533 3.31917 212.253 -26.2972 2.5921 210.539 -25.0579 1.89594 208.831 
-23.8372 1.23434 207.128 -22.6366 0.61043 205.432 -21.4572 0.0267971 203.742 
-20.2997 -0.514563 202.057 -19.1644 -1.01223 200.376 -18.0513 -1.46538 198.699 
-16.9598 -1.87372 197.024 -15.889 -2.2375 195.349 -14.8377 -2.55742 193.671 
-13.8043 -2.83464 191.99 -12.7869 -3.07063 190.302 -11.7834 -3.26721 188.604 
-10.7913 -3.42638 186.894 -9.8082 -3.55033 185.168 -8.83132 -3.64135 183.423 
-7.85795 -3.70176 181.656 -6.88529 -3.73388 179.863 -5.91058 -3.73994 178.043 
-4.93108 -3.72211 176.191 -3.94421 -3.6824 174.305 -2.94747 -3.62267 172.382 
-1.93859 -3.5446 170.419 -0.915499 -3.44969 168.415 0.123609 -3.33921 166.368 
1.18025 -3.21427 164.276 2.25561 -3.07577 162.137 3.35053 -2.92441 159.951 
4.46545 -2.7607 157.717 5.60042 -2.585 155.434 6.75505 -2.3975 153.103 
7.9285 -2.19823 150.725 9.11948 -1.98709 148.298 10.3262 -1.76389 145.826 
11.5465 -1.5283 143.308 12.7777 -1.27996 140.747 14.0167 -1.0184 138.144 
15.26 -0.743139 135.502 16.5036 -0.45368 132.824 17.7435 -0.14952 130.111 
18.975 0.169809 127.367 20.1937 0.504723 124.596 21.3946 0.855563 121.8 
22.573 1.22256 118.983 23.7239 1.60584 116.15 24.8427 2.00536 113.303 
25.9249 2.42092 110.447 26.9663 2.85214 107.586 27.9628 3.29845 104.723 
28.9111 3.75907 101.864 29.8081 4.233 99.0106 30.6513 4.71907 96.1679 
31.4387 5.21587 93.3394 32.1691 5.72184 90.5286 32.8414 6.23523 87.7392 
33.4556 6.75416 84.9744 34.012 7.27663 82.2375 34.5113 7.80059 79.5317 
34.9549 8.32391 76.86 35.3445 8.84448 74.2251 35.6822 9.36023 71.6299 
35.9704 9.86916 69.0769 36.2119 10.3694 66.5686 36.4094 10.8592 64.1072 
36.566 11.3369 61.695 36.6846 11.8014 59.3338 36.7684 12.2514 57.0254 
36.8204 12.686 54.7715 36.8434 13.1047 52.5732 36.8403 13.507 50.4318 
36.8138 13.8927 48.348 36.7664 14.2621 46.3222 36.7005 14.6154 44.3548 
36.6182 14.9531 42.4454 36.5214 15.2759 40.5937 36.412 15.5847 38.7987 
36.2916 15.8804 37.0593 36.1616 16.1641 35.3738 36.0233 16.4369 33.7405 
35.8779 16.7 32.157 35.7264 16.9546 30.621 35.5696 17.202 29.1297 
35.4085 17.4432 27.6801 35.2436 17.6795 26.2691 35.0757 17.912 24.8934 
34.9054 18.1416 23.5498 34.7331 18.3693 22.2349 34.5594 18.596 20.9454 
34.3848 18.8223 19.6779 34.2095 19.049 18.4294 34.0341 19.2766 17.1969 
33.8588 19.5056 15.9774 33.684 19.7364 14.7685 33.51 19.969 13.5678 
33.3371 20.2038 12.373 33.1655 20.4408 11.1824 32.9954 20.6799 9.99434 
32.8269 20.921 8.80735 32.6603 21.1639 7.62033 32.4957 21.4083 6.43234 
32.333 21.6539 5.24264 32.1725 21.9003 4.05068 32.014 22.1471 2.85603 
31.8576 22.3937 1.65838 31.7032 22.6396 0.457494 31.5508 22.8844 -0.746791 
31.4002 23.1274 -1.95463 31.2514 23.3682 -3.16619 31.1042 23.6062 -4.38166 
30.9585 23.8409 -5.60127 30.8141 24.0718 -6.82534 30.6708 24.2985 -8.05427 
30.5286 24.5204 -9.28853 30.3873 24.7372 -10.5287 30.2467 24.9486 -11.7755 
30.1067 25.1542 -13.0296 29.9672 25.3538 -14.292 29.8282 25.5471 -15.5634 
29.6896 25.7339 -16.8449 29.5514 25.914 -18.1375 29.4137 26.0874 -19.4421 
29.2765 26.2538 -20.7598 29.14 26.4132 -22.0917 29.0043 26.5656 -23.4386 
28.8697 26.7108 -24.8015 28.7363 26.8488 -26.1814 28.6046 26.9797 -27.5791 
28.4749 27.1035 -28.9953 28.3475 27.22 -30.4308 28.2229 27.3294 -31.8863 
28.1016 27.4316 -33.3624 27.9841 27.5268 -34.8597 27.8707 27.615 -36.3785 
27.7622 27.6963 -37.9195 27.659 27.7708 -39.4828 27.5617 27.8385 -41.069 
27.4708 27.8997 -42.6782 27.3869 27.9544 -44.3107 27.3106 28.003 -45.9666 
27.2422 28.0455 -47.6459 27.1825 28.0821 -49.3487 27.1318 28.1132 -51.0748 
27.0908 28.1389 -52.8241 27.0597 28.1595 -54.5963 27.039 28.1753 -56.3909 
27.0293 28.1865 -58.2076 27.0307 28.1935 -60.0458 27.0437 28.1965 -61.9047 
27.0685 28.1958 -63.7836 27.1054 28.1918 -65.6818 27.1547 28.1846 -67.5984 
27.2164 28.1746 -69.5324 27.2907 28.1621 -71.483 27.3776 28.1473 -73.4492 
27.4773 28.1305 -75.4301 27.5895 28.1119 -77.4248 27.7142 28.0918 -79.4325 
27.8513 28.0703 -81.4523 28.0005 28.0477 -83.4836 28.1615 28.024 -85.5256 
28.334 27.9996 -87.5776 28.5175 27.9743 -89.6392 28.7116 27.9484 -91.7096 
28.9158 27.9219 -93.7883 29.1295 27.8948 -95.8748 29.3521 27.8671 -97.9683 
29.5829 27.8387 -100.068 29.8212 27.8096 -102.174 30.0664 27.7796 -104.284 
30.3176 27.7488 -106.398 30.5742 27.7168 -108.514 30.8355 27.6835 -110.632 
31.1007 27.6487 -112.749 31.3691 27.6122 -114.865 31.6401 27.5738 -116.978 
31.913 27.5333 -119.086 32.1874 27.4904 -121.187 32.4626 27.4449 -123.28 
32.7382 27.3965 -125.363 33.0138 27.3451 -127.434 33.2891 27.2905 -129.491 
33.5639 27.2324 -131.534 33.838 27.1707 -133.561 34.1112 27.1053 -135.571 
34.3834 27.0361 -137.562 34.6548 26.963 -139.535 34.9252 26.886 -141.488 
35.1948 26.805 -143.421 35.4637 26.7201 -145.334 35.7319 26.6313 -147.227 
35.9996 26.5387 -149.1 36.2669 26.4425 -150.954 36.5338 26.3428 -152.788 
36.8004 26.2399 -154.603 37.0669 26.1339 -156.4 37.3331 26.025 -158.178 
37.5991 25.9136 -159.94 37.8648 25.7999 -161.684 38.1301 25.6843 -163.412 
38.395 25.5669 -165.124 38.6591 25.4483 -166.822 38.9225 25.3286 -168.505 
39.1848 25.2082 -170.174 39.446 25.0875 -171.831 39.7058 24.9666 -173.477 
39.964 24.8458 -175.111 40.2204 24.7256 -176.737 40.4751 24.606 -178.354 
40.7277 24.4873 -179.964 40.9783 24.3697 -181.57 41.2267 24.2534 -183.171 
41.4731 24.1386 -184.772 41.7172 24.0254 -186.372 41.9593 23.914 -187.974 
42.1993 23.8045 -189.579 42.4372 23.6971 -191.19 42.6731 23.5919 -192.808 
42.9071 23.489 -194.434 43.1391 23.3887 -196.07 43.3691 23.2911 -197.716 
43.5972 23.1965 -199.374 43.8231 23.1052 -201.044 44.0467 23.0174 -202.726 
44.268 22.9335 -204.421 44.4867 22.8538 -206.128 44.7024 22.7786 -207.847 
44.9151 22.7085 -209.578 45.1242 22.6437 -211.319 45.3296 22.5847 -213.07 
45.5309 22.5319 -214.829 45.7277 22.4856 -216.597 45.9198 22.4461 -218.372 
46.1069 22.4137 -220.153 46.2888 22.3886 -221.94 46.4652 22.371 -223.732 
46.6361 22.3609 -225.528 46.8014 22.3582 -227.329 46.961 22.3629 -229.134 
47.115 22.3747 -230.944 47.2634 22.3932 -232.758 47.4066 22.4182 -234.577 
47.5445 22.449 -236.402 47.6775 22.4852 -238.232 47.8058 22.5261 -240.07 
47.9298 22.571 -241.914 48.0497 22.6193 -243.766 48.1657 22.6703 -245.627 
48.2783 22.7232 -247.497 48.3877 22.7775 -249.376 48.4941 22.8324 -251.264 
48.5978 22.8875 -253.163 48.6991 22.9421 -255.07 48.7981 22.9958 -256.988 
48.8951 23.0483 -258.915 48.9902 23.0993 -260.85 49.0836 23.1487 -262.794 
49.1755 23.1962 -264.746 49.266 23.2419 -266.706 49.3552 23.2859 -268.671 
49.4434 23.3282 -270.642 49.5307 23.369 -272.618 49.6173 23.4087 -274.597 
49.7033 23.4475 -276.579 49.7891 23.4856 -278.563 
LINES 1 273
272 271 270 269 268 267 266 265 264 263 262 261 260 259 258 257 256 255 254 253 252 251 250 249 248 247 246 245 244 243 242 241 240 239 238 237 236 235 234 233 232 231 230 229 228 227 226 225 224 223 222 221 220 219 218 217 216 215 214 213 212 211 210 209 208 207 206 205 204 203 202 201 200 199 198 197 196 195 194 193 192 191 190 189 188 187 186 185 184 183 182 181 180 179 178 177 176 175 174 173 172 171 170 169 168 167 166 165 164 163 162 161 160 159 158 157 156 155 154 153 152 151 150 149 148 147 146 145 144 143 142 141 140 139 138 137 136 135 134 133 132 131 130 129 128 127 126 125 124 123 122 121 120 119 118 117 116 115 114 113 112 111 110 109 108 107 106 105 104 103 102 101 100 99 98 97 96 95 94 93 92 91 90 89 88 87 86 85 84 83 82 81 80 79 78 77 76 75 74 73 72 71 70 69 68 67 66 65 64 63 62 61 60 59 58 57 56 55 54 53 52 51 50 49 48 47 46 45 44 43 42 41 40 39 38 37 36 35 34 33 32 31 30 29 28 27 26 25 24 23 22 21 20 19 18 17 16 15 14 13 12 11 10 9 8 7 6 5 4 3 2 1 0 

CELL_DATA 1
FIELD FieldData 2
LengthArray 1 1 double
524.84202172 
TortuosityArray 1 1 double
0.031966667315 
POINT_DATA 272
FIELD FieldData 8
RadiusArray 1 272 double
65.636296938 66.716567675 67.863273957 72.174074547 73.659798718 74.982445465 75.619699367 76.07441486 76.512522254 
76.604372895 77.129899126 77.315265785 77.321983827 77.348344873 77.332753578 77.407557042 77.35438415 77.372473902 
77.364075209 77.384450296 77.389610089 77.356384716 77.167571487 77.120392398 77.100052058 76.661112525 76.484622069 
76.061521571 76.061448528 76.043260799 75.241325008 74.772567174 74.095333952 73.956598604 73.615263253 73.585369545 
72.655682424 72.6376247 72.634412872 72.447160361 71.582872791 71.515378979 71.303556804 70.440677756 70.198834933 
69.513508666 69.153878781 69.090577526 69.061527948 68.595336252 68.432154375 68.412375393 68.409532024 68.100391051 
68.03303755 67.986182051 67.73139602 67.15268009 66.659269401 66.473239849 65.71006332 64.07051526 63.6150359 
62.068065279 61.851434879 61.160035944 60.711628392 59.757482968 59.615833612 59.190861647 59.17870646 58.626808947 
58.597481472 58.336750975 57.977580412 57.971429217 57.74089854 57.753177741 58.020343401 58.046789338 58.057561155 
58.105578953 58.255428555 58.618235324 58.669274987 58.805239546 58.832674157 58.974284734 59.010913016 59.050618957 
59.112105995 59.337791782 59.415274474 59.605762207 59.887170014 59.939160301 60.045836206 60.086580506 60.500427764 
60.529202078 60.538951152 60.561245899 60.656279711 60.840473888 60.954828089 61.07734906 61.080008053 61.232382851 
61.338198546 61.447268079 61.558416761 61.576190403 61.631114373 61.729523701 61.741439511 61.872056463 61.933725254 
62.048323783 62.069425696 62.131138355 62.217641176 62.268673715 62.377817873 62.429681655 62.554721851 62.605811817 
62.729563054 62.739326405 62.809584138 62.976081021 63.00471412 63.054342245 63.16715111 63.180908118 63.209260752 
63.232507611 63.376047974 63.448412353 63.448858615 63.489407775 63.521072643 63.569208925 63.541971645 63.541731423 
63.542785048 63.53724147 63.527353135 63.520660038 63.568239011 63.565061022 63.503610584 63.50357707 63.502679622 
63.22040008 62.938992158 62.690966598 62.424265819 62.413809946 62.217201567 61.808852527 61.675983413 61.26281309 
61.21697784 60.826587588 60.424515986 60.146700584 59.836183673 59.34160748 59.331282621 58.810111937 58.810111634 
58.81010438 58.176107305 58.131964838 57.71820891 57.067837618 57.018340717 56.691857858 55.836538568 54.857635675 
54.842344404 54.513327569 53.834295782 53.254727107 53.11227627 52.580239562 52.44523263 51.762858027 51.420431346 
50.77067784 50.664586298 50.22888164 50.190917298 49.953978746 49.861964842 49.341942115 49.181825441 48.996755912 
48.635401453 48.615780904 48.38843236 48.135698414 47.573483912 47.386758545 47.26740867 47.237737728 46.885641973 
46.51955452 45.994840375 45.885964546 45.411012934 45.367660482 44.855382135 44.694097133 44.243725849 44.206626076 
43.943983627 43.770329527 43.712193997 43.100846142 43.057351784 42.965789431 42.808920094 42.804036661 42.359844411 
41.815328566 41.451601693 41.288141353 40.675452082 40.34494709 40.320207388 40.043824642 39.900368167 39.190402526 
38.75642101 38.50357814 38.377614948 38.290907929 38.290728971 38.29794407 38.302827931 38.371010341 38.38749155 
38.540635005 38.666290534 38.669761376 38.564736886 38.480644477 38.31348098 37.685833625 37.546099424 37.479850747 
36.884918638 36.83794346 36.418248376 36.387660436 36.069775372 35.77697161 35.371394672 35.251735459 35.197179019 
34.826018697 34.759162301 34.755618486 34.506768084 34.422485062 34.427404449 34.380667582 34.378453376 34.349344608 
34.331228835 34.333247645 
EdgeArray 2 272 int
53801 53801 62776 62776 60548 60548 65489 65489 65488 
65488 62683 62485 60054 48139 46717 46709 47510 46717 
47739 47367 46914 46914 47567 47786 47567 46759 28311 
45487 45487 45899 45206 45617 45206 45739 44834 43621 
45861 43621 45374 45861 45209 45374 41165 41165 42454 
41687 45009 42454 45009 44670 26865 26865 45043 45043 
29316 29316 43955 29316 43955 43955 41909 41909 38179 
38179 44174 31207 31207 43379 43024 43024 26807 26807 
42537 42537 39220 43702 41394 43216 39459 41348 29533 
29533 42535 42535 30524 41873 30681 30681 41823 41823 
41659 40606 30631 30631 28951 41674 42415 42415 42433 
42433 41424 41424 41632 41632 38972 40321 36863 36863 
38590 40849 27290 27290 37362 37362 39765 39765 39614 
39614 36174 36174 37260 37260 38216 38216 38042 38042 
38040 38040 38547 38547 38219 38219 37167 37167 38215 
38215 37820 32499 37852 28459 30759 37847 34599 27036 
27036 27960 32985 32538 29485 31600 34000 32724 34360 
34360 31566 31566 34187 34187 32997 34023 34023 34023 
34022 34022 29470 33783 33515 32629 33019 33515 33019 
33019 32362 33517 32362 32362 33764 28954 32662 33488 
32662 32662 34266 34266 34265 34265 31337 31337 33746 
33746 29408 34263 29408 29408 33480 33221 33221 33221 
33762 33762 33750 33749 33750 33750 33457 33457 32917 
32917 32605 32888 32888 32888 32300 31024 31024 31024 
32886 32886 32859 32859 32161 32860 30049 29433 30049 
30049 32264 32264 31689 30995 31205 30995 31205 31205 
31719 31719 32172 32172 33169 33169 33174 33173 33174 
33174 31653 31653 32225 32559 32559 32559 32232 32170 
32232 32232 30354 28966 32463 30354 32470 27292 31799 
27292 28883 31799 27225 28883 27225 29128 29128 29128 
31360 31360 31034 28592 30506 31034 30228 30506 30228 
30228 29749 29749 30690 30690 25959 25959 30100 29123 
30099 30099 25922 29282 26008 26008 28651 28651 28620 
28620 25527 25527 27671 27671 27890 27671 27890 27890 
25923 25923 26108 26108 25630 25630 26259 26259 25502 
25502 22513 22513 24849 24849 24850 24850 20134 20134 
23563 23563 21780 21780 23227 23227 23145 23145 22683 
22683 22319 22319 22236 22068 22069 22069 21674 22069 
21674 21674 20925 20925 21577 21577 20891 20891 21260 
21260 21255 18399 21137 21137 21134 21134 20595 20595 
20604 20604 20752 20752 20599 20599 19715 19715 19760 
19760 20097 20097 19764 19764 19767 19767 19599 19599 
19228 19228 19229 19229 19062 19062 19063 19063 18905 
18905 18506 18506 18712 18712 18717 18717 18714 18714 
18148 18148 18297 18298 18295 18298 17763 17763 17759 
17759 12751 12751 17814 17815 17814 17810 17380 17380 
13022 13022 16852 16852 16927 16927 14524 14524 16418 
16418 15734 15734 16399 16399 16076 16076 16078 16078 
15745 15752 15746 15746 10176 10176 11367 14435 6398 
11367 6398 6398 13925 15724 15724 9399 11406 11406 
11864 13737 12286 9850 12370 12769 14800 14800 6886 
14428 6886 12975 8231 8231 12988 12988 12977 12977 
13423 13423 14292 14292 11365 11365 12951 8301 11452 
12951 12732 8617 11162 12732 2915 12625 12625 12599 
13704 13704 8267 8267 7888 7888 13069 13069 12684 
12519 12336 12336 11752 13615 13392 13392 10688 11112 
12674 12674 10196 9688 12185 12185 10359 10359 10288 
11525 5866 5866 12875 12875 11480 13253 13271 12874 
12880 10725 12880 10264 12871 10264 12532 12532 12883 
12883 9772 9772 13165 9894 13166 13129 13131 13131 
5685 5685 10170 10170 
EdgePCoordArray 1 272 double
0 0 0 0 0 0.196 0.824 0.7 0.068 
0.92 0 0.36 0.268 0.508 0.36 0.336 0.316 0.576 
0.44 0.26 0.372 0 0.296 0.248 0.524 0 0 
0 0.996 0 0 0 0.968 0.992 0 0 
0 0.996 0.996 0.068 0 0 0.028 0 0 
0.416 0 0.208 0 0 0 0 0.96 0 
0.236 0 0 0 0 0 0 0 0 
0 0 0 0 0 0.056 0.028 0.98 0.7 
0.268 0.576 0.196 0.796 0 0 0 0.652 0 
0 0.052 0.248 0.648 0 0.924 0 0.12 0.716 
0 0 0 0 0 0.9 0 0.02 0 
0 0.78 0 0 0 0.192 0 0.008 0 
0 0 0.58 0.852 0 0 0.016 0.736 0 
0 0 0 0.884 0 0 0.124 0 0.896 
0 0.948 0.96 0.856 0.572 0.976 0.332 0.156 0 
0 0.604 0.028 0.996 0 0 0 0 0.968 
0 0.468 0 0 0 0 0 0.964 0 
0 0 0 0 0 0 0 0 0 
0 0 0 0 0 0 0.004 0 0.96 
0 0 0 0 0 0.772 0 0 0 
0 0 0 0 0 0 0 0 0 
0 0 0 0 0 0 0 0 0 
0 0.028 0.368 0 0 0 0.068 0.424 0 
0 0 0 0 0 0 0 0 0 
0.276 0 0 0.088 0.624 0 0.928 0.056 0 
0.972 0.964 0.044 0 0.056 0.112 0 0 0 
0 0 0 0.016 0.904 0.188 0.796 0.792 0.376 
0 0 0 0 0.088 0 0.836 0 0.812 
0 0.112 0 0 0.844 0 0 0.948 0.288 
0.78 0.988 0.984 0 0 0 0.84 0.936 0 
0 0 
CurvatureArray 1 272 double
0 0.00027137924799 0.0010943948279 0.0019263452431 0.0027680189009 0.0036202660058 0.0044851987299 0.0053508236308 0.0062146225002 
0.0070658828257 0.0078916117323 0.0086701211998 0.0093896437825 0.010019805443 0.010539492415 0.010928985687 0.011165711463 0.011236614328 
0.011139079111 0.010870421575 0.01044625172 0.0098829743806 0.0092075200076 0.0084523024124 0.0076472486587 0.0068258325313 0.0060167123713 
0.0052428083649 0.0045244852936 0.0038732622059 0.0032991392898 0.0028050322406 0.0023901237612 0.0020517098121 0.00178418443 0.001582486771 
0.0014393403504 0.0013505435146 0.0013118857683 0.0013204150399 0.0013730402884 0.0014648113323 0.0015936412541 0.0017544901949 0.0019415530732 
0.0021528622765 0.0023845109746 0.0026323804503 0.0028941201218 0.0031669300331 0.0034470522277 0.0037335110561 0.0040211441008 0.0043084646483 
0.004591119947 0.0048659981683 0.0051292766369 0.0053771218544 0.0056050296578 0.005810478272 0.0059894634312 0.0061388458502 0.0062576255789 
0.0063434394478 0.0063969208837 0.0064177227708 0.0064084966994 0.0063706559327 0.0063092885056 0.0062275144654 0.0061284424623 0.0060183315754 
0.0059004667968 0.0057785660295 0.0056560364446 0.0055337844012 0.0054171514733 0.0053021558541 0.0051930175208 0.0050862918999 0.0049816374706 
0.0048780081493 0.0047737841621 0.0046672092749 0.0045579862849 0.0044468628484 0.0043304092046 0.0042107572797 0.0040861159821 0.0039586813232 
0.0038242515483 0.0036850017202 0.0035410663738 0.0033914991409 0.0032317329178 0.0030677770995 0.0029022970166 0.0027334894265 0.0025704569333 
0.0024145686185 0.0022658237151 0.0021322922339 0.002006947522 0.0018974178532 0.0018008082053 0.0017146660905 0.0016513204877 0.0016008182559 
0.0015867363426 0.0016083239997 0.0016707003473 0.001783318533 0.0019374418276 0.0021290421082 0.0023487849803 0.0025942476043 0.0028525438921 
0.0031184370395 0.0033832620342 0.0036404610042 0.0038860904318 0.0041132440791 0.0043164260586 0.004492949228 0.0046426604418 0.004759884788 
0.0048469492853 0.0049067924651 0.0049363280119 0.0049434327441 0.0049280072216 0.004897815088 0.004852376282 0.0047984821004 0.0047370879248 
0.0046752936468 0.004610620389 0.0045463271781 0.0044860484094 0.0044267276855 0.004368825184 0.0043129565419 0.0042577841049 0.0042035665846 
0.0041495361828 0.0040932772558 0.0040372847405 0.003979982242 0.0039211166734 0.00386185647 0.003801014857 0.0037400973531 0.0036798943016 
0.0036180328579 0.003557432996 0.0034968083075 0.0034339697539 0.0033725742597 0.0033090438156 0.0032423761802 0.0031734910036 0.0031005145597 
0.0030214423939 0.002936844642 0.002845025859 0.0027452736804 0.0026380782754 0.0025216203581 0.0023976582731 0.0022658003576 0.0021271265781 
0.0019841814945 0.0018367289521 0.0016894971018 0.0015411934715 0.0013973856239 0.0012598842649 0.0011313702488 0.0010159483149 0.0009169890835 
0.00083794355423 0.00078160191328 0.00075025571607 0.00074328123903 0.00075899862925 0.00079159884458 0.00083705628746 0.00089252500199 0.00095344608238 
0.0010177942748 0.0010831173769 0.0011483991331 0.0012112624999 0.0012710892231 0.0013251103715 0.001373647436 0.0014134860327 0.0014423038553 
0.0014619383811 0.0014679710376 0.0014592840574 0.0014365548192 0.0013992947283 0.0013426224214 0.0012718427848 0.0011835595645 0.0010808714233 
0.00096200000464 0.00083098180245 0.00068688175657 0.00053471923083 0.00037553761993 0.00022162818363 0.00012689118621 0.00021651182351 0.00037245671791 
0.0005404258721 0.00070336359474 0.00086142837839 0.0010092893153 0.0011439012662 0.0012696888377 0.0013812600309 0.0014864135209 0.001577942361 
0.0016641626444 0.0017463904182 0.0018236060439 0.0019034496507 0.0019829013402 0.0020646732687 0.0021531115746 0.0022412470902 0.0023369603255 
0.0024324944543 0.002529557378 0.0026246528756 0.0027132445398 0.002796376399 0.0028648263381 0.0029175882347 0.002949582296 0.0029587260148 
0.0029405331597 0.0028941750624 0.0028161891164 0.0027068812004 0.0025736547335 0.0024112615939 0.00223058133 0.0020334031338 0.0018318363708 
0.0016262308551 0.0014336075872 0.0012568803235 0.0011031824965 0.00098398114113 0.00089656038597 0.00084147636555 0.00080750925476 0.0007889589669 
0.00077428373968 0.00075415092655 0.00072446958417 0.00068368264427 0.00063089169676 0.00056358029358 0.00048456010886 0.00039448915405 0.0002947579985 
0.00018869452872 0 
TorsionArray 1 272 double
0 0 -0.00022462079344 2.1474513761e-05 -0.00014031179704 -0.00051218095404 -0.0005251907062 -0.00054680336033 -0.00070409342772 
-0.0008646479634 -0.00091904772007 -0.001115529142 -0.0012842345681 -0.0013455629027 -0.0015138255911 -0.0016373067893 -0.0016793290016 -0.0018022413775 
-0.0018575650193 -0.0018528331555 -0.0018257783174 -0.001609505939 -0.0013937741374 -0.0010490471183 -0.00051186630114 3.9638121516e-05 0.00078052332863 
0.0016384273935 0.002620056704 0.003618796327 0.0041438718922 0.0043453097504 0.0036772036637 0.0017573488244 -0.0020023451284 -0.0073110006135 
-0.013386401343 -0.019808131073 -0.024794195222 -0.027497675497 -0.027328957496 -0.025434439196 -0.022694436485 -0.019317313754 -0.016269876893 
-0.013777739523 -0.011632534124 -0.0099141662974 -0.0086017845237 -0.007561377948 -0.0068062770379 -0.0062373024356 -0.0058266832174 -0.00557611562 
-0.0054318653853 -0.0053970933769 -0.0054481828401 -0.005574301585 -0.0057889426406 -0.00608591802 -0.0064371233186 -0.0068611092247 -0.0073489768313 
-0.0078932191822 -0.0085100378017 -0.0091650128999 -0.0098343052103 -0.01055156537 -0.011272245123 -0.011930205309 -0.012520729852 -0.012992899045 
-0.013273393397 -0.013309764603 -0.013020338181 -0.01233203166 -0.011203982488 -0.0095252424594 -0.0072400655925 -0.0043864996288 -0.00085512991217 
0.0033603651275 0.0082349101332 0.013767111058 0.019921116641 0.026567535777 0.033594349503 0.040912965635 0.048498442275 0.056171585817 
0.063435006364 0.070562428035 0.077918347798 0.084625432305 0.091652486799 0.098977749241 0.10598624245 0.11346420762 0.12000043127 
0.12710866149 0.1338199478 0.13776629642 0.14311507802 0.14815380224 0.1534614579 0.16018685317 0.16604412376 0.17348447135 
0.17662344158 0.17492821965 0.16653834377 0.15102972533 0.13204151432 0.11179197376 0.09312220623 0.076036111228 0.062114454892 
0.049766666963 0.039408533911 0.031239697324 0.023425363224 0.017040487692 0.011645013837 0.0065168901504 0.0019179570477 -0.0022689559245 
-0.0061637696113 -0.009831446835 -0.013111027805 -0.016317591539 -0.019301569063 -0.022002701727 -0.024363224614 -0.026514233285 -0.028246315556 
-0.029465960116 -0.030494395511 -0.030941424413 -0.031272756253 -0.031210441616 -0.030686157995 -0.030172068019 -0.0293494253 -0.028338417722 
-0.0274703668 -0.026369159832 -0.025282132282 -0.024354753874 -0.023201687373 -0.022130952497 -0.021123109551 -0.020043148165 -0.019058553706 
-0.018028030838 -0.01701231278 -0.016037991243 -0.014940343395 -0.014007712636 -0.013055511749 -0.01200264304 -0.011073120054 -0.010147793772 
-0.0092213699556 -0.0082340294051 -0.0073246216998 -0.0063737067721 -0.0053220618928 -0.0042009739921 -0.0029971690471 -0.0016537338343 -3.6583068577e-05 
0.0018366554563 0.004175161736 0.0070790170815 0.010588965373 0.015050816206 0.020697439973 0.027476375841 0.035705974685 0.04462199404 
0.053090782197 0.059455169573 0.061362877177 0.057900205583 0.050093439526 0.040403762934 0.029817878142 0.020194376251 0.012381321604 
0.0059158068396 0.00049435679093 -0.0039111070852 -0.0065188241891 -0.0088922882868 -0.010697646998 -0.011719595909 -0.0122300592 -0.012729716945 
-0.012758366592 -0.012178051954 -0.011902918773 -0.011075568442 -0.01003917228 -0.0083952433312 -0.0069130338184 -0.0051701376427 -0.0020418934516 
0.0016799321191 0.0077233794883 0.01712896562 0.036680679623 0.08710745274 0.26621634665 0.84433998837 0.29244303384 0.097068779173 
0.047034510005 0.027364194602 0.018149092152 0.014937614536 0.012568518722 0.011446446412 0.010491988832 0.010310482213 0.010516176854 
0.01041429171 0.010274303415 0.0097045483586 0.0094744966284 0.0092780375714 0.0082520322718 0.0074906202824 0.0067297863565 0.00580076466 
0.0047728198437 0.003839218429 0.0030428319539 0.0019895046587 0.0010262565483 9.7584468494e-05 -0.00087905742939 -0.0018869282532 -0.0030724395264 
-0.0046022395267 -0.0060710234823 -0.0077318011232 -0.010217915906 -0.013081595714 -0.016444352049 -0.02070589157 -0.026300422978 -0.033313363206 
-0.041956506284 -0.052826353042 -0.064956072528 -0.077458345338 -0.087599327509 -0.092207182087 -0.088487796179 -0.078937223691 -0.065927550315 
-0.052535157819 -0.041296114563 -0.031993285219 -0.023585346776 -0.017485050525 -0.013803942697 -0.010192111554 -0.0068201850308 -0.0040619842971 
0 0 
TangentArray 3 272 double
-0.56310768051 0.35155073608 0.74787821209 -0.56310768051 0.35155073608 0.74787821209 -0.56293326617 0.35018582756 0.74864946672 
-0.56254084428 0.34717256719 0.75034592497 -0.56192044464 0.34250151782 0.75295293623 -0.56105369746 0.33616817796 0.75644544066 
-0.55991189817 0.3281719913 0.76079025389 -0.55846563742 0.31852493258 0.7659360281 -0.55668463118 0.30725557054 0.7718136017 
-0.55453318346 0.29440846573 0.77834221507 -0.55197613217 0.28005105844 0.78542584257 -0.54898530562 0.2642806262 0.79295074553 
-0.54553531523 0.2472232154 0.80079454394 -0.54161074179 0.22903793199 0.80882595784 -0.5372154897 0.20992128797 0.81690426029 
-0.53236542898 0.19009901369 0.824893578 -0.52709676025 0.16982424816 0.83266363561 -0.52146860834 0.149370633 0.84009458069 
-0.51555394405 0.12901825006 0.84708820198 -0.50944316125 0.10904431656 0.853567222 -0.50323873381 0.089709878076 0.85947828045 
-0.49704750387 0.071247296962 0.86479338664 -0.49098013014 0.053851029986 0.86950478916 -0.48513652384 0.037669613013 0.87362666711 
-0.47960539223 0.022803009882 0.87718794479 -0.47446032623 0.0093021777877 0.88022773662 -0.46975172759 -0.0028278369204 0.8827940404 
-0.4655114513 -0.013621803616 0.88493702328 -0.46175019416 -0.023147776733 0.88670792182 -0.45846105233 -0.031499502325 0.88815609261 
-0.45561916811 -0.038788472435 0.88932931362 -0.45318104887 -0.045136621335 0.89027502625 -0.45109359213 -0.050670632968 0.89103706886 
-0.44929331261 -0.055516676671 0.89165767975 -0.44770952301 -0.059796901798 0.89217740027 -0.44626319848 -0.063626049529 0.89263703906 
-0.44487345592 -0.067110406824 0.89307547358 -0.44345922306 -0.070346824635 0.89352965353 -0.44193602883 -0.0734217005 0.89403680031 
-0.44022035177 -0.076411636932 0.89463249641 -0.43822923622 -0.079383485613 0.89535099192 -0.43588500221 -0.082395389108 0.89622277627 
-0.43311112877 -0.085496735588 0.89727646706 -0.42983150762 -0.088728234928 0.89853891145 -0.42597899759 -0.092123903639 0.90003059948 
-0.42149027265 -0.095710511743 0.90176795685 -0.41630404588 -0.099507218004 0.90376393762 -0.41036718282 -0.10352677212 0.90602482456 
-0.40363346822 -0.10777528224 0.90855077561 -0.39606267113 -0.11225184009 0.91133631824 -0.38762406383 -0.11694861784 0.91436896597 
-0.37829430926 -0.12185057387 0.91763056468 -0.36806048901 -0.12693538613 0.92109656615 -0.35692149925 -0.13217356266 0.92473628279 
-0.34488697206 -0.13752798639 0.92851442071 -0.33198034843 -0.1429546609 0.93239101947 -0.3182380887 -0.14840306764 0.93632315384 
-0.30371100175 -0.15381712191 0.94026587752 -0.28846512835 -0.15913620849 0.94417346758 -0.27257957989 -0.16429628724 0.94800163641 
-0.2561454096 -0.16923153357 0.95170910324 -0.23926647889 -0.17387683267 0.95525828923 -0.22205439517 -0.17816969797 0.95861744419 
-0.2046269043 -0.18205216568 0.96176132123 -0.18710502557 -0.18547310504 0.96467167301 -0.16960929665 -0.18838892697 0.96733773765 
-0.15225668767 -0.19076649181 0.96975566338 -0.13515738739 -0.19258476224 0.97192776994 -0.11841084712 -0.19383333157 0.97386216214 
-0.10210295214 -0.1945135796 0.97557134773 -0.086308208834 -0.19463990199 0.97707021326 -0.071085058107 -0.19423795892 0.97837545443 
-0.056475198749 -0.19334368204 0.97950435044 -0.042506311087 -0.19200288467 0.98047340902 -0.0291915386 -0.19026950175 0.98129779923 
-0.016532333553 -0.18820474481 0.98199065982 -0.0045163098393 -0.18587521354 0.98256297912 0.0068772814721 -0.18335090669 0.98302347277 
0.017675849945 -0.18070530569 0.98337844029 0.027913640818 -0.17801312241 0.98363212478 0.037625228793 -0.17534820272 0.98378724832 
0.046846967872 -0.17278305709 0.9838451996 0.055613800667 -0.17038750218 0.98380648721 0.063956412666 -0.16822704473 0.98367130623 
0.07190035254 -0.16636157667 0.98343996518 0.079466153212 -0.16484370545 0.98311326065 0.08666496103 -0.16371750905 0.98269311678 
0.093498519425 -0.16301676151 0.98218305948 0.09996059234 -0.16276419847 0.98158835347 0.10603727928 -0.1629715624 0.98091608471 
0.11170651007 -0.16363849565 0.98017554466 0.11694067142 -0.16474846975 0.97937879346 0.12171171165 -0.16627308142 0.97853948395 
0.12599054905 -0.16817514771 0.97767249181 0.12974869506 -0.1704022847 0.97679493114 0.13296234452 -0.17289443491 0.97592444857 
0.13561778989 -0.17558816628 0.97507774609 0.13770988236 -0.17841272388 0.97427146538 0.13924353435 -0.18129709307 0.97352072509 
0.14023864724 -0.18417211256 0.97283799 0.14072046165 -0.18697006956 0.9722345112 0.14072505379 -0.18963034467 0.97171847344 
0.14030199944 -0.19209665004 0.97129512817 0.13950125933 -0.19431984013 0.97096817578 0.13837570013 -0.1962598745 0.9707390109 
0.13698208894 -0.19787930681 0.97060789573 0.13537465477 -0.19914910449 0.9705737154 0.13360996236 -0.20004509382 0.97063398786 
0.13173962259 -0.20054665604 0.9707861302 0.12980672604 -0.2006405189 0.97102708307 0.12785464369 -0.20031479853 0.97135326817 
0.12591711022 -0.19956020874 0.97176159856 0.12402224065 -0.19837035725 0.97224877742 0.12219507724 -0.19674228208 0.97281079226 
0.12045420268 -0.19467750527 0.97344309233 0.11881159704 -0.19217811802 0.97414135287 0.11727236306 -0.18924977068 0.97490087556 
0.11583973775 -0.18590165702 0.97571600841 0.11450965709 -0.1821470489 0.97658076523 0.11327353141 -0.17800429128 0.9774884037 
0.1121217021 -0.17349318419 0.97843182642 0.11103585363 -0.16863857112 0.97940393686 0.10999686324 -0.16346996993 0.98039699051 
0.10898445916 -0.15801980413 0.98140314304 0.10797338631 -0.15232173791 0.9824153073 0.10693731609 -0.14641253805 0.98342654994 
0.10584930375 -0.14033122368 0.98443032895 0.10468142005 -0.1341143174 0.98542130592 0.10340602336 -0.12779986092 0.98639464206 
0.10199767743 -0.12142431724 0.98734624574 0.10043078654 -0.11502161598 0.98827308219 0.098681474572 -0.10862300513 0.98917289153 
0.096728306763 -0.10225742861 0.99004396517 0.094553325086 -0.095951640282 0.9908849335 0.092140319561 -0.089729796727 0.99169487499 
0.089476494253 -0.083611849224 0.99247318132 0.086553381288 -0.077615490482 0.99321918418 0.083365266977 -0.071758861115 0.99393203898 
0.079910078025 -0.066054616694 0.9946110632 0.07618701214 -0.060515834226 0.99525543103 0.072200346044 -0.055155611453 0.99586393074 
0.067958277197 -0.049983942859 0.99643528541 0.06346972172 -0.045011126694 0.99696820055 0.058747043306 -0.040245326769 0.99746132686 
0.053804678944 -0.035692858049 0.99791336117 0.048658261819 -0.031361792932 0.99832299959 0.043325588959 -0.027256758031 0.99868912204 
0.037824042621 -0.02338086524 0.99901084926 0.032171477937 -0.019738013547 0.99928744955 0.026386785048 -0.016328067766 0.99951844994 
0.020488419202 -0.01315031843 0.99970360298 0.014494203906 -0.010202991373 0.99984289617 0.008420384988 -0.0074813831999 0.999936561 
0.0022836879289 -0.004981216015 0.99998498602 -0.0038997411394 -0.0026961300694 0.99998876139 -0.010115721561 -0.00061842393606 0.99994864355 
-0.016347718021 0.0012592256701 0.9998655742 -0.022580736254 0.0029471824713 0.99974067861 -0.028801013289 0.0044546531067 0.99957523864 
-0.034991247701 0.0057911471794 0.99937083968 -0.041134437138 0.0069682935358 0.99912932144 -0.047213699089 0.00799693884 0.99885279976 
-0.053209163573 0.0088880750864 0.99854383331 -0.059100172485 0.009653327862 0.99820538111 -0.064865586979 0.010305531059 0.99784079474 
-0.070482630011 0.010856775521 0.99745392339 -0.075928881679 0.011320000401 0.99704897699 -0.081181055825 0.011709060608 0.99663059058 
-0.086216314133 0.012038282895 0.99620370754 -0.091013638954 0.012322048754 0.99577341029 -0.095553030746 0.012574982733 0.99534490913 
-0.099818437682 0.012812457401 0.99492317313 -0.10379628698 0.013049583685 0.99451296582 -0.10747756405 0.013301927188 0.99411852008 
-0.11085650112 0.013584999818 0.99374357051 -0.11393124915 0.013912910001 0.99339121267 -0.116706498 0.014299980871 0.99306349438 
-0.11918999442 0.014759763839 0.99276175118 -0.12139414464 0.015304258827 0.99248639351 -0.12333565334 0.01594541324 0.99223689732 
-0.12503435381 0.016693325574 0.99201196729 -0.12651268299 0.017556294267 0.99180961761 -0.12779521588 0.01854178961 0.99162724087 
-0.12890872224 0.019655612637 0.99146164738 -0.12988159675 0.020902253839 0.99130916803 -0.1307419797 0.022284278505 0.99116595264 
-0.13151614507 0.023801817454 0.99102824232 -0.13223226203 0.025453824657 0.99089188698 -0.13291717429 0.027237186317 0.99075282511 
-0.13359413348 0.029146764226 0.9906074266 -0.1342846701 0.031175115801 0.99045229039 -0.13500880608 0.033312457257 0.99028425337 
-0.135784281 0.035546329182 0.99010054414 -0.13662167366 0.037863462636 0.98989942746 -0.13752986837 0.040247384327 0.98967958621 
-0.13851465451 0.042680129666 0.98944029482 -0.13957650258 0.045142874748 0.98918174305 -0.14071069122 0.047613707814 0.98890517048 
-0.14191094234 0.050071392523 0.98861222939 -0.14316699115 0.052495006458 0.98830536118 -0.14446220782 0.054862073131 0.9879882709 
-0.14578028394 0.057150861808 0.98766486614 -0.14710203615 0.059342897236 0.98733956241 -0.14840472606 0.06141763657 0.98701768535 
-0.14966359638 0.063357785986 0.98670491986 -0.15085634391 0.065147955114 0.98640666434 -0.15196052275 0.066773713565 0.98612842506 
-0.15295253892 0.068223946428 0.98587575991 -0.15381153085 0.069488692408 0.98565376 -0.15451799635 0.070560617022 0.98546709135 
-0.15505614808 0.071433438987 0.98531967134 -0.15541151289 0.072103521652 0.98521487191 -0.1555726651 0.072568572339 0.9851552914 
-0.15553415091 0.07282799207 0.98514222906 -0.155290371 0.072882658466 0.98517664344 -0.15484202977 0.072736418756 0.98525801656 
-0.15419288168 0.072394034269 0.98538503086 -0.15334982364 0.071859431959 0.98555570803 -0.15232281624 0.071139725193 0.98576716275 
-0.15112232645 0.070243439117 0.9860161772 -0.14976597581 0.069177891558 0.98629841925 -0.14826863783 0.067950641027 0.9866099135 
-0.14664576628 0.066568843617 0.98694660863 -0.14491034458 0.065038813417 0.98730488948 -0.14307587523 0.063365491943 0.98768117748 
-0.141155952 0.061552273688 0.98807201904 -0.13915748515 0.059598792651 0.98847517836 -0.13708721626 0.05750488886 0.98888840771 
-0.13494646432 0.055268569366 0.98931028348 -0.13273534248 0.052884203955 0.9897396576 -0.13045455913 0.050346467588 0.99017515683 
-0.12809743021 0.047649151624 0.99061627623 -0.12565979854 0.04478730961 0.99106191125 -0.12313679042 0.041755743415 0.99151086163 
-0.12052241971 0.038550736807 0.99196178709 -0.11781293109 0.03517367016 0.99241267938 -0.11500547636 0.03162782758 0.99286122944 
-0.1121019076 0.027922089603 0.99330434371 -0.10910356497 0.024070047098 0.99373892192 -0.10601621209 0.020091463914 0.99416140332 
-0.10285073011 0.016013770953 0.99456788931 -0.099620618453 0.011869521467 0.99495469587 -0.096342882587 0.0076967647575 0.99531844592 
-0.093036987904 0.0035391579769 0.99565636303 -0.089723555689 -0.00055420682143 0.99596655386 -0.086427510552 -0.0045325474495 0.99624783133 
-0.083176634974 -0.0083430503727 0.99649989509 -0.079991974324 -0.011935430056 0.99672404885 -0.076896035707 -0.015261581548 0.99692230581 
-0.07391162713 -0.018278111879 0.9970972781 -0.071057021025 -0.020950158313 0.99725222017 -0.068345309664 -0.023250756684 0.9973907564 
-0.065787513564 -0.02516167821 0.99751636228 -0.063390499993 -0.026676280256 0.99763220707 -0.06115363732 -0.027798128137 0.99774119726 
-0.059078881465 -0.028539747382 0.99784526285 -0.057161141064 -0.028924634746 0.99794587501 -0.055392478673 -0.028983197257 0.99804391065 
-0.053765385098 -0.028751970819 0.99813957318 -0.05227208308 -0.028274309193 0.99823253442 -0.050904600498 -0.027595615351 0.99832219431 
-0.049653564085 -0.026761944778 0.99840789354 -0.048513701469 -0.025821713841 0.9984886879 -0.047482767722 -0.024821737572 0.99856360244 
-0.046558353144 -0.023805636611 0.99863186982 -0.045736831124 -0.022814540146 0.99869296535 -0.045019309906 -0.021885878854 0.9987463492 
-0.044410172049 -0.021051919847 0.99879154646 -0.043912036372 -0.020340868362 0.99882830463 -0.043528032525 -0.019777249613 0.99885643152 
-0.043261238746 -0.019379401552 0.99887582012 -0.043261238746 -0.019379401552 0.99887582012 
NormalArray 3 272 double
-0.10677635849 0.86646286608 -0.48768935908 -0.10677635849 0.86646286608 -0.48768935908 -0.11184683203 0.86519524606 -0.48880207892 
-0.11369934741 0.86645512955 -0.48613574943 -0.11671256352 0.86831849883 -0.48208003704 -0.12121293592 0.87061042064 -0.4768070046 
-0.12764093579 0.87309114994 -0.47055247891 -0.13456369691 0.8763242537 -0.4625455803 -0.14289653629 0.87981956484 -0.45331899723 
-0.15234064989 0.88360413538 -0.44275959429 -0.16301431614 0.88750078418 -0.43100892196 -0.17433499859 0.89162538605 -0.41786538409 
-0.18705385508 0.89548211525 -0.40388443467 -0.2002357329 0.89932266955 -0.3887472023 -0.21408498099 0.90287701272 -0.37280118135 
-0.22848813877 0.90602157064 -0.35625564413 -0.24309860018 0.9087498417 -0.33922970949 -0.25765705795 0.91103323565 -0.32191813249 
-0.27236272894 0.91265229714 -0.3047693036 -0.28648578711 0.91385763858 -0.28773270615 -0.30029378286 0.9144579082 -0.27127546537 
-0.31318338749 0.91471571289 -0.25536509234 -0.32496580852 0.91472709371 -0.24014905232 -0.33570904615 0.91448830362 -0.22585521665 
-0.34477722853 0.9143669344 -0.21227758233 -0.35218052762 0.91442346042 -0.19949589217 -0.35783540232 0.91477032948 -0.18748085006 
-0.3611315657 0.91577986925 -0.17587274758 -0.3624192517 0.9173327565 -0.16478136984 -0.36073294062 0.91993719111 -0.15358160689 
-0.3573016734 0.92300879039 -0.14279456241 -0.35243104342 0.92642026949 -0.13243052487 -0.34716235772 0.92971935692 -0.12288293105 
-0.34404735996 0.93184100988 -0.11534186755 -0.34552421452 0.93182958663 -0.1109352904 -0.3571227348 0.92726451364 -0.11244498225 
-0.37929012889 0.91746398353 -0.1199951543 -0.4151995151 0.89962228286 -0.13523723912 -0.46240894182 0.87267271288 -0.15690859351 
-0.51665755703 0.83645285023 -0.18278839709 -0.57195332301 0.79304790005 -0.20962925493 -0.62240414263 0.74688408038 -0.23404540949 
-0.6668787171 0.70010786696 -0.25518963791 -0.70418640608 0.65580699211 -0.27210052296 -0.73436407593 0.61625777513 -0.28449210636 
-0.75942841123 0.58071406684 -0.29332517926 -0.78034476643 0.54924816299 -0.29897909787 -0.79803331564 0.52155944805 -0.30185852528 
-0.81341439096 0.49688592987 -0.30242586079 -0.82714797256 0.47456553801 -0.30102123119 -0.83961427034 0.45424918249 -0.29783478181 
-0.85130713731 0.43511495755 -0.29317423433 -0.86232746322 0.41709250084 -0.28709787863 -0.87294895996 0.39957488515 -0.27982141531 
-0.88325326943 0.38233662659 -0.27144495945 -0.89331881199 0.36508716231 -0.26209323543 -0.90319228748 0.34755471384 -0.25189166862 
-0.91286677161 0.32957422403 -0.24094623498 -0.92233257377 0.31094291521 -0.22938423407 -0.93157212844 0.29143311756 -0.21734789509 
-0.94053860097 0.27087544635 -0.20497227287 -0.94914746988 0.24922286495 -0.19237214977 -0.95735167887 0.2262317828 -0.1797135037 
-0.9650438696 0.20190521615 -0.16710659302 -0.97214315489 0.17608482267 -0.15469913258 -0.97854550885 0.14869142532 -0.14261678426 
-0.98412490674 0.11979592253 -0.13094695445 -0.98876291956 0.089455468878 -0.11977315224 -0.99235010687 0.057601474763 -0.10919402681 
-0.99476305776 0.024529989748 -0.09922065566 -0.99590951431 -0.0094690024918 -0.08985865178 -0.99573192325 -0.044064279276 -0.081094243454 
-0.99422672994 -0.078759853483 -0.072870398392 -0.99147217666 -0.11289820017 -0.065091622368 -0.98762876051 -0.14582638105 -0.057654991169 
-0.98298426978 -0.17663932707 -0.050403110056 -0.97791450873 -0.20449615682 -0.043180266951 -0.97286509751 -0.22858222309 -0.035828331389 
-0.96842252671 -0.24772438655 -0.028114730404 -0.96507797377 -0.2612069965 -0.019884906794 -0.96330709257 -0.26817788561 -0.010957511915 
-0.96350315052 -0.26769458809 -0.001134211113 -0.96581767562 -0.25903953398 0.009733308996 -0.97016749949 -0.24145484111 0.021784917849 
-0.97613653211 -0.21429983951 0.035114803982 -0.9829519477 -0.17699690849 0.049775123361 -0.98941761056 -0.12936606322 0.065705506566 
-0.99400791765 -0.071389796032 0.082775338526 -0.99490398665 -0.0032741011634 0.10077369503 -0.99004810929 0.074487502888 0.11939997153 
-0.97724826446 0.16086777505 0.13822947792 -0.95468211333 0.25311616309 0.15657033712 -0.92015157329 0.35075338708 0.17404925631 
-0.8719723188 0.45118904067 0.18998085384 -0.80920109039 0.5511158282 0.20362941641 -0.72971243619 0.64925744564 0.21444003767 
-0.63325104358 0.7415407091 0.22160887291 -0.51923098114 0.82464653875 0.22440426546 -0.38786454074 0.89456473939 0.22206986532 
-0.24270796114 0.94617594038 0.21411196939 -0.081931457577 0.97643853327 0.19963723853 0.084484118026 0.98020558023 0.17905154088 
0.25340700933 0.95529120787 0.15232726539 0.42031765901 0.89945762604 0.1196204183 0.57820945936 0.81178730894 0.081701812451 
0.72144678686 0.69136334158 0.039131363989 0.8421192155 0.53924839783 -0.0068111905803 0.93202828103 0.35827042181 -0.054457214626 
0.98275959393 0.15458128034 -0.10143080549 0.98795124788 -0.057065723166 -0.14386047075 0.94847167829 -0.26160138574 -0.17879091268 
0.87407360573 -0.44096968139 -0.20381626987 0.77869459359 -0.58783945505 -0.21927039246 0.67751549108 -0.69972690732 -0.22661644802 
0.58021063493 -0.78185651713 -0.22815785268 0.4925508213 -0.84045945276 -0.22587960665 0.41734370654 -0.88139115183 -0.22130040237 
0.35301587461 -0.91048838847 -0.21538497333 0.30163267545 -0.93026258625 -0.20887615883 0.25957219018 -0.94435069735 -0.20204959414 
0.2265042316 -0.9542575258 -0.19516251568 0.20270676992 -0.96093723078 -0.18843992129 0.18513862673 -0.96574976295 -0.18179957164 
0.1745298194 -0.96890559038 -0.17538899361 0.16978647863 -0.97084893248 -0.16918895345 0.17079536066 -0.97169052147 -0.16323748116 
0.1767843137 -0.97156535576 -0.15750576472 0.18786594895 -0.97035864463 -0.15202133409 0.20346746437 -0.96802149706 -0.14674935152 
0.22320418187 -0.96442283907 -0.14166326506 0.24734662123 -0.95922456752 -0.13677674521 0.27503144865 -0.95232863861 -0.13201464438 
0.30640199802 -0.94334235515 -0.12736960623 0.34030189082 -0.93227005705 -0.12274837608 0.37725380534 -0.91854084267 -0.11816212046 
0.4153942328 -0.90253467154 -0.11348479201 0.45510834196 -0.883773571 -0.1087229151 0.49520370126 -0.86255266009 -0.10380849118 
0.53510069071 -0.83900132966 -0.098711800838 0.5748721912 -0.81289118134 -0.093433886101 0.61316841118 -0.7850427241 -0.087934184814 
0.64999325449 -0.75547828336 -0.082227322046 0.68522623692 -0.72432002698 -0.076324981111 0.71813751464 -0.69234831006 -0.070230532014 
0.74898483922 -0.65949174015 -0.06397151933 0.77782801161 -0.62583471828 -0.057571605489 0.80410523087 -0.5922911093 -0.051049187417 
0.82849799999 -0.55822645972 -0.044432912139 0.8507241811 -0.52425545307 -0.037743709755 0.87074067488 -0.49076411469 -0.03100420682 
0.8888996403 -0.45746047943 -0.024235082639 0.90510512723 -0.42482937156 -0.017456051096 0.91951023942 -0.39292085114 -0.010682899383 
0.93230306573 -0.36165666553 -0.0039306382461 0.94341001226 -0.33161693643 0.0027850037418 0.9531380964 -0.30238777937 0.0094551613356 
0.96145088611 -0.27450700902 0.016065353848 0.96845587959 -0.24815759662 0.022605674645 0.97445296883 -0.22270241899 0.029069642588 
0.97933819411 -0.19909910694 0.035443577257 0.98333822151 -0.17693367248 0.041718313265 0.98654748667 -0.15630493229 0.047883449061 
0.98906942114 -0.13723586806 0.053925844333 0.99098730801 -0.11985117449 0.0598318589 0.9923736081 -0.10436869481 0.065588089565 
0.99336392974 -0.090343472461 0.071176963127 0.99396641094 -0.078520175174 0.076585612328 0.99428592641 -0.068592426994 0.081795938188 
0.9943393199 -0.061285001263 0.08679553859 0.99421057479 -0.056221952675 0.091566505992 0.99387795148 -0.054509103205 0.096100859722 
0.99336113319 -0.056182423648 0.10038522971 0.99257319459 -0.062421148925 0.10441289931 0.9913727674 -0.074020523489 0.10817115218 
0.98941292416 -0.092727267494 0.11164102907 0.98621328107 -0.11920354555 0.11477751946 0.98058092894 -0.15701802186 0.11750056426 
0.97100133544 -0.20697625519 0.11965465456 0.9545659964 -0.27234811567 0.12095562163 0.92748556581 -0.35374617004 0.12097178346 
0.88527168233 -0.44955351327 0.1191456553 0.82476804253 -0.55365275827 0.11500564889 0.74605413312 -0.6569975238 0.10843193332 
0.65670502649 -0.74746103077 0.10020237353 0.56666482827 -0.81885090665 0.091510464293 0.48642139222 -0.86970446895 0.083715983355 
0.42035082977 -0.90404619805 0.077496139871 0.3737775289 -0.92459121424 0.073630465392 0.34210314085 -0.93692649548 0.071653214122 
0.32484809957 -0.94305531129 0.071556914757 0.31816823343 -0.94522813253 0.072888632248 0.32174929761 -0.94380078346 0.075613957843 
0.33197582919 -0.93995092107 0.079273670331 0.34530845086 -0.93477502773 0.083412956439 0.36383179223 -0.9272728871 0.088269019563 
0.38332000395 -0.91889121384 0.093299044471 0.40473934977 -0.90910090492 0.098598191754 0.42528062959 -0.89908925874 0.10380217202 
0.44739954526 -0.88764486913 0.10917982049 0.46720879265 -0.87673432405 0.11424915367 0.4864646506 -0.86553181996 0.11919233347 
0.5044996622 -0.85447456199 0.12390848942 0.52032557124 -0.84428010984 0.12826689379 0.5345172706 -0.83473667447 0.13231013462 
0.54464541938 -0.82760635868 0.13575375583 0.55422386934 -0.820685776 0.13896315961 0.55862020326 -0.81727786117 0.14142265081 
0.55910843561 -0.81662483028 0.14325377413 0.55238608506 -0.82104174757 0.14408352362 0.53491804788 -0.83263022982 0.14349070505 
0.49911396244 -0.85506459031 0.14053397769 0.41222857315 -0.90161166796 0.13101146391 0.16848793814 -0.98073466639 0.098850032077 
-0.66583772866 -0.74441322453 -0.050090620322 -0.97740948118 0.13340170749 -0.16393501928 -0.89944563025 0.40217015984 -0.17104596094 
-0.85010622297 0.49853587459 -0.16965079255 -0.81813426863 0.55011834295 -0.16741005719 -0.79864347707 0.57869444286 -0.16517063399 
-0.78335797008 0.59987296839 -0.16279653714 -0.76950789053 0.61821596325 -0.16020808094 -0.75822736541 0.63267551882 -0.15752126912 
-0.74638179828 0.64732107848 -0.15456271398 -0.73651082378 0.65923531397 -0.15152757921 -0.72478465772 0.67285640694 -0.14816023614 
-0.71389652086 0.68514434348 -0.14466853875 -0.70197930646 0.69811714643 -0.14091665326 -0.6908143429 0.70992476554 -0.13704879025 
-0.67980269001 0.72123082197 -0.13302031462 -0.66869976689 0.73229027314 -0.12880829797 -0.65771024508 0.74292332678 -0.1244273444 
-0.64871131706 0.75150889301 -0.12003337387 -0.63936524381 0.76019080871 -0.11542105246 -0.63200239914 0.76700619608 -0.11079017401 
-0.62491353695 0.77346628752 -0.10598572267 -0.62007343679 0.77799131587 -0.10118520359 -0.61547075542 0.78226546149 -0.096210690598 
-0.61268360555 0.78504702124 -0.091213891073 -0.61098505438 0.78694146534 -0.086141705654 -0.6108526593 0.78758412162 -0.081057263713 
-0.61177253641 0.78737987635 -0.075942702187 -0.61438224492 0.78581744314 -0.070890078221 -0.61814841152 0.78329486794 -0.065891510838 
-0.62408246849 0.77896707169 -0.061084971538 -0.6321056943 0.77281855044 -0.056514417009 -0.64205636949 0.76487688212 -0.05222043276 
-0.65453390242 0.75448717967 -0.048316315106 -0.67104148781 0.74005337589 -0.044992471296 -0.69076151667 0.72184841445 -0.04223024559 
-0.71532971607 0.69762770038 -0.040236661931 -0.74456750878 0.6664038598 -0.039052791235 -0.78050666918 0.62393358741 -0.038938642375 
-0.82180846182 0.56836768101 -0.039862655028 -0.8686376544 0.49366502591 -0.041993660935 -0.917702326 0.39468308004 -0.045251598815 
-0.96197817736 0.26864528002 -0.049271693834 -0.99190514029 0.11517119361 -0.053476993366 -0.9967791393 -0.056451051023 -0.056961621183 
-0.97187978133 -0.2279875804 -0.058918195963 -0.92280804166 -0.38069915901 -0.059105571415 -0.86082943069 -0.50559254615 -0.057869409318 
-0.79779930618 -0.60033834743 -0.055768590211 -0.74069200786 -0.6697265352 -0.05330776256 -0.6912659825 -0.72081337324 -0.05078801425 
-0.65147489882 -0.75712337177 -0.048421649381 -0.62211293984 -0.78155463289 -0.046344858354 -0.5980003226 -0.80026002017 -0.044491732797 
-0.57906989817 -0.81414800352 -0.042907824432 -0.56610355297 -0.82328107401 -0.041653817344 -0.55785005743 -0.82894207309 -0.04072287914 
-0.55438585379 -0.83129130176 -0.040138469582 -0.55438585379 -0.83129130176 -0.040138469582 
BinormalArray 3 272 double
-0.81945625229 -0.35447733588 -0.45037458734 -0.81945625229 -0.35447733588 -0.45037458734 -0.81889952009 -0.35889702194 -0.44788001031 
-0.81891407176 -0.35878505691 -0.44794310578 -0.81891610767 -0.35876969617 -0.4479516868 -0.81885662526 -0.35920530563 -0.44771126373 
-0.81866138165 -0.3605759116 -0.44696594297 -0.81854061799 -0.36138299587 -0.44653509045 -0.81834149432 -0.36264520912 -0.44587627317 
-0.81809857281 -0.3640980462 -0.44513743711 -0.81777055599 -0.36594229428 -0.44422691838 -0.81744873997 -0.3676410227 -0.44341587246 
-0.81694680068 -0.37012492896 -0.44227306252 -0.81643337489 -0.37250551907 -0.44122123999 -0.81582298235 -0.37516150224 -0.44009852158 
-0.81509522172 -0.37813658714 -0.4388991923 -0.81429237742 -0.3812262451 -0.43771506044 -0.81343919933 -0.38432649861 -0.4365888357 
-0.81241779564 -0.38784027084 -0.43538172866 -0.81141454217 -0.39111833686 -0.43431887748 -0.81029279941 -0.39461230583 -0.4332513212 
-0.80923417173 -0.39776750403 -0.43234369203 -0.80829186257 -0.40046773978 -0.43161308401 -0.80742924741 -0.4028549898 -0.43100564685 
-0.80691221978 -0.40424390164 -0.43067335367 -0.80675663914 -0.40465195479 -0.43058160746 -0.80702362993 -0.40396441382 -0.43072684279 
-0.80801180744 -0.40144947073 -0.43122527927 -0.80959189978 -0.39744785102 -0.43196777834 -0.81221007692 -0.39079834413 -0.43311828082 
-0.81531999107 -0.38281879169 -0.43439968335 -0.81879136328 -0.37377556059 -0.43574365597 -0.82218785476 -0.36476623242 -0.4369813808 
-0.8244797956 -0.35859480046 -0.43777030019 -0.82472371143 -0.35793568139 -0.43785025728 -0.82055621987 -0.368961038 -0.4365263365 
-0.81131165797 -0.39211737047 -0.43360968788 -0.79432567637 -0.43096527986 -0.42815376609 -0.76868102419 -0.48275417149 -0.41961636404 
-0.73435074089 -0.5426858125 -0.40770221764 -0.69341512301 -0.60396464336 -0.39294042392 -0.65009026148 -0.65982965251 -0.37683880055 
-0.60637243243 -0.70890005136 -0.36024046186 -0.56512510168 -0.74969626478 -0.344367725 -0.52844233139 -0.78213780178 -0.33016535467 
-0.49559503456 -0.80846191655 -0.31745061223 -0.46664010425 -0.82971366689 -0.30630416924 -0.44129536865 -0.84691082742 -0.29664869458 
-0.41885206447 -0.86109747487 -0.28822575675 -0.39869862307 -0.87303326084 -0.28080657655 -0.3805199892 -0.88316516066 -0.27426964254 
-0.3635513355 -0.8920915936 -0.26833377553 -0.34773959021 -0.89995625088 -0.26297513933 -0.33251640062 -0.90712185537 -0.25799764113 
-0.31767379266 -0.91373122795 -0.25333496507 -0.30293654187 -0.91993224144 -0.24890585119 -0.28804202946 -0.92584137432 -0.24464165398 
-0.27282574056 -0.93151549845 -0.24050985723 -0.25708071317 -0.93701129696 -0.2364726967 -0.24056962015 -0.94237650013 -0.23249255875 
-0.22310685606 -0.94762185528 -0.22855229198 -0.20462314751 -0.95270919522 -0.22466543315 -0.18485023275 -0.95764019296 -0.22080682117 
-0.16376251029 -0.96233637189 -0.21700356578 -0.14117151201 -0.96674394879 -0.21325276473 -0.11696740402 -0.97077313119 -0.20956658647 
-0.091192483207 -0.97429825133 -0.20597778633 -0.06387777033 -0.97719436574 -0.20251123923 -0.034930454751 -0.9793419779 -0.19917116673 
-0.004630990255 -0.98059305879 -0.19599950759 0.026741959459 -0.98082906082 -0.19302647761 0.058862989589 -0.9799642619 -0.19027662455 
0.091234650264 -0.97796477753 -0.18777947837 0.12319146246 -0.97487890975 -0.18556663197 0.15406909324 -0.97084096705 -0.18365873574 
0.18294427381 -0.9661146527 -0.18208204337 0.20895649441 -0.96105760849 -0.18084650013 0.2312708478 -0.95610282517 -0.179947722 
0.24868730182 -0.9518288821 -0.17937782782 0.26047136732 -0.94872663778 -0.17908778176 0.26575136416 -0.947276955 -0.17900442166 
0.26356600792 -0.9478848151 -0.17901769963 0.25318633976 -0.95071900104 -0.17896943432 0.2338473866 -0.95571921668 -0.17865099679 
0.20490927255 -0.96249644394 -0.17779984654 0.16580289205 -0.97030853194 -0.17609870479 0.116369998 -0.97798824069 -0.17319649144 
0.056624080664 -0.98403710931 -0.16871479188 -0.013188530128 -0.98665956437 -0.16226203103 -0.092524789604 -0.98381496317 -0.15345123507 
-0.18029832285 -0.97331598245 -0.14194545814 -0.27369132586 -0.95330485664 -0.12768284321 -0.37216574455 -0.92158847858 -0.11030564236 
-0.47306517182 -0.8764391418 -0.089798518554 -0.57302606524 -0.81684417442 -0.066383155048 -0.67070170375 -0.74065665707 -0.039836427135 
-0.76197173889 -0.64752310585 -0.010625277459 -0.84346616798 -0.53677461386 0.020924564174 -0.91113793477 -0.40851596186 0.054243642273 
-0.95990935375 -0.26614229802 0.08799039599 -0.98665342848 -0.10774963498 0.12208615085 -0.98643747548 0.056897740476 0.15396023543 
-0.95713125358 0.2247611737 0.1827079041 -0.89658935091 0.39142787162 0.20715153185 -0.80406839679 0.54998493317 0.22581095316 
-0.67878600534 0.69488165169 0.23746378483 -0.5220238785 0.81826083838 0.24070785333 -0.33685554965 0.91193435361 0.23431618249 
-0.12972375408 0.96741183915 0.21745362979 0.084276602209 0.97800147516 0.19081553633 0.28992182664 0.94416031291 0.15654596118 
0.46919101986 0.87505512008 0.11890468323 0.61502293758 0.78427927197 0.081564758362 0.72528692422 0.68678579602 0.047792760372 
0.80551002736 0.59228460689 0.018776055558 0.86213542605 0.50665124022 -0.005198839962 0.90115005602 0.43282116605 -0.024380622399 
0.92841851954 0.36939337891 -0.039844500104 0.94652272426 0.31848700633 -0.051582548067 0.9590575505 0.27661567688 -0.060764974633 
0.96753530013 0.24350090246 -0.067696037657 0.97292394597 0.21945539601 -0.072514305671 0.9765369317 0.20150673509 -0.075964838854 
0.97860192612 0.19039878793 -0.078016483868 0.97954800777 0.18506873981 -0.078963675338 0.97948627106 0.1854208704 -0.07890339419 
0.97854137947 0.19070371562 -0.078031157383 0.97660032025 0.20104091789 -0.076383007368 0.97360576481 0.21587398356 -0.074096139894 
0.96942063471 0.23482913502 -0.071266474258 0.96370810211 0.25818260384 -0.067885469705 0.95635750053 0.2850810531 -0.064102451877 
0.94697489422 0.3156716954 -0.059916028274 0.93555026151 0.34880628356 -0.055496709157 0.9215149092 0.38500816086 -0.050783739506 
0.90523013004 0.42242185707 -0.04602375839 0.88621944758 0.46143267205 -0.041170133679 0.86476790327 0.50085284708 -0.036371679168 
0.84100037469 0.54010513462 -0.031698790698 0.81468859263 0.57926311906 -0.027142880077 0.78664579676 0.61698118274 -0.022860677697 
0.75689526467 0.6532642412 -0.018851776906 0.72555950731 0.6879930937 -0.015129585585 0.69341711471 0.72044023432 -0.011771737213 
0.66039894544 0.75086394543 -0.0087503317984 0.62659074196 0.77932492796 -0.0060579485401 0.59290612329 0.80526288316 -0.0037440594362 
0.55871316954 0.82935912294 -0.0017433813152 0.52462688046 0.85133226812 -7.4467330401e-05 0.49103402599 0.871139471 0.0012678255423 
0.45764358856 0.88913271163 0.0023166712511 0.42494073318 0.90521594331 0.0030772162683 0.3929758475 0.91954186074 0.003570663621 
0.36167081498 0.93229804449 0.0038180920004 0.33160570079 0.94341027043 0.0038367763113 0.30236640251 0.95318479239 0.0036483139929 
0.2744903381 0.96158427418 0.0032768795421 0.24815986709 0.96871519104 0.0027493650463 0.22273731879 0.97487629402 0.0020732053841 
0.19917910066 0.97996224837 0.0012952345475 0.17707032558 0.98419810934 0.00042587765569 0.15650854025 0.98767647391 -0.00050962587425 
0.13751532671 0.99049852026 -0.0014887175291 0.12021366386 0.99274493664 -0.0024831003062 0.10481926147 0.99448527972 -0.0034570003896 
0.09088620337 0.99585148863 -0.0044170836529 0.079155409493 0.99684825309 -0.0052897510801 0.069319064622 0.99757605066 -0.0060737485293 
0.062097214723 0.99804770846 -0.0066863711061 0.057112612499 0.99834225552 -0.0071337466723 0.055463825028 0.9984340877 -0.0072894880637 
0.05718337669 0.99833830749 -0.0071193554492 0.063441186815 0.9979645828 -0.0064735834792 0.075024058056 0.99716800031 -0.0052316228142 
0.093663769244 0.99559886583 -0.0031617539619 0.12001264396 0.99277235339 -0.0001400877741 0.15760912129 0.98749220319 0.0043027349285 
0.207244184 0.97823462378 0.010337748302 0.27215293524 0.96207706737 0.01845254147 0.35292894728 0.93520553408 0.028840374377 
0.44795140231 0.89309740319 0.04143150462 0.55113720348 0.83256255008 0.055564225436 0.65350716388 0.7536646839 0.070127961611 
0.74304848396 0.66401480734 0.083446306781 0.81364718597 0.57362556468 0.094509091173 0.86388700878 0.493069516 0.10286733425 
0.89777986361 0.42677153756 0.10889155721 0.91804410992 0.38010944392 0.11274672003 0.93021420426 0.34846359602 0.11521569531 
0.93628324759 0.33135652397 0.11651838616 0.93847568035 0.32491828147 0.11701071642 0.93714994092 0.32883181313 0.11670315723 
0.9334638064 0.33945356745 0.11583003789 0.92849156811 0.35321665552 0.11463595516 0.92125564436 0.37221652423 0.11288444013 
0.91317000885 0.39219554263 0.11091975154 0.90371702356 0.41412276625 0.10861802703 0.89405642298 0.43516828888 0.10626228343 
0.88300335863 0.45779847308 0.1035646016 0.87247874285 0.47810166214 0.10099328663 0.86167442473 0.49784015665 0.09834817841 
0.85101598085 0.5163400061 0.095732953791 0.8412028833 0.53260634307 0.093317696335 0.83202603608 0.54721344849 0.091050080037 
0.82520432322 0.5577217102 0.089355016105 0.81858308446 0.56765359244 0.087699103908 0.81538424564 0.57236192119 0.086892825571 
0.81486396292 0.57312248229 0.086760257175 0.81927506126 0.56662312905 0.087901101331 0.83065448344 0.54931602899 0.090912207302 
0.85255078643 0.51357746269 0.096929594947 0.89772761188 0.42649441071 0.11039770151 0.97334935176 0.18136514673 0.14034857668 
0.72970490405 -0.6637356663 0.16427330363 -0.14337226643 -0.98837852189 0.05052020075 -0.40868264464 -0.91267112145 0.0031496101474 
-0.50353149345 -0.86384089134 -0.015328064087 -0.5542022646 -0.83198920113 -0.025569887063 -0.58220817255 -0.81243577057 -0.031333089792 
-0.60291983975 -0.79700582247 -0.035628440681 -0.62082828456 -0.7829581356 -0.039354783592 -0.63490761011 -0.7714300994 -0.042283901838 
-0.64916040424 -0.75930495219 -0.045241122374 -0.66072142275 -0.74911865119 -0.047628226461 -0.67395585454 -0.73705431962 -0.050343182941 
-0.68587663229 -0.72580200207 -0.052770248024 -0.69846993323 -0.71349872724 -0.055311107306 -0.70991734644 -0.70192593272 -0.057596407854 
-0.72087291143 -0.6904864131 -0.059755827253 -0.7315886485 -0.67893609187 -0.061837145341 -0.74188869887 -0.66748045943 -0.06380434753 
-0.75017642958 -0.65799995598 -0.065355814066 -0.75856555421 -0.64815432672 -0.066889974749 -0.76512110043 -0.64027958976 -0.068056951201 
-0.77133482852 -0.63266400464 -0.069129151249 -0.77564750129 -0.62728966623 -0.069847178744 -0.77972398298 -0.62214180721 -0.070498809109 
-0.78233749865 -0.6188065379 -0.070897862108 -0.78408779829 -0.61655799643 -0.071151680255 -0.78461429467 -0.61587952106 -0.071223761114 
-0.78431887074 -0.61626008265 -0.071185809881 -0.78269418645 -0.61834461308 -0.070991196431 -0.78013498211 -0.62160269439 -0.070707142584 
-0.77579971089 -0.62705484256 -0.07026402358 -0.76967010776 -0.63462680447 -0.069690345535 -0.76177024346 -0.6441605477 -0.069016555761 
-0.75144328993 -0.65626175359 -0.068216514054 -0.73709199268 -0.67244222529 -0.067207499385 -0.71898228544 -0.69188290244 -0.06604939467 
-0.69486723097 -0.71622726999 -0.064637675047 -0.66375456656 -0.74529657621 -0.062951480261 -0.62140023979 -0.78113141072 -0.060790304896 
-0.56595305029 -0.82238985228 -0.05806957659 -0.49137589469 -0.86924289946 -0.054465694331 -0.39253365907 -0.91839671733 -0.049646712783 
-0.26666021836 -0.9628162838 -0.043325876823 -0.11338781508 -0.99292444912 -0.03527381073 0.057991557626 -0.99798459563 -0.025762882776 
0.22925744044 -0.97323942961 -0.015685619054 0.38169745555 -0.92426658155 -0.0061918218276 0.50634120207 -0.86233094534 0.0019818687251 
0.60087502081 -0.79929823402 0.0084582776316 0.67009086717 -0.74215874794 0.013364976123 0.72103864543 -0.69268460521 0.017067791162 
0.75724023662 -0.6528380286 0.019741642613 0.78159045053 -0.62341948363 0.021552611618 0.80023051423 -0.59925362613 0.022939391238 
0.81406743557 -0.58027566297 0.023965919828 0.8231637142 -0.567269356 0.024636910616 0.82879950761 -0.5589847045 0.025049477686 
0.83113464032 -0.55549906428 0.025219025398 0.83113464032 -0.55549906428 0.025219025398 
