# vtk DataFile Version 4.1
vtk output
ASCII
DATASET POLYDATA
POINTS 114 float
-4.58132 -6.95284 163.767 -4.39872 -7.10672 160.521 -4.21631 -7.26066 157.275 
-4.03467 -7.41483 154.029 -3.85438 -7.56942 150.781 -3.67599 -7.72454 147.533 
-3.50001 -7.8803 144.282 -3.32691 -8.03671 141.028 -3.15713 -8.19372 137.769 
-2.99103 -8.35117 134.505 -2.82887 -8.50883 131.233 -2.67089 -8.66631 127.951 
-2.51721 -8.82312 124.656 -2.36787 -8.97863 121.345 -2.22282 -9.1321 118.015 
-2.08195 -9.28266 114.662 -1.94504 -9.4293 111.281 -1.81181 -9.57093 107.868 
-1.68191 -9.70632 104.42 -1.55492 -9.8342 100.93 -1.43038 -9.95322 97.3953 
-1.30779 -10.062 93.8104 -1.18662 -10.1591 90.171 -1.06635 -10.2431 86.4732 
-0.946458 -10.3126 82.7131 -0.826464 -10.3664 78.8876 -0.705927 -10.4032 74.9939 
-0.58448 -10.4219 71.03 -0.461842 -10.4215 66.9948 -0.337842 -10.4011 62.8877 
-0.212433 -10.3602 58.7091 -0.085711 -10.2981 54.4606 0.0420736 -10.2146 50.1443 
0.170505 -10.1096 45.7636 0.298996 -9.98318 41.3229 0.426786 -9.83559 36.8273 
0.552945 -9.66731 32.283 0.676383 -9.47898 27.6969 0.795861 -9.2714 23.077 
0.910015 -9.04553 18.4315 1.01738 -8.80244 13.7695 1.11642 -8.54332 9.1004 
1.20554 -8.26947 4.43378 1.28319 -7.98223 -0.22051 1.3478 -7.68302 -4.85266 
1.39791 -7.37326 -9.45303 1.43216 -7.05443 -14.0123 1.44934 -6.72797 -18.5214 
1.44842 -6.39531 -22.9719 1.42857 -6.05787 -27.3561 1.3892 -5.71701 -31.6667 
1.32995 -5.37404 -35.8975 1.25072 -5.03021 -40.0426 1.15168 -4.68671 -44.0975 
1.03324 -4.34465 -48.0579 0.896037 -4.00509 -51.9208 0.740952 -3.66899 -55.6837 
0.569055 -3.33725 -59.345 0.381597 -3.01068 -62.9036 0.17997 -2.69005 -66.3593 
-0.034315 -2.37602 -69.7124 -0.259664 -2.0692 -72.964 -0.494429 -1.77013 -76.1155 
-0.73694 -1.47929 -79.169 -0.98553 -1.19709 -82.1271 -1.23856 -0.923879 -84.9927 
-1.49444 -0.659944 -87.7694 -1.75166 -0.405518 -90.461 -2.00877 -0.160775 -93.0719 
-2.26442 0.0741706 -95.6067 -2.51736 0.29926 -98.0703 -2.76646 0.514494 -100.468 
-3.01065 0.719931 -102.805 -3.24901 0.915693 -105.088 -3.48067 1.10196 -107.322 
-3.70489 1.27898 -109.514 -3.92098 1.44707 -111.669 -4.12838 1.60662 -113.793 
-4.32655 1.75809 -115.893 -4.51505 1.902 -117.974 -4.6935 2.03899 -120.043 
-4.86158 2.16976 -122.104 -5.01902 2.29509 -124.162 -5.16562 2.41585 -126.223 
-5.30123 2.53303 -128.291 -5.42576 2.64766 -130.369 -5.53918 2.76089 -132.461 
-5.64154 2.87395 -134.569 -5.73293 2.98812 -136.697 -5.81355 3.10479 -138.844 
-5.88363 3.22536 -141.012 -5.9435 3.35131 -143.201 -5.99358 3.48411 -145.411 
-6.03434 3.62526 -147.641 -6.06634 3.77622 -149.888 -6.0902 3.93843 -152.151 
-6.10661 4.11324 -154.428 -6.11631 4.30191 -156.715 -6.12008 4.50558 -159.009 
-6.11871 4.72523 -161.307 -6.11301 4.96165 -163.605 -6.1038 5.21542 -165.899 
-6.09185 5.4869 -168.188 -6.0779 5.77619 -170.468 -6.0626 6.08313 -172.736 
-6.04658 6.40726 -174.991 -6.03032 6.74785 -177.231 -6.01424 7.10389 -179.455 
-5.99863 7.47406 -181.664 -5.98369 7.85681 -183.858 -5.96949 8.25034 -186.039 
-5.95601 8.6526 -188.209 -5.94314 9.06139 -190.37 -5.93069 9.47434 -192.525 

LINES 1 115
114 113 112 111 110 109 108 107 106 105 104 103 102 101 100 99 98 97 96 95 94 93 92 91 90 89 88 87 86 85 84 83 82 81 80 79 78 77 76 75 74 73 72 71 70 69 68 67 66 65 64 63 62 61 60 59 58 57 56 55 54 53 52 51 50 49 48 47 46 45 44 43 42 41 40 39 38 37 36 35 34 33 32 31 30 29 28 27 26 25 24 23 22 21 20 19 18 17 16 15 14 13 12 11 10 9 8 7 6 5 4 3 2 1 0 

CELL_DATA 1
FIELD FieldData 2
LengthArray 1 1 double
357.70996077 
TortuosityArray 1 1 double
0.0029082343891 
POINT_DATA 114
FIELD FieldData 8
RadiusArray 1 114 double
85.398860412 85.380036774 85.33092922 83.806429684 83.447541415 82.975208749 82.140175731 81.963062227 81.611026664 
81.292998593 81.041281502 80.464759131 80.293943099 79.774104879 79.073026612 79.016580261 78.106750914 77.108668438 
77.036018219 76.323405672 75.443268297 75.417507615 74.461107901 74.391970973 73.824901175 73.031611572 72.980766572 
72.051419665 71.822915332 71.003218347 71.001855293 70.857993662 70.833502887 70.072057753 69.386744291 69.266648749 
68.106230418 67.839493819 67.506873168 67.415992327 66.676098434 66.388892405 66.222156763 65.974231606 64.435706327 
64.09915352 63.989353082 63.725423348 63.621146249 62.527349113 62.148002523 61.713888481 61.676949481 61.462380289 
61.195255509 61.184380628 61.11087504 61.039816255 61.163721976 61.230033727 61.311517559 61.459006787 61.616944201 
61.783888108 62.045208951 62.060899482 62.163532936 62.501722172 62.518741281 62.596579657 62.913868042 63.08045323 
63.182089693 63.471843711 63.557508298 63.615606718 63.939238297 64.075679648 64.10949257 64.185702519 64.366587656 
64.473180011 64.579466595 64.726423597 64.868353996 64.915434729 65.01002832 65.032283779 65.286411178 65.291510718 
65.299395158 65.38022662 65.396713319 65.492614284 65.495833454 65.480543759 65.223939091 64.993293195 64.604925622 
64.422887852 63.329680963 62.781656507 60.859117879 60.625004593 60.280520136 59.752477465 59.588184219 58.312876219 
56.865815164 56.649375634 55.707275039 55.254436824 54.934807497 52.689397145 
EdgeArray 2 114 int
13759 13759 12139 22683 23086 23067 24268 24268 24616 
24616 23178 23178 24871 7854 24757 24872 20789 24872 
23291 23291 24272 24272 23627 23627 23923 23923 23385 
23385 22698 22698 17450 19610 16855 16855 20347 20347 
6398 20344 15823 15823 13743 13743 18063 17446 18537 
18537 19068 19068 18533 18533 18886 18886 18885 18885 
18883 18883 11676 11676 18285 18285 8377 18289 18288 
18288 18283 18283 18276 18276 18714 18714 18712 18712 
16967 16967 16678 16678 16361 16361 11964 7389 16346 
16346 16198 16198 16203 16204 15560 15560 11821 11821 
13228 13228 16134 16134 11773 11773 13349 11075 12830 
12830 11417 11417 9154 9154 13854 13854 13849 13849 
12406 12406 12409 12404 13844 13844 13846 13846 11507 
11507 11505 11508 11505 11505 7767 7767 11078 11078 
10699 10699 13829 13829 9660 11080 8012 11080 8012 
8012 7218 11168 14377 7218 14377 14377 14381 14381 
15288 14376 15288 15288 15287 7717 7717 7717 12725 
12725 15282 15282 15284 15276 15276 11169 11169 11169 
11071 13239 11071 11071 15925 15925 15168 14364 9830 
9163 9163 9163 7216 16258 16260 16258 16261 16260 
16261 14254 14745 14745 8235 16126 16126 16126 18020 
18028 18022 18022 18473 18473 18019 17416 17873 17873 
17134 17134 17550 17550 17128 17128 18261 18261 18260 
18260 18267 16831 16624 15622 16728 16624 16472 16728 
16472 16474 750 16474 16623 14237 14237 14350 14350 
15526 15154 15154 
EdgePCoordArray 1 114 double
0 0.336 0.816 0 0 0 0.868 0.1 0.068 
0 0 0 0 0 0 0.976 0 0 
0.94 0 0 0.128 0 0 0 0 0 
0 0 0 0.976 0 0 0 0 0 
0 0 0 0.064 0 0 0.16 0 0 
0 0 0 0.996 0 0 0 0 0 
0 0.956 0 0 0 0.66 0 0 0 
0 0 0.072 0.924 0 0.896 0.92 0 0 
0.892 0 0.276 0 0 0 0.076 0.06 0 
0.848 0 0 0.656 0.3 0 0.004 0.052 0.916 
0.036 0 0.104 0 0.884 0 0 0.188 0 
0 0 0 0 0 0.568 0.064 0.728 0.504 
0.88 0.86 0.028 0.86 0.188 0 
CurvatureArray 1 114 double
0 1.9558084031e-05 7.8263152195e-05 0.00013587625618 0.00019134363968 0.00024338320949 0.00029096685061 0.00033373978078 0.00037165787108 
0.00040509771186 0.00043583071915 0.0004659122812 0.00049819468604 0.00053544037304 0.00058010389469 0.00063334745592 0.00069481093472 0.00076282721787 
0.00083463015213 0.00090725884892 0.00097691588911 0.0010411181749 0.0010968014559 0.0011422448353 0.0011760432239 0.0011976730889 0.0012070943919 
0.0012048949754 0.0011921338214 0.001169997196 0.0011402747823 0.0011045612412 0.0010646783846 0.0010225911724 0.00097991533003 0.00093866721339 
0.00090061773527 0.00086753167353 0.00084108936019 0.00082287195678 0.00081411540873 0.00081573219631 0.00082811360173 0.00085111839454 0.00088410299969 
0.00092613644586 0.00097589621769 0.0010320095655 0.0010929665934 0.0011571961078 0.0012231642461 0.001289269976 0.0013539155075 0.0014154488123 
0.0014722434223 0.001522673301 0.0015650349908 0.001597764352 0.0016192351229 0.0016279613084 0.001622457783 0.001601292796 0.0015634664557 
0.001507952086 0.00143422105 0.0013426689854 0.001235150232 0.0011154583119 0.0009922552341 0.00088185417473 0.0008110356406 0.00081285654809 
0.00090493622513 0.0010751685798 0.0012963514311 0.0015435012924 0.0017973515697 0.0020416275223 0.0022649386101 0.0024562693412 0.0026094114387 
0.0027203818107 0.0027870139155 0.0028119945793 0.0027994126009 0.0027573568953 0.0026931795202 0.002618436656 0.0025437064081 0.0024797852156 
0.0024360764192 0.0024200357994 0.0024361683907 0.0024853522348 0.0025653927821 0.0026718188925 0.0027983507717 0.0029383255659 0.0030836496263 
0.0032276773718 0.0033622933777 0.0034781874631 0.003567369134 0.0036204046505 0.0036255995005 0.0035737256782 0.0034551911845 0.0032614337574 
0.0029857452813 0.0026241262704 0.0021801385663 0.0016589529082 0.001071527622 0 
TorsionArray 1 114 double
0 0 0.0022915061203 0.004769616303 0.0078942192351 0.011004715265 0.014672136673 0.018955697103 0.023276762208 
0.02795970218 0.032726426145 0.036901513935 0.039910696591 0.041170654993 0.040450296579 0.037914035274 0.034144024988 0.029839138741 
0.025551747917 0.021547278523 0.018017108683 0.014961822282 0.012328104316 0.010061898713 0.0080851707778 0.0063229045336 0.0047245554638 
0.0032235737118 0.0017690954097 0.00032451876412 -0.0011533062645 -0.0026998299816 -0.004340177692 -0.0060966122254 -0.0079764108219 -0.009956702331 
-0.011996249922 -0.014007250664 -0.01585841477 -0.017390389289 -0.018446223999 -0.018906845588 -0.018742740904 -0.018024712284 -0.016883682997 
-0.015487866361 -0.013995181854 -0.012516755406 -0.011146481078 -0.0099216385445 -0.008852634616 -0.007956962737 -0.0072249803035 -0.006655024967 
-0.0062394380535 -0.0059833158775 -0.0058927207454 -0.0059827525851 -0.0062877343435 -0.0068520242494 -0.0077615158326 -0.0091073146815 -0.011061495145 
-0.013912783273 -0.018062948488 -0.024154333127 -0.033351922935 -0.047494026691 -0.068924930398 -0.099238145571 -0.13180295916 -0.14566625999 
-0.12933829898 -0.099905570427 -0.07450564585 -0.056892477257 -0.045441283514 -0.038272561829 -0.03394921162 -0.031618478907 -0.030746733933 
-0.031023268607 -0.032254758447 -0.034333055587 -0.037190995844 -0.040708767138 -0.044816544325 -0.049194936913 -0.053490440292 -0.057181757129 
-0.059689741683 -0.060344090365 -0.058960301631 -0.055759958023 -0.051169010161 -0.04583937051 -0.040339338418 -0.035071722135 -0.030293655527 
-0.026067242137 -0.02237498126 -0.019205300878 -0.016488247269 -0.014156695033 -0.012142029551 -0.010394818722 -0.0088548570161 -0.007500989083 
-0.0063133451737 -0.005215517009 -0.0042084097365 -0.0033291175905 0 0 
TangentArray 3 114 double
-0.05607594144 0.047289637905 0.99730596054 -0.05607594144 0.047289637905 0.99730596054 -0.05592243504 0.047331323177 0.9973126025 
-0.055585798186 0.04742053808 0.99732718383 -0.055069429585 0.047549735905 0.99734967817 -0.054379154252 0.047704513147 0.99738016173 
-0.053524085138 0.047864906076 0.99741873006 -0.052515953355 0.048005060082 0.99746558279 -0.051368880391 0.048093103348 0.99752107323 
-0.050100271459 0.048093890991 0.99758555545 -0.048729987582 0.047968952381 0.99765944486 -0.047279834419 0.047677286194 0.99774320025 
-0.045773665642 0.047177858613 0.99783717168 -0.044236711638 0.046430938518 0.99794152198 -0.042694836045 0.045399860196 0.99805611249 
-0.041173766077 0.044052371181 0.99818039932 -0.039698386691 0.042362632697 0.99831330024 -0.038291758808 0.040312643932 0.99845311955 
-0.036974412812 0.037893192151 0.99859751591 -0.035763542356 0.035104056529 0.99874354779 -0.034672273884 0.031955002232 0.99888773706 
-0.033709248093 0.028464746172 0.99902624831 -0.032878344768 0.024660154659 0.99915508867 -0.032178414004 0.020575646525 0.99927033001 
-0.031603426278 0.016251052498 0.99936836389 -0.031142676394 0.011730186467 0.99944611482 -0.030781061731 0.0070590425359 0.99950122369 
-0.030499784994 0.0022841917019 0.99953216336 -0.030276699561 -0.0025489836983 0.99953830549 -0.030086899266 -0.0073972391483 0.99951991443 
-0.02990344182 -0.01222092404 0.99947808039 -0.029697877429 -0.016984807327 0.99941460485 -0.029440810424 -0.021658217303 0.99933185694 
-0.029102479645 -0.026215842986 0.99923259317 -0.028653196054 -0.030637232282 0.99911978979 -0.028063797828 -0.034906734849 0.99899646802 
-0.027306106229 -0.039013588633 0.9988655147 -0.026353244777 -0.042951023418 0.99872955102 -0.025180012877 -0.046715799812 0.99859080759 
-0.02376324283 -0.050307769409 0.99845101864 -0.022082115672 -0.053729240779 0.99831134865 -0.020118475137 -0.056984374694 0.99817234384 
-0.017857177239 -0.060078737533 0.99803390049 -0.015286450933 -0.063018713611 0.99789526813 -0.012398217771 -0.065810945457 0.997755082 
-0.0091883973108 -0.068462162906 0.9976114001 -0.0056572529391 -0.070978760204 0.99746178428 -0.0018096706097 -0.073366464967 0.99730340765 
0.0023446081451 -0.075630333357 0.99713316838 0.0067908434831 -0.077774248043 0.99694786764 0.011509246151 -0.079800953039 0.99674437302 
0.016474964927 -0.081712186142 0.99651979116 0.021658316263 -0.083508359636 0.99627168544 0.027025027619 -0.085188658765 0.9959982632 
0.032536663804 -0.086751004478 0.99569856319 0.038151242388 -0.088192159024 0.99537260651 0.043823733182 -0.089507656418 0.99502153738 
0.049506785971 -0.090691843492 0.99464771033 0.055151483139 -0.091737986925 0.99425472373 0.060708007602 -0.092638156523 0.99384742781 
0.066126293425 -0.093383328451 0.99343186343 0.071356392162 -0.093963144211 0.99301520272 0.076349190221 -0.094366385458 0.99260555431 
0.08105674671 -0.094580998105 0.99221179121 0.085432160176 -0.094593889814 0.991843406 0.089430041461 -0.094391586934 0.99151020973 
0.093007076477 -0.093961072447 0.99122197342 0.096121657415 -0.093289781477 0.9909882157 0.09873409758 -0.092366327389 0.99081786396 
0.10080807623 -0.09118239227 0.9907186801 0.102310342 -0.089732969745 0.99069702132 0.10321243033 -0.08801821257 0.99075728031 
0.10349185425 -0.086044716275 0.99090147992 0.10313230194 -0.083826070178 0.99112911281 0.10212649671 -0.081384884517 0.99143667435 
0.10047718921 -0.078753109847 0.99181766577 0.09819746751 -0.075971875707 0.99226283387 0.095312539383 -0.073091848128 0.99276034448 
0.091859270005 -0.070171957578 0.99329641643 0.087886077359 -0.067278150957 0.99385596935 0.083452008694 -0.064481402079 0.99442340632 
0.078623717381 -0.06185466259 0.99498357362 0.073474869323 -0.059471537654 0.99552226484 0.068083176977 -0.057403296024 0.99602687846 
0.06252741667 -0.055716716437 0.9964868136 0.056884576508 -0.054472366064 0.99689362837 0.051229033083 -0.053723477911 0.99724088068 
0.045630329031 -0.053515457506 0.99752391895 0.040150735981 -0.053884724397 0.99773962279 0.034845575321 -0.054859232178 0.99788589053 
0.029762653238 -0.056458966459 0.99796120645 0.024942614843 -0.058696771087 0.99796420528 0.020418164241 -0.061577596148 0.99789343029 
0.016215182916 -0.065099515289 0.99774702252 0.012353482298 -0.069254600523 0.99752252695 0.0088469534487 -0.074028113151 0.99721691215 
0.0057041444794 -0.079398422655 0.99682664151 0.0029285620538 -0.085336309019 0.99634790003 0.00051922329391 -0.091803559331 0.99577700159 
-0.0015291460825 -0.098752377906 0.99511086295 -0.0032263754927 -0.10612466024 0.99434759867 -0.0045867287095 -0.1138482104 0.99348756757 
-0.0056289823846 -0.12183668918 0.99253419877 -0.0063766720978 -0.12998959075 0.99149485341 -0.0068578151501 -0.13818855673 0.9903821955 
-0.0071053054675 -0.1462982018 0.98921501747 -0.0071565323742 -0.15416936862 0.98801851694 -0.0070529071664 -0.16164033753 0.98682453242 
-0.0068385099951 -0.16854011047 0.98567107391 -0.0065586277062 -0.17469299787 0.9846011075 -0.0062585766795 -0.17992841933 0.98365979593 
-0.0059808994063 -0.18408888228 0.9828914041 -0.0057628433555 -0.18703507918 0.98233633181 -0.0057628433555 -0.18703507918 0.98233633181 

NormalArray 3 114 double
-0.96298349769 -0.26634403198 -0.041516741133 -0.96298349769 -0.26634403198 -0.041516741133 -0.96451706937 -0.26070488672 -0.041710729219 
-0.9665074749 -0.25320675685 -0.041828689187 -0.97109564689 -0.23489081173 -0.042421116894 -0.97764082628 -0.20574119145 -0.043462362282 
-0.985085652 -0.16610554211 -0.044891058073 -0.99253386032 -0.11261836385 -0.046836313347 -0.99781772585 -0.043963495594 -0.049264561715 
-0.9978859988 0.038987891351 -0.051994977812 -0.98887356265 0.13823835741 -0.054947553391 -0.9663369431 0.25070965902 -0.05777178618 
-0.92636030567 0.37181669704 -0.06007435297 -0.86744871363 0.49372045987 -0.061423421686 -0.79153054374 0.60802542642 -0.061518120452 
-0.70393939997 0.70769833518 -0.060269291976 -0.61176647436 0.78892358199 -0.057804520864 -0.52140903506 0.85157239918 -0.054378921611 
-0.43727734405 0.89792098145 -0.050263659302 -0.36166443326 0.93118856769 -0.045680292501 -0.29552320313 0.95446428445 -0.04079174092 
-0.23845492379 0.97049725011 -0.035697854917 -0.18992483154 0.98132571021 -0.030469802157 -0.14916398745 0.98849240048 -0.025157087139 
-0.11539222208 0.99312267679 -0.019798583841 -0.088067934925 0.99600988806 -0.014434047713 -0.066743409282 0.99772865612 -0.009101981877 
-0.051128723639 0.99868467976 -0.0038423999518 -0.041210840762 0.99914962714 0.0012996879261 -0.037059357976 0.99929333294 0.0062800255424 
-0.038940722007 0.99918039849 0.011052214505 -0.047268599126 0.99876087364 0.015569098016 -0.062602829744 0.99784245896 0.019781627725 
-0.085546236168 0.99605368746 0.023640921684 -0.11681094133 0.99278455503 0.027093011761 -0.1569178651 0.98715332632 0.030084779213 
-0.206175755 0.97797306627 0.032561322175 -0.26437030303 0.96380492949 0.034473189218 -0.33053527572 0.94311494514 0.035785915718 
-0.40271888284 0.91459576025 0.036497900572 -0.47809168743 0.8775447515 0.036654433863 -0.55317746485 0.83226941063 0.036363725255 
-0.62451411606 0.78019298912 0.035791319856 -0.68928580581 0.72363683304 0.035139888734 -0.74580948096 0.66525950074 0.034612350246 
-0.7934722843 0.60763391097 0.034391340349 -0.83269076915 0.55265599714 0.034603927427 -0.86436599304 0.50162037124 0.035333174828 
-0.88967277301 0.45512843062 0.036612410574 -0.90982092921 0.41321755463 0.038433440064 -0.92584262197 0.37570366911 0.04076999338 
-0.93862746411 0.3421691284 0.043574891786 -0.94891863207 0.312033183 0.046783783767 -0.95727076758 0.28477956442 0.050331672174 
-0.96415439 0.25976031472 0.054137705387 -0.9698987228 0.23646938569 0.058126561405 -0.97480042247 0.21423061055 0.062204355562 
-0.97905247936 0.19251661592 0.066284200593 -0.98283223008 0.17060041464 0.070258850278 -0.98624583144 0.14778483142 0.074018940653 
-0.98936413582 0.12313854746 0.077430645626 -0.9921807907 0.095517614921 0.080334698608 -0.99455724615 0.063579897478 0.082543811214 
-0.99616194696 0.025304989326 0.083791604274 -0.99624583589 -0.022083137814 0.083705253692 -0.99323777505 -0.082448942369 0.081736736643 
-0.98389628691 -0.16128978172 0.077030532397 -0.9613081071 -0.2669213832 0.068115331708 -0.9110255221 -0.40897395975 0.052657367247 
-0.80536220774 -0.59214719546 0.027448374111 -0.60498327154 -0.79617985762 -0.0096371922518 -0.30455278694 -0.95103298796 -0.052762257146 
0.01934107139 -0.99588857994 -0.088497792587 0.27972693925 -0.95378319417 -0.10977457803 0.46033960815 -0.87964583193 -0.11962715219 
0.58269992208 -0.80335307184 -0.12281955368 0.66850844674 -0.73357579159 -0.12232340182 0.73191899845 -0.67080298609 -0.11965756792 
0.7815697166 -0.61301606902 -0.11558580029 0.82245363031 -0.55799580363 -0.11050207744 0.85759330994 -0.50357505627 -0.10462254747 
0.88874511796 -0.44778915686 -0.098066234232 0.91684606878 -0.3887568795 -0.090892105267 0.94212501867 -0.32479523425 -0.083117416959 
0.96429921707 -0.25405710089 -0.074712846546 0.98237159648 -0.17504279315 -0.065620629406 0.99470701027 -0.086313609153 -0.055748763101 
0.99890424729 0.012841091827 -0.045004567528 0.99197777811 0.12193840413 -0.033333366551 0.97079587288 0.23900709638 -0.020760084007 
0.93290613718 0.36004247952 -0.0074533313938 0.87748538075 0.47956233591 0.0062747548838 0.80659286446 0.59077060181 0.019951116369 
0.72416539214 0.68882793831 0.033174632306 0.63591752153 0.77040800651 0.045611504158 0.54714394282 0.83508605514 0.057138308922 
0.46225646095 0.88415215119 0.06777859433 0.38386266543 0.92011707914 0.077678920948 0.31338275721 0.94563167767 0.087017111321 
0.25096183661 0.96322746525 0.095973989957 0.19641487917 0.9749162002 0.1046880978 0.14908340107 0.98231721908 0.11325643745 
0.10823289245 0.98664483901 0.12172757551 0.073070795753 0.98880377197 0.13010672291 0.042909347992 0.98945258279 0.13835596941 
0.017155668687 0.98907656163 0.14640095036 -0.0047781862597 0.98803781151 0.1541377694 -0.023247748249 0.98660885748 0.16143885695 
-0.038788025573 0.98499702242 0.16815574593 -0.0516444918 0.98336745615 0.17413010266 -0.061990067685 0.981856952 0.17920423353 
-0.070121737965 0.98056661733 0.18322677437 -0.076302778772 0.97957093573 0.18606092501 -0.076302778772 0.97957093573 0.18606092501 

BinormalArray 3 114 double
0.263663179 -0.9627172725 0.060474633255 0.263663179 -0.9627172725 0.060474633255 0.25803004505 -0.96425759416 0.060231121213 
0.25054644279 -0.96624925917 0.059907004204 0.23225116258 -0.9708580376 0.059110644565 0.20312883197 -0.97744301193 0.057825911636 
0.16352807259 -0.98494563284 0.056041679388 0.11008456189 -0.99247801907 0.053560908341 0.041485227649 -0.99787487415 0.050246506558 
-0.041394398045 -0.9980816209 0.046038916508 -0.14055057948 -0.98923664315 0.040698875398 -0.2528982595 -0.96688755461 0.03421881183 
-0.37384670068 -0.92710657071 0.026684282355 -0.49555609427 -0.86838025971 0.018435888278 -0.60963640746 -0.79261840347 0.0099758301348 
-0.70906561203 -0.70514002509 0.0018715940306 -0.79004165646 -0.61302935422 -0.0054029549777 -0.85244727659 -0.52268474217 -0.011588828144 
-0.89856631206 -0.43852253882 -0.016630266619 -0.93162213733 -0.36284370826 -0.020606713073 -0.95470616937 -0.29660884604 -0.023650002467 
-0.97056835716 -0.23942607575 -0.025927173698 -0.98124796704 -0.19076615856 -0.027580789311 -0.98828875058 -0.14986466213 -0.028738972222 
-0.99281713247 -0.11594503927 -0.029510834242 -0.99562752701 -0.088468670278 -0.02998536033 -0.99729526398 -0.066990287917 -0.03024000279 
-0.99822623525 -0.051221996121 -0.030342880203 -0.99869163813 -0.041152463683 -0.030355998838 -0.99886004149 -0.036852619817 -0.030339774779 
-0.99879397492 -0.038589898827 -0.030354824519 -0.99844064201 -0.046778559153 -0.030463926055 -0.99760419225 -0.061978614947 -0.030733156358 
-0.99590907575 -0.08479257796 -0.03123029886 -0.99274075082 -0.11593182177 -0.032025214438 -0.9872128478 -0.15591609984 -0.033180761685 
-0.97813390423 -0.20505272871 -0.034748292528 -0.96406112325 -0.26312595365 -0.0367543623 -0.94345768239 -0.3291683981 -0.039188866235 
-0.91501519643 -0.40122777032 -0.041993649837 -0.87803229928 -0.47647494981 -0.045065548098 -0.83282047245 -0.55143486395 -0.048266463374 
-0.78080934937 -0.62264712721 -0.051452064151 -0.72432824212 -0.68729787982 -0.054499743734 -0.6660439192 -0.74370606837 -0.057330459237 
-0.60853702222 -0.79126099518 -0.059906010582 -0.55370938086 -0.83038145718 -0.062229873192 -0.50285997571 -0.8619712089 -0.06432324499 
-0.45659266286 -0.88720807273 -0.066219150575 -0.41494549186 -0.90730503078 -0.067954542885 -0.37773400244 -0.92329765564 -0.06955905759 
-0.34453890804 -0.93607873932 -0.071060077676 -0.31477666218 -0.9463940229 -0.07248452503 -0.2879276392 -0.95480023676 -0.073852437171 
-0.26333947246 -0.96176860113 -0.075189627774 -0.24050145575 -0.9676282203 -0.076515861548 -0.21873183755 -0.97267344209 -0.077863716175 
-0.19749764757 -0.97709382462 -0.079261195328 -0.17606567361 -0.98106046719 -0.080754184381 -0.15373255279 -0.98467142518 -0.082392273034 
-0.12956048808 -0.98798605866 -0.084247420331 -0.10239894461 -0.99098300327 -0.086412634332 -0.070899120485 -0.99350519975 -0.088998498763 
-0.033033002351 -0.99519550457 -0.092166851107 0.01398500908 -0.99527098372 -0.096125378995 0.074033707858 -0.9921151144 -0.10112670212 
0.15263610429 -0.98242400377 -0.10744904136 0.25816148086 -0.95919236437 -0.115337149 0.4003549376 -0.90785943946 -0.12452775648 
0.5841484795 -0.80065440125 -0.13312807236 0.78963778727 -0.59836914063 -0.13574437913 0.9468868962 -0.29629217011 -0.12496461795 
0.99444223516 0.028323896915 -0.10140215876 0.95452426253 0.28856681806 -0.074917446328 0.88184898018 0.46861467214 -0.052370461317 
0.80645219031 0.5902726401 -0.034829227632 0.7371931321 0.6753479341 -0.021247444336 0.67469259633 0.73802502369 -0.010438623753 
0.61701754644 0.78694802592 -0.0014669316039 0.56200183576 0.82711204412 0.0062930971316 0.50751303135 0.86154182225 0.013274469064 
0.45160870935 0.8919971254 0.019766181285 0.39242162241 0.91941896046 0.025962384583 0.328275997 0.94404073928 0.031967989923 
0.25732730542 0.96558305546 0.037842051833 0.17807355613 0.98305278693 0.043554870055 0.089070477049 0.99481845017 0.049017357356 
-0.010400856222 0.99848445264 0.054042761044 -0.11986661807 0.99107389335 0.058348365852 -0.23736292695 0.9694669012 0.061585455966 
-0.35888761985 0.93122596509 0.063386735777 -0.4789543533 0.87554249185 0.063467097163 -0.59075464414 0.80448635519 0.06173050084 
-0.68943567697 0.72199593109 0.058312287034 -0.77165814794 0.6337785921 0.053557435589 -0.83699177848 0.5451156932 0.047892001165 
-0.88672793293 0.46040293659 0.041745765474 -0.92338555198 0.38223327306 0.035452043001 -0.94962675715 0.31201416102 0.029260646539 
-0.96799577389 0.24988160805 0.023310162624 -0.98051557139 0.19564242656 0.017699016582 -0.98881398728 0.14863198204 0.012467255821 
-0.99410962954 0.10811004957 0.0076329308573 -0.99730637061 0.073278965834 0.0031931654131 -0.99905543301 0.043445473935 -0.00085590204311 
-0.99982758397 0.018010868573 -0.0045178476216 -0.9999629758 -0.0036178445652 -0.0078075745438 -0.9997048558 -0.021802835024 -0.010716234555 
-0.99922406089 -0.037082300072 -0.013273250098 -0.99864399606 -0.049707169307 -0.015471472139 -0.99805714352 -0.059855573892 -0.017298801915 
-0.99752051142 -0.067826192581 -0.018773302665 -0.9970680396 -0.07388275184 -0.019916410128 -0.9970680396 -0.07388275184 -0.019916410128 

