# vtk DataFile Version 4.1
vtk output
ASCII
DATASET POLYDATA
POINTS 204 float
7.93281 -9.12937 156.84 8.23162 -8.97734 154.396 8.53041 -8.82525 151.952 
8.82914 -8.67288 149.508 9.12777 -8.52005 147.065 9.42623 -8.36657 144.622 
9.72445 -8.21227 142.179 10.0223 -8.05698 139.738 10.3197 -7.9006 137.299 
10.6165 -7.74302 134.862 10.9123 -7.58418 132.428 11.2071 -7.42405 129.998 
11.5005 -7.26265 127.574 11.7922 -7.10003 125.156 12.0817 -6.93627 122.746 
12.3687 -6.77152 120.345 12.6528 -6.60595 117.956 12.9334 -6.43974 115.578 
13.2101 -6.27315 113.215 13.4824 -6.10644 110.868 13.7497 -5.93987 108.538 
14.0115 -5.77376 106.227 14.2673 -5.6084 103.935 14.5167 -5.44411 101.665 
14.7591 -5.28118 99.4168 14.9942 -5.11989 97.191 15.2215 -4.96051 94.9883 
15.4407 -4.80326 92.8089 15.6516 -4.64835 90.6527 15.8539 -4.49593 88.5194 
16.0474 -4.34609 86.4086 16.2321 -4.19889 84.3195 16.408 -4.05432 82.2512 
16.575 -3.91229 80.2024 16.7333 -3.77267 78.1721 16.883 -3.63525 76.1586 
17.0243 -3.49978 74.1604 17.1576 -3.36591 72.176 17.2832 -3.23325 70.2036 
17.4014 -3.10138 68.2415 17.5126 -2.96978 66.288 17.6173 -2.83795 64.3412 
17.716 -2.70532 62.3996 17.809 -2.57131 60.4614 17.8969 -2.43534 58.5251 
17.9801 -2.29682 56.5892 18.059 -2.15517 54.6523 18.134 -2.00986 52.7131 
18.2055 -1.86036 50.7704 18.2737 -1.7062 48.8233 18.3389 -1.54695 46.8709 
18.4013 -1.38223 44.9124 18.461 -1.21172 42.9472 18.5181 -1.03517 40.975 
18.5725 -0.852368 38.9953 18.6242 -0.663169 37.0081 18.673 -0.467472 35.0134 
18.7188 -0.265221 33.0114 18.7612 -0.0563947 31.0025 18.8001 0.159001 28.987 
18.8351 0.380943 26.9658 18.8658 0.609398 24.9396 18.8918 0.844334 22.9093 
18.9129 1.08573 20.8762 18.9286 1.33356 18.8414 18.9385 1.58785 16.8063 
18.9424 1.84861 14.7725 18.9398 2.1159 12.7414 18.9305 2.38979 10.7149 
18.9143 2.67037 8.69453 18.8909 2.95772 6.68219 18.8602 3.25195 4.67964 
18.822 3.55316 2.68869 18.7763 3.86141 0.711133 18.723 4.17677 -1.25127 
18.6622 4.49926 -3.19679 18.5939 4.82884 -5.12377 18.5182 5.16545 -7.0306 
18.4353 5.50893 -8.91575 18.3455 5.85909 -10.7778 18.2488 6.21565 -12.6152 
18.1457 6.57827 -14.4269 18.0363 6.94655 -16.2114 17.921 7.32003 -17.9678 
17.8002 7.69819 -19.695 17.6742 8.08045 -21.392 17.5433 8.46624 -23.058 
17.4079 8.85492 -24.6923 17.2684 9.24588 -26.2943 17.1251 9.63849 -27.8636 
16.9784 10.0322 -29.3998 16.8287 10.4263 -30.9029 16.6761 10.8204 -32.3728 
16.5211 11.2141 -33.8098 16.364 11.6067 -35.2143 16.2049 11.9982 -36.5868 
16.0442 12.388 -37.928 15.8819 12.7762 -39.2389 15.7184 13.1624 -40.5204 
15.5538 13.5466 -41.7737 15.3882 13.9288 -43.0001 15.2218 14.309 -44.201 
15.0547 14.6872 -45.3776 14.887 15.0636 -46.5314 14.7188 15.4383 -47.6638 
14.5503 15.8113 -48.7761 14.3815 16.1827 -49.8697 14.2125 16.5527 -50.9457 
14.0436 16.9213 -52.0052 13.8748 17.2886 -53.0491 13.7063 17.6545 -54.0784 
13.5383 18.019 -55.0936 13.371 18.3821 -56.0953 13.2047 18.7436 -57.0837 
13.0397 19.1033 -58.0592 12.8761 19.4611 -59.0217 12.7143 19.8167 -59.9712 
12.5545 20.17 -60.9076 12.3973 20.5205 -61.8305 12.2427 20.8681 -62.7397 
12.0912 21.2125 -63.6348 11.9431 21.5535 -64.5157 11.7986 21.8909 -65.382 
11.6581 22.2244 -66.2337 11.5217 22.554 -67.0706 11.3897 22.8797 -67.8929 
11.2623 23.2014 -68.701 11.1394 23.5194 -69.4953 11.0213 23.8336 -70.2767 
10.9079 24.1446 -71.0461 10.7991 24.4526 -71.8048 10.6949 24.7582 -72.5544 
10.5951 25.0618 -73.2967 10.4994 25.3642 -74.0336 10.4077 25.6661 -74.7676 
10.3197 25.9683 -75.5011 10.2349 26.2716 -76.2368 10.1532 26.5771 -76.9777 
10.074 26.8856 -77.7267 9.99695 27.1983 -78.4871 9.92175 27.516 -79.2621 
9.84794 27.8399 -80.0549 9.77514 28.171 -80.8689 9.70298 28.5103 -81.7074 
9.63109 28.8588 -82.5736 9.55912 29.2174 -83.4707 9.48676 29.5872 -84.4017 
9.41372 29.969 -85.3695 9.33974 30.3635 -86.377 9.26458 30.7715 -87.4266 
9.18806 31.1937 -88.5206 9.11001 31.6305 -89.6613 9.03029 32.0826 -90.8504 
8.94883 32.5501 -92.0895 8.86555 33.0333 -93.3797 8.78044 33.5324 -94.7221 
8.69352 34.0473 -96.1171 8.60484 34.5778 -97.5651 8.5145 35.1237 -99.0659 
8.42264 35.6845 -100.619 8.32944 36.2597 -102.223 8.23514 36.8485 -103.878 
8.14001 37.4501 -105.581 8.04438 38.0636 -107.332 7.94863 38.688 -109.126 
7.85322 39.322 -110.963 7.75865 39.9646 -112.84 7.66549 40.6144 -114.753 
7.57436 41.2701 -116.699 7.48598 41.9304 -118.676 7.40111 42.5942 -120.68 
7.32059 43.2601 -122.708 7.24534 43.9269 -124.756 7.17633 44.5937 -126.822 
7.1146 45.2594 -128.903 7.06125 45.9233 -130.995 7.01743 46.5846 -133.097 
6.98434 47.243 -135.206 6.96319 47.898 -137.32 6.95523 48.5496 -139.437 
6.96173 49.1977 -141.556 6.98391 49.8427 -143.677 7.02301 50.4849 -145.797 
7.08017 51.1247 -147.918 7.15651 51.763 -150.038 7.25302 52.4004 -152.159 
7.3706 53.0377 -154.28 7.51002 53.6759 -156.402 7.67187 54.3159 -158.526 
7.85658 54.9585 -160.653 8.06436 55.6046 -162.784 8.29522 56.255 -164.919 
8.54894 56.9104 -167.059 8.82504 57.5712 -169.205 9.12279 58.238 -171.358 
9.44122 58.9109 -173.518 9.77908 59.5899 -175.685 10.1349 60.2751 -177.86 
10.5069 60.966 -180.042 10.8932 61.6621 -182.23 11.2915 62.363 -184.423 
11.6995 63.0676 -186.622 12.1148 63.7752 -188.825 12.5346 64.4846 -191.029 

LINES 1 205
204 203 202 201 200 199 198 197 196 195 194 193 192 191 190 189 188 187 186 185 184 183 182 181 180 179 178 177 176 175 174 173 172 171 170 169 168 167 166 165 164 163 162 161 160 159 158 157 156 155 154 153 152 151 150 149 148 147 146 145 144 143 142 141 140 139 138 137 136 135 134 133 132 131 130 129 128 127 126 125 124 123 122 121 120 119 118 117 116 115 114 113 112 111 110 109 108 107 106 105 104 103 102 101 100 99 98 97 96 95 94 93 92 91 90 89 88 87 86 85 84 83 82 81 80 79 78 77 76 75 74 73 72 71 70 69 68 67 66 65 64 63 62 61 60 59 58 57 56 55 54 53 52 51 50 49 48 47 46 45 44 43 42 41 40 39 38 37 36 35 34 33 32 31 30 29 28 27 26 25 24 23 22 21 20 19 18 17 16 15 14 13 12 11 10 9 8 7 6 5 4 3 2 1 0 

CELL_DATA 1
FIELD FieldData 2
LengthArray 1 1 double
359.66481246 
TortuosityArray 1 1 double
0.011422829834 
POINT_DATA 204
FIELD FieldData 8
RadiusArray 1 204 double
90.256743956 90.06050489 89.951112379 88.971482014 88.513140647 87.99797335 87.561425057 87.279981931 87.235852151 
86.926952348 86.269179035 85.851782739 85.619120315 85.276345293 84.798525172 84.450794097 84.202418232 83.833845146 
83.518133568 83.393086897 83.186521734 83.078826441 83.009119721 82.894157413 82.823503547 82.822171921 82.685286349 
82.681897051 82.354565471 82.315932589 82.10392394 82.004008468 81.932164023 81.68336041 81.581005979 81.492908012 
81.298549806 81.260446116 81.121894523 80.948705707 80.940814652 80.578150247 80.317504971 80.23953818 79.949323745 
79.452640209 79.360769611 78.92136962 78.608502226 78.454923092 78.144117245 77.396332143 77.375715262 76.886691539 
76.734166613 76.492859478 76.00640302 75.653771298 75.622932567 75.372848853 74.82152817 74.013338627 73.724361771 
72.581247886 72.455786597 72.281070921 72.032225715 71.242589012 70.807551178 70.464497327 70.036395297 69.984383982 
69.394132718 69.382014795 68.911797325 68.906998128 68.848345707 68.289360596 67.821913946 67.528539171 67.458968134 
67.181400672 67.108472557 66.716695151 66.570020078 66.406321796 66.234805251 66.173576053 66.165631023 66.089673327 
66.080842337 66.090798654 66.105940694 66.107977292 66.159407741 66.213830963 66.273333696 66.301219434 66.433333084 
66.483029943 66.507797688 66.660169942 66.841100844 66.974080507 67.02037127 67.124696465 67.269957656 67.333295493 
67.437340872 67.675903353 67.7505269 67.772474111 67.870891255 68.1559401 68.403638102 68.461196911 68.639449466 
69.13475904 69.340077819 69.658443566 69.7433864 69.909144429 70.056769869 70.622307179 70.648506795 70.711466108 
70.741845379 70.790449538 70.962594637 71.0882671 71.122183822 71.146955715 71.153722574 71.203730202 71.27234711 
71.36952128 71.394842295 71.440823342 71.509752808 71.52333271 71.58770028 71.604556432 71.611605446 71.627660865 
71.658089291 71.689445274 71.691671237 71.751317716 71.759229757 71.765063014 71.765864604 71.772142758 71.737204045 
71.701193085 71.698648272 71.657382154 71.643291152 71.589930672 71.569226805 71.364607325 71.181938336 71.179194339 
70.616107837 70.55908864 70.062550493 69.961317317 69.702715472 69.375368932 69.286566422 69.268033317 68.516467345 
68.476158467 67.717427505 67.366831922 67.213019229 66.912664418 66.43403665 65.879377199 65.761052803 65.243292056 
65.206971746 64.723731426 64.529993376 63.928278918 63.819268564 63.151628202 62.948359266 62.622229032 61.960091587 
61.82590471 61.477097976 61.02230024 60.504951101 59.738845523 58.760208272 58.356157998 58.129609708 56.734568574 
56.330701031 55.338349719 55.090153985 53.049291473 52.606788611 51.853973131 
EdgeArray 2 204 int
35293 35293 35104 35104 34873 34873 30201 30201 33138 
33138 34616 34616 34381 34381 32702 33905 31324 33905 
31072 34055 31990 33291 32287 32807 32807 31513 29757 
31115 31106 31346 31106 32597 12055 32425 31519 31519 
31206 31845 30469 30469 32158 31603 30640 31603 31657 
30640 31844 28863 27385 28863 27385 31619 31251 31251 
29407 31255 30892 31244 28923 29851 29032 30072 27805 
27805 29791 29791 29076 29076 29846 29125 29584 30227 
30062 30069 29254 28045 29622 29799 26978 29335 28952 
29335 29375 29375 24816 28489 28752 28753 27606 27974 
28522 28527 28522 28327 27979 27049 26040 25305 26040 
27225 25659 25659 24348 24348 14913 27265 14913 25663 
27227 27227 26386 27260 26677 24857 24038 24038 26626 
25740 25831 26626 26524 25831 26520 26520 22281 25466 
22167 21278 25505 21278 25505 25751 15534 24760 25267 
24419 23083 24905 20769 23083 20769 25073 23746 23591 
20868 20999 21166 22540 18172 24184 24185 24184 12487 
20935 20556 20556 21642 21642 21928 18932 20135 21928 
20135 21918 16837 21927 21205 21205 21593 21600 21212 
21212 21211 21211 21583 21583 20875 20526 21179 21179 
20734 20734 20863 20536 16648 20199 20583 16648 20583 
20583 20209 20209 20552 20552 20551 20551 20206 20576 
20238 20203 20216 20570 20239 20239 20076 20236 20076 
20076 19646 19646 19652 19652 19837 19931 20230 19931 
20229 20230 19217 20229 19217 19918 19918 19358 18315 
19938 19938 19649 19951 19951 19953 19953 19578 19578 
19223 19223 18839 18839 20633 20633 20721 20697 20721 
20721 19579 19579 20621 20621 11758 19750 17782 11758 
20043 17782 20016 19744 20016 20016 19200 19200 20332 
20332 19398 17770 17770 17770 16702 16702 19396 19396 
18988 18988 18181 18181 19390 17826 17826 16778 16778 
16778 19192 19187 19192 19192 19049 19048 19049 19049 
18274 18274 17084 17084 16653 16653 17380 17618 16984 
14179 14980 14980 15593 15950 15967 15967 13731 13731 
14311 14311 14692 14692 14719 14719 14323 13446 12001 
12001 13407 13407 13269 13269 12008 12008 12924 12924 
12747 12747 12917 12917 12097 12097 12113 12113 11833 
11833 11612 11612 10878 10878 11183 11183 10741 10741 
10737 10443 10324 9423 9951 9423 10146 10146 8578 
9754 8572 9550 9563 8589 8817 9113 8767 8767 
8772 8194 8773 7766 7203 8775 8215 8215 8216 
8216 7597 7597 7539 8085 7471 7471 7208 7208 
6374 7514 4871 7643 6729 6729 7516 7516 7399 
7399 6386 6386 7185 7181 7180 7180 6589 6589 
6597 6597 6793 6793 6784 6784 5065 5065 5487 
5487 5768 5768 
EdgePCoordArray 1 204 double
0 0 0 0 0 0 0 0.736 0.7 
0.892 0.704 0.392 0.548 0.148 0.376 0.548 0.352 0 
0.108 0 0.668 0.336 0.812 0.676 0.156 0.144 0 
0.008 0.08 0.164 0.276 0 0 0 0.144 0.72 
0.52 0.404 0.368 0.892 0.912 0 0.872 0.836 0.492 
0.464 0.588 0.62 0.196 0.188 0 0 0.952 0.732 
0 0.108 0.488 0 0.916 0.876 0.34 0 0.076 
0.94 0.74 0.464 0.568 0.808 0.632 0.572 0.856 0.86 
0.552 0.548 0.924 0.948 0.06 0 0 0.208 0.74 
0.832 0.012 0 0.244 0 0 0 0.036 0 
0 0.772 0.02 0.964 0 0 0 0 0.008 
0.448 0.608 0 0.468 0 0 0 0.412 0.632 
0.58 0.224 0.68 0.02 0.296 0.372 0 0 0 
0 0 0 0.98 0 0 0 0.824 0.932 
0.144 0.888 0 0 0 0.648 0 0 0 
0 0 0.148 0.304 0 0.504 0 0.864 0 
0 0 0 0.72 0.024 0 0.136 0 0 
0 0 0 0.168 0 0 0 0 0 
0 0 0 0 0 0 0 0 0 
0.008 0.036 0.004 0 0.984 0.744 0.288 0.64 0 
0.952 0.124 0.884 0 0 0 0.164 0 0 
0.068 0.636 0 0 0 0 0.616 0 0 
0 0 0 0 0 0 
CurvatureArray 1 204 double
0 1.1659374608e-05 4.5947744427e-05 8.0582094409e-05 0.00011358747587 0.00014576814709 0.00017603096647 0.00020440919867 0.00023053687125 
0.00025465924247 0.00027714801691 0.0002983570175 0.0003192978081 0.00034074602203 0.00036445951753 0.00039179891718 0.00042422134954 0.0004631309666 
0.00050990193192 0.00056526176336 0.00062918190329 0.00070217459005 0.0007834726924 0.00087176515196 0.00096671880276 0.0010659944335 0.0011678618163 
0.0012702713223 0.0013703472124 0.0014658417415 0.0015530984582 0.0016306138926 0.0016944975415 0.0017432418554 0.0017742256834 0.0017873229807 
0.0017812255662 0.0017582664342 0.0017200187742 0.0016690801385 0.0016120192371 0.0015520713228 0.001495782419 0.0014497794601 0.0014175655204 
0.0014018128292 0.0014022292925 0.0014168744751 0.0014418655784 0.0014719232249 0.0015044442432 0.001535281977 0.001563070907 0.0015870893527 
0.0016077943768 0.0016270464659 0.0016465122956 0.0016682969078 0.0016956932679 0.0017296437091 0.0017722930249 0.001824683885 0.0018868457429 
0.0019593222782 0.0020405543229 0.0021318846403 0.0022308661808 0.0023379303085 0.0024515043329 0.0025712743385 0.0026949071296 0.0028232233273 
0.002952628643 0.0030827687684 0.0032126062708 0.0033386348556 0.0034612742251 0.0035769796558 0.0036850409238 0.003784742683 0.0038745649502 
0.0039547461703 0.0040240136756 0.0040838824456 0.0041348402405 0.0041760314573 0.0042108301963 0.0042386995301 0.0042626689157 0.004282645643 
0.004298049475 0.0043136526154 0.0043263561654 0.0043385871662 0.0043456906924 0.0043538407154 0.004353770249 0.0043497241426 0.0043388184766 
0.0043154446015 0.0042818956779 0.004234707692 0.0041715797804 0.0040940910832 0.0039966143658 0.0038855435895 0.0037576546706 0.003615206111 
0.0034609683669 0.0032968341507 0.0031307037328 0.0029616240088 0.002794092792 0.0026383060573 0.0024943523663 0.002374673477 0.0022879105359 
0.0022369953465 0.0022363171425 0.0022827145886 0.0023903420735 0.0025463124732 0.0027525385086 0.0030023942485 0.0032897630955 0.0036007638051 
0.0039328519611 0.0042686103651 0.0045936403077 0.0049033034504 0.005177810032 0.005401050827 0.0055638106673 0.0056506503331 0.0056636677257 
0.0055961409165 0.005459694833 0.0052638998776 0.0050218588657 0.0047520301625 0.0044738257993 0.0041972670742 0.0039328865998 0.0036842724008 
0.0034589842062 0.0032442292622 0.003047846966 0.0028598621964 0.002684914273 0.0025181328556 0.0023655941735 0.0022194467102 0.0020853907146 
0.0019642550789 0.0018557525478 0.0017563490162 0.0016747215115 0.0016040903432 0.0015423771656 0.0014950623929 0.0014584030506 0.0014326627888 
0.0014187615568 0.0014136284489 0.0014191594582 0.0014351448554 0.0014600927883 0.0014976680606 0.0015450960252 0.0016039430323 0.0016782120828 
0.0017647717409 0.0018675264672 0.0019861056154 0.00212161542 0.0022749845719 0.0024456892824 0.0026323587541 0.0028334405798 0.0030461567532 
0.0032666402219 0.0034898695634 0.003709321798 0.0039188337282 0.0041106563999 0.0042771436302 0.0044115770906 0.0045059416127 0.0045557920951 
0.0045560435836 0.0045053513607 0.0044010829268 0.0042455493117 0.0040401686117 0.0037905425507 0.0034992961962 0.0031728864377 0.002816459732 
0.0024351712554 0.0020336044296 0.0016156394838 0.0011855829146 0.00074690954102 0 
TorsionArray 1 204 double
0 0 -0.0018199805459 -0.0044214476348 -0.0061361397886 -0.0083632065513 -0.012123188471 -0.014959615312 -0.01788181239 
-0.021548471884 -0.025664496706 -0.030418201257 -0.034121464237 -0.037873355209 -0.041505669554 -0.043556368781 -0.044408075445 -0.044057435435 
-0.042207438994 -0.039313089481 -0.035742112165 -0.031993022 -0.02817918938 -0.024362175869 -0.020793144113 -0.017564421888 -0.014549538121 
-0.01164398518 -0.0089624068249 -0.0063022770869 -0.0036228370621 -0.00095156277298 0.0018378880041 0.0048380418291 0.0081739165992 0.011827149568 
0.015970642397 0.020692475782 0.025935431123 0.03182898139 0.038190520964 0.044604740485 0.050436794536 0.054876483381 0.057001469712 
0.056307986442 0.052673717912 0.046598400504 0.039241206889 0.031147541175 0.023099510643 0.01548562311 0.0084401002417 0.0023201467778 
-0.0032318269705 -0.0079438676591 -0.011495906934 -0.014226712668 -0.01588973959 -0.016347934894 -0.015909011501 -0.014511822956 -0.012478220834 
-0.0099339211477 -0.0072505216107 -0.0045969684708 -0.002028267532 0.0002522386632 0.0021811798348 0.0038151745686 0.0050222897527 0.0058773886713 
0.0064954259387 0.0066985828981 0.0067303001006 0.0065600649102 0.0062557164928 0.0058369992135 0.0052692109497 0.004651853254 0.0039494122771 
0.0032682638278 0.0025536122028 0.001742252762 0.0010558915279 0.00036134804658 -0.00030576294066 -0.0009317835619 -0.0015481737239 -0.0018691885349 
-0.0022268615337 -0.0024726192155 -0.0025365082947 -0.0024188483013 -0.0020935045352 -0.0016036527626 -0.0010034627813 -0.00027851924069 0.00075849632084 
0.0019235856344 0.0032107479564 0.0045985237137 0.006344211829 0.0082959014943 0.010346093807 0.01283615734 0.015856007682 0.019283148081 
0.023679445801 0.029406375671 0.035750197788 0.043694593456 0.054096119234 0.065896269302 0.079433022887 0.094612687865 0.10919353542 
0.12219234773 0.13007769261 0.13152350471 0.12697635964 0.11865273403 0.10606123676 0.09416284914 0.083704165763 0.073008214912 
0.066661107467 0.063937548202 0.059588377317 0.056883850009 0.058711987584 0.060475039435 0.06426873207 0.068761032039 0.074120137882 
0.081706289501 0.088655199099 0.096275669897 0.10254571512 0.10704609827 0.10936859623 0.10914796481 0.10543743423 0.099125344878 
0.089867711447 0.079489753487 0.068616331203 0.05737267668 0.047654746154 0.039092818708 0.030974770992 0.023998255258 0.018724456872 
0.013701188933 0.009316318306 0.0061806759879 0.0030874597594 -0.0001544218493 -0.002692001784 -0.0051167596865 -0.0075462688872 -0.0097901904146 
-0.012180989146 -0.014614697174 -0.016771733139 -0.019027870473 -0.021106207214 -0.023004863287 -0.025014017637 -0.02633451572 -0.027512910731 
-0.02851632918 -0.028931397798 -0.029194287058 -0.028868580014 -0.028160697656 -0.027315282702 -0.026188812726 -0.024912131784 -0.023453110838 
-0.021814913549 -0.020331378608 -0.018959749696 -0.017424173418 -0.015996201487 -0.014733746605 -0.013400642078 -0.012232534691 -0.011186145273 
-0.010148948012 -0.0092352706527 -0.0082582313741 -0.0073728921794 -0.006702723022 -0.005974576946 -0.0052070466436 -0.0045862738083 -0.0040852507483 
-0.0034699732415 -0.0028377354127 -0.0022528103562 -0.002009024293 0 0 
TangentArray 3 204 double
-0.12111964879 -0.061639871786 0.99072224003 -0.12111964879 -0.061639871786 0.99072224003 -0.12111014826 -0.061710212485 0.99071902256 
-0.12108852176 -0.061864600935 0.9907120374 -0.12105311828 -0.062101173485 0.99070156294 -0.12100120653 -0.062416388658 0.99068809544 
-0.12092904498 -0.062806023927 0.99067228155 -0.12083038657 -0.063263774918 0.99065519353 -0.12069870598 -0.063782341138 0.99063799409 
-0.12052699201 -0.06435336298 0.99062197072 -0.12030655937 -0.064967737026 0.99060866386 -0.12002757806 -0.065615304356 0.99059982452 
-0.11967862844 -0.066284799636 0.99059747185 -0.11924923888 -0.0669650872 0.99060350096 -0.11872812072 -0.067644572409 0.99061992973 
-0.11810233124 -0.068311052149 0.99064899915 -0.11735983672 -0.068952694638 0.99069278519 -0.11648851236 -0.069557596132 0.99075333323 
-0.11547592071 -0.070113819495 0.99083266198 -0.11431007335 -0.07061026911 0.99093258955 -0.11298024795 -0.071036426606 0.99105463506 
-0.11147650389 -0.071382994314 0.99120000868 -0.10978991146 -0.071641634923 0.9913695837 -0.10791411315 -0.071805391143 0.99156367924 
-0.10584454428 -0.07187008244 0.99178204445 -0.1035790027 -0.071833745838 0.99202384203 -0.10111891831 -0.071696731999 0.9922875304 
-0.098468665492 -0.071462442126 0.99257092506 -0.095636414575 -0.071138140005 0.99287111009 -0.092634124037 -0.070734200353 0.99318457095 
-0.089478018463 -0.070265048739 0.99350717518 -0.086187628093 -0.06974906232 0.99383437306 -0.082786135413 -0.069207698065 0.99416133012 
-0.079300449338 -0.06866561667 0.99448301736 -0.075760220665 -0.068150192739 0.99479442107 -0.072196975974 -0.067691081691 0.99509070648 
-0.068643643729 -0.06731863239 0.99536739544 -0.065133114139 -0.067063343693 0.99562050269 -0.061696460976 -0.066954863119 0.99584667143 
-0.058364078107 -0.067020222002 0.99604313372 -0.055161974428 -0.067283600177 0.99620784665 -0.052112237908 -0.067765385147 0.99633938356 
-0.049233478858 -0.068480415536 0.99643690079 -0.046537074234 -0.069437935843 0.99650021264 -0.044028368326 -0.070641562365 0.99652961444 
-0.041707098373 -0.072088555928 0.99652584415 -0.03956715673 -0.073770642417 0.99649000618 -0.037596372371 -0.075674137524 0.99642357343 
-0.035776797369 -0.077780640854 0.99632835585 -0.034087307304 -0.080068121539 0.99620637992 -0.032502191351 -0.082511873057 0.99605993713 
-0.030993075256 -0.085086085386 0.9958914536 -0.029530278537 -0.087764360172 0.99570345974 -0.028083070353 -0.090521372038 0.99549847934 
-0.026622294891 -0.093334338982 0.99527883258 -0.025118702182 -0.096183299909 0.99504664394 -0.02354493477 -0.099052269779 0.99480364088 
-0.021877871827 -0.10193009606 0.99455096111 -0.020096040401 -0.10481074526 0.99428912135 -0.018181301196 -0.10769328228 0.99401790589 
-0.016120099677 -0.11058198924 0.99373626584 -0.013901380161 -0.11348609458 0.99344232745 -0.011518259738 -0.11641924395 0.99313336936 
-0.0089669228268 -0.11939873726 0.99280589031 -0.0062474322897 -0.12244457986 0.99245568891 -0.0033618236967 -0.12557889775 0.99207793977 
-0.00031408781375 -0.12882448367 0.99166736044 0.0028888312164 -0.13220392431 0.99121832966 0.0062387867019 -0.13573872885 0.99072502493 
0.0097262538832 -0.1394479639 0.9901816325 0.013339639233 -0.14334752814 0.98958250803 0.017067385039 -0.14744961933 0.98892229934 
0.020897257485 -0.15176170767 0.98819617927 0.024815120343 -0.15628622686 0.98740003296 0.028808989659 -0.16102076294 0.98653046381 
0.032865503861 -0.16595737218 0.98558511011 0.03697164537 -0.17108343693 0.98456262119 0.041114618239 -0.17638217724 0.98346271699 
0.045281232627 -0.18183217633 0.98228644988 0.049460287975 -0.18740935923 0.98103588721 0.053641075093 -0.19308751489 0.97971416579 
0.057814311602 -0.19883894825 0.97832539476 0.061971041039 -0.20463580002 0.97687449523 0.06610369339 -0.21045078474 0.97536699192 
0.07020752201 -0.2162582073 0.97380865247 0.0742768374 -0.22203402727 0.97220565837 0.078307594225 -0.22775704828 0.97056408735 
0.082297182419 -0.23340937503 0.96888969311 0.086243809597 -0.23897625105 0.96718786011 0.090147110995 -0.24444604797 0.96546342655 
0.094003797282 -0.24980971919 0.96372111645 0.097812929309 -0.25506160832 0.96196476382 0.10157376567 -0.2601987062 0.96019758561 
0.10528398758 -0.26521945582 0.95842262192 0.10893961317 -0.27012287904 0.95664297985 0.11253628179 -0.27491061589 0.95486110956 
0.11606828796 -0.27958424001 0.95307964267 0.11952797456 -0.28414368397 0.95130196581 0.12290868481 -0.28859084655 0.94953082019 
0.12619970459 -0.29292524968 0.94777024255 0.12938970036 -0.2971456278 0.94602472553 0.13246776692 -0.30125098699 0.94429875228 
0.13542186213 -0.30523796802 0.94259784751 0.13823939687 -0.3091039979 0.94092751455 0.14090711368 -0.31284487129 0.93929402842 
0.14341332109 -0.31645607643 0.93770366909 0.14574715341 -0.31993478315 0.93616211299 0.14789712281 -0.32327743132 0.93467542145 
0.14985382148 -0.32648159457 0.93324894889 0.15160780066 -0.32954650334 0.93188742717 0.15315025009 -0.33247508077 0.93059406916 
0.15447510949 -0.33527057687 0.92937133635 0.15557530039 -0.33793584396 0.92822178991 0.15644318548 -0.34047836675 0.92714616512 
0.15707263963 -0.34290596343 0.92614452766 0.15745781394 -0.34522719732 0.92521630934 0.15759192911 -0.34745484099 0.92435919282 
0.15746841983 -0.3496001016 0.92357103989 0.1570792599 -0.3516749607 0.92284929871 0.15641698662 -0.35369070584 0.92219120083 
0.15547472522 -0.35565951892 0.92159314039 0.15424415594 -0.35759225478 0.92105185504 0.15271759538 -0.35949477886 0.92056550013 
0.15088992166 -0.361374791 0.92013069288 0.14875588802 -0.3632359585 0.91974524964 0.14631252319 -0.36507599753 0.91940859338 
0.14356319668 -0.36689302408 0.91911866342 0.14051208141 -0.36867625946 0.91887658077 0.13716930142 -0.37040315802 0.91868715201 
0.13355420693 -0.37205618684 0.91855183177 0.1296924966 -0.37361506497 0.91847244899 0.12561669708 -0.37504582896 0.91845580819 
0.1213682859 -0.376316242 0.91850738984 0.11699659928 -0.37739093947 0.91863369989 0.11255604423 -0.37823741763 0.91884035219 
0.1081049761 -0.37882710877 0.9191318381 0.10370231863 -0.37913246522 0.91951313364 0.099404260403 -0.37913700263 0.91998582937 
0.095263729629 -0.37883083994 0.92054984467 0.091326280129 -0.37821612182 0.92120143061 0.087625830815 -0.37730498792 0.92193419498 
0.0841856354 -0.37611737938 0.92273966844 0.081019346468 -0.37467929796 0.92360775721 0.078129725618 -0.37302268281 0.9245268109 
0.075509510657 -0.37117996881 0.92548568036 0.073144964101 -0.36918687789 0.92647226803 0.07101836194 -0.36707765179 0.9274752772 
0.069107580717 -0.36488357932 0.92848484954 0.067388095306 -0.36263396543 0.92949203962 0.065836331274 -0.36035190535 0.93049023735 
0.064429150034 -0.35805490973 0.93147494129 0.063143409798 -0.35575841069 0.93244241807 0.061958644787 -0.35347489151 0.93338985821 
0.060856572339 -0.35120945132 0.93431707621 0.059818721909 -0.34896484799 0.93522470849 0.058829124872 -0.34674376108 0.93611318665 
0.057873711077 -0.34454236705 0.93698516043 0.056937146557 -0.34235448379 0.93784410686 0.056005286138 -0.34017856281 0.9386916178 
0.055064437243 -0.33800868619 0.93953075299 0.054099592087 -0.33583687492 0.94036526285 0.053095395001 -0.33365694817 0.94119813003 
0.052035188067 -0.33146126047 0.94203278712 0.050900567314 -0.32924437743 0.94287182171 0.049671399293 -0.32700249067 0.9437171839 
0.048325817131 -0.32473124855 0.94457092461 0.046839878817 -0.3224299096 0.94543375186 0.04518698254 -0.3200980281 0.94630618143 
0.043338326759 -0.31773757217 0.94718774521 0.041262909184 -0.31535602343 0.94807592038 0.038927476075 -0.31295878827 0.94896862353 
0.036296860805 -0.31055587127 0.94986187876 0.033334507437 -0.30816178362 0.9507497703 0.0300032819 -0.30579189785 0.95162551368 
0.026265662105 -0.30346652745 0.95248001644 0.022085506265 -0.30120650862 0.95330313625 0.017428995115 -0.29903418393 0.95408321805 
0.012265936315 -0.29697532897 0.95480636822 0.0065718526673 -0.29505628572 0.95545727221 0.00032916178785 -0.29330370541 0.95601926134 
-0.0064707197963 -0.2917425504 0.95647499396 -0.013825196725 -0.2903938948 0.95680732115 -0.021719295404 -0.28927815328 0.95699865321 
-0.030124710384 -0.28841337121 0.95703198961 -0.038998510768 -0.28780892125 0.95689348467 -0.048282556753 -0.2874687462 0.95657227363 
-0.057905176845 -0.28739211095 0.95606106764 -0.067780998923 -0.28756848371 0.95535862552 -0.077813164934 -0.2879821893 0.95446915613 
-0.087896652886 -0.28861229221 0.95340291755 -0.097921057237 -0.28943088837 0.95217709876 -0.10777274757 -0.2904066817 0.95081491054 
-0.11733869509 -0.29150212311 0.94934616598 -0.12650991182 -0.29267863574 0.94780507405 -0.13518401948 -0.29390013552 0.94622829762 
-0.14326721722 -0.29512877283 0.94465523442 -0.15067485735 -0.29632666705 0.94312649934 -0.15733353408 -0.29746069392 0.94168110028 
-0.16318003802 -0.29850149616 0.94035585391 -0.1681616964 -0.29942098215 0.9391851358 -0.17223489472 -0.30019449322 0.93819955622 
-0.17536494548 -0.30080205699 0.93742480147 -0.17752560589 -0.30123006575 0.93688051893 -0.17752560589 -0.30123006575 0.93688051893 

NormalArray 3 204 double
-0.1217326858 0.99145882137 0.04680340524 -0.1217326858 0.99145882137 0.04680340524 -0.1367517981 0.98958623542 0.044922470755 
-0.13963439655 0.98919354243 0.044703142198 -0.15369852895 0.98717736836 0.043099948972 -0.16909696543 0.98473004929 0.04138775547 
-0.19260250059 0.98051534069 0.038651564402 -0.22597075567 0.97351914218 0.034607764995 -0.2636913847 0.96414207799 0.029948407179 
-0.30965222884 0.9505450473 0.024075095699 -0.36317636389 0.93156551623 0.016988751775 -0.42544640185 0.90494471474 0.0083918061268 
-0.49598775434 0.86832760962 -0.0018193187356 -0.56836946181 0.82267376372 -0.012807551545 -0.6448054618 0.76393396027 -0.025116145832 
-0.71931361911 0.69364958042 -0.037923303494 -0.78791914496 0.61369413554 -0.050625379151 -0.84772350749 0.52672053928 -0.062692330823 
-0.89673486436 0.43640052594 -0.073628554236 -0.93390530365 0.34776426043 -0.082951208404 -0.96039158612 0.26351522177 -0.090596518737 
-0.97763416149 0.18687039839 -0.096493007447 -0.98790259705 0.11776470489 -0.10089565416 -0.99290981722 0.057792530602 -0.10387549408 
-0.99438197531 0.0064549478002 -0.10565425133 -0.99364564188 -0.036691521715 -0.10640521891 -0.99167743153 -0.072630602706 -0.10630459702 
-0.98922221815 -0.101585571 -0.10545034319 -0.98681441453 -0.12406963457 -0.10394246992 -0.98478029284 -0.14081355024 -0.10187894238 
-0.98344747296 -0.15156610223 -0.09929141245 -0.98294177702 -0.15672551811 -0.096242272191 -0.98335561131 -0.15622727925 -0.092761947558 
-0.98470378733 -0.14986934733 -0.088868610536 -0.98693034625 -0.13717965268 -0.084559059441 -0.98986930238 -0.11742963184 -0.079806301603 
-0.99312993658 -0.090164607174 -0.074587349283 -0.996166638 -0.054014812071 -0.068807190145 -0.99801920246 -0.0081543517066 -0.062379308042 
-0.99730140183 0.048426794062 -0.055179339693 -0.99205426281 0.11668122686 -0.047051364851 -0.97974537237 0.19663376845 -0.037870389854 
-0.9576613109 0.28656897988 -0.02762305878 -0.92347671792 0.38330303177 -0.016417591326 -0.87634974055 0.48165360818 -0.0045753640356 
-0.81796259158 0.57522410063 0.0073778603132 -0.75210252291 0.6587748905 0.018906048593 -0.68478713172 0.72814736678 0.029461779865 
-0.62135596943 0.78256808029 0.038780909885 -0.56577071042 0.82323303931 0.046806689775 -0.52146817915 0.85159007457 0.053528338606 
-0.48867119276 0.87045985692 0.059161667113 -0.46838100598 0.88122133003 0.06378244849 -0.45925913343 0.88572763144 0.067584105141 
-0.46025311492 0.88496982002 0.070678765304 -0.47071565917 0.87925084344 0.073107609134 -0.48830257587 0.86944442958 0.07501318736 
-0.51099655337 0.85617124628 0.076506989838 -0.53753442555 0.83965931931 0.07764643486 -0.56518230157 0.82120992978 0.078633435735 
-0.59227627687 0.80179191992 0.079614879284 -0.61742103385 0.78247761345 0.08074683524 -0.63902332238 0.7647783403 0.082239185676 
-0.65685837677 0.74930008431 0.084181093545 -0.66996791739 0.73730442038 0.086747803198 -0.67913849529 0.72848259017 0.089911178587 
-0.68403479392 0.72339882495 0.093757883773 -0.68537115879 0.72153774217 0.098232689748 -0.68340881623 0.72268779433 0.10331864223 
-0.67892027648 0.72608730583 0.10892420527 -0.67200267603 0.73156032654 0.11502996146 -0.66374628657 0.73802416276 0.12149568816 
-0.65410754605 0.74543890775 0.12831271571 -0.64379450762 0.75312650851 0.13538498489 -0.63335783995 0.76059954839 0.14264001386 
-0.62279735386 0.76785707092 0.15006323555 -0.61275012219 0.77440772454 0.15757526437 -0.60303864307 0.78042334693 0.16517806917 
-0.59421186513 0.78552649708 0.17280156745 -0.5862232418 0.78980146279 0.18043270254 -0.57928166399 0.79314315317 0.18803375318 
-0.57345050288 0.79555212225 0.19557950182 -0.56859575834 0.79716090105 0.20305999468 -0.5649300243 0.79785369108 0.21043658255 
-0.56249459924 0.79762918608 0.21768671832 -0.56084014825 0.79681339892 0.22482601141 -0.56038057895 0.79513577291 0.23180316945 
-0.56057272119 0.79297329838 0.23864528556 -0.56177470267 0.79008366821 0.24530996855 -0.56354279357 0.78676903269 0.25182138317 
-0.56547244484 0.78330878306 0.25820198392 -0.56801965048 0.77938575625 0.26440786604 -0.57041672983 0.7755352693 0.27049916895 
-0.57294807578 0.77156095263 0.2764492699 -0.57489814769 0.76797706362 0.28231781655 -0.57650280132 0.76462514958 0.28808488454 
-0.57720070704 0.76191904 0.29380047699 -0.57735530896 0.75960710132 0.29942928855 -0.5763962561 0.75810894988 0.30502159934 
-0.57428890413 0.75745381352 0.31057362247 -0.57088525107 0.75774545102 0.31608837619 -0.56616221005 0.75898791451 0.32155512364 
-0.56001254093 0.76123594024 0.32696451992 -0.55188045238 0.76483923433 0.33233855014 -0.54197245526 0.76959328386 0.33762706523 
-0.52994541642 0.77565095856 0.34281692798 -0.51526620088 0.78324347168 0.34789424585 -0.49744148637 0.79250944647 0.35281828877 
-0.47614862211 0.80340854384 0.35751531625 -0.44966367173 0.81658518145 0.36192709731 -0.41705274067 0.83198479094 0.36588019781 
-0.37777822276 0.84913783336 0.3691186183 -0.32883994534 0.86835154783 0.37125446762 -0.26820520387 0.88878783798 0.3716478813 
-0.19469051764 0.90863044041 0.36944055692 -0.10629251396 0.92553571209 0.36343575377 -0.002500411008 0.93591244604 0.35222385112 
0.11307599123 0.93547095914 0.33482518545 0.23682140444 0.92059804839 0.31050741649 0.35870212741 0.89027598085 0.28060909057 
0.47148003702 0.84653510566 0.24715357487 0.57052712303 0.79332221518 0.21245861901 0.65337007139 0.73560313577 0.17887307356 
0.71878747642 0.67910985904 0.14884341804 0.77198460695 0.62391237694 0.12154469355 0.8139213474 0.57267233705 0.097869477551 
0.84657033136 0.52653796028 0.077951590373 0.87473907168 0.48096312411 0.059211736394 0.89878034072 0.43640611413 0.041756468784 
0.91817431702 0.39528207912 0.026608297434 0.93532354422 0.3535978962 0.011764158403 0.95103000575 0.30907443102 -0.0038631928959 
0.96433581297 0.26397933368 -0.019270475157 0.97631741927 0.21319745515 -0.036757882912 0.98549412602 0.16069644835 -0.054570862793 
0.99205179927 0.10099412945 -0.075056068274 0.99460232988 0.036305264994 -0.097201507885 0.99197061751 -0.034889755916 -0.12156068005 
0.98266322538 -0.11196903551 -0.14776982298 0.96544712347 -0.19310288742 -0.17499464751 0.93933855052 -0.27679124288 -0.20255788154 
0.90415862134 -0.36038672952 -0.22938742914 0.86034432054 -0.44157165022 -0.2546019007 0.81030863705 -0.51647585642 -0.27686206396 
0.75542544694 -0.58453015078 -0.29606907463 0.70041287477 -0.64229915084 -0.31124525007 0.64546172958 -0.69199332272 -0.32330233059 
0.59512327018 -0.73188698829 -0.3319182575 0.54908471749 -0.76436215546 -0.33801844377 0.50848401578 -0.79023500746 -0.34201262942 
0.47290411736 -0.81099541252 -0.3444533882 0.44426384277 -0.82660989332 -0.3454645022 0.42020160826 -0.83902818898 -0.34563319649 
0.40100782796 -0.84858529453 -0.34510247729 0.38709048572 -0.85548035319 -0.34396848865 0.37752070146 -0.86036749489 -0.34241187727 
0.37094072987 -0.86394317801 -0.34059530252 0.3693986822 -0.86547910126 -0.33836450593 0.37184061662 -0.86542718262 -0.33581296493 
0.37787776471 -0.86391622264 -0.33295218156 0.38805597306 -0.86064835602 -0.32969223385 0.40218836483 -0.85555711897 -0.3259854834 
0.4201470224 -0.84849767337 -0.32175794918 0.44277347506 -0.83880003387 -0.3168061757 0.46936240265 -0.82640333798 -0.31105700113 
0.49963484591 -0.81100045201 -0.3043735987 0.53396053483 -0.79181860001 -0.29649528147 0.57084978889 -0.76910488206 -0.28741642074 
0.61064916925 -0.74193981002 -0.27682649875 0.6524798248 -0.71011051474 -0.2645999529 0.69404321674 -0.67476188502 -0.25099882832 
0.73617615056 -0.63446938066 -0.23557011769 0.77652915226 -0.59089048939 -0.21874849769 0.81476776661 -0.54401569381 -0.20050040243 
0.85007961721 -0.49456878951 -0.18101479732 0.88136921063 -0.44422834517 -0.16077777181 0.90866179522 -0.39339761855 -0.1399001631 
0.93184411245 -0.34291912672 -0.1186297712 0.95090606773 -0.29379671909 -0.097268382347 0.96619270948 -0.24638835046 -0.07592383628 
0.97790973218 -0.20168842286 -0.054902966979 0.98651300109 -0.1600445712 -0.034319584868 0.99255834819 -0.12095826547 -0.014036504277 
0.99638583192 -0.084742794782 0.0058251756987 0.99833370712 -0.051982556311 0.025052406308 0.99879916386 -0.021861346734 0.043844176267 
0.99805550321 0.005465067974 0.062091428932 0.99637505357 0.029826354958 0.079668947419 0.99394724707 0.052061006242 0.096739452536 
0.99097428803 0.071913589281 0.11312999664 0.98760050614 0.089707834009 0.12883223503 0.98394051613 0.10572296027 0.14381834511 
0.9802173373 0.11943415703 0.15782729101 0.97639616287 0.13188007192 0.17105022587 0.97259630205 0.1429597799 0.1833546688 
0.96893748144 0.15258702952 0.19462105612 0.96553109359 0.16070994615 0.20474867649 0.96227648174 0.16815111379 0.21389056928 
0.95933162758 0.17451712908 0.22187068303 0.95677606378 0.17975715078 0.22861961972 0.95467209995 0.18385867707 0.23408795022 
0.95299447293 0.18710254396 0.23831527983 0.95129847367 0.19127228743 0.24175633612 0.95129847367 0.19127228743 0.24175633612 

BinormalArray 3 204 double
-0.9851452603 -0.11493446716 -0.12758873138 -0.9851452603 -0.11493446716 -0.12758873138 -0.98317408311 -0.13004204065 -0.12828791821 
-0.98277149185 -0.13292444009 -0.12841841001 -0.98067471914 -0.14705198963 -0.12904575774 -0.97814361129 -0.16251438228 -0.12970794599 
-0.97379692074 -0.18613186192 -0.130669381 -0.96661121205 -0.21967743307 -0.13192645731 -0.95702595368 -0.2576079704 -0.13318955504 
-0.94318012138 -0.30384660231 -0.1344934976 -0.92392059209 -0.35772179431 -0.13566818859 -0.89698870654 -0.42043988285 -0.13653411753 
-0.86004254164 -0.49154194909 -0.13679670627 -0.81408585168 -0.56455606948 -0.13616413074 -0.75506923509 -0.64173913405 -0.13431803321 
-0.68457268184 -0.71706614739 -0.13105870266 -0.60449159608 -0.78652719845 -0.12635219174 -0.51748940215 -0.84718782706 -0.12032250141 
-0.42723751564 -0.89701651784 -0.11326725894 -0.338753732 -0.93491935966 -0.10569626293 -0.25472232899 -0.96203615004 -0.097994801514 
-0.1783379807 -0.97978769248 -0.090618112484 -0.10952001684 -0.99045391131 -0.08370433372 -0.049846153793 -0.99574294334 -0.077532907481 
0.001191478427 -0.99739311452 -0.072149535551 0.044042349793 -0.99674151373 -0.067576817265 0.079692133593 -0.99477855534 -0.063755703056 
0.10836662323 -0.99225676673 -0.060689239905 0.13057942979 -0.98972020835 -0.058334566971 0.147060171 -0.98750605921 -0.056613506658 
0.15755872601 -0.98594651964 -0.055540150127 0.16247201527 -0.98517621788 -0.055051466595 0.1617349606 -0.98529352568 -0.055122325543 
0.15514473869 -0.98631851438 -0.05573058621 0.14222826937 -0.98819901544 -0.05686673256 0.12225531019 -0.99077151706 -0.058527259503 
0.094768028551 -0.99364910574 -0.060666921945 0.058392694588 -0.99628555546 -0.0632881127 0.012297082036 -0.99772268334 -0.066319144449 
-0.044537044118 -0.99657570483 -0.069665746545 -0.11307296853 -0.9908876871 -0.073185349225 -0.19334766609 -0.97813241112 -0.076639848226 
-0.28365626763 -0.95560904791 -0.079689832325 -0.38082154901 -0.92100877244 -0.081962118735 -0.47965887359 -0.87350991488 -0.083113137318 
-0.57375754175 -0.81481315291 -0.082956670182 -0.65785730606 -0.74871458912 -0.081548935621 -0.72777269598 -0.68123038479 -0.079196375123 
-0.7827111728 -0.61768711467 -0.076327245136 -0.82385772965 -0.56202887728 -0.073361995599 -0.85265147962 -0.51767377343 -0.070705859757 
-0.87191736687 -0.48482986249 -0.068557346685 -0.88303295289 -0.46448507466 -0.067129870635 -0.88785831613 -0.45529379977 -0.066446718267 
-0.88738848517 -0.45619855198 -0.066517347764 -0.88192733205 -0.46654766865 -0.067360625498 -0.87235671055 -0.48399899972 -0.068838490858 
-0.85930430068 -0.50653830316 -0.070817132557 -0.84300230754 -0.53290424578 -0.073213211351 -0.82476566749 -0.56037166968 -0.075797002221 
-0.80557368021 -0.58728301593 -0.078420054548 -0.78651002447 -0.61224969643 -0.080946220615 -0.76910111373 -0.63368813295 -0.083203527625 
-0.75396065359 -0.65137802019 -0.085146976777 -0.74236376478 -0.66437151997 -0.086640199609 -0.73400245392 -0.6734560537 -0.087734493691 
-0.72944931425 -0.67830553032 -0.088347639897 -0.72818818266 -0.67963623287 -0.088524356046 -0.73000922422 -0.67771479947 -0.088256349001 
-0.73414757247 -0.67331381218 -0.087611940731 -0.74042856335 -0.66653655174 -0.08657117168 -0.74776304498 -0.65846711758 -0.085272994735 
-0.75611283736 -0.6490679617 -0.083690849396 -0.76479594779 -0.63904231274 -0.081927289528 -0.7733226291 -0.62893611829 -0.080071658078 
-0.78169259602 -0.61875170243 -0.078121802719 -0.78941141694 -0.60911668323 -0.076200269122 -0.79665173265 -0.59985725562 -0.074278460853 
-0.80303291919 -0.59151093145 -0.072477228591 -0.80863835593 -0.58403029155 -0.070799914321 -0.81336055278 -0.57761678487 -0.069307005484 
-0.8171976665 -0.57232848386 -0.068029996571 -0.82027949729 -0.56803053368 -0.066954156981 -0.8224866986 -0.56492473377 -0.066148891173 
-0.82381474233 -0.56304535278 -0.065644505012 -0.82458551984 -0.56195133066 -0.065340817502 -0.82452503141 -0.56203721371 -0.065365457116 
-0.82400570266 -0.5627729664 -0.065583460323 -0.82278258899 -0.56449813876 -0.066110986935 -0.82115346812 -0.56678092666 -0.066830853435 
-0.81939258004 -0.56922970282 -0.067626512604 -0.81718193049 -0.57227739683 -0.068646001729 -0.81505062693 -0.57518838598 -0.069647657382 
-0.81280119612 -0.57823207851 -0.070723963117 -0.81094036801 -0.58072787085 -0.071630018577 -0.80930841176 -0.58290010628 -0.072438668872 
-0.80831150946 -0.58421916197 -0.072941582477 -0.80769666987 -0.58502941677 -0.07325756616 -0.80787425454 -0.58479581342 -0.073164509521 
-0.80886704047 -0.58348823337 -0.072633273124 -0.81077021131 -0.58097014323 -0.071591599477 -0.81358013904 -0.57722195771 -0.070015490419 
-0.81734134439 -0.5721447598 -0.067849101511 -0.82238545429 -0.56522178312 -0.064857539741 -0.82849927161 -0.55664554605 -0.061112134676 
-0.83581724973 -0.54609627556 -0.056465767225 -0.84454633354 -0.53307729139 -0.050696073823 -0.854797291 -0.51712714071 -0.043601739017 
-0.86650234959 -0.49794023747 -0.035059920889 -0.88023727319 -0.47390689336 -0.024384407285 -0.8958861604 -0.44414145079 -0.011240964838 
-0.91291897502 -0.4081158907 0.0045127371042 -0.93148301984 -0.36299442798 0.023967248443 -0.95057429922 -0.30680720466 0.047726730823 
-0.96820648016 -0.23834056096 0.075960442203 -0.98178864238 -0.15556936677 0.10903776326 -0.98750115535 -0.057818914079 0.14662346794 
-0.98102880537 0.051709317934 0.18683851176 -0.95877094684 0.16977619183 0.22789101821 -0.92025350317 0.28689991725 0.26612389481 
-0.86806346802 0.39608663381 0.29930117609 -0.80666445456 0.49271456465 0.32638139581 -0.74147480461 0.57415288087 0.34722267138 
-0.67865808422 0.63891944703 0.36222250749 -0.61798984815 0.69194868621 0.37322320834 -0.56224966502 0.73400675093 0.3809322824 
-0.51255076101 0.76690761195 0.38619222172 -0.46377571245 0.79545728293 0.3900766586 -0.41638741801 0.81997024585 0.39277259838 
-0.37298685952 0.83983705072 0.39440401983 -0.32916519248 0.85754318319 0.3953099607 -0.28242233195 0.87396431407 0.39550474604 
-0.23521517595 0.88808839504 0.3949339484 -0.18197827507 0.90117863042 0.3933967253 -0.12701363898 0.91165405028 0.39083810987 
-0.064393646498 0.91994032822 0.38673408282 0.0034690793253 0.92462992681 0.3808509734 0.078186232905 0.92468256076 0.37262457624 
0.1590528444 0.91866758395 0.36159654712 0.24407245307 0.90535288152 0.34751229847 0.33160941073 0.88375763304 0.33016305784 
0.41881973002 0.85361415295 0.30973038539 0.50323306292 0.81524836792 0.28657735951 0.58077160631 0.77078321715 0.26191138475 
0.65086919417 0.72149146467 0.23626120819 0.70998001316 0.67167912728 0.21160229414 0.76048375914 0.62161019849 0.18779034376 
0.80065750204 0.57550100774 0.16657176984 0.83304550754 0.53314829309 0.14760785868 0.85855086231 0.4956562693 0.13120701019 
0.87875513108 0.46269117398 0.11707389594 0.89366802998 0.43606425845 0.10585563139 0.90531305897 0.413626884 0.096545668368 
0.914050983 0.39567021523 0.08919574687 0.92009927528 0.38259234203 0.083907231161 0.9241305395 0.37354589796 0.080288281119 
0.92685144899 0.36727747342 0.077805199233 0.92752508049 0.36570388664 0.077187384726 0.92660561392 0.36785097117 0.078023709561 
0.92421658862 0.37336160532 0.080154906165 0.92004662703 0.38275057247 0.083762780295 0.91401608204 0.3958472649 0.088766799219 
0.90596292351 0.41253500591 0.095110725619 0.89518756807 0.43360424711 0.10308527955 0.881607445 0.45839600136 0.11243406452 
0.86488706555 0.48664965124 0.1230547878 0.84421097659 0.51871211484 0.1350761597 0.81981013358 0.55318616469 0.14797436289 
0.79071447535 0.59039660699 0.16187175456 0.75668186879 0.62951857426 0.17646221724 0.71888014641 0.66839598695 0.19094014698 
0.67581596107 0.70781611724 0.20559457905 0.62919892427 0.74557678657 0.21959956518 0.57901061265 0.78136946453 0.23282712544 
0.52599882072 0.81443832128 0.24498053278 0.47191158597 0.84376289117 0.25566313484 0.41716899699 0.86937728896 0.26486441323 
0.36265148131 0.89118579798 0.27252848767 0.30940985942 0.90918935107 0.27864002366 0.25782075131 0.92372383165 0.2833068002 
0.20892746465 0.93499094347 0.2866029486 0.16309801535 0.94342838684 0.28869000034 0.11981735119 0.94957213947 0.28975257428 
0.079421506934 0.95374859687 0.28992384896 0.042531463416 0.95627602641 0.28935658957 0.0083081277704 0.957540496 0.28817906506 
-0.023069525555 0.95779742513 0.28651682219 -0.051405143885 0.95729554252 0.28450440322 -0.077549864028 0.95621959312 0.2821880726 
-0.10121333348 0.95474152547 0.279686397 -0.12270577336 0.95298597334 0.2770578059 -0.14228877538 0.95104501202 0.27434884637 
-0.15939134948 0.94908481937 0.2717211868 -0.17505934808 0.94707278644 0.26908616062 -0.18916055117 0.94508476428 0.2665203073 
-0.2015804096 0.94319468079 0.26410061074 -0.2122423018 0.94146843792 0.26189766269 -0.22196876301 0.93980973527 0.25978362101 
-0.23033693477 0.93831797833 0.25788421439 -0.23727875514 0.93703492048 0.2562505613 -0.24276804282 0.93599105397 0.25492042735 
-0.24708029151 0.93515280065 0.25385147033 -0.25202355693 0.93417094771 0.25260397305 -0.25202355693 0.93417094771 0.25260397305 

