# vtk DataFile Version 4.1
vtk output
ASCII
DATASET POLYDATA
POINTS 266 float
-13.3441 -1.06101 -205.594 -13.3904 -1.05068 -204.61 -13.4367 -1.04036 -203.625 
-13.4831 -1.03008 -202.638 -13.5297 -1.01986 -201.648 -13.5765 -1.00974 -200.654 
-13.6237 -0.999753 -199.655 -13.6712 -0.989922 -198.649 -13.7191 -0.980286 -197.637 
-13.7676 -0.970881 -196.618 -13.8165 -0.961744 -195.59 -13.8661 -0.952914 -194.556 
-13.9163 -0.94443 -193.513 -13.967 -0.936331 -192.464 -14.0185 -0.928653 -191.408 
-14.0706 -0.921432 -190.346 -14.1233 -0.914698 -189.28 -14.1766 -0.908476 -188.211 
-14.2306 -0.902785 -187.139 -14.285 -0.897638 -186.065 -14.3399 -0.893037 -184.992 
-14.3952 -0.888977 -183.92 -14.4509 -0.885442 -182.85 -14.5068 -0.882409 -181.783 
-14.5629 -0.879843 -180.719 -14.6191 -0.877702 -179.66 -14.6753 -0.875934 -178.604 
-14.7314 -0.874481 -177.553 -14.7874 -0.873277 -176.506 -14.8432 -0.872252 -175.462 
-14.8988 -0.871332 -174.422 -14.9541 -0.87044 -173.383 -15.0091 -0.869498 -172.346 
-15.0637 -0.868425 -171.309 -15.1181 -0.867144 -170.27 -15.1721 -0.865579 -169.23 
-15.2259 -0.863655 -168.186 -15.2794 -0.861304 -167.138 -15.3328 -0.858459 -166.083 
-15.3859 -0.85506 -165.022 -15.439 -0.851051 -163.952 -15.492 -0.846385 -162.874 
-15.545 -0.841019 -161.786 -15.5981 -0.834919 -160.688 -15.6512 -0.828059 -159.579 
-15.7046 -0.820421 -158.459 -15.7582 -0.811995 -157.328 -15.812 -0.802783 -156.186 
-15.8662 -0.792795 -155.032 -15.9208 -0.78205 -153.868 -15.9757 -0.770581 -152.692 
-16.0311 -0.758427 -151.506 -16.0871 -0.74564 -150.31 -16.1435 -0.73228 -149.104 
-16.2007 -0.718415 -147.888 -16.2584 -0.704122 -146.663 -16.317 -0.689484 -145.43 
-16.3763 -0.674587 -144.188 -16.4365 -0.659522 -142.938 -16.4977 -0.644376 -141.68 
-16.5599 -0.62924 -140.415 -16.6232 -0.614196 -139.143 -16.6877 -0.599322 -137.865 
-16.7536 -0.584687 -136.58 -16.8208 -0.570347 -135.289 -16.8895 -0.556348 -133.993 
-16.9598 -0.542722 -132.691 -17.0318 -0.529486 -131.384 -17.1055 -0.516643 -130.073 
-17.1811 -0.504181 -128.758 -17.2586 -0.492075 -127.44 -17.338 -0.480287 -126.119 
-17.4195 -0.468771 -124.796 -17.503 -0.457472 -123.471 -17.5887 -0.446331 -122.145 
-17.6765 -0.435288 -120.819 -17.7665 -0.424284 -119.492 -17.8587 -0.413264 -118.166 
-17.953 -0.402181 -116.841 -18.0494 -0.390998 -115.517 -18.1479 -0.379692 -114.194 
-18.2484 -0.36825 -112.874 -18.3508 -0.356679 -111.556 -18.455 -0.344997 -110.24 
-18.5608 -0.333243 -108.927 -18.6682 -0.321465 -107.616 -18.777 -0.30973 -106.309 
-18.8869 -0.298113 -105.004 -18.9979 -0.286702 -103.702 -19.1096 -0.275591 -102.402 
-19.2219 -0.264879 -101.106 -19.3345 -0.254669 -99.8129 -19.4471 -0.245062 -98.5226 
-19.5596 -0.236157 -97.2353 -19.6716 -0.228049 -95.9508 -19.7829 -0.220823 -94.6692 
-19.8933 -0.214557 -93.3903 -20.0025 -0.209319 -92.114 -20.1101 -0.205161 -90.84 
-20.2161 -0.202126 -89.5682 -20.3201 -0.200242 -88.2982 -20.4219 -0.199521 -87.0296 
-20.5214 -0.199964 -85.7619 -20.6182 -0.201558 -84.4947 -20.7122 -0.204278 -83.2273 
-20.8033 -0.208089 -81.9589 -20.8913 -0.212947 -80.6889 -20.9761 -0.218804 -79.4162 
-21.0574 -0.225609 -78.1399 -21.1354 -0.233313 -76.8589 -21.2098 -0.24187 -75.572 
-21.2806 -0.25125 -74.2779 -21.3478 -0.261433 -72.9753 -21.4113 -0.272424 -71.6625 
-21.4711 -0.284251 -70.3381 -21.5272 -0.296977 -69.0004 -21.5796 -0.3107 -67.6476 
-21.6282 -0.325558 -66.2779 -21.673 -0.341736 -64.8894 -21.714 -0.359468 -63.4801 
-21.7512 -0.379036 -62.0482 -21.7845 -0.400774 -60.5918 -21.8139 -0.425067 -59.109 
-21.8393 -0.452347 -57.5978 -21.8605 -0.48309 -56.0567 -21.8776 -0.517813 -54.4841 
-21.8902 -0.557062 -52.8784 -21.8984 -0.601408 -51.2386 -21.9019 -0.651433 -49.5635 
-21.9005 -0.707724 -47.8524 -21.8942 -0.770857 -46.1048 -21.8826 -0.841387 -44.3206 
-21.8656 -0.919832 -42.4999 -21.8431 -1.00667 -40.6431 -21.8148 -1.10231 -38.751 
-21.7805 -1.2071 -36.8248 -21.7403 -1.32131 -34.866 -21.6938 -1.44512 -32.8762 
-21.641 -1.57863 -30.8576 -21.5818 -1.72183 -28.8125 -21.5161 -1.87462 -26.7435 
-21.4439 -2.03682 -24.6532 -21.3652 -2.20815 -22.5448 -21.2799 -2.38823 -20.4211 
-21.188 -2.57664 -18.2852 -21.0897 -2.77287 -16.1402 -20.9848 -2.97637 -13.9892 
-20.8735 -3.18653 -11.835 -20.7558 -3.40275 -9.68036 -20.6318 -3.62436 -7.52786 
-20.5016 -3.85074 -5.37977 -20.3651 -4.08126 -3.23808 -20.2225 -4.3153 -1.10445 
-20.0738 -4.55229 1.01978 -19.9191 -4.79168 3.13363 -19.7583 -5.03298 5.23646 
-19.5917 -5.27574 7.32799 -19.4192 -5.51957 9.40823 -19.2409 -5.76411 11.4775 
-19.0568 -6.00907 13.5363 -18.8671 -6.25417 15.5855 -18.6718 -6.4992 17.6259 
-18.4711 -6.74396 19.6584 -18.2652 -6.98828 21.6841 -18.054 -7.232 23.7038 
-17.8381 -7.47497 25.7184 -17.6174 -7.71703 27.7286 -17.3924 -7.95802 29.7348 
-17.1635 -8.19774 31.7372 -16.9309 -8.43601 33.7357 -16.6952 -8.67257 35.7299 
-16.4568 -8.90719 37.7193 -16.2163 -9.13956 39.7028 -15.9741 -9.36937 41.6793 
-15.731 -9.59628 43.6472 -15.4875 -9.81992 45.6048 -15.2443 -10.0399 47.5505 
-15.0019 -10.2559 49.4822 -14.7611 -10.4674 51.398 -14.5225 -10.674 53.2959 
-14.2866 -10.8755 55.1742 -14.054 -11.0714 57.031 -13.8252 -11.2613 58.8648 
-13.6007 -11.4449 60.6744 -13.3808 -11.622 62.4587 -13.166 -11.7923 64.2168 
-12.9565 -11.9556 65.9485 -12.7524 -12.1117 67.6535 -12.5539 -12.2606 69.332 
-12.361 -12.4021 70.9847 -12.1736 -12.5361 72.6123 -11.9917 -12.6628 74.2158 
-11.8151 -12.7821 75.7967 -11.6435 -12.8941 77.3565 -11.4766 -12.999 78.897 
-11.3142 -13.0968 80.4199 -11.1558 -13.1878 81.9272 -11.001 -13.272 83.421 
-10.8495 -13.3497 84.9031 -10.7007 -13.4211 86.3756 -10.5543 -13.4863 87.8403 
-10.4099 -13.5456 89.2989 -10.267 -13.5992 90.7529 -10.1252 -13.6473 92.2038 
-9.98434 -13.6902 93.6527 -9.84397 -13.7279 95.1004 -9.70389 -13.7608 96.5477 
-9.5639 -13.789 97.9949 -9.42383 -13.8127 99.4423 -9.28362 -13.8322 100.89 
-9.14321 -13.8476 102.337 -9.00263 -13.8592 103.783 -8.86195 -13.8672 105.228 
-8.72129 -13.8718 106.671 -8.58083 -13.8732 108.111 -8.44077 -13.8717 109.546 
-8.30134 -13.8673 110.977 -8.16282 -13.8604 112.402 -8.02548 -13.8512 113.821 
-7.88961 -13.8398 115.233 -7.75549 -13.8265 116.637 -7.6234 -13.8113 118.034 
-7.49359 -13.7945 119.424 -7.36629 -13.7761 120.807 -7.24168 -13.7563 122.183 
-7.11991 -13.7352 123.554 -7.00106 -13.7127 124.922 -6.88518 -13.689 126.286 
-6.77224 -13.6639 127.65 -6.66214 -13.6373 129.015 -6.55473 -13.6093 130.384 
-6.44979 -13.5796 131.758 -6.34701 -13.548 133.141 -6.24603 -13.5144 134.535 
-6.14642 -13.4783 135.942 -6.04767 -13.4396 137.366 -5.94921 -13.3979 138.809 
-5.85042 -13.3527 140.274 -5.75061 -13.3037 141.763 -5.64905 -13.2504 143.28 
-5.54497 -13.1923 144.826 -5.43754 -13.129 146.404 -5.32592 -13.0599 148.018 
-5.20926 -12.9846 149.668 -5.08668 -12.9025 151.357 -4.95732 -12.813 153.087 
-4.82033 -12.7158 154.86 -4.67491 -12.6103 156.678 -4.52029 -12.4961 158.542 
-4.35577 -12.3728 160.454 -4.18073 -12.2402 162.413 -3.99465 -12.0979 164.422 
-3.79712 -11.9458 166.48 -3.58787 -11.7838 168.587 -3.36676 -11.6119 170.742 
-3.13381 -11.4302 172.945 -2.88919 -11.2391 175.194 -2.63326 -11.0388 177.488 
-2.36655 -10.8298 179.822 -2.08975 -10.6128 182.195 -1.80375 -10.3885 184.603 
-1.50958 -10.1577 187.042 -1.20842 -9.92138 189.506 -0.901604 -9.68063 191.992 
-0.590564 -9.43656 194.493 -0.276834 -9.19039 197.005 
LINES 1 267
266 265 264 263 262 261 260 259 258 257 256 255 254 253 252 251 250 249 248 247 246 245 244 243 242 241 240 239 238 237 236 235 234 233 232 231 230 229 228 227 226 225 224 223 222 221 220 219 218 217 216 215 214 213 212 211 210 209 208 207 206 205 204 203 202 201 200 199 198 197 196 195 194 193 192 191 190 189 188 187 186 185 184 183 182 181 180 179 178 177 176 175 174 173 172 171 170 169 168 167 166 165 164 163 162 161 160 159 158 157 156 155 154 153 152 151 150 149 148 147 146 145 144 143 142 141 140 139 138 137 136 135 134 133 132 131 130 129 128 127 126 125 124 123 122 121 120 119 118 117 116 115 114 113 112 111 110 109 108 107 106 105 104 103 102 101 100 99 98 97 96 95 94 93 92 91 90 89 88 87 86 85 84 83 82 81 80 79 78 77 76 75 74 73 72 71 70 69 68 67 66 65 64 63 62 61 60 59 58 57 56 55 54 53 52 51 50 49 48 47 46 45 44 43 42 41 40 39 38 37 36 35 34 33 32 31 30 29 28 27 26 25 24 23 22 21 20 19 18 17 16 15 14 13 12 11 10 9 8 7 6 5 4 3 2 1 0 

CELL_DATA 1
FIELD FieldData 2
LengthArray 1 1 double
404.75593985 
TortuosityArray 1 1 double
0.0046237193876 
POINT_DATA 266
FIELD FieldData 8
RadiusArray 1 266 double
41.828016789 41.882308035 41.930315714 42.027675746 42.057470985 42.174533373 42.218485747 42.487827018 42.65705883 
42.946602059 43.088498735 43.092198216 43.39267083 43.66071142 43.743517413 43.946294163 44.317219233 44.521956119 
44.526755783 44.86469869 44.930779775 44.955985975 45.208885737 45.520754061 45.639037527 45.750576046 45.832026438 
46.041562715 46.144632735 46.146826471 46.553641393 46.613491201 46.667349405 46.73592783 46.865377555 46.903957406 
47.04451582 47.246218588 47.43288121 47.55445835 47.922083553 48.01709832 48.101472585 48.181194297 48.309265764 
48.432006376 49.013647436 49.189360853 49.297337511 49.614745696 50.131661809 50.135483776 50.469867769 50.60601285 
50.736528892 50.817834414 51.003833371 51.133800062 51.301452834 51.481770938 51.691783584 51.997742498 52.211082004 
52.528697571 52.592633744 52.615368751 52.764588536 52.865977278 53.39925473 53.643039105 53.980025624 54.689437234 
54.934573245 54.993514983 55.265981077 55.50350241 55.730521598 55.911401706 55.93976416 56.185000727 56.289434026 
56.463450748 56.536612449 56.871350118 56.878552031 57.181098088 57.210397193 57.616731601 57.972153178 58.393147442 
58.423791734 58.539118294 58.74205838 58.763869049 58.767455108 58.868193572 58.998302278 59.181509391 59.241331679 
59.566428153 59.730732929 59.774268631 59.891372988 59.948823042 60.10809049 60.21788679 60.33828155 60.486304817 
60.652403293 60.665459486 60.877201298 61.027787046 61.092794409 61.160341799 61.254916318 61.258642586 61.406019825 
61.561403956 61.607365998 61.677652637 61.751975221 61.799266957 61.80340005 61.756361248 61.594358739 61.492821418 
61.466524568 61.309487008 61.148254223 61.034441566 60.944860377 60.94005167 60.78801686 60.745648289 60.661431179 
60.592423786 60.429784345 60.422363233 59.983956896 59.929739273 59.649433326 59.521231014 59.488127157 58.923675106 
58.908853497 58.404525673 58.157860095 58.03756145 58.010752392 57.64364668 57.068096953 57.041611973 56.64890517 
56.630413279 56.297935739 56.18212958 56.162368525 56.08303154 56.076151413 55.856827553 55.803310441 55.759593982 
55.631593912 55.631200109 55.627996465 55.518709722 55.457547841 55.450130361 55.327172156 55.32862286 55.221347368 
55.18451514 55.15399392 55.143713659 55.247254786 55.256874074 55.2524256 55.30876904 55.323289568 55.432526461 
55.557981912 55.586714094 55.604686127 55.855570142 55.963653452 56.018703333 56.02151767 56.103476007 56.174880851 
56.223412177 56.26315849 56.524784091 56.697541441 56.908259999 56.936487864 57.15340195 57.173188453 57.19393062 
57.24570288 57.373682451 57.527505176 57.574531284 57.653153949 57.763472877 57.827227651 57.830552418 57.893901491 
58.022084554 58.437632129 58.455337062 58.583450689 58.672889474 59.000131258 59.06881522 59.153790037 59.247212699 
59.480752746 59.628116455 59.667287193 59.741261759 59.908236234 59.915483343 60.111588561 60.33681941 60.383395774 
60.476043508 60.571115001 60.593326001 60.61699261 60.623254579 60.676949837 60.927789282 61.021669906 61.030251798 
61.254058034 61.340406958 61.544432208 61.695593887 61.697183309 61.838946095 61.913398007 62.238350567 62.244122397 
62.420852356 62.469143389 62.499396705 62.86754902 63.005727506 63.083305229 63.20764064 63.267202032 63.396198808 
63.948615666 63.968499765 64.064301681 64.28763226 64.465476577 64.555330063 64.956345477 64.992354037 65.012619355 
65.933143338 65.988153791 66.486389625 66.562475838 67.259181352 
EdgeArray 2 266 int
3435 3435 4776 4776 4775 4779 4777 4790 4790 
4789 4789 4789 2553 2553 4301 4301 3366 3437 
2745 2741 5270 5272 5271 5272 5504 5504 5522 
5522 5503 5503 4943 4944 5513 4944 4022 4710 
4711 4022 3797 3601 3797 4956 4956 4956 4959 
4959 5524 5524 5154 5154 4913 4913 4926 4926 
6359 6359 4670 4670 5465 4939 5465 5465 5442 
6063 6063 6063 6062 6062 6064 6064 5770 5770 
4912 4912 6592 6592 5432 5161 5439 5439 5121 
5121 4599 4599 4862 4862 6878 6878 6879 6879 
6880 6880 6888 6888 6877 6877 7534 7534 7550 
7550 7555 7555 7557 7557 7118 7118 8017 8017 
8016 8016 8015 8014 6245 8014 8136 8136 6039 
6752 6752 6752 7975 7975 8669 8669 8668 8668 
8667 8667 8180 8617 8617 8617 8621 8621 9390 
8589 9390 9390 9392 9392 9161 9964 9964 9964 
9950 9950 8601 8601 9677 9677 10228 10228 10231 
10232 10232 10232 1257 8602 1257 1257 10213 9700 
9700 9700 4693 9657 9657 9657 10743 9927 9927 
9927 10217 11266 10217 10217 11532 11532 11990 11990 
9115 9115 12025 12025 12021 12023 12021 12021 12201 
12200 12200 12200 11761 11761 12413 12413 12405 12189 
12189 12189 10568 10568 12870 12870 12872 12872 12874 
12874 11956 12866 12140 12866 13287 12140 13287 13287 
13293 11091 13292 13293 13292 13292 13514 13514 13512 
13816 13816 13816 13819 13819 13536 13818 13536 13536 
13999 14040 13999 13999 13793 14037 14037 14037 13434 
14262 14270 14270 13925 13925 14679 14679 14944 14944 
15150 15150 14947 14947 14567 14567 15420 15420 15329 
15329 15840 15837 15844 15844 15413 15413 16558 16558 
16556 16556 16299 16299 16803 15905 17063 17063 15284 
15284 16251 16251 18184 18184 16966 16966 17562 17562 
18863 18863 18880 18880 18680 18680 19127 16917 19322 
16917 18830 18830 19781 19781 19723 19723 20210 20210 
20240 20206 20411 18806 18624 20112 19937 18624 20415 
20415 20414 20414 20853 19285 19287 19314 19287 20660 
20554 20473 20472 20473 20769 20769 20775 20775 21085 
21085 21233 21233 21464 21464 20139 20139 20780 20780 
19963 19963 21642 21748 21479 21479 22005 22005 21661 
21661 18424 18424 22176 22176 22652 22652 22809 22809 
22812 22813 22814 22482 22482 22542 22542 22542 22897 
22897 23309 21100 23309 22022 22875 23306 22875 22875 
23270 23270 23326 23325 23325 23325 20815 20815 23069 
23069 22894 22894 21327 21327 22964 22964 22508 22508 
22833 21649 21649 21649 24209 24209 24208 24210 24210 
24210 23620 23620 18236 22513 22513 24182 24182 24182 
22259 22259 21439 21439 17956 24375 23838 17956 23838 
23838 24863 24863 24198 24867 23820 23633 23820 24384 
24384 22195 24122 25353 25353 25353 24109 25355 24109 
24109 24550 24858 24550 24665 24665 24665 22891 22891 
25474 25474 24244 24244 21851 24970 24856 21851 24855 
24856 26089 26088 26088 26088 26307 26306 26306 26093 
26093 26093 25529 25529 23962 23962 25521 25677 25521 
26074 26141 27043 27043 27043 26474 26629 26474 26478 
25518 26478 25518 21549 17496 21549 17496 17496 25830 
26832 27417 27364 27417 27417 26475 22627 25022 27565 
27566 25996 17877 27566 27695 27695 22175 22175 26298 
26298 27634 28260 27629 27629 28285 27519 27519 27519 
28199 28199 28419 28419 29575 29575 29576 29731 34686 
34686 
EdgePCoordArray 1 266 double
0 0 0.128 0.908 0.192 0 0 0 0.948 
0.576 0.996 0.988 0 0 0 0.204 0.292 0.024 
0.968 0.22 0.564 0 0 0 0 0 0 
0 0 0.996 0 0.392 0 0 0 0 
0 0 0.852 0 0 0 0 0 0 
0 0 0 0 0 0 0 0 0 
0 0.12 0.996 0 0.056 0 0 0 0 
0 0.128 0 0 0.944 0 0 0.08 0 
0 0 0 0 0.176 0 0.952 0 0.12 
0 0.076 0 0.012 0 0.968 0 0 0 
0 0 0.192 0 0.016 0 0 0 0.04 
0 0 0 0 0 0.22 0.704 0.828 0 
0.58 0.984 0 0 0.184 0 0 0.984 0 
0.66 0 0.16 0 0.992 0 0 0 0 
0 0 0 0 0 0.98 0 0 0 
0 0 0.008 0 0 0 0 0 0 
0 0 0 0.844 0.92 0 0 0 0 
0.98 0.252 0.156 0.752 0 0 0.2 0.136 0.264 
0.86 0.688 0 0 0 0 0 0 0 
0 0.8 0 0 0 0 0 0 0 
0.88 0.656 0.04 0 0 0.936 0.924 0.6 0 
0 0.02 0 0 0 0 0 0 0 
0.084 0 0 0.12 0 0 0.988 0.032 0 
0 0 0.896 0.736 0 0 0.964 0.708 0.008 
0.156 0.716 0 0.848 0 0.984 0.112 0 0 
0 0 0.788 0.852 0.996 0.088 0 0.688 0.008 
0 0 0 0.012 0.012 0.632 0 0.088 0.12 
0.156 0.504 0.964 0 0.86 0.676 0 0.816 0.964 
0.164 0.82 0 0 0 0.016 0 0.24 0 
0 0 0 0.02 0 
CurvatureArray 1 266 double
0 1.5205703749e-05 5.9979709096e-05 0.00010411750628 0.00014866901978 0.00019160503172 0.00023458870901 0.00027732430566 0.00031946833704 
0.00036172226227 0.00040282811014 0.00044316571485 0.00048288352304 0.00051884066145 0.0005521748132 0.00058005949295 0.00060330129781 0.00061946236153 
0.0006268241376 0.0006248299088 0.00061449409123 0.00059131086757 0.00055772029256 0.00051154247166 0.00045497150108 0.00038782191101 0.00031306570147 
0.00023352296928 0.00016003131741 0.0001208258288 0.00015349667802 0.00022643447753 0.00031068411637 0.00039160943935 0.00046650910173 0.00053060979376 
0.00058528211152 0.00062598733378 0.00065660138975 0.00067571976748 0.00068350091865 0.00068328761754 0.00067374699213 0.00065840097299 0.00063560084455 
0.00060836563428 0.00057636653275 0.0005401044032 0.00050056260709 0.00045848606215 0.00041463325876 0.00037067992725 0.00032936017632 0.00029467567218 
0.00027272205759 0.00026717786162 0.00028635743657 0.00032163456914 0.00037127821116 0.00043061098627 0.00049331787952 0.00055903146757 0.00062461205025 
0.00068647311959 0.00074830742364 0.00080680537627 0.00086127691023 0.00091341102628 0.00096287435098 0.0010089127274 0.0010514645804 0.001092349818 
0.001130897991 0.0011649374118 0.0011950310433 0.0012209161979 0.0012385564998 0.0012493536445 0.0012494936161 0.0012401606679 0.0012199551215 
0.0011847260003 0.0011393895104 0.0010787331834 0.0010052091148 0.00092112614273 0.00082743366916 0.0007263290988 0.00062257359876 0.00052243971145 
0.00044019601828 0.0003957644437 0.00040932403144 0.00047966912365 0.0005887250062 0.0007209445737 0.0008636804363 0.0010118255318 0.0011632407116 
0.0013119955127 0.0014585745195 0.0016016450514 0.0017360257373 0.0018637054593 0.0019817900503 0.0020884712987 0.0021847235933 0.0022677553989 
0.0023366477167 0.0023920312642 0.0024335520709 0.0024592861946 0.0024710594795 0.0024724409736 0.0024613249206 0.0024401446221 0.0024140647711 
0.0023853887635 0.0023569639718 0.0023322817623 0.0023151715573 0.0023059049507 0.0023089776827 0.0023214166131 0.0023437898741 0.0023707514408 
0.0024028102646 0.0024355459349 0.0024647210417 0.0024891650993 0.0025068411193 0.002515552769 0.0025153559512 0.0025057662484 0.0024872310592 
0.0024596754814 0.0024242325056 0.0023820692121 0.0023347719048 0.0022829944221 0.0022278711251 0.002171235557 0.0021132607552 0.002056490042 
0.0020003790752 0.0019472332054 0.0018968965465 0.0018509694833 0.0018085481139 0.0017710440361 0.001738933821 0.0017104249772 0.001685884678 
0.0016647565516 0.0016463063198 0.0016279860852 0.0016095189163 0.001588810888 0.0015647725372 0.0015358396284 0.0015011101667 0.0014596025524 
0.0014112433639 0.0013574193028 0.0012954409481 0.0012295175203 0.0011579345035 0.001084866155 0.0010095760221 0.00093638886584 0.00086531836938 
0.00079987239678 0.00074378505115 0.00069970940559 0.00067103405672 0.00066252723011 0.00067512414424 0.0007105311595 0.00076700747242 0.00084204525677 
0.00093414470864 0.001040062018 0.0011574779707 0.0012854516218 0.0014211105089 0.0015626209438 0.0017077703062 0.0018546800787 0.0019998143611 
0.002140800448 0.0022731557893 0.0023969492376 0.0025051606614 0.0025969734781 0.0026706996535 0.0027243812849 0.0027566599209 0.0027674954043 
0.0027579941964 0.0027305114145 0.0026856623459 0.002626928457 0.0025572221084 0.0024772291364 0.0023909487947 0.0023003710754 0.0022054519648 
0.0021089500281 0.0020110265229 0.0019125303043 0.0018128913519 0.0017135767493 0.0016157319526 0.0015187012003 0.00142563717 0.0013389227019 
0.0012624393339 0.0012005173056 0.0011593376556 0.0011448426533 0.0011588627273 0.0012019422887 0.001269904733 0.0013551255726 0.0014484376043 
0.0015416206891 0.0016250407693 0.0016914873309 0.001735767488 0.0017515559743 0.0017407122321 0.0017023167789 0.0016426313093 0.0015697100797 
0.0014958673474 0.0014380468353 0.001409735852 0.001423513511 0.0014800800821 0.0015743457749 0.0016940304141 0.0018253693266 0.0019561620623 
0.0020761256957 0.002179048354 0.002259400511 0.0023136910749 0.0023406789448 0.0023409092218 0.0023141639146 0.0022635748803 0.002189580389 
0.0020966796849 0.0019855026205 0.0018611855006 0.001724606415 0.0015796042881 0.001427031028 0.0012699247023 0.0011094211617 0.000946531715 
0.00078214747591 0.00061682520842 0.00045007977022 0.00028232141345 0 
TorsionArray 1 266 double
0 0 -0.0059933300387 -0.017575973707 -0.018594301939 -0.025577214539 -0.034161987733 -0.035675582696 -0.038580001217 
-0.038275925972 -0.035970734678 -0.036191435069 -0.031416771148 -0.027168140901 -0.023084884206 -0.018886191302 -0.015616919336 -0.010433574948 
-0.005107257322 -0.0018061108634 0.0032743763329 0.010085877351 0.017450972976 0.02768561239 0.041457831975 0.064913820826 0.10869436356 
0.20434903935 0.44686374692 0.80963591109 0.50899096281 0.23896660017 0.13285458672 0.088403411511 0.067427676217 0.055801667142 
0.050195810598 0.047344132626 0.044583068012 0.044760400502 0.044214539502 0.044261228423 0.044542911265 0.045469582003 0.047377234372 
0.047764285306 0.051409421568 0.056004404977 0.061886325328 0.072609532549 0.087919704352 0.11111932739 0.14293483522 0.18268681372 
0.21636731861 0.22963025337 0.20235271479 0.15646280677 0.11296386839 0.07750960386 0.05145554793 0.032109401782 0.018134267823 
0.0069811446851 -0.0021454675134 -0.0089499470354 -0.014601922499 -0.019272806214 -0.022499102457 -0.024809580852 -0.026418856729 -0.02699188759 
-0.026659733852 -0.0255993175 -0.023894959319 -0.021526194918 -0.018684630036 -0.015432174601 -0.011794213205 -0.0077165387011 -0.0032686299206 
0.0017598606684 0.0075920169761 0.014487302111 0.023108612145 0.034373696052 0.049922347503 0.072701625991 0.1077186407 0.16285132016 
0.24054638001 0.30825045447 0.29925730405 0.22671946361 0.15787178205 0.11098700834 0.081679597127 0.064376074186 0.052596611137 
0.044690440941 0.039584869088 0.035368706369 0.032192827579 0.029723088243 0.027367771064 0.025241156462 0.02302628255 0.020553318232 
0.017852650063 0.014794364691 0.01121859178 0.0071468580635 0.0026679444245 -0.0023632280857 -0.0079341338987 -0.013765829916 -0.019672945974 
-0.025465391223 -0.030809872457 -0.035250962385 -0.03851524363 -0.040246333745 -0.040302265164 -0.038946818653 -0.036509076106 -0.033205903585 
-0.029191483683 -0.02533305083 -0.02155878478 -0.017873418586 -0.014607392753 -0.01166024391 -0.0089704779106 -0.0065639876885 -0.0044503892352 
-0.002555122475 -0.00077732475252 0.00096756629434 0.0026624835754 0.0042155549752 0.0058175909409 0.0074004226038 0.0090474929592 0.010713994951 
0.012382152094 0.014097751969 0.015795414594 0.017360970632 0.018817741279 0.020274420713 0.021399215316 0.02222099603 0.022906389572 
0.023342392825 0.02339878855 0.023252843269 0.022984161991 0.022617720711 0.022160840264 0.021675447792 0.021377185633 0.021281053523 
0.02137307256 0.021773644036 0.022632963627 0.024007315042 0.026113821159 0.028952836408 0.03296013286 0.038048129179 0.04483737161 
0.053082664374 0.062278870989 0.072024317359 0.080091772822 0.084207919815 0.083085407454 0.076576791486 0.067010155445 0.05631827882 
0.045934373284 0.036676679112 0.028963630438 0.022447059896 0.016868464037 0.012238513095 0.0083499894804 0.0046835117038 0.001600445927 
-0.0011641928231 -0.0038074463431 -0.006310739577 -0.0087684916746 -0.01105979309 -0.013328696387 -0.015407331764 -0.017600511931 -0.019544787012 
-0.021222505691 -0.022842932777 -0.024178588107 -0.024848799371 -0.025360082075 -0.025344485057 -0.024474493007 -0.02321807377 -0.020973313097 
-0.018168366406 -0.014447259343 -0.0099039292142 -0.004277048799 0.0025499873315 0.010673965355 0.02053157934 0.031583467562 0.044786995988 
0.059792807236 0.074150497957 0.086639302733 0.09394746996 0.09434748316 0.087575485706 0.075212495705 0.060547972175 0.045882260041 
0.031871052167 0.018821774158 0.0064198376958 -0.0055583351744 -0.017620873068 -0.030689679346 -0.045209103162 -0.061734372841 -0.080143611344 
-0.099531296816 -0.11666897549 -0.12717901487 -0.12664314311 -0.11565458607 -0.098419844806 -0.080202635996 -0.063689924861 -0.050080677024 
-0.039525534149 -0.031266488274 -0.024877438304 -0.019935470284 -0.016117215373 -0.01316227727 -0.010805847622 -0.0088719028836 -0.0073522495375 
-0.0061198187121 -0.0051211946286 -0.0042563327214 -0.0035503469251 -0.0029921130192 -0.0024904005307 -0.0020564521902 -0.0016838131292 -0.001402476092 
-0.0011390097105 -0.00088724542376 -0.00074340686537 0 0 
TangentArray 3 266 double
0.046966499218 -0.010471132691 -0.9988415807 0.046966499218 -0.010471132691 -0.9988415807 0.046977082221 -0.010435554257 -0.99884145536 
0.047000191663 -0.010357749946 -0.99884117807 0.047037815785 -0.010238128087 -0.99884064025 0.047091592027 -0.010077396384 -0.99883974092 
0.047164239173 -0.0098767797508 -0.99883831713 0.047260126675 -0.0096374773167 -0.99883612242 0.047382660252 -0.009360847378 -0.99883294802 
0.047535739966 -0.0090485829839 -0.99882855214 0.047722525646 -0.008702577609 -0.99882271985 0.047944836145 -0.0083248898855 -0.99881529268 
0.048205338938 -0.0079180337109 -0.99880606228 0.048503469988 -0.0074846045352 -0.998794971 0.048837312741 -0.0070277975839 -0.99878202174 
0.049203875739 -0.0065512271021 -0.99876727021 0.049598596092 -0.0060588661952 -0.99875085452 0.050016258093 -0.005555385339 -0.99873295311 
0.050448617944 -0.0050459163224 -0.99871391083 0.050886115825 -0.0045360773017 -0.998694161 0.051320288985 -0.004032067412 -0.99867410619 
0.05174055475 -0.0035406156093 -0.99865428404 0.052135172871 -0.0030688096489 -0.99863532191 0.052493084806 -0.0026240229217 -0.99861784009 
0.052803462159 -0.0022138055701 -0.99860247018 0.053056881255 -0.0018457141686 -0.99858978599 0.053244935121 -0.0015269878355 -0.99858031484 
0.053360730374 -0.0012644695952 -0.99857450076 0.053400158594 -0.0010642990343 -0.99857262647 0.053360946321 -0.00093152173882 -0.99857485532 
0.053242459246 -0.00087011608798 -0.99858123527 0.053048798757 -0.00088265753352 -0.99859153104 0.052785401432 -0.00097024392798 -0.99860540757 
0.052459615106 -0.0011324880826 -0.99862240424 0.05208094524 -0.0013673710825 -0.99864193054 0.051660277535 -0.0016715144549 -0.99866331752 
0.051208650704 -0.0020402248415 -0.99868589235 0.050738134435 -0.0024677234001 -0.99870894261 0.050260514119 -0.0029474664822 -0.99873179241 
0.049785447027 -0.0034722071679 -0.99875390014 0.049323592834 -0.0040342936236 -0.99877470316 0.048883009594 -0.0046258348383 -0.99879379905 
0.048470755248 -0.0052388700842 -0.99881086304 0.048092380056 -0.0058654968249 -0.99882566994 0.047752738514 -0.0064979187486 -0.99883805145 
0.047455905991 -0.007128463428 -0.99884789733 0.047203482256 -0.0077494247995 -0.99885523359 0.046998315273 -0.0083533993341 -0.99886003979 
0.046842218501 -0.0089330782837 -0.99886235622 0.046736187763 -0.0094813309599 -0.99886226934 0.046682093796 -0.0099913743759 -0.99885982728 
0.04668149158 -0.010456535364 -0.9988550942 0.046736455163 -0.010870583158 -0.99884810366 0.046848792853 -0.011228032926 -0.99883888685 
0.047020753421 -0.011524002334 -0.99882743561 0.047253465208 -0.011754591046 -0.99881376623 0.047550144299 -0.0119170452 -0.99879776122 
0.047913729142 -0.012010016845 -0.99877927194 0.048344729648 -0.012033783883 -0.99875821657 0.048846342136 -0.011989883679 -0.99873433782 
0.049420387518 -0.011881875624 -0.99870738774 0.05006858872 -0.011715056798 -0.99867707186 0.05079319385 -0.011496164825 -0.99864302413 
0.051593870253 -0.011233496183 -0.9986049675 0.052471466241 -0.010936531745 -0.9985625356 0.053427599019 -0.010615731963 -0.99851529678 
0.054461164035 -0.010282128357 -0.99846294846 0.055571309427 -0.0099469066409 -0.99840517257 0.05675738096 -0.0096211191973 -0.99834164181 
0.058016996716 -0.0093148658688 -0.99827213793 0.059346210417 -0.0090373975028 -0.99819655016 0.060741352078 -0.0087966797874 -0.99811477625 
0.062198576763 -0.0085986477259 -0.9980267533 0.063711529472 -0.0084474110501 -0.99793260407 0.065272417152 -0.0083449427625 -0.99783258791 
0.066873531654 -0.0082909496368 -0.99772701222 0.068504463629 -0.0082828254218 -0.99761642592 0.070153422229 -0.0083157256606 -0.99750155191 
0.071807528808 -0.0083828320684 -0.99738327985 0.073452747042 -0.0084755044456 -0.99726268344 0.07507546331 -0.00858363217 -0.99714091084 
0.076658876369 -0.0086960124597 -0.9970194562 0.078186993207 -0.0088007809827 -0.99689986475 0.079643743965 -0.0088857598251 -0.99678378665 
0.081010990871 -0.008938984705 -0.9966731229 0.082273118745 -0.0089492121031 -0.99656963908 0.083415431834 -0.0089061949862 -0.99647506011 
0.08442323297 -0.0088010196162 -0.99639111788 0.085282798135 -0.0086263993574 -0.99631944153 0.085981185156 -0.0083769376185 -0.99626154333 
0.086506957678 -0.0080491218757 -0.99621872995 0.086850446721 -0.007641392754 -0.99619205429 0.087004073401 -0.007154266156 -0.9961822663 
0.08696060271 -0.0065901326685 -0.99618995364 0.086713939146 -0.0059531603535 -0.99621546497 0.086259182558 -0.0052492111295 -0.9962589017 
0.085593181528 -0.0044856442335 -0.9963200722 0.084715624592 -0.0036711116227 -0.99639840721 0.083625193496 -0.0028153341679 -0.99649330199 
0.082323425363 -0.0019289236212 -0.99660379936 0.080814097213 -0.0010230568652 -0.99672866671 0.079100407416 -0.00010920752769 -0.99686664786 
0.07718960239 0.00080121384901 -0.99701610987 0.075090848516 0.0016972261398 -0.99717525235 0.072813675314 0.0025686996557 -0.99734225343 
0.070370811866 0.0034067978759 -0.99751508388 0.06777549843 0.0042044723963 -0.99769173808 0.065042260733 0.0049569576849 -0.99787019842 
0.062188018292 0.0056621790265 -0.99804839067 0.059229894278 0.0063211926042 -0.99822435462 0.056184765744 0.0069385983771 -0.99839627801 
0.053070998349 0.0075226970749 -0.99856240574 0.0499070686 0.0080855741319 -0.99872113625 0.046708119752 0.0086430150926 -0.99887118781 
0.043488868606 0.009214310507 -0.99901141875 0.040264788857 0.0098217558872 -0.99914077081 0.037047711942 0.01048998095 -0.99925843871 
0.033846413371 0.011245126086 -0.99936378133 0.030668574303 0.012113844111 -0.99945619881 0.02752023691 0.013122368402 -0.99953511194 
0.024404813777 0.01429539972 -0.99959994328 0.021324908824 0.015655047171 -0.99965002264 0.018280389486 0.017220019904 -0.9996845994 
0.015269438386 0.019004734981 -0.99970278798 0.012289770526 0.021018795674 -0.99970354194 0.009339683224 0.023266774167 -0.99968566437 
0.0064164800244 0.025747947292 -0.999647874 0.003515248059 0.02845644563 -0.99958885235 0.00063393291352 0.03138163211 -0.99950727426 
-0.0022293684916 0.034508433461 -0.99940192012 -0.0050776639262 0.037818062755 -0.99927174055 -0.0079124496814 0.041288586948 -0.99911593208 
-0.010734975268 0.044895588711 -0.99893400504 -0.01354686103 0.048613051815 -0.9987258151 -0.016349589249 0.052413959274 -0.99849159626 
-0.019143934712 0.056270900164 -0.99823198484 -0.021930391434 0.060156519735 -0.99794802022 -0.024710088043 0.064044348605 -0.99764108424 
-0.027485428964 0.067909113266 -0.99731284135 -0.030259275897 0.071726831535 -0.99696521397 -0.033033791438 0.075475319303 -0.99660034357 
-0.03581243244 0.079134409608 -0.99622046501 -0.038598676176 0.082685843549 -0.9958278935 -0.041397050839 0.086113554565 -0.9954249042 
-0.044212260643 0.089403511174 -0.99501371257 -0.047048905046 0.092543658634 -0.99459643664 -0.049912149897 0.095523973504 -0.99417500863 
-0.05280686121 0.098336194929 -0.99375119028 -0.055736575253 0.10097388069 -0.99332658758 -0.058703697191 0.10343203002 -0.99290265943 
-0.061711557232 0.1057071767 -0.99248056731 -0.064760374084 0.10779719709 -0.99206141859 -0.067847602106 0.10970124574 -0.99164627745 
-0.07097019267 0.11141945074 -0.9912360656 -0.074123405424 0.11295309377 -0.99083163019 -0.077298823118 0.11430475755 -0.99043390206 
-0.080485539644 0.11547788966 -0.99004390555 -0.083671051423 0.11647672153 -0.98966273472 -0.086840494453 0.1173062023 -0.98929165741 
-0.089977255934 0.11797243755 -0.98893204893 -0.093063229235 0.11848259916 -0.98858540808 -0.096079561953 0.11884387041 -0.98825343523 
-0.099007247268 0.11906375324 -0.98793794727 -0.10182925736 0.11915047094 -0.98764060651 -0.10452770795 0.11911212005 -0.98736328731 
-0.10708641519 0.1189565785 -0.9871078118 -0.10949155112 0.11869118474 -0.98687588019 -0.11173122658 0.11832244454 -0.98666910974 
-0.11379608711 0.11785621882 -0.9864889063 -0.11567881957 0.11729682378 -0.98633658851 -0.11737447484 0.11664776953 -0.98621322771 
-0.11887834486 0.11591090746 -0.98611997275 -0.12018895566 0.11508640055 -0.98605767344 -0.12130608132 0.11417347265 -0.98602700408 
-0.12222905497 0.11316994061 -0.9860287129 -0.12295893992 0.11207205961 -0.98606336133 -0.12349721463 0.11087491554 -0.98613142688 
-0.12384544982 0.1095725706 -0.98623331739 -0.12400615359 0.10815787942 -0.98636927517 -0.12398153057 0.10662378243 -0.98653938041 
-0.12377440066 0.10496215304 -0.98674355542 -0.12338849175 0.10316455773 -0.98698143556 -0.12282883605 0.10122352401 -0.98725218421 
-0.12210100506 0.09913147792 -0.98755470464 -0.12121201313 0.096881632524 -0.98788744154 -0.12017157747 0.094468924203 -0.98824815422 
-0.11899107446 0.091889935715 -0.98863409 -0.11768362536 0.08914306033 -0.98904200068 -0.11626612554 0.086228693856 -0.98946793804 
-0.11475732516 0.083150487197 -0.98990744658 -0.11317819056 0.079915832092 -0.99035557098 -0.11155170684 0.076533589204 -0.99080715905 
-0.10990276029 0.073016274079 -0.99125678157 -0.10825846663 0.06938070718 -0.99169875561 -0.10664494361 0.065644906683 -0.99212781547 
-0.10508809492 0.061828929345 -0.99253900468 -0.1036120433 0.057955498984 -0.99292784462 -0.10223995593 0.054048468074 -0.99329036767 
-0.10099105154 0.050132158622 -0.99362345694 -0.099879864107 0.04623011775 -0.99392494131 -0.098917710445 0.042364993993 -0.99419338855 
-0.098111294549 0.038558340148 -0.99442819162 -0.097460611333 0.034828982335 -0.99462976591 -0.096962897264 0.031194291652 -0.99479903132 
-0.096610661183 0.027669075331 -0.9949375872 -0.09639107796 0.024264612053 -0.99504773187 -0.09628920378 0.020990496916 -0.99513204565 
-0.096285809119 0.017854033426 -0.99519358743 -0.096360283142 0.014859640727 -0.99523559367 -0.096489771774 0.012010026545 -0.99526151498 
-0.096650466175 0.0093068705308 -0.99527487135 -0.096817319773 0.0067504214541 -0.99527927659 -0.096964880763 0.0043387528384 -0.99527834656 
-0.097067725879 0.002069950962 -0.99527562609 -0.097100354912 -5.8427970544e-05 -0.9952745941 -0.097039736339 -0.0020502961712 -0.99527839616 
-0.096862650987 -0.0039100672117 -0.99529007742 -0.096546501648 -0.0056423345203 -0.99531248213 -0.096072990723 -0.0072527089673 -0.99534786817 
-0.095425689252 -0.0087483449947 -0.99539811347 -0.094591928286 -0.010137378902 -0.99546451501 -0.093563256085 -0.011428509543 -0.99554774184 
-0.092335740419 -0.012632460866 -0.99564779514 -0.090912425371 -0.01376202159 -0.99576379613 -0.089303072725 -0.0148314484 -0.99589406532 
-0.087523962478 -0.015856494146 -0.99603620797 -0.085598831288 -0.016854724463 -0.99618711011 -0.083559313811 -0.017845270597 -0.9963430069 
-0.081443362391 -0.018849241345 -0.99649971642 -0.079295866399 -0.019887897074 -0.99665271641 -0.077165664143 -0.020982517689 -0.99679746901 
-0.075104529884 -0.022154717391 -0.99692952514 -0.073166280004 -0.023424524274 -0.99704462645 -0.071403835947 -0.02481053814 -0.99713887168 
-0.069867802222 -0.026328361003 -0.99720875829 -0.068603651966 -0.027991707253 -0.99725122375 -0.067650944595 -0.029811016686 -0.9972635825 
-0.067042696754 -0.031793251321 -0.99724343366 -0.06680335142 -0.033941111523 -0.9971887049 -0.066948562381 -0.036252957393 -0.99709759456 
-0.067484870562 -0.038724396361 -0.99696851173 -0.068410926001 -0.041346785104 -0.99680007452 -0.069716509943 -0.044108140667 -0.99659123023 
-0.071383131276 -0.046992815846 -0.99634136912 -0.073386295955 -0.049982301583 -0.99605031052 -0.075695016538 -0.053056045066 -0.99571849463 
-0.078272432735 -0.056190855272 -0.99534718267 -0.081077280855 -0.059361847809 -0.99493851345 -0.08406588876 -0.062543579308 -0.99449546356 
-0.087192593339 -0.065709519074 -0.99402198707 -0.090410882875 -0.068833613838 -0.99352292669 -0.093673770335 -0.071890361363 -0.99300402854 
-0.096935657733 -0.074855091913 -0.99247175954 -0.10015256287 -0.077704235041 -0.99193322155 -0.10328316992 -0.080415990998 -0.99139591244 
-0.10628929116 -0.08297103812 -0.99086749539 -0.1091358243 -0.08535156074 -0.99035573555 -0.11179134919 -0.087541537538 -0.98986826065 
-0.11422765813 -0.089527042341 -0.98941242705 -0.11642076705 -0.091296588235 -0.98899501413 -0.11834959476 -0.092840045028 -0.98862232397 
-0.11999634996 -0.094148544338 -0.98830001902 -0.12134608656 -0.095214969052 -0.9880330141 -0.12238595146 -0.09603282591 -0.98782557936 
-0.12310519314 -0.096596529049 -0.98768123501 -0.12310519314 -0.096596529049 -0.98768123501 
NormalArray 3 266 double
-0.31807168158 -0.94805339077 -0.0050173327065 -0.31807168158 -0.94805339077 -0.0050173327065 -0.27671471315 -0.96094751096 -0.0029746762381 
-0.28930701519 -0.95722926035 -0.0036870164398 -0.30746591204 -0.95154736005 -0.0047259402426 -0.3247990764 -0.94576543277 -0.0057711484715 
-0.35306452053 -0.93556955092 -0.0074202250423 -0.38757241592 -0.92179088397 -0.0094439743674 -0.4197552818 -0.90756563793 -0.011406850872 
-0.45770072615 -0.88900031437 -0.013729032429 -0.49012039946 -0.87151109829 -0.015824019667 -0.52230449433 -0.8525697946 -0.017965537643 
-0.55416077506 -0.83216577402 -0.020148447328 -0.57790448998 -0.81580914567 -0.021950815623 -0.60090314507 -0.79896861735 -0.023760444809 
-0.61753154775 -0.78614020467 -0.025265908563 -0.63262791241 -0.77399476506 -0.026721304384 -0.64361296205 -0.76483959754 -0.027977582244 
-0.64990229259 -0.75946460597 -0.028991763602 -0.65196469826 -0.75766437307 -0.029778012274 -0.65278022024 -0.75693354225 -0.030489288036 
-0.6463015376 -0.76246101584 -0.030781842333 -0.63587443467 -0.77117663715 -0.030826898064 -0.61637487667 -0.78686844253 -0.030332582323 
-0.58787182978 -0.8084235505 -0.029292913078 -0.54149499772 -0.84026327622 -0.027217532505 -0.46505304902 -0.88497234782 -0.023443660029 
-0.3173175169 -0.94818845609 -0.015755798868 -0.0050840421333 -0.99998676101 0.00079392952186 0.62960465705 -0.77615513705 0.03436828547 
0.9864481952 -0.1553686174 0.052730929348 0.97583713812 0.2123061825 0.051652345032 0.92042134139 0.38793557065 0.048275742846 
0.87082349621 0.48951426576 0.045190951226 0.82949166666 0.55689997797 0.042496934932 0.7915806556 0.60975885918 0.039927425903 
0.75775450371 0.6514599594 0.037523771183 0.7223866699 0.69060332553 0.034993512618 0.68849377594 0.72451323885 0.032509801837 
0.65351937225 0.75631713481 0.029946981241 0.61580285677 0.78742958729 0.027230252353 0.57844567915 0.81535187214 0.024534075613 
0.5370652229 0.84326310199 0.021639943991 0.49615195236 0.86803232089 0.018791755159 0.44927291392 0.89325716654 0.015667904789 
0.40161635136 0.91572206944 0.012545830617 0.3503321215 0.93657947254 0.0092895782868 0.29128626427 0.95661892105 0.0057054478083 
0.22662338445 0.97398057806 0.0019170782937 0.15021349382 0.98865077532 -0.002355999646 0.056633299911 0.99836806764 -0.0073396766093 
-0.059534141511 0.99813857607 -0.013231362508 -0.21049458154 0.97738035195 -0.020486062786 -0.39491767108 0.91826357184 -0.02884520233 
-0.60816855704 0.79290844665 -0.037778320062 -0.79872921121 0.60001685425 -0.044848876988 -0.93152360335 0.36041252123 -0.048647620119 
-0.9881659138 0.14530048078 -0.049151776116 -0.99858810659 -0.022619669144 -0.048063956858 -0.98880586982 -0.14172458313 -0.046659343524 
-0.97408892114 -0.22152755966 -0.04556658898 -0.96102361659 -0.27278255706 -0.04498093961 -0.95190423668 -0.30308397555 -0.044926917825 
-0.94671541765 -0.31886591998 -0.045325964523 -0.9458160296 -0.32140235326 -0.046179708515 -0.94811578453 -0.31437363049 -0.047388601772 
-0.95276081904 -0.29976228952 -0.048881402149 -0.95915021658 -0.27833279628 -0.050613402776 -0.96644663961 -0.25144073643 -0.052520937332 
-0.97372173714 -0.22111714185 -0.054526949355 -0.98060439924 -0.18764672739 -0.056601394724 -0.98655468797 -0.15252839789 -0.058693572689 
-0.99127820484 -0.11693787585 -0.060770501108 -0.99463997307 -0.082138466238 -0.062806021485 -0.99669354963 -0.049035769867 -0.064787818352 
-0.99759983925 -0.018553316014 -0.066710832726 -0.99761048214 0.0084222833407 -0.068573982459 -0.99702947403 0.031284799879 -0.070381028827 
-0.99616121607 0.049590118318 -0.072136341473 -0.9953003703 0.062647684958 -0.073840642276 -0.99468466913 0.070022640602 -0.075493303057 
-0.99448088225 0.071174145757 -0.077084471907 -0.99477995614 0.065081648614 -0.078595279003 -0.99551037902 0.050598385794 -0.079993053572 
-0.99635638921 0.026028258005 -0.081218689148 -0.9965510871 -0.011594753839 -0.082167466078 -0.9943623689 -0.066432769377 -0.08264482123 
-0.98591751418 -0.1456078503 -0.082249675826 -0.96239217527 -0.25957713747 -0.080131209159 -0.90293746329 -0.42328875383 -0.074367790493 
-0.76369125922 -0.64268162832 -0.061122706145 -0.48688959568 -0.87273145026 -0.035753843805 -0.10795312983 -0.99415335024 -0.0022886618656 
0.23312125429 -0.97207884665 0.026780528396 0.46057242211 -0.88646097409 0.045387062236 0.60500716977 -0.79420802319 0.056568016009 
0.69676456587 -0.71452125327 0.063075497385 0.75959908157 -0.64693491277 0.066966065411 0.80583633598 -0.5880706918 0.069286802928 
0.84045647669 -0.5372779573 0.070464937238 0.86806850838 -0.49135743905 0.070886753622 0.89071726198 -0.44902169937 0.070726746668 
0.90919425742 -0.41043552681 0.07006054958 0.92482956001 -0.37407007128 0.069006280218 0.93797982478 -0.34003462973 0.067603985838 
0.94900073693 -0.30831056554 0.065895344944 0.95825761934 -0.27866875828 0.063922282043 0.96584620496 -0.25166173843 0.061704763005 
0.97195233319 -0.22758653529 0.059270827268 0.97672481796 -0.20688177898 0.056644148055 0.98027938875 -0.1901398529 0.053843814255 
0.98267411536 -0.17822010702 0.050883950952 0.98398639127 -0.17172013044 0.047780525267 0.98421883105 -0.17125823434 0.044541102058 
0.98319893667 -0.17783611482 0.041160262453 0.98065734838 -0.19208075995 0.037631725015 0.97619248497 -0.21423367353 0.033943562061 
0.96919858872 -0.24443737858 0.030074300762 0.95896523187 -0.28232865268 0.02600415227 0.94477084426 -0.32701120146 0.021719253024 
0.92616735331 -0.37671919371 0.017224481097 0.9028647735 -0.42974200782 0.01253026288 0.87552320194 -0.48311490999 0.0076880815954 
0.84481077105 -0.53505821882 0.0027319583391 0.81226873357 -0.58327893468 -0.0022778997101 0.7787676792 -0.6272696945 -0.0073234009006 
0.74636560066 -0.66542159831 -0.012348548518 0.71589757918 -0.6979896372 -0.017352881182 0.68780474855 -0.72555177221 -0.022343986181 
0.66293252045 -0.74818078305 -0.02731280288 0.64149039695 -0.76645217927 -0.032266507651 0.62327209083 -0.78111899496 -0.0372158099 
0.60851816875 -0.79241953558 -0.042153504471 0.59696939326 -0.80088138025 -0.047080338502 0.58864064271 -0.80672154923 -0.051985918904 
0.58307800587 -0.81042351485 -0.056866208289 0.58041592031 -0.81197926133 -0.061701204409 0.58040644336 -0.81160894471 -0.066477675739 
0.58339996744 -0.80906085888 -0.071168845847 0.58900573752 -0.80456967018 -0.075762041894 0.59721970263 -0.79805452963 -0.080234621692 
0.60820925453 -0.78925999154 -0.084558668742 0.62167081902 -0.77823841077 -0.088715098949 0.63797239074 -0.76446351396 -0.092664796336 
0.65657752614 -0.74807415871 -0.096389860676 0.67768620771 -0.72854116135 -0.099845781581 0.70083185652 -0.70585022839 -0.10300565021 
0.72587032918 -0.6796419666 -0.10582562282 0.75195050089 -0.65026376535 -0.10829348865 0.77890442604 -0.6173557154 -0.11036220259 
0.80618350732 -0.58096723547 -0.11200546341 0.83276405467 -0.54192176247 -0.1132467775 0.85825132536 -0.50039099879 -0.11407677609 
0.8822187789 -0.45670521006 -0.11450055573 0.90414919095 -0.41157125296 -0.11455716583 0.92361523231 -0.36588002949 -0.11430969629 
0.94061391421 -0.31984531792 -0.11377362174 0.95507372313 -0.27398325919 -0.11299273021 0.96708930676 -0.22846922847 -0.11198251828 
0.97671150865 -0.18374278062 -0.11078456322 0.98413085802 -0.13971584727 -0.10938892227 0.98954425693 -0.09589059109 -0.10773652175 
0.99302018903 -0.052129294582 -0.10579905869 0.99459669199 -0.0079700011711 -0.10350796762 0.99420956022 0.037398116175 -0.1007409116 
0.99164120467 0.084648715309 -0.097377185215 0.98642209999 0.13523930197 -0.093176026149 0.9778238066 0.19007341926 -0.087935763692 
0.96459368063 0.2508985567 -0.081295421364 0.94483359634 0.31935050222 -0.072833590859 0.91590777911 0.39655534958 -0.062103098827 
0.87334822104 0.48469464355 -0.048311357993 0.81296098423 0.5814804504 -0.031223771683 0.72894829926 0.68448943093 -0.010420938071 
0.61818591877 0.78591474788 0.013571252557 0.48336652474 0.87454342506 0.03912288896 0.33328262039 0.94065070586 0.064022999919 
0.18295636372 0.97936678863 0.08583508784 0.045242737887 0.99362434031 0.1032655074 -0.072777307646 0.99055544852 0.1162039883 
-0.16861588043 0.97770436498 0.12515134662 -0.24426797219 0.96082288161 0.13096773623 -0.30232558943 0.94368628872 0.13437048212 
-0.34691854744 0.92797607331 0.13604384882 -0.37992685336 0.91491343588 0.13634144981 -0.40385298025 0.90471946525 0.13559299222 
-0.42046175698 0.89735864298 0.13401259939 -0.43118939979 0.89258954209 0.13175587598 -0.43603299721 0.89065821988 0.12885325261 
-0.4370635475 0.8906348203 0.12547937011 -0.4336766263 0.89282499085 0.12160641232 -0.42695418784 0.89662934867 0.11732831114 
-0.41643821786 0.90216121108 0.11262486367 -0.40277267605 0.90895813399 0.10756059725 -0.38585760618 0.91688644951 0.10214277484 
-0.36584066201 0.9256716661 0.096398011368 -0.34307706228 0.93494979434 0.090371518713 -0.31683894384 0.94475064405 0.084019665745 
-0.2884863608 0.95434465687 0.077471901567 -0.2573416991 0.96373166624 0.070686104579 -0.22416501685 0.97246436612 0.063742464985 
-0.18897010684 0.98034706016 0.056656335467 -0.15366364481 0.98687683358 0.0496145101 -0.11666899975 0.99226168289 0.042486435186 
-0.081318180552 0.99605233811 0.035596253294 -0.046625503729 0.99849529543 0.028865332411 -0.014861700382 0.9996358442 0.022523517858 
0.013336104584 0.99977250527 0.016645901176 0.036950112088 0.99925274434 0.011342051657 0.054273978248 0.99850301326 0.0067873255604 
0.064696819544 0.99790030896 0.0030487569781 0.065594274022 0.9978463015 0.00038704842678 0.056269865099 0.9984149569 -0.0011296588896 
0.03355400051 0.99943619293 -0.0011938668882 -0.0041799675919 0.99999120296 0.00034909851231 -0.058499644138 0.99828076676 0.0036472396299 
-0.13341565365 0.9910184759 0.0090908623043 -0.22799437263 0.97352098492 0.016596926403 -0.3375725328 0.9409478803 0.025726866457 
-0.45610771071 0.88919974324 0.035910623158 -0.56995379248 0.82039908648 0.045804075571 -0.67081824145 0.73961255443 0.054554158975 
-0.7505243746 0.65799774055 0.061254686065 -0.80950693187 0.58340642198 0.065844316706 -0.85017917122 0.52202325906 0.068462353277 
-0.87724986427 0.47497264195 0.069524564202 -0.89332375321 0.44404672617 0.069247216028 -0.90126386971 0.42791372459 0.067921141454 
-0.90162229921 0.42752024717 0.065602346151 -0.89513975057 0.44139511534 0.062411370001 -0.88026118854 0.4709026529 0.058231704828 
-0.85481374049 0.51622893088 0.052925985955 -0.81448023976 0.57835042869 0.046181388879 -0.75343401234 0.65644649887 0.037618920276 
-0.66434893043 0.74694101379 0.026825744154 -0.54100216278 0.84091101164 0.013613609992 -0.38376790276 0.92342824883 -0.0015703709984 
-0.20401010181 0.97881252659 -0.017490458874 -0.023165925051 0.99920459918 -0.032457801762 0.13991560681 0.98912401816 -0.045357465372 
0.27497784716 0.95982443316 -0.055894910977 0.38237964863 0.92175297558 -0.064476788967 0.46490093952 0.88246447174 -0.071579134817 
0.52873655738 0.84521780478 -0.077746481413 0.57806571842 0.81172488535 -0.083323080208 0.61660719599 0.78227431979 -0.088557633446 
0.6469105247 0.75680021301 -0.093595996845 0.67109289144 0.73479695579 -0.098527989995 0.69055229643 0.71585430766 -0.10339311436 
0.7065084597 0.69938358985 -0.10820531694 0.71948822399 0.68525834709 -0.11294995916 0.73020309689 0.67303176641 -0.11760815741 
0.73907924202 0.66245084501 -0.1221505299 0.74650126269 0.6532399236 -0.12654432827 0.75269803238 0.64525104865 -0.13075456502 
0.75780524223 0.63841555207 -0.13474716222 0.76211702642 0.63245389205 -0.13849083895 0.7657384974 0.62729043175 -0.14195516132 
0.76869224857 0.62294032243 -0.14511230714 0.77115752217 0.61921729269 -0.14793924576 0.77309279581 0.61620042046 -0.15041466318 
0.77486582399 0.61344952276 -0.1525209423 0.77599748635 0.61158584438 -0.15424219962 0.77727451055 0.60962587844 -0.15556549616 
0.7777110844 0.60883472411 -0.15647922517 0.7777110844 0.60883472411 -0.15647922517 
BinormalArray 3 266 double
-0.94690261027 0.31793886776 -0.047857319619 -0.94690261027 0.31793886776 -0.047857319619 -0.95980316798 0.27653386842 -0.048030181636 
-0.95608181289 0.28914505036 -0.047986528423 -0.95039578956 0.30733174634 -0.047906584823 -0.94460994169 0.32469399789 -0.047810728951 
-0.93440942787 0.35300434079 -0.04761256657 -0.92062701614 0.3875676525 -0.047299174311 -0.90639968386 0.4198058925 -0.046932139408 
-0.88783466857 0.45781717333 -0.046400830776 -0.87034737581 0.49029855263 -0.045856021553 -0.8514101878 0.52254707113 -0.045224446507 
-0.83101268383 0.55447040434 -0.044502696888 -0.81466177881 0.57827278904 -0.043894960979 -0.79782850735 0.60133165437 -0.043242505907 
-0.78500558352 0.61801347883 -0.042726734356 -0.77286603219 0.6331630073 -0.042222061602 -0.76371508366 0.64419680822 -0.041829932724 
-0.75834157675 0.65052905469 -0.041593292335 -0.75653991001 0.65262862471 -0.041511959313 -0.75580699388 0.65347942206 -0.041478101984 
-0.76132597322 0.6470244689 -0.041738461247 -0.7700296274 0.63661383642 -0.042156804893 -0.78570127113 0.61711519885 -0.04292253369 
-0.80722890566 0.58859702859 -0.043988996289 -0.8390280894 0.54217545128 -0.045581193859 -0.88368016753 0.46564107626 -0.047830425592 
-0.94681689144 0.31770592195 -0.050997266901 -0.99856025135 0.0050343893438 -0.053404862571 -0.77508101849 -0.63054130356 -0.04082988218 
-0.15519406791 -0.98785618165 -0.0074138828353 0.2119615645 -0.97720279665 0.012123917951 0.38734771939 -0.92168598321 0.021370368044 
0.48878873477 -0.87199455336 0.026665927202 0.55608556004 -0.83057843991 0.030138100175 0.60887706593 -0.79258522551 0.032823450403 
0.65052731395 -0.75868027441 0.034906375071 0.68962536269 -0.7232295328 0.036822574861 0.72349858411 -0.68925458226 0.038443720198 
0.75527070601 -0.6541959457 0.039922741299 0.78635489747 -0.61639140936 0.041323185888 0.81425490336 -0.57894725688 0.042532647563 
0.84214697781 -0.53747548322 0.043687214356 0.86690274146 -0.49647304644 0.044655917978 0.8921174389 -0.44949906727 0.04557481479 
0.9145776311 -0.40174902185 0.046319327914 0.93543531894 -0.3503695735 0.046924684944 0.95548075366 -0.29122235596 0.047392708133 
0.9728554097 -0.22645536797 0.047647855488 0.98754829504 -0.14993248088 0.047629992117 0.99730308907 -0.056226096695 0.047171756279 
0.99713415564 0.060083640265 0.045972076678 0.97647720655 0.21120955955 0.043391094143 0.91752123882 0.39581048988 0.038585391248 
0.79241406788 0.60923180532 0.030274616685 0.59983227421 0.7999009965 0.018964140312 0.3605589552 0.9327168909 0.006036658505 
0.14571342207 0.98931467682 -0.00490600139 -0.022013189144 0.99967171542 -0.013110335253 -0.14098576758 0.98983351389 -0.018778394836 
-0.22069979388 0.97508172034 -0.022521981252 -0.27189473108 0.96200438357 -0.024916283912 -0.30215621066 0.95289450725 -0.026337851126 
-0.31791192261 0.94773326081 -0.027086450934 -0.32043530297 0.94687956974 -0.027208399761 -0.31340381426 0.94923997318 -0.026861171311 
-0.29879893459 0.95395851462 -0.026121812256 -0.27738545671 0.96043319058 -0.025007895605 -0.25051844742 0.96782487576 -0.023569415984 
-0.22022717071 0.97520277012 -0.021898639868 -0.18679678663 0.98219500668 -0.019998233917 -0.15172453917 0.98825993861 -0.017943186801 
-0.11618458444 0.99310200707 -0.015797021529 -0.081438105227 0.99658512612 -0.013635300012 -0.04838883851 0.99876216148 -0.01151803385 
-0.017958048399 0.99979349599 -0.0095117757906 0.0089701945296 0.99993022754 -0.0076860694598 0.031791905757 0.99947591767 -0.0060962878063 
0.050065061693 0.99873447337 -0.0047897083377 0.063102035104 0.99799971613 -0.0038340281572 0.070470446374 0.99750847167 -0.0032810251395 
0.071632335627 0.99742599743 -0.0031918881027 0.065571586538 0.99784113228 -0.0036663021019 0.051146449652 0.99867955152 -0.0048160212481 
0.02666767781 0.99962124044 -0.0067978395522 -0.010819645567 0.99989273089 -0.0098722836094 -0.065462546966 0.99775115477 -0.01439750329 
-0.14435848772 0.98930323763 -0.02096976485 -0.25793050483 0.96568384834 -0.030439443858 -0.42108333282 0.90595610148 -0.043958719521 
-0.63975949142 0.76609107569 -0.061743476443 -0.86913492711 0.48814078384 -0.079517630951 -0.99034156379 0.10774011643 -0.087267716479 
-0.96855166841 -0.23456190239 -0.082996262393 -0.88337632793 -0.46276506059 -0.074126661479 -0.79153375036 -0.60762328929 -0.065331924492 
-0.71217480089 -0.69959935507 -0.05803270938 -0.64485075655 -0.76253638705 -0.052016922189 -0.58620357097 -0.80880463361 -0.04690882682 
-0.53558917504 -0.84340303287 -0.042609385467 -0.48982256629 -0.87095741597 -0.038820524399 -0.44762248017 -0.89352084562 -0.035420526329 
-0.40915469881 -0.91188926761 -0.032409814152 -0.37289629846 -0.92739889001 -0.029658883961 -0.33895724952 -0.94040940678 -0.027168559578 
-0.30731994752 -0.95127965862 -0.024929118499 -0.27775675833 -0.96037807429 -0.022915881699 -0.25081988097 -0.96780256147 -0.021156307176 
-0.22680677325 -0.97374139723 -0.019656523735 -0.20615637174 -0.97834552794 -0.018427651593 -0.18946132084 -0.98173249523 -0.01748472807 
-0.17758111427 -0.98396189077 -0.016850678699 -0.17111419081 -0.9851125927 -0.016526143241 -0.17067994654 -0.98518826397 -0.016505768329 
-0.17728104593 -0.98401697788 -0.016793391723 -0.19154610894 -0.98132997242 -0.017365868328 -0.21371873882 -0.97672610973 -0.018177107996 
-0.24394367366 -0.96959987371 -0.019172088892 -0.28186011177 -0.95924125571 -0.020275372589 -0.32657416982 -0.94492935057 -0.021397056811 
-0.37632225382 -0.9262171941 -0.022433694292 -0.42939544599 -0.90281599798 -0.023298599753 -0.48283014634 -0.87538760253 -0.023908055685 
-0.53484727294 -0.8446013986 -0.024225443318 -0.58315389564 -0.81199993509 -0.024241274803 -0.62724291319 -0.77845448652 -0.023977911963 
-0.66550523584 -0.74602355171 -0.02348704654 -0.69819646171 -0.71554223989 -0.022825507256 -0.72589546493 -0.68745168485 -0.022044386731 
-0.74867583322 -0.66259692415 -0.021208792108 -0.76711426003 -0.64118706399 -0.020368137507 -0.78196502091 -0.62301554419 -0.019553459172 
-0.79346732674 -0.60832200827 -0.018813177311 -0.80214962823 -0.59684653468 -0.018171075287 -0.80822947526 -0.58860268338 -0.017663420706 
-0.81219058652 -0.58313575809 -0.017295629399 -0.81402482602 -0.58057805015 -0.017108778728 -0.81395194702 -0.58067998268 -0.017116824111 
-0.81171979722 -0.58378838543 -0.017380789704 -0.8075621446 -0.58951073566 -0.01790181968 -0.80139715211 -0.59783981459 -0.018712580862 
-0.79296845611 -0.60893875798 -0.019864960151 -0.78232700003 -0.62250142754 -0.021364403676 -0.76894571514 -0.63888965522 -0.023291535329 
-0.75296163792 -0.65756525551 -0.025626286509 -0.73384453695 -0.67872192205 -0.028438497145 -0.7115781659 -0.70189075045 -0.031715741289 
-0.68580150234 -0.72692282259 -0.035489567181 -0.65685910086 -0.75296833326 -0.039683884874 -0.62438911829 -0.77985494538 -0.044322603003 
-0.58843847276 -0.80703349627 -0.04936698966 -0.54982735763 -0.8334869931 -0.054674574867 -0.50872523567 -0.85882156762 -0.06020091017 
-0.46546026459 -0.8826131979 -0.065883875023 -0.4207374018 -0.90435098405 -0.0716193855 -0.37544612742 -0.92361584353 -0.077291519516 
-0.32979924546 -0.94040620457 -0.08287718678 -0.28431204433 -0.95465509323 -0.088319388723 -0.23915894565 -0.9664580004 -0.093605193095 
-0.19477864948 -0.97586940445 -0.098692366256 -0.15108173171 -0.98307749222 -0.10359997405 -0.10756803128 -0.98827178904 -0.10838814345 
-0.064097341299 -0.99151720071 -0.11307153279 -0.020204519878 -0.99284421958 -0.11769508495 0.024926063369 -0.99217623624 -0.12233154786 
0.071973751363 -0.98928455331 -0.12702697228 0.12240523223 -0.9836781658 -0.13188716864 0.17713479685 -0.97461371548 -0.1369356394 
0.23792747182 -0.96081206587 -0.14223463791 0.30644393603 -0.94034924994 -0.14776806898 0.38384394332 -0.91056968573 -0.15338407543 
0.47236725534 -0.86696929821 -0.15885028182 0.56977982858 -0.80537916922 -0.16344828154 0.67373526822 -0.72002683081 -0.16625928928 
0.77647036515 -0.60789026444 -0.16602168063 0.86673981209 -0.47181951119 -0.16170481443 0.93470376747 -0.32075380384 -0.1531204245 
0.97528932811 -0.16980737647 -0.14133711956 0.99124949863 -0.031820488204 -0.12810889115 0.98961206721 0.086204828321 -0.11505078881 
0.97787963605 0.18187116628 -0.10331648595 0.96182557559 0.25724786529 -0.093354688878 0.94525780346 0.31497616843 -0.085309426877 
0.92991336479 0.35921213432 -0.078916262895 0.91704047564 0.39185118874 -0.074090565614 0.90689666573 0.41540138608 -0.070570008726 
0.89947375455 0.43162912968 -0.068141465281 0.8945536685 0.44196993579 -0.066605630588 0.89238859999 0.44642193911 -0.06595482458 
0.89207971155 0.44705213718 -0.065864822765 0.89393248122 0.44325725656 -0.066390688504 0.89736633444 0.43611743927 -0.067344197825 
0.90249686647 0.42517499096 -0.068743240276 0.90887528068 0.41107350696 -0.07045776072 0.91637370311 0.39371307437 -0.072451717153 
0.92472541996 0.37324140991 -0.07465753547 0.93357521058 0.3500143457 -0.076988856244 0.94295284881 0.32330323794 -0.079466604675 
0.95214307073 0.2944707839 -0.081917826429 0.96114476675 0.2628384517 -0.084360450809 0.96951809255 0.22916863639 -0.086697198994 
0.97706932845 0.19347582803 -0.088896745523 0.98330509686 0.15767389555 -0.09082967114 0.9884262952 0.12018181579 -0.092573160812 
0.99199482542 0.08434549192 -0.093979276095 0.99425088508 0.04917696224 -0.095114688105 0.99524244237 0.016958125904 -0.095942185031 
0.9952643826 -0.0116692417 -0.096502007862 0.99466043706 -0.035681143431 -0.096837342766 0.99385313766 -0.05336189432 -0.096997159784 
0.99321347601 -0.064096454966 -0.097049654981 0.99313835784 -0.065247148605 -0.097051593451 0.99369588616 -0.056113715537 -0.097055328284 
0.99471201141 -0.033511364809 -0.097082453544 0.99526581823 0.0041941131379 -0.097099744943 0.99355980253 0.058577359166 -0.096992843995 
0.98631530973 0.13366784127 -0.096514340926 0.96886394249 0.22852802012 -0.095276465894 0.93638387724 0.33847375788 -0.09284799231 
0.88479358839 0.45743555074 -0.08884268599 0.81621384547 0.57170147144 -0.083380969106 0.73569613567 0.67293585021 -0.076867011508 
0.65436020217 0.75291393556 -0.070237678359 0.58002884252 0.812063762 -0.064179344673 0.5188644698 0.85280228959 -0.059227669577 
0.47198753333 0.8798576936 -0.05548159503 0.44118648215 0.89584508886 -0.053066606515 0.4251367759 0.90364339793 -0.051839474831 
0.42478725062 0.90380924113 -0.05181358274 0.43867640981 0.89709242762 -0.052803255322 0.46817272478 0.88193561298 -0.054807611917 
0.51347130266 0.85616403768 -0.057709288008 0.57555941006 0.81545206683 -0.061394561553 0.65363497555 0.75396447616 -0.065565901413 
0.74414984301 0.66436882778 -0.069678345496 0.83821846723 0.54044901224 -0.072833140541 0.92094817797 0.38261151647 -0.073911304652 
0.97667044348 0.2022751269 -0.072108375838 0.99749719406 0.020932508862 -0.067536493225 0.98789752149 -0.1425461321 -0.0611480765 
0.95907923334 -0.27791631587 -0.054125276491 0.92146934269 -0.38556697909 -0.047247805444 0.88261357608 -0.46830644672 -0.041016427082 
0.84577899091 -0.53235189277 -0.035487473844 0.81268350343 -0.58189731056 -0.030676427598 0.78362352589 -0.6206705605 -0.026499528395 
0.75853819898 -0.65122655457 -0.022886138099 0.73692659444 -0.67568454532 -0.019738025069 0.71838043698 -0.6954429602 -0.016989316278 
0.70231278504 -0.71171964519 -0.01455673783 0.68859463242 -0.72503995155 -0.012429837587 0.67677814832 -0.73611141639 -0.010550858611 
0.6666073449 -0.74535601772 -0.0088912637849 0.65780341208 -0.75315314118 -0.0074173429435 0.65021401005 -0.75972649856 -0.0061146155043 
0.64376533103 -0.76520676272 -0.0049808488542 0.63817474872 -0.76988128014 -0.0039754991694 0.63336186169 -0.77384959355 -0.0030917182845 
0.62933637199 -0.77712950233 -0.0023382707 0.62590916354 -0.779894145 -0.0016857014234 0.62315399581 -0.78209831087 -0.0011531000783 
0.62063179971 -0.78410186496 -0.00065921422787 0.61895317146 -0.78542782267 -0.00032697216051 0.61714343077 -0.78685067496 3.4224586171e-05 
0.61644998225 -0.78739404956 0.00017347505513 0.61644998225 -0.78739404956 0.00017347505513 
