# vtk DataFile Version 4.1
vtk output
ASCII
DATASET POLYDATA
POINTS 115 float
-1.744 -3.62607 122.823 -1.18544 -3.74191 120.432 -0.627093 -3.85755 118.042 
-0.0695858 -3.97235 115.65 0.486443 -4.08571 113.258 1.04035 -4.19702 110.864 
1.59148 -4.3057 108.469 2.13916 -4.41119 106.072 2.68269 -4.51295 103.671 
3.22136 -4.61052 101.268 3.75441 -4.70342 98.8609 4.28106 -4.79125 96.4493 
4.80049 -4.87366 94.0326 5.31185 -4.95033 91.6102 5.81425 -5.02096 89.1814 
6.30676 -5.08533 86.7454 6.78841 -5.14323 84.3016 7.25821 -5.19448 81.8493 
7.71512 -5.23894 79.3879 8.15806 -5.27646 76.917 8.58596 -5.30693 74.4361 
8.99768 -5.33024 71.9449 9.39212 -5.34625 69.4434 9.76813 -5.35485 66.9317 
10.1246 -5.35591 64.4099 10.4603 -5.34928 61.8786 10.7743 -5.3348 59.3383 
11.0654 -5.31229 56.7901 11.3326 -5.28156 54.2349 11.575 -5.24239 51.674 
11.7916 -5.19458 49.109 11.9816 -5.1379 46.5413 12.1442 -5.07213 43.9727 
12.2789 -4.99705 41.405 12.3852 -4.91247 38.8401 12.4625 -4.81819 36.2798 
12.5107 -4.71407 33.7261 12.5296 -4.6 31.1807 12.5192 -4.47592 28.6454 
12.4795 -4.34181 26.1218 12.411 -4.19772 23.6115 12.3138 -4.04379 21.1158 
12.1886 -3.88018 18.636 12.0359 -3.70717 16.1731 11.8565 -3.5251 13.7281 
11.651 -3.33437 11.3017 11.4205 -3.13548 8.89449 11.1657 -2.92899 6.50695 
10.8877 -2.71551 4.13942 10.5875 -2.49573 1.7921 10.2661 -2.27038 -0.534912 
9.92468 -2.04023 -2.84163 9.56417 -1.80609 -5.12817 9.18569 -1.56879 -7.3947 
8.79028 -1.32915 -9.64151 8.37901 -1.08804 -11.8689 7.9529 -0.846282 -14.0773 
7.51299 -0.604703 -16.2672 7.06029 -0.364107 -18.439 6.59578 -0.125269 -20.5933 
6.12045 0.111066 -22.7306 5.63527 0.344187 -24.8515 5.1412 0.573423 -26.9567 
4.6392 0.798139 -29.0466 4.13019 1.01774 -31.1219 3.6151 1.23167 -33.1831 
3.09485 1.43941 -35.2308 2.57034 1.64049 -37.2655 2.04246 1.83444 -39.2876 
1.51207 2.02087 -41.2977 0.980023 2.19939 -43.2961 0.447125 2.36965 -45.2834 
-0.0858291 2.53134 -47.2599 -0.618085 2.68417 -49.2261 -1.14892 2.82788 -51.1823 
-1.67767 2.96225 -53.1292 -2.20367 3.08707 -55.0671 -2.72635 3.20218 -56.9967 
-3.24515 3.30743 -58.9186 -3.75955 3.40271 -60.8334 -4.26911 3.48793 -62.742 
-4.77339 3.56304 -64.6451 -5.27202 3.62799 -66.5438 -5.76467 3.68278 -68.4392 
-6.25102 3.72741 -70.3322 -6.73081 3.76193 -72.2243 -7.20381 3.78637 -74.1168 
-7.66983 3.80081 -76.011 -8.12869 3.80532 -77.9086 -8.58026 3.80001 -79.8111 
-9.02443 3.78497 -81.7202 -9.46112 3.76032 -83.6375 -9.89027 3.72619 -85.565 
-10.3119 3.68271 -87.5042 -10.7259 3.63003 -89.457 -11.1325 3.56829 -91.4251 
-11.5315 3.49767 -93.41 -11.9233 3.41834 -95.4133 -12.3078 3.33049 -97.4364 
-12.6853 3.23435 -99.4804 -13.0559 3.13015 -101.546 -13.4199 3.01815 -103.635 
-13.7775 2.89864 -105.747 -14.129 2.77193 -107.883 -14.4747 2.63839 -110.042 
-14.815 2.49841 -112.223 -15.1503 2.35242 -114.427 -15.481 2.20089 -116.652 
-15.8075 2.04433 -118.897 -16.1303 1.88329 -121.159 -16.4499 1.71836 -123.437 
-16.7668 1.55016 -125.729 -17.0817 1.37936 -128.031 -17.3949 1.20665 -130.342 
-17.7072 1.03271 -132.658 
LINES 1 116
115 114 113 112 111 110 109 108 107 106 105 104 103 102 101 100 99 98 97 96 95 94 93 92 91 90 89 88 87 86 85 84 83 82 81 80 79 78 77 76 75 74 73 72 71 70 69 68 67 66 65 64 63 62 61 60 59 58 57 56 55 54 53 52 51 50 49 48 47 46 45 44 43 42 41 40 39 38 37 36 35 34 33 32 31 30 29 28 27 26 25 24 23 22 21 20 19 18 17 16 15 14 13 12 11 10 9 8 7 6 5 4 3 2 1 0 

CELL_DATA 1
FIELD FieldData 2
LengthArray 1 1 double
260.47157425 
TortuosityArray 1 1 double
0.017382190495 
POINT_DATA 115
FIELD FieldData 8
RadiusArray 1 115 double
62.045744785 61.709047446 61.676126969 61.562034651 61.516038357 61.296443445 61.16054884 60.953801958 60.839440672 
60.684281006 60.577703952 60.470583192 60.373114234 60.368182549 60.334056843 60.219847613 60.217117805 60.223271594 
60.222152427 60.163581072 60.031443208 60.031637407 59.984219474 59.984653784 59.979698987 59.922815721 59.937389147 
59.936552336 59.93523299 59.777485246 59.717016535 59.720699378 59.591698992 59.561250967 59.377519783 59.335593575 
59.245096991 58.995576247 58.7398823 58.683794396 58.424737412 58.382364877 58.114591667 57.767712101 57.638702144 
57.424744534 56.960248495 56.273762652 56.25203649 55.601308187 55.529496815 55.191055157 55.034756483 55.030935266 
54.96261527 54.906674226 54.273520574 54.238281228 53.817126582 53.526330861 53.273172937 53.199918206 53.115112741 
52.925444215 52.913809327 52.896134481 52.889855969 52.341952114 52.307860707 51.976099447 51.712201475 51.703875532 
51.506257725 51.486919084 51.443870255 51.250554613 51.24919138 51.121523916 51.113128751 50.819776456 50.808270434 
50.769596724 50.564563712 50.460756084 50.455267271 50.427916367 50.224646534 50.184297084 50.115980325 49.979486296 
49.978321199 49.929089607 49.89736231 49.845616015 49.845472688 49.812890913 49.810389238 49.823092242 49.822961659 
49.807124504 49.716130512 49.681884523 49.621010524 49.618070691 49.606557942 49.499786494 49.478169451 49.441005482 
49.399988974 49.335330637 49.265193783 49.237329276 49.155789197 49.104847188 48.95552962 
EdgeArray 2 115 int
21216 21216 17824 11414 13163 17824 20033 13163 14214 
20033 19453 19453 19719 16905 19889 16440 20403 6444 
10840 11810 5296 18165 18647 19890 20456 19890 20456 
19898 19447 19900 18639 4983 18639 5924 16438 11641 
11641 11639 19478 19478 19297 19297 20398 20398 20395 
20395 20397 20396 20397 20397 8205 8205 11793 11793 
15167 15167 19397 19397 19396 19396 13804 16559 16806 
16806 16749 16749 12132 12132 19441 19441 19773 19773 
19774 19774 7271 17542 17542 19039 19039 19039 19041 
19041 19044 19044 17003 17003 10815 17010 15582 6011 
14803 14803 9565 9565 17225 17225 17226 17226 17000 
17000 8782 8780 13947 17001 17001 15926 10611 15926 
15925 10611 15921 15921 15916 15916 15923 15923 15901 
15901 15905 15905 6686 6686 9451 9451 12211 12211 
11068 11068 13660 12846 12846 12489 12489 12489 5626 
5626 15439 14169 15015 15015 11161 11161 6009 12840 
12830 12830 14159 14160 14632 14632 12821 6254 12820 
6254 12822 12822 14623 12823 13930 13930 13934 13934 
4584 4584 11458 11458 3331 3331 2195 2195 5666 
5666 9337 9337 12200 12200 12814 7315 9637 9637 
6559 6559 5989 10157 11455 10150 11450 11450 12046 
7244 7314 6255 12040 11045 10811 10032 10805 10032 
11446 11446 12192 12192 12194 12194 12459 8665 12460 
12460 12803 12803 12463 12463 8667 10924 11430 11430 
10920 12634 9960 9960 10863 13262 3462 10174 11372 
11372 11617 11617 11680 11680 
EdgePCoordArray 1 115 double
0 0.344 0.724 0.3 0.768 0 0.936 0.116 0.92 
0.512 0.396 0.72 0.056 0.016 0.864 0.128 0.236 0.696 
0.34 0 0 0 0 0.708 0 0 0 
0 0 0 0.212 0 0 0 0 0 
0 0.668 0.812 0 0 0 0 0.232 0.284 
0 0 0 0 0 0.104 0.448 0.996 0.952 
0.744 0 0 0 0 0 0 0 0 
0 0.652 0.796 0 0 0.136 0 0 0.016 
0 0.156 0 0.992 0.992 0 0.964 0 0 
0 0 0 0 0 0 0 0.028 0 
0 0.08 0.816 0 0.992 0.384 0.748 0.98 0.968 
0 0 0 0.18 0 0 0 0.804 0 
0.3 0 0.008 0.876 0 0 0 
CurvatureArray 1 115 double
0 5.2190815233e-05 0.00020820112574 0.00036462646377 0.00052043896051 0.00067625838756 0.00083204970189 0.00098763606195 0.0011425524504 
0.0012984314859 0.0014540964005 0.0016103949909 0.0017665154703 0.0019232184065 0.0020797846507 0.0022367006257 0.0023929686694 0.0025477631258 
0.0027010776713 0.0028524268714 0.0030003175672 0.0031449745874 0.0032855444364 0.0034215652906 0.0035531486336 0.0036800610403 0.0038023335908 
0.0039198572156 0.004032585237 0.0041413015524 0.0042449924167 0.0043445898957 0.004438594339 0.0045274480521 0.0046102960028 0.0046857163759 
0.0047530574737 0.004810929218 0.0048579200718 0.0048928812211 0.0049142874378 0.0049210861591 0.0049126028592 0.0048874540372 0.0048464638514 
0.0047885331238 0.0047149622327 0.0046262158252 0.0045233073624 0.0044079831363 0.0042812765293 0.0041452024548 0.0040015040034 0.0038519119845 
0.003698217078 0.0035413305363 0.0033833173252 0.0032254630462 0.0030687381653 0.0029146396426 0.0027650166138 0.002620527437 0.0024833353758 
0.0023558780174 0.0022396486622 0.0021379169464 0.0020525037337 0.0019863342436 0.0019409430028 0.0019179377902 0.0019174154297 0.0019385321713 
0.001979649313 0.002038012509 0.0021110692794 0.0021955864228 0.0022889196301 0.0023880634649 0.0024910302669 0.0025955539997 0.002699612284 
0.0028022592988 0.0029015100934 0.0029957152628 0.0030852970617 0.0031669784837 0.0032413657857 0.0033059218423 0.0033599735491 0.003401968103 
0.0034303096216 0.0034445262422 0.0034423837168 0.0034232213343 0.0033863862873 0.0033307260913 0.0032577434638 0.0031652497535 0.0030566750868 
0.0029312114514 0.0027914252059 0.0026382645005 0.0024739409151 0.0023001080694 0.0021188352117 0.0019310495055 0.0017392647798 0.0015438095758 
0.0013461551766 0.0011471119776 0.00094659032305 0.00074519985598 0.00054329125186 0.00034020716697 0 
TorsionArray 1 115 double
0 0 -0.0013428198894 -0.0021932494727 -0.0034473322085 -0.0048195447268 -0.0059685462563 -0.0070019102614 -0.0080500193943 
-0.0089298361305 -0.0095756216218 -0.010018921238 -0.010317380255 -0.01038793879 -0.010282224946 -0.01002135449 -0.0095520621707 -0.0089817307306 
-0.0083200835182 -0.0075441576433 -0.0067308256494 -0.0058719503524 -0.0050023334889 -0.0041579383149 -0.0033197302517 -0.0025222446759 -0.0017792737982 
-0.0010840678288 -0.00046488838792 9.1372896232e-05 0.00056313936559 0.00095890939156 0.0012859057092 0.0015156284299 0.0016642803192 0.0017338609842 
0.0017276614834 0.0016316134197 0.0014416294357 0.0011768620129 0.000826691123 0.00037977451649 -0.00015435569852 -0.00078907206468 -0.0015269900788 
-0.002364084828 -0.0033177347527 -0.0043754546897 -0.0055506051448 -0.0068487927337 -0.0082446359099 -0.0097594772818 -0.011398582111 -0.013145372357 
-0.015000377797 -0.016979694879 -0.019090712702 -0.021350634258 -0.023785383151 -0.026415869053 -0.029279319959 -0.03242658326 -0.035809382721 
-0.039446360159 -0.0432386137 -0.046994996442 -0.050537201586 -0.053486367888 -0.055484208524 -0.056248188467 -0.055761512252 -0.053973667874 
-0.05116794508 -0.047758448296 -0.04408635697 -0.040406217104 -0.036873470451 -0.033722041168 -0.031008247033 -0.028572857542 -0.026583934783 
-0.024944651878 -0.023405935322 -0.022286667235 -0.021260651661 -0.02031148527 -0.019494850146 -0.018643257761 -0.01785321318 -0.017008629675 
-0.016207129409 -0.015366776643 -0.014427749565 -0.013523292026 -0.012596138971 -0.011707062502 -0.010747036846 -0.0098241209668 -0.0089702200073 
-0.0081192312806 -0.0073213404806 -0.0065094562053 -0.0057926553825 -0.0051521567885 -0.0044722280185 -0.0038851052847 -0.0033574257597 -0.0028470359691 
-0.002445337333 -0.001993444682 -0.0016615899032 -0.0012835255437 -0.00086120930956 0 0 
TangentArray 3 115 double
-0.22720860766 0.047087641376 0.97270704872 -0.22720860766 0.047087641376 0.97270704872 -0.22697924723 0.046873777144 0.97277092388 
-0.22647344607 0.0464044794 0.97291130249 -0.22568805279 0.045683192834 0.97312792002 -0.22461771097 0.044716434878 0.97342042529 
-0.22325369292 0.043513495868 0.9737886651 -0.2215857162 0.042086039735 0.97423228012 -0.21960265137 0.040448337956 0.97475053602 
-0.21729063571 0.038616403275 0.97534278745 -0.21463466186 0.036607702316 0.97600811373 -0.21162020436 0.034440706232 0.97674496511 
-0.2082332246 0.032134260381 0.97755118203 -0.20446032569 0.029707469993 0.97842395793 -0.20028941643 0.027178390636 0.97935973204 
-0.19571003468 0.024563801994 0.98035412069 -0.19071364601 0.021879024063 0.98140186139 -0.18529566845 0.019137158961 0.98249645516 
-0.17945388663 0.016349027492 0.9836305261 -0.17318806338 0.013522704304 0.98479593377 -0.16650191715 0.0106633826 0.98598347038 
-0.15940189713 0.0077737476228 0.98718316641 -0.15189664029 0.0048534017634 0.98838446728 -0.14399762156 0.0018996419437 0.98957621048 
-0.13571786288 -0.0010921721527 0.99074692473 -0.12707191384 -0.0041289307262 0.991884913 -0.11807574773 -0.0072188025507 0.99297835157 
-0.10874660256 -0.010370626733 0.99401540558 -0.09910311317 -0.013593721743 0.99498431329 -0.089164028972 -0.016897190842 0.99587361692 
-0.078949394735 -0.02028947149 0.99667212784 -0.068480064959 -0.023777522555 0.99736909423 -0.057778237434 -0.027366464016 0.99795428349 
-0.046867842325 -0.031059344097 0.99841811006 -0.035773277997 -0.034856324199 0.99875187572 -0.024521485192 -0.038754166296 0.99894785217 
-0.013141372486 -0.042746221295 0.99899953198 -0.0016634951575 -0.046822457448 0.99890184216 0.0098795776176 -0.050968740553 0.99865138133 
0.021453884239 -0.055166860729 0.99824663702 0.033024060616 -0.059395222274 0.99768813714 0.044553747629 -0.063628814695 0.99697860434 
0.056006882124 -0.067839592712 0.99612299382 0.067347206668 -0.071997019193 0.99512852586 0.078540065215 -0.076068813191 0.99400452404 
0.089552564024 -0.080021542613 0.99276225301 0.10035370853 -0.083821503189 0.99141469063 0.11091596601 -0.087435481778 0.98997610325 
0.12121428814 -0.090831541257 0.98846179869 0.13122712659 -0.09397970944 0.98688766101 0.14093592454 -0.096852347276 0.98526985542 
0.15032465418 -0.099425268778 0.98362447828 0.15938026994 -0.10167777664 0.9819671885 0.16809194869 -0.10359271916 0.98031303435 
0.17645067521 -0.10515702614 0.97867622791 0.18444808485 -0.1063615857 0.97707016999 0.19207661436 -0.10720113183 0.97550729959 
0.19932982662 -0.10767414308 0.97399892153 0.20620114361 -0.107782453 0.97255541292 0.21268404876 -0.10753097286 0.97118617436 
0.21877298988 -0.10692737934 0.96989943522 0.22446236291 -0.10598152475 0.96870251577 0.22974662906 -0.10470491349 0.96760186416 
0.23462204719 -0.10311061282 0.96660265699 0.23908551275 -0.10121240285 0.96570915244 0.24313528426 -0.099024628428 0.9649245341 
0.24677115571 -0.09656188916 0.96425090006 0.24999411004 -0.093838437463 0.96368941708 0.25280667236 -0.090868225155 0.9632402359 
0.25521295002 -0.087664940657 0.9629024916 0.25721857322 -0.084241700747 0.96267436937 0.25882960438 -0.08061094474 0.96255343305 
0.26005330825 -0.076784865075 0.9625364208 0.26089761478 -0.072775599019 0.9626194195 0.26137049315 -0.068595043302 0.96279810207 
0.26147969307 -0.064255132268 0.96306783151 0.26123285204 -0.059768128509 0.96342366996 0.2606378089 -0.055146836032 0.96386034209 
0.25970160037 -0.050404655116 0.96437256779 0.25843025002 -0.045555656839 0.96495517409 0.25683049841 -0.040614793747 0.96560267896 
0.2549080808 -0.035597659347 0.96630982453 0.25266825992 -0.030520706662 0.96707147455 0.25011863536 -0.025401143476 0.9678819402 
0.24726503365 -0.020256587378 0.96873612186 0.24411497184 -0.015105244813 0.96962864649 0.24067810055 -0.0099655569767 0.97055383137 
0.23696501018 -0.004856125272 0.97150604836 0.23298975972 0.00020451892004 0.97247916689 0.22876840779 0.0051979922052 0.97346699814 
0.22432078168 0.010106373242 0.9744629537 0.21966902524 0.014912210524 0.97546047861 0.21483885345 0.019598762767 0.97645284348 
0.20986044294 0.024150507687 0.97743303989 0.2047662192 0.028552851291 0.97839436331 0.19959188268 0.03279216406 0.97933025806 
0.19437434648 0.036856336806 0.98023477997 0.18915351746 0.040734951663 0.98110224266 0.18396984609 0.044419017334 0.98192771966 
0.17886298938 0.047901076743 0.98270723915 0.1738728002 0.051175049955 0.983437524 0.16903740422 0.05423641779 0.98411623651 
0.16439358844 0.057082393763 0.98474176737 0.15997520539 0.059710947048 0.98531342042 0.15581313947 0.062120854371 0.98583125586 
0.15193622721 0.064312255254 0.98629575518 0.14836964909 0.066285504194 0.98670800096 0.1451355254 0.068041393193 0.98706942414 
0.14225351663 0.069580741318 0.98738161693 0.13973993738 0.070904374804 0.98764635348 0.13760937149 0.072013209498 0.98786525323 
0.13587422363 0.072907392112 0.98803983094 0.13454449057 0.073587522001 0.98817137009 0.13362862183 0.074053609397 0.98826082304 
0.13362862183 0.074053609397 0.98826082304 
NormalArray 3 115 double
-0.71674474067 0.66811072772 -0.19976243945 -0.71674474067 0.66811072772 -0.19976243945 -0.71667453285 0.66828666618 -0.19942553942 
-0.71933515442 0.66549313309 -0.19918791486 -0.72353127885 0.66103530258 -0.19883364219 -0.73021686317 0.65373504175 -0.19852916141 
-0.73905101351 0.64383057213 -0.1982064424 -0.74946632747 0.63181659915 -0.19775745002 -0.76135948178 0.61762531041 -0.19715657599 
-0.77463468333 0.60114652578 -0.19637709113 -0.78874226619 0.58287023457 -0.19531494355 -0.80328968824 0.56314283266 -0.19389643317 
-0.81793091345 0.54231216415 -0.19205868229 -0.83245177318 0.5205900566 -0.18976311102 -0.84641369236 0.49863607797 -0.18693828694 
-0.85973642382 0.47660708916 -0.18357277609 -0.87217261847 0.45502465639 -0.17963152747 -0.88355262851 0.43436873009 -0.17509585652 
-0.89392160177 0.41474171316 -0.16998082615 -0.90319713726 0.39654256639 -0.16428306147 -0.91138482956 0.38001205015 -0.15801434806 
-0.91856273391 0.36521471551 -0.15119760398 -0.92473239669 0.35238990938 -0.14384486881 -0.93000721995 0.34145960558 -0.13598495727 
-0.93444030224 0.33246024705 -0.12763818269 -0.93808303189 0.32539345953 -0.11882475235 -0.94101903176 0.3201212237 -0.10956999589 
-0.94329900845 0.31655626326 -0.099895509633 -0.94497056771 0.31458278523 -0.089823701813 -0.94610993865 0.31396588801 -0.079381390479 
-0.94673163006 0.31463447909 -0.068588375221 -0.94693276258 0.31625096365 -0.057477570745 -0.9467130089 0.31876640416 -0.04607014614 
-0.94615351029 0.32188523243 -0.034401048013 -0.94530469464 0.32541157111 -0.022502081808 -0.94422639677 0.32913242511 -0.010409533238 
-0.94297346444 0.33286283253 0.0018385021226 -0.9416075444 0.33641279185 0.01420090888 -0.94021577277 0.33953661308 0.026630602773 
-0.93887516082 0.34203244594 0.039079896569 -0.93764553702 0.3437563836 0.051501414069 -0.93662553976 0.34446613769 0.063841039003 
-0.93589477292 0.34397371472 0.076046417368 -0.93553101182 0.34209131164 0.088063956414 -0.9356272226 0.33857656559 0.099837916426 
-0.9362494158 0.33323557806 0.11131523225 -0.93745897091 0.32585064078 0.1224419771 -0.93931830816 0.31614683719 0.13316265729 
-0.94182398068 0.30396745529 0.14342724829 -0.94500496261 0.28896842254 0.15317594922 -0.94879783674 0.27096770212 0.16235507199 
-0.95311379047 0.24973119552 0.17090474657 -0.95782742772 0.22497236027 0.17875697421 -0.96274446682 0.19643694769 0.18583760971 
-0.96759524002 0.16392118368 0.19206586639 -0.97205061547 0.12717256065 0.197344219 -0.9756960427 0.08596746831 0.201560975 
-0.97802967625 0.040050608206 0.20458226011 -0.9784393001 -0.010795305699 0.20625226639 -0.97618761436 -0.066817011415 0.20638126986 
-0.97038790861 -0.12815097599 0.204755059 -0.95996197784 -0.19501619416 0.20110118129 -0.9436329575 -0.26736406107 0.1951238078 
-0.91996537147 -0.34477940962 0.18652311918 -0.88727932814 -0.42676845357 0.17494022092 -0.84410888945 -0.51168547584 0.16018163618 
-0.78902614955 -0.59770664677 0.14207216381 -0.72149902751 -0.68180062954 0.12077688048 -0.64183351852 -0.76072405576 0.096688393793 
-0.55207588819 -0.83079205025 0.070687926214 -0.45502905923 -0.88940118605 0.043750262985 -0.35446229527 -0.93491543059 0.017018192422 
-0.25441549513 -0.96705845037 -0.0084088885147 -0.15799698653 -0.98692768028 -0.031791604838 -0.067466409895 -0.99633039783 -0.052668984129 
0.016094985503 -0.99735268078 -0.070912492409 0.092140835493 -0.99197969501 -0.086523702639 0.16088027181 -0.98192698215 -0.099684200734 
0.2231082245 -0.96848738693 -0.11070185865 0.27960108332 -0.95260600204 -0.11985424101 0.3307175863 -0.9351051164 -0.12729610909 
0.37783715094 -0.91620806098 -0.13342367238 0.42110366925 -0.89640462345 -0.13831287287 0.46091558445 -0.8759935894 -0.14209875206 
0.49844490015 -0.85469258148 -0.14509745925 0.53311412511 -0.83314015943 -0.14719648211 0.56581156201 -0.81102659804 -0.14863759136 
0.59629776629 -0.78874078095 -0.1493886019 0.62481988647 -0.76631541832 -0.1495352437 0.65148241303 -0.74386238971 -0.1491288392 
0.67618349526 -0.72167918075 -0.14817233483 0.69928686413 -0.69960936003 -0.14678087414 0.72050329955 -0.67814085473 -0.1449136863 
0.74000627298 -0.65730032094 -0.14264292497 0.75788452489 -0.63718536215 -0.14002093123 0.77415487571 -0.61797431988 -0.13708380063 
0.7890351099 -0.59957471991 -0.13391695408 0.8022925192 -0.58249278846 -0.13049469351 0.81437199933 -0.56628550679 -0.1269605116 
0.82511541041 -0.55134422907 -0.12330490897 0.83479096628 -0.53741373621 -0.11962658046 0.84333715528 -0.52472937182 -0.11593760772 
0.85086822007 -0.51323812115 -0.11229382476 0.85755180594 -0.50276770696 -0.10876365645 0.86343091814 -0.49333762616 -0.10538043567 
0.86841581115 -0.48520262369 -0.10213908605 0.87286452474 -0.47778227404 -0.099154526174 0.87652110849 -0.47161783961 -0.096370948608 
0.87976453166 -0.46604275905 -0.093906951662 0.88238954672 -0.46149413683 -0.091716135473 0.88456056841 -0.45768849369 -0.089854568927 
0.88635891645 -0.45449023914 -0.088354364691 0.88752546058 -0.4524419395 -0.087148426266 0.88838524046 -0.45090773273 -0.08633586219 
0.88838524046 -0.45090773273 -0.08633586219 
BinormalArray 3 115 double
-0.65928235629 -0.74257040712 -0.1180506889 -0.65928235629 -0.74257040712 -0.1180506889 -0.65943766597 -0.74242560625 -0.11809396208 
-0.65670900241 -0.74496007551 -0.11733614983 -0.65235526468 -0.74896286599 -0.11613455134 -0.64523655868 -0.7554011753 -0.11418777385 
-0.6355795686 -0.76392982012 -0.11157885962 -0.6238589539 -0.77397451528 -0.10845946399 -0.61000525819 -0.78543166979 -0.10483643009 
-0.59390730507 -0.79820525427 -0.10070990542 -0.5760361095 -0.81174020831 -0.096230113619 -0.55672485653 -0.82564156132 -0.09150653716 
-0.5363095608 -0.83956232998 -0.086643805732 -0.51499516556 -0.85328978618 -0.081709976452 -0.4934247775 -0.86638524735 -0.076867367096 
-0.47175296913 -0.87877318018 -0.072158394664 -0.45049220727 -0.89021001476 -0.067697125537 -0.43011657479 -0.90053182923 -0.063577957093 
-0.41073163071 -0.90979229534 -0.059812263532 -0.39273505821 -0.91791673343 -0.056462771304 -0.37637056744 -0.92492006899 -0.053554289758 
-0.36170919129 -0.93089085312 -0.051075243643 -0.3489948498 -0.93584068957 -0.049038745463 -0.33815862525 -0.93989453085 -0.04740269034 
-0.32924456449 -0.94311663716 -0.046141363897 -0.32226224412 -0.94556969517 -0.045221649507 -0.31708248085 -0.94734908615 -0.044591583441 
-0.31362582337 -0.94851704375 -0.044207020064 -0.31178389813 -0.94913269987 -0.044021800319 -0.31132902197 -0.94928389121 -0.043981063725 
-0.31219579388 -0.94899603894 -0.044048886104 -0.31405226293 -0.94837753949 -0.044172601654 -0.31685352147 -0.9474381543 -0.044325948478 
-0.32030757143 -0.94626910247 -0.044472973765 -0.32422107716 -0.94492981012 -0.044590885499 -0.32838271636 -0.94348818823 -0.04466352269 
-0.33260840293 -0.9420058892 -0.044682826855 -0.33670827895 -0.94054988754 -0.04464800023 -0.34043603595 -0.93921087934 -0.044567135463 
-0.34358865412 -0.93806738745 -0.044456870738 -0.34602060392 -0.93717861494 -0.044339433437 -0.34748749883 -0.93663998096 -0.044249115543 
-0.34779908449 -0.93652542584 -0.044225824922 -0.34676516502 -0.93690445816 -0.04431654995 -0.34414118974 -0.93785896855 -0.044580226871 
-0.33973131985 -0.93944164387 -0.045078022084 -0.3333163828 -0.9416981021 -0.045878899891 -0.32462095503 -0.94467254319 -0.047064016968 
-0.31348793562 -0.94834245779 -0.048702125049 -0.29957480183 -0.95271457687 -0.05089079604 -0.2827007785 -0.95770356961 -0.053704213961 
-0.26263396726 -0.96319725182 -0.057222839189 -0.2390910878 -0.96904544107 -0.061533607749 -0.21182112356 -0.97502875554 -0.066713847841 
-0.18062284105 -0.98085261145 -0.072825434401 -0.14524635951 -0.98616142335 -0.079932109581 -0.10546945752 -0.9905137615 -0.088083379838 
-0.061037468746 -0.99337919633 -0.097325226504 -0.011731342217 -0.99411589073 -0.10768459226 0.04269937897 -0.99195391872 -0.11918131638 
0.10239963737 -0.98597356096 -0.13179700818 0.16759966808 -0.97505722931 -0.14551202986 0.23827154248 -0.95789004585 -0.16022899895 
0.31403218029 -0.93300340847 -0.17575104414 0.39442808147 -0.89867944037 -0.19183782735 0.47787594238 -0.85344718453 -0.20799636275 
0.56262041559 -0.79587848693 -0.22368661559 0.64571053751 -0.72549448599 -0.23815048298 0.72397411619 -0.64268334088 -0.2506383898 
0.79377488233 -0.54963572247 -0.26042658997 0.85251812934 -0.44929819286 -0.26710292593 0.89853420476 -0.34559371121 -0.27055733153 
0.93147465489 -0.2426974208 -0.27102200875 0.95234940377 -0.14379661358 -0.26898540308 0.96287784731 -0.051190413045 -0.26503922873 
0.96507477511 0.034042739536 -0.25975328743 0.96086807807 0.11137349549 -0.25363059959 0.95193774519 0.18104758548 -0.24705525916 
0.93956255722 0.24390890121 -0.24027203122 0.92468212921 0.30077647351 -0.23344479628 0.90811011072 0.35203531046 -0.22673148656 
0.89009042109 0.39911852329 -0.22009872025 0.87110874762 0.44218461927 -0.21364061483 0.8514678457 0.4816534161 -0.20739453827 
0.83091075613 0.51873910768 -0.20123879724 0.81006000403 0.55285559264 -0.19532916719 0.78862622846 0.5849243925 -0.18955771375 
0.76699188905 0.61470675815 -0.18400827054 0.7451951968 0.64246450315 -0.17867143268 0.723350317 0.66831259606 -0.17355861501 
0.70175214118 0.6921539 -0.16872140073 0.68025245388 0.71436991072 -0.1641104191 0.65933243693 0.7346705858 -0.15981197695 
0.63902215176 0.75324168835 -0.15581286368 0.61942056989 0.77018150389 -0.15211380167 0.60070567567 0.78551410805 -0.14872887165 
0.58278830529 0.79946967777 -0.14562288811 0.56616928606 0.81181452014 -0.14286190682 0.55041197519 0.82301134603 -0.14035306148 
0.53590352726 0.83290157157 -0.13813899359 0.52239093787 0.84176456946 -0.13616210058 0.51010665405 0.84953957962 -0.13443847722 
0.49899701418 0.85634585964 -0.13294265124 0.48888938809 0.86235679138 -0.13163559766 0.47980132886 0.86761684289 -0.13050555067 
0.47198449318 0.87203345566 -0.12956963539 0.46485908475 0.87597393257 -0.12874665346 0.45896233575 0.87917403407 -0.12808822033 
0.45362793768 0.88202191989 -0.12751088967 0.44928992614 0.88430522519 -0.12705444092 0.44566384383 0.88619148066 -0.12668227148 
0.44261277273 0.88776299467 -0.12637562546 0.44067713451 0.88875259099 -0.12618436962 0.43922096485 0.88949327119 -0.12604231249 
0.43922096485 0.88949327119 -0.12604231249 
