# vtk DataFile Version 4.1
vtk output
ASCII
DATASET POLYDATA
POINTS 208 float
-9.12675 -6.28197 173.234 -8.46946 -6.32195 171.724 -7.81274 -6.36166 170.214 
-7.15829 -6.40031 168.701 -6.50779 -6.43711 167.183 -5.86288 -6.47131 165.659 
-5.22515 -6.5022 164.126 -4.59605 -6.52915 162.583 -3.97696 -6.5516 161.028 
-3.3691 -6.56907 159.459 -2.77355 -6.58121 157.876 -2.19122 -6.58776 156.276 
-1.62286 -6.58861 154.66 -1.06903 -6.58373 153.025 -0.530128 -6.57323 151.372 
-0.00638784 -6.55734 149.7 0.502127 -6.53638 148.008 0.995499 -6.51079 146.296 
1.47394 -6.48107 144.564 1.93779 -6.44783 142.811 2.38747 -6.41171 141.038 
2.82348 -6.37343 139.244 3.24639 -6.33371 137.43 3.6568 -6.29331 135.595 
4.05533 -6.25299 133.741 4.44258 -6.21351 131.866 4.81915 -6.17559 129.971 
5.18563 -6.13996 128.057 5.54252 -6.10728 126.123 5.89032 -6.07817 124.17 
6.22943 -6.05322 122.198 6.56022 -6.03296 120.208 6.88299 -6.01785 118.201 
7.19796 -6.00831 116.177 7.50532 -6.0047 114.138 7.80517 -6.00732 112.084 
8.0976 -6.0164 110.016 8.38261 -6.03212 107.936 8.66019 -6.0546 105.846 
8.93029 -6.08391 103.746 9.19283 -6.12004 101.64 9.4477 -6.16294 99.5279 
9.6948 -6.21249 97.4124 9.93401 -6.26852 95.2954 10.1652 -6.33079 93.179 
10.3883 -6.399 91.0649 10.6031 -6.47281 88.9552 10.8095 -6.55181 86.8516 
11.0075 -6.63552 84.7557 11.1969 -6.72344 82.6691 11.3778 -6.815 80.5928 
11.5499 -6.90959 78.5278 11.7132 -7.00656 76.4748 11.8677 -7.10522 74.4341 
12.0134 -7.20486 72.4057 12.15 -7.30475 70.3891 12.2777 -7.40413 68.3836 
12.3961 -7.50225 66.388 12.5053 -7.59835 64.4009 12.605 -7.69167 62.4206 
12.6951 -7.7815 60.445 12.7754 -7.8671 58.4717 12.8455 -7.94779 56.4983 
12.9052 -8.02292 54.5223 12.9542 -8.09188 52.541 12.9921 -8.1541 50.5518 
13.0184 -8.20906 48.5523 13.0328 -8.25628 46.5401 13.0347 -8.29537 44.5133 
13.0238 -8.32597 42.4701 12.9995 -8.34778 40.4093 12.9614 -8.36058 38.3299 
12.909 -8.3642 36.2316 12.842 -8.35855 34.1145 12.76 -8.34358 31.9793 
12.6626 -8.31931 29.8272 12.5496 -8.28585 27.6598 12.4209 -8.24335 25.4793 
12.2763 -8.19201 23.2883 12.1159 -8.13211 21.0897 11.9398 -8.06398 18.8866 
11.7481 -7.98801 16.6825 11.5412 -7.90462 14.4809 11.3195 -7.8143 12.2854 
11.0835 -7.71758 10.0995 10.8339 -7.615 7.92645 10.5714 -7.50717 5.76953 
10.2968 -7.39469 3.63161 10.011 -7.27821 1.51527 9.71513 -7.15838 -0.577283 
9.4101 -7.03585 -2.64421 9.09707 -6.91126 -4.6841 8.77718 -6.78527 -6.69593 
8.45161 -6.6585 -8.6791 8.12156 -6.53155 -10.6334 7.7882 -6.405 -12.5589 
7.45273 -6.27939 -14.4561 7.11629 -6.15521 -16.3257 6.77999 -6.03293 -18.1688 
6.44488 -5.91295 -19.9864 6.11198 -5.79564 -21.78 5.78221 -5.68131 -23.551 
5.45643 -5.57023 -25.3008 5.13541 -5.46262 -27.031 4.81987 -5.35867 -28.743 
4.5104 -5.2585 -30.4382 4.20756 -5.16222 -32.1177 3.91179 -5.06991 -33.7828 
3.62348 -4.98161 -35.4343 3.34295 -4.89734 -37.0729 3.07045 -4.81712 -38.6992 
2.80617 -4.74096 -40.3134 2.55024 -4.66885 -41.9155 2.30277 -4.60079 -43.5055 
2.06381 -4.53678 -45.0831 1.83336 -4.47685 -46.6478 1.61141 -4.42102 -48.1991 
1.39789 -4.36934 -49.7364 1.19273 -4.32185 -51.2589 0.995801 -4.27864 -52.7662 
0.806975 -4.2398 -54.2577 0.626077 -4.20544 -55.7329 0.452913 -4.17569 -57.1916 
0.287265 -4.1507 -58.6338 0.128888 -4.13063 -60.0595 -0.022482 -4.11565 -61.4691 
-0.167127 -4.10594 -62.8632 -0.305345 -4.10169 -64.2425 -0.437445 -4.1031 -65.6081 
-0.563741 -4.11036 -66.9611 -0.684552 -4.12365 -68.3027 -0.800188 -4.14316 -69.6344 
-0.910952 -4.16906 -70.9576 -1.01713 -4.20148 -72.2737 -1.119 -4.24055 -73.584 
-1.21679 -4.28637 -74.8899 -1.31071 -4.33901 -76.1925 -1.40096 -4.39848 -77.4928 
-1.48768 -4.46477 -78.7914 -1.57098 -4.53783 -80.089 -1.65092 -4.61756 -81.3859 
-1.72756 -4.70379 -82.682 -1.80089 -4.79634 -83.9773 -1.87089 -4.89497 -85.2713 
-1.93749 -4.99938 -86.5634 -2.0006 -5.10926 -87.8528 -2.0601 -5.22425 -89.1386 
-2.11587 -5.34397 -90.4198 -2.16775 -5.468 -91.6953 -2.21557 -5.59594 -92.9641 
-2.25916 -5.72735 -94.225 -2.29832 -5.86184 -95.4772 -2.33287 -5.99898 -96.7199 
-2.36262 -6.1384 -97.9524 -2.38735 -6.27975 -99.1743 -2.40689 -6.42271 -100.385 
-2.42104 -6.567 -101.586 -2.4296 -6.71239 -102.776 -2.43238 -6.8587 -103.957 
-2.42921 -7.0058 -105.129 -2.41989 -7.15361 -106.294 -2.40425 -7.30209 -107.453 
-2.3821 -7.45126 -108.608 -2.35329 -7.60117 -109.76 -2.31762 -7.75191 -110.913 
-2.27495 -7.90363 -112.068 -2.2251 -8.05647 -113.228 -2.1679 -8.21063 -114.395 
-2.10321 -8.3663 -115.571 -2.03086 -8.52372 -116.759 -1.9507 -8.68313 -117.96 
-1.86255 -8.84477 -119.178 -1.76628 -9.00894 -120.414 -1.66169 -9.1759 -121.67 
-1.54863 -9.34597 -122.947 -1.4269 -9.51948 -124.248 -1.29629 -9.69677 -125.573 
-1.15658 -9.87824 -126.924 -1.00751 -10.0643 -128.302 -0.848791 -10.2554 -129.707 
-0.680103 -10.4519 -131.14 -0.501079 -10.6546 -132.603 -0.311313 -10.8638 -134.095 
-0.110348 -11.0803 -135.617 0.102314 -11.3047 -137.169 0.327214 -11.5376 -138.752 
0.564934 -11.7798 -140.365 0.816083 -12.0319 -142.008 1.08129 -12.2947 -143.683 
1.3612 -12.5689 -145.387 1.65643 -12.855 -147.122 1.96758 -13.1538 -148.887 
2.29519 -13.4658 -150.68 2.63972 -13.7913 -152.503 3.00155 -14.1308 -154.353 
3.3809 -14.4845 -156.231 3.77786 -14.8524 -158.134 4.19232 -15.2344 -160.062 
4.62397 -15.6302 -162.013 5.0723 -16.0394 -163.985 5.53654 -16.4613 -165.977 
6.01567 -16.8951 -167.988 6.50844 -17.3397 -170.014 7.01334 -17.7939 -172.054 
7.52865 -18.2562 -174.105 8.0524 -18.7253 -176.166 8.58247 -19.1992 -178.233 
9.11658 -19.6763 -180.304 
LINES 1 209
208 207 206 205 204 203 202 201 200 199 198 197 196 195 194 193 192 191 190 189 188 187 186 185 184 183 182 181 180 179 178 177 176 175 174 173 172 171 170 169 168 167 166 165 164 163 162 161 160 159 158 157 156 155 154 153 152 151 150 149 148 147 146 145 144 143 142 141 140 139 138 137 136 135 134 133 132 131 130 129 128 127 126 125 124 123 122 121 120 119 118 117 116 115 114 113 112 111 110 109 108 107 106 105 104 103 102 101 100 99 98 97 96 95 94 93 92 91 90 89 88 87 86 85 84 83 82 81 80 79 78 77 76 75 74 73 72 71 70 69 68 67 66 65 64 63 62 61 60 59 58 57 56 55 54 53 52 51 50 49 48 47 46 45 44 43 42 41 40 39 38 37 36 35 34 33 32 31 30 29 28 27 26 25 24 23 22 21 20 19 18 17 16 15 14 13 12 11 10 9 8 7 6 5 4 3 2 1 0 

CELL_DATA 1
FIELD FieldData 2
LengthArray 1 1 double
359.85738958 
TortuosityArray 1 1 double
0.01579400182 
POINT_DATA 208
FIELD FieldData 8
RadiusArray 1 208 double
63.262026577 63.41535305 64.331751751 64.755284814 65.830650359 66.0946173 66.099141419 66.467775412 67.672391747 
67.483484574 67.333142932 67.275476585 66.936299659 66.920077994 66.787548288 66.371505186 66.124721996 66.104221422 
65.93553458 65.795279953 65.782329287 65.384337145 65.271429813 65.205552923 64.785234376 64.71940891 64.449092654 
64.436692119 64.31032599 63.85393194 63.725597727 63.438148666 63.172614586 63.164660533 62.833110427 62.669855548 
62.543260368 62.311577203 62.123164002 62.028890694 61.854200707 61.654473214 61.336126909 61.316203719 61.235610811 
60.68180248 60.513259377 60.513242267 60.508981982 60.250651116 60.129565934 60.04595117 59.912862105 59.856414434 
59.843453528 59.683768275 59.603157013 59.448297903 59.378884434 59.37553317 59.267947351 59.22055904 59.103978 
59.084705981 59.011047701 58.893826643 58.871098577 58.668691824 58.581041593 58.529350432 58.212885718 58.169266125 
57.682112129 57.674754929 57.352242233 56.966431391 56.110368803 55.719201038 55.418576257 54.96970385 54.835184203 
54.066430744 54.06048864 53.675931582 53.57402623 53.319926425 53.005292049 52.979795757 52.858938898 52.663345415 
52.411931901 52.337711586 52.174580229 52.101642645 52.080660468 52.044873091 52.022644098 52.040808782 52.05388332 
52.082321151 52.082556796 52.118877778 52.200122862 52.209354183 52.217698903 52.203519225 52.199872551 52.224603552 
52.29241683 52.261659253 52.217615732 52.204672823 52.20417036 52.250037316 52.27377548 52.275725014 52.286177753 
52.298809642 52.308077061 52.379281129 52.433371309 52.448890739 52.453400925 52.509888347 52.530830619 52.541656345 
52.647734301 52.670335487 52.69863015 52.767180051 52.773673769 52.830985674 53.008083813 53.044972049 53.170164474 
53.240316969 53.276284272 53.316722562 53.339478601 53.364391738 53.442393686 53.497159571 53.506681187 53.551978378 
53.64518583 53.782666376 53.803669273 53.853323349 54.023869246 54.030219652 54.102599043 54.144976625 54.180235282 
54.296057088 54.482628364 54.483129533 54.55872637 54.575885058 54.566417667 54.558741757 54.54583578 54.519176459 
54.518277113 54.518128819 54.510260295 54.508054855 54.50302624 54.503444413 54.533418772 54.533947303 54.4953031 
54.45035416 54.434868652 54.389340952 54.333808618 54.302476185 54.301710593 54.176446285 54.066465247 53.83066784 
53.79453916 53.65960362 53.526989573 53.442443402 53.351097856 53.304189977 53.255783669 53.184090254 52.791105632 
52.476809393 52.094494827 51.80923889 51.75715496 51.242352491 51.151741857 51.104582777 50.631478635 50.504467136 
49.679138844 49.267665633 48.873982661 48.560836335 48.510872085 48.088582806 47.968259361 47.813262857 45.850499749 
42.150380645 
EdgeArray 2 208 int
13427 13427 13147 13147 10374 10374 13746 13747 14113 
13748 13205 14115 13205 13381 14720 13381 14337 14337 
14231 13698 11917 13698 12717 11917 15326 15327 15326 
15324 14085 14085 7637 13077 7637 14711 9790 14711 
14701 10421 14701 14702 15606 14702 13703 13703 12582 
12582 12102 10733 11553 11553 3816 4974 14984 14983 
14982 14984 14976 14976 5149 5149 14974 14974 11568 
11568 13378 13378 13129 13129 14967 14967 13125 13125 
6152 6152 14944 14944 13119 13119 13400 13404 12884 
14088 11246 11246 11544 11544 12336 12336 10540 10540 
15874 15874 16755 16755 10078 16755 10078 10078 16757 
16757 16098 16098 16743 16743 15529 15529 17915 17915 
17914 17912 17948 17948 11627 11627 9416 9416 18501 
18501 19670 19670 18935 18935 19988 19988 20342 20342 
20345 20345 19537 19537 12860 12860 18927 18927 18938 
18938 18383 18383 16628 16628 15508 15508 19231 19231 
17245 17245 12363 12363 12144 12144 17303 17303 17095 
17095 19799 19799 12696 12696 20980 20980 20988 20988 
20628 20628 20627 20627 20631 20631 19586 19586 20610 
20610 20613 20613 20615 20615 20378 20378 20625 20625 
20622 20622 20386 20386 20789 20789 20787 20787 19427 
19427 20794 20794 20786 20786 19205 19205 21209 21209 
21210 21205 14102 21205 20686 17980 20686 20686 19440 
14011 14011 14011 21084 21214 21018 21084 21404 22721 
21054 21054 22915 22915 23337 23337 21265 21265 21790 
21790 22489 22489 19128 22384 21774 19128 22100 22100 
23921 23921 23918 23918 23497 23497 23958 24137 24144 
24137 24144 23858 22527 11301 22527 22527 24202 21510 
24200 24202 24200 24200 24132 24132 23795 22526 23795 
23795 24463 24463 22767 22767 24571 24571 24566 24566 
23860 24974 24567 24969 24529 24529 24016 21389 25174 
25174 24978 24978 24726 24781 24726 23787 23304 23787 
25738 25740 25175 25737 24013 24013 25872 25872 25875 
25875 26101 26102 26232 26100 26231 26232 26301 26231 
26696 26113 26509 26516 26516 26508 26515 26515 26448 
26495 26822 26821 26823 26821 27022 27022 26625 26625 
27220 27220 27073 27073 27443 27443 26794 27435 26794 
27470 27629 27470 27650 27650 27276 26627 28099 27937 
27941 27496 28408 28230 28411 28411 28677 28677 28610 
28610 28614 28114 28817 28821 28859 28855 28866 28866 
28870 28870 29396 29396 29363 29360 29526 29363 29526 
29946 29778 29941 29570 29943 29782 29782 29787 29787 
29785 29785 30172 30172 30170 30170 30171 30171 30595 
30167 30377 30168 30377 29303 30611 30604 29220 29220 
31521 31521 31518 31518 32235 31177 31163 32227 31163 
30937 32196 32197 32195 32197 31238 31238 34535 34236 
30918 30918 
EdgePCoordArray 1 208 double
0 0 0 0.292 0.62 0.012 0.024 0.892 0 
0.16 0.236 0.772 0.068 0.176 0 0.316 0.912 0.932 
0.332 0.888 0.976 0 0 0.184 0 0.788 0.332 
0.608 0 0 0 0 0 0 0 0 
0 0 0 0.288 0.396 0 0 0 0 
0 0 0.996 0 0 0 0 0 0 
0.036 0 0 0 0 0 0 0 0 
0 0 0 0 0 0 0 0 0 
0 0 0 0 0 0 0 0 0 
0 0 0 0 0 0 0 0 0 
0 0 0 0 0 0 0 0 0 
0.808 0.832 0.744 0 0.304 0 0.36 0.8 0.224 
0 0 0 0 0 0 0.332 0.644 0 
0 0 0 0.024 0.604 0.372 0.388 0 0.976 
0.32 0 0 0.132 0 0 0 0 0 
0.788 0.712 0 0.08 0 0 0.092 0.172 0.216 
0.504 0.872 0 0 0 0.004 0.284 0.572 0.748 
0.084 0.992 0.004 0 0.26 0.68 0.42 0 0 
0 0 0 0.784 0.14 0.196 0 0.028 0.044 
0.1 0.284 0 0 0 0.02 0.712 0.792 0 
0 0 0.372 0.604 0.692 0.9 0.968 0 0 
0 0 0 0 0.284 0.152 0.216 0.212 0 
0 0 0.424 0.08 0.08 0.272 0.144 0 0.752 
0 
CurvatureArray 1 208 double
0 0.00031020996413 0.0012265920999 0.0021342323611 0.0029968474793 0.003808797413 0.0045430873173 0.0051947366179 0.0057487386912 
0.0061983405559 0.0065376421852 0.0067711169708 0.0069025298229 0.0069375826013 0.0068849525745 0.0067557842321 0.0065640362012 0.0063186791754 
0.0060400454072 0.0057331952462 0.0054148557931 0.0050904043686 0.0047760271473 0.004471843191 0.0041906338331 0.0039322578883 0.0037000193283 
0.0034941035576 0.0033168164294 0.0031620885447 0.0030310582669 0.0029184615972 0.002822563173 0.0027390774668 0.0026668439943 0.0026028731352 
0.0025449408305 0.0024923083065 0.0024430877645 0.0023964769494 0.0023519907408 0.0023092020786 0.002266607492 0.002224940521 0.0021834321661 
0.0021422836551 0.0021014968301 0.0020615940398 0.0020238027225 0.0019897245807 0.0019616852362 0.0019426115567 0.0019368959439 0.0019483003938 
0.0019820066808 0.0020402370088 0.0021260616982 0.0022378403642 0.0023746943467 0.0025303121477 0.0026990897855 0.0028740266712 0.003047731646 
0.0032131000298 0.0033646195751 0.0034967307617 0.0036069923762 0.003693029442 0.0037552202242 0.0037942796014 0.0038130347484 0.0038133658489 
0.0037998272728 0.003775644737 0.0037438537295 0.0037076556218 0.0036692156665 0.003630621189 0.0035932152232 0.0035572383856 0.0035227516704 
0.0034889475284 0.003454732037 0.0034181110712 0.0033772606336 0.0033293383735 0.0032716524634 0.0032005391621 0.0031140116835 0.0030079281247 
0.0028799286269 0.0027276515717 0.0025494724554 0.0023441193601 0.0021125278718 0.0018563346145 0.00157934571 0.0012884467947 0.00099635237356 
0.00073144022145 0.0005616269221 0.00058810175856 0.00078778714502 0.0010555658823 0.0013374678451 0.0016098012854 0.0018623052974 0.0020893807287 
0.0022874808148 0.0024566857293 0.0025978994196 0.0027122910883 0.0028038322899 0.0028758420443 0.0029327500884 0.0029785092738 0.0030178650647 
0.0030551401002 0.0030937119637 0.0031373880448 0.0031894005468 0.0032514644253 0.003326241543 0.0034131632809 0.0035139288246 0.0036256225471 
0.0037469425666 0.0038742270717 0.0040034989543 0.004129476622 0.0042478081315 0.0043530953116 0.0044405487342 0.0045074492881 0.0045500979652 
0.0045680993863 0.0045604841544 0.0045303035043 0.0044777990929 0.0044078179569 0.0043223309209 0.0042276288597 0.0041260936877 0.004022838507 
0.0039220376779 0.0038286381791 0.0037448344447 0.0036759255082 0.0036250516146 0.0035954307954 0.0035895771345 0.0036114586136 0.0036592958158 
0.0037357412262 0.0038389150148 0.0039659890324 0.0041121412862 0.0042727981614 0.0044406925555 0.0046073506511 0.0047641870156 0.0049021583189 
0.0050145791779 0.0050929716829 0.005132738105 0.0051314965816 0.0050889192372 0.0050057480042 0.0048875673778 0.004740610258 0.0045710281644 
0.0043879537507 0.0041990837334 0.004011474352 0.0038343431537 0.0036736547607 0.0035328608588 0.0034202094905 0.003337268599 0.0032843005246 
0.0032659410732 0.0032753811074 0.0033140967209 0.0033762203495 0.0034548209134 0.0035471544126 0.0036431612545 0.003740496278 0.0038297241431 
0.0039057099663 0.0039636051488 0.0040002127228 0.0040106044494 0.0039894464667 0.003936355862 0.003849899828 0.0037280761358 0.0035706707921 
0.0033781057892 0.0031501732696 0.002886681785 0.0025922145316 0.0022685217393 0.0019161052192 0.0015392586095 0.0011406339024 0.00072383450727 
0 
TorsionArray 1 208 double
0 0 -0.00065991453289 -0.00071220532593 -0.0012393352415 -0.0017501669934 -0.0023040832868 -0.0029733480112 -0.0036188527632 
-0.004299280429 -0.0051061546313 -0.0060276854102 -0.0070415055033 -0.0081516380956 -0.0093889856427 -0.010790878415 -0.012287048922 -0.013998897999 
-0.015837501158 -0.017767395235 -0.019783946348 -0.021855685022 -0.023862029061 -0.025713321513 -0.027271364818 -0.028403094733 -0.029018768732 
-0.029035859433 -0.028349398389 -0.027114957063 -0.025315260754 -0.023110296682 -0.020675975218 -0.018097992452 -0.01544354368 -0.012922755426 
-0.010458405856 -0.0081414895806 -0.0059396525459 -0.0038092644819 -0.0016993208689 0.0004142260239 0.002529933857 0.004868331621 0.0074146134125 
0.010230229883 0.013432529646 0.017055036582 0.021135393764 0.025740437981 0.030598331241 0.035612069124 0.040419469726 0.044371923879 
0.046953138467 0.047732618133 0.046499679294 0.043540840009 0.03930118595 0.034297495598 0.029040467197 0.024002989738 0.019270529601 
0.015028913124 0.011336186305 0.0080538016187 0.0052499982505 0.0028650867961 0.00082863720169 -0.00089901677903 -0.0023439706158 -0.0035331160168 
-0.0045090595697 -0.0052857040552 -0.0059341811538 -0.0063832138292 -0.0067134892993 -0.0069637029839 -0.0071277705307 -0.0072174101097 -0.0072601901209 
-0.0072871948382 -0.0073201161115 -0.007394283517 -0.007478917099 -0.0076340497654 -0.0078829631423 -0.0082677304883 -0.0087885139133 -0.0095298476371 
-0.010549961374 -0.011995637951 -0.014044408361 -0.016971167613 -0.021439025177 -0.028493703889 -0.040302968363 -0.061916292635 -0.1057022993 
-0.1995419952 -0.34231323414 -0.31370408396 -0.17449057658 -0.096021037484 -0.058280072169 -0.038626620949 -0.027183678526 -0.019815010124 
-0.014646807101 -0.010722170896 -0.0074666641195 -0.0046376672404 -0.0019655748261 0.00067894293194 0.0033398660084 0.006122704598 0.0089501943087 
0.011915270589 0.014906531571 0.01784164661 0.020654540508 0.023159264369 0.025293049975 0.026969454235 0.027999326774 0.028521355659 
0.028469991115 0.027757875399 0.026603837084 0.025093811941 0.023142799726 0.021028248909 0.01868645991 0.01603120968 0.013372468944 
0.010589723307 0.0076390269936 0.0045428563283 0.0012984394309 -0.0020862630028 -0.0055971759276 -0.0093818184603 -0.01337391882 -0.01754206994 
-0.02182810447 -0.026354463426 -0.031017004849 -0.035409821934 -0.03968362075 -0.043600388749 -0.046621724035 -0.048890647967 -0.050269954178 
-0.050322313523 -0.049425157303 -0.047670818673 -0.045142701276 -0.042012057759 -0.038796967195 -0.035435356116 -0.032170102155 -0.028870727857 
-0.025739347444 -0.022908825949 -0.019991681483 -0.017126107678 -0.014420774968 -0.011648772728 -0.008386278385 -0.0051164365267 -0.0014870587825 
0.0026708780622 0.0068231243286 0.011638003775 0.016792392622 0.021488068372 0.025991001768 0.030088583069 0.032777494863 0.034353480621 
0.034472092886 0.033154429095 0.030970868432 0.027713281251 0.0241649125 0.020584591428 0.017102939908 0.013952059176 0.011074342642 
0.0086465884224 0.0066263742715 0.0049149943853 0.003557295302 0.0024026936022 0.0015162857848 0.00086284164118 0.00031603823478 -8.4347929107e-05 
-0.00034555437418 -0.00052450830535 -0.00066353936568 -0.00071996479098 -0.00070053840762 -0.00065149702026 -0.00061799057226 -0.0005948875103 0 
0 
TangentArray 3 208 double
-0.39884665923 0.024188967664 0.91669855256 -0.39884665923 0.024188967664 0.91669855256 -0.39775365083 0.023771623625 0.91718424712 
-0.39535837029 0.022859499965 0.9182424529 -0.39168811525 0.021469030327 0.91984754232 -0.38679452662 0.019630099787 0.92195696936 
-0.38074823543 0.017384564002 0.92451530985 -0.3736401813 0.014784828187 0.92745588778 -0.36557447746 0.011892432312 0.93070611445 
-0.35667229432 0.0087759925111 0.93418834098 -0.34706714708 0.0055089376592 0.93782410239 -0.33689772754 0.0021674040629 0.94153875307 
-0.3263019915 -0.0011728460687 0.94526484901 -0.31541719817 -0.0044380525087 0.94894272472 -0.30437670275 -0.0075586276381 0.95252175302 
-0.29330570484 -0.010470846327 0.95596136161 -0.2823165284 -0.013118231765 0.95923161426 -0.27151030658 -0.015453231422 0.9623114626 
-0.26096995506 -0.017436730621 0.96518943373 -0.25076322417 -0.019039061789 0.96786120881 -0.24094420535 -0.020240200269 0.9703278952 
-0.23155233755 -0.021029054785 0.97259513356 -0.22261104305 -0.021402889492 0.97467237564 -0.21413170978 -0.021366670382 0.97657108101 
-0.20611473409 -0.020932467936 0.97830391402 -0.19854888154 -0.020117981561 0.9798844873 -0.19141814744 -0.018946267866 0.98132570116 
-0.18470048353 -0.01744400152 0.9826400349 -0.17836726375 -0.015640074613 0.9838396756 -0.17238845802 -0.013565869941 0.98493562567 
-0.16673321647 -0.011253177724 0.98593782792 -0.16136921664 -0.0087336384226 0.98685546028 -0.15626556042 -0.0060386329039 0.98769661817 
-0.1513930654 -0.0031979859477 0.9884684682 -0.14672414177 -0.00024011979674 0.98917742017 -0.14223256007 0.0028082257967 0.98982928464 
-0.13789582577 0.0059222412574 0.99042903244 -0.13369312443 0.0090786080863 0.99098119425 -0.12960606831 0.012255843099 0.99148981909 
-0.12561873136 0.015433366634 0.99195854023 -0.12171657216 0.018591667637 0.99239076273 -0.11788597782 0.021711895087 0.99278975108 
-0.1141152878 0.024774852917 0.99315855117 -0.11039404714 0.027761723225 0.99350009616 -0.10671135377 0.030652806631 0.99381743415 
-0.10305684911 0.033427361505 0.99411362397 -0.099420182594 0.036063713866 0.99439179192 -0.095790807877 0.038538544056 0.99465516726 
-0.092157508021 0.040827369004 0.99490709097 -0.088508232997 0.042904509455 0.99515099144 -0.0848297607 0.044742545791 0.99539038387 
-0.081108527788 0.046313851786 0.99562866263 -0.077329603263 0.047590312472 0.9958691152 -0.073476984455 0.048543578838 0.99611477938 
-0.06953386995 0.049146999511 0.99636821174 -0.06548328786 0.0493758911 0.99663130615 -0.061308338588 0.049208868403 0.99690509824 
-0.056992712658 0.048629319336 0.99718956072 -0.052520849599 0.047626100058 0.99748349107 -0.047878906673 0.04619442547 0.99778438821 
-0.043056389992 0.044337755563 0.99808832811 -0.038045053682 0.042067820284 0.99839014037 -0.032840580527 0.039403873519 0.99868354899 
-0.02744252064 0.036373804091 0.99896138786 -0.02185419252 0.033012411662 0.99921598013 -0.016083261411 0.029359927395 0.99943950461 
-0.010140165541 0.025461746316 0.99962436771 -0.0040380896598 0.021365332681 0.99976358025 0.0022076519535 0.017118615403 0.99985102854 
0.0085808194194 0.012768415433 0.99988166155 0.015065161849 0.0083588122264 0.99985157456 0.021644396573 0.0039302201982 0.99975800745 
0.028303316083 -0.00048191735506 0.99959926473 0.035028928965 -0.00484778358 0.99937454097 0.041809335568 -0.0091425836174 0.99908377658 
0.048634509915 -0.013345863597 0.99872747653 0.055495223026 -0.017442381845 0.99830658795 0.062383190679 -0.021420521713 0.99782237837 
0.069291056778 -0.025271516185 0.9972763408 0.076210994469 -0.028988677475 0.99667022676 0.083133920685 -0.032566807831 0.99600610152 
0.090049007326 -0.036001419307 0.99528642816 0.096943068706 -0.039287978646 0.99451420109 0.1037997844 -0.042421273633 0.99369313186 
0.11059946489 -0.045394936404 0.9928278089 0.11731823859 -0.048201929926 0.99192389065 0.12392785561 -0.05083379013 0.99098830083 
0.13039526112 -0.053280557302 0.99002942284 0.13668373613 -0.05553119242 0.98905704737 0.14275263558 -0.057574192916 0.98808243449 
0.14855744859 -0.059397374897 0.9871183497 0.15405172288 -0.060989015506 0.98617868901 0.15918790883 -0.062337940975 0.98527823014 
0.16391821534 -0.063434256579 0.98443227993 0.16819647578 -0.064270489977 0.98365606268 0.17198022792 -0.064841297433 0.98296409261 
0.17523158755 -0.06514431304 0.9823696398 0.177918909 -0.065180903652 0.98188406221 0.18001811238 -0.064956053981 0.98151627102 
0.18151416877 -0.064478161999 0.98127222174 0.18240185584 -0.063759209011 0.98115458836 0.18268616887 -0.062815097118 0.98116258962 
0.18238243948 -0.061664177363 0.98129209464 0.18151543826 -0.060326934631 0.98153594261 0.1801185038 -0.058825285612 0.9818843671 
0.178233058 -0.057181533628 0.9823254294 0.17590659928 -0.055418173024 0.98284571242 0.17319027649 -0.053556242503 0.98343116537 
0.17013802442 -0.051615015253 0.98406754994 0.16680415339 -0.049611023589 0.98474114403 0.16324101046 -0.047557250251 0.98543933372 
0.15949884493 -0.045463243303 0.98615070449 0.15562377185 -0.043334886237 0.98686540585 0.15165672042 -0.041173748051 0.98757529415 
0.14763338089 -0.038977295013 0.98827382608 0.14358382021 -0.036739344592 0.98895596825 0.13953271538 -0.034449894762 0.98961802029 
0.13549900862 -0.032095889903 0.99025747789 0.13149749766 -0.029661357029 0.99087265176 0.12753915871 -0.02712826949 0.99146246525 
0.12363143103 -0.024476976141 0.99202628337 0.11977976598 -0.021687058489 0.99256358948 0.11598760411 -0.018738311961 0.99307389018 
0.11225772079 -0.015611606882 0.99355648146 0.10859232323 -0.012289453532 0.99401040068 0.10499319629 -0.0087576732222 0.99443437787 
0.1014631757 -0.0050060567767 0.99482670017 0.098005300879 -0.0010288098615 0.9951853609 0.094622426691 0.0031735968369 0.99550817408 
0.091317893381 0.0075946507639 0.99579283168 0.088095077126 0.012221922156 0.99603708867 0.084956026016 0.017036604597 0.99623904147 
0.081902718284 0.022014209549 0.99639716946 0.078935378767 0.027125887981 0.99651060816 0.076051614056 0.032338362716 0.99657934069 
0.073248005779 0.037616412269 0.99660410153 0.070519063467 0.042923746364 0.99658648079 0.067856575158 0.048224655487 0.99652890967 
0.065250228149 0.053484684608 0.99643454187 0.062687835763 0.058671586209 0.99630712143 0.060155678024 0.063756234047 0.99615081038 
0.057638810145 0.068713489016 0.99596999151 0.055120467822 0.073521892014 0.9957691828 0.052583329401 0.078163102522 0.99555287297 
0.05000927806 0.082622961494 0.99532533291 0.047379853913 0.086891248636 0.99509047848 0.04467587064 0.090959867865 0.99485193321 
0.041877727224 0.094822913589 0.99461292522 0.038966349715 0.09847791015 0.99437604798 0.035922311357 0.10192348697 0.99414344556 
0.032726297364 0.1051591331 0.99391677025 0.029359883411 0.10818696362 0.9936969247 0.025805654365 0.11100868831 0.99348434277 
0.02204758652 0.11362574237 0.99327896112 0.018071758245 0.11604153416 0.99307994336 0.013867222776 0.11825886545 0.9928859657 
0.0094270836107 0.12028015464 0.9926952274 0.0047489285353 0.12210843304 0.99250540465 -0.00016450663693 0.12374780488 0.99231368716 
-0.0053044298013 0.12520154826 0.99211714799 -0.01065524569 0.12647375753 0.99191272519 -0.016194624284 0.12756909504 0.99169746402 
-0.021894429519 0.12849453505 0.99146850097 -0.027721012698 0.12925860312 0.99122336482 -0.033636130533 0.12987064488 0.99096025466 
-0.039599417119 0.13034368949 0.99067775224 -0.045570281964 0.13069324397 0.9903749923 -0.051508942596 0.13093601017 0.99005181181 
-0.057378941033 0.13109100067 0.98970844529 -0.063149668743 0.13118170646 0.98934497483 -0.068796374448 0.13123179824 0.98896171513 
-0.074301489742 0.13126710829 0.98855866538 -0.079655514927 0.13131577334 0.98813519653 -0.084855824697 0.1314045129 0.98769040848 
-0.089907580258 0.13156312173 0.98722225057 -0.094823279915 0.13182244771 0.98672761584 -0.099619392975 0.13221034733 0.986203022 
-0.10431795667 0.13275499048 0.98564388925 -0.10894564834 0.13348535901 0.9850444176 -0.11352972298 0.13442596392 0.98439862973 
-0.11810035905 0.13560067576 0.98369952827 -0.12268744991 0.13703013287 0.98293973992 -0.12731954972 0.13873051291 0.98211179458 
-0.13202482381 0.14071630796 0.98120760626 -0.13682729632 0.14299415718 0.98021985391 -0.14174807897 0.14556655613 0.9791413891 
-0.14680293317 0.1484305719 0.97796588087 -0.15200239666 0.1515768005 0.97668815134 -0.15735082115 0.15499026703 0.97530443258 
-0.16284424125 0.15864756661 0.97381348455 -0.16847158436 0.16252013568 0.97221629834 -0.17421511929 0.16657482685 0.97051631582 
-0.1800499192 0.17077318567 0.96872005536 -0.18594087859 0.17507112371 0.96683819293 -0.19184629981 0.17942007198 0.96488519266 
-0.19771940762 0.18377048256 0.96287872839 -0.203506942 0.1880710494 0.96084036392 -0.20915087289 0.19226852215 0.95879545669 
-0.21458982563 0.19631006055 0.95677247393 -0.21975930448 0.20014363028 0.95480279396 -0.22459206857 0.20371735806 0.95292058471 
-0.22902269666 0.20698234592 0.95116082388 -0.23298943207 0.20989459468 0.94955788853 -0.23643170982 0.21241265227 0.94814603925 
-0.23929328499 0.21449888012 0.94695773622 -0.24152487611 0.21612066354 0.94602198337 -0.24308403368 0.21725042159 0.94536363738 
-0.24308403368 0.21725042159 0.94536363738 
NormalArray 3 208 double
-0.86302436536 0.32805157446 -0.38414985264 -0.86302436536 0.32805157446 -0.38414985264 -0.86295791886 0.32981632233 -0.38278561076 
-0.86452933418 0.32844867227 -0.38040833327 -0.8665243026 0.32754807872 -0.37662698937 -0.86953074612 0.32517385558 -0.37172334496 
-0.87314982961 0.32234370922 -0.36565545009 -0.87754678122 0.31829588154 -0.35860755508 -0.88257042675 0.31320998045 -0.35066928862 
-0.88815214176 0.30697844344 -0.34197954375 -0.89420398421 0.29953411372 -0.33268385796 -0.90072643951 0.29049387955 -0.32296313586 
-0.90762477108 0.27977184345 -0.31296164386 -0.91485691094 0.26706873485 -0.30283844432 -0.9223198468 0.25226735969 -0.29272389626 
-0.92997108745 0.23495043326 -0.28275797146 -0.93770118762 0.21486011104 -0.27304141704 -0.94536229188 0.19178008248 -0.26364851045 
-0.95284419452 0.16504895797 -0.25465031403 -0.95985556022 0.13469178578 -0.2460394813 -0.96612639908 0.10023016422 -0.23781020832 
-0.97125904113 0.061654911856 -0.22990116761 -0.97481378643 0.018736711703 -0.2222319001 -0.97627693826 -0.028181607261 -0.21468380664 
-0.97514328993 -0.078687343451 -0.20713248439 -0.97097030573 -0.13204140435 -0.19945358589 -0.96349668897 -0.18703520701 -0.1915514596 
-0.95263497243 -0.24261684028 -0.18336760377 -0.93868597921 -0.29711468163 -0.17490425492 -0.92213417332 -0.34934705435 -0.16620830912 
-0.90375367194 -0.39807202263 -0.15737841418 -0.88441161295 -0.44244089852 -0.14853333026 -0.86504525626 -0.48182037359 -0.13980640976 
-0.84631318332 -0.51625254975 -0.13129090071 -0.82907703027 -0.54541311648 -0.12310893651 -0.81370819551 -0.56972176065 -0.11530866406 
-0.80049832729 -0.58953727534 -0.10792696134 -0.78981344037 -0.60497226569 -0.10101132195 -0.78152069633 -0.61667516283 -0.094536473203 
-0.7759447143 -0.62455533277 -0.088546240208 -0.77289302818 -0.62908325044 -0.083009824782 -0.77273204628 -0.62992408601 -0.077979680106 
-0.77519818217 -0.62743712118 -0.07341959769 -0.78056663993 -0.62121078199 -0.069374959214 -0.78902482946 -0.61081862354 -0.065881921879 
-0.80064716738 -0.59581823812 -0.062966185328 -0.81557554077 -0.57546110773 -0.060671663767 -0.83388136152 -0.54877645485 -0.0590447078 
-0.85537264945 -0.51474356345 -0.058109331937 -0.87965862256 -0.47207009707 -0.057883773293 -0.90595562654 -0.41933116016 -0.058359068272 
-0.93252791156 -0.3561788608 -0.05939960678 -0.95758548239 -0.28164071068 -0.060897898219 -0.97838774897 -0.19708643062 -0.062564778707 
-0.99243261709 -0.10473579886 -0.06409300249 -0.99783955305 -0.008552212021 -0.065138974865 -0.99407521655 0.086803288007 -0.06541905709 
-0.98213404591 0.17669265919 -0.06474890007 -0.9641464114 0.25776637527 -0.06307291941 -0.94269123689 0.32814896247 -0.060427562563 
-0.92029486588 0.38706629914 -0.056894990164 -0.89881668884 0.43515886007 -0.052586370573 -0.87944136967 0.47362062474 -0.047606523969 
-0.8630389393 0.50338516522 -0.042037658109 -0.84970188475 0.52603549091 -0.035963444804 -0.83950984346 0.54254590356 -0.02944766989 
-0.83238101092 0.55374491282 -0.022548263594 -0.82790937307 0.56065248103 -0.015325322263 -0.82589809567 0.56376506301 -0.0078287480068 
-0.82594374815 0.56375252779 -0.00011096545449 -0.82782980219 0.56092533361 0.0077838757423 -0.83114707369 0.55582786738 0.015808976616 
-0.83569063884 0.54867901666 0.023926822561 -0.84112773388 0.53988299987 0.032101117516 -0.84726978692 0.52963155427 0.040302914084 
-0.85394049899 0.51810488299 0.048507261391 -0.86079310821 0.50578818646 0.056688052432 -0.86784110285 0.49259384665 0.064831492647 
-0.87483389222 0.47890335571 0.07291938636 -0.88178121308 0.4646616711 0.080940865199 -0.88847100882 0.45024393468 0.088880064028 
-0.89498257497 0.43548844973 0.09672642167 -0.90117739599 0.4206741001 0.1044634025 -0.90717975161 0.40554158953 0.11207549876 
-0.91291699996 0.39024680039 0.11954072932 -0.91845467064 0.37463865897 0.12683411677 -0.92381862858 0.35864088188 0.13392482719 
-0.92909686133 0.34199615494 0.1407751834 -0.93434849739 0.32447420037 0.14734102862 -0.93962970855 0.30579733022 0.15357084242 
-0.94505692396 0.28540966034 0.15940118025 -0.95067660865 0.262808783 0.16475900383 -0.95664392241 0.23682642235 0.16954542578 
-0.96295991845 0.2062975813 0.17363612355 -0.96963829157 0.16891019905 0.1768358792 -0.97643724681 0.1208217473 0.17880830076 
-0.98230010106 0.055508920397 0.1789001711 -0.98365997574 -0.03969548852 0.17560558169 -0.9676692445 -0.19089890603 0.1648448996 
-0.88405177204 -0.44773527286 0.13411036426 -0.56988841756 -0.82003323023 0.05265636575 0.015690025277 -0.99764357563 -0.06679160966 
0.42541002481 -0.89483010743 -0.13529741173 0.61733192821 -0.76995042518 -0.16148570581 0.71261231402 -0.68027843677 -0.17147868198 
0.7663734681 -0.61809076243 -0.1750300454 0.80008124564 -0.57363360121 -0.17554057066 0.82271815976 -0.54105094113 -0.17435225465 
0.83862343558 -0.51681013703 -0.17209885406 0.85000278986 -0.49889410146 -0.16911514644 0.85812399581 -0.4860021603 -0.16560527772 
0.86358774654 -0.47756860716 -0.16169239156 0.86690536158 -0.4729449109 -0.15747445922 0.86809186911 -0.47223777414 -0.15299670407 
0.86730996429 -0.47516260515 -0.14830348784 0.86442520659 -0.48187556276 -0.14340503556 0.8593449707 -0.49233964014 -0.13830365171 
0.8519665357 -0.50642527719 -0.13299045334 0.84196409595 -0.52426911683 -0.12742980136 0.82932865998 -0.54536795265 -0.12160497508 
0.81379816366 -0.56955997186 -0.11547288545 0.79543478927 -0.5961534191 -0.10901649841 0.77431483327 -0.62448974957 -0.10222079856 
0.75065215667 -0.65381948816 -0.095086363782 0.72482105158 -0.68334101295 -0.087632774751 0.69748670602 -0.71212797603 -0.079912706669 
0.66896800342 -0.73980052507 -0.071951327291 0.64015237999 -0.7655914309 -0.063833308969 0.61169080502 -0.78913890114 -0.055625117982 
0.58409591462 -0.81030039919 -0.047383811581 0.5578826015 -0.8289950012 -0.039170025773 0.53374729057 -0.84507325958 -0.031064702784 
0.51161088592 -0.85890729395 -0.023077300712 0.49226850985 -0.87030887363 -0.015302898073 0.47582170608 -0.87950742107 -0.0077717633107 
0.46234012409 -0.88670251315 -0.0005126657479 0.45215560772 -0.89191596072 0.0064207016663 0.44542839317 -0.89522330324 0.012991685458 
0.44239899229 -0.89661371271 0.019156769118 0.44321353319 -0.89607068147 0.024881676069 0.44805088802 -0.89350020838 0.030129377134 
0.45697093195 -0.88879772405 0.034873673058 0.47044828701 -0.88156318976 0.039048069218 0.4882658273 -0.87165233632 0.042646060543 
0.51074246157 -0.85852333445 0.045605067133 0.53735569654 -0.84199220523 0.047937268705 0.5685764783 -0.82113713058 0.049543931169 
0.603364599 -0.79586673735 0.050470754498 0.64120404546 -0.76569348315 0.050703667958 0.68119475571 -0.73037454213 0.050266619212 
0.7222436828 -0.68988575943 0.04921078739 0.76251134779 -0.64521277103 0.047717130987 0.80143554324 -0.59632385589 0.045814069194 
0.83728445899 -0.54501344837 0.043761579395 0.86939114699 -0.49236082523 0.041711525006 0.8972128258 -0.43979654787 0.039851495555 
0.92070790018 -0.38836717888 0.038313142773 0.93990453471 -0.33939832803 0.037259100428 0.95524774243 -0.29351379967 0.036761392569 
0.9673393444 -0.2507962683 0.036821523354 0.9765829236 -0.21184753986 0.037502175778 0.98360587587 -0.17612590487 0.03871881425 
0.98869036692 -0.14438633658 0.040545581329 0.99237181508 -0.11560250114 0.042828055721 0.99488454737 -0.090149044709 0.045583847444 
0.99650051792 -0.067887930284 0.04876419488 0.99743292697 -0.048864401053 0.052343351977 0.99788207785 -0.03268783774 0.056239345311 
0.99796799547 -0.019978536499 0.060504033679 0.9978078207 -0.011359219555 0.06519602039 0.99751085094 -0.0063182341667 0.070229496436 
0.99710166736 -0.0064806227747 0.075804132364 0.99657316461 -0.011677272079 0.08188753815 0.99582161142 -0.022388174959 0.088532976084 
0.99457616543 -0.040188327969 0.095933046734 0.99246845844 -0.064702541566 0.10401894119 0.98902177768 -0.095558021799 0.11271462965 
0.98358389659 -0.13295455609 0.1220073948 0.97555648583 -0.17588758469 0.13173116756 0.96480112164 -0.22164433009 0.14153652046 
0.95094804342 -0.26979320521 0.15135866393 0.93479497578 -0.31669048785 0.16082751055 0.91672138699 -0.36159242924 0.16992002164 
0.89775061494 -0.4026970322 0.17854672675 0.87906934509 -0.43861471901 0.1866928354 0.86112353481 -0.46972106732 0.1944951843 
0.84472818559 -0.49560188561 0.20202243305 0.83008423386 -0.51683035128 0.20939568453 0.81736866802 -0.53380667889 0.21670000026 
0.80671383491 -0.54684661496 0.22399010754 0.79774433721 -0.55685960036 0.23132522114 0.79047476456 -0.56406333766 0.238709442 
0.78458549149 -0.56906767095 0.24614547005 0.77988718565 -0.57224124955 0.25360585555 0.77631488678 -0.57375264548 0.26104233062 
0.77346140678 -0.57420493785 0.26841412326 0.77130710714 -0.57367345621 0.27565215782 0.76970482701 -0.5724006535 0.28268705516 
0.76852434062 -0.57060648038 0.28944530126 0.76761816198 -0.56853671914 0.29585191632 0.76699946072 -0.56622888357 0.30182226338 
0.7666056496 -0.56382234838 0.30727859911 0.76633814957 -0.56150472741 0.31215105576 0.76615486037 -0.55938974444 0.31636978955 
0.76607419069 -0.55750782496 0.31986772182 0.76617754342 -0.55579873662 0.3225829139 0.76641215247 -0.55437574565 0.32446871216 
0.76641215247 -0.55437574565 0.32446871216 
BinormalArray 3 208 double
-0.31001659184 -0.94435007192 -0.10996660606 -0.31001659184 -0.94435007192 -0.10996660606 -0.31160177075 -0.94374578327 -0.11067173546 
-0.31029145875 -0.94424515511 -0.11009222351 -0.30938011146 -0.94459056573 -0.10969325308 -0.30709326876 -0.94545048671 -0.10870649223 
-0.30436845479 -0.94646305266 -0.10755246939 -0.30050734048 -0.94787612094 -0.1059537525 -0.29567675469 -0.94960943456 -0.10400566588 
-0.28977689271 -0.95167600433 -0.10169628918 -0.28274304597 -0.9540696863 -0.099032336299 -0.27421123674 -0.95687439526 -0.09591448974 
-0.26409143353 -0.96006579985 -0.092354613829 -0.25208892002 -0.9636672634 -0.088298255074 -0.23807755675 -0.96762805167 -0.083755779439 
-0.22164282082 -0.97195095313 -0.078649886775 -0.20251879056 -0.97655672886 -0.072959542146 -0.18047795022 -0.98131625769 -0.066679171264 
-0.15486324135 -0.98613122955 -0.059687306686 -0.12567859372 -0.99070461641 -0.052050495792 -0.092442798036 -0.99475838698 -0.043704469072 
-0.055130662982 -0.9978759696 -0.034700998548 -0.013505750508 -0.9995953441 -0.025034830681 0.0321084208 -0.99937443554 -0.014825211794 
0.08131593017 -0.9966795542 -0.0041935347779 0.13339792736 -0.99104002662 0.0066827104438 0.18717164092 -0.98217048941 0.017547266475 
0.24160368515 -0.96996534764 0.028193681805 0.29504872759 -0.95471370265 0.038314414029 0.34633911986 -0.93689519307 0.04771384775 
0.39424527261 -0.91728514149 0.056201728032 0.43792245295 -0.89675513652 0.063672209958 0.47673659314 -0.87624920115 0.070068239952 
0.51071923352 -0.85643042786 0.075450558361 0.53953990038 -0.83816733097 0.079826193617 0.56360347002 -0.82183284755 0.083318060891 
0.5832556637 -0.80771946122 0.086035473627 0.59859909613 -0.79619478561 0.088051039079 0.61026852145 -0.78712231442 0.089503038311 
0.61816642959 -0.78082805246 0.090431287828 0.62275311565 -0.77711557307 0.090939227148 0.62368908991 -0.77635316672 0.091036693952 
0.62132558248 -0.77827300199 0.090805588605 0.61524700323 -0.78315161435 0.090247847368 0.60502273137 -0.79117698057 0.089367107754 
0.59020623448 -0.80242335374 0.088166672566 0.57004575658 -0.81703361132 0.086625131345 0.54356783941 -0.83508034537 0.084704313542 
0.50974957017 -0.85637152558 0.082360098873 0.46729755022 -0.88051634086 0.079523411831 0.4147870712 -0.90673010467 0.076106523076 
0.35187085825 -0.93326933211 0.072078102511 0.27757913535 -0.95833901739 0.067350956745 0.19328358809 -0.97918356799 0.061975759426 
0.10120544186 -0.99328494647 0.056057770764 0.0053071073076 -0.99874365132 0.049829244068 -0.08975383813 -0.99500938511 0.043595551142 
-0.17934477014 -0.98306403326 0.037690316196 -0.26012162106 -0.96503277166 0.032380424432 -0.3302133283 -0.9434958047 0.027835666535 
-0.38884895154 -0.92098525694 0.024138131281 -0.43667050938 -0.89937037142 0.021255616743 -0.47487300784 -0.87984705408 0.019099420232 
-0.50439141281 -0.86329619588 0.017577851515 -0.52681030868 -0.84982165363 0.016554627518 -0.54310639053 -0.83951291664 0.015922040457 
-0.55411102652 -0.83229698486 0.015578809055 -0.56084736232 -0.82777552396 0.015424594199 -0.56381509543 -0.82575777728 0.015382828904 
-0.56368723104 -0.82584505507 0.015383451539 -0.56077701407 -0.82782419654 0.015370104808 -0.55563122842 -0.83128811805 0.015297149804 
-0.54847067237 -0.83603295655 0.015126701814 -0.53970094444 -0.84172611071 0.014833918035 -0.5295147662 -0.84817853656 0.014397308507 
-0.51809295366 -0.85521296654 0.013801203649 -0.50592045331 -0.8624813469 0.013054546129 -0.49290988803 -0.86999566866 0.012139966676 
-0.47944176963 -0.87750380418 0.011075340745 -0.46546082174 -0.88501366542 0.0098506568571 -0.45134024607 -0.892311494 0.0084958789468 
-0.4369180321 -0.89947412857 0.006994659646 -0.4224705225 -0.90636072082 0.0053759998983 -0.4077382776 -0.91309170115 0.0036114090819 
-0.39287441957 -0.91959052547 0.0017192781422 -0.37772668541 -0.92591708546 -0.00031934009743 -0.3622168247 -0.93209046966 -0.002515606857 
-0.34608683612 -0.93818964619 -0.0049081206339 -0.32910551758 -0.94426308832 -0.0075351402114 -0.31099468782 -0.95035425244 -0.010445047267 
-0.29120112456 -0.95656326379 -0.013734169468 -0.26922491052 -0.96291841999 -0.017494684616 -0.24390903101 -0.96955001253 -0.021935309439 
-0.21410047672 -0.9764309515 -0.027268715187 -0.17751486995 -0.98353375579 -0.033909027897 -0.13035760142 -0.99055424462 -0.042534506306 
-0.066184606885 -0.99633075745 -0.054264349038 0.027530237019 -0.99708360632 -0.071178424114 0.17666270819 -0.9794581761 -0.097221236399 
0.43070299615 -0.89183837777 -0.13827232925 0.80122203822 -0.56875325457 -0.18591121777 0.98304607563 0.027596369113 -0.18127011226 
0.88643271406 0.44212736633 -0.13696873869 0.76547595396 0.63524562472 -0.10251614599 0.67804204479 0.73058937457 -0.080611111299 
0.61717476004 0.78402428637 -0.06634179647 0.57352146316 0.81723516669 -0.056566895116 0.54142400919 0.83928279381 -0.049643068813 
0.51745897031 0.85454266861 -0.044643494294 0.49967152375 0.86524182854 -0.041048099765 0.48680137667 0.87266271155 -0.03852546612 
0.47830567893 0.87741741433 -0.036910141383 0.47355710922 0.88002568081 -0.036034225688 0.47266980645 0.88050906137 -0.035875436181 
0.4753712346 0.87903428212 -0.036344465527 0.48182232076 0.87546911 -0.037431118626 0.49199272623 0.86972115273 -0.039093143074 
0.50575986467 0.86168630747 -0.041275498868 0.52326367086 0.85103589645 -0.043966279308 0.54401078734 0.83775763393 -0.047057518483 
0.5678448891 0.82158524579 -0.050496196141 0.59408442471 0.8025775803 -0.054156476227 0.62207991019 0.78080818922 -0.057923716942 
0.6510910411 0.75648949406 -0.061677399173 0.680325033 0.7299959105 -0.065297933523 0.70886439018 0.70199504907 -0.068660231721 
0.73633350757 0.67280764153 -0.071713618853 0.7619710568 0.64332627996 -0.074373423454 0.78541769487 0.61420658006 -0.076611497826 
0.80653146552 0.58596551465 -0.078430929944 0.82523103451 0.55912244866 -0.079848776296 0.84136573703 0.53437902284 -0.08088730737 
0.85530476799 0.51165773225 -0.081609551379 0.86685692025 0.49175873219 -0.082051381039 0.87624759973 0.47478513727 -0.082275253866 
0.88367207679 0.46080761571 -0.082340767524 0.88914698902 0.450159384 -0.082305290865 0.89274242185 0.4430006997 -0.082227418165 
0.89444146782 0.43957165365 -0.082165819889 0.89422144866 0.44001702101 -0.082176772733 0.89198189227 0.44451380208 -0.082315148131 
0.88761215343 0.4531192582 -0.082629310387 0.88070434499 0.46630555846 -0.083180423589 0.87110933605 0.48385197529 -0.083998753841 
0.85827804939 0.50607423411 -0.085133186889 0.84202375551 0.53244627639 -0.086584975113 0.82141637122 0.56343599036 -0.08840265756 
0.79636512771 0.5980006283 -0.090541879367 0.766380451 0.63562220782 -0.092980714416 0.73122041297 0.67539960839 -0.095666486518 
0.69086398959 0.71623962168 -0.098527926077 0.64630831787 0.75630421194 -0.10143715918 0.59752417377 0.79503140191 -0.10435483573 
0.54632283374 0.83069220038 -0.10715329938 0.49379392979 0.86262111041 -0.10978330828 0.44138061279 0.89027739341 -0.11220212755 
0.39013855569 0.91362115714 -0.11440405848 0.34140432527 0.93268338975 -0.11638204835 0.29580690241 0.94791145694 -0.11816152628 
0.25342939017 0.95990926869 -0.11978205241 0.21487731168 0.96908462402 -0.1212548243 0.17960293731 0.97606648934 -0.12262541861 
0.14836439031 0.98114307839 -0.12388005254 0.12012379482 0.98484936678 -0.12506797619 0.095254123966 0.98742430866 -0.12617403271 
0.073611167253 0.98914192689 -0.12719923161 0.055235003287 0.99021792869 -0.12813098033 0.039726408468 0.99085178836 -0.12897498193 
0.027704460617 0.99116901062 -0.12967827589 0.019790711994 0.99129326035 -0.13017680169 0.015464834805 0.99133157674 -0.13047047113 
0.016357065053 0.9913258535 -0.13040513262 0.022291848939 0.99127181388 -0.12993561668 0.033746218268 0.99107599285 -0.12895568673 
0.052296062689 0.99049282849 -0.1272363098 0.077555816015 0.98915945297 -0.12469431425 0.10914165021 0.98660482896 -0.12123948062 
0.14724293629 0.98219101936 -0.1167061232 0.19084126561 0.97531800787 -0.1110603208 0.23721255802 0.96581750407 -0.10453110137 
0.28591978581 0.95332265428 -0.097086522898 0.33332588091 0.93857864752 -0.089241131377 0.37869728135 0.92195702714 -0.081139442935 
0.42025382719 0.90445233204 -0.073162147282 0.45663484044 0.88722590093 -0.065687313973 0.48823533251 0.8707310128 -0.058768728415 
0.51466803989 0.85577282985 -0.052627677198 0.53652160824 0.84256208172 -0.047262060257 0.55421041097 0.83128120795 -0.04268926886 
0.56806209314 0.82206430972 -0.038932364759 0.57898298568 0.81455177306 -0.035834498785 0.58719565632 0.80875545016 -0.03340483538 
0.59330231177 0.80436217274 -0.031525575635 0.59766375775 0.80118041286 -0.030132685251 0.60044166562 0.79913474432 -0.029214150825 
0.60221631335 0.79782021727 -0.028607915798 0.60305080303 0.79720012921 -0.028314006268 0.60316696831 0.79711373546 -0.028271913257 
0.60276159849 0.79741495137 -0.028422714715 0.60205332446 0.79794017711 -0.02869265164 0.60105759291 0.79867646105 -0.029080587523 
0.5998869747 0.79953903466 -0.029545721092 0.59870006269 0.8004103324 -0.030025567752 0.59758411669 0.80122654659 -0.030483512209 
0.59654761596 0.80198207931 -0.030914177149 0.59551465656 0.80273259755 -0.031347578068 0.5945776359 0.80341134355 -0.03174347081 
0.5945776359 0.80341134355 -0.03174347081 
