# vtk DataFile Version 4.1
vtk output
ASCII
DATASET POLYDATA
POINTS 147 float
-8.28778 6.72373 219.914 -7.86556 6.82657 217.535 -7.44338 6.92854 215.155 
-7.02136 7.02703 212.77 -6.59962 7.11946 210.376 -6.17826 7.20337 207.969 
-5.75736 7.27643 205.546 -5.33695 7.33657 203.103 -4.91704 7.38193 200.637 
-4.49758 7.411 198.146 -4.07847 7.42262 195.628 -3.65957 7.416 193.079 
-3.24064 7.39077 190.499 -2.82142 7.34696 187.886 -2.40156 7.28505 185.24 
-1.98068 7.2059 182.561 -1.55832 7.11079 179.848 -1.13399 7.00134 177.102 
-0.707141 6.87951 174.324 -0.277201 6.74752 171.516 0.156431 6.60781 168.678 
0.594373 6.46294 165.813 1.03725 6.31559 162.923 1.48567 6.1684 160.01 
1.94024 6.024 157.076 2.40154 5.88486 154.123 2.87009 5.75326 151.152 
3.34637 5.63128 148.166 3.83081 5.52067 145.167 4.32377 5.42291 142.154 
4.82552 5.33914 139.131 5.33626 5.27018 136.096 5.85609 5.21649 133.051 
6.38505 5.17826 129.994 6.92305 5.15539 126.926 7.46993 5.14751 123.845 
8.02545 5.15405 120.751 8.58925 5.1743 117.64 9.16091 5.20736 114.511 
9.73991 5.25231 111.362 10.3257 5.30812 108.189 10.9175 5.37375 104.991 
11.5146 5.44819 101.764 12.1161 5.5304 98.5061 12.7212 5.6194 95.214 
13.3288 5.7142 91.8856 13.9378 5.81388 88.5188 14.547 5.9175 85.1119 
15.155 6.02416 81.6638 15.7606 6.13293 78.1739 16.3623 6.24288 74.6423 
16.9583 6.35307 71.0699 17.5472 6.46251 67.4582 18.127 6.57017 63.8095 
18.6961 6.675 60.127 19.2525 6.7759 56.4145 19.7942 6.87175 52.6766 
20.3194 6.9614 48.9184 20.8262 7.0437 45.1456 21.3125 7.11752 41.3645 
21.7765 7.18173 37.5815 22.2164 7.23526 33.8034 22.6306 7.27711 30.0368 
23.0175 7.30634 26.2884 23.3756 7.32212 22.5649 23.7038 7.32373 18.8722 
24.001 7.31057 15.2161 24.2663 7.28218 11.6018 24.4992 7.23823 8.0338 
24.6993 7.17855 4.51606 24.8664 7.10312 1.05174 25.0005 7.01204 -2.3567 
25.102 6.90557 -5.70747 25.1714 6.78412 -8.99948 25.2093 6.64821 -12.2322 
25.2167 6.49848 -15.4058 25.1947 6.33567 -18.5207 25.1445 6.16064 -21.5779 
25.0675 5.97431 -24.5786 24.9652 5.77766 -27.5243 24.8392 5.57176 -30.4164 
24.6912 5.35767 -33.2567 24.523 5.13652 -36.0467 24.3363 4.9094 -38.788 
24.1332 4.67745 -41.4822 23.9153 4.44175 -44.1306 23.6845 4.20337 -46.7346 
23.4427 3.96333 -49.2955 23.1918 3.72262 -51.8145 22.9333 3.48214 -54.2928 
22.6691 3.24274 -56.7319 22.4008 3.00521 -59.1331 22.1298 2.77024 -61.4981 
21.8577 2.53845 -63.8287 21.5858 2.31039 -66.1272 21.3153 2.08653 -68.3958 
21.0474 1.86725 -70.6375 20.7832 1.6529 -72.8553 20.5235 1.44373 -75.0528 
20.2692 1.23995 -77.2339 20.021 1.04175 -79.4026 19.7795 0.849246 -81.5635 
19.5454 0.662558 -83.7212 19.319 0.48178 -85.8804 19.1009 0.307002 -88.0462 
18.8914 0.138315 -90.2233 18.6907 -0.0241781 -92.4167 18.4993 -0.180364 -94.6309 
18.3173 -0.33011 -96.8704 18.145 -0.473263 -99.1393 17.9826 -0.609653 -101.441 
17.8305 -0.739091 -103.78 17.6887 -0.861377 -106.158 17.5576 -0.976304 -108.577 
17.4374 -1.08367 -111.039 17.3283 -1.18327 -113.546 17.2305 -1.27492 -116.097 
17.1443 -1.35849 -118.693 17.0699 -1.43385 -121.332 17.0075 -1.50094 -124.014 
16.9572 -1.55974 -126.736 16.9193 -1.61032 -129.496 16.8938 -1.6528 -132.291 
16.8808 -1.68737 -135.118 16.8804 -1.71431 -137.973 16.8925 -1.73396 -140.851 
16.9173 -1.74674 -143.749 16.9544 -1.75314 -146.663 17.004 -1.75371 -149.587 
17.0656 -1.74904 -152.519 17.1392 -1.73978 -155.453 17.2244 -1.72659 -158.387 
17.3209 -1.71015 -161.315 17.4282 -1.69112 -164.236 17.546 -1.67016 -167.146 
17.6738 -1.64788 -170.044 17.8109 -1.62486 -172.926 17.9568 -1.60159 -175.793 
18.1108 -1.57851 -178.643 18.2723 -1.55595 -181.476 18.4406 -1.53418 -184.293 
18.6147 -1.51335 -187.095 18.794 -1.49354 -189.882 18.9776 -1.47472 -192.657 
19.1646 -1.45679 -195.422 19.3541 -1.43957 -198.18 19.5451 -1.42284 -200.932 

LINES 1 148
147 146 145 144 143 142 141 140 139 138 137 136 135 134 133 132 131 130 129 128 127 126 125 124 123 122 121 120 119 118 117 116 115 114 113 112 111 110 109 108 107 106 105 104 103 102 101 100 99 98 97 96 95 94 93 92 91 90 89 88 87 86 85 84 83 82 81 80 79 78 77 76 75 74 73 72 71 70 69 68 67 66 65 64 63 62 61 60 59 58 57 56 55 54 53 52 51 50 49 48 47 46 45 44 43 42 41 40 39 38 37 36 35 34 33 32 31 30 29 28 27 26 25 24 23 22 21 20 19 18 17 16 15 14 13 12 11 10 9 8 7 6 5 4 3 2 1 0 

CELL_DATA 1
FIELD FieldData 2
LengthArray 1 1 double
424.33426071 
TortuosityArray 1 1 double
0.0059035973539 
POINT_DATA 147
FIELD FieldData 8
RadiusArray 1 147 double
25.324403949 26.056431761 27.242475969 29.980475572 35.012260432 36.620487862 38.503029981 39.888042871 40.450577595 
43.228446629 47.432572601 47.971696774 48.316439188 50.795127792 54.799155198 56.743023921 62.280843603 63.820110446 
66.255554018 68.122060583 73.675177498 73.61176345 73.474628613 73.444213755 73.191511264 72.345086331 72.334562657 
71.587267525 71.358814373 70.872646754 70.787807086 69.931879848 69.753233243 69.2162511 69.115964422 68.618495807 
67.986325305 67.662706073 67.178270166 66.411833153 66.406878301 66.405622533 66.157568776 65.723447989 65.655756804 
65.055086436 64.901796119 64.828339506 64.300118433 63.870943547 63.284385751 63.072323528 62.606773665 62.083864941 
62.034039812 61.823802752 61.398767613 61.003802735 60.622096742 60.2809871 59.79008899 59.462846724 59.062621813 
58.881428882 58.842512614 58.536396176 58.156113062 57.951239698 57.894151202 57.461353786 57.249866135 57.244381147 
57.035672897 57.008692505 56.711007115 56.088896981 55.988016202 55.888135764 55.677066748 55.517819688 55.257739104 
55.257727764 55.257172117 55.055127978 54.948097869 54.719476471 54.645507679 54.547001023 54.435492723 54.454099701 
54.47019371 54.515274203 54.455198196 54.44985535 54.44877759 54.471679471 54.507694864 54.523277296 54.551991894 
54.554105393 54.696745889 54.699034397 54.708111316 54.717159261 54.768374602 54.783814646 54.875388273 54.997432661 
55.267764863 55.433180879 55.459860069 55.474086484 55.586509625 55.62283211 55.698021802 55.6961321 55.671732142 
55.751367247 55.756708378 55.768274732 55.73017916 55.632363867 55.62973311 55.405500071 55.245447347 55.178036833 
54.989450055 54.939953887 54.928838972 54.405048339 53.982013861 53.339967226 53.331537977 52.731820012 52.705665972 
52.464793442 52.340763773 52.040739226 51.918316721 51.834231582 51.067847687 51.006418969 50.802677116 50.587337012 
50.032175708 50.003656534 49.595843722 
EdgeArray 2 147 int
20878 20878 25253 25077 25250 16888 25244 25080 25244 
24567 25244 25244 25250 25249 25251 25253 25252 25251 
25251 25251 25248 21416 25248 25248 25249 25249 25243 
25243 24951 24648 24580 24580 25774 26316 25772 26318 
26004 25772 26315 26550 25993 25997 25285 25285 24849 
24849 26457 26457 23910 23910 22678 22678 24847 24847 
25199 25199 26080 26080 23068 23068 23066 23066 26083 
26083 26084 21564 25619 25619 26649 26649 25823 25823 
25820 25820 19935 19935 11667 11667 25045 20170 20168 
20170 20169 20171 18619 18955 18386 18386 12230 25613 
19271 25465 19273 19271 18373 19273 14568 14568 18615 
18615 18613 18613 24501 24501 23427 23427 24490 24490 
24491 24491 23964 23964 25019 25019 25023 25023 24730 
24730 22508 22508 24908 24908 24904 24904 22250 22250 
24324 24324 24888 24891 25311 25311 25312 25312 21323 
21323 24303 24303 25905 25905 25538 25538 25529 25537 
20506 20506 25459 25459 25562 25518 25522 21531 21315 
25525 21315 25510 23949 23949 22253 22253 24975 24975 
24974 24975 24974 24974 24250 24250 24970 24970 23274 
23274 24023 24023 24239 24239 24036 24036 7243 20915 
22646 22646 24225 24225 24224 24224 22877 22879 22877 
20350 20912 20912 20911 20911 19073 19073 19917 19917 
19916 17670 18158 17668 18158 18156 18155 18156 16954 
16954 16955 16956 16955 13883 18151 15072 17387 15071 
15066 11521 15067 15067 10526 11834 10526 13423 13422 
13422 8012 8012 13014 13014 17517 13009 8004 8004 
7033 7328 8003 8003 16441 16443 15127 15127 12211 
12211 14446 14446 15852 15852 12046 12046 12203 12203 
17503 17503 17499 17499 17500 17500 18667 18667 18190 
18669 17660 10402 17660 20991 18655 17638 18656 18655 
18656 18656 15726 12030 12028 15723 11504 18654 18654 
18653 18647 18647 18040 12467 19989 19989 17729 17729 
18144 18144 17628 17628 12150 12150 
EdgePCoordArray 1 147 double
0 0.976 0.924 0.704 0.488 0 0.032 0.724 0.388 
0 0.26 0 0 0 0.932 0 0.652 0.532 
0.436 0.504 0.124 0 0 0 0 0 0 
0 0 0 0 0 0.5 0 0 0 
0 0 0 0.98 0.964 0.96 0.764 0 0.072 
0.208 0.384 0.464 0 0 0 0 0 0 
0 0 0 0 0 0 0 0 0 
0 0.656 0 0 0 0 0 0 0.98 
0 0 0.008 0.356 0.504 0.424 0 0 0 
0.98 0 0 0 0 0 0 0 0.204 
0 0 0 0.216 0.14 0 0 0 0 
0.008 0.148 0.312 0.836 0 0.14 0.068 0.488 0.516 
0.912 0 0.224 0.188 0 0 0 0.996 0 
0.232 0 0.4 0 0 0 0 0 0 
0 0 0 0 0.064 0.168 0.192 0.032 0.916 
0 0.98 0.972 0.128 0.752 0 0.76 0 0 
0 0 0 
CurvatureArray 1 147 double
0 0.00016466337711 0.00065439625073 0.0011284555441 0.0015689819698 0.0019611497916 0.0022925342759 0.0025536319435 0.0027387962393 
0.002845283024 0.0028743601119 0.0028296465834 0.0027174018831 0.002545625018 0.0023227981221 0.0020587776861 0.0017630973971 0.0014451624187 
0.0011141120038 0.00077955079795 0.00045401263567 0.00018750410697 0.00027637947937 0.00054615717091 0.00081189214495 0.0010543468107 0.0012670162125 
0.0014466363338 0.0015904923483 0.0016972739076 0.0017661669442 0.0017975591302 0.0017929627826 0.0017543747021 0.001685208042 0.001589137128 
0.0014711346449 0.0013365877531 0.0011914293314 0.0010426070056 0.00089742141712 0.00076531730579 0.00065684739944 0.00058457361963 0.00055771067187 
0.00057565216342 0.0006275645726 0.00069935060765 0.00078035380518 0.0008643884621 0.00094766556022 0.0010291088942 0.0011087585876 0.0011865212221 
0.0012633855295 0.0013406987152 0.0014192429799 0.0015000289834 0.0015845003304 0.0016727438128 0.0017659969696 0.0018648755323 0.0019691857381 
0.0020793589733 0.0021952181168 0.0023158011209 0.0024407343725 0.0025680954742 0.0026968084331 0.0028239129043 0.0029472010259 0.003063496923 
0.0031695463962 0.0032617773303 0.0033364147071 0.0033912175563 0.0034223282931 0.003428064966 0.0034068330531 0.0033580993438 0.0032824993132 
0.003179894771 0.0030526535021 0.0029032861903 0.0027331252981 0.0025454403479 0.0023421948478 0.002125307807 0.0018966292922 0.001658145992 
0.0014113805508 0.0011583331218 0.00090396862393 0.00065847876439 0.00045584018165 0.00039124951492 0.00052923773076 0.00077014490801 0.0010427319271 
0.0013209722652 0.0015938224154 0.0018505184393 0.0020878178793 0.0022974212997 0.002476749609 0.0026220789278 0.0027331390928 0.0028090188101 
0.0028527313994 0.0028669440141 0.0028544121146 0.0028195021975 0.0027671958616 0.0027007225204 0.002623732354 0.0025394515436 0.0024514552214 
0.0023608897168 0.0022698211181 0.0021804717336 0.0020927962242 0.0020084430139 0.0019271596774 0.0018500455208 0.00177683206 0.0017080733106 
0.001643474251 0.0015835923453 0.0015276661242 0.0014752057447 0.0014267116198 0.0013811299054 0.0013373150235 0.001294513017 0.0012510584158 
0.0012051435474 0.0011553224861 0.001099199119 0.001034365149 0.00096046069847 0.00087393056626 0.00077505728657 0.00066326347812 0.00053855060222 
0.00040256166826 0.00025658522319 0 
TorsionArray 1 147 double
0 0 0.00014708247947 -5.0640972863e-05 -0.00026689173856 -0.00030204716886 -0.00040877233226 -0.00051808860683 -0.00067351625677 
-0.00080829142228 -0.0010108886876 -0.0013166606795 -0.0015908057898 -0.0020592283611 -0.0028257090761 -0.0038603945423 -0.0055864179273 -0.0087555676713 
-0.015088148034 -0.03121416985 -0.090836260785 -0.5132735238 -0.22146874962 -0.051704117581 -0.020636609397 -0.010473679475 -0.0059532706638 
-0.0036674401552 -0.0023756055236 -0.0016813672361 -0.001514312437 -0.0015883484291 -0.0019895245021 -0.0027588864694 -0.0039698350644 -0.005797833089 
-0.0083271095186 -0.011925202708 -0.017009017342 -0.024284407566 -0.034521320988 -0.048337611737 -0.065095116015 -0.079387476964 -0.082527217729 
-0.072168371271 -0.056076538969 -0.041508905464 -0.030742826998 -0.023338397747 -0.018304648032 -0.014849462203 -0.012435561722 -0.010712816718 
-0.0093974807068 -0.0083473804728 -0.0074977344543 -0.0067403205807 -0.0060509059716 -0.0054291907385 -0.0048165134238 -0.0042398460656 -0.0036969482407 
-0.0031614669253 -0.0026629217184 -0.002183416738 -0.0017290419233 -0.0012932222974 -0.00087116557357 -0.00048130571551 -9.86530801e-05 0.0002751194875 
0.00063427893309 0.00098182201097 0.0013480837727 0.0017081381169 0.0020667634561 0.0024596071688 0.0028633766966 0.0032991300189 0.0037680615406 
0.0042828389532 0.0048856947164 0.0055741192496 0.0063866135173 0.0074142492844 0.0087251005267 0.010500296123 0.013059349033 0.016953764694 
0.023348378261 0.034853146154 0.058066286431 0.1118586631 0.2401398011 0.33501712119 0.18699865341 0.089407810274 0.048445894972 
0.029226782539 0.018758560862 0.012563070779 0.0084621260745 0.0055681650298 0.0035301754606 0.0019895698024 0.00080494226834 -3.2598184348e-05 
-0.00060554878919 -0.00099995988467 -0.001246271803 -0.0012612476575 -0.0011072458078 -0.00088669969329 -0.00052122781137 1.4771877738e-06 0.00062028195134 
0.0012933172903 0.0021082952973 0.0030045803908 0.0039696163796 0.0050082146733 0.0061038713892 0.0072759080959 0.0084913103297 0.0097306180264 
0.01098704739 0.012217525984 0.013348445306 0.014409820204 0.015341644077 0.016055726387 0.01654205249 0.01676624796 0.016713942476 
0.016394995535 0.015807066357 0.015001600582 0.01400063778 0.012828384717 0.011579319386 0.010202924545 0.0087942996595 0.0073642363868 
0.0059039152962 0 0 
TangentArray 3 147 double
-0.17455447359 -0.042339200185 0.9837368184 -0.17455447359 -0.042339200185 0.9837368184 -0.17429199586 -0.041386220989 0.98382390746 
-0.17371877472 -0.039307614581 0.9840105176 -0.17284700339 -0.03615143981 0.984285013 -0.17170025766 -0.031999417401 0.98462940176 
-0.17030921737 -0.026963217731 0.98502170299 -0.16871244534 -0.021179836791 0.98543773284 -0.16695457921 -0.014805818032 0.98585341518 
-0.16508517764 -0.0080113381591 0.9862467757 -0.16315581878 -0.00097376972757 0.98659983305 -0.16121955961 0.0061289610363 0.98689953361 
-0.15932958369 0.013124180214 0.98713820697 -0.15753466461 0.019849050285 0.98731395445 -0.15588141946 0.026154873377 0.98742944339 
-0.15441318003 0.031910572365 0.98749090386 -0.15316598111 0.037004562382 0.98750738964 -0.15217064882 0.041346189541 0.98748903095 
-0.15145216215 0.044866460614 0.9874458179 -0.15102862779 0.047518052379 0.98738664579 -0.15091247823 0.049275225378 0.98731827496 
-0.15110915103 0.050132422494 0.98724503782 -0.15161706786 0.050103366272 0.98716863677 -0.15242908024 0.049220381271 0.98708800497 
-0.15353226839 0.047532503975 0.98699974855 -0.15490727479 0.045103502211 0.98689888555 -0.15652841795 0.04201029501 0.98677960533 
-0.15836498351 0.038340663401 0.98663596404 -0.16038102232 0.034190430326 0.98646284378 -0.16253639492 0.0296614443 0.98625661927 
-0.1647872343 0.02485847722 0.9860158333 -0.1670845498 0.019885534449 0.98574201429 -0.16937857432 0.014843756775 0.98543927334 
-0.17161826347 0.0098283255885 0.98511449876 -0.17375234132 0.0049258800639 0.98477706086 -0.17573043094 0.00021245174611 0.98443830203 
-0.17750368996 -0.0042482147309 0.98411096565 -0.179027714 -0.0084053489018 0.98380812546 -0.18026235566 -0.012221329855 0.98354263874 
-0.18117322564 -0.015671503005 0.98332632747 -0.18173140706 -0.018742933418 0.98316956734 -0.18191524626 -0.021432956405 0.98308060278 
-0.18171012329 -0.023747029897 0.98306536388 -0.18110721194 -0.025696704863 0.98312758945 -0.18010455828 -0.027297814605 0.98326861915 
-0.17870591223 -0.028568186708 0.98348769979 -0.17691956433 -0.029526137773 0.98378233108 -0.17475738122 -0.030188670485 0.98414861778 
-0.17223428603 -0.03057108773 0.98458151481 -0.16936622065 -0.030686134433 0.98507534963 -0.16616983217 -0.030543298186 0.9856240124 
-0.16266153986 -0.030149437762 0.98622118962 -0.15885545272 -0.029508804598 0.98686076809 -0.15476429067 -0.028623310841 0.9875366932 
-0.15039917804 -0.027492904595 0.9882430002 -0.14576763313 -0.026116332768 0.98897408171 -0.14087429686 -0.024491611161 0.98972450382 
-0.13572180906 -0.022616036914 0.99048882145 -0.13030939839 -0.02048693652 0.99126169407 -0.12463457386 -0.018102242608 0.99203756573 
-0.11869363223 -0.015460338031 0.99281055575 -0.11248032364 -0.012560713486 0.99357455949 -0.10598859612 -0.0094044162827 0.99432287233 
-0.099212914565 -0.0059941421639 0.99504817363 -0.092147849051 -0.0023348302844 0.99574259851 -0.0847906527 0.0015660211774 0.9963975576 
-0.077141190362 0.0056979214029 0.9970038969 -0.069203239081 0.010046960318 0.99755198877 -0.060985225135 0.014595428087 0.99803195129 
-0.052501198608 0.019321236428 0.9984339307 -0.043772409737 0.024198126942 0.99874843019 -0.034826552531 0.029195515203 0.99896683285 
-0.025698723161 0.034278423074 0.99908186118 -0.016431463355 0.039408233853 0.99908808326 -0.0070748660112 0.044543073257 0.99898241271 
0.0023162244344 0.04963880107 0.9987645491 0.011682065069 0.054650417129 0.99843720947 0.020958827982 0.059533048121 0.9980062844 
0.030082236396 0.064243064899 0.99748077057 0.038988359607 0.06873992556 0.99687247452 0.047616368678 0.072987330762 0.99619552849 
0.055908504337 0.076953569194 0.9954659147 0.063811719183 0.080612368911 0.99470081455 0.071280815997 0.083943565554 0.99391776474 
0.07827632824 0.086932667884 0.9931341942 0.084765011185 0.089570746233 0.9923668547 0.090720575411 0.09185364879 0.99163132484 
0.096121476496 0.093781329069 0.99094183688 0.10095061448 0.095356919773 0.99031107804 0.10519510461 0.096585908945 0.98975004529 
0.10884512949 0.097475348524 0.98926805984 0.11189249622 0.098032913427 0.98887290244 0.11433109596 0.09826644901 0.98857073874 
0.11615650836 0.09818360744 0.98836614916 0.11736605888 0.097791497751 0.98826212676 0.11795889279 0.097096489457 0.98826007273 
0.11793748406 0.096105265484 0.98835951344 0.11730915666 0.094824010194 0.98855802503 0.11608503436 0.093259060071 0.98885136017 
0.11428275653 0.091418310613 0.98923310905 0.11192652615 0.0893104904 0.98969494747 0.109048916 0.086946722754 0.9902265404 
0.1056882099 0.084340289654 0.99081618771 0.10188867247 0.081506456324 0.99145115664 0.09770138652 0.078463240474 0.99211791586 
0.093180291612 0.075231239023 0.99280294819 0.088381627254 0.071832700584 0.99349320636 0.083362371207 0.068291236806 0.99417655476 
0.078177309403 0.064631832747 0.99484221588 0.072876586919 0.060879372571 0.9954811425 0.067506807762 0.057058911025 0.99608589568 
0.062109695795 0.053194770952 0.99665074225 0.056719173199 0.049310487925 0.99717170596 0.051362694482 0.04542859585 0.99764628817 
0.046063142909 0.041570073323 0.99807320166 0.040837715358 0.03775491233 0.998452226 0.035697401762 0.034001809414 0.99878404696 
0.030649381874 0.030328365779 0.99906997033 0.025698534188 0.026751195328 0.9993117426 0.020845205257 0.023285797858 0.9995115052 
0.016087900647 0.0199469526 0.99967159534 0.011423746945 0.016748676949 0.99979446879 0.0068487528762 0.013704184711 0.99988263807 
0.0023583964699 0.010825858102 0.9999386175 -0.0020523589013 0.0081253900276 0.99996488231 -0.0063882330304 0.0056136003439 0.99996383833 
-0.01065333945 0.0033001871827 0.99993780563 -0.014851207988 0.0011935902205 0.99988900232 -0.018983952491 -0.00069919047477 0.99981954406 
-0.023050637548 -0.0023728884297 0.9997314827 -0.027049266868 -0.0038243705635 0.99962678603 -0.030976220168 -0.0050529495715 0.99950734939 
-0.034823991885 -0.0060606748054 0.99937508364 -0.038582174251 -0.0068528007553 0.99923193251 -0.0422373361 -0.0074381157369 0.99907991766 
-0.045772132332 -0.0078290630818 0.99892122696 -0.049166345839 -0.0080419662443 0.99875822761 -0.052396700649 -0.008097037751 0.99859352278 
-0.055435982638 -0.0080179713514 0.99843004961 -0.058256262848 -0.0078317005142 0.99827094133 -0.060827348632 -0.0075676281186 0.99811961441 
-0.063117406541 -0.0072566506571 0.99797972625 -0.06509671363 -0.0069301395329 0.99785489478 -0.066736447346 -0.0066184601276 0.99774868709 
-0.06801085526 -0.0063496140784 0.99766437541 -0.068898037291 -0.0061479165152 0.99760476321 -0.068898037291 -0.0061479165152 0.99760476321 

NormalArray 3 147 double
-0.26577012143 -0.95996796948 -0.088474516808 -0.26577012143 -0.95996796948 -0.088474516808 -0.26426586349 -0.96049775006 -0.087221703273 
-0.2652790959 -0.96040013978 -0.085197258095 -0.26541516511 -0.96065003282 -0.081892029971 -0.26542098057 -0.96101142207 -0.077516125597 
-0.26561993273 -0.96136739617 -0.07224113039 -0.26545430986 -0.96185348561 -0.066120205684 -0.26527420398 -0.9623429579 -0.059376999581 
-0.26451003004 -0.96297468877 -0.052097915483 -0.2636919407 -0.96357725244 -0.044558265038 -0.26190018331 -0.96439330241 -0.036794731383 
-0.25944104589 -0.9653222046 -0.029041091768 -0.25605940961 -0.96642353144 -0.021427473851 -0.2508613436 -0.96792230333 -0.013964275763 
-0.24304188171 -0.96999293791 -0.0066591398163 -0.23178412969 -0.97276711785 0.00050164471699 -0.21343947221 -0.97692342694 0.0080130897253 
-0.18273983851 -0.98302052667 0.016637174204 -0.1223888147 -0.99205779665 0.029022510813 0.029739509512 -0.99807854083 0.054357960839 
0.64600960106 -0.75093236523 0.13701159873 0.81450800573 0.57214445366 0.096059527139 0.59431076622 0.80256840909 0.051755790893 
0.51381144408 0.85703197345 0.038652249813 0.47568829051 0.87893722796 0.034496370427 0.45415622465 0.89026773117 0.034139280076 
0.44125424268 0.89666048393 0.035981521412 0.43242216256 0.90082389265 0.039081808514 0.42648280579 0.90346757308 0.043113347804 
0.42143570627 0.90560814109 0.047600843254 0.4163179654 0.90771624105 0.052254927247 0.41075008476 0.90997116575 0.056893280607 
0.40327617617 0.91303311696 0.061146161569 0.39324564259 0.91714739589 0.064795978273 0.37864731369 0.92308421319 0.067392486271 
0.35775117831 0.9312976497 0.068547662801 0.32773050192 0.94234326963 0.067689587848 0.28424980795 0.95661284891 0.063983622742 
0.22135911997 0.97356582424 0.056300318606 0.12926805819 0.99068642985 0.042780449367 -0.0025979900562 0.99976941154 0.021316055014 
-0.18545056568 0.98259703454 -0.010543026312 -0.41174835812 0.90980877042 -0.052070057083 -0.63970755121 0.76259925966 -0.096003219155 
-0.81338553055 0.56670531027 -0.13133571487 -0.91485125614 0.37355409229 -0.15331183668 -0.9630367893 0.21333441468 -0.16446449453 
-0.98153457199 0.089765936502 -0.16891406288 -0.98550174433 -0.0049390681057 -0.16959338882 -0.98261521419 -0.078792755954 -0.16810426064 
-0.97653630726 -0.13805030702 -0.16528446187 -0.96897355713 -0.18704458059 -0.1615690888 -0.96071020915 -0.22875114103 -0.15719036077 
-0.95212462716 -0.26508563217 -0.15227705663 -0.94348953757 -0.29706140196 -0.14690818889 -0.9349288218 -0.32556120205 -0.14113115136 
-0.92654554629 -0.35113307016 -0.13497747103 -0.9185286842 -0.37389715162 -0.12847558643 -0.91092785115 -0.39422663626 -0.12163802554 
-0.90385381038 -0.41224149452 -0.11447811866 -0.89745394776 -0.4279317326 -0.10700861588 -0.89171314885 -0.44158978052 -0.099227646928 
-0.88672765922 -0.45321854067 -0.091142815257 -0.88252595467 -0.46292480636 -0.082756045021 -0.87906471696 -0.47091344899 -0.074065828564 
-0.87639018745 -0.47718402785 -0.06508181703 -0.87441187449 -0.48196422198 -0.055806473466 -0.87316256533 -0.48522906543 -0.046258929523 
-0.87255392138 -0.487155729 -0.036454766395 -0.87253253532 -0.48784106158 -0.026421079535 -0.87308153596 -0.48730516132 -0.016196027934 
-0.87413585849 -0.48564658082 -0.005822322171 -0.87565115486 -0.48292179431 0.0046471029115 -0.87757163578 -0.47920605188 0.015152027046 
-0.87994334652 -0.47438743054 0.025617819133 -0.88263987824 -0.46867073799 0.035980337548 -0.88571494037 -0.46192932609 0.046155629072 
-0.88915153426 -0.45416535075 0.056065883572 -0.89293038873 -0.44538453644 0.065634865694 -0.89708856166 -0.43547599158 0.074784846744 
-0.90160243943 -0.42444022776 0.083447793746 -0.90652515439 -0.41210463067 0.091552814443 -0.91191356704 -0.39825330525 0.099035100393 
-0.91777716849 -0.38273127499 0.10583874598 -0.92420680621 -0.36513048192 0.11189955557 -0.93132602439 -0.34483173351 0.11714483282 
-0.93921581296 -0.32111205716 0.12149363536 -0.94811917151 -0.29239349313 0.12480417373 -0.95821066786 -0.25639417549 0.12686348086 
-0.96969121456 -0.20858568783 0.12724370021 -0.9821355855 -0.14059724386 0.12506840811 -0.99242789364 -0.033669018855 0.11812397341 
-0.98272770317 0.15569459835 0.10002726361 -0.85368503764 0.5183753079 0.050088887647 -0.3162610062 0.9470590996 -0.055299528195 
0.27527816406 0.95313411772 -0.12552802884 0.54109978698 0.82859162272 -0.14369044261 0.65808715968 0.73847232253 -0.14690105215 
0.71817903447 0.68040246512 -0.14584704285 0.75320526117 0.64202725688 -0.1431182587 0.7749890832 0.61639317786 -0.13946817273 
0.78949909554 0.59868094371 -0.13517509301 0.7990132311 0.58701064876 -0.1303700685 0.80532270935 0.57947949716 -0.12513531149 
0.80934000034 0.57504766247 -0.11953639502 0.81160352401 0.57305063655 -0.11363400797 0.81253282279 0.57291986353 -0.10748600774 
0.81258335781 0.57400153739 -0.10114604139 0.81195327932 0.57599492122 -0.09466637701 0.81086779866 0.57856072732 -0.088095958438 
0.80945742452 0.58149769978 -0.081480691181 0.80820377209 0.58412606192 -0.074855905363 0.80708605556 0.58647507277 -0.068257512062 
0.80633731663 0.58822743402 -0.061713999043 0.80617577134 0.58909097537 -0.055248967724 0.80689850981 0.58866426111 -0.048879265192 
0.8085456533 0.58688791675 -0.042620414151 0.81129989904 0.58349073269 -0.036483402727 0.81545798828 0.57801356291 -0.030472781925 
0.82098130608 0.57042512314 -0.024594185423 0.82810159358 0.5602611189 -0.018847529293 0.83672824772 0.54745838713 -0.013234569087 
0.84697565845 0.53157513962 -0.0077527373173 0.8587211307 0.5124375599 -0.0024014354156 0.87186877631 0.48973143746 0.0028206463485 
0.88613165399 0.46336605296 0.0079115586529 0.90126930024 0.43306815334 0.012869460398 0.91678750393 0.39898353804 0.017686407525 
0.93218466811 0.36129238589 0.022350759 0.9470083946 0.32008463986 0.026850025871 0.96067487733 0.27592092694 0.031167645799 
0.97266426244 0.22951947865 0.035285145568 0.98258554325 0.18163199161 0.039185071275 0.99015816204 0.1332310595 0.042852058545 
0.9952864282 0.085227251448 0.046273550286 0.99803180992 0.038575569903 0.049441195267 0.99861144623 -0.005887910891 0.052349899317 
0.99735430617 -0.04753940031 0.054994485064 0.99467085354 -0.085662727568 0.057374125092 0.99097680271 -0.12011220809 0.059481374861 
0.98671352545 -0.15045729852 0.061310847367 0.98228129926 -0.1765580802 0.062854541917 0.97800312458 -0.19849736701 0.064099014057 
0.97421590571 -0.2160405228 0.065037385928 0.97112593461 -0.22935501953 0.065655876716 0.97112593461 -0.22935501953 0.065655876716 

BinormalArray 3 147 double
0.94810177634 -0.27689147639 0.1563142092 0.94810177634 -0.27689147639 0.1563142092 0.94857042626 -0.27519311917 0.15647010445 
0.94839273963 -0.27583778375 0.15641204707 0.94851394483 -0.27539896123 0.15645033912 0.94872057245 -0.27465084005 0.15651259204 
0.9489156031 -0.27394472887 0.15656776076 0.94924713334 -0.27274399487 0.15665437466 0.94960821668 -0.27143474193 0.156739962 
0.9501480559 -0.2694727579 0.15685376826 0.95070854588 -0.26742836489 0.15695646035 0.95153378688 -0.26440119915 0.15708423952 
0.95252528967 -0.26073127392 0.15720933602 0.95373812349 -0.25618659819 0.15732774299 0.95538974736 -0.249884648 0.15744234925 
0.95764670603 -0.2410299064 0.1575352997 0.96063328042 -0.22881170597 0.15757190029 0.96503247891 -0.20954978051 0.15748398059 
0.97142595909 -0.1779259533 0.15707947397 0.98092371346 -0.11646185125 0.15564480582 0.98809968398 0.037565655811 0.14915708503 
0.74822297466 0.65847347939 0.081086725932 -0.55999015468 0.8186210215 -0.1275564574 -0.78965821002 0.59452611616 -0.15158696693 
-0.84405310408 0.51306613369 -0.15600480747 -0.86586626363 0.47479998251 -0.15760897856 -0.87706383918 0.45349586761 -0.15843143649 
-0.88329792557 0.44105551815 -0.15891760314 -0.88729307503 0.4328363766 -0.15925975665 -0.88977207008 0.42762897834 -0.15949645824 
-0.8917606814 0.42338629041 -0.15970891084 -0.8937349187 0.4191131008 -0.15994406472 -0.89587681432 0.41440576781 -0.16022669308 
-0.89884119698 0.40776700621 -0.16065668758 -0.90286653968 0.39851774103 -0.16129358824 -0.90870513781 0.38459782921 -0.16229443086 
-0.91679143455 0.36423432063 -0.16378896545 -0.92765392024 0.33454224293 -0.16595087215 -0.94165149063 0.29110564474 -0.16896737493 
-0.95821521712 0.22786836082 -0.17291503064 -0.97481457971 0.1348669721 -0.17761597625 -0.98331078181 0.0013236817668 -0.18192898132 
-0.96570674575 -0.18422580244 -0.18295172842 -0.89312007444 -0.41423143364 -0.17535350584 -0.74721924294 -0.64629497791 -0.15481022094 
-0.55359567883 -0.82342513322 -0.12451053914 -0.36296920929 -0.92713836471 -0.093101051492 -0.2049878049 -0.97651270944 -0.06635456393 
-0.083217995105 -0.99549358875 -0.045467351493 0.010069519769 -0.99951686667 -0.029404727712 0.08279449083 -0.99642300683 -0.016919330457 
0.14113137161 -0.98996622373 -0.0069865450991 0.18935466914 -0.98190811959 0.0011198001708 0.23039945393 -0.97306403775 0.0079038011377 
0.26615555904 -0.96383284226 0.013691989651 0.29762273036 -0.954501158 0.018661450733 0.32567242844 -0.94520371598 0.022965292257 
0.3508460363 -0.93605239272 0.026701627227 0.37326199511 -0.92724387593 0.029904474042 0.39328955363 -0.91883495149 0.032644431855 
0.41104757769 -0.91094342752 0.0349565549 0.42652618728 -0.90372377456 0.036861237874 0.44001599706 -0.89716777845 0.03841743924 
0.45152060414 -0.89137928215 0.039649960705 0.46114717092 -0.8863944789 0.040596976853 0.46910102176 -0.8821780269 0.041305692668 
0.47538350422 -0.87878492093 0.041804146336 0.48022368273 -0.87613329312 0.042138666686 0.48359894212 -0.8742652501 0.042335985228 
0.48568845821 -0.87310136039 0.042435080293 0.4865911538 -0.87259701425 0.042467631885 0.48632884226 -0.87274354861 0.042461224056 
0.48500110982 -0.87348290667 0.042444495817 0.48266454396 -0.87477627522 0.042442977251 0.47939333574 -0.87657143147 0.04248005627 
0.47507298599 -0.87891555634 0.042580544973 0.46990464426 -0.88168082165 0.042761595463 0.46375615568 -0.88491644457 0.043047812882 
0.45662304823 -0.88859814472 0.043459510276 0.44850332073 -0.89269672193 0.044015155981 0.43927758192 -0.89723659662 0.044740314207 
0.42893738513 -0.9021799384 0.045651707393 0.41730110106 -0.90756345197 0.046780035207 0.40414439439 -0.91342639696 0.048161455723 
0.38930436093 -0.9197605571 0.049826018871 0.37236631459 -0.92663736844 0.051831603921 0.35270612908 -0.93415950606 0.05426236027 
0.32959720636 -0.94238639054 0.057215142168 0.30146145698 -0.95153197688 0.060892420973 0.26601937142 -0.96173446905 0.065578236204 
0.21875028274 -0.97313440349 0.071817452898 0.15129362503 -0.98520148341 0.08054983625 0.044891830252 -0.9945904193 0.093672949181 
-0.14406223303 -0.98291361333 0.11457269194 -0.5073924169 -0.84954332622 0.14432280535 -0.94131008471 -0.30602505387 0.14242187625 
-0.95410307737 0.28687825219 0.085954558778 -0.8327362021 0.5517647414 0.045892132763 -0.74393921463 0.66780339665 0.024352994981 
-0.68640973624 0.72711428121 0.012103555216 -0.64819309414 0.76146217091 0.0045907493118 -0.62249518459 0.78262361176 -0.00016575308087 
-0.6045834768 0.79653489765 -0.003313065155 -0.59261838897 0.80546582536 -0.0053150012964 -0.58473051304 0.81120098143 -0.0065722790704 
-0.57990188575 0.81465357457 -0.0073045421366 -0.57748455199 0.8163657459 -0.007652525175 -0.57692384849 0.81676137087 -0.0077289130782 
-0.5775782154 0.81629955364 -0.0076448558892 -0.57915531189 0.8151831406 -0.0074546622604 -0.58132283973 0.81364105444 -0.0072104457789 
-0.58388446081 0.81180708391 -0.0069422570534 -0.58616516288 0.81016369924 -0.0067217750691 -0.58819552238 0.80869229729 -0.0065418462506 
-0.58965949385 0.80762640798 -0.0064238970191 -0.59026511561 0.80718423506 -0.0063799659974 -0.58961045647 0.80766222188 -0.0064222247157 
-0.58763470109 0.8090999712 -0.0065341164447 -0.58406511551 0.81167908585 -0.0067083855267 -0.57844078933 0.8156948527 -0.006939778517 
-0.57072837192 0.82110736081 -0.0071991324902 -0.56046163894 0.82814670226 -0.007469324826 -0.54757550534 0.83672068797 -0.0077172712566 
-0.53162644024 0.84694195299 -0.0079155733612 -0.51243907688 0.85868604579 -0.0080291498993 -0.48969789398 0.87185526703 -0.0080228414073 
-0.46331112457 0.88616082611 -0.0078607961784 -0.43300472292 0.90136038847 -0.0075073314409 -0.39892390526 0.9169578221 -0.0069332754406 
-0.3612484085 0.93244955965 -0.0061160496226 -0.32006786425 0.94738123135 -0.005036343816 -0.27594248286 0.96116705612 -0.0036927456719 
-0.22958989997 0.97328519825 -0.0020977826727 -0.18176101347 0.98334269649 -0.00027429419697 -0.13342721453 0.99105709181 0.0017375859679 
-0.085497589131 0.9963307791 0.0038911271993 -0.038925272248 0.99922332448 0.0061295183154 0.0054557505674 0.99994988399 0.0083943016832 
0.047023821605 0.9988371827 0.010632151624 0.085065274722 0.99629341139 0.012780354609 0.1194362179 0.99273147853 0.014805451074 
0.14970842219 0.9885898757 0.016656709831 0.17574375379 0.98426582664 0.01830069725 0.19762625056 0.98007907399 0.019719883767 
0.21512297094 0.97636375133 0.020878995757 0.2284020131 0.97332341908 0.02177251186 0.2284020131 0.97332341908 0.02177251186 

