# vtk DataFile Version 4.1
vtk output
ASCII
DATASET POLYDATA
FIELD FieldData 4
Angle 1 2 double
0 0 
METADATA
INFORMATION 0

Offset 1 2 double
0 0 
METADATA
INFORMATION 0

Normal 3 2 double
0.003419 -0.995384 0.095913 -0.009922 0.932426 -0.361224 
METADATA
INFORMATION 1
NAME L2_NORM_RANGE LOCATION vtkDataArray
DATA 2 1 1 

Binormal 3 2 double
-0.000329 0.095913 0.99539 -0.003844 0.361203 0.932479 
METADATA
INFORMATION 1
NAME L2_NORM_RANGE LOCATION vtkDataArray
DATA 2 1 1 

POINTS 2 double
23.467328 -63.74351 10.721024 7.003259 58.790357 -5.555723 
METADATA
INFORMATION 1
NAME L2_NORM_RANGE LOCATION vtkDataArray
DATA 2 73.6161 82.1503 

