# vtk DataFile Version 4.1
vtk output
ASCII
DATASET POLYDATA
POINTS 188 float
1.10265 -5.4876 195.196 1.08543 -5.65605 192.559 1.06839 -5.8245 189.921 
1.05207 -5.99292 187.283 1.037 -6.16128 184.643 1.02373 -6.32956 182 
1.01276 -6.49774 179.353 1.00459 -6.66582 176.702 0.999712 -6.8338 174.046 
0.998562 -7.00166 171.384 1.00157 -7.16943 168.715 1.00911 -7.33714 166.038 
1.02153 -7.50482 163.352 1.03915 -7.67251 160.657 1.06221 -7.84029 157.951 
1.09093 -8.00822 155.233 1.12545 -8.1764 152.502 1.16588 -8.34493 149.757 
1.21224 -8.51395 146.997 1.26451 -8.68358 144.221 1.32259 -8.854 141.427 
1.3863 -9.02539 138.615 1.4554 -9.19796 135.783 1.52957 -9.37195 132.93 
1.6084 -9.54763 130.055 1.6914 -9.7253 127.158 1.77799 -9.90529 124.237 
1.86753 -10.088 121.292 1.95926 -10.2738 118.324 2.05237 -10.4633 115.33 
2.14597 -10.6568 112.313 2.2391 -10.855 109.27 2.33073 -11.0585 106.204 
2.4198 -11.2678 103.114 2.50521 -11.4838 100.001 2.58585 -11.7071 96.8652 
2.66058 -11.9384 93.7079 2.72831 -12.1785 90.5299 2.78797 -12.4282 87.3318 
2.83855 -12.6881 84.1149 2.87909 -12.9589 80.8799 2.90876 -13.2412 77.6281 
2.9268 -13.5356 74.3605 2.93259 -13.8425 71.0785 2.92564 -14.1623 67.7833 
2.90561 -14.495 64.4764 2.8723 -14.8408 61.1596 2.82566 -15.1994 57.8349 
2.76579 -15.5704 54.5045 2.69295 -15.9534 51.1708 2.60754 -16.3477 47.8366 
2.51007 -16.7521 44.5053 2.4012 -17.1658 41.1801 2.28168 -17.5873 37.8649 
2.15235 -18.0152 34.5639 2.01411 -18.4479 31.2812 1.86793 -18.8839 28.0216 
1.71482 -19.3212 24.7895 1.55578 -19.7583 21.5899 1.39185 -20.1932 18.4274 
1.224 -20.6243 15.3068 1.05322 -21.0497 12.2324 0.880423 -21.468 9.20858 
0.706474 -21.8776 6.2393 0.532175 -22.2772 3.32814 0.358255 -22.6656 0.478273 
0.18537 -23.0416 -2.30759 0.0140981 -23.4046 -5.02723 -0.155059 -23.7536 -7.67893 
-0.321672 -24.0883 -10.2615 -0.485381 -24.4083 -12.7742 -0.645889 -24.7134 -15.2168 
-0.802955 -25.0036 -17.5896 -0.95639 -25.279 -19.8933 -1.10604 -25.5397 -22.129 
-1.25181 -25.7861 -24.2981 -1.39359 -26.0187 -26.4025 -1.53134 -26.2379 -28.444 
-1.66501 -26.4443 -30.4252 -1.79457 -26.6384 -32.3486 -1.92001 -26.8208 -34.2167 
-2.04133 -26.9923 -36.0326 -2.15855 -27.1534 -37.7991 -2.27168 -27.3047 -39.5194 
-2.38078 -27.447 -41.1967 -2.48591 -27.5806 -42.8342 -2.58716 -27.7063 -44.4352 
-2.68463 -27.8245 -46.0029 -2.77848 -27.9356 -47.5408 -2.86887 -28.0402 -49.0521 
-2.95601 -28.1386 -50.54 -3.04015 -28.2312 -52.0077 -3.12154 -28.3182 -53.4585 
-3.2005 -28.3999 -54.8951 -3.27736 -28.4765 -56.3206 -3.35246 -28.548 -57.7375 
-3.42618 -28.6147 -59.1484 -3.49891 -28.6766 -60.5554 -3.57103 -28.7338 -61.9607 
-3.64292 -28.7861 -63.3658 -3.71497 -28.8337 -64.7723 -3.78753 -28.8765 -66.1811 
-3.86092 -28.9144 -67.5931 -3.93546 -28.9474 -69.0088 -4.01139 -28.9754 -70.4282 
-4.08894 -28.9985 -71.8512 -4.16826 -29.0164 -73.2772 -4.24947 -29.0293 -74.7053 
-4.33262 -29.0372 -76.1346 -4.4177 -29.0399 -77.5637 -4.50466 -29.0377 -78.991 
-4.59337 -29.0305 -80.4147 -4.68366 -29.0184 -81.8332 -4.77531 -29.0016 -83.2442 
-4.86805 -28.9801 -84.646 -4.96156 -28.9541 -86.0364 -5.05551 -28.9238 -87.4135 
-5.14951 -28.8892 -88.7755 -5.24319 -28.8505 -90.1207 -5.33615 -28.8079 -91.4474 
-5.42797 -28.7615 -92.7545 -5.51827 -28.7115 -94.0409 -5.60665 -28.6578 -95.3059 
-5.69277 -28.6007 -96.549 -5.77629 -28.5402 -97.7701 -5.8569 -28.4763 -98.9695 
-5.93433 -28.409 -100.148 -6.00837 -28.3383 -101.306 -6.07882 -28.2642 -102.444 
-6.14555 -28.1865 -103.565 -6.20845 -28.1052 -104.67 -6.26747 -28.0201 -105.761 
-6.32257 -27.931 -106.839 -6.37376 -27.8378 -107.908 -6.42108 -27.7401 -108.97 
-6.46459 -27.6378 -110.026 -6.50436 -27.5306 -111.079 -6.5405 -27.4182 -112.132 
-6.57309 -27.3002 -113.188 -6.60224 -27.1763 -114.248 -6.62806 -27.0461 -115.316 
-6.65065 -26.9092 -116.393 -6.6701 -26.7653 -117.483 -6.68649 -26.6139 -118.587 
-6.69989 -26.4545 -119.708 -6.71034 -26.2867 -120.848 -6.71788 -26.1101 -122.011 
-6.72251 -25.9241 -123.198 -6.72421 -25.7283 -124.412 -6.72294 -25.5222 -125.655 
-6.71861 -25.3052 -126.93 -6.71111 -25.0771 -128.239 -6.70029 -24.8372 -129.586 
-6.68596 -24.5852 -130.972 -6.66787 -24.3206 -132.401 -6.64574 -24.0431 -133.874 
-6.61923 -23.7523 -135.395 -6.58794 -23.4478 -136.966 -6.55142 -23.1295 -138.59 
-6.50914 -22.797 -140.269 -6.46055 -22.4503 -142.005 -6.40499 -22.0891 -143.801 
-6.34179 -21.7135 -145.658 -6.27019 -21.3233 -147.579 -6.1894 -20.9187 -149.565 
-6.09859 -20.4997 -151.618 -5.99689 -20.0665 -153.738 -5.88343 -19.6194 -155.927 
-5.75732 -19.1586 -158.185 -5.61772 -18.6844 -160.512 -5.46379 -18.1974 -162.908 
-5.29476 -17.6978 -165.373 -5.10996 -17.1863 -167.904 -4.9088 -16.6635 -170.501 
-4.69084 -16.1298 -173.161 -4.45577 -15.586 -175.883 -4.2035 -15.0328 -178.662 
-3.93409 -14.4708 -181.497 -3.64784 -13.9009 -184.383 -3.34527 -13.3237 -187.316 
-3.02716 -12.74 -190.292 -2.69452 -12.1507 -193.307 -2.34858 -11.5563 -196.356 
-1.99085 -10.9579 -199.433 -1.62302 -10.3559 -202.535 -1.247 -9.75136 -205.656 
-0.864863 -9.14484 -208.791 -0.478834 -8.53712 -211.934 
LINES 1 189
188 187 186 185 184 183 182 181 180 179 178 177 176 175 174 173 172 171 170 169 168 167 166 165 164 163 162 161 160 159 158 157 156 155 154 153 152 151 150 149 148 147 146 145 144 143 142 141 140 139 138 137 136 135 134 133 132 131 130 129 128 127 126 125 124 123 122 121 120 119 118 117 116 115 114 113 112 111 110 109 108 107 106 105 104 103 102 101 100 99 98 97 96 95 94 93 92 91 90 89 88 87 86 85 84 83 82 81 80 79 78 77 76 75 74 73 72 71 70 69 68 67 66 65 64 63 62 61 60 59 58 57 56 55 54 53 52 51 50 49 48 47 46 45 44 43 42 41 40 39 38 37 36 35 34 33 32 31 30 29 28 27 26 25 24 23 22 21 20 19 18 17 16 15 14 13 12 11 10 9 8 7 6 5 4 3 2 1 0 

CELL_DATA 1
FIELD FieldData 2
LengthArray 1 1 double
410.71990311 
TortuosityArray 1 1 double
0.008782268287 
POINT_DATA 188
FIELD FieldData 8
RadiusArray 1 188 double
76.232896725 76.436592238 76.145442179 75.500434006 75.40253653 75.057375653 75.021227134 74.567602803 73.919491838 
73.442040013 72.728719317 72.71453498 72.473512893 72.323340979 72.318021135 71.893198897 71.468395053 71.35717959 
70.94385871 70.7853719 70.726993024 70.708941999 70.676584643 70.530678547 69.950071669 69.926515881 69.715458298 
69.274309347 69.195354724 69.000479887 68.603811914 67.861237565 67.246529145 67.032606175 66.239896267 66.173852815 
65.120225416 64.998336736 64.542617853 64.08135151 63.910236304 63.645588778 63.593842374 63.068306551 62.822737513 
62.79768925 62.54464883 62.208901938 61.682461081 61.552949952 61.010346411 59.938210896 59.283078107 58.345071025 
57.726822212 57.714098521 57.766008782 57.796901324 57.784197462 57.347958637 57.110774177 56.697706063 56.336953438 
55.827066416 55.349026502 55.176403373 55.143083461 54.679569836 54.673037898 54.486320895 54.481086329 54.368095494 
54.262520576 54.212216745 54.189850604 54.116223762 54.055213067 54.057345131 54.089174658 54.09289101 54.0617988 
54.075881016 54.085902802 54.175117621 54.392679849 54.421308702 54.443768529 54.490075865 54.532616327 54.636395365 
54.791412343 54.811522404 54.973013406 55.023812061 55.025202347 55.210324302 55.578270983 55.72242614 55.839583838 
56.049605647 56.288845904 56.731421669 56.75019833 56.878463792 56.929170838 57.017101965 57.189642854 57.331015722 
57.41558869 57.85409232 57.869168457 58.165347736 58.532273067 58.706248479 58.814516709 59.042365352 59.095314929 
59.18883685 59.338155348 59.574939722 59.788764684 59.939359682 60.050588983 60.085631466 60.145475089 60.238784034 
60.307063646 60.3236159 60.356916823 60.393705384 60.476386996 60.486375798 60.517126888 60.614300771 60.72052206 
60.779263509 60.896320502 60.909030954 60.92828753 61.001002933 61.028782573 61.069942606 61.083690618 61.121407416 
61.130716409 61.173556211 61.21334206 61.229211606 61.242632079 61.244968237 61.249893845 61.225690378 61.170110465 
61.163000536 61.077630772 61.01469213 60.949126957 60.933406426 60.711029865 60.575880322 60.474839746 60.306945648 
60.264966826 60.034239341 59.957830369 59.747695634 59.456955251 59.327501629 58.859671217 58.671045945 58.313354048 
57.836341792 57.775858019 57.450098444 57.172105019 56.878457009 56.328552555 55.372962182 54.644834942 54.542998188 
53.50041568 53.404327396 52.443848019 52.241832522 52.15159476 51.865712454 50.637747056 48.485056179 
EdgeArray 2 188 int
6087 6087 12004 12166 8401 7808 11981 12035 11981 
12375 11456 12028 5326 11456 9917 9917 7396 7396 
9661 9661 9893 9893 14050 11029 13672 13672 10082 
10082 12376 14564 14255 14255 14325 14325 8573 8573 
12954 12954 7383 15336 7383 11902 11902 13927 15908 
15282 9410 15908 15049 15049 16131 16131 16910 16910 
13045 13045 16633 17612 14103 16633 17814 17814 18148 
18148 17656 17656 18077 18077 17135 17135 19194 19194 
18978 18978 16129 16129 19622 19622 17186 17186 19935 
19935 20742 20742 20743 20743 20537 20537 20536 20536 
18142 17399 20120 20120 20118 20118 19254 19254 15013 
20749 21735 21735 21731 21731 22303 22303 21162 21162 
21581 21581 22990 16277 24335 20096 24335 24323 24334 
24322 24328 24328 24997 24166 24985 24985 24986 24986 
23961 23961 24526 24526 24528 24528 24548 24548 25634 
25635 25636 25635 25478 25624 25624 25993 25377 25452 
25884 24163 25884 25888 25890 25888 25892 25892 25852 
22028 26219 22028 25260 26219 26003 25260 24695 24695 
24069 24069 25939 25580 23951 22797 26052 25913 26826 
26819 26819 26827 26821 26828 25926 26376 25926 25926 
24320 24188 24320 24320 25818 25818 22555 26877 26878 
22555 26990 26990 23010 23010 27220 25510 27220 24865 
27230 27230 26991 26991 24971 24971 27829 27833 27832 
27834 27832 26589 26589 26589 25919 25919 26567 26567 
27706 27706 27710 27710 27839 20395 20395 20395 27190 
27190 28128 28128 27979 27979 28431 28431 28435 28264 
28435 28435 28800 28800 29524 29525 29528 29524 29528 
29528 29534 29535 29535 29535 29890 29890 28281 28281 
29991 29991 29994 30074 30074 30080 30080 30080 30433 
30433 29730 30432 29730 29730 30151 30151 30613 30613 
28550 30728 30728 30651 31188 30651 31184 31187 31193 
31193 30652 30652 31175 29026 29026 29026 31763 31762 
31762 31478 31478 31478 31270 31475 31674 31170 31674 
31672 31851 31851 31858 31858 31666 32050 31857 31857 
31580 31580 32236 32236 32233 32233 32227 32227 32422 
32422 32613 32613 32615 32615 32789 32789 32785 32785 
33135 33134 33145 33145 32405 32405 33067 33067 32456 
32456 29372 29372 32413 32413 32967 32967 34096 34096 
33488 33488 34099 34099 33657 33657 31299 31299 33782 
33782 32836 32836 30012 30012 34994 34994 35204 35204 
35257 35257 35254 35254 35299 35299 35666 35666 34641 
34641 39577 39577 38934 38934 39325 39325 
EdgePCoordArray 1 188 double
0 0.88 0.548 0.072 0.2 0.144 0.78 0 0 
0 0 0.972 0 0 0.956 0 0 0 
0 0.104 0.704 0.076 0.832 0.576 0 0 0 
0 0.536 0.34 0 0 0 0 0 0 
0 0 0 0 0 0 0 0 0 
0.08 0 0 0 0.024 0 0 0 0 
0 0.444 0.444 0.664 0.848 0 0.824 0 0 
0 0 0 0 0.916 0.912 0.844 0.14 0.764 
0.092 0.696 0.972 0 0.972 0.868 0.776 0.96 0 
0 0.988 0.232 0.268 0.656 0.54 0.948 0.84 0 
0.252 0 0 0.156 0.888 0 0 0.52 0.124 
0 0 0 0.028 0.164 0.232 0 0 0 
0 0 0.016 0 0 0 0 0 0.764 
0 0 0.332 0.424 0 0.66 0 0 0 
0 0.184 0.188 0 0 0.848 0 0 0 
0.104 0.056 0.116 0.836 0 0 0.576 0 0.408 
0.092 0 0.5 0.592 0.86 0 0 0.656 0 
0 0 0 0 0 0 0 0 0 
0.168 0 0 0 0 0 0 0 0 
0 0 0 0 0 0 0 0 0 
0 0 0 0 0 0 0 0 
CurvatureArray 1 188 double
0 2.6348453164e-05 0.00010520063705 0.00018335758716 0.00025975940105 0.00033365652333 0.00040406407284 0.00047014625258 0.00053126717083 
0.00058653653718 0.00063536258658 0.00067709171197 0.00071113483677 0.00073706606381 0.00075438609664 0.00076272100552 0.00076182620465 0.00075142330558 
0.00073151316866 0.00070207248646 0.00066327951924 0.00061560203287 0.00055977044447 0.00049664414674 0.00042857260813 0.00035854788268 0.00029360009567 
0.00024709160015 0.00023947730954 0.00028128586376 0.00035956509092 0.00045829470712 0.0005679716337 0.00068285271734 0.00079998628813 0.00091627552319 
0.0010297119582 0.0011378733756 0.0012388893614 0.0013307400467 0.0014116772494 0.0014799837126 0.0015342401196 0.0015735808914 0.0015970329117 
0.0016046277477 0.0015964729197 0.0015729228743 0.0015348724809 0.0014838594993 0.0014211055824 0.0013482372212 0.0012669971097 0.0011795319425 
0.0010872526878 0.00099239894296 0.0008969939386 0.00080289488226 0.00071353132562 0.00063178399667 0.00056258325933 0.00051167147022 0.0004851381474 
0.00048688448713 0.00051653430906 0.00056871603615 0.00063754903262 0.00071765960005 0.00080424379627 0.0008947915037 0.00098665095598 0.001077829508 
0.0011677790174 0.0012555485986 0.0013382039733 0.0014171205662 0.0014915161979 0.0015608085049 0.0016242238836 0.0016841768817 0.001738802811 
0.0017919703303 0.0018431628257 0.0018937322816 0.0019438667957 0.0019944289639 0.0020451500712 0.0020951363727 0.0021414264068 0.0021849643943 
0.0022217489689 0.0022540767517 0.0022795966553 0.0022995233778 0.0023167379064 0.0023342190019 0.0023524033768 0.002373660462 0.0024013879473 
0.0024326072859 0.0024662195703 0.0025035277564 0.0025392699894 0.0025732415112 0.0026014779193 0.0026234562809 0.0026360652762 0.0026443929004 
0.0026412727554 0.0026337813384 0.0026168171181 0.002596927486 0.0025750262688 0.0025495148452 0.0025273137648 0.0025088824328 0.0024983417049 
0.0025002793106 0.0025172600855 0.0025574881826 0.0026233375452 0.0027183447298 0.0028442144824 0.00300689497 0.0032009748038 0.0034234803046 
0.0036711445238 0.0039355366368 0.0042089020981 0.0044810151479 0.0047429345858 0.0049864709513 0.0052029163739 0.0053819100446 0.0055211539223 
0.005619782524 0.0056755353309 0.0056881605721 0.0056592578935 0.0055959386084 0.0055012487474 0.0053785747606 0.005231187064 0.0050634043238 
0.0048760071825 0.0046761468781 0.0044597386296 0.0042332359139 0.0039991104137 0.0037570294436 0.0035129491124 0.0032698222884 0.0030288463186 
0.0027999981075 0.0025815681416 0.0023817219161 0.0022048229297 0.0020512726548 0.0019275520311 0.0018323007842 0.0017639777235 0.0017215844294 
0.0016993788416 0.0016935559886 0.0016976192166 0.0017074582593 0.0017185604074 0.0017283741699 0.0017334063405 0.0017323680212 0.001724029428 
0.0017067823627 0.0016809925772 0.0016450560927 0.0015997632839 0.0015440488854 0.0014785244203 0.0014023188428 0.0013161535578 0.0012193548262 
0.0011124228389 0.00099529509944 0.0008686557433 0.00073261853193 0.0005878053115 0.00043527666106 0.00027635664705 0 
TorsionArray 1 188 double
0 0 -5.6809969484e-05 0.00039303262218 0.00047138275526 0.00055450867288 0.00091675071151 0.0010077027111 0.0011264653236 
0.0013110793058 0.0014449266389 0.0016323766722 0.0018295115299 0.0020483210743 0.0022857121904 0.0026369875217 0.0032218161168 0.0038529335513 
0.0048019290559 0.0062319915716 0.0082049300424 0.011304483006 0.015739573329 0.022913147621 0.034896542192 0.055160302516 0.089658140624 
0.13508322438 0.1505700005 0.11196109363 0.068836869748 0.041597452717 0.025976444475 0.016753052811 0.011055034294 0.0073952382127 
0.0049508298014 0.0032652264872 0.0020784405058 0.0012504257757 0.00068195692165 0.00032100844858 9.9639582056e-05 1.404143138e-05 4.9394872681e-05 
0.00017035325955 0.0004096204315 0.00078917186923 0.0012780303601 0.0019059029546 0.0027531184122 0.0038520664026 0.0052141899204 0.0070078766699 
0.0094013547469 0.012519058642 0.016810677918 0.022576443752 0.030331067833 0.040734630131 0.053348368961 0.066628685456 0.075862177336 
0.076462142229 0.068505740934 0.056548742823 0.044933293167 0.035244589371 0.027864721022 0.022439316478 0.018534635071 0.015874132376 
0.014177754038 0.013206927027 0.012930612132 0.01324151813 0.014019256547 0.0152326163 0.016765525562 0.01848259029 0.02024916114 
0.021827143649 0.022962172171 0.023380908436 0.022954352412 0.021336420107 0.018437132516 0.014483109332 0.0092953044098 0.0031069948837 
-0.0037899870312 -0.011182440638 -0.018580022988 -0.025802817497 -0.032462212887 -0.037993179988 -0.041993978625 -0.044432731138 -0.045102092069 
-0.044099591404 -0.041760987447 -0.03838388257 -0.034417488302 -0.030028672603 -0.025439605995 -0.021039194518 -0.016529932685 -0.012108356637 
-0.0078597668198 -0.0034036818405 0.0010988436461 0.0059695125347 0.010917471319 0.016309718243 0.022273574902 0.028482636874 0.034914019402 
0.041500805458 0.047725520024 0.052972514612 0.056839719005 0.058984633901 0.059152223307 0.056995067699 0.053608594518 0.048672860631 
0.042902814492 0.037092016328 0.031009198102 0.025187839954 0.019607864715 0.014198370095 0.0094586624718 0.0053151011108 0.0012182245478 
-0.0024755120281 -0.0055710157859 -0.0079721153585 -0.0098102895819 -0.011382367619 -0.012186027605 -0.012305813965 -0.01182545306 -0.010584856982 
-0.0090122961934 -0.0067156519211 -0.0038556300576 -0.00071576647185 0.0030908989509 0.0073310543 0.011979195103 0.017212856574 0.022786714943 
0.028646551908 0.035023849654 0.041020034613 0.046698252019 0.051386722604 0.053922513699 0.054864603084 0.053179079497 0.049119094238 
0.043843669279 0.037666547161 0.03169506839 0.02599870487 0.020745678042 0.016403729833 0.012829214611 0.0098032410938 0.0074220948004 
0.0054837493042 0.0039577764367 0.0027253775497 0.0017666603116 0.001033373631 0.00050133803999 6.6323733029e-05 -0.00027057704419 -0.00039590338012 
-0.00053452807413 -0.00062915674786 -0.00073954716383 -0.00062259994378 -0.0004698896256 -0.00055907305457 0 0 
TangentArray 3 188 double
0.0064833991934 0.063746933063 0.99794503559 0.0064833991934 0.063746933063 0.99794503559 0.0063112231678 0.063722844633 0.99794767775 
0.0059333804676 0.063670065084 0.99795336455 0.0053526788214 0.063589392954 0.99796179182 0.0045740762589 0.06348220203 0.99797248852 
0.0036046600627 0.063350082618 0.99798485633 0.0024536334842 0.063195914042 0.99799812431 0.0011320761489 0.063022406622 0.99801147021 
-0.00034699583427 0.062832556897 0.99802402245 -0.0019687153026 0.062629994106 0.99803487314 -0.0037165364525 0.062418341946 0.99804315435 
-0.0055722503858 0.062201654986 0.99804804701 -0.0075162044437 0.061984138657 0.99804883309 -0.0095273521907 0.061770135146 0.99804492883 
-0.011583261245 0.061564021464 0.99803592086 -0.013660399285 0.0613706224 0.99802156299 -0.0157342349 0.061195777664 0.99800175884 
-0.017779338651 0.061045014092 0.99797665372 -0.019769682411 0.060924791864 0.99794655638 -0.021678753591 0.060842706445 0.99791191832 
-0.02347987815 0.060806903914 0.99787334655 -0.025146659171 0.060827359218 0.99783148773 -0.026652809845 0.060913991606 0.99778710823 
-0.027972938377 0.061078578175 0.99774090926 -0.029082770804 0.06133428103 0.99769348921 -0.029959136955 0.061694555415 0.99764534377 
-0.030580715017 0.062174023839 0.99759671743 -0.03092797195 0.062787283311 0.99754760167 -0.030983812273 0.063549818246 0.99749758094 
-0.030733887525 0.064477018616 0.99744580917 -0.030166613579 0.065583081349 0.99739101403 -0.029273741752 0.066881371605 0.99733140439 
-0.028050852335 0.068383285832 0.99726469701 -0.026497531911 0.07009830436 0.99718810088 -0.024617671478 0.072033135011 0.99709838918 
-0.022419727353 0.074190712829 0.99699202301 -0.019916881447 0.076569945603 0.99686526736 -0.01712729601 0.079165193563 0.99671436624 
-0.01407385295 0.0819662551 0.99653572926 -0.010783899294 0.084957867433 0.99632618568 -0.0072888367591 0.088119694862 0.99608322556 
-0.0036235288361 0.091426226742 0.99580525963 0.00017454469006 0.094847808308 0.99549176932 0.0040661304904 0.0983507284 0.99514350764 
0.0080114028416 0.1018981406 0.99476257789 0.011970979175 0.10545164671 0.9943523751 0.01590676086 0.1089713672 0.99391761031 
0.019783056586 0.11241679565 0.99346418895 0.023567504432 0.11574901058 0.99299886167 0.0272315275 0.11893121931 0.99252899655 
0.030750857351 0.1219286336 0.99206239374 0.034105813576 0.12470964241 0.99160692745 0.03728121059 0.12724732785 0.99117013115 
0.040266378794 0.12951843742 0.99075909943 0.043054897382 0.13150351043 0.99038028179 0.045644215023 0.1331880864 0.99003916048 
0.048035098895 0.13456060474 0.98974040684 0.050231301492 0.1356142278 0.98948754291 0.052239026954 0.13634589759 0.98928301323 
0.054066370208 0.13675504924 0.98912834563 0.05572304073 0.13684516845 0.98902393429 0.05721974601 0.13662132452 0.98896942033 
0.058567892981 0.13609141018 0.98896356353 0.059779207187 0.13526567577 0.98900436973 0.060865259795 0.13415634006 0.98908922579 
0.061837263486 0.13277784451 0.98921493966 0.062705710738 0.13114495776 0.9893780844 0.063480029479 0.12927444793 0.98957485971 
0.064168316016 0.12718439192 0.98980127181 0.064777080942 0.12489363677 0.99005328608 0.065310980585 0.12242272874 0.99032679016 
0.065772661634 0.11979212454 0.99061788995 0.066162696014 0.11702145747 0.9909230425 0.06647947713 0.11413255984 0.99123873911 
0.066719304509 0.11114702431 0.99156183539 0.066876629915 0.10808386635 0.99188980951 0.066944450416 0.10496202219 0.9922204465 
0.066914584738 0.10180045963 0.99255181465 0.066778487979 0.098615493826 0.99288247941 0.066527953712 0.095421974752 0.9932112958 
0.066155832316 0.092232364937 0.99353741586 0.065656792848 0.089055369483 0.9938603155 0.065028552062 0.085898173908 0.9941794562 
0.064272749755 0.082765228085 0.99449430901 0.063394982383 0.079658147268 0.9948043304 0.062405972383 0.076575129691 0.99510891068 
0.061321852983 0.073511640263 0.99540728804 0.060163448871 0.070462343573 0.99569845714 0.058956562765 0.067419376157 0.99598130074 
0.057731208718 0.064373660092 0.99625455554 0.056520063946 0.06131541908 0.99651688483 0.055357412792 0.058234330413 0.99676693345 
0.054277604593 0.055122490776 0.99700323603 0.053313398993 0.051972203504 0.99722443389 0.05249459255 0.048776136226 0.99742929889 
0.051846728824 0.04552987778 0.99761663325 0.051389606885 0.042232322708 0.9977853172 0.051137055776 0.038882550497 0.99793444113 
0.051096659102 0.035482180636 0.99806319754 0.051269305241 0.032036933613 0.99817087376 0.051649807885 0.028552002932 0.99825702125 
0.052227606801 0.025033858012 0.99832138264 0.052987622994 0.021490615688 0.9983638942 0.053910657242 0.017930803115 0.99838475917 
0.054973923666 0.014363604422 0.99838447233 0.05615310816 0.010798956914 0.99836376686 0.057422211698 0.0072435397399 0.99832370539 
0.058754176311 0.0037043706555 0.99826560814 0.060122000859 0.00018796717518 0.99819101863 0.061497959384 -0.0033012316533 0.99810174975 
0.062854689286 -0.0067596957777 0.99799979687 0.064165663614 -0.010188933863 0.99788724475 0.065404801086 -0.013588964912 0.99776628126 
0.066546530442 -0.016962386764 0.99763913151 0.067565555124 -0.020315314294 0.99750798682 0.06843755295 -0.023654321851 0.99737494174 
0.069139395128 -0.026988544954 0.99724187762 0.069648024072 -0.030328062542 0.9971105061 0.069941789478 -0.033685322842 0.9969821689 
0.070000835909 -0.037074693968 0.99685773811 0.069806926327 -0.040509522003 0.99673766442 0.069343963127 -0.044002540834 0.99662188977 
0.068598354499 -0.047568611611 0.99650965522 0.067561068637 -0.051222427164 0.99639940032 0.066226172012 -0.054974276651 0.99628907605 
0.064593526994 -0.058834261665 0.99617579067 0.062668987828 -0.06281065636 0.99605593187 0.060462941443 -0.066907832759 0.99592548648 
0.057993059586 -0.071127504062 0.99577993714 0.055282636142 -0.075467910911 0.9956145964 0.052360040757 -0.079925131056 0.99542473325 
0.049258836712 -0.084493346059 0.99520572822 0.046015696999 -0.089161732917 0.99495363762 0.042668392368 -0.093916382942 0.99466533131 
0.039255359805 -0.098745348476 0.99433815821 0.03581387433 -0.1036361359 0.99397028011 0.032378769892 -0.1085740091 0.99356091902 
0.028980699955 -0.11354237581 0.9931103906 0.025644762613 -0.11852558945 0.99261978159 0.022391804439 -0.12351023436 0.99209063553 
0.019236950055 -0.12848140786 0.99152532372 0.016190198673 -0.13342303931 0.99092692468 0.013256567351 -0.13831869566 0.99029904668 
0.010436157019 -0.14315007302 0.98964596863 0.007725807454 -0.1478999372 0.98897215354 0.0051183711771 -0.15254860292 0.98828271564 
0.0026043053375 -0.15707437254 0.98758334286 0.00017142850555 -0.16145768735 0.98687962073 -0.0021946399884 -0.16567664452 0.98617768836 
-0.0045096902966 -0.16970966598 0.98548378574 -0.006791258177 -0.17353740279 0.98480386303 -0.0090574821123 -0.17713966382 0.98414404511 
-0.011327511211 -0.18050043986 0.98350967392 -0.013620566083 -0.18360583804 0.98290557859 -0.01595600024 -0.18644271716 0.98233625571 
-0.018353062075 -0.1890043968 0.9818047174 -0.020829713171 -0.19128478349 0.98131353535 -0.023403211493 -0.19328202404 0.98086408277 
-0.026089135922 -0.19499974624 0.98045624887 -0.028901153562 -0.19644072448 0.98008967196 -0.031850662447 -0.19761288968 0.97976256365 
-0.034946090748 -0.19852786327 0.97947203035 -0.038193652456 -0.19919856803 0.97921457067 -0.041596121483 -0.19964085535 0.97898584849 
-0.045152687054 -0.19987057407 0.9787813793 -0.048859207321 -0.19990586258 0.97859614958 -0.052708342642 -0.19976755618 0.97842462873 
-0.056688974359 -0.19947579921 0.97826160393 -0.060785979001 -0.19905079741 0.97810216481 -0.064981525091 -0.1985136603 0.97794157702 
-0.069253518557 -0.19788452849 0.97777587593 -0.073576942171 -0.19718339074 0.97760173077 -0.077923199938 -0.19642924815 0.97741676136 
-0.082260538535 -0.19564068619 0.97721948697 -0.08655452461 -0.19483493164 0.97700955148 -0.090767893884 -0.19402812765 0.97678773289 
-0.094860927518 -0.19323469058 0.97655607048 -0.09879207106 -0.19246856639 0.97631755984 -0.10251845363 -0.1917422507 0.97607626544 
-0.10599577367 -0.19106604644 0.97583741569 -0.10918003761 -0.19044978694 0.97560678454 -0.1120281933 -0.18990242448 0.97539056438 
-0.11449889873 -0.1894319348 0.97519513138 -0.11655260724 -0.18904387123 0.97502713013 -0.11815381652 -0.188743016 0.97489268617 
-0.11927279345 -0.18853459971 0.97479675084 -0.11927279345 -0.18853459971 0.97479675084 
NormalArray 3 188 double
0.98988638479 0.14101978003 -0.015439133938 0.98988638479 0.14101978003 -0.015439133938 0.99032819929 0.13792372062 -0.015070002597 
0.99024383503 0.1385648984 -0.014728072524 0.99048516541 0.1369019049 -0.014035866011 0.99062574074 0.13596574197 -0.013189343929 
0.99087195257 0.1342621444 -0.01210166108 0.99126407541 0.13145240118 -0.010760995548 0.9915962829 0.12903804793 -0.0092732910433 
0.99203263318 0.12575339924 -0.0075721387977 0.99247923965 0.12227955569 -0.0057156908434 0.99297179485 0.11829336801 -0.0037005013325 
0.99350326964 0.11379308386 -0.0015450850976 0.99407231666 0.10871839815 0.00073426717639 0.99467697455 0.10299503574 0.0031207218091 
0.99530988795 0.096576035364 0.0055943130114 0.99601000875 0.088866993077 0.008168232068 0.99680499345 0.079131516292 0.010863156445 
0.997605466 0.067806274748 0.013625098715 0.9984812897 0.052540078741 0.016572695725 0.99926364836 0.032924820518 0.019700691869 
0.99971388043 0.0059873832757 0.023158335612 0.99911771288 -0.03205597779 0.027133191733 0.99582991425 -0.085500028994 0.031820228112 
0.98523988346 -0.16694411033 0.037842252522 0.95567858139 -0.29083762096 0.045737591772 0.87434570487 -0.4820540484 0.056066770892 
0.66860642796 -0.74062316036 0.066654173473 0.28791941432 -0.95516231163 0.069046138874 -0.10988798735 -0.99214370732 0.059795436744 
-0.37120156334 -0.92728461886 0.048503968928 -0.51861931061 -0.85404687112 0.040471626993 -0.60279393739 -0.79709514881 0.035760212345 
-0.65354460968 -0.75614774219 0.033466926028 -0.68528574572 -0.72752929691 0.032932792862 -0.70594896703 -0.7074614776 0.033679573395 
-0.7195137975 -0.69357369358 0.035432002206 -0.72853011593 -0.68396009044 0.037979795475 -0.73432720008 -0.67754441339 0.041196251103 
-0.73795827352 -0.6733468973 0.044961566368 -0.74003841639 -0.67076359193 0.049186847913 -0.74111058228 -0.66922547392 0.053780757598 
-0.7415515668 -0.66832633602 0.058661591796 -0.7415998252 -0.66780593696 0.063756802179 -0.74161214591 -0.66727322655 0.0689772873 
-0.7417757869 -0.66652512094 0.074249209588 -0.74229095459 -0.66534533655 0.079496678347 -0.74349653665 -0.66336327696 0.084628971231 
-0.74569027821 -0.66024615906 0.089560138657 -0.74905701568 -0.65577173014 0.094217966485 -0.75401468682 -0.64942925391 0.098506325803 
-0.76105644961 -0.64056536917 0.10231856298 -0.77065068356 -0.62845680849 0.10554413196 -0.78318723475 -0.61232253595 0.10806880812 
-0.7996554489 -0.59035799648 0.10967496992 -0.8206023429 -0.5607868456 0.11013586444 -0.84675205101 -0.5206836633 0.1090847693 
-0.87885474288 -0.46518801038 0.10589832825 -0.9157020022 -0.38925918784 0.099835503973 -0.95474057807 -0.28365225616 0.08950880494 
-0.98737240929 -0.14039558912 0.073381223215 -0.99777122197 0.044051033663 0.050120804563 -0.96560402765 0.25924248792 0.020054780996 
-0.88194989853 0.47117450561 -0.012608003062 -0.76147288787 0.64680610584 -0.042437041483 -0.63323985741 0.77116786546 -0.065630833174 
-0.51708917291 0.85199123076 -0.082034931417 -0.42032131159 0.90259656896 -0.093002304965 -0.34277929953 0.93407457272 -0.10003521583 
-0.28080445075 0.95407118642 -0.10438884845 -0.23084798916 0.96710021461 -0.10689425058 -0.18963561746 0.97588219213 -0.10813084512 
-0.15436612387 0.98203752465 -0.10850529928 -0.12294451309 0.98648779792 -0.10828883257 -0.09380203791 0.98975162709 -0.107670304 
-0.06534649199 0.99212936498 -0.10681366544 -0.0365028687 0.99371491421 -0.10582159442 -0.006457534887 0.99447604622 -0.1047649452 
0.025570829934 0.99427969653 -0.10370158016 0.059738478166 0.99292339999 -0.10263740048 0.096315820347 0.9901539378 -0.10157973325 
0.13472195408 0.98577547035 -0.10048242204 0.17454048896 0.97962900982 -0.099310728695 0.21429957456 0.97184081985 -0.097985270354 
0.25287502757 0.96267835837 -0.096460348139 0.28865473253 0.95273986591 -0.094684704671 0.3197936256 0.94294974204 -0.092616526661 
0.34478008139 0.93433567695 -0.0902415551 0.36277076814 0.92775436723 -0.087573990811 0.37189571643 0.92441240129 -0.084588938058 
0.37202200672 0.924656192 -0.081305308039 0.36198438831 0.92894123345 -0.077688399447 0.34194072179 0.93682522766 -0.073722693909 
0.31180029841 0.94761219783 -0.06936639265 0.27195465219 0.96014074942 -0.064578699751 0.22320813403 0.97296372949 -0.059327143818 
0.16744368252 0.98442188821 -0.05362983502 0.10683909379 0.99313922499 -0.047538277479 0.043612187257 0.99820162451 -0.041127775766 
-0.019455347168 0.99921437672 -0.034527073888 -0.080055828481 0.99640073675 -0.02786819199 -0.13633961888 0.99043370496 -0.02127403111 
-0.18714312034 0.98222056459 -0.014839642927 -0.23175839819 0.97273502122 -0.0086384813477 -0.26981379711 0.96290866293 -0.0027242868965 
-0.30119861086 0.95355712037 0.0028661825684 -0.3267474245 0.94507651026 0.0081553870684 -0.34547617791 0.93833659625 0.013063025279 
-0.35888476658 0.93321479931 0.017659634059 -0.36602813573 0.93034674275 0.021871033534 -0.36747799943 0.92967658553 0.025717042237 
-0.36260597756 0.93148665866 0.029146351109 -0.35112524046 0.93577698135 0.032132642248 -0.33310350183 0.94225271014 0.034668246407 
-0.3073015478 0.95090554736 0.036666043182 -0.27335804164 0.96115788348 0.038090734934 -0.23098798248 0.97217839311 0.038906604994 
-0.17995265754 0.98289880457 0.039076604524 -0.1202523117 0.99199373961 0.038572037744 -0.053441930107 0.99786791697 0.037464388358 
0.018839350584 0.99918001726 0.035838135878 0.093627723556 0.99503055201 0.033882885784 0.16840553196 0.98520533162 0.031780990525 
0.239714814 0.97038527416 0.029819920233 0.30506143642 0.95191355398 0.028250765738 0.36385306583 0.93105946397 0.027188619727 
0.41381841831 0.90996163504 0.026909838623 0.45616666752 0.88947277653 0.027388889219 0.49083265478 0.8707809771 0.028701827907 
0.51844814355 0.854552543 0.030845967313 0.53993944232 0.84102617835 0.033769305005 0.55577733295 0.83048734608 0.037447619017 
0.56653098789 0.82297805929 0.0418300572 0.57335318829 0.81797146819 0.046784599035 0.5765248487 0.81540667726 0.052259444122 
0.57605946868 0.81533132664 0.058226423056 0.5727218089 0.81720284146 0.06456969502 0.56678770218 0.82077958117 0.071222045647 
0.55911969562 0.82540473434 0.078052485541 0.54974090303 0.83099691496 0.085023919319 0.53896804953 0.8372790064 0.092072292456 
0.52775725414 0.84359745695 0.099073767098 0.51630119532 0.84982321001 0.10598861936 0.50551626082 0.85542333243 0.11271305329 
0.49594849947 0.86013352352 0.11918644043 0.48779402451 0.86390703104 0.12538592971 0.48249913186 0.86601796382 0.13117726212 
0.47995651837 0.86659763596 0.13656602004 0.4812075816 0.86511859134 0.14145347762 0.48697094858 0.86116987507 0.14575919013 
0.4978481185 0.85429963738 0.14939672176 0.51452992305 0.84384819696 0.15224709775 0.53800643111 0.82873200043 0.1541179793 
0.5680909212 0.80826032794 0.15488042979 0.60569264062 0.78061219478 0.15421098033 0.65032065317 0.74433163418 0.15183368014 
0.70029065172 0.69844340017 0.14754599238 0.75461447327 0.64085379559 0.14093760821 0.80892896995 0.57285381127 0.13218332913 
0.86009599545 0.49546941247 0.12142874419 0.90520716209 0.41074887904 0.10901996178 0.94079766681 0.32504770721 0.096144361009 
0.96685228915 0.24132833289 0.083410351272 0.98382983498 0.16410313228 0.071756656669 0.9935341378 0.095333822413 0.061655326925 
0.99795147836 0.035426327965 0.053271212967 0.99879327581 -0.014660880049 0.046872708299 0.99754908944 -0.055683329687 0.042369575846 
0.99522169421 -0.089312180214 0.039460281812 0.99250720672 -0.11610980871 0.038052029282 0.98982522005 -0.13713902271 0.037933127987 
0.98735787252 -0.15367696302 0.038830691487 0.98528505712 -0.16600975265 0.040670852451 0.98353626282 -0.17548502638 0.043144237676 
0.98223626905 -0.18185289874 0.046275641418 0.9811846009 -0.18656000313 0.049720661539 0.98050051577 -0.18907841725 0.0535545582 
0.97991834404 -0.19095826125 0.057401929266 0.97967621314 -0.19092698992 0.061493104804 0.97942895637 -0.19090812588 0.06536824075 
0.97935386485 -0.18994515273 0.069187038891 0.97927444706 -0.18904553888 0.072686598211 0.97936940761 -0.18722861615 0.076032945035 
0.97944570409 -0.18561885854 0.078941447202 0.97948700033 -0.1843607593 0.081340805349 0.97948540677 -0.18354924475 0.083174591567 
0.97986396807 -0.18069595207 0.0849445524 0.97986396807 -0.18069595207 0.0849445524 
BinormalArray 3 188 double
-0.14171418684 0.98795230156 -0.062187933583 -0.14171418684 0.98795230156 -0.062187933583 -0.13860096014 0.98839083685 -0.062236062599 
-0.13921904391 0.98830455414 -0.062226731163 -0.13751540251 0.98854147993 -0.062251558471 -0.13652735847 0.98867756475 -0.062265185737 
-0.13475822811 0.98891882559 -0.062287850669 -0.13186930077 0.9893060915 -0.062321303289 -0.12936587705 0.98963496222 -0.062346703249 
-0.12598069019 0.99006977147 -0.062375582773 -0.12239723454 0.99051763947 -0.062399702563 -0.11829286531 0.99101494927 -0.062419294648 
-0.11366707196 0.99155538836 -0.062431631161 -0.10846075749 0.99213823455 -0.062433866018 -0.1026009057 0.99276204249 -0.062422601124 
-0.096041943981 0.99341982095 -0.062393944753 -0.088189885843 0.994151047 -0.062339712763 -0.078308613133 0.99498406014 -0.062245330618 
-0.066837334832 0.99582920993 -0.062104390451 -0.051422502614 0.9967586016 -0.061870965426 -0.031657427391 0.99760419068 -0.06151167389 
-0.0045664634981 0.99813159036 -0.060930088899 0.033636904409 0.99763342299 -0.059967591275 0.087249123792 0.99447434892 -0.058381159023 
0.16887831941 0.98407269615 -0.055507133932 0.29297208316 0.95480447433 -0.050157494814 0.48437799134 0.87396663337 -0.039500446285 
0.74298739179 0.66903791007 -0.018921166189 0.95715509266 0.28934877828 0.011463555344 0.99346093714 -0.10776031097 0.037723755999 
0.92804354829 -0.36876272819 0.05243303129 0.85447292882 -0.51604534817 0.059776354377 0.79735971624 -0.60013848891 0.063649642866 
0.75636802738 -0.65081819135 0.065902116507 0.72779209086 -0.6824861536 0.067315099538 0.70783474498 -0.7030714652 0.068267771492 
0.69411616537 -0.71655514073 0.068930974637 0.68472416929 -0.72548992971 0.069405863383 0.67857955978 -0.73120888945 0.069737658661 
0.67469957256 -0.73476900379 0.069964261318 0.67247814075 -0.73678922664 0.0701055327 0.67134341263 -0.73781582013 0.070184313604 
0.67088608855 -0.73822838854 0.070218961438 0.6708425067 -0.73826765053 0.070222556082 0.67081658567 -0.73829098285 0.070224874729 
0.67060010393 -0.73848563432 0.070245772181 0.6699707713 -0.73905042679 0.070310968329 0.6685505777 -0.74032047379 0.070467873098 
0.66599897872 -0.74258836074 0.0707664245 0.66208621795 -0.74603324624 0.071247705279 0.65629284315 -0.75106391821 0.071990935493 
0.64795637607 -0.7581618667 0.073096638702 0.63634449586 -0.76778222495 0.074673540419 0.62066727533 -0.78030073018 0.07683035742 
0.59910748767 -0.79668212629 0.079798545505 0.56987548696 -0.81745026794 0.083767468664 0.53002600856 -0.84329677837 0.089011088244 
0.47466511374 -0.87492488744 0.095913873594 0.39870623211 -0.91109059149 0.1046292243 0.29281651703 -0.9491844888 0.11535724323 
0.1489045096 -0.9806054941 0.12743748256 -0.03670873668 -0.98961250311 0.13899482848 -0.25364298226 -0.95610038497 0.14675589054 
-0.46769025903 -0.87147789033 0.14762150342 -0.64543434014 -0.75056316084 0.14166670097 -0.77155861938 -0.62233608259 0.13189047413 
-0.85369487529 -0.50643951931 0.12134279202 -0.90520604774 -0.41002491846 0.11172098002 -0.93726871156 -0.3328555388 0.10360768612 
-0.95761750593 -0.27124214586 0.096935084708 -0.97083115715 -0.22162751273 0.091477373789 -0.97967995203 -0.18073910082 0.086951532661 
-0.98582202085 -0.14578116157 0.083083067756 -0.99020560711 -0.11466386986 0.079655838404 -0.99336884228 -0.085822348271 0.076504037363 
-0.99562963515 -0.057668554063 0.073457249349 -0.99709330403 -0.029129831874 0.070401675741 -0.99773580712 0.00060613353055 0.067252448286 
-0.99743098559 0.032319521827 0.063928690766 -0.99597788518 0.066167258732 0.060414783805 -0.99312501435 0.10241985252 0.056682269565 
-0.98867254485 0.14049880038 0.052789072284 -0.98245855041 0.17998928936 0.048775531231 -0.97460093359 0.21942407476 0.044789459226 
-0.96536171152 0.25768254762 0.040944725888 -0.9553321525 0.29315751309 0.037405225822 -0.94542981317 0.32400931082 0.034357457206 
-0.93667834705 0.34873038516 0.031949845706 -0.92993426069 0.36647904745 0.030255223935 -0.92640039929 0.37538825243 0.02942720056 
-0.92642686385 0.37532247266 0.029433101405 -0.93046912092 0.3651145083 0.030308593447 -0.93808960107 0.34491630228 0.031947531868 
-0.94859607608 0.31463094815 0.034246911108 -0.96083211262 0.27464273406 0.037054284336 -0.9733562794 0.22574868688 0.040188104194 
-0.98451740965 0.16982513433 0.043415364286 -0.99294738851 0.10904545248 0.046524971267 -0.99773893311 0.04562525708 0.049349339075 
-0.99850419173 -0.01765344788 0.051746834519 -0.99547100544 -0.078480613423 0.053649516777 -0.98931481626 -0.1350031822 0.055048479782 
-0.98094328562 -0.18605393962 0.055983943742 -0.97132917009 -0.23092148434 0.056523547245 -0.96140218219 -0.26923111475 0.056749016957 
-0.95197545375 -0.30086958147 0.056747074045 -0.94344207508 -0.32667073986 0.056597514859 -0.93666904513 -0.34564716586 0.056383833098 
-0.93153082133 -0.35929989702 0.056159709053 -0.92865965179 -0.36668092795 0.056003108941 -0.92799672463 -0.36836197984 0.055960082894 
-0.92982051659 -0.36371267679 0.056097198408 -0.93412731098 -0.35244521108 0.05646715915 -0.94061908819 -0.33462691206 0.057101319281 
-0.94928252802 -0.30901604722 0.058066897248 -0.95953649062 -0.27525045144 0.059387811429 -0.97054667755 -0.23304429841 0.061069646174 
-0.98124247008 -0.18215805889 0.063100368433 -0.99029719492 -0.12259130959 0.065443384226 -0.99611852015 -0.055900977752 0.067992459107 
-0.99736901989 0.016271452942 0.070641899589 -0.99315700794 0.09095701839 0.073252838765 -0.98327564375 0.16563281967 0.075728313485 
-0.96841678719 0.23683252919 0.077969733922 -0.94993316713 0.30205438039 0.079938284164 -0.9290990478 0.36070223656 0.081663063315 
-0.90806497176 0.41049768867 0.083124332541 -0.88768494941 0.45265108114 0.084394486402 -0.86915334534 0.48709735356 0.085490528406 
-0.85314027422 0.51447140777 0.086434038982 -0.83988643802 0.53570473374 0.087242245934 -0.8296806508 0.55127374454 0.087904927463 
-0.8225668403 0.56175438441 0.088407040654 -0.81801508367 0.5683070144 0.088760691075 -0.81596477076 0.57121945318 0.088937220511 
-0.8164646381 0.57051221192 0.088889317564 -0.81896709093 0.56695596587 0.088621875086 -0.82322737802 0.56083202804 0.088114246325 
-0.82858028277 0.55300556365 0.087404585549 -0.83494148638 0.54350327687 0.086469083195 -0.84202853199 0.53264349002 0.085316257879 
-0.84917737868 0.52137880515 0.084035237164 -0.85625402374 0.50990077888 0.082645281288 -0.86271523313 0.49911808299 0.081262326852 
-0.86828922169 0.48956958474 0.079971552422 -0.87292456808 0.48144599935 0.07881908497 -0.87588149314 0.47617413841 0.07803716986 
-0.87728841214 0.47364140322 0.077645753816 -0.87660665867 0.47486970646 0.077842969248 -0.87341541021 0.48055977332 0.078789754894 
-0.86725250856 0.49129498149 0.080637011114 -0.85744553011 0.50774500521 0.083559395537 -0.84289207026 0.53087174625 0.087796053068 
-0.82288783728 0.56047732648 0.093385083233 -0.79558211724 0.59743911622 0.10057632489 -0.7594922344 0.64125621368 0.10937099387 
-0.71362186641 0.69025658617 0.11953943713 -0.65583772366 0.74344908654 0.13099746539 -0.58744038955 0.79654288654 0.14294480972 
-0.50946465588 0.84645446438 0.15479213201 -0.42398669439 0.89033499321 0.1659484343 -0.33746893994 0.9248205955 0.17556076074 
-0.25293363101 0.94991964042 0.18351363724 -0.17498600147 0.96612115828 0.18970979631 -0.10563938523 0.97522048337 0.19438448783 
-0.045321978067 0.97918166287 0.19786154097 0.0049769515812 0.97970541731 0.20038095032 0.046017874552 0.9782598276 0.20221291979 
0.079499305415 0.97582413374 0.20358565874 0.10599296848 0.97308647734 0.20461719933 0.12658370806 0.97045618918 0.20540533033 
0.14257763405 0.96810387068 0.20602551746 0.15427180492 0.9662088141 0.20649633838 0.16304721598 0.96468676574 0.20686964343 
0.16865679817 0.9636670821 0.20712469506 0.17258358329 0.96293027507 0.20731664702 0.17429838787 0.96260191035 0.20740692895 
0.17538940519 0.96239040769 0.20746869578 0.17456988318 0.96255012102 0.20741894903 0.17380703695 0.96269880896 0.20736951834 
0.17213629297 0.96302367824 0.20725465444 0.17059096318 0.96332272001 0.20714260884 0.16818218497 0.96378551269 0.20695950857 
0.16606057606 0.96418939085 0.20679144964 0.16437976132 0.96450688187 0.20665374153 0.163242193 0.9647205547 0.20655807358 
0.16012683979 0.9652997864 0.20629037196 0.16012683979 0.9652997864 0.20629037196 
