# vtk DataFile Version 4.1
vtk output
ASCII
DATASET POLYDATA
POINTS 148 float
-13.7315 -11.9403 141.516 -13.0687 -11.0167 139.15 -12.4066 -10.0959 136.783 
-11.7478 -9.18573 134.416 -11.0945 -8.29429 132.046 -10.4491 -7.42928 129.674 
-9.81376 -6.59806 127.299 -9.19059 -5.80753 124.918 -8.58148 -5.06402 122.532 
-7.98814 -4.37316 120.139 -7.41207 -3.7398 117.737 -6.85454 -3.16802 115.324 
-6.31662 -2.66101 112.9 -5.79914 -2.22111 110.462 -5.30271 -1.84979 108.008 
-4.82775 -1.54769 105.536 -4.37451 -1.31466 103.044 -3.9431 -1.14983 100.531 
-3.53349 -1.05168 97.9949 -3.14559 -1.01811 95.4342 -2.77922 -1.04656 92.8476 
-2.43421 -1.13409 90.2342 -2.11038 -1.27745 87.5933 -1.80756 -1.47324 84.9245 
-1.52565 -1.71789 82.2278 -1.26459 -2.00785 79.5035 -1.0244 -2.33956 76.7522 
-0.805138 -2.70956 73.9748 -0.606948 -3.11452 71.1723 -0.430008 -3.55129 68.3463 
-0.27453 -4.01688 65.4982 -0.140736 -4.5085 62.6297 -0.0288344 -5.02357 59.7428 
0.0610056 -5.55969 56.8394 0.12868 -6.11466 53.9216 0.174174 -6.68641 50.9914 
0.197592 -7.27304 48.0512 0.199171 -7.87275 45.1031 0.179304 -8.48385 42.1494 
0.13855 -9.10469 39.1926 0.0776434 -9.73371 36.2352 -0.00250397 -10.3693 33.2796 
-0.100805 -11.01 30.3286 -0.216006 -11.6543 27.385 -0.346699 -12.3005 24.4515 
-0.491342 -12.9472 21.5313 -0.648278 -13.5927 18.6272 -0.815762 -14.2355 15.7425 
-0.991988 -14.874 12.8801 -1.17512 -15.5067 10.0431 -1.36331 -16.132 7.23437 
-1.55476 -16.7486 4.45669 -1.74769 -17.3549 1.71254 -1.94044 -17.9497 -0.995869 
-2.13143 -18.5318 -3.66672 -2.31921 -19.1001 -6.2986 -2.50245 -19.6538 -8.89059 
-2.68001 -20.192 -11.4423 -2.85086 -20.7141 -13.9538 -3.01416 -21.2199 -16.4258 
-3.16921 -21.7089 -18.8596 -3.31548 -22.1812 -21.2568 -3.45256 -22.6369 -23.6197 
-3.5802 -23.0762 -25.9507 -3.69824 -23.4995 -28.253 -3.80665 -23.9073 -30.5295 
-3.90545 -24.3002 -32.7838 -3.99477 -24.679 -35.0192 -4.07477 -25.0443 -37.2392 
-4.14567 -25.397 -39.4471 -4.20768 -25.7379 -41.646 -4.26105 -26.0677 -43.8389 
-4.30604 -26.3873 -46.0285 -4.34287 -26.6973 -48.2171 -4.37178 -26.9984 -50.4066 
-4.39297 -27.2912 -52.5986 -4.40663 -27.5762 -54.7944 -4.41293 -27.8539 -56.9949 
-4.412 -28.1246 -59.2006 -4.40398 -28.3887 -61.4118 -4.38896 -28.6464 -63.6284 
-4.36706 -28.8978 -65.8501 -4.33834 -29.143 -68.0763 -4.30288 -29.3821 -70.3065 
-4.26077 -29.6151 -72.5396 -4.21208 -29.8417 -74.7746 -4.15688 -30.0621 -77.0103 
-4.09528 -30.276 -79.2455 -4.02736 -30.4833 -81.4788 -3.95323 -30.6838 -83.7087 
-3.873 -30.8775 -85.9339 -3.7868 -31.064 -88.1527 -3.69476 -31.2433 -90.3638 
-3.59701 -31.4153 -92.5657 -3.4937 -31.5798 -94.757 -3.38497 -31.7368 -96.9366 
-3.27096 -31.8863 -99.1033 -3.1518 -32.0282 -101.256 -3.02762 -32.1626 -103.395 
-2.89853 -32.2896 -105.52 -2.76465 -32.4093 -107.63 -2.62607 -32.5219 -109.725 
-2.48287 -32.6277 -111.808 -2.33513 -32.7268 -113.879 -2.18289 -32.8197 -115.938 
-2.02622 -32.9065 -117.989 -1.86515 -32.9877 -120.034 -1.69973 -33.0636 -122.074 
-1.53001 -33.1346 -124.112 -1.35602 -33.2009 -126.151 -1.17782 -33.2631 -128.194 
-0.995486 -33.3213 -130.243 -0.8091 -33.3759 -132.302 -0.61877 -33.4271 -134.371 
-0.42463 -33.4753 -136.454 -0.226839 -33.5205 -138.553 -0.0255846 -33.5631 -140.668 
0.178913 -33.603 -142.801 0.386405 -33.6405 -144.953 0.596611 -33.6754 -147.124 
0.809227 -33.7079 -149.313 1.02392 -33.738 -151.52 1.24034 -33.7655 -153.744 
1.45811 -33.7904 -155.983 1.67686 -33.8127 -158.236 1.8962 -33.8322 -160.501 
2.11574 -33.8489 -162.776 2.33511 -33.8626 -165.058 2.55395 -33.8733 -167.345 
2.77191 -33.8809 -169.635 2.98867 -33.8852 -171.924 3.20395 -33.8864 -174.213 
3.4175 -33.8843 -176.497 3.62912 -33.8789 -178.776 3.83863 -33.8704 -181.047 
4.04593 -33.8587 -183.31 4.25093 -33.8439 -185.564 4.45361 -33.8262 -187.808 
4.654 -33.8057 -190.042 4.85216 -33.7825 -192.266 5.04819 -33.7569 -194.479 
5.24224 -33.7291 -196.683 5.4345 -33.6992 -198.879 5.62518 -33.6677 -201.067 
5.81451 -33.6347 -203.248 6.00276 -33.6005 -205.424 6.19021 -33.5655 -207.595 
6.37715 -33.53 -209.765 
LINES 1 149
148 147 146 145 144 143 142 141 140 139 138 137 136 135 134 133 132 131 130 129 128 127 126 125 124 123 122 121 120 119 118 117 116 115 114 113 112 111 110 109 108 107 106 105 104 103 102 101 100 99 98 97 96 95 94 93 92 91 90 89 88 87 86 85 84 83 82 81 80 79 78 77 76 75 74 73 72 71 70 69 68 67 66 65 64 63 62 61 60 59 58 57 56 55 54 53 52 51 50 49 48 47 46 45 44 43 42 41 40 39 38 37 36 35 34 33 32 31 30 29 28 27 26 25 24 23 22 21 20 19 18 17 16 15 14 13 12 11 10 9 8 7 6 5 4 3 2 1 0 

CELL_DATA 1
FIELD FieldData 2
LengthArray 1 1 double
357.58249963 
TortuosityArray 1 1 double
0.01436669566 
POINT_DATA 148
FIELD FieldData 8
RadiusArray 1 148 double
75.612183029 77.590252917 81.192543488 84.293855783 84.763306121 87.071541342 87.12197861 89.097994589 90.243268963 
91.068335158 91.263861546 91.325175434 91.351110681 91.303802871 91.037402582 90.924640344 90.58374384 90.013803148 
89.879291221 89.556715981 89.53841748 88.274198432 87.743127862 86.927023162 86.921424298 86.384414779 85.780806886 
85.231639143 84.964426311 84.762445193 84.264503236 84.232459815 83.877257704 83.431474833 83.045203381 83.0309082 
82.33879316 82.161664341 81.277044479 81.069981801 81.002331369 80.093901977 80.00905748 79.736252984 78.695376947 
78.613598985 77.197638331 76.455720012 76.231262393 75.367985968 74.540612969 74.147363234 73.496358591 73.180625067 
72.72443539 72.334711489 72.176235473 72.066947791 71.826780524 71.745748805 71.734707769 71.342752695 71.304519626 
71.218642924 70.780473877 70.742509159 70.577982486 69.904935034 69.859594985 69.458451109 69.445678986 69.40275029 
68.777945893 68.413054009 68.34123031 68.274717136 67.86097811 67.79105849 67.749419129 67.659894243 67.657401881 
67.478317106 67.477039833 67.470388734 67.45645541 67.429742384 67.423487648 67.373489788 67.398684356 67.372762523 
67.371559624 67.271304701 67.371429831 67.371777363 67.385661041 67.37877447 67.383963132 67.392110739 67.392789819 
67.389097205 67.381986207 67.408301238 67.409323503 67.372286145 67.344997895 67.347903277 67.344634515 67.339890269 
67.27724085 67.255878582 67.249482724 67.161246982 67.056057079 67.027698056 66.926762426 66.910206479 66.790219669 
66.78904682 66.715135604 66.606425445 66.576176534 66.341875491 66.200375409 66.107540069 65.824365802 65.712224465 
65.68674841 65.41682712 65.184471478 64.936137605 64.670808285 64.61867994 64.36292587 64.321276203 64.188139181 
63.880505778 63.861578087 63.669156606 63.634801872 63.348279581 63.176266786 63.01579749 62.920931849 62.807978116 
62.47335989 62.281668801 62.055975646 61.804380372 
EdgeArray 2 148 int
36676 36676 38985 38985 36511 36511 35699 35699 31150 
30796 31255 20838 31255 35561 35561 35561 35762 35762 
29526 28672 28180 27498 29223 28665 28628 27893 22697 
27432 28065 28065 26130 28308 28702 28702 28302 20686 
20686 22480 26618 26618 26479 26917 24677 24677 25526 
25526 26239 26239 24329 26559 25994 25994 26207 26207 
26712 26712 27641 27641 25964 25964 26459 26890 26460 
26459 27115 27115 26216 26216 25971 25971 26194 26196 
25131 25131 25717 25717 25969 25969 25322 25322 25493 
25493 25748 25749 25748 25750 25750 25750 25279 25279 
24773 25039 25127 25127 24401 24401 23243 23243 20359 
20359 22928 22928 22605 22605 22563 22563 17221 17221 
19545 19545 21140 21140 16275 20240 20501 20501 21142 
21142 20896 21260 21260 21530 20901 20602 20904 20901 
12154 12154 20441 20441 20715 20715 20425 20425 20303 
20303 19534 19455 18877 19714 18877 19449 19449 20062 
19719 19719 13305 13305 19327 19327 19542 19542 17313 
17313 17136 18364 18357 17136 17716 17483 18309 17716 
18153 18153 18833 17350 17862 17862 16741 16741 17147 
17147 15365 15365 16302 16302 17072 17072 16084 16084 
17331 17331 16914 16914 16420 16420 15811 15811 11774 
16028 15937 11774 15268 13143 13143 15248 14433 15091 
14591 15092 14242 14591 14150 14242 14150 14200 11780 
14174 13319 13612 13319 14167 13639 14167 13420 13420 
13390 13390 12625 13402 12625 12820 13216 13216 12257 
12257 12451 12035 12453 12453 10496 12283 12235 12235 
12198 12198 12085 12085 11908 11908 11910 11910 10124 
10124 11133 11133 11035 11035 10684 11342 10345 10345 
9827 9827 10206 10206 9286 9286 9850 9850 9288 
9288 9822 9822 9407 9039 9407 9181 8795 8795 
9162 9162 8488 8488 8476 8476 8431 8431 7549 
7549 7334 7334 7815 7815 7217 7401 4957 4957 
7300 7300 6927 6927 7077 7077 7396 7396 
EdgePCoordArray 1 148 double
0 0 0 0 0.936 0.012 0.02 0 0 
0.264 0.648 0.216 0.12 0.02 0 0.052 0 0.884 
0.724 0 0.992 0 0 0 0.004 0 0 
0 0 0 0.128 0.416 0 0 0 0.992 
0 0 0 0 0 0.016 0.252 0 0 
0.988 0 0 0 0 0 0 0 0 
0 0 0.784 0 0 0.46 0.456 0.1 0.656 
0 0 0 0 0 0.096 0.04 0.284 0.024 
0 0 0 0 0 0.424 0.644 0.348 0.576 
0 0.632 0 0 0 0 0 0 0 
0 0 0 0 0.284 0.412 0.38 0.724 0.828 
0.644 0.544 0.128 0.096 0.128 0.08 0.288 0.928 0 
0 0.328 0.36 0 0 0.14 0 0.888 0 
0 0 0 0 0 0 0 0.036 0 
0 0 0 0 0 0 0.22 0.52 0 
0 0 0 0 0 0 0 0.108 0 
0 0 0 0 
CurvatureArray 1 148 double
0 0.00038659783648 0.0015477398583 0.0027112789313 0.0038726559544 0.0050176246324 0.0061370069507 0.0072124795589 0.0082232664114 
0.0091462049305 0.0099564527854 0.010626905713 0.011137266539 0.011469022387 0.011614453793 0.011574055787 0.011358084864 0.010987162848 
0.010487135197 0.009889830225 0.0092270647093 0.0085304525901 0.0078279898279 0.0071430847197 0.0064943656026 0.0058947692022 0.0053530477688 
0.0048729961316 0.0044555522144 0.0040981128862 0.0037955539438 0.0035416866231 0.003328881517 0.0031487084453 0.0029935513259 0.0028557926291 
0.0027288004027 0.0026070990518 0.0024861585756 0.0023627534505 0.0022343261645 0.0020995838151 0.0019577692341 0.0018087519337 0.0016530479164 
0.001491697373 0.0013261487976 0.0011585996521 0.0009924364134 0.0008334861647 0.00069209948571 0.00058734970314 0.0005471037186 0.00058967513405 
0.00070320321271 0.00086320983528 0.0010483747135 0.0012468747163 0.0014507566401 0.0016539777221 0.0018511354505 0.0020375259575 0.0022079294179 
0.0023582763988 0.0024846158783 0.0025830360844 0.0026531728679 0.0026930820773 0.0027046188183 0.0026892718634 0.0026516736597 0.0025954296179 
0.002524306971 0.002444969827 0.0023613687595 0.0022764879521 0.0021945606912 0.0021181198389 0.0020494912372 0.0019884546309 0.0019372220757 
0.0018941863646 0.0018597975246 0.0018336708635 0.0018146118069 0.0018022301936 0.0017950563486 0.0017927296839 0.0017951206712 0.0018008047443 
0.0018093294246 0.0018198376365 0.0018328511321 0.0018459049815 0.0018598552686 0.0018740333475 0.0018854644828 0.0018951529322 0.0019012490685 
0.0019014220167 0.0018965926095 0.0018824410577 0.0018594282979 0.0018256223982 0.0017810535657 0.0017235483476 0.0016551899837 0.0015755714025 
0.0014866226298 0.001389583489 0.0012886013449 0.0011837042798 0.0010804691823 0.0009815591683 0.00088774276437 0.00080248897252 0.0007286932787 
0.00066855920835 0.00062012074803 0.00058428160821 0.00056322305828 0.00055254580777 0.00055051517304 0.00055558412715 0.00056674612594 0.0005801662917 
0.00059671680413 0.00061222781001 0.00062955184232 0.00064426426617 0.00065787321001 0.0006672950121 0.00067558803658 0.00067724822353 0.00067601019256 
0.00066761485226 0.00065477606992 0.00063474358972 0.00060605239422 0.00057265514085 0.00052905711359 0.00047988747894 0.00042161502806 0.00035917193191 
0.00028933499005 0.00021457816819 0.00013571317803 0 
TorsionArray 1 148 double
0 0 7.5666254949e-05 0.0002429356691 0.00032976726977 0.000466388042 0.0006313282771 0.00078644399685 0.0009613498541 
0.0011665397526 0.0013822760172 0.0016346047509 0.0019237343774 0.0022522796895 0.0026445523699 0.0030967964359 0.0036330283761 0.0042600671428 
0.0050012641943 0.0058666509703 0.0068627983063 0.008010960539 0.0093067647098 0.01073665996 0.012271900265 0.013854703618 0.015396959784 
0.016804597731 0.01792128966 0.018684584947 0.018988944826 0.018771797639 0.018126916373 0.017121178207 0.015854573927 0.014505255794 
0.013169513012 0.011950382578 0.010915765385 0.010138023412 0.0096632123406 0.0095093492182 0.0097977542723 0.01063697578 0.012153004726 
0.014664248575 0.018707874308 0.02516839061 0.035659848517 0.052777261212 0.079975978463 0.11587294137 0.13843996945 0.12232019348 
0.087319045371 0.058098572148 0.038882883322 0.026690494913 0.018789491254 0.013513001687 0.0099130722278 0.0073914716566 0.0056078316446 
0.0043445916077 0.0035509191658 0.003012256266 0.002712091684 0.0026391367224 0.0027132154244 0.0028944602698 0.0031366802814 0.0035128929019 
0.0038528890538 0.0041063889451 0.0043820819532 0.0045877318399 0.0045727602055 0.0043284378351 0.0039909645576 0.0034458087142 0.0027202444195 
0.0019508815445 0.0010295616719 7.6840909888e-05 -0.00082569616594 -0.0015650377293 -0.0022159951692 -0.002792555814 -0.0032084449497 -0.0034016117866 
-0.0033622803023 -0.0033153831618 -0.0030007116146 -0.0025575105118 -0.0022487288888 -0.0016171520697 -0.00098093009396 -0.00048730296871 0.00016250296479 
0.00053891468506 0.00092035105947 0.001332175425 0.0014316249011 0.0013607399497 0.001170300894 0.00071198866446 -8.5371570541e-05 -0.0011143050084 
-0.0025718963138 -0.0045271581963 -0.006843338479 -0.0097229092524 -0.013637962727 -0.017988434676 -0.022796719515 -0.028190823138 -0.033751027869 
-0.038832552689 -0.042159963049 -0.043673824356 -0.04289109043 -0.039637664512 -0.035345586996 -0.030475395199 -0.025001149454 -0.020433802755 
-0.016684609755 -0.013273890008 -0.010425446141 -0.0083660605221 -0.0068332085866 -0.0053142179158 -0.0044644655309 -0.0037245269534 -0.0029394424195 
-0.0026439578724 -0.0021623517289 -0.0020020080827 -0.0015861158253 -0.0014817873959 -0.0014215640271 -0.0012760762047 -0.001097639507 -0.00047148323398 
-0.00065751656018 -0.00098131811739 0 0 
TangentArray 3 148 double
-0.25238121428 -0.3513413697 0.90158913293 -0.25238121428 -0.3513413697 0.90158913293 -0.25183768042 -0.349087667 0.90261596677 
-0.25063631892 -0.3441244838 0.90485345515 -0.24876361627 -0.33645007505 0.90824997122 -0.24620469619 -0.32608337384 0.91271730611 
-0.24294385492 -0.31306925442 0.91813175813 -0.23896545538 -0.29748331072 0.92433716304 -0.2342603248 -0.27944431258 0.93114605535 
-0.22882799783 -0.25912003895 0.93834671248 -0.22267961615 -0.23673229058 0.94571222428 -0.2158432193 -0.21256189757 0.95301056887 
-0.20836441458 -0.18694464396 0.96001873463 -0.20030710475 -0.1602632008 0.9665364816 -0.19175280524 -0.13293385491 0.97239881319 
-0.18279561593 -0.10538683093 0.97748625497 -0.17353865114 -0.078046563245 0.98172963209 -0.1640865079 -0.05130922604 0.98511064417 
-0.15453967098 -0.025524941964 0.9876568065 -0.14498800716 -0.00098382010298 0.98943292338 -0.13550687144 0.022092039102 0.99053007506 
-0.1261547139 0.043550536146 0.99105415541 -0.1169714115 0.063306572062 0.99111551639 -0.10797937833 0.081334632979 0.99082043345 
-0.099185766023 0.097659438852 0.99026502403 -0.090585088183 0.11234506966 0.9895316706 -0.08216299346 0.12548445569 0.98868746016 
-0.073899582288 0.1371896445 0.98778431511 -0.065772538879 0.14758316521 0.98686026492 -0.057760684318 0.15679199149 0.98594116191 
-0.049845673543 0.16494012215 0.98504322998 -0.042014444214 0.17214572744 0.98417510383 -0.034260841247 0.17851923941 0.9833397561 
-0.026585995762 0.18415960065 0.98253673026 -0.018998885614 0.18915442946 0.9817635378 -0.011516177563 0.19358032862 0.98101683677 
-0.0041614979537 0.19750192904 0.98029366516 0.00303548104 0.20097333535 0.97959200912 0.010040317426 0.20403888857 0.97891129525 
0.016815282303 0.20673446001 0.97825257951 0.023320895573 0.20908812318 0.97761868465 0.029517450251 0.21112144236 0.97701405144 
0.035366456375 0.21285111764 0.97644437398 0.040831865126 0.2142888594 0.97591651463 0.045881133455 0.21544236398 0.97543811151 
0.050485966986 0.21631684152 0.97501702099 0.05462282717 0.21691502577 0.97466107871 0.058273146109 0.21723731956 0.97437784634 
0.061423299948 0.21728227979 0.97417431146 0.064064571631 0.21704681444 0.97405667751 0.06619281635 0.21652716315 0.97403002966 
0.067808159306 0.21571868453 0.97409830237 0.068914600798 0.21461545106 0.97426433064 0.069519748335 0.21321175086 0.97452950386 
0.069634693966 0.21150353495 0.97489346295 0.069273723443 0.20948653526 0.97535457285 0.068454312055 0.20715813489 0.97590958306 
0.067197318155 0.20451949497 0.97655327382 0.065526818582 0.2015749456 0.97727876133 0.063470416595 0.19833338823 0.97807738617 
0.061059413947 0.19480913554 0.97893878699 0.058328199458 0.19102228398 0.97985116634 0.055314432209 0.18699904741 0.98080154458 
0.052058473295 0.18277143973 0.98177620473 0.048602410183 0.17837627375 0.98276126841 0.044989055584 0.17385593771 0.98374290229 
0.041260867643 0.16925462013 0.98470828897 0.037458618612 0.16461724017 0.98564598925 0.033620058196 0.15998842365 0.98654619556 
0.029778792857 0.155409571 0.98740117923 0.025963263274 0.15091689273 0.98820544445 0.022196176528 0.14653980757 0.9889557192 
0.018494813638 0.1423027531 0.98965037681 0.014870726877 0.13822151503 0.99028969209 0.011329915317 0.13430305153 0.99087553374 
0.0078742972557 0.1305495501 0.99141051558 0.0045020760828 0.12695753424 0.99189793619 0.0012087887624 0.12351724887 0.99234168917 
-0.0020117736338 0.12021427246 0.99274592997 -0.0051669149536 0.11703274668 0.99311461534 -0.0082642901619 0.11395453796 0.99345159157 
-0.011311278879 0.11096058294 0.99376043592 -0.014314455814 0.10803302673 0.99404424524 -0.017279829664 0.10515343506 0.99430586973 
-0.020212152447 0.10230481724 0.99454773302 -0.023115337984 0.099472005703 0.99477183375 -0.025992754669 0.096642569573 0.99497969349 
-0.028846725702 0.093806204263 0.99517247875 -0.031679435289 0.090953586866 0.99535112318 -0.034492630538 0.088077716698 0.99551623506 
-0.037287821534 0.085174546261 0.99566807473 -0.040066873847 0.082242570018 0.99580661039 -0.042831392194 0.079280620805 0.99593175218 
-0.045583258017 0.076290679042 0.99604312099 -0.048324136745 0.073276772652 0.99614019716 -0.051055120653 0.070241790743 0.99622259836 
-0.053777009031 0.067193259332 0.99628966631 -0.056489576851 0.064140021105 0.99634079782 -0.059191412524 0.061090286972 0.99637560865 
-0.061879581698 0.058055956274 0.99639370899 -0.064548846422 0.055047810041 0.99639509485 -0.067192098572 0.052078536861 0.99637997164 
-0.069800197576 0.049163181223 0.99634879135 -0.072361534738 0.046315320594 0.99630251398 -0.07486263712 0.043548341648 0.99624250436 
-0.077288360308 0.040876051589 0.99617049633 -0.07962241805 0.038310671854 0.99608863208 -0.081848450367 0.035861671845 0.99599938337 
-0.083950538548 0.033536983969 0.99590540604 -0.085913633963 0.031341569118 0.99580949661 -0.08772506264 0.029276272566 0.99571442354 
-0.089374733165 0.027340060085 0.99562275897 -0.09085544028 0.025528755585 0.99553682584 -0.092163357128 0.023832205491 0.9954586589 
-0.093297420094 0.022240446843 0.99538985022 -0.094259509283 0.020742831896 0.99533154267 -0.095054895768 0.01932548608 0.99528442788 
-0.095691299594 0.017972162296 0.99524880134 -0.096176597906 0.016668413564 0.99522471131 -0.096520619801 0.015402854484 0.99521179757 
-0.096734534947 0.014160923686 0.99520947443 -0.096829016227 0.012929058365 0.99521705224 -0.096815375895 0.011698273395 0.99523360745 
-0.096703819145 0.010460408194 0.99525823344 -0.096503751697 0.0092073697625 0.99529003323 -0.096225727885 0.0079338920427 0.99532791715 
-0.095878544513 0.0066363838688 0.99537091735 -0.095469949238 0.0053139629848 0.99541812852 -0.095008054828 0.0039661690453 0.99546860273 
-0.094500564788 0.0025938857996 0.99552142871 -0.093954702961 0.001201207949 0.99557574844 -0.093377296467 -0.00020599784417 0.99563077397 
-0.092775652859 -0.0016223510748 0.99568571659 -0.092156314437 -0.0030394165658 0.99573991366 -0.09152651875 -0.0044471785001 0.99579270883 
-0.090893980985 -0.005835591978 0.9958434767 -0.090265644133 -0.0071927373441 0.99589175015 -0.089648982168 -0.0085073734219 0.99593708867 
-0.08905245911 -0.0097639492333 0.99597907851 -0.088484014582 -0.010950214568 0.99601740545 -0.087951251939 -0.012052302231 0.99605186576 
-0.087462176198 -0.013055799562 0.99608228266 -0.087024238824 -0.013947683507 0.9961085503 -0.086644433864 -0.014716565866 0.99613059624 
-0.0863291804 -0.015352933637 0.99614836246 -0.086084105059 -0.015845876089 0.99616185184 -0.085913223618 -0.016187513563 0.99617111101 
-0.085913223618 -0.016187513563 0.99617111101 
NormalArray 3 148 double
-0.21432997323 -0.88830949146 -0.40616364924 -0.21432997323 -0.88830949146 -0.40616364924 -0.21461396805 -0.88930875085 -0.40382024514 
-0.21627911601 -0.89115833407 -0.39882347925 -0.21916074016 -0.89385401072 -0.3911439345 -0.22288203487 -0.89741888525 -0.38073999387 
-0.22775090347 -0.90162248275 -0.36770426238 -0.2336037728 -0.90634686111 -0.35208613249 -0.24038507996 -0.91140608756 -0.33399694145 
-0.24806913578 -0.91657763456 -0.31360348165 -0.25662964646 -0.92162112038 -0.29112838237 -0.26593150501 -0.92632453504 -0.2668394469 
-0.27603366364 -0.93041938219 -0.24109166261 -0.2868245396 -0.93371463186 -0.21426308533 -0.29836369 -0.93599539742 -0.18679326674 
-0.31068636604 -0.93709702929 -0.15913245945 -0.32386347412 -0.93688821393 -0.1317305004 -0.33808610123 -0.935236577 -0.1050253931 
-0.35350178789 -0.93205793459 -0.079400834545 -0.37046273883 -0.92720515993 -0.055208247082 -0.38918887868 -0.92057702866 -0.032710105882 
-0.41010175302 -0.91195912882 -0.012128459632 -0.43350657132 -0.90112770488 0.0063962578914 -0.45979174162 -0.88773494363 0.022764537994 
-0.48911073815 -0.87143863914 0.036951103362 -0.52164265591 -0.85175865764 0.048950267267 -0.55708902217 -0.82836562685 0.058840544114 
-0.59511308752 -0.80086863433 0.066707148157 -0.63479498607 -0.76924988882 0.072731933869 -0.67506734479 -0.73371294126 0.077132352705 
-0.71477558014 -0.69474453269 0.080161738552 -0.75256118273 -0.65337719848 0.082157791821 -0.78737646833 -0.61079770904 0.083453314848 
-0.81862833953 -0.56809874536 0.084329456554 -0.84587649703 -0.52654946902 0.085080012007 -0.86921513322 -0.48691888506 0.085878120344 
-0.88895682995 -0.44968556468 0.086825384557 -0.90553242121 -0.41505919625 0.087959637004 -0.9194952279 -0.38284053413 0.0892280858 
-0.93132705892 -0.35274604213 0.090554619337 -0.94159550903 -0.32400369866 0.091757836876 -0.95068502027 -0.29598676559 0.092681318685 
-0.9590026743 -0.26767381015 0.09308384412 -0.96691962109 -0.23766383548 0.092640961009 -0.97468584133 -0.20424133028 0.09095597674 
-0.98236893649 -0.16520232788 0.087518360846 -0.98980317041 -0.11683990674 0.081474658859 -0.99598273249 -0.053822448737 0.071564939669 
-0.99791620104 0.032690821478 0.055628822566 -0.98726329581 0.15621698644 0.030123709987 -0.94237809581 0.33439134114 -0.010293469345 
-0.81590755142 0.5738932571 -0.070295070929 -0.55648996355 0.81880168626 -0.1410060958 -0.21824703071 0.95647848095 -0.19369344097 
0.067360597704 0.97403830253 -0.21612944057 0.25820985615 0.9406203969 -0.22036546717 0.37851891803 0.89966998969 -0.21752548894 
0.45536976359 0.86459356343 -0.21240609333 0.50621222582 0.83728635456 -0.20664158073 0.54080605042 0.8168445071 -0.2007333232 
0.56507867768 0.80171326295 -0.19478688876 0.58251444754 0.79058902145 -0.18880126473 0.59532675426 0.78242444176 -0.18275132993 
0.60496194196 0.77641913133 -0.17661931174 0.6124190315 0.77194996124 -0.17040007982 0.61870806939 0.7682965498 -0.16407539862 
0.62393298101 0.76540014046 -0.15770307604 0.62891611502 0.76261531949 -0.15126927895 0.63370346929 0.75989777077 -0.14482848816 
0.63878058443 0.75684125341 -0.13838598949 0.64403463408 0.75352245324 -0.13199735818 0.64978908158 0.74965489269 -0.12566499639 
0.6561644255 0.74511154149 -0.11940283685 0.66288499088 0.74010580015 -0.11325587606 0.66993777997 0.73463231616 -0.10723213614 
0.67740540444 0.72859841453 -0.10132259559 0.68494802136 0.72229818252 -0.095559110356 0.69219219574 0.71608280364 -0.089974343503 
0.69879093011 0.71030600488 -0.084596781407 0.70484140099 0.70490702352 -0.079402063289 0.70959068113 0.70066798852 -0.074467678385 
0.71329619283 0.69738341031 -0.069748980815 0.7155777647 0.6954760779 -0.065280071516 0.71637284528 0.69504118961 -0.061054821966 
0.71565750862 0.69611653765 -0.057062214929 0.7136090739 0.69851616007 -0.053265971883 0.71054370461 0.70190179266 -0.049613680518 
0.7063988646 0.70631103965 -0.046101619925 0.70145038198 0.71143894241 -0.042684808079 0.69590684207 0.71705430885 -0.03932919153 
0.690261444 0.72266540364 -0.035970172417 0.68476800045 0.72803271277 -0.032575369483 0.6792123314 0.73336199143 -0.029168448684 
0.6746773929 0.73766780906 -0.025624577735 0.67053211078 0.74155362197 -0.022020766571 0.66697704052 0.74485260419 -0.018336451623 
0.66486134844 0.74682640747 -0.014481175728 0.66336498981 0.748221527 -0.010556364834 0.6628295262 0.74874185741 -0.0065307088634 
0.66340153339 0.74825974924 -0.0023985758625 0.66403995677 0.74769513241 0.0017101986733 0.66579007734 0.74611577931 0.0059005746363 
0.66767252203 0.74438734774 0.010043896238 0.66968744132 0.74250878224 0.014122295746 0.67129988587 0.74096590331 0.018055286106 
0.6727067906 0.73958663044 0.021844677827 0.67286985533 0.73932638624 0.025350589821 0.67185575612 0.74013109588 0.028562280761 
0.66886325214 0.74272323154 0.031371185389 0.66337881061 0.74752422219 0.033705947122 0.65427500955 0.75542622289 0.035432099161 
0.64142152925 0.76631819139 0.036535617831 0.62270782082 0.78158917827 0.036787583518 0.59632272729 0.80193667632 0.036010721789 
0.56171447673 0.82662482603 0.034179578984 0.51637018143 0.85580180799 0.031066077527 0.45918595413 0.88794142976 0.02661347101 
0.3885900768 0.92117757142 0.020727617671 0.30593645479 0.95195448579 0.013621402463 0.21620262914 0.97633094267 0.0058577765493 
0.12195203646 0.99253340098 -0.0022690863306 0.03067617316 0.99947935255 -0.0099998117925 -0.052369265599 0.99848594365 -0.016830934525 
-0.12616739046 0.99174961177 -0.022682529535 -0.1879542129 0.98179812546 -0.027306678615 -0.23750649039 0.97090068211 -0.030700692289 
-0.27835702854 0.95990327363 -0.033212496744 -0.31111818876 0.94972986645 -0.034909216588 -0.33641498158 0.94103094672 -0.035856902698 
-0.35656170507 0.93356711639 -0.036279328556 -0.37261344205 0.92727706476 -0.036283163692 -0.38600874867 0.92179194413 -0.036011910387 
-0.39538957039 0.91783318201 -0.035345970412 -0.40507951917 0.91362266991 -0.034701587421 -0.41120400028 0.91091918578 -0.03372694952 
-0.41756648158 0.90805448524 -0.03279154318 -0.42233695105 0.90588313534 -0.031737121495 -0.42668042019 0.90388171727 -0.03068648254 
-0.43073837961 0.90198896967 -0.029670640746 -0.43324485891 0.90082284423 -0.028584882981 -0.43702230276 0.89902370421 -0.027710759054 
-0.43896711021 0.898104177 -0.02677243746 -0.4424711455 0.89640272058 -0.026104557771 -0.44304453031 0.8961426235 -0.025297085198 
-0.44466892951 0.89535335474 -0.024736881096 -0.44555827736 0.89492396134 -0.024267774672 -0.44982587123 0.89278599189 -0.024286997529 
-0.44982587123 0.89278599189 -0.024286997529 
BinormalArray 3 148 double
0.94359227702 -0.29574564972 0.14888964175 0.94359227702 -0.29574564972 0.14888964175 0.94367294517 -0.2954111481 0.14904236358 
0.94361262159 -0.29566055414 0.14892970527 0.94344328563 -0.29635511557 0.14862170864 0.94324272916 -0.29716826497 0.1482706181 
0.94292513453 -0.29843682839 0.1477418361 0.94250983468 -0.30006507161 0.14709236667 0.94198572896 -0.30207585095 0.14633204267 
0.9413285565 -0.30453611484 0.14545894085 0.94050784851 -0.30752615021 0.14447371328 0.93951697128 -0.31103102013 0.14341396444 
0.93829083299 -0.31523241162 0.14226327491 0.93680774296 -0.32014479962 0.14106225579 0.93499196263 -0.32594663095 0.13981710767 
0.93276993131 -0.33278036835 0.13855497712 0.9300520344 -0.34080670265 0.1373098858 0.92670027845 -0.35028546696 0.13611276779 
0.92258006484 -0.36140902577 0.13501681393 0.91746162695 -0.37455256441 0.13406915968 0.91113660036 -0.38993573332 0.133342489 
0.90327268327 -0.40796310882 0.1329080942 0.89352657572 -0.42890690997 0.13284999458 0.88143746698 -0.45311295207 0.13325405988 
0.86656382895 -0.48068423338 0.13420058919 0.84834148863 -0.51174776448 0.13576061363 0.82637828135 -0.54595241517 0.1379670123 
0.80023700539 -0.58291374318 0.14082721046 0.76987615808 -0.62167018418 0.14428057152 0.735491525 -0.66112146481 0.14822491496 
0.69757528544 -0.70008913032 0.15252518067 0.65718068499 -0.73720016619 0.1570014721 0.61551969252 -0.77139940355 0.1614882916 
0.57370796277 -0.80209042945 0.16586173892 0.53304033067 -0.82883427685 0.17000513932 0.49429993915 -0.85172569278 0.17387039547 
0.45797209131 -0.87107742534 0.1774420543 0.42426621359 -0.88731932363 0.18072796664 0.3929729226 -0.90100014283 0.18376894386 
0.36379548595 -0.91259579925 0.18660587234 0.33593754361 -0.92266123794 0.18932038135 0.3087502427 -0.93156833951 0.19197321808 
0.28118158624 -0.93970481167 0.19465811692 0.25179198784 -0.94741552977 0.19749584506 0.21882054815 -0.9549188797 0.20061779807 
0.18000677698 -0.96224488304 0.20416254628 0.13155238726 -0.96917300199 0.20832105419 0.067989977353 -0.97463382406 0.21322821571 
-0.019759401116 -0.9755612339 0.21883748533 -0.14562594349 -0.96358026832 0.22429032769 -0.32793602365 -0.91722321089 0.22618476033 
-0.57419240771 -0.79000758136 0.21492114909 -0.82799136364 -0.53245094304 0.17585873588 -0.97341421716 -0.19922265128 0.11302697482 
-0.99529571449 0.080719513814 0.053579854577 -0.96360200364 0.26711170038 0.011068789105 -0.92305873911 0.38429079718 -0.016826982862 
-0.88776286183 0.45896595327 -0.035033625316 -0.85991593686 0.5082510224 -0.047174990826 -0.83874926053 0.54169079587 -0.055414435199 
-0.82277447457 0.56507100856 -0.061130346723 -0.81072482357 0.58178989866 -0.065159606087 -0.80157742561 0.59400618616 -0.068046172205 
-0.79455079393 0.60313177111 -0.070150570499 -0.78903785434 0.61014355877 -0.071722396157 -0.78433176 0.61603126908 -0.073001135388 
-0.78038783692 0.62089894391 -0.074022465798 -0.77657026222 0.62555498457 -0.074963918754 -0.77284513629 0.63004688895 -0.07583741184 
-0.76881245337 0.63485367005 -0.076734797678 -0.76455562196 0.63986561398 -0.077631803951 -0.75979041795 0.64540191095 -0.078580494644 
-0.75439127022 0.65158170416 -0.079593305135 -0.74857354372 0.65813237071 -0.080619056517 -0.74233079149 0.66503988632 -0.081651366255 
-0.73556774907 0.67238468552 -0.082697770287 -0.72857802557 0.67982874316 -0.083707470505 -0.72171220232 0.68699993273 -0.084632082859 
-0.7153231359 0.69355166219 -0.085433618156 -0.70934610907 0.69957803311 -0.086131719771 -0.70456565824 0.70432856902 -0.086651601775 
-0.7007714294 0.70805658535 -0.087036059605 -0.69838639665 0.71038151032 -0.087261393367 -0.69750365879 0.71123870805 -0.087339258833 
-0.69815886391 0.71060220263 -0.087285224207 -0.70016267452 0.70864694609 -0.087130562996 -0.70317282409 0.7056869612 -0.086913130506 
-0.70722592607 0.70165882829 -0.086639357005 -0.7120138868 0.69683719494 -0.086337412188 -0.71730323127 0.6914299921 -0.086026975036 
-0.72259861423 0.68593003364 -0.085739323894 -0.72765887006 0.68059130821 -0.085487075082 -0.73269098583 0.67519980205 -0.085259290367 
-0.73670386323 0.67083972435 -0.08509689851 -0.7403049819 0.6668798545 -0.084969367669 -0.74332698194 0.6635214306 -0.084878201286 
-0.74502846969 0.66161573666 -0.084836291465 -0.74616071862 0.66034127861 -0.084814961898 -0.74642708678 0.66004061072 -0.084811534125 
-0.74570055844 0.66086069153 -0.084816410699 -0.74490561969 0.66175654706 -0.084816803672 -0.74310752574 0.66377637037 -0.084806458074 
-0.74117564433 0.66593577629 -0.084783289144 -0.73910928775 0.66823319236 -0.084745863582 -0.7373954494 0.67012914581 -0.084704658317 
-0.73586145655 0.67181899681 -0.084659035449 -0.7354634106 0.67225648903 -0.084645050828 -0.73614582396 0.67150569723 -0.084672453919 
-0.73862998654 0.66875815662 -0.084783671444 -0.74333532214 0.66349471986 -0.085013855248 -0.75115146626 0.65457934709 -0.085424546236 
-0.76196494597 0.64187923371 -0.086025987024 -0.77716166842 0.62327091946 -0.086908584668 -0.79743659341 0.5969334914 -0.088120862069 
-0.82205379266 0.5623137554 -0.089614744615 -0.85116213534 0.51688780249 -0.091378438334 -0.88323995965 0.45955037036 -0.093277171819 
-0.91642835366 0.38872726082 -0.095132482893 -0.94718158114 0.30578558005 -0.096655219158 -0.971565846 0.21573280341 -0.097566205353 
-0.98781077669 0.1211483231 -0.097739210444 -0.99482818316 0.029561178688 -0.097175216479 -0.99392366055 -0.053749146374 -0.096056161974 
-0.98728423514 -0.12776262138 -0.094586212688 -0.9774253116 -0.18970415174 -0.093016638579 -0.96660812966 -0.23935103685 -0.091541273986 
-0.95568021292 -0.2802528567 -0.090186844655 -0.94556383254 -0.31302546634 -0.089017391601 -0.9369089762 -0.33829724623 -0.088071241095 
-0.92948017393 -0.35839323509 -0.087297739422 -0.92321814139 -0.37437388032 -0.086674454954 -0.91775700839 -0.38768488403 -0.086153956618 
-0.91381604596 -0.39696299321 -0.085794033371 -0.90962508588 -0.40655181585 -0.085427303446 -0.90693669378 -0.4125608556 -0.085201959527 
-0.90408877755 -0.41881141067 -0.084973434724 -0.90193326431 -0.42346665705 -0.08480788348 -0.89994826464 -0.4276978674 -0.08466200562 
-0.8980724402 -0.43164865793 -0.084530043511 -0.89692222148 -0.4340487255 -0.08445254585 -0.8951402595 -0.437734076 -0.084337385182 
-0.89423612312 -0.43958893679 -0.084281212378 -0.89255031637 -0.44302102057 -0.084180211936 -0.89230279964 -0.44352206376 -0.084165864286 
-0.89152499446 -0.44509174064 -0.084122093848 -0.89110456644 -0.44593722834 -0.084098989562 -0.88897446734 -0.45019011215 -0.083983684957 
-0.88897446734 -0.45019011215 -0.083983684957 
