# vtk DataFile Version 4.1
vtk output
ASCII
DATASET POLYDATA
POINTS 172 float
39.2748 1.49475 136.28 38.535 1.6199 134.346 37.7953 1.74504 132.413 
37.0559 1.87013 130.483 36.3169 1.99514 128.556 35.5786 2.12004 126.636 
34.8412 2.2448 124.724 34.1047 2.36942 122.821 33.3691 2.49389 120.929 
32.6346 2.61822 119.047 31.901 2.74242 117.178 31.1682 2.86654 115.321 
30.4359 2.9906 113.476 29.7039 3.11466 111.642 28.9718 3.23877 109.82 
28.2391 3.36301 108.007 27.5053 3.48741 106.202 26.7697 3.61204 104.403 
26.0317 3.73694 102.608 25.2904 3.8621 100.815 24.5452 3.98754 99.0201 
23.7951 4.11319 97.2212 23.0393 4.23899 95.4151 22.2766 4.36478 93.5986 
21.5063 4.49039 91.7684 20.7272 4.61554 89.9214 19.9383 4.73993 88.0543 
19.1386 4.86315 86.1639 18.3269 4.98472 84.2473 17.5022 5.10409 82.3014 
16.6634 5.22062 80.3235 15.8094 5.33357 78.3111 14.9391 5.44216 76.2617 
14.0515 5.5455 74.1733 13.1454 5.64264 72.044 12.2199 5.73255 69.8722 
11.2739 5.81417 67.6565 10.3065 5.88637 65.3957 9.31664 5.94799 63.0893 
8.30351 5.99786 60.7366 7.26626 6.03479 58.3374 6.20412 6.0576 55.8919 
5.11641 6.06515 53.4005 4.00253 6.05633 50.8639 2.86202 6.03011 48.2832 
1.69451 5.98551 45.6596 0.499786 5.92169 42.995 -0.722195 5.83789 40.2914 
-1.97131 5.73351 37.5511 -3.24721 5.6081 34.7769 -4.54937 5.46136 31.972 
-5.87697 5.29319 29.1398 -7.22897 5.10364 26.2842 -8.60404 4.89299 23.4094 
-10.0006 4.66171 20.5201 -11.4167 4.41044 17.6213 -12.8502 4.14003 14.7181 
-14.2986 3.85154 11.8163 -15.7591 3.54615 8.92161 -17.2289 3.22526 6.04022 
-18.7045 2.89036 3.17833 -20.1826 2.5431 0.342275 -21.6597 2.18521 -2.46162 
-23.1321 1.81849 -5.22707 -24.596 1.44482 -7.94796 -26.0476 1.06605 -10.6184 
-27.4834 0.68407 -13.2328 -28.8997 0.300701 -15.7861 -30.2932 -0.0822775 -18.2736 
-31.6606 -0.463177 -20.691 -32.999 -0.840414 -23.035 -34.3058 -1.21253 -25.3025 
-35.5786 -1.57821 -27.4914 -36.8156 -1.93628 -29.6 -38.0151 -2.28575 -31.6277 
-39.176 -2.62578 -33.574 -40.2973 -2.95571 -35.4396 -41.3787 -3.27504 -37.2253 
-42.4201 -3.58343 -38.933 -43.4216 -3.88071 -40.5646 -44.3838 -4.16683 -42.1227 
-45.3076 -4.4419 -43.6102 -46.1939 -4.70614 -45.0305 -47.0442 -4.95986 -46.387 
-47.8598 -5.20347 -47.6834 -48.6425 -5.43747 -48.9236 -49.3939 -5.6624 -50.1116 
-50.1159 -5.87885 -51.2513 -50.8104 -6.08744 -52.3467 -51.4793 -6.28881 -53.4016 
-52.1246 -6.48361 -54.42 -52.7482 -6.67248 -55.4054 -53.3519 -6.85605 -56.3615 
-53.9376 -7.0349 -57.2916 -54.5071 -7.20961 -58.199 -55.0619 -7.38072 -59.0865 
-55.6037 -7.5487 -59.9569 -56.1339 -7.71399 -60.8127 -56.6539 -7.87699 -61.6563 
-57.1648 -8.03802 -62.4897 -57.6678 -8.19736 -63.3148 -58.164 -8.35526 -64.1331 
-58.6541 -8.51186 -64.9461 -59.1391 -8.66731 -65.755 -59.6197 -8.82168 -66.561 
-60.0965 -8.975 -67.365 -60.5702 -9.12726 -68.1678 -61.0415 -9.27841 -68.9703 
-61.511 -9.42839 -69.7732 -61.9793 -9.57709 -70.5773 -62.447 -9.72439 -71.3834 
-62.915 -9.87014 -72.1923 -63.3839 -10.0142 -73.0049 -63.8547 -10.1564 -73.8223 
-64.3284 -10.2966 -74.6456 -64.8058 -10.4345 -75.4761 -65.2883 -10.5701 -76.3152 
-65.7769 -10.7031 -77.1643 -66.273 -10.8333 -78.0251 -66.7779 -10.9605 -78.8993 
-67.293 -11.0846 -79.7888 -67.8197 -11.2051 -80.6953 -68.3596 -11.3221 -81.6208 
-68.9139 -11.435 -82.5672 -69.4841 -11.5438 -83.5363 -70.0717 -11.648 -84.5299 
-70.6778 -11.7473 -85.5498 -71.3038 -11.8415 -86.5975 -71.9507 -11.93 -87.6746 
-72.6196 -12.0125 -88.7825 -73.3113 -12.0886 -89.9222 -74.0266 -12.1579 -91.0949 
-74.766 -12.2199 -92.3013 -75.5301 -12.2742 -93.5422 -76.3191 -12.3203 -94.8179 
-77.1332 -12.3577 -96.1289 -77.9723 -12.3862 -97.475 -78.8364 -12.4052 -98.8563 
-79.725 -12.4144 -100.272 -80.6377 -12.4134 -101.723 -81.5738 -12.402 -103.207 
-82.5326 -12.3799 -104.723 -83.5131 -12.3468 -106.271 -84.5142 -12.3026 -107.849 
-85.5346 -12.2471 -109.454 -86.5729 -12.1804 -111.086 -87.6275 -12.1023 -112.743 
-88.6968 -12.0129 -114.42 -89.7788 -11.9123 -116.117 -90.8716 -11.8006 -117.829 
-91.9732 -11.678 -119.554 -93.0814 -11.5448 -121.288 -94.194 -11.4012 -123.028 
-95.3088 -11.2474 -124.771 -96.4236 -11.084 -126.512 -97.5362 -10.9113 -128.248 
-98.6445 -10.7296 -129.975 -99.7466 -10.5395 -131.691 -100.841 -10.3414 -133.392 
-101.925 -10.1359 -135.075 -102.999 -9.92348 -136.739 -104.061 -9.70464 -138.381 
-105.11 -9.47997 -140 -106.146 -9.25001 -141.596 -107.169 -9.01534 -143.168 
-108.179 -8.77651 -144.718 -109.178 -8.53408 -146.246 -110.165 -8.28862 -147.754 
-111.143 -8.04066 -149.245 -112.113 -7.79077 -150.721 -113.077 -7.53946 -152.187 
-114.038 -7.28728 -153.646 
LINES 1 173
172 171 170 169 168 167 166 165 164 163 162 161 160 159 158 157 156 155 154 153 152 151 150 149 148 147 146 145 144 143 142 141 140 139 138 137 136 135 134 133 132 131 130 129 128 127 126 125 124 123 122 121 120 119 118 117 116 115 114 113 112 111 110 109 108 107 106 105 104 103 102 101 100 99 98 97 96 95 94 93 92 91 90 89 88 87 86 85 84 83 82 81 80 79 78 77 76 75 74 73 72 71 70 69 68 67 66 65 64 63 62 61 60 59 58 57 56 55 54 53 52 51 50 49 48 47 46 45 44 43 42 41 40 39 38 37 36 35 34 33 32 31 30 29 28 27 26 25 24 23 22 21 20 19 18 17 16 15 14 13 12 11 10 9 8 7 6 5 4 3 2 1 0 

CELL_DATA 1
FIELD FieldData 2
LengthArray 1 1 double
330.42786698 
TortuosityArray 1 1 double
0.0071438131254 
POINT_DATA 172
FIELD FieldData 8
RadiusArray 1 172 double
81.002875222 80.693912258 80.693909711 80.693275705 79.746173202 79.633118188 79.139238198 78.868295723 78.610548486 
78.603293216 78.283742529 78.057710581 77.965083944 77.930060667 77.927698332 77.514061465 77.453073152 77.386023116 
77.231031477 77.061703918 76.892163317 76.526780919 76.441328268 76.122587851 76.09750982 76.020645766 75.844741837 
75.534231377 75.489708628 75.098434739 75.063851292 74.888645462 74.553665629 74.192317438 73.709587573 73.70954845 
73.706327352 73.605938477 72.916698492 72.360153784 72.276549142 71.982505137 70.847884472 70.830586793 70.618801255 
69.868766821 69.272385765 69.128648224 68.82754415 68.080119266 68.044960636 67.215803121 66.792462036 66.571465935 
65.871529281 65.630022841 64.427367807 63.776251284 63.682920724 62.334473525 61.375071649 60.879881407 60.848078598 
59.907694905 59.255153753 58.948414412 58.741705788 58.717891135 58.290820122 58.215467842 58.117753459 58.11630393 
58.035443167 58.036910325 58.079439901 58.085526918 58.15178344 58.172759175 58.226269433 58.284468227 58.456838857 
58.482366272 58.695062082 58.735009787 58.81933577 58.891056569 58.980646004 59.066797429 59.104317579 59.294652338 
59.312810063 59.314348577 59.318679974 59.459340118 59.532208791 59.623380407 59.699052293 59.787384768 59.880054937 
59.890954053 59.976507392 60.206012313 60.298378267 60.504856568 60.507414757 60.649718486 60.685042097 60.892203325 
61.028778092 61.292580999 61.307414216 61.411730894 61.443395559 61.483545877 61.569233276 61.619158498 61.730867739 
61.844417154 61.869403867 61.894510988 61.914497657 62.026958764 62.129653232 62.137066338 62.205932214 62.25035806 
62.382403254 62.412171498 62.543593101 62.635345487 62.725178526 62.769871174 62.851627418 62.874702385 62.977739716 
63.046818737 63.052374385 63.109387182 63.025059727 63.017295024 62.879530921 62.820382594 62.738568867 62.728344837 
62.516323047 62.489283939 62.319619581 62.29048036 62.286692825 62.23926496 61.927892368 61.568167221 61.052911648 
61.024851638 60.509860655 60.435248641 59.590217618 58.922671158 58.465259631 58.318836743 58.299470289 57.840406534 
57.368221967 57.174152664 57.164419598 56.312768344 56.135191772 55.956584419 55.823339799 55.576979256 55.361617353 
54.944471555 
EdgeArray 2 172 int
36469 36469 28779 28779 28671 28779 28671 28671 28101 
28151 28151 27068 28317 28317 28298 28298 28447 28447 
28448 28448 26493 26493 28148 28289 28148 26649 27988 
27414 27414 27928 27997 27997 27419 27992 27412 27064 
26548 26548 24523 24523 27646 27646 25556 25556 25889 
25889 25983 25983 27212 27212 26767 26767 26818 26818 
26819 26819 26816 26816 26215 26215 26813 26814 25968 
25968 14854 14854 25706 25706 24139 24139 25014 24139 
25014 25014 25389 25389 12491 12491 23055 23055 24388 
24388 23951 23951 16305 16305 22970 22013 23970 23970 
23188 23188 23647 23647 23646 23646 22794 22794 23061 
23061 23062 23062 22959 22959 13033 13033 18247 18247 
22077 22077 13554 13554 10395 10395 17962 17962 20886 
17543 20722 20722 10388 10388 18957 18957 20707 20707 
11550 11550 19312 19312 19766 19766 19949 20138 19949 
19949 19761 19761 17565 17565 17610 17610 16627 16627 
18568 18568 18790 18790 19081 19081 14233 15646 15646 
15646 18913 18913 18263 17427 18263 18263 18896 18896 
18902 18902 17743 17743 17937 17937 18131 18131 17017 
17017 18246 18246 17608 17608 17849 17936 17936 17936 
17099 17932 15254 17099 15254 15254 14539 14539 16078 
16078 16667 16667 16673 16673 16675 16674 16675 16675 
16676 16676 16283 16283 16222 16222 16221 16221 11872 
11872 14259 15555 15555 15555 15920 15920 14902 14902 
14869 14869 15221 15221 15223 14915 15223 14918 14918 
15190 13543 12829 13543 13543 11536 11536 13710 13710 
12779 12779 14958 14579 14579 12685 14581 12685 14581 
14581 12901 12901 14009 14604 14611 14009 13322 13906 
13906 13906 13914 12258 13914 13914 11398 11398 12084 
12084 13217 13217 13422 13189 13206 9842 9842 12059 
13178 9587 10995 9587 11031 11031 11915 11915 10157 
10157 10865 10865 11459 12482 12477 12482 12477 12476 
12092 10345 9567 12092 12151 11072 12151 11359 11359 
11376 11655 11655 8817 10234 8239 9293 9389 9389 
9153 9153 7859 7859 9209 8992 7670 7670 9280 
9255 8283 9008 7346 7347 6220 7347 4752 5603 
8035 6222 3950 3950 6630 7882 3682 3682 5472 
5472 6434 6434 7047 7047 4207 4207 7030 7030 
6603 6603 
EdgePCoordArray 1 172 double
0 0 0.996 0 0.496 0.556 0 0 0 
0 0 0.4 0.484 0.98 0.012 0 0.672 0.224 
0 0 0 0 0 0 0 0 0 
0 0 0 0.28 0 0 0 0 0.988 
0 0 0 0 0 0 0 0.936 0 
0 0 0 0 0 0 0 0 0 
0 0 0 0 0.064 0 0 0 0 
0 0 0 0.088 0 0 0 0 0 
0 0 0 0.064 0 0 0.82 0 0 
0 0 0 0 0 0 0 0.06 0 
0.476 0.932 0 0 0 0 0 0.848 0 
0 0 0 0 0 0.008 0 0 0 
0 0 0.96 0.008 0.044 0.788 0 0 0 
0 0.056 0.236 0.98 0 0 0.992 0.008 0.132 
0 0.924 0 0 0 0 0.696 0.528 0.56 
0.956 0.964 0 0 0 0 0.116 0.144 0.132 
0.176 0.756 0.116 0.616 0.032 0 0.636 0.536 0 
0 0 0.06 0 0.244 0.388 0.84 0.816 0.748 
0.748 0 0.984 0 0 0 0 0 0 
0 
CurvatureArray 1 172 double
0 3.8803827043e-05 0.00015055246539 0.00026507439852 0.00037520134093 0.00048534228417 0.00059101480142 0.00069217372967 0.00078487341594 
0.00086890466491 0.00094148428167 0.0010034672203 0.0010474573243 0.0010757771825 0.0010840753288 0.001074420127 0.0010444726412 0.00099497490899 
0.000930018365 0.00084785509871 0.00076197900554 0.00067513165708 0.00060174329228 0.00055707173852 0.0005571533378 0.0006041907451 0.00068970878205 
0.00079979728956 0.00092363192177 0.0010533405886 0.0011845695885 0.0013140204787 0.0014397369741 0.0015607341224 0.0016757123073 0.0017839325374 
0.0018847444393 0.0019775758388 0.0020618170825 0.0021370275646 0.0022030416979 0.0022592837155 0.0023058661643 0.0023425435324 0.002369569696 
0.0023870422571 0.0023951141123 0.0023947833627 0.0023861071944 0.0023697272468 0.0023469609988 0.0023180708388 0.0022843331897 0.0022466494435 
0.0022058435957 0.0021631748439 0.0021193536261 0.0020752816468 0.0020318786903 0.0019897853053 0.0019497820154 0.0019120835494 0.0018775189832 
0.0018461133737 0.0018180837806 0.0017936294826 0.0017724949163 0.0017543713198 0.0017396085633 0.0017269901597 0.0017161514714 0.0017061305471 
0.0016960553226 0.0016846973031 0.0016713314044 0.0016528252031 0.0016285340213 0.0015958764955 0.0015527724117 0.0014964744247 0.001424781692 
0.0013369602965 0.0012277546833 0.0010966338456 0.00094596192543 0.0007714408004 0.00058360884205 0.00039999850392 0.00028896096421 0.0003786086766 
0.00059873294765 0.00086027324906 0.0011328911037 0.0013934296575 0.0016450083428 0.0018744815087 0.0020730576722 0.0022406621868 0.0023700161946 
0.0024643425027 0.0025232601232 0.0025481966689 0.0025396858631 0.0025194549764 0.0024718786543 0.0024192305537 0.0023818138964 0.0023511757769 
0.0023682501165 0.0024320985147 0.0025536083627 0.0027446743874 0.0029928502596 0.0032898059182 0.0036241974538 0.0039767254703 0.0043311503595 
0.00467215866 0.004989311925 0.0052688842816 0.005498795916 0.0056752422266 0.0057962219568 0.0058643370923 0.005877434164 0.0058414652004 
0.0057640338496 0.0056532472211 0.0055087210659 0.0053475412325 0.0051695567617 0.0049810867069 0.0047858480638 0.0045906586761 0.0043937929736 
0.0042024415443 0.0040129383904 0.0038333665124 0.0036584791863 0.0034927313582 0.0033365443007 0.0031887526452 0.003050811484 0.0029249495683 
0.0028086244394 0.0027036035672 0.0026101904863 0.0025283237772 0.0024583871957 0.0023998790495 0.0023535609621 0.0023179728755 0.0022942233019 
0.002280847638 0.0022769730722 0.002281321609 0.0022931035442 0.0023080547848 0.0023251362606 0.0023381658069 0.0023435482007 0.0023375528031 
0.0023081216578 0.0022548721035 0.0021651961976 0.0020356599367 0.001859547663 0.0016309730143 0.0013552203349 0.0010287822497 0.0006658405362 
0 
TorsionArray 1 172 double
0 0 -0.00014955993855 0.00021929031884 0.0004751185017 0.00062142863746 0.00059695621354 0.00075168142752 0.00080954298285 
0.00064073112996 0.00044241115536 2.4763200818e-05 -0.00062889726024 -0.0016144155319 -0.0032318397046 -0.0055656621123 -0.0089766593641 -0.014103150797 
-0.021587134614 -0.03295368673 -0.049429065099 -0.072977462215 -0.10168155263 -0.1251700824 -0.12621256713 -0.10306887467 -0.071421961049 
-0.044507702981 -0.0255846289 -0.012443383066 -0.0035344771394 0.0022189636935 0.0060542726775 0.0083044489129 0.0096477269296 0.010358601253 
0.010775813369 0.010773600739 0.010498246287 0.010260961913 0.0099007643364 0.0095083317673 0.0091202214382 0.0087716022138 0.0084524725671 
0.0081496748262 0.0079065305849 0.007716244563 0.0075163911419 0.0073766347589 0.0072782204388 0.0071907995326 0.0071597675872 0.0071332888988 
0.00712757665 0.007178055563 0.0072214249837 0.0072811020428 0.0073823832119 0.0074901032974 0.0076074654648 0.0077478069763 0.007917327738 
0.0080835149058 0.0082664223903 0.0084717824356 0.00866055449 0.0088967811383 0.009136000594 0.0093445141867 0.0095577697173 0.0097396348568 
0.0099040723165 0.010070588515 0.010127320306 0.010014676081 0.0098111068303 0.009398271104 0.0085734166969 0.007390591268 0.0055830771456 
0.0024690669709 -0.0024030725245 -0.010425908796 -0.025331337455 -0.054364280197 -0.12226809525 -0.31669542879 -0.69308313802 -0.43482778897 
-0.18351389274 -0.092780898375 -0.054430619062 -0.03695271529 -0.028755250063 -0.025292180017 -0.024594419063 -0.02582495082 -0.028794252826 
-0.0337329581 -0.040430697682 -0.048861745237 -0.059935471003 -0.073178463382 -0.089389585869 -0.10823345629 -0.12812740475 -0.14759576763 
-0.16086219466 -0.16744659901 -0.16410865085 -0.15012998977 -0.13280552332 -0.11193900026 -0.09325361442 -0.076928384137 -0.061920005164 
-0.051138771345 -0.042340053455 -0.033489096156 -0.026209565529 -0.020546548882 -0.016102821199 -0.012583476693 -0.0084857038438 -0.0052563536496 
-0.0028302166867 0.0002492148871 0.0021781151025 0.0034770040705 0.0053810961348 0.0070457885873 0.0080444055012 0.009132590837 0.009810423772 
0.010588283506 0.011052528247 0.01073762291 0.011335927354 0.011014938673 0.010601123382 0.010502814676 0.0095796100104 0.0085773847742 
0.0079734824113 0.0065715860352 0.0053116162702 0.0039529908542 0.0022347192221 0.00041677018377 -0.00082304564168 -0.0022060789466 -0.0039905650401 
-0.0051682724784 -0.0061247190514 -0.007228038316 -0.0078499793133 -0.0083923886788 -0.0084510257242 -0.0080729879687 -0.0086518305803 -0.0080304070437 
-0.0075169496807 -0.0070992035157 -0.0063808717874 -0.0062910483551 -0.0045834569071 -0.0042765345794 -0.0038660636319 -0.0022831690169 0 
0 
TangentArray 3 172 double
0.35670057841 -0.060341909544 0.93226796111 0.35670057841 -0.060341909544 0.93226796111 0.35688081778 -0.060372729122 0.9321969832 
0.35727590316 -0.060440357089 0.9320412503 0.35788314835 -0.060544478867 0.93180149077 0.35869657842 -0.060684817068 0.9314795315 
0.35970972367 -0.060860998778 0.93107725433 0.36091155925 -0.061071638285 0.93059824919 0.36228715354 -0.061315019559 0.93004757231 
0.36381782116 -0.061588657017 0.9294317782 0.36548262446 -0.06188869088 0.92875844069 0.36725942697 -0.062210702793 0.92803574379 
0.36912110563 -0.062548254665 0.92727413704 0.37103699639 -0.06289301923 0.92648584201 0.37297591727 -0.063235066798 0.92568368867 
0.37490595168 -0.063561880124 0.92488129768 0.3767960499 -0.063858932387 0.9240924053 0.37861442635 -0.064109178662 0.92333153816 
0.38033360318 -0.06429334403 0.92261189902 0.38192687416 -0.064390064312 0.92194673513 0.38337460565 -0.064376225521 0.92134663039 
0.38466476176 -0.064227576982 0.9208191133 0.3857883232 -0.063918666548 0.92037045463 0.38674420497 -0.063424116163 0.92000342467 
0.38753908232 -0.062719105865 0.91971722471 0.38818606658 -0.061779625788 0.91950794208 0.38870318005 -0.060583272238 0.91936907983 
0.38911413628 -0.059110068031 0.91929113386 0.38944659492 -0.057342565833 0.91926230199 0.38972911978 -0.055266089988 0.91926974958 
0.38999265197 -0.052869396403 0.91929894938 0.39026934887 -0.050144755183 0.91933418236 0.39058966733 -0.047088199439 0.91935978444 
0.39098313961 -0.043699013153 0.91935987556 0.39147561004 -0.039979805632 0.91931956461 0.39209011996 -0.035936918998 0.91922460568 
0.39284664553 -0.03157988337 0.91906159971 0.39376325201 -0.026921756986 0.91881756642 0.39485349705 -0.021978459602 0.91848117193 
0.39612643128 -0.016768748359 0.91804284187 0.39758963609 -0.011314221138 0.91749358018 0.3992467854 -0.0056389628205 0.91682615934 
0.40109843937 0.00023073507507 0.91603492766 0.40314246514 0.0062667154664 0.91511577468 0.40537454277 0.012439077038 0.9140660531 
0.40778817832 0.018716744873 0.91288470525 0.41037446982 0.025067597414 0.91157249305 0.41312338714 0.031459446213 0.91013151261 
0.41602379389 0.037860080439 0.90856525205 0.41906226511 0.04423761756 0.90687918223 0.42222527981 0.050561675413 0.90507973686 
0.42549887396 0.056803292863 0.9031744539 0.42886828569 0.062935400757 0.90117208615 0.4323194572 0.068933366953 0.89908179708 
0.43583802541 0.07477523138 0.89691353005 0.43941015234 0.080442146938 0.89467747206 0.44302329144 0.085917890055 0.89238359432 
0.44666504636 0.09118939659 0.89004203851 0.45032400458 0.096246733055 0.88766258076 0.45399011444 0.10108248809 0.88525437394 
0.45765419441 0.10569204961 0.88282604685 0.46130779767 0.11007303119 0.88038573569 0.46494355453 0.11422507723 0.87794084244 
0.46855520189 0.11814948097 0.87549798568 0.47213666527 0.12184889637 0.87306346605 0.4756825529 0.12532717977 0.87064298474 
0.47918782915 0.12858879398 0.86824187094 0.48264699275 0.13163882772 0.8658655204 0.48605528469 0.13448275488 0.86351876 
0.48940757746 0.13712621136 0.86120649399 0.49269745098 0.13957495782 0.85893425415 0.4959179897 0.1418348143 0.85670778737 
0.49906124909 0.14391184974 0.85453335169 0.50211840698 0.14581223327 0.85241767814 0.50508023773 0.14754230222 0.85036769841 
0.50793544733 0.14910867198 0.84839152829 0.51067091921 0.1505188694 0.84649824703 0.51327324769 0.15178094048 0.84469705772 
0.51572765368 0.15290349184 0.84299792966 0.51801810629 0.15389653064 0.84141137348 0.52012807413 0.15477035507 0.83994816727 
0.52204207511 0.15553641243 0.83861820647 0.52374335887 0.15620746977 0.83743186017 0.52521438518 0.15679604823 0.83639993356 
0.52644137909 0.15731573319 0.8355305108 0.52741043304 0.15778059492 0.83483143148 0.52811024635 0.15820264959 0.83430898914 
0.52853459587 0.15859464641 0.83396577813 0.52867787894 0.15896820426 0.83380382006 0.52853816191 0.15933106231 0.83382313711 
0.52812131783 0.15969127154 0.834018328 0.52743665388 0.16005357317 0.83438206468 0.52649502154 0.16041886594 0.8349064497 
0.52531694218 0.16078584084 0.83557765866 0.52392505801 0.16115087663 0.83638085138 0.52234162075 0.16150768209 0.83730191679 
0.52059525804 0.16184601895 0.83832359114 0.51871573156 0.16215389725 0.83942843855 0.51673380826 0.16241756259 0.84059901663 
0.51468071257 0.16262166871 0.84181824462 0.51258595826 0.16274874241 0.8430708643 0.51047914576 0.16277981602 0.84434221335 
0.50839050633 0.16269532387 0.84561771781 0.50634393901 0.16247376909 0.84688729462 0.50436492252 0.16209275033 0.84814029808 
0.50248195432 0.16152991697 0.84936445152 0.50071459039 0.16075968882 0.85055347946 0.49908738623 0.15975736396 0.85169793094 
0.49762305817 0.15849816682 0.85278931929 0.49633961692 0.15695649082 0.85382178742 0.49526012067 0.15510975984 0.85478557269 
0.49440410636 0.15293441681 0.85567262652 0.4937867007 0.1504108613 0.85647607498 0.49342469307 0.14752448072 0.85718644404 
0.49332680109 0.14426358209 0.85779757881 0.49349996592 0.14062268193 0.85830242046 0.49394761516 0.13660330042 0.85869394536 
0.49466279427 0.13221419094 0.85896922394 0.49563996275 0.12746956961 0.85912312049 0.49686907035 0.12239013315 0.85915178067 
0.49832694935 0.11700310241 0.85905792912 0.49998583318 0.11134059031 0.85884657511 0.50181720947 0.10543681353 0.85852348054 
0.50379271471 0.099326886406 0.85809502402 0.50588385543 0.093048113983 0.85756840736 0.50805446826 0.08663620722 0.85695672287 
0.51027208343 0.080124372932 0.85627243663 0.51250883703 0.073542477717 0.85552685285 0.51473096145 0.06691817371 0.8547362139 
0.51691442545 0.060276537454 0.85391229982 0.51904075911 0.053638114605 0.85306485278 0.52108766361 0.047021361536 0.85220692229 
0.52303560878 0.040442234877 0.85135079584 0.52487243839 0.033914524082 0.85050498439 0.52658533669 0.027450440997 0.8496789726 
0.52816720832 0.021061353563 0.84887915479 0.52960958728 0.014757078644 0.84811314911 0.53090972642 0.0085458201436 0.84738529097 
0.53207068826 0.0024358300268 0.84669643287 0.53308921047 -0.0035662141712 0.84605152077 0.53397089702 -0.0094559182691 0.84544997886 
0.53472230448 -0.015228840239 0.84489060802 0.53534754731 -0.020882303627 0.84437369274 0.53585898677 -0.026416879914 0.84389412532 
0.5362686093 -0.031834228874 0.84344683327 0.5365853797 -0.037137388971 0.84302843643 0.53682464788 -0.042332062078 0.84263117314 
0.53699995213 -0.047425898876 0.84224808431 0.53712516632 -0.052428317501 0.84187162158 0.53721653646 -0.057349626092 0.84149237272 
0.53729046839 -0.062201443095 0.84110042983 0.5373579332 -0.066995751883 0.84068901554 0.53743089939 -0.071744570328 0.84025040613 
0.53752431012 -0.076459515375 0.83977470701 0.53764791917 -0.081150176754 0.83925524355 0.53780958187 -0.085823970071 0.83868653251 
0.5380182616 -0.090485860153 0.83806244356 0.53827877733 -0.095136129947 0.83737988671 0.53859474358 -0.099769866239 0.83663712324 
0.53896527825 -0.10437639089 0.83583610706 0.53938471191 -0.10893723474 0.83498312045 0.5398536269 -0.1134272222 0.83408172668 
0.54036140231 -0.1178109327 0.83314472874 0.54089605628 -0.12204434957 0.83218785922 0.5414445618 -0.12607580785 0.8312296176 
0.54198962568 -0.12984391914 0.83029380481 0.54251614203 -0.1332819616 0.82940469878 0.54299860497 -0.13631902495 0.82859497852 
0.54342039056 -0.1388840144 0.82789220896 0.54376291976 -0.14090993694 0.82732477103 0.54400884327 -0.14233845687 0.8269184616 
0.54400884327 -0.14233845687 0.8269184616 
NormalArray 3 172 double
-0.91939074407 0.15441621998 0.36176828319 -0.91939074407 0.15441621998 0.36176828319 -0.91874109168 0.15781873765 0.36195034537 
-0.91873235338 0.15694601497 0.36235177831 -0.9183297187 0.15787767254 0.36296717242 -0.91784651417 0.15878751385 0.36379156376 
-0.91719748764 0.1601775494 0.36481765492 -0.91654448386 0.16113368203 0.36603571631 -0.91567042113 0.16292473066 0.36742783238 
-0.91481090837 0.16424396546 0.3689782131 -0.91393900548 0.16529536795 0.37066553063 -0.91311298978 0.16580628957 0.37246871308 
-0.91244729827 0.16520450767 0.37436265643 -0.91201782708 0.1631242453 0.37631630803 -0.91198882419 0.15864719271 0.37829545702 
-0.91259879109 0.15023876779 0.38025223097 -0.9139679476 0.13659044808 0.38210684403 -0.91630612586 0.11471128613 0.38369832492 
-0.91950836293 0.080768805467 0.38468268814 -0.92277355269 0.028690054199 0.38427314667 -0.92333304485 -0.050378127559 0.38068114289 
-0.91372177053 -0.16800695043 0.36998133826 -0.87746164032 -0.33359893227 0.34463433108 -0.79022190927 -0.53705473055 0.29516359956 
-0.64404659179 -0.73223316546 0.22144656016 -0.47271116893 -0.86984436176 0.14112029293 -0.32471901545 -0.9428194218 0.075160487491 
-0.22009497118 -0.97500249349 0.030468694692 -0.15489406897 -0.98792300471 0.0039955166119 -0.11764532257 -0.99300709489 -0.0098228093099 
-0.10203262261 -0.99468366142 -0.013919684908 -0.10007961624 -0.99490967301 -0.011781891205 -0.10779206395 -0.99416025676 -0.0051239461701 
-0.12192411611 -0.99252841611 0.0046747324055 -0.13952857981 -0.9900829127 0.016358526531 -0.15979125793 -0.98670745653 0.02958291954 
-0.1810010446 -0.98251565537 0.043607439824 -0.20351862828 -0.97731683833 0.058582979322 -0.22526548315 -0.97151398373 0.073593760012 
-0.24691960664 -0.9649478328 0.08891787124 -0.26797034234 -0.95776345496 0.10431231938 -0.28829330489 -0.95003114119 0.11969879331 
-0.30779067256 -0.94182686925 0.13500759324 -0.32651797784 -0.93317514601 0.15023367471 -0.34454522707 -0.92408838059 0.16537609063 
-0.3618939816 -0.91459535289 0.1804108826 -0.37857318384 -0.90473070375 0.19530667722 -0.39481162276 -0.89441056281 0.2101274082 
-0.41060768312 -0.88365730875 0.22483569833 -0.42587159685 -0.8725494165 0.23935517284 -0.44094592824 -0.86090266091 0.25379774784 
-0.45565877381 -0.848835946 0.26805338764 -0.47018700436 -0.83624636756 0.28216341661 -0.48458652153 -0.82309752238 0.29611884744 
-0.49876962169 -0.80945712527 0.30985162067 -0.51286602698 -0.7952284599 0.32338852011 -0.52695366274 -0.78033877832 0.33673614058 
-0.54083928182 -0.76494383372 0.34979108406 -0.55471604046 -0.74886711166 0.36261296658 -0.56849039909 -0.73217782342 0.3751457064 
-0.58218334466 -0.7148406284 0.38738279413 -0.59571367631 -0.69692273004 0.39927925592 -0.60914518458 -0.67833977276 0.41084948192 
-0.62242055947 -0.65913288006 0.4220621916 -0.63545686687 -0.63938297153 0.4328787198 -0.64827938805 -0.61904490281 0.44330265434 
-0.66082516916 -0.59818383874 0.45330584694 -0.67297928345 -0.57695250247 0.4628441357 -0.68489745395 -0.5551237411 0.47196727604 
-0.69633408019 -0.53305888521 0.48059033872 -0.70733669298 -0.51070570921 0.48872741006 -0.7178053392 -0.48825713849 0.49634711818 
-0.72770337448 -0.46582773222 0.50344048572 -0.73700337875 -0.44353443697 0.51000315973 -0.74573063078 -0.42140515197 0.51604604854 
-0.75367083528 -0.39998904671 0.52152567967 -0.76077783549 -0.3795630248 0.52644942324 -0.76709324431 -0.36023469644 0.53084735848 
-0.77241297652 -0.34272960723 0.53470983723 -0.77656919973 -0.32778364065 0.53805033496 -0.77956090384 -0.31574771189 0.54091420729 
-0.78093046276 -0.30819237305 0.54329096581 -0.77994144942 -0.30743951472 0.54513510276 -0.77567466293 -0.31600708427 0.54632256039 
-0.76545371077 -0.34003646558 0.5463111007 -0.74233475492 -0.39236271091 0.54313038465 -0.68876937201 -0.49486013755 0.52982090979 
-0.52626056344 -0.70963510168 0.46847395001 0.0028546080965 -0.98263383249 0.18553329202 0.60203397509 -0.76284481186 -0.23584504626 
0.77097034706 -0.5018535599 -0.39210678184 0.81752304113 -0.36290232174 -0.4471666156 0.83424169104 -0.28673308965 -0.47098294685 
0.84209010299 -0.2392282989 -0.4833777813 0.84667896999 -0.20567333647 -0.49074759342 0.84995447932 -0.1778560946 -0.4959280116 
0.85250093116 -0.152750438 -0.49990945786 0.85457145974 -0.127429107 -0.50345748867 0.85614337668 -0.10051168104 -0.50686874094 
0.85704383358 -0.070011656073 -0.51046472487 0.85686910347 -0.034001344817 -0.51441155514 0.85495949088 0.0089208042915 -0.51861805619 
0.85028073636 0.060521706717 -0.52283820862 0.84116238614 0.12321239998 -0.52655915587 0.82521353827 0.19871873499 -0.52870925907 
0.79913379991 0.28818818122 -0.52757249933 0.75854118423 0.39188515893 -0.52061626371 0.69881089346 0.50699638646 -0.5045968681 
0.6181755178 0.62487228445 -0.47685811025 0.51756883538 0.73611260178 -0.43618887898 0.40282251303 0.83076282494 -0.3841447015 
0.28464145598 0.90163975928 -0.32561478164 0.17375593813 0.94799866543 -0.26665971633 0.073014750293 0.97500747226 -0.20983154021 
-0.0094247625226 0.98697961472 -0.16056903181 -0.080578124947 0.9899907842 -0.11586808434 -0.13655453604 0.98751375046 -0.078545854981 
-0.18195554551 0.98221142117 -0.046399392087 -0.21929157974 0.97548917853 -0.01822266793 -0.24955675245 0.96833915324 0.0063805648888 
-0.27177903136 0.96199109521 0.026632514743 -0.28936289239 0.95618472532 0.044495927667 -0.30184764122 0.95149269174 0.059579015189 
-0.31167297128 0.94735593091 0.073325978601 -0.31803763076 0.94424572017 0.085159176568 -0.32052072759 0.94249180218 0.094739991625 
-0.32096660233 0.94145372636 0.10317616641 -0.31885658131 0.94138764715 0.11008986485 -0.31320475619 0.94272040871 0.11480858728 
-0.30715228836 0.94415462735 0.11928751574 -0.29852618249 0.94655637638 0.1221193871 -0.28812320577 0.9495593905 0.12378199469 
-0.27537486191 0.95332008931 0.12389306981 -0.26226461048 0.95703622016 0.12368891376 -0.2462279591 0.96156191791 0.12153382322 
-0.23097795086 0.96556072817 0.11975669685 -0.21202672197 0.97041261516 0.115516343 -0.19509199067 0.97432251436 0.11240441797 
-0.17599047351 0.97847384766 0.1077788601 -0.15675416849 0.98226153525 0.10290970324 -0.1378339204 0.98558752674 0.098076692043 
-0.1190998975 0.98849887227 0.0931943879 -0.099807799691 0.99112615264 0.087791529576 -0.083508908638 0.99295106789 0.084109684095 
-0.066733853659 0.99456110297 0.079967526128 -0.052109853514 0.99566613974 0.077029223979 -0.039611589194 0.99637447499 0.075291616986 
-0.028955973561 0.99679380952 0.074589898151 -0.020930512677 0.99693074738 0.075438707309 -0.01607852594 0.99680807122 0.078199425593 
-0.014297315865 0.99646163953 0.082823835341 -0.013746104647 0.99601147822 0.088159967455 -0.016863221561 0.99526102691 0.095765965102 
-0.022569187751 0.99421952359 0.10496747436 -0.0298161839 0.99290539613 0.11510807751 -0.038839420973 0.99122643285 0.12633945622 
-0.049838937535 0.98906757806 0.13878546876 -0.060892883438 0.98662060813 0.15123436237 -0.073529311613 0.98361057501 0.16463194425 
-0.08456453697 0.98057480419 0.17697992108 -0.095627402173 0.97725697234 0.18927284528 -0.10829168196 0.97328689244 0.20244884942 
-0.11702824842 0.97000380306 0.21306574364 -0.12781933355 0.96599747496 0.22474673823 -0.13494139953 0.9628420705 0.23393581592 
-0.14357345245 0.9591604804 0.24371671382 -0.15024523197 0.95601814765 0.25190409213 -0.15358034715 0.95397073419 0.25759059625 
-0.16054855951 0.95081980527 0.26488838772 -0.1610790758 0.94995188726 0.26766573038 -0.1671518606 0.94737059134 0.27303702707 
-0.1671518606 0.94737059134 0.27303702707 
BinormalArray 3 172 double
-0.16578708358 -0.9861614903 -0.00039743813165 -0.16578708358 -0.9861614903 -0.00039743813165 -0.16897008128 -0.98562080925 0.0008555730912 
-0.16818083089 -0.98575601019 0.00054451773795 -0.16908630894 -0.98560083532 0.00090196425766 -0.16998394351 -0.98544603019 0.0012571901047 
-0.17134083975 -0.98521017631 0.0017958668579 -0.17230512325 -0.9850412131 0.0021801352392 -0.17405659495 -0.98473143573 0.0028811871322 
-0.17537843349 -0.98449517883 0.0034129063815 -0.17645947263 -0.98430037655 0.0038500962949 -0.17704570368 -0.98419413877 0.0040885220725 
-0.17660559806 -0.98427393874 0.0039084845472 -0.17479997256 -0.98459887707 0.0031655752784 -0.17077865704 -0.98530827388 0.0015019080073 
-0.16312257324 -0.98660437869 -0.0016810867433 -0.15062313082 -0.98856718854 -0.0068982760806 -0.13051513273 -0.9913280658 -0.015312285337 
-0.099250797405 -0.99465710975 -0.028399176709 -0.051194074427 -0.99751230589 -0.048459945683 0.021908902966 -0.99665327263 -0.078754391113 
0.13094100624 -0.98369125388 -0.12331248892 0.28500603407 -0.94054566952 -0.1847847507 0.47537170092 -0.84115967443 -0.25782193096 
0.65955852453 -0.67815994069 -0.32416299536 0.79111044013 -0.48944260557 -0.36686538046 0.86224555599 -0.32775174294 -0.38614944798 
0.89451014114 -0.21418715543 -0.39239708185 0.90793126232 -0.14394431875 -0.39362527357 0.91338425171 -0.10431955139 -0.39350557801 
0.91514757025 -0.088369907939 -0.39331372215 0.91524527081 -0.087408501156 -0.39330121813 0.91423223675 -0.097098328246 -0.39338445817 
0.91228651993 -0.11391988177 -0.39338983984 0.90954858153 -0.13467531739 -0.39317163775 0.90594265366 -0.15848322653 -0.39262065049 
0.9016152921 -0.18348214606 -0.39169397127 0.89639872228 -0.21006431521 -0.39031053555 0.89069982484 -0.23596085846 -0.38855668223 
0.88437240928 -0.26190549641 -0.38638187413 0.8775616086 -0.28733456588 -0.38382869923 0.87033842539 -0.31210420193 -0.38092255438 
0.86277745904 -0.33609834143 -0.37769426931 0.85490476835 -0.35936732621 -0.37415633351 0.8467349447 -0.38197635295 -0.37031608014 
0.83829681361 -0.40393690589 -0.36618769553 0.82962349231 -0.42524577511 -0.36178846272 0.82064173032 -0.44613904602 -0.35708136619 
0.81137262307 -0.46660087333 -0.35207682618 0.80188540388 -0.48651880638 -0.34681299006 0.79201799314 -0.50625104979 -0.341199902 
0.78187325706 -0.5255957788 -0.33529582043 0.7713599513 -0.54473034437 -0.32904813852 0.76044446877 -0.56370086001 -0.32243689359 
0.74918227427 -0.58239834059 -0.31549658126 0.73748705506 -0.60094987942 -0.3081754144 0.72529318249 -0.61942675694 -0.30043350715 
0.712729407 -0.63760914768 -0.29235486519 0.69964162638 -0.65569399528 -0.28384322995 0.68608428209 -0.67357105452 -0.27493706985 
0.67202320759 -0.69125398128 -0.26561766098 0.6575107084 -0.70864845738 -0.25592387967 0.64247150536 -0.72581525503 -0.24581004937 
0.62693593766 -0.74268738146 -0.23530147364 0.61096770753 -0.75917208995 -0.22444642609 0.59452497332 -0.77529123968 -0.21322183232 
0.57765830748 -0.79097472598 -0.20166770358 0.56049153824 -0.80609988769 -0.18987418632 0.54283122405 -0.82082398887 -0.1777139316 
0.52497530598 -0.83489198527 -0.16539740339 0.50687673507 -0.84835046398 -0.15289691204 0.48869299412 -0.86109688895 -0.14032571159 
0.47051638486 -0.87309444128 -0.12775143122 0.45244129463 -0.88431668301 -0.11524269635 0.43448795123 -0.89478990101 -0.10281660023 
0.41711132014 -0.90430933118 -0.090789758015 0.40054000711 -0.91283951501 -0.07932037911 0.38486169949 -0.92043115418 -0.068468698512 
0.37067935056 -0.9269071898 -0.058650494929 0.35860496314 -0.93213397255 -0.050286555158 0.34892919584 -0.93613541736 -0.043576331412 
0.34295726286 -0.93852324724 -0.039426263426 0.34261381978 -0.93865870857 -0.03918672371 0.34996952281 -0.9357107042 -0.044348744615 
0.37005417313 -0.92716069921 -0.058591354151 0.41325215882 -0.90617701745 -0.089810168011 0.49668533286 -0.8544503297 -0.15237556955 
0.66610885022 -0.68648799013 -0.2916045937 0.84881773752 -0.095707164165 -0.51995056226 0.5985002124 0.62664296501 -0.49911530749 
0.35593903636 0.85008335015 -0.38815679845 0.23122857386 0.91797862644 -0.32225547014 0.16384075567 0.94448394521 -0.28479165021 
0.12217351887 0.95755821462 -0.26106684373 0.092936835375 0.96526103911 -0.24420047298 0.068823065285 0.97071235608 -0.23017581856 
0.047145940147 0.97492213527 -0.21749503555 0.025330022425 0.97850290562 -0.20467157513 0.002165634786 0.98158949533 -0.19099050418 
-0.024075535955 0.98420148388 -0.17540754741 -0.055054290519 0.98608151559 -0.15688298092 -0.091952763411 0.98662209115 -0.13461626408 
-0.13624155919 0.98481843738 -0.10756803866 -0.18989906679 0.97898977464 -0.074278971352 -0.25424130505 0.96655926081 -0.033534372651 
-0.32999553849 0.94385150216 0.015725344159 -0.41701339403 0.90586000279 0.074279772103 -0.51242083885 0.84701372408 0.1413953151 
-0.60846554641 0.76446907016 0.21297117081 -0.69697165317 0.65840936923 0.28412605862 -0.76970866948 0.53457842371 0.34896199367 
-0.82130616773 0.40454518739 0.40224292438 -0.85204669366 0.28049082543 0.44197435296 -0.86671847708 0.16612331749 0.47032129962 
-0.86979298754 0.071128468344 0.48826314607 -0.86600516709 -0.011979504003 0.4998915303 -0.85870170151 -0.078461015562 0.50643386228 
-0.84982404027 -0.13334216077 0.50992055139 -0.8403881427 -0.17936658383 0.51144442339 -0.83116938962 -0.21757743359 0.51168105902 
-0.82328999123 -0.24674563169 0.51118507762 -0.81626177365 -0.27076566256 0.51029665181 -0.8105969959 -0.28904106268 0.50930126086 
-0.80563816914 -0.3043861196 0.50822852204 -0.80183139764 -0.31581967706 0.50727146711 -0.79946677258 -0.3228054684 0.50660587157 
-0.79787395061 -0.32748277205 0.50611480215 -0.79728612964 -0.32921239612 0.50591899126 -0.79809449192 -0.32680298199 0.50620647263 
-0.79903501082 -0.32394255462 0.50656122315 -0.80092372218 -0.3180471333 0.50731372172 -0.80340068778 -0.31004186084 0.50835162968 
-0.8065993041 -0.29924109503 0.50975712812 -0.80976922485 -0.28797826021 0.51121651395 -0.81368278545 -0.27321264853 0.51310347235 
-0.81712213669 -0.25932392795 0.51484222255 -0.82131501522 -0.24100121361 0.51706871962 -0.8246659794 -0.22499468207 0.51894452061 
-0.82820778548 -0.20635647841 0.52104593644 -0.83141086374 -0.18748215509 0.52307400737 -0.83419235883 -0.16890178431 0.52497170946 
-0.83659265566 -0.15045950268 0.52675864164 -0.83871413885 -0.13127406042 0.52851273812 -0.84016748835 -0.11554360751 0.52987570834 
-0.84140511732 -0.099170531566 0.53122747879 -0.84223553325 -0.085262843727 0.53232466974 -0.84276344215 -0.073796355649 0.53320153644 
-0.84308516949 -0.064442884998 0.53390496492 -0.8432428294 -0.058140832858 0.53437924194 -0.84329109681 -0.055539981513 0.53457968208 
-0.8432760754 -0.056525935804 0.53450002736 -0.8432422524 -0.058929657086 0.53429373876 -0.84313917009 -0.065636917521 0.53367418424 
-0.84294617135 -0.075375602272 0.53269153437 -0.84264210089 -0.086911007036 0.53141393157 -0.84217121361 -0.10052066943 0.52975772008 
-0.84145851383 -0.11643725841 0.52762669982 -0.84056410501 -0.1323967235 0.52528382136 -0.83935042891 -0.15018725154 0.52243147585 
-0.83807235244 -0.16606812579 0.51966923102 -0.83661193663 -0.18193814579 0.51670008573 -0.83476402243 -0.1996168587 0.51314923423 
-0.83325502937 -0.21263397231 0.51036540817 -0.83132044019 -0.22793432192 0.50690459716 -0.82983649304 -0.23883056327 0.50431275699 
-0.82803013798 -0.2513000786 0.50121288999 -0.82650021531 -0.26127613759 0.49863029793 -0.82556985893 -0.26712723886 0.49706885468 
-0.82396507157 -0.27686265269 0.49439724148 -0.82363548881 -0.27881140858 0.49385096944 -0.82226190106 -0.28675551669 0.49158584164 
-0.82226190106 -0.28675551669 0.49158584164 
