# vtk DataFile Version 4.1
vtk output
ASCII
DATASET POLYDATA
POINTS 327 float
74.4604 -20.7076 -299.643 74.1433 -20.7166 -298.547 73.8263 -20.7255 -297.451 
73.5102 -20.7339 -296.354 73.1953 -20.7417 -295.255 72.8824 -20.7485 -294.154 
72.5719 -20.7541 -293.049 72.2644 -20.7582 -291.942 71.9604 -20.7607 -290.831 
71.6602 -20.7613 -289.715 71.3643 -20.7601 -288.595 71.073 -20.7568 -287.471 
70.7866 -20.7516 -286.342 70.5053 -20.7444 -285.209 70.2293 -20.7353 -284.072 
69.9587 -20.7243 -282.931 69.6936 -20.7115 -281.787 69.434 -20.697 -280.64 
69.1798 -20.6809 -279.491 68.9309 -20.6633 -278.34 68.6872 -20.6442 -277.187 
68.4485 -20.6237 -276.032 68.2145 -20.6016 -274.876 67.9849 -20.578 -273.719 
67.7593 -20.5526 -272.561 67.5375 -20.5254 -271.401 67.319 -20.4962 -270.238 
67.1034 -20.4646 -269.074 66.8901 -20.4304 -267.906 66.6789 -20.3933 -266.734 
66.4691 -20.353 -265.556 66.2603 -20.309 -264.373 66.052 -20.2612 -263.182 
65.8437 -20.2092 -261.983 65.6351 -20.1526 -260.775 65.4257 -20.0912 -259.556 
65.2151 -20.0248 -258.325 65.003 -19.9533 -257.082 64.7891 -19.8765 -255.826 
64.5731 -19.7942 -254.555 64.3548 -19.7066 -253.27 64.1341 -19.6136 -251.969 
63.9108 -19.5153 -250.652 63.6848 -19.4118 -249.318 63.4561 -19.3033 -247.967 
63.2244 -19.1898 -246.598 62.9899 -19.0717 -245.212 62.7523 -18.949 -243.806 
62.5118 -18.822 -242.38 62.2681 -18.6908 -240.935 62.0212 -18.5557 -239.468 
61.771 -18.4168 -237.978 61.5173 -18.2743 -236.466 61.26 -18.1284 -234.928 
60.9989 -17.9792 -233.365 60.7337 -17.8269 -231.775 60.4643 -17.6718 -230.156 
60.1903 -17.514 -228.508 59.9117 -17.3537 -226.828 59.6281 -17.1914 -225.117 
59.3393 -17.0272 -223.373 59.0451 -16.8617 -221.595 58.7455 -16.6952 -219.784 
58.4402 -16.5282 -217.938 58.1292 -16.3612 -216.058 57.8125 -16.1949 -214.145 
57.49 -16.0298 -212.199 57.1619 -15.8666 -210.221 56.8284 -15.706 -208.213 
56.4895 -15.5487 -206.177 56.1455 -15.3952 -204.114 55.7968 -15.2462 -202.026 
55.4436 -15.1024 -199.917 55.0865 -14.9641 -197.789 54.7257 -14.832 -195.644 
54.3619 -14.7063 -193.487 53.9954 -14.5875 -191.319 53.6269 -14.4755 -189.145 
53.2569 -14.3707 -186.967 52.8859 -14.2729 -184.789 52.5146 -14.1822 -182.615 
52.1436 -14.0982 -180.447 51.7734 -14.0209 -178.289 51.4047 -13.9497 -176.143 
51.038 -13.8843 -174.014 50.6739 -13.8244 -171.903 50.313 -13.7693 -169.813 
49.9557 -13.7186 -167.746 49.6026 -13.6717 -165.705 49.2541 -13.6281 -163.692 
48.9107 -13.5873 -161.707 48.5726 -13.5488 -159.752 48.2403 -13.512 -157.829 
47.9141 -13.4766 -155.938 47.5941 -13.4422 -154.079 47.2806 -13.4082 -152.252 
46.9738 -13.3745 -150.458 46.6737 -13.3407 -148.695 46.3805 -13.3065 -146.963 
46.0941 -13.2717 -145.26 45.8147 -13.236 -143.587 45.5421 -13.1993 -141.941 
45.2764 -13.1614 -140.32 45.0176 -13.1222 -138.724 44.7654 -13.0814 -137.149 
44.5199 -13.0389 -135.595 44.2809 -12.9947 -134.059 44.0484 -12.9485 -132.539 
43.8222 -12.9002 -131.033 43.6023 -12.8497 -129.538 43.3886 -12.7967 -128.054 
43.181 -12.7413 -126.578 42.9795 -12.6832 -125.107 42.7839 -12.6222 -123.641 
42.5944 -12.5583 -122.178 42.4108 -12.4914 -120.715 42.2332 -12.4212 -119.252 
42.0617 -12.3478 -117.788 41.8963 -12.271 -116.322 41.737 -12.1906 -114.852 
41.584 -12.1068 -113.379 41.4373 -12.0193 -111.901 41.2971 -11.9282 -110.42 
41.1636 -11.8334 -108.933 41.0368 -11.7349 -107.443 40.9169 -11.6328 -105.948 
40.804 -11.527 -104.449 40.6983 -11.4176 -102.946 40.5998 -11.3047 -101.44 
40.5087 -11.1882 -99.9306 40.4249 -11.0682 -98.4188 40.3487 -10.9448 -96.9045 
40.28 -10.818 -95.3882 40.2189 -10.6879 -93.8701 40.1652 -10.5545 -92.3503 
40.119 -10.4179 -90.8292 40.0803 -10.278 -89.3066 40.0488 -10.1349 -87.7828 
40.0246 -9.98855 -86.2576 40.0074 -9.8389 -84.7311 39.9972 -9.68589 -83.2031 
39.9938 -9.52943 -81.6736 39.997 -9.36941 -80.1425 40.0066 -9.20571 -78.6095 
40.0226 -9.03818 -77.0744 40.0448 -8.86665 -75.5371 40.073 -8.69093 -73.9972 
40.107 -8.51085 -72.4544 40.1468 -8.32619 -70.9082 40.1923 -8.13676 -69.3583 
40.2434 -7.94235 -67.804 40.3 -7.74276 -66.2448 40.3621 -7.53779 -64.6797 
40.4297 -7.32726 -63.1079 40.5029 -7.11099 -61.5284 40.5818 -6.88883 -59.94 
40.6663 -6.66062 -58.3415 40.7567 -6.42626 -56.7315 40.8531 -6.18563 -55.1083 
40.9558 -5.93864 -53.4704 41.0648 -5.68524 -51.8159 41.1806 -5.42539 -50.1431 
41.3032 -5.15905 -48.4499 41.4331 -4.88624 -46.7344 41.5705 -4.60697 -44.9945 
41.7157 -4.32129 -43.2283 41.869 -4.02927 -41.4337 42.0308 -3.73098 -39.6088 
42.2012 -3.42654 -37.7518 42.3805 -3.11609 -35.861 42.569 -2.79978 -33.9348 
42.7669 -2.47783 -31.9721 42.9743 -2.15044 -29.9717 43.1913 -1.8179 -27.933 
43.4179 -1.4805 -25.8557 43.654 -1.1386 -23.7398 43.8995 -0.792616 -21.5859 
44.1541 -0.443002 -19.3949 44.4175 -0.090281 -17.1684 44.6893 0.264967 -14.9082 
44.9689 0.6221 -12.617 45.2557 0.980416 -10.2978 45.5488 1.33916 -7.95389 
45.8476 1.69751 -5.58933 46.151 2.05463 -3.20841 46.4581 2.40962 -0.815749 
46.7677 2.76157 1.58374 47.0789 3.10957 3.98499 47.3904 3.45271 6.38286 
47.7012 3.79009 8.77219 48.0101 4.12086 11.148 48.3159 4.44423 13.5053 
48.6178 4.75948 15.8397 48.9146 5.06596 18.1469 49.2056 5.36312 20.4232 
49.4898 5.65054 22.6653 49.7666 5.92786 24.8704 50.0354 6.19489 27.0361 
50.2957 6.45151 29.1609 50.5472 6.69772 31.2435 50.7896 6.93365 33.2831 
51.0227 7.15948 35.2795 51.2465 7.37551 37.2328 51.4611 7.58207 39.1434 
51.6665 7.77956 41.012 51.863 7.96842 42.8396 52.0507 8.14909 44.6271 
52.2299 8.32202 46.3757 52.4009 8.48765 48.0864 52.564 8.64639 49.7603 
52.7196 8.79862 51.3986 52.8678 8.94466 53.0019 53.0089 9.08479 54.5713 
53.1433 9.21923 56.1073 53.2711 9.34815 57.6106 53.3925 9.47165 59.0816 
53.5077 9.58981 60.5207 53.6169 9.70262 61.9283 53.72 9.81008 63.3047 
53.8173 9.91213 64.6503 53.9087 10.0087 65.9655 53.9943 10.0998 67.2506 
54.0741 10.1852 68.5062 54.1482 10.2649 69.7331 54.2166 10.339 70.932 
54.2792 10.4073 72.1037 54.3362 10.4699 73.2495 54.3874 10.5268 74.3704 
54.433 10.5782 75.4679 54.473 10.6242 76.5435 54.5074 10.665 77.5988 
54.5363 10.7008 78.6355 54.5597 10.7319 79.6554 54.5778 10.7585 80.6604 
54.5905 10.781 81.6525 54.598 10.7998 82.6337 54.6004 10.8151 83.606 
54.5976 10.8273 84.5716 54.5897 10.8369 85.5324 54.5768 10.844 86.4907 
54.5588 10.8491 87.4486 54.5359 10.8523 88.4081 54.5078 10.8539 89.3714 
54.4745 10.8542 90.3406 54.436 10.8532 91.3179 54.3921 10.851 92.3052 
54.3426 10.8478 93.3046 54.2874 10.8434 94.3181 54.2262 10.8377 95.3477 
54.1587 10.8308 96.3952 54.0848 10.8223 97.4623 54.004 10.8121 98.5508 
53.9163 10.8 99.6622 53.8212 10.7857 100.798 53.7185 10.7689 101.959 
53.608 10.7493 103.146 53.4895 10.7267 104.361 53.3628 10.7008 105.604 
53.2278 10.6714 106.875 53.0846 10.6382 108.175 52.933 10.601 109.503 
52.7734 10.5598 110.859 52.6058 10.5145 112.243 52.4306 10.4651 113.655 
52.2481 10.4115 115.093 52.059 10.3539 116.556 51.8638 10.2925 118.043 
51.6631 10.2273 119.553 51.4578 10.1588 121.085 51.2486 10.0871 122.638 
51.0366 10.0126 124.209 50.8227 9.93558 125.798 50.6078 9.85655 127.403 
50.393 9.77583 129.023 50.1793 9.69385 130.657 49.9676 9.61099 132.304 
49.7588 9.52764 133.964 49.554 9.4442 135.637 49.3537 9.36099 137.321 
49.1587 9.27837 139.017 48.9695 9.19661 140.726 48.7866 9.116 142.449 
48.6102 9.03675 144.186 48.4405 8.95906 145.939 48.2775 8.8831 147.709 
48.121 8.80898 149.498 47.9707 8.73681 151.309 47.8262 8.66665 153.143 
47.687 8.59855 155.003 47.5523 8.53253 156.892 47.4215 8.4686 158.813 
47.2938 8.40675 160.767 47.1683 8.34696 162.757 47.0442 8.28921 164.787 
46.9206 8.23348 166.857 46.7966 8.17974 168.972 46.6716 8.12795 171.132 
46.5447 8.0781 173.339 46.4153 8.03016 175.595 46.2829 7.9841 177.901 
46.1471 7.9399 180.257 46.0074 7.89753 182.665 45.8637 7.85697 185.124 
45.7158 7.81817 187.633 45.5639 7.78111 190.192 45.4079 7.74571 192.8 
45.2481 7.71194 195.455 45.0848 7.6797 198.154 44.9184 7.64894 200.897 
44.7494 7.61954 203.68 44.578 7.59141 206.501 44.405 7.56444 209.356 
44.2308 7.5385 212.242 44.0559 7.51348 215.156 43.8808 7.48925 218.095 
43.7059 7.46568 221.055 43.5316 7.44266 224.034 43.3583 7.42008 227.027 
43.1862 7.39782 230.033 43.0156 7.37581 233.049 42.8464 7.35395 236.072 
42.6788 7.3322 239.101 42.5128 7.31049 242.133 42.3481 7.2888 245.169 
42.1845 7.26711 248.206 42.0219 7.24539 251.244 41.8598 7.22366 254.283 

LINES 1 328
327 326 325 324 323 322 321 320 319 318 317 316 315 314 313 312 311 310 309 308 307 306 305 304 303 302 301 300 299 298 297 296 295 294 293 292 291 290 289 288 287 286 285 284 283 282 281 280 279 278 277 276 275 274 273 272 271 270 269 268 267 266 265 264 263 262 261 260 259 258 257 256 255 254 253 252 251 250 249 248 247 246 245 244 243 242 241 240 239 238 237 236 235 234 233 232 231 230 229 228 227 226 225 224 223 222 221 220 219 218 217 216 215 214 213 212 211 210 209 208 207 206 205 204 203 202 201 200 199 198 197 196 195 194 193 192 191 190 189 188 187 186 185 184 183 182 181 180 179 178 177 176 175 174 173 172 171 170 169 168 167 166 165 164 163 162 161 160 159 158 157 156 155 154 153 152 151 150 149 148 147 146 145 144 143 142 141 140 139 138 137 136 135 134 133 132 131 130 129 128 127 126 125 124 123 122 121 120 119 118 117 116 115 114 113 112 111 110 109 108 107 106 105 104 103 102 101 100 99 98 97 96 95 94 93 92 91 90 89 88 87 86 85 84 83 82 81 80 79 78 77 76 75 74 73 72 71 70 69 68 67 66 65 64 63 62 61 60 59 58 57 56 55 54 53 52 51 50 49 48 47 46 45 44 43 42 41 40 39 38 37 36 35 34 33 32 31 30 29 28 27 26 25 24 23 22 21 20 19 18 17 16 15 14 13 12 11 10 9 8 7 6 5 4 3 2 1 0 

CELL_DATA 1
FIELD FieldData 2
LengthArray 1 1 double
560.06885259 
TortuosityArray 1 1 double
0.0080676523236 
POINT_DATA 327
FIELD FieldData 8
RadiusArray 1 327 double
26.266522951 26.797207719 27.616009696 27.616405311 27.649373 27.686561423 27.715895803 27.812675371 27.834944127 
27.972368635 27.986397473 28.08201641 28.160666671 28.173542055 28.417427612 28.505143554 28.631796977 28.717711925 
29.054204775 29.237628867 29.60889521 29.635857733 29.643036657 29.713604968 29.75597546 29.883755256 29.94807018 
29.9481558 30.061132927 30.065657511 30.197902627 30.265065296 30.367457967 30.481203884 30.690967502 30.728798877 
30.847060249 30.91898928 30.937207469 31.026965171 31.215440874 31.236509508 31.650771551 31.660042326 32.096564524 
32.119624926 32.422537798 32.721990403 32.805908203 32.868820192 32.91856324 33.016338606 33.044258665 33.175177197 
33.246121557 33.338683384 33.396506368 33.471184034 33.519518255 33.523657196 33.651682592 33.766617467 34.022260379 
34.127515341 34.142315857 34.457524724 34.50787969 34.97511659 35.234313801 35.594347816 36.014193698 36.871470082 
36.962035593 37.210390877 37.468681134 37.681848552 38.306611243 38.607450541 39.549181746 39.939974337 39.990838416 
40.838967056 41.128389475 41.813974063 41.987593196 42.692324402 42.768653341 42.790079616 43.639426598 44.280612033 
44.950049748 45.028042526 45.410781485 46.018497921 46.022598097 46.142211249 46.589613857 47.247685418 47.418653229 
47.836012281 47.845408811 48.13848187 48.639489386 48.732259265 48.938664781 49.279710958 49.715091248 49.939437228 
50.002572066 50.039650361 50.462453998 50.693043176 50.930032136 50.952158748 51.131442436 51.208662537 51.344049849 
51.361642496 51.705578238 52.154462484 52.285415269 52.587136039 53.109032192 53.279348919 53.436277971 53.629809643 
53.975270252 53.981717243 54.070783097 54.333552658 54.39661076 54.481955345 54.601078191 54.69552525 54.818012831 
55.281369161 55.308381366 55.608988718 55.614467848 55.663450811 56.017426275 56.102592541 56.274595053 56.278727527 
56.494391338 56.51760712 56.570328512 56.648752795 57.005635933 57.218138942 57.594314013 57.599834343 57.593813816 
57.594302292 57.594148143 57.628951949 57.633876159 57.643158538 57.656888693 57.71304881 57.738772762 57.726090669 
57.722421379 57.831495343 57.831629334 57.834605233 57.878262328 57.885167434 57.792969652 57.72396693 57.588733505 
57.583236211 57.608810618 57.613475773 57.615141978 57.552573137 57.539887177 57.500926382 57.493617417 57.532966792 
57.564866589 57.578812612 57.803515231 57.87960567 58.072841822 58.331823874 58.459100567 59.006718403 59.066064222 
59.987947983 60.669665206 61.274351905 61.699019167 61.747255561 62.079991197 62.700542093 63.057166667 63.160915936 
63.605013483 64.377261866 64.837934774 64.855763143 65.153823397 65.622592959 66.269524027 66.345360282 66.677339533 
67.399581603 67.458046676 67.647711458 67.878710858 68.073535122 69.078259669 69.842572878 70.174009211 70.317775474 
71.063022952 71.09794414 71.48221956 71.586002336 72.044330777 72.458809823 72.6114257 72.652630285 72.893503704 
73.014690578 73.424080913 73.518847764 73.633661698 73.830867664 73.852164435 74.101938347 74.341280196 74.609536593 
74.648260886 74.839129367 74.911117972 75.026693099 75.274656122 75.302423547 75.376415569 75.388721852 75.58337493 
75.678622739 75.719602017 75.758809881 75.786851979 75.82540028 75.958012572 76.095739008 76.180922799 76.223472959 
76.494041452 76.662561703 76.805187895 76.860650886 77.028219831 77.07699305 77.228822733 77.410623963 77.415766316 
77.550449417 77.720007886 77.781428258 77.800711499 77.809088193 78.014306168 78.297449949 78.345450926 78.406820186 
78.451887687 78.516740542 78.693131554 78.712926829 79.06175768 79.128809134 79.132314189 79.401488078 79.441497269 
79.556933649 79.599726713 79.793472799 79.847304214 79.864320495 79.943208816 80.031873055 80.037145772 80.090577323 
80.114497814 80.205181767 80.252532604 80.279328638 80.352867055 80.394351799 80.604709781 80.686716201 80.782870478 
81.000747461 81.087386071 81.158882364 81.449994082 81.501225596 81.671398185 82.001335645 82.017707251 82.068344655 
82.301390695 82.767727419 82.926824757 83.132435729 83.891597476 84.240283293 85.331769043 85.47611013 86.042712951 
86.54114225 86.79158539 86.956746334 87.020036764 87.191146309 87.336584598 87.801656802 88.459745201 88.615853274 
88.762164849 88.945429261 89.410440379 
EdgeArray 2 327 int
4598 4598 5279 5280 5277 5278 5579 5278 4057 
5578 5581 3180 5003 3732 5587 5587 5590 5591 
5590 5589 5589 5589 3453 3453 2684 3423 5864 
5864 6902 6188 6905 2540 6906 6655 6654 6655 
7202 7202 7206 7206 7486 7486 7430 7688 7685 
7688 7686 7685 6917 7686 6917 6917 7139 7186 
7186 7186 3625 3625 2146 6630 6630 6630 7116 
7116 7431 7431 6753 7122 8105 8103 8106 8104 
7924 8104 7447 4951 6966 7447 6966 7927 6344 
7938 7936 6112 5959 8116 8118 8116 8119 8166 
5692 8287 7308 7308 7847 7847 8112 4772 8112 
6229 6229 6684 6684 7591 6513 8776 8776 8170 
5781 6536 9002 4486 9008 9007 9010 9009 4088 
9010 7702 4088 7853 7853 6472 9241 8474 8474 
9592 9592 9178 9178 9677 9677 9676 9673 9501 
9230 5509 8926 10026 9442 10026 10354 10354 4658 
4658 9252 10470 10348 10134 7903 10798 10945 10881 
10881 11099 11099 10758 10758 11117 11138 11117 11491 
11010 11010 11474 10657 11608 11605 11605 11604 10383 
9287 11367 10383 11367 5370 12123 12123 10361 10361 
12196 12196 10697 12108 12184 12184 12801 12801 12478 
12746 12629 12746 12323 12323 12346 12346 12800 12800 
13139 12332 13139 11001 11001 11001 10489 10489 13312 
13365 13372 13155 11499 11499 12652 13364 13772 13687 
13953 13772 13953 13545 13791 13951 14044 14206 14204 
14204 14548 14548 14556 14556 14595 14595 11870 11870 
14572 14567 14568 14568 13841 13644 14873 14914 14946 
14946 14479 14479 15576 15445 15459 15445 15459 15459 
14433 15024 14433 16016 16016 16024 16027 16026 16028 
16027 16028 16028 16244 16237 16243 16243 16240 16239 
16506 16506 15283 15283 16685 16375 16685 16684 16463 
16463 17070 17070 17064 17170 17525 17523 17523 17527 
17061 17414 17672 17199 17851 17199 17455 17851 17975 
17975 18148 18149 17304 17304 16985 16985 17485 16138 
18319 17485 18319 18319 19107 19107 19110 19112 19361 
19361 18605 18605 19619 19619 19905 19905 19944 19590 
20196 19381 20450 20168 20450 20327 20452 20327 20413 
20413 20956 19757 21101 20404 21430 21476 21158 21705 
21992 22062 22323 22325 22323 22322 22225 22322 22598 
22051 22598 22766 21326 22596 22550 23049 22855 22855 
23375 23375 23834 23020 23642 23642 24326 24301 24251 
24528 24528 24521 24569 24568 25008 25007 25006 25013 
19259 19259 22667 23364 25695 25695 25837 25840 25837 
25838 25835 25838 21160 21160 23711 23711 25701 24145 
25717 24145 25717 25717 26379 26380 26379 26378 26375 
22522 26056 21577 21577 25718 25718 25718 25910 25910 
23613 23613 26310 26466 20855 26310 20855 20855 25619 
25619 26763 26763 20898 20898 26510 26510 26529 26529 
21786 21786 26129 21157 21157 21157 26074 26074 26248 
26248 27636 27636 27782 27782 27781 27781 27779 27778 
27778 27778 27635 27635 27714 27928 27928 27943 27943 
27943 27941 27941 26295 26295 28306 27944 28550 28550 
28549 28549 29379 29379 29593 28738 29849 28537 29847 
29587 29587 29587 28994 28487 28994 28994 29594 29594 
29845 29845 29607 29607 28427 28427 20348 30313 29554 
20348 29554 29554 30082 30287 30287 30287 30450 29949 
29949 29949 26789 26789 30915 30915 30523 30744 30523 
30523 30766 29935 31002 31002 31545 31765 31545 31545 
29874 29874 32261 32261 29869 29869 32609 30197 32807 
32609 32807 33003 33003 33003 32728 32728 33305 28640 
33305 33305 33972 33972 33976 33976 33308 34149 34149 
34149 33829 33962 33829 34150 34150 34150 34291 34291 
33185 34470 34708 33185 33013 34705 34706 34780 34780 
34780 32404 34703 32404 32404 33903 33903 31799 31799 
32878 32878 34699 34699 34696 35448 34696 34153 34153 
34153 35664 35664 35663 35663 34911 35484 36271 34899 
34715 35788 35617 35617 35777 35777 36131 36131 36147 
36147 36520 36520 34139 34139 35586 35531 34590 34359 
35464 37024 35610 36935 36712 36935 35206 34140 37593 
37593 37600 37600 37589 37601 37455 37589 37490 36257 
38700 38700 39222 38891 40139 37416 40269 40269 40550 
40550 40554 40554 40178 40178 40937 40937 41287 41288 
41287 41292 41292 41292 39501 39501 
EdgePCoordArray 1 327 double
0 0.96 0.996 0.992 0.524 0.516 0.716 0 0.42 
0.908 0 0 0.704 0 0.252 0.096 0.5 0.572 
0 0 0 0.964 0.912 0.788 0.892 0 0.996 
0 0 0.012 0 0 0 0.388 0.124 0.332 
0.396 0.04 0.896 0.284 0.708 0.324 0.824 0.916 0.748 
0.756 0 0 0.952 0.836 0.3 0.028 0.076 0.86 
0.228 0.624 0.908 0.38 0.092 0.976 0 0.696 0 
0 0 0 0.996 0.236 0.468 0.236 0.3 0.468 
0.684 0.772 0.388 0.832 0 0 0 0.204 0.528 
0 0.268 0.584 0.456 0.172 0.148 0.02 0 0 
0 0.012 0 0 0.032 0.808 0 0 0 
0.008 0.028 0 0 0.004 0.984 0 0.108 0.024 
0.36 0.016 0.76 0.264 0 0 0 0 0 
0.008 0 0.708 0.376 0 0 0.784 0.588 0 
0.016 0.048 0.056 0.184 0.524 0 0.888 0 0.912 
0 0 0.004 0.396 0 0 0.036 0.972 0.032 
0.844 0.892 0.588 0.892 0 0.312 0 0 0.136 
0.732 0 0 0.412 0 0 0 0 0.26 
0.004 0.008 0.044 0.92 0 0.968 0.12 0.7 0.156 
0.124 0.048 0.704 0.996 0.264 0.12 0.984 0.26 0 
0 0.224 0 0.356 0.388 0.532 0.528 0.868 0.164 
0 0.216 0 0.168 0.216 0.216 0 0 0.12 
0.744 0 0.388 0.424 0.428 0.476 0.872 0 0 
0 0.868 0.828 0 0 0 0 0 0 
0 0.028 0 0 0 0 0 0 0.26 
0 0 0.76 0.364 0 0 0 0.928 0 
0 0 0.132 0.484 0.856 0 0.884 0 0 
0 0 0 0.784 0.944 0 0.036 0 0.052 
0 0 0 0.912 0 0.016 0 0.088 0 
0 0 0 0.3 0.98 0.064 0 0 0.656 
0 0 0 0.02 0 0.108 0.004 0 0 
0.152 0.82 0.952 0.564 0 0.62 0 0 0 
0 0 0.476 0.216 0 0 0 0.184 0.312 
0.996 0 0 0 0 0 0 0.056 0.7 
0.152 0.304 0.272 0.508 0 0 0.144 0.868 0.736 
0 0.12 0.8 0 0 0 0 0 0.216 
0.448 0 0 
CurvatureArray 1 327 double
0 0.00020163331301 0.00083736490586 0.0014527880155 0.0020332736532 0.0025877999643 0.0030706278649 0.0035136214293 0.0038786990186 
0.0041768547736 0.0044015812589 0.0045628856348 0.004642334172 0.0046874411392 0.0046600798847 0.0045960189622 0.0044998617029 0.0043619202497 
0.0042109294376 0.0040377494314 0.0038567895317 0.0036676346232 0.0034758731794 0.0032899428716 0.0031263213764 0.0029761526013 0.0028539132205 
0.0027738369867 0.0027334419238 0.0027206074637 0.0027403779837 0.0027787237865 0.0028225739409 0.0028645022766 0.0028889306581 0.0028890129487 
0.0028647227143 0.0028079687488 0.0027248770416 0.0026127039319 0.0024800373991 0.0023241673967 0.0021580510264 0.0019815484152 0.0017988991828 
0.001615689585 0.0014353372726 0.0012581355306 0.001089460201 0.00092881208971 0.0007762761675 0.00063344480905 0.00050051131342 0.00037690681265 
0.00026857257689 0.00018676268861 0.00017152445989 0.00023115314069 0.00032323601764 0.00042981335557 0.00053716408672 0.00064697137695 0.00075403655596 
0.00085973855128 0.00095944509096 0.0010558306873 0.0011452387064 0.0012270363003 0.001300771549 0.0013652218779 0.0014206360082 0.0014645133058 
0.0014984210929 0.0015207375694 0.0015313376523 0.0015311276447 0.0015188693294 0.0014955063764 0.0014607325651 0.0014154484144 0.0013600144828 
0.0012949840796 0.001220671456 0.0011384729339 0.0010489868303 0.00095297018871 0.00085142668116 0.00074527987002 0.00063678222513 0.00052704003805 
0.00041850100825 0.000319245687 0.00024051895303 0.00021614638474 0.0002627683871 0.00035547567388 0.00046765421669 0.00059176803721 0.00072323159974 
0.00086069441599 0.0010019432569 0.0011492626661 0.0012991489167 0.0014553770513 0.0016128562606 0.0017739349644 0.0019333255684 0.0020938524216 
0.0022487087684 0.0024003807636 0.0025469968862 0.0026813718265 0.0028064343326 0.002922518261 0.0030286615013 0.0031173825634 0.0032003879659 
0.0032697064659 0.0033312255285 0.0033804947106 0.0034267340674 0.0034612665086 0.0034955393483 0.0035201262672 0.0035426627144 0.0035594652889 
0.0035717986379 0.003583386777 0.0035857336566 0.0035839303346 0.0035793209906 0.0035672642996 0.003546369665 0.0035229941458 0.003490892247 
0.0034513039759 0.0034091747933 0.0033593091446 0.0033069967642 0.0032535243484 0.0031961183604 0.0031442393025 0.0030909902168 0.0030436207879 
0.0030013002989 0.002962683596 0.0029305921628 0.0029048210233 0.0028784522741 0.0028578081478 0.0028364272024 0.0028103731872 0.0027838556793 
0.0027488172195 0.00270454638 0.0026538942835 0.0025925861345 0.0025234967393 0.0024451479258 0.0023609020824 0.0022692193354 0.002176765284 
0.0020832621841 0.0019898129193 0.001900445451 0.0018160706029 0.0017342692701 0.0016590928368 0.0015884317165 0.0015217069597 0.0014572781481 
0.0013960497952 0.0013362336016 0.0012752905349 0.0012167066475 0.0011578872174 0.0010984911872 0.0010421164375 0.00098729488877 0.00093394685289 
0.00088481161962 0.00084040208884 0.0008025222086 0.00077090997765 0.00074782215434 0.0007345014836 0.00073166844835 0.00074007056383 0.00076012489733 
0.00079154734171 0.00083372743608 0.00088594345263 0.00094649020258 0.0010149811119 0.0010887863953 0.0011678202847 0.0012489505877 0.0013307117032 
0.00141164479 0.0014885300802 0.0015617019796 0.0016273788664 0.0016843115054 0.0017326413807 0.0017716873727 0.0018004663273 0.0018223194363 
0.0018364104618 0.0018456251223 0.0018563423779 0.0018664240855 0.0018835836996 0.0019098674229 0.0019531412011 0.0020123252681 0.0020925980288 
0.0022031362635 0.0023401380473 0.0025096952741 0.0027097409143 0.0029433338458 0.0032111981482 0.0035033906362 0.0038175794361 0.0041524278952 
0.0044904724009 0.0048349535674 0.0051598030023 0.0054717313963 0.0057427470447 0.0059825593605 0.0061672038818 0.0063027099694 0.0063779848077 
0.0064003263756 0.0063702059754 0.0063058747517 0.0062046286837 0.0060790553671 0.0059395891715 0.0058022668095 0.0056586708244 0.0055253806568 
0.0054019648368 0.0052769193511 0.0051695280626 0.0050601738534 0.0049546939468 0.0048573835891 0.0047586463012 0.0046619620222 0.0045627422172 
0.0044607623946 0.0043468417529 0.0042275192062 0.0040934159393 0.0039469994488 0.0037806167414 0.0035929698237 0.0033925192876 0.0031732634459 
0.0029366416516 0.0026852007215 0.0024173742488 0.0021403067859 0.001855810894 0.0015663681225 0.0012798408979 0.0010096809533 0.00078373847489 
0.00065489939712 0.00068563496996 0.00085467316833 0.0010960937085 0.0013606029818 0.0016285153889 0.0018846131338 0.002119708604 0.0023255694483 
0.0024996136598 0.0026331536323 0.0027199165621 0.0027595522854 0.0027517313995 0.002695011786 0.0025935802611 0.0024517283084 0.0022771769827 
0.0020768773152 0.0018623416162 0.0016397930367 0.0014211256118 0.0012161443043 0.0010312203568 0.00087535087539 0.00075181953956 0.0006606768451 
0.00059875026296 0.00055848443277 0.00053066462028 0.00050767195778 0.0004837061932 0.00045658929859 0.00042494325018 0.00038911414767 0.00035070008829 
0.00031149702874 0.00027306216504 0.00023821052005 0.00020980885692 0.0001901162292 0.00018015392814 0.00018030680238 0.00018691949409 0.00019621980889 
0.00020689748209 0.00021554498898 0.00021954068118 0.00021925880851 0.00021458717747 0.00020318624405 0.00018640421295 0.00016355113773 0.0001355334085 
0.00010321513181 6.6186136326e-05 0 
TorsionArray 1 327 double
0 0 -0.0040152228587 -0.0014470205633 -0.0028898455624 -0.0033920503498 -0.0046680777339 -0.0061166508966 -0.0072576171714 
-0.0083520379819 -0.0089459819501 -0.0093246122117 -0.010146574023 -0.010165113082 -0.0093111000436 -0.0088212010727 -0.0067675124763 -0.0035866531845 
0.00050928757794 0.0061085137553 0.012885041506 0.021697852802 0.03275268625 0.044509391273 0.057205884386 0.071029391275 0.081008122499 
0.08790851042 0.09131312703 0.090389325355 0.084715855858 0.075116418157 0.064586719394 0.054472569045 0.045369801572 0.037970934099 
0.030993506487 0.023159350223 0.017987825832 0.013499527026 0.0086839997781 0.0049766389963 -5.3915751296e-05 -0.0043323106196 -0.0077089208819 
-0.011267150116 -0.016933393249 -0.021448681003 -0.027000995285 -0.033628285635 -0.04089201394 -0.05483427407 -0.073789706283 -0.11387062978 
-0.19712825893 -0.37269099239 -0.42668526148 -0.23040032466 -0.11617308242 -0.066824235794 -0.041791111787 -0.028029077745 -0.019916568182 
-0.014470789795 -0.010522886246 -0.0073298954535 -0.0055439666623 -0.0043433167607 -0.0033437466555 -0.0025346415976 -0.001788176039 -0.0016224900647 
-0.0013011906814 -0.00067088206501 -0.00090200999923 -0.00088398648666 -0.0007600922092 -0.00054984303145 -0.00023076283812 -0.00030984768467 -0.00015533608232 
0.00038782993557 0.00086208563673 0.0012817275851 0.0027693120197 0.0049922539111 0.0075611770381 0.012567016216 0.021077033026 0.034648370647 
0.06411291945 0.12216579371 0.22891631458 0.29753329198 0.20198452182 0.10610304397 0.05544606205 0.02856313969 0.013647295859 
0.0047770978259 -0.00048381499992 -0.0035095891467 -0.0057002189387 -0.0066834137259 -0.0071149622224 -0.0069093411454 -0.0064964585817 -0.0061584640117 
-0.0055462948843 -0.0052713166251 -0.0046084193133 -0.0040444226689 -0.0039694084667 -0.0037834774618 -0.0034372440719 -0.0033058273426 -0.0033803848925 
-0.0034293790323 -0.0033324378892 -0.0035727117774 -0.0036847053225 -0.0037324798521 -0.0039253318861 -0.0039703284207 -0.0041063564542 -0.0040370003241 
-0.0041484673456 -0.0039890840357 -0.0036954845517 -0.0035704399367 -0.0030601955326 -0.0022585281025 -0.0014839438498 -0.00046131997896 0.00092754100471 
0.0024229371816 0.0040908444689 0.0060328467517 0.0080629013832 0.010210339531 0.012351630194 0.014193833597 0.016069392355 0.017361201694 
0.018190846039 0.018656112837 0.018333739735 0.017412252683 0.015829123879 0.013646332138 0.011140037498 0.0079762095369 0.0044684890665 
0.0012620647175 -0.0025235483384 -0.0066388407308 -0.010565203319 -0.014593380955 -0.018600253481 -0.022304280273 -0.026062583031 -0.029737164148 
-0.032588811648 -0.03514576023 -0.03726381002 -0.038330012506 -0.038732606137 -0.038508656613 -0.037553797 -0.036191094238 -0.034485773581 
-0.032601690679 -0.030963870125 -0.029426703238 -0.028096734332 -0.027499880524 -0.027194513739 -0.027208901811 -0.028172525746 -0.029696566449 
-0.031497223303 -0.033712409456 -0.036401441832 -0.039419651178 -0.041839475829 -0.043743591734 -0.044808791513 -0.044616566218 -0.042886918202 
-0.040581461603 -0.038062394531 -0.034465423034 -0.031357863385 -0.028377852385 -0.025663944296 -0.023421828531 -0.021338771471 -0.019890570552 
-0.018508861564 -0.017662360834 -0.017068063423 -0.01626832686 -0.015974557112 -0.015762255183 -0.015220795091 -0.014828322059 -0.01423486394 
-0.013089397414 -0.011979326883 -0.0099353501232 -0.007291292636 -0.0043812466267 -0.00090951036331 0.0028391942312 0.0068860318446 0.0096947846976 
0.012103973815 0.01406432021 0.01449830185 0.013895198899 0.012147118437 0.0099936935479 0.0078992220758 0.0046348913263 0.0016941254813 
-0.001525710281 -0.0049501921167 -0.0082250912123 -0.011581084181 -0.015477641956 -0.019483613102 -0.023455348009 -0.027618845183 -0.031499547149 
-0.035756597211 -0.040109496734 -0.043389725821 -0.045711082136 -0.046792930428 -0.046495252802 -0.043759500752 -0.039074516137 -0.032984388434 
-0.024707447706 -0.015636915899 -0.0063549212152 0.0024818010185 0.010601940005 0.017287102411 0.022385863043 0.026121128386 0.028063437568 
0.028737729464 0.028485095738 0.027471565916 0.025874526333 0.024202823643 0.023195985595 0.021976631645 0.020896687951 0.020794274691 
0.021359392748 0.023315279885 0.026692806956 0.032012396066 0.041279085112 0.056963876887 0.084724892725 0.13560055381 0.22391583049 
0.31756049593 0.28426134953 0.17846924037 0.10519483943 0.065452430424 0.043522701446 0.030906754912 0.023131882527 0.018280443408 
0.01520557453 0.013300346822 0.012326906033 0.011967431929 0.012191906442 0.013024182589 0.014282459523 0.016195185594 0.018822193869 
0.022185918276 0.026781178372 0.032753411132 0.040069297238 0.049350364469 0.060144356444 0.070733442174 0.079569706519 0.083100017367 
0.078111216871 0.067155174046 0.052739758815 0.037794037881 0.025162427724 0.014096910869 0.0034649602716 -0.006279664172 -0.015511238756 
-0.026557197287 -0.039542320146 -0.053347193596 -0.067936335724 -0.078581301187 -0.081265601649 -0.07404373437 -0.060216536791 -0.047567142471 
-0.036971665081 -0.028172339034 -0.021717525215 -0.017121910314 -0.013518011088 -0.010742323706 -0.0085050592121 -0.0066884427529 -0.0053313405637 
-0.0040260722733 0 0 
TangentArray 3 327 double
0.27785814048 0.0078279551446 -0.96059022319 0.27785814048 0.0078279551446 -0.96059022319 0.27733085915 0.0076044003276 -0.96074438206 
0.27616564953 0.0071163374831 -0.96108370695 0.27438783558 0.0063761490231 -0.96159797234 0.27202327651 0.005400814612 -0.96227551576 
0.2691155602 0.0042162478814 -0.96309866499 0.26571440133 0.0028532856476 -0.9640475692 0.26187190574 0.0013474178841 -0.96510169902 
0.25765545789 -0.00026134562514 -0.96623682227 0.25313145606 -0.0019338075065 -0.9674299594 0.24836723835 -0.0036350465109 -0.96865912547 
0.24343734709 -0.0053310910923 -0.96990197314 0.2384019854 -0.0069928159265 -0.97114138717 0.23331985594 -0.0085989858826 -0.97236202223 
0.22825413813 -0.010135579946 -0.97354882694 0.22324625935 -0.011594678934 -0.97469311637 0.21834376808 -0.012978010953 -0.97578561691 
0.21358500385 -0.01429692758 -0.97681986261 0.20899829252 -0.01556974641 -0.97779205188 0.204610178 -0.016820843051 -0.97869900087 
0.20044025717 -0.018078633401 -0.97953910913 0.19650776135 -0.019376236338 -0.98031079826 0.19282806493 -0.020751578665 -0.98101310356 
0.18940568206 -0.022241075678 -0.98164699468 0.18624711332 -0.023879096887 -0.98221270686 0.18336303353 -0.025697117921 -0.98270934465 
0.18074925472 -0.027717050784 -0.9831385823 0.17839883237 -0.029957312915 -0.98350211795 0.17631158549 -0.032425697499 -0.98380018244 
0.17448499342 -0.035120876783 -0.98403328759 0.17290951619 -0.03803417926 -0.98420307885 0.17156993428 -0.041142908302 -0.98431245992 
0.17044742894 -0.044418805865 -0.98436509673 0.16952246665 -0.047827276926 -0.98436511767 0.16877523466 -0.051326053861 -0.98431730471 
0.16818663875 -0.054873463691 -0.98422667995 0.16773445391 -0.058425288535 -0.98409940485 0.1673881109 -0.061937255018 -0.9839435943 
0.16712646932 -0.065369162729 -0.98376603713 0.16692893123 -0.068685010054 -0.98357363797 0.16677420675 -0.071851910094 -0.98337361515 
0.16664555465 -0.074843495183 -0.98317226891 0.16652324788 -0.077641010375 -0.98297603298 0.16639337245 -0.080227862415 -0.98279028063 
0.16624840297 -0.08259365621 -0.98261882562 0.16608244542 -0.084733572379 -0.98246467775 0.16588731246 -0.086644571649 -0.98233096142 
0.16566291779 -0.088327715981 -0.98221892278 0.16540925861 -0.089786835421 -0.98212937099 0.16513054034 -0.091025883427 -0.98206221452 
0.16483329961 -0.092049562144 -0.98201673176 0.16452225415 -0.092862867197 -0.98199231962 0.16420706463 -0.0934696319 -0.981987509 
0.16389572507 -0.093871914429 -0.98200114816 0.16359914786 -0.094071815515 -0.98203147218 0.16332637524 -0.094068433639 -0.98207719908 
0.16308354299 -0.093858683127 -0.9821376205 0.16287865583 -0.093441099192 -0.98221143572 0.16271650585 -0.092811304421 -0.9822980202 
0.16260266893 -0.091965191372 -0.98239644525 0.16254004663 -0.090899813878 -0.98250595778 0.16252981537 -0.089612318636 -0.98262591634 
0.16257324052 -0.088101386836 -0.98275535466 0.16266980791 -0.086368568458 -0.98289318035 0.16281747267 -0.084417144737 -0.98303825778 
0.16301164606 -0.082251894722 -0.9831896201 0.16324935142 -0.079882799024 -0.98334550778 0.1635277174 -0.077322146978 -0.98350392537 
0.16384281728 -0.074585299703 -0.98366283059 0.16419005935 -0.071689945138 -0.98382019504 0.16456363408 -0.068657548438 -0.98397406032 
0.16496031198 -0.065512236294 -0.9841220668 0.1653753016 -0.062279360017 -0.98426230799 0.16580084513 -0.058986956634 -0.98439352837 
0.16623500012 -0.055663839199 -0.98451381998 0.16667380828 -0.052339627827 -0.98462196045 0.1671123962 -0.049044587215 -0.98471725663 
0.16754520619 -0.045808297235 -0.98479957544 0.16796616754 -0.042659475352 -0.9848692988 0.16837220773 -0.039625387969 -0.98492671214 
0.16875895881 -0.0367314595 -0.98497269693 0.16912010847 -0.034001000646 -0.98500879228 0.16945093154 -0.031454579123 -0.9850365431 
0.16974797285 -0.029109557692 -0.98505749039 0.17000402437 -0.026980087597 -0.98507395995 0.17021177108 -0.025077249832 -0.98508836382 
0.17036672093 -0.02340928823 -0.98510262695 0.17046146802 -0.021980213816 -0.98511915935 0.17048870671 -0.020790612224 -0.98514026987 
0.17044345249 -0.019839385458 -0.98516771582 0.1703155277 -0.019121400661 -0.98520403626 0.17009737244 -0.01862943305 -0.98525114976 
0.16978113279 -0.01835441233 -0.98531085577 0.16935534269 -0.018285008486 -0.98538542021 0.16881062025 -0.018409404648 -0.98547656913 
0.1681389266 -0.018714688223 -0.98558564408 0.1673310788 -0.019188011408 -0.98571402054 0.16637584143 -0.019816894496 -0.98586326135 
0.16526283233 -0.020589465771 -0.98603461914 0.16398315395 -0.021494046177 -0.98622894462 0.16252827872 -0.022520928291 -0.98644683912 
0.16089132724 -0.023662020601 -0.98668844607 0.15906510545 -0.024909763399 -0.98695379624 0.15704411808 -0.026258279212 -0.98724244629 
0.15482512967 -0.027702287067 -0.98755342261 0.15240727421 -0.02923759693 -0.98788520876 0.14979133582 -0.030860882016 -0.98823588362 
0.14697970521 -0.032567673859 -0.98860321306 0.14397768179 -0.034354093019 -0.98898444044 0.14078869827 -0.036216029244 -0.98937704727 
0.13742241999 -0.038148549891 -0.98977763494 0.13389074632 -0.040145935871 -0.99018259522 0.13020169654 -0.042201694056 -0.99058898401 
0.12636380772 -0.044310146351 -0.99099384409 0.12239155124 -0.046463902183 -0.99139367255 0.118296287 -0.048656192503 -0.99178554305 
0.11408651576 -0.050880328527 -0.99216705201 0.10977266867 -0.053129004478 -0.99253577774 0.10536518987 -0.055396262091 -0.99288943539 
0.10087092055 -0.057675470019 -0.99322635766 0.096297333411 -0.059960740863 -0.99354493262 0.091650912488 -0.062247436905 -0.99384373361 
0.086936853307 -0.064530352603 -0.99412163095 0.082162626871 -0.066804618919 -0.99437741609 0.077333170911 -0.069065894532 -0.99461021656 
0.072456211787 -0.071310492881 -0.99481903429 0.067535740347 -0.073535013694 -0.99500327916 0.062580207003 -0.075736566533 -0.99516214266 
0.057601006478 -0.077912421102 -0.99529481999 0.052604620954 -0.080060712147 -0.99540094245 0.047601073499 -0.082181646978 -0.99547994189 
0.042605477272 -0.0842760695 -0.9955311735 0.037629225746 -0.086346259148 -0.99555430033 0.032684251777 -0.088396470331 -0.99554899614 
0.027786900369 -0.090432193389 -0.9955148952 0.022949297031 -0.092461260579 -0.99545177937 0.018184028601 -0.094492317092 -0.99535950446 
0.013504404892 -0.096535345751 -0.99523794043 0.008919235776 -0.098602170145 -0.99508696066 0.0044389645899 -0.10070404385 -0.99490652382 
6.9426552743e-05 -0.10285326831 -0.99469653683 -0.004185808782 -0.10506027202 -0.99445704696 -0.0083229118108 -0.10733502977 -0.994188071 
-0.012343964324 -0.10968580395 -0.99388965733 -0.016250670509 -0.11211718663 -0.99356210282 -0.020046847136 -0.11463242183 -0.99320568453 
-0.023740763578 -0.11723189791 -0.99282075837 -0.027338645157 -0.11991043039 -0.99240822607 -0.030849632133 -0.1226596526 -0.9919692081 
-0.034285917842 -0.12546903937 -0.99150491476 -0.03765570363 -0.1283221766 -0.99101738985 -0.040971273973 -0.13120001334 -0.99050891526 
-0.044244908395 -0.13408052779 -0.98998222214 -0.047482691743 -0.13693913815 -0.9894407847 -0.050694647062 -0.13974970759 -0.98888830107 
-0.053890564257 -0.14248398222 -0.98832895429 -0.057077024579 -0.1451141337 -0.98776723041 -0.060259590918 -0.1476127286 -0.98720781199 
-0.063441897412 -0.14995358869 -0.98665548541 -0.066623967893 -0.15211332686 -0.98611499466 -0.069805601555 -0.15407096278 -0.98559084635 
-0.072986802922 -0.15580911938 -0.98508702403 -0.076161855557 -0.15731535843 -0.98460715504 -0.079324999471 -0.15858106701 -0.98415425094 
-0.082470937601 -0.15960163038 -0.98373058508 -0.085589428952 -0.16037764245 -0.98333791824 -0.088669963203 -0.16091385773 -0.98297729781 
-0.091703332796 -0.16121852628 -0.98264901442 -0.094678266 -0.16130339428 -0.98235291059 -0.097582679598 -0.16118239044 -0.98208851824 
-0.10040560917 -0.16087168136 -0.9818548853 -0.10313716106 -0.16038853588 -0.98165077475 -0.10576472097 -0.15975005751 -0.981475289 
-0.10827837002 -0.15897370727 -0.98132724154 -0.11067004921 -0.15807597102 -0.98120544617 -0.11292883421 -0.15707167406 -0.98110935558 
-0.11504769965 -0.1559741804 -0.98103826727 -0.11702170447 -0.15479496731 -0.98099155897 -0.11884278736 -0.15354331046 -0.98096933882 
-0.12050471171 -0.1522262979 -0.98097184908 -0.12200362439 -0.15084905764 -0.98099932591 -0.123336563 -0.1494146116 -0.98105217296 
-0.12449951487 -0.14792423649 -0.98113112837 -0.12548787553 -0.14637768242 -0.98123716154 -0.12629925668 -0.14477341244 -0.9813710597 
-0.12693086356 -0.14310890196 -0.98153369685 -0.12737953466 -0.14138109796 -0.98172594918 -0.12764271785 -0.13958667774 -0.98194852002 
-0.12771969872 -0.13772238438 -0.98220172236 -0.12760852155 -0.13578552847 -0.98248580422 -0.12730554483 -0.13377430303 -0.98280096363 
-0.12681145502 -0.13168820491 -0.98314651582 -0.12612587778 -0.12952847705 -0.98352154861 -0.1252494434 -0.12729834842 -0.98392464519 
-0.12418491512 -0.12500289883 -0.98435378911 -0.12293568231 -0.12264968243 -0.98480651573 -0.12150905114 -0.1202490259 -0.98527951479 
-0.11991256108 -0.11781352819 -0.98576921755 -0.11815762124 -0.11535767652 -0.98627145503 -0.11625636208 -0.11289758484 -0.98678193823 
-0.11422239766 -0.11045049634 -0.98729627353 -0.11207454221 -0.10803367183 -0.98780970978 -0.10983039629 -0.10566422138 -0.98831794296 
-0.10750754888 -0.10335722743 -0.98881717748 -0.10512613589 -0.10112474089 -0.9893039383 -0.10270383943 -0.098975611902 -0.98977560569 
-0.10025673996 -0.096914502841 -0.99023035968 -0.097800897957 -0.094941198093 -0.99066702442 -0.095345218956 -0.093050050765 -0.99108575677 
-0.092897504003 -0.091229598328 -0.99148737467 -0.090463019897 -0.089463950675 -0.99187330016 -0.088040416444 -0.08773295147 -0.99224584368 
-0.085623592106 -0.086011363186 -0.99260800212 -0.083203376415 -0.08427156401 -0.99296299108 -0.080770521438 -0.082484382007 -0.99331387265 
-0.078306521202 -0.080619738633 -0.99366420207 -0.075791809931 -0.078647265383 -0.9940172077 -0.073208411711 -0.076537238633 -0.99437547212 
-0.07053543266 -0.074263793185 -0.9947409923 -0.06775153274 -0.071804887276 -0.99511496219 -0.064832153342 -0.069141891549 -0.99549796119 
-0.061756821524 -0.066263174983 -0.99588919396 -0.05851117391 -0.063163709214 -0.99628649914 -0.055077461158 -0.059846077721 -0.99668697205 
-0.05144485233 -0.056321404172 -0.99708641882 -0.047605916501 -0.05260840711 -0.99747984051 -0.043558205819 -0.048736598049 -0.99786142661 
-0.039305676287 -0.04474172614 -0.99822504565 -0.034857302692 -0.04066670417 -0.99856456357 -0.030225421049 -0.036561393516 -0.99887421051 
-0.025425463145 -0.032478670839 -0.99914897876 -0.020480136399 -0.028473659024 -0.99938471809 -0.015413644008 -0.024600160563 -0.99957853702 
-0.010254560642 -0.020907244069 -0.9997288288 -0.0050293799846 -0.017439316525 -0.99983527422 0.00024013031353 -0.01423214971 -0.99989868899 
0.0055322347878 -0.011309004649 -0.99992074726 0.010823886482 -0.0086833565996 -0.99990371676 0.016097272613 -0.0063557056328 -0.99985023019 
0.021342734617 -0.0043142955625 -0.99976290916 0.026550881254 -0.0025350062715 -0.99964424894 0.031715045933 -0.0009844981599 -0.99949646654 
0.03683758882 0.00037750253842 -0.99932119438 0.041915673191 0.0015981502333 -0.99911987382 0.046952232899 0.0027278518481 -0.99889341106 
0.051951429469 0.0038167296413 -0.99864231913 0.056911557638 0.004910861046 -0.99836714592 0.061835526152 0.0060540488527 -0.99806799177 
0.066723075619 0.0072827343401 -0.99774495386 0.071570020753 0.0086252385734 -0.99739828423 0.076370510477 0.010103030833 -0.99702832151 
0.08111615551 0.01172749424 -0.9966356582 0.085793459256 0.013501047969 -0.99622146336 0.090387751109 0.015419115497 -0.99578727915 
0.094883006715 0.017470608423 -0.99533511587 0.099260382361 0.019637192731 -0.99486770837 0.10349765024 0.021896055172 -0.99438865599 
0.10756559184 0.024221947207 -0.99390288294 0.11143960244 0.026586888173 -0.99341549836 0.11509557599 0.028961543693 -0.99293214137 
0.11850436786 0.031316189579 -0.99245957654 0.1216376189 0.033621775409 -0.99200497271 0.12446444567 0.035850919321 -0.99157617627 
0.12695575358 0.037977696076 -0.99118107893 0.12908588295 0.039978960588 -0.99082718853 0.13082776516 0.041833624337 -0.99052210664 
0.13215568902 0.043522620447 -0.99027302062 0.1330465274 0.045030529478 -0.99008629571 0.13348077029 0.046345390596 -0.98996716548 
0.13344178202 0.047456496763 -0.98991978045 0.13291748095 0.04835612237 -0.98994678073 0.13190268493 0.04903988608 -0.99004887318 
0.13039579954 0.049505924462 -0.99022527685 0.12840307489 0.049754277383 -0.99047320117 0.1259391037 0.049787592749 -0.99078783691 
0.12302616965 0.049611288651 -0.99116259091 0.11969719063 0.049232404643 -0.99158900402 0.11599506592 0.048660939289 -0.99205708388 
0.11196936156 0.047908369008 -0.99255611945 0.1076781152 0.046987812459 -0.99307480533 0.10319152153 0.045915214593 -0.99360117902 
0.098585820761 0.044707510732 -0.99412377219 0.093938647502 0.043382499999 -0.99463233871 0.0893307128 0.041958890265 -0.9951178198 
0.084842541897 0.040455389161 -0.99557275202 0.080549741107 0.03889139258 -0.99599156562 0.076520682366 0.037285096747 -0.99637061716 
0.072814373134 0.035653721123 -0.99670802105 0.06947665308 0.034013446537 -0.99700355071 0.066541877507 0.032377867928 -0.99725816728 
0.064031201666 0.030759633124 -0.99747373408 0.06194882474 0.029169248137 -0.99765299482 0.06028742587 0.027614988545 -0.99779899714 
0.059026994623 0.026103493416 -0.99791503723 0.058135169976 0.024639754993 -0.99800460144 0.057574713046 0.023227435679 -0.99807095872 
0.057302700696 0.021869197126 -0.99811729707 0.057270473171 0.020567178551 -0.99814682491 0.05742981358 0.019322904396 -0.9981625328 
0.057731856413 0.018137264375 -0.99816735691 0.058128771386 0.017010987291 -0.99816415095 0.058578687121 0.015945155731 -0.99815544352 
0.059043906529 0.014940713694 -0.99814357293 0.059489466847 0.013998377741 -0.99813077738 0.059887049992 0.013119035603 -0.99811894689 
0.060215474827 0.012303639275 -0.99810957167 0.06045653315 0.011552764089 -0.99810397316 0.060597062788 0.010867019057 -0.99810315292 
0.060630746804 0.010246424984 -0.9981076712 0.060554584806 0.0096904409287 -0.99811784756 0.06037035656 0.0091984247331 -0.99813366291 
0.060082501005 0.0087689788556 -0.99815489684 0.059698479438 0.0083999474688 -0.99818111204 0.059231625646 0.0080884464929 -0.99821149641 
0.058694848083 0.0078309333425 -0.99824525608 0.058101939886 0.0076235122082 -0.99828154678 0.057471900066 0.007461625321 -0.99831923995 
0.056824311971 0.0073398991982 -0.99835721235 0.056176435974 0.0072526463641 -0.99839451479 0.055547984349 0.0071942081582 -0.99843010011 
0.054959308047 0.0071588009679 -0.99846293172 0.054429128043 0.0071406297052 -0.99849210384 0.05397535498 0.0071342452805 -0.99851678183 
0.053612860085 0.0071349325165 -0.99853630579 0.0533555793 0.0071384039524 -0.99855006151 0.0533555793 0.0071384039524 -0.99855006151 

NormalArray 3 327 double
0.88680788142 0.38231302015 0.25963153907 0.88680788142 0.38231302015 0.25963153907 0.88961815004 0.37562983927 0.259772537 
0.89152522407 0.37166913113 0.25893016783 0.89228901748 0.37112593617 0.25707168027 0.89474309633 0.36662607987 0.25499040988 
0.89679724263 0.36353764624 0.25218066019 0.90021541352 0.3571032108 0.2491776597 0.90382685975 0.35030204302 0.24573458497 
0.90818534346 0.34146027807 0.24208316841 0.91271717405 0.33201051724 0.23815200322 0.91744514538 0.32175319882 0.23402838346 
0.92213929313 0.31125447645 0.22973849252 0.92719097335 0.29914084796 0.22545875904 0.93167631872 0.28833132834 0.22100742577 
0.93583515504 0.27808819573 0.21651678454 0.9397150906 0.26827808029 0.21204343926 0.94233348188 0.2626928314 0.20736461911 
0.94408510272 0.26009264327 0.20262066957 0.94407788335 0.26396131765 0.19758889886 0.94228025774 0.27410632788 0.19228530077 
0.93761434273 0.29345790234 0.18644517656 0.92903148924 0.32335588153 0.1798373317 0.91422200889 0.36692706736 0.17193791232 
0.8923883495 0.42093847398 0.16264634885 0.8589342338 0.48932462049 0.15097482503 0.81265019842 0.56646284193 0.13681923741 
0.75398872838 0.64575635701 0.12041480328 0.68234441742 0.72391915524 0.101720955 0.60178220575 0.79447427781 0.081662713272 
0.51652327484 0.85409010577 0.06110480977 0.43351975938 0.90019370921 0.041375163138 0.35791171761 0.93346297971 0.023368096034 
0.29088748559 0.95673020115 0.0071967311541 0.23339180413 0.972357218 -0.0070502738061 0.18460156315 0.98261828547 -0.019584890779 
0.14282439212 0.98927029689 -0.030748539834 0.10957814379 0.99316143969 -0.040286289548 0.086407300472 0.99510577562 -0.04794031454 
0.065211127806 0.99634760071 -0.055126829803 0.053350023511 0.99673842085 -0.060549941309 0.043850530111 0.996894963 -0.065403086771 
0.041823835053 0.99675419629 -0.068788363787 0.045411296894 0.99644125335 -0.071011567625 0.054936781294 0.99589081257 -0.071996107587 
0.067560875695 0.99509846048 -0.072212062909 0.087572616053 0.9936323452 -0.070892873393 0.11657148691 0.99087140017 -0.067712308749 
0.14897404364 0.98679285944 -0.063612788583 0.19589531153 0.97899534855 -0.056507826395 0.24599225171 0.9680643449 -0.048365651443 
0.3168966501 0.94778985957 -0.035649617744 0.40540124227 0.91395147024 -0.018507912361 0.52969173104 0.84815396322 0.0078437714401 
0.71302245733 0.69919794595 0.052165196524 0.93653068699 0.3276856339 0.12462904021 0.91099053956 -0.36773495392 0.18672771752 
0.57710781455 -0.79832384771 0.17212090099 0.33003971753 -0.93299765743 0.14348921942 0.18594513946 -0.97484250666 0.1229084713 
0.090999154012 -0.9900057486 0.10773936933 0.03225560689 -0.99472575671 0.097366548502 -0.012195066889 -0.99597370575 0.088812486677 
-0.042489477406 -0.99570692457 0.082233598142 -0.066662618116 -0.99484734148 0.076386271606 -0.08276179006 -0.99399031872 0.071650069114 
-0.094737734291 -0.99321911972 0.067383543424 -0.10401914461 -0.99255490527 0.063362272601 -0.11137640681 -0.99199720988 0.059471266944 
-0.11677677641 -0.99159301433 0.055735791179 -0.12088414994 -0.99130051579 0.052060634755 -0.1232707701 -0.99118502648 0.048544417977 
-0.12662674592 -0.99094093246 0.044740759804 -0.1277530879 -0.99094834627 0.041237404953 -0.1284019883 -0.99100322274 0.037756349342 
-0.13050890378 -0.99086444299 0.033986492324 -0.13109183507 -0.99090147934 0.030482601915 -0.13269477233 -0.99079379709 0.026828138989 
-0.13233533426 -0.99092451703 0.023578822055 -0.13263350493 -0.99095718513 0.02030297028 -0.13261789115 -0.99101799686 0.017199559403 
-0.13228251301 -0.99110895743 0.014295847397 -0.12987710419 -0.9914583924 0.011924510302 -0.12770363653 -0.99176492563 0.0097012118171 
-0.12342551247 -0.99232114621 0.0080551634718 -0.11485881447 -0.99335437844 0.0073845495341 -0.10131002127 -0.99482416974 0.0078199036522 
-0.082199668344 -0.99657092592 0.0094659458151 -0.046872495399 -0.99880030214 0.014174823109 0.0069095029338 -0.999727576 0.022294226775 
0.10002812501 -0.99428413201 0.03732879644 0.27520689016 -0.95910372205 0.066190769496 0.56750230152 -0.81552590935 0.11339589474 
0.89758145471 -0.4098857831 0.16229965182 0.98371725517 0.064166621668 0.16787795135 0.92964152248 0.33520508025 0.15298429286 
0.87367868439 0.46586372029 0.14020182085 0.83835956604 0.52888902889 0.13202133598 0.81939340397 0.55897560935 0.12704612423 
0.81114593008 0.57154370344 0.12401643102 0.8097056846 0.57398849837 0.12212251253 0.81206914986 0.57092904699 0.12076307032 
0.81654160009 0.56476091782 0.11960318151 0.82279177958 0.55583520023 0.11857874026 0.8289939729 0.54681198442 0.11732709229 
0.83562504229 0.5369241863 0.11594484406 0.84134368597 0.52830624027 0.11416356064 0.84695947861 0.51969452915 0.11214828563 
0.85198487529 0.51192275393 0.10980376261 0.85646750513 0.50495875763 0.10714506868 0.86090349762 0.49796695677 0.10427884615 
0.86436168314 0.49261881877 0.10102267128 0.86783228582 0.48717801018 0.097594621177 0.87112502729 0.48198719313 0.093965592076 
0.8742699956 0.4769953265 0.090152278371 0.87703879659 0.47263708772 0.086122776214 0.87992569258 0.4679824305 0.081995245458 
0.88275599368 0.46335488149 0.077743870686 0.88564628156 0.45852163908 0.073406882902 0.88829809235 0.45406478591 0.068932353224 
0.89142476605 0.44855722716 0.064484885395 0.89417610348 0.44369175156 0.059889277548 0.89727000596 0.43800362059 0.055311524537 
0.90020393634 0.43251313545 0.050648402425 0.90325743896 0.42662935239 0.045971672205 0.90627381368 0.42067320802 0.041253202133 
0.90914024016 0.41488978853 0.036475842564 0.91218479092 0.40854949861 0.031720882609 0.91475964901 0.40310554757 0.026845894678 
0.91733532073 0.39750866965 0.021971956903 0.91965922339 0.39234726568 0.017045114818 0.92153529149 0.38810836759 0.012025038159 
0.92283077125 0.38514399299 0.0068900138055 0.92372782051 0.38304575492 0.001692117311 0.92376733532 0.38293656433 -0.0036739492384 
0.92298330022 0.38473034479 -0.0091863657497 0.9211962705 0.388813714 -0.014877063459 0.9183256621 0.39528151803 -0.020748489712 
0.91402526009 0.40476712438 -0.026858870649 0.90838608097 0.41681549995 -0.033159718213 0.90092449354 0.43215408659 -0.039722819395 
0.89190400959 0.4498327729 -0.0464512013 0.88109031227 0.46992886751 -0.053354672662 0.86838733967 0.49219333539 -0.060408185638 
0.8544327354 0.51516319615 -0.067465413334 0.83903832896 0.53894206397 -0.074539480911 0.82289321412 0.56231916281 -0.081510228149 
0.80660563106 0.58445734994 -0.088300407931 0.79072618558 0.6047762766 -0.094856495288 0.77626657501 0.62224772156 -0.1010840123 
0.76363240863 0.63672662744 -0.10698012156 0.75346731265 0.64778765797 -0.11250848391 0.74687931993 0.65448083828 -0.11758449638 
0.74376690368 0.6571657269 -0.12224565585 0.74386230168 0.65624760706 -0.12652254488 0.7488120393 0.64986285853 -0.13022593791 
0.75763166272 0.63890024972 -0.13341939346 0.77072561934 0.6224868424 -0.13598584753 0.78753078804 0.60065234994 -0.13788405418 
0.80794151267 0.57263840978 -0.13898116329 0.83065385214 0.53908800111 -0.13927779786 0.85594341505 0.49817538274 -0.13849966885 
0.88205129373 0.4508956107 -0.13666990702 0.9077553108 0.39760857153 -0.13374497954 0.93215367333 0.33806983934 -0.12960830618 
0.95386806203 0.27328358748 -0.12430527361 0.97153446418 0.20538449915 -0.11805927506 0.98465163017 0.13478044392 -0.11088462087 
0.99264240328 0.063553864386 -0.10306292025 0.99547270041 -0.0070393806435 -0.094786865424 0.99337190211 -0.076004501392 -0.086229808469 
0.98680362215 -0.14209955911 -0.07762941852 0.97626286459 -0.20529456022 -0.069028709702 0.96208468578 -0.26598313405 -0.060382363208 
0.94487767509 -0.32328651177 -0.051884587613 0.92446844993 -0.37879805518 -0.043244866425 0.90062569127 -0.43323957819 -0.034304986866 
0.87343031313 -0.48630122525 -0.025111878012 0.84199894531 -0.53926077409 -0.015349059533 0.80472777312 -0.59362637501 -0.0045758135829 
0.76115494725 -0.64853081416 0.007136481476 0.70960176307 -0.70431756215 0.020052667764 0.64934688573 -0.75972871762 0.034071947558 
0.57777904832 -0.81468999617 0.049513447326 0.49534740846 -0.86619423229 0.065867267204 0.40310410143 -0.9114210186 0.082576087662 
0.30242962919 -0.94800497253 0.099110501229 0.19715686943 -0.9736465876 0.11463634367 0.091618770539 -0.98747322348 0.12846257739 
-0.0084243030797 -0.99012571384 0.13992891732 -0.10306368393 -0.98340616786 0.14929898214 -0.18923771404 -0.96938592423 0.15646091361 
-0.26386410197 -0.95095852178 0.16141135509 -0.33128279304 -0.92902172164 0.16483431608 -0.38860701211 -0.90619663568 0.16671007057 
-0.43969877146 -0.8823832376 0.16752555739 -0.48384298681 -0.85899923365 0.16738064614 -0.52279641373 -0.83603761862 0.16650828822 
-0.5579038836 -0.81332366844 0.16506927946 -0.58876246455 -0.79167337414 0.16313193743 -0.61781795996 -0.76969403068 0.1608479639 
-0.64407150052 -0.7484194721 0.15824094287 -0.66802513435 -0.72773528211 0.1553826858 -0.69091780374 -0.70670093742 0.15233638281 
-0.71199916175 -0.68616079423 0.14913268631 -0.73128169853 -0.66630668934 0.14581657359 -0.7493079426 -0.64672505469 0.14242299955 
-0.76534897329 -0.62842809196 0.13899310171 -0.77912351484 -0.61203503851 0.13557160569 -0.7913363474 -0.5969232151 0.13217208691 
-0.7998647632 -0.58617953211 0.12887946591 -0.80606352378 -0.57833046354 0.12568003255 -0.80866252313 -0.57535077346 0.12262304504 
-0.80829864669 -0.57648110936 0.11967801936 -0.80420682531 -0.58275105456 0.11684430038 -0.79679257257 -0.59338915845 0.11406534501 
-0.78785321345 -0.60573471162 0.1112329681 -0.77631143033 -0.62097221917 0.10832389465 -0.76389475082 -0.63670080834 0.10524680673 
-0.7515056747 -0.65180179567 0.10194920331 -0.74010459141 -0.66525493171 0.098392426562 -0.73076254636 -0.67605261095 0.094546116054 
-0.72322726086 -0.68466738676 0.090404085385 -0.71764581275 -0.69108264222 0.08596085773 -0.71567397184 -0.69369810422 0.081201639347 
-0.71526058087 -0.69469726723 0.076144654157 -0.71840272738 -0.69201667276 0.07078450334 -0.72345825053 -0.68728735546 0.065147914561 
-0.731311111 -0.67946556945 0.059250306814 -0.7410224753 -0.66937519403 0.053127588994 -0.75374204411 -0.65550179636 0.046800917755 
-0.76818874308 -0.63895265695 0.040318199246 -0.78491985791 -0.61867949095 0.033712077053 -0.80315698799 -0.59515387233 0.027031849638 
-0.82264934608 -0.56818581986 0.020320617586 -0.84345143162 -0.53703301267 0.01360976832 -0.86482012102 -0.50203388498 0.0069380547849 
-0.88572839212 -0.46420371944 0.00034965230892 -0.90566102425 -0.42395828864 -0.0061219805585 -0.92371580374 -0.38287650373 -0.012437717553 
-0.939602318 -0.34176327047 -0.018583621164 -0.95230000411 -0.30417654708 -0.024522038614 -0.96226866167 -0.27041247451 -0.030267414877 
-0.96935008727 -0.24305762046 -0.035824592741 -0.97372567202 -0.22396466201 -0.04120856496 -0.97587222319 -0.2133437265 -0.046452754086 
-0.97595335646 -0.21178879494 -0.05158054245 -0.97422496289 -0.21836001014 -0.056609430736 -0.97051770536 -0.23304063953 -0.061542212428 
-0.9650861514 -0.25337972382 -0.066388522655 -0.95767353575 -0.27892954767 -0.071131612961 -0.94850643565 -0.30756200818 -0.075770394384 
-0.93779240299 -0.33778256141 -0.080301619536 -0.92575404293 -0.36851340635 -0.084719073062 -0.91274033218 -0.39872283231 -0.089023530658 
-0.89902424295 -0.42786322335 -0.093211977188 -0.88513961683 -0.45504029212 -0.097294353724 -0.8708491066 -0.48101359839 -0.10123117951 
-0.85590602872 -0.50636539551 -0.10497121621 -0.84113713395 -0.52981889971 -0.10853688494 -0.82555684192 -0.55312788104 -0.11182776032 
-0.80896623762 -0.57653938757 -0.11478658886 -0.79038960115 -0.60127052133 -0.11729466557 -0.76807077091 -0.62918094832 -0.119157984 
-0.74061501305 -0.6610924811 -0.1201920708 -0.70395889087 -0.70003706681 -0.11995826383 -0.65099568279 -0.74990797395 -0.11765479841 
-0.56812709504 -0.81533140144 -0.11165262964 -0.42505135108 -0.89984371874 -0.098044024799 -0.16441709197 -0.98402786043 -0.068236278929 
0.26640304636 -0.96380675643 -0.010293354244 0.69423287389 -0.71739596366 0.058169993485 0.90504010929 -0.41337892202 0.10010128573 
0.97292279625 -0.19862793881 0.11818703168 0.99018231946 -0.062064395063 0.12524769498 0.99149684899 0.026666123548 0.12736921254 
0.98796663743 0.088212966846 0.12704485748 0.98314417579 0.13315484482 0.12528893375 0.97817988183 0.16773020132 0.12259974854 
0.97335485091 0.19585247355 0.11925662588 0.96866335628 0.21992185205 0.11543691431 0.96398138843 0.24157185285 0.11127858138 
0.95903505356 0.2623419114 0.10690410459 0.95368145024 0.2828503049 0.10240799034 0.94746323035 0.30451674876 0.09789268027 
0.9400457648 0.32799868724 0.093438863741 0.93093967719 0.354132042 0.08911685733 0.9192741313 0.38433468881 0.084981871611 
0.90409625764 0.41957081727 0.081057302095 0.88394903616 0.461144308 0.077330645148 0.85601984256 0.51165804763 0.073729718753 
0.81754605394 0.5715797733 0.070107149682 0.76342471838 0.6424963942 0.066189748514 0.68702456783 0.72402282483 0.061548292686 
0.5822184134 0.81112523443 0.05565584574 0.44620409955 0.89364008843 0.048055113106 0.28072808805 0.95901434927 0.038512575574 
0.10539290582 0.99404114322 0.027830576558 -0.058207356453 0.99815585608 0.01722761265 -0.1957204875 0.98062931434 0.0077226054119 
-0.29738384773 0.95475799293 0.0001484485884 -0.36711893023 0.93015758809 -0.0055274209679 -0.41078985435 0.91168009892 -0.0095442541122 
-0.42996428309 0.90276719427 -0.011920915069 -0.424744075 0.90522550447 -0.012619699043 -0.39818313997 0.91722958808 -0.011835108455 
-0.34654997899 0.93798496176 -0.0093447084235 -0.2598545378 0.96563699195 -0.0045627792672 -0.13416782138 0.99095509851 0.0026435664856 
0.034506621429 0.99932809678 0.012355082484 0.24298848103 0.96972834103 0.024156628244 0.45670790206 0.88889548607 0.035814899791 
0.64659084506 0.76147224572 0.045610284801 0.78307081688 0.61975078094 0.052048681785 0.87025688589 0.4894497206 0.055605067821 
0.92472731014 0.37628893098 0.057324011483 0.95688442122 0.28464661789 0.057866288596 0.97536817359 0.21289153836 0.057741829253 
0.98609846206 0.15597945064 0.057273328003 0.99230658404 0.110092121 0.056633630963 0.99569999385 0.073848207221 0.055928208739 
0.99746719093 0.044825264577 0.05522588772 0.99826474382 0.02211521408 0.054574889383 0.99853119321 0.0043240113451 0.054007028376 
0.99851513205 -0.010050329953 0.053539909698 0.99840605068 -0.018806587039 0.053213440411 0.99840605068 -0.018806587039 0.053213440411 

BinormalArray 3 327 double
0.3692785334 -0.92399971739 0.099286892542 0.3692785334 -0.92399971739 0.099286892542 0.36285967218 -0.92673858069 0.097408733493 
0.35904778077 -0.92833798517 0.096297852639 0.35851307505 -0.92856065188 0.096143074604 0.35417245603 -0.93035270127 0.09489848591 
0.35118587795 -0.93156996679 0.094052517849 0.34497545736 -0.93406057384 0.09231889415 0.33840820406 -0.93663582204 0.090516431113 
0.32986822664 -0.9398961699 0.088216454563 0.32073638108 -0.94327370197 0.085807324979 0.31081846812 -0.94681659549 0.083247909195 
0.30066157403 -0.95031164907 0.08068697259 0.28893146645 -0.95418334381 0.077799447872 0.27846199376 -0.95749209007 0.075284895503 
0.26853791356 -0.96050206945 0.07296001347 0.25903022254 -0.9632717348 0.070787772655 0.25364070625 -0.96479223026 0.069586956905 
0.25116680703 -0.96547781682 0.069049404557 0.25502286936 -0.96440759318 0.069866517916 0.26503318836 -0.9615522764 0.071934892865 
0.28408281823 -0.95580103713 0.075771563386 0.31350469171 -0.94607903229 0.0815430741 0.35639227802 -0.93001822521 0.089725386304 
0.40959555818 -0.90681648401 0.099575815586 0.47701571754 -0.87177474414 0.11164587183 0.55315246808 -0.82368653434 0.12475111306 
0.63153044613 -0.76304029545 0.13761832414 0.70892873593 -0.6892340793 0.14958753726 0.77895596901 -0.60643152626 0.15958822732 
0.83830704018 -0.51893796859 0.16716665677 0.88439974979 -0.43382564137 0.17214062698 0.91785781036 -0.3563062259 0.17487971106 
0.94145214679 -0.28756615221 0.17599307772 0.95749172271 -0.22854757093 0.17599888851 0.96821339747 -0.17840106855 0.17531650149 
0.97535349877 -0.13540008372 0.17421931515 0.97972331981 -0.10107838731 0.17298952639 0.98209724506 -0.076995271113 0.17192070693 
0.98377652547 -0.054939340349 0.17077885354 0.98452450803 -0.042366139722 0.17004882621 0.9850195404 -0.032213906407 0.16940711101 
0.98512944629 -0.029656759767 0.16923489788 0.98499128018 -0.032813139595 0.16945641281 0.98452790497 -0.04201165956 0.17011709143 
0.98376673891 -0.0543814482 0.1710136296 0.98221568825 -0.074262940234 0.17244523034 0.97923055917 -0.10327916789 0.17447328012 
0.97486539173 -0.1357868445 0.17663352136 0.96657374477 -0.18304762143 0.17952371488 0.9551019405 -0.23359304931 0.18224865039 
0.93402703199 -0.30532156851 0.18539752778 0.89921202208 -0.39505594281 0.18801207779 0.83214344316 -0.52143866619 0.18878296378 
0.68171633885 -0.70873852447 0.18152833742 0.31007352539 -0.94009181406 0.14171023248 -0.37870929745 -0.92516059874 0.025634636045 
-0.80021892529 -0.59486938212 -0.076026902042 -0.92980875901 -0.34754011599 -0.12112613035 -0.96899315985 -0.20265277935 -0.1413651555 
-0.98248639992 -0.10691595442 -0.15260882236 -0.98617458346 -0.047517289275 -0.15875074221 -0.98662826812 -0.0024514882857 -0.16296825073 
-0.98578120583 0.028387778908 -0.16561868322 -0.98442604036 0.0530964926 -0.16758918084 -0.98317900542 0.069692122742 -0.16882550556 
-0.98206515311 0.082160854655 -0.16969864175 -0.98108596301 0.091942908664 -0.17034328496 -0.98023159592 0.099813932759 -0.1708309023 
-0.97955026196 0.10573706539 -0.17117522393 -0.97899369084 0.11038042926 -0.1714278686 -0.97863329576 0.11330659434 -0.17157647888 
-0.97813790576 0.11723572521 -0.17176152667 -0.97792134559 0.11892290087 -0.17183476219 -0.9777642912 0.12013805169 -0.17188321437 
-0.97741155649 0.12283807485 -0.17198097744 -0.97725880524 0.12399524829 -0.17201862105 -0.97696752476 0.12618351758 -0.17208188591 
-0.97694214936 0.1263732624 -0.17208670885 -0.97682942213 0.12721645489 -0.17210535632 -0.97676163654 0.12772297572 -0.17211492342 
-0.97674037009 0.12788211127 -0.1721174455 -0.97700067897 0.12591341507 -0.17209150237 -0.97722984145 0.12414886929 -0.17207235466 
-0.97772786019 0.1202138779 -0.17203736506 -0.978726767 0.11188902406 -0.17197314283 -0.98018581533 0.098468283446 -0.17187136056 
-0.98194622812 0.079362427072 -0.17170675655 -0.98424887965 0.043758732108 -0.17128723324 -0.98533540465 -0.010607743475 -0.17029860869 
-0.98027720759 -0.10490692838 -0.16748472368 -0.94617851837 -0.28240825483 -0.15808791533 -0.80561034108 -0.57842063881 -0.12814656821 
-0.40684382644 -0.91195217 -0.053116292452 0.060159203691 -0.99777166883 0.02885423856 0.32752040269 -0.94196531146 0.073700324474 
0.45652476145 -0.88465855253 0.094680450054 0.51880010419 -0.84847405107 0.10458602469 0.54855585761 -0.82894725938 0.10923786998 
0.56100844589 -0.82031327489 0.1111559926 0.56345916405 -0.81858121754 0.11152829567 0.56047145731 -0.82069045998 0.11108066637 
0.55441301946 -0.82491527716 0.1101861578 0.54562989259 -0.8309192102 0.10890953329 0.53675519361 -0.8368435675 0.10764156106 
0.52702938051 -0.84317554605 0.10627808157 0.51856805229 -0.84855033994 0.1051165816 0.51011978721 -0.85379459025 0.10398365428 
0.50251242625 -0.85841390985 0.10298942101 0.49571548271 -0.86245953492 0.10212595567 0.48890051158 -0.86643944347 0.10128662587 
0.48372922096 -0.86940864243 0.100671015 0.47847715905 -0.87237944166 0.10006856667 0.47348569678 -0.87516133523 0.099518502141 
0.46870477157 -0.87778816888 0.099013977177 0.46456781793 -0.8800314137 0.098597431196 0.46014863253 -0.88239731395 0.098174417798 
0.45576981312 -0.88471093922 0.097777458956 0.45119909704 -0.88709369031 0.097386649226 0.44701753421 -0.88924486186 0.097051016318 
0.44179966485 -0.89189122326 0.09665972279 0.43723668596 -0.89417131421 0.096341794158 0.43186415299 -0.89681552448 0.095996189583 
0.42670230436 -0.89931541811 0.095691808437 0.42115947301 -0.90195595157 0.095394757288 0.41555668122 -0.90457943502 0.095124604726 
0.41013914845 -0.90707291712 0.09489258101 0.40417549528 -0.90976915146 0.094669213949 0.39912216455 -0.91201419397 0.09450718363 
0.39392643144 -0.91428469975 0.094368715256 0.389178194 -0.9163263095 0.094267851551 0.38536585777 -0.91794230315 0.094207662934 
0.38284218803 -0.91900035298 0.094181793855 0.38119674053 -0.9196848771 0.094174156955 0.38155687635 -0.91953556306 0.094173766932 
0.38383553208 -0.91858836276 0.09415786806 0.38842085549 -0.91666504847 0.094097969823 0.39540778878 -0.91368688483 0.093962530086 
0.40543242959 -0.90930990429 0.093701883643 0.41803728918 -0.90362738507 0.093286514632 0.43395316859 -0.89615932791 0.09264505639 
0.45222475923 -0.88717060458 0.091766472743 0.47292953029 -0.87642980251 0.0906005555 0.49581665707 -0.86384310612 0.089111899232 
0.5194153706 -0.85004464926 0.087359985393 0.54382956727 -0.83484800302 0.085312447014 0.56784230388 -0.81893624111 0.08305751574 
0.59061301381 -0.80291113345 0.080684445224 0.611559235 -0.7873164192 0.078282553208 0.62964950943 -0.77315094428 0.076020475107 
0.64474027355 -0.76081319788 0.073981467908 0.65640616751 -0.75093579564 0.072293665492 0.66369619268 -0.74460821163 0.071175663005 
0.66697314869 -0.7417247599 0.07064842161 0.66664403554 -0.74201533048 0.070703459658 0.66084081484 -0.74709322332 0.071701695276 
0.65045374219 -0.75597935536 0.073519681399 0.63460557274 -0.76905917798 0.076313483765 0.61332213362 -0.78576538284 0.080054503587 
0.58583755236 -0.80597715407 0.084824462031 0.55278877053 -0.8283994585 0.090437339245 0.51233587443 -0.85327804757 0.097100593774 
0.46546583316 -0.87887238355 0.10452220624 0.41252838383 -0.90396863986 0.11252124549 0.35326629299 -0.92766417895 0.1210045343 
0.28867674774 -0.94860075922 0.12970094418 0.22089643404 -0.96545130344 0.13823366493 0.15032898867 -0.97772233396 0.14649311533 
0.079066794318 -0.98487029253 0.1542042442 0.0083742870622 -0.98687976072 0.16123960184 -0.060744421495 -0.98399367517 0.16753078068 
-0.12703277123 -0.97669238629 0.17301635066 -0.19045615041 -0.96546862254 0.17775486961 -0.25140978737 -0.95064866882 0.18182471583 
-0.30900157557 -0.93285218106 0.18521564346 -0.36484274049 -0.91187938938 0.18805784731 -0.41966706165 -0.88748631375 0.19038802553 
-0.4731633068 -0.85975762478 0.19218041452 -0.5266343103 -0.82779003112 0.19344241415 -0.58162668703 -0.78995707396 0.19410877936 
-0.6372768321 -0.74581159639 0.19401881855 -0.69395997974 -0.6936723531 0.19297205256 -0.75042435609 -0.63284085635 0.19072424157 
-0.80664195411 -0.56071260945 0.18689603387 -0.85958346775 -0.47778774162 0.18120467965 -0.90639703286 -0.3851654007 0.1734705535 
-0.94468242032 -0.28426469046 0.16361146198 -0.97206153251 -0.17895169066 0.15189690392 -0.98757953475 -0.073567603616 0.13883252585 
-0.99177452562 0.026146044156 0.12529834276 -0.98645524089 0.12031042877 0.11149645037 -0.97364387013 0.20590134957 0.098093059934 
-0.95618752898 0.2798858813 0.085844643881 -0.93506362029 0.34661363844 0.074263124465 -0.91285111988 0.40324036006 0.064031593403 
-0.88951846369 0.45362329888 0.05461506642 -0.8664772254 0.49706877993 0.046258468212 -0.84375319868 0.53533286096 0.038720378263 
-0.82119683046 0.56975835486 0.031799099157 -0.7996233719 0.59995489425 0.025623972751 -0.77767951409 0.62835120313 0.019731672369 
-0.75638954652 0.65396405226 0.014348249648 -0.7356505399 0.67729615747 0.009391390458 -0.71454172204 0.69957762783 0.004611952244 
-0.69390152083 0.72006989105 0.00017720583051 -0.6739254951 0.7387889973 -0.003904424717 -0.65420908625 0.75627411161 -0.0077420659471 
-0.63575902289 0.77180678435 -0.011169263445 -0.6191942611 0.78511099887 -0.014113343614 -0.60390071576 0.79688415929 -0.016720112655 
-0.59294722729 0.80502839486 -0.018516725632 -0.58487437768 0.81088228275 -0.019796107102 -0.58164749528 0.81318781146 -0.020292228201 
-0.58251343181 0.81257096672 -0.020162485099 -0.58849688213 0.80826945502 -0.019284911608 -0.59883029246 0.80067823335 -0.017794591193 
-0.61086447171 0.79157180147 -0.016083542112 -0.62577644945 0.77987698431 -0.013990162673 -0.64117496685 0.76730315506 -0.01185453992 
-0.65594509956 0.75474453173 -0.0098345403368 -0.66907019332 0.74315539021 -0.0080710854722 -0.67954609316 0.73360225331 -0.0066963581877 
-0.68784331366 0.72583728283 -0.0056404529312 -0.69394591286 0.7200105051 -0.0048931147697 -0.69625946263 0.71777530411 -0.0046231497511 
-0.69696178419 0.71709386159 -0.0045458819368 -0.69399654034 0.71996199908 -0.0048499352102 -0.68899262873 0.72474880824 -0.0053218898759 
-0.68091051008 0.73234194054 -0.006013267731 -0.67057487244 0.74181066909 -0.0068023280334 -0.6564749461 0.75430806669 -0.0077450416912 
-0.63971837619 0.76856010703 -0.0087040820986 -0.61925873484 0.78512733886 -0.0096789000334 -0.59556802485 0.80323514636 -0.010584300943 
-0.56845659234 0.82263464628 -0.011372834716 -0.53718189455 0.84338094213 -0.012008273404 -0.50208176686 0.86473083919 -0.012428802989 
-0.46417088424 0.88565626135 -0.01258479047 -0.42386430922 0.9056400879 -0.012453054021 -0.38274010992 0.92377767233 -0.012034133195 
-0.3416020663 0.93977617219 -0.011347884895 -0.30400617243 0.95261230411 -0.010490241865 -0.27024651457 0.96274405965 -0.0095234957767 
-0.24290615545 0.9700117786 -0.0085877245635 -0.22383340232 0.9745959553 -0.0078314696691 -0.21323435892 0.97697339431 -0.0073549294865 
-0.21169812233 0.97730800616 -0.0072777805387 -0.21828146116 0.97585592657 -0.0076429248826 -0.23296298266 0.97244815225 -0.0085346289594 
-0.25329183083 0.96733948402 -0.009877808417 -0.2788173794 0.96027283242 -0.011702830794 -0.3074135434 0.95147440317 -0.013905877803 
-0.3375878822 0.94115110747 -0.016401667776 -0.36826476121 0.9295243897 -0.019117390172 -0.39841578842 0.91694184869 -0.021966011527 
-0.42749576095 0.90367463168 -0.024890448583 -0.45461548061 0.89025429694 -0.027785816135 -0.4805310291 0.87643966189 -0.030715617081 
-0.50582063367 0.86197876047 -0.033735782813 -0.52921596432 0.84769397242 -0.036679588629 -0.55245715594 0.83259280336 -0.039753171514 
-0.57578671502 0.81646900177 -0.042988695611 -0.60040700201 0.79833785855 -0.046562812877 -0.62815276219 0.77643161055 -0.050774614715 
-0.65982697662 0.74934266263 -0.055802642247 -0.69841156547 0.71298652709 -0.062221358113 -0.74772235278 0.66021812947 -0.070875275466 
-0.81226010474 0.5773564647 -0.08302430321 -0.89533790855 0.43388193471 -0.10058079459 -0.97731770875 0.17187575356 -0.12372882245 
-0.95457985926 -0.26234408163 -0.14125464641 -0.70737094941 -0.69498540758 -0.12892487414 -0.40435638029 -0.90923756874 -0.098908853567 
-0.19083544744 -0.97882383776 -0.07406569135 -0.055241511499 -0.99683124086 -0.057235064949 0.032761877352 -0.99840378278 -0.04600593363 
0.093736251867 -0.99486541427 -0.038161794603 0.13820315544 -0.98987168746 -0.03246429104 0.17236375332 -0.98463124699 -0.028143276084 
0.20010796157 -0.97946240192 -0.02470236695 0.2238229785 -0.97438520333 -0.0218346016 0.24513545776 -0.96929605022 -0.019333245259 
0.26557974696 -0.96393877399 -0.017012877294 0.2857747749 -0.95818247934 -0.014802510426 0.30713751135 -0.95158236704 -0.012551807486 
0.33032666131 -0.9438115398 -0.010201674881 0.35617840563 -0.93438640637 -0.0076802961534 0.38610834839 -0.92244060434 -0.0048656722774 
0.42107959342 -0.90702212843 -0.0016836097935 0.46239279423 -0.8866730021 0.001972609824 0.51264237795 -0.85857889326 0.0063305897253 
0.57229228101 -0.81996976025 0.011451523051 0.64291915703 -0.76573333374 0.017533371476 0.72412890391 -0.68922301292 0.024677296809 
0.81088688053 -0.58428970699 0.032680350331 0.89304098649 -0.4481074367 0.040957558748 0.95805891938 -0.28240390246 0.048694382358 
0.99277829141 -0.10678924948 0.054656383876 0.99666042189 0.057112854501 0.058362019269 0.9789766633 0.19491734974 0.060099246982 
0.95301095475 0.29683027906 0.060513680824 0.92835593228 0.36676625748 0.060313973247 0.90984626887 0.41059121914 0.059955131469 
0.90091316583 0.42986994315 0.059726875088 0.90335678117 0.42470087294 0.059797110642 0.91534896531 0.39814290607 0.060153952986 
0.93609679449 0.34645754715 0.060745035785 0.96375340559 0.25963769644 0.061381102988 0.98910413592 0.13375313317 0.061506972597 
0.99756363487 -0.035190421434 0.060236439302 0.96813725284 -0.24399393426 0.056366831544 0.88756594811 -0.45801768943 0.049461944176 
0.7604672065 -0.64813819823 0.04008121552 0.6190607299 -0.78475372596 0.030420425527 0.48902409663 -0.87199400688 0.021951876367 
0.37607754078 -0.92646927467 0.014844743714 0.28459861035 -0.95860220372 0.0092437006146 0.21296456666 -0.97704734637 0.0049574493562 
0.15614358998 -0.98773302914 0.0016255616532 0.11032611342 -0.99389492604 -0.0010122657523 0.074134632104 -0.9972435438 -0.00306115396 
0.045151716224 -0.99896919233 -0.0046771035677 0.022471565709 -0.99972992789 -0.0059245270645 0.0047028972802 -0.99996520213 -0.0068903764052 
-0.0096536157002 -0.99992403892 -0.0076631650174 -0.018399459612 -0.99979765727 -0.0081304620445 -0.018399459612 -0.99979765727 -0.0081304620445 

