# vtk DataFile Version 4.1
vtk output
ASCII
DATASET POLYDATA
POINTS 240 float
-16.5656 -21.2579 -175.458 -16.5418 -21.3098 -174.381 -16.5179 -21.3616 -173.304 
-16.4943 -21.4133 -172.227 -16.4709 -21.4648 -171.152 -16.448 -21.5159 -170.078 
-16.4257 -21.5665 -169.005 -16.4041 -21.6165 -167.935 -16.3833 -21.6658 -166.866 
-16.3635 -21.7143 -165.8 -16.3449 -21.7619 -164.736 -16.3274 -21.8084 -163.675 
-16.3113 -21.8537 -162.615 -16.2966 -21.8977 -161.557 -16.2835 -21.9402 -160.5 
-16.272 -21.9811 -159.444 -16.2624 -22.0203 -158.388 -16.2545 -22.0577 -157.332 
-16.2487 -22.0931 -156.274 -16.2448 -22.1265 -155.214 -16.243 -22.1577 -154.15 
-16.2433 -22.1867 -153.082 -16.2458 -22.2134 -152.01 -16.2504 -22.2378 -150.93 
-16.2572 -22.2598 -149.844 -16.2661 -22.2794 -148.75 -16.277 -22.2967 -147.647 
-16.2901 -22.3117 -146.534 -16.305 -22.3244 -145.411 -16.3218 -22.335 -144.277 
-16.3403 -22.3435 -143.132 -16.3604 -22.35 -141.974 -16.382 -22.3547 -140.805 
-16.4047 -22.3577 -139.624 -16.4285 -22.3593 -138.43 -16.4532 -22.3595 -137.225 
-16.4785 -22.3585 -136.007 -16.5043 -22.3566 -134.778 -16.5303 -22.3538 -133.537 
-16.5564 -22.3504 -132.286 -16.5822 -22.3464 -131.024 -16.6076 -22.3421 -129.753 
-16.6325 -22.3374 -128.471 -16.6566 -22.3326 -127.181 -16.6797 -22.3275 -125.882 
-16.7017 -22.3224 -124.574 -16.7224 -22.3171 -123.259 -16.7417 -22.3117 -121.936 
-16.7593 -22.306 -120.605 -16.7753 -22.3 -119.268 -16.7893 -22.2936 -117.923 
-16.8014 -22.2866 -116.572 -16.8113 -22.2789 -115.215 -16.8189 -22.2704 -113.851 
-16.8241 -22.2607 -112.481 -16.8267 -22.2498 -111.105 -16.8267 -22.2375 -109.724 
-16.8238 -22.2236 -108.337 -16.8179 -22.2078 -106.945 -16.8089 -22.19 -105.548 
-16.7967 -22.1701 -104.148 -16.7811 -22.1478 -102.744 -16.762 -22.123 -101.337 
-16.7394 -22.0956 -99.9282 -16.7132 -22.0654 -98.518 -16.6832 -22.0323 -97.1075 
-16.6495 -21.9962 -95.6975 -16.612 -21.9568 -94.2891 -16.5708 -21.9142 -92.8831 
-16.5257 -21.8681 -91.4807 -16.4769 -21.8184 -90.0827 -16.4244 -21.765 -88.69 
-16.3683 -21.7076 -87.3034 -16.3086 -21.6463 -85.9236 -16.2454 -21.5806 -84.5511 
-16.1789 -21.5106 -83.1864 -16.1089 -21.4359 -81.8296 -16.0358 -21.3563 -80.4808 
-15.9594 -21.2716 -79.1397 -15.8799 -21.1816 -77.8061 -15.7974 -21.086 -76.4792 
-15.7117 -20.9845 -75.1582 -15.6231 -20.8769 -73.8424 -15.5313 -20.7628 -72.5303 
-15.4365 -20.642 -71.2209 -15.3384 -20.5141 -69.9127 -15.2372 -20.379 -68.6043 
-15.1326 -20.2363 -67.2941 -15.0245 -20.0858 -65.9807 -14.9128 -19.9271 -64.6626 
-14.7973 -19.7602 -63.3383 -14.678 -19.5846 -62.0064 -14.5545 -19.4004 -60.6658 
-14.4267 -19.2072 -59.3154 -14.2944 -19.0051 -57.9541 -14.1574 -18.7939 -56.5811 
-14.0154 -18.5735 -55.1958 -13.8683 -18.3441 -53.7976 -13.7158 -18.1056 -52.3861 
-13.5578 -17.8582 -50.9612 -13.3939 -17.6019 -49.5225 -13.2239 -17.3371 -48.0702 
-13.0476 -17.0638 -46.6042 -12.8648 -16.7823 -45.1246 -12.6753 -16.493 -43.6316 
-12.4788 -16.196 -42.1251 -12.2751 -15.8918 -40.6054 -12.064 -15.5806 -39.0726 
-11.8455 -15.2627 -37.5268 -11.6192 -14.9385 -35.968 -11.3851 -14.6084 -34.3963 
-11.1431 -14.2726 -32.8119 -10.893 -13.9315 -31.2147 -10.635 -13.5854 -29.605 
-10.369 -13.2348 -27.9829 -10.095 -12.8799 -26.3488 -9.81315 -12.5211 -24.703 
-9.52366 -12.1589 -23.0461 -9.22672 -11.7936 -21.3789 -8.92259 -11.4256 -19.7021 
-8.61159 -11.0555 -18.0168 -8.29408 -10.6836 -16.3242 -7.97047 -10.3105 -14.6258 
-7.6412 -9.93667 -12.9229 -7.30675 -9.56254 -11.2172 -6.9676 -9.18863 -9.51025 
-6.62427 -8.81536 -7.80382 -6.27728 -8.44319 -6.09951 -5.92715 -8.07247 -4.39888 
-5.57438 -7.70355 -2.70333 -5.21947 -7.33668 -1.01413 -4.86291 -6.97208 0.667699 
-4.50514 -6.60987 2.34137 -4.1466 -6.25011 4.00637 -3.78771 -5.89279 5.66245 
-3.42886 -5.53782 7.30964 -3.07042 -5.18507 8.94822 -2.71276 -4.83436 10.5787 
-2.35622 -4.48547 12.2019 -2.00117 -4.13818 13.8185 -1.64796 -3.79224 15.4297 
-1.29697 -3.44745 17.0365 -0.948582 -3.10362 18.6398 -0.603213 -2.76062 20.2408 
-0.2613 -2.41838 21.8403 0.076695 -2.0769 23.4391 0.410282 -1.73627 25.0378 
0.738949 -1.39666 26.6368 1.06216 -1.05832 28.2364 1.37938 -0.721601 29.8366 
1.69004 -0.386932 31.437 1.99361 -0.0548116 33.0373 2.28953 0.274194 34.6369 
2.5773 0.599466 36.235 2.85642 0.920349 37.8305 3.12646 1.23616 39.4225 
3.387 1.54621 41.0097 3.63772 1.8498 42.591 3.87833 2.14626 44.1648 
4.10862 2.43494 45.7301 4.32846 2.71523 47.2853 4.53777 2.98657 48.8292 
4.73657 3.24845 50.3605 4.92494 3.50041 51.8777 5.10303 3.74208 53.3798 
5.27106 3.97312 54.8656 5.42929 4.19328 56.3338 5.57808 4.40238 57.7836 
5.71779 4.60028 59.214 5.84886 4.78692 60.6241 5.97175 4.96231 62.0132 
6.08694 5.1265 63.3809 6.19494 5.27959 64.7266 6.29627 5.42176 66.0502 
6.39145 5.5532 67.3516 6.481 5.67417 68.6309 6.56544 5.78495 69.8884 
6.64525 5.88588 71.1246 6.72091 5.97731 72.3403 6.79285 6.05961 73.5364 
6.8615 6.13319 74.714 6.92722 6.19847 75.8744 6.99033 6.25589 77.0191 
7.05112 6.30588 78.1497 7.10983 6.34889 79.268 7.16663 6.38538 80.376 
7.22166 6.41577 81.4755 7.27501 6.44053 82.5687 7.32671 6.46006 83.6578 
7.37672 6.47479 84.7449 7.42499 6.48513 85.8324 7.4714 6.49146 86.9225 
7.51579 6.49415 88.0176 7.55795 6.49356 89.12 7.59764 6.49002 90.2321 
7.63458 6.48384 91.3561 7.66847 6.47535 92.4945 7.69897 6.4648 93.6496 
7.72571 6.45248 94.8238 7.74833 6.43864 96.0192 7.76642 6.42352 97.2383 
7.7796 6.40735 98.4831 7.78744 6.39033 99.7558 7.78955 6.37267 101.058 
7.78553 6.35457 102.393 7.775 6.33621 103.76 7.75757 6.31776 105.163 
7.73291 6.2994 106.602 7.70069 6.28129 108.079 7.66062 6.26357 109.593 
7.61244 6.24641 111.146 7.55591 6.22994 112.738 7.49088 6.2143 114.368 
7.41718 6.19963 116.036 7.33472 6.18605 117.741 7.24345 6.17368 119.482 
7.14334 6.16265 121.257 7.03442 6.15305 123.065 6.91675 6.145 124.903 
6.79043 6.13859 126.768 6.6556 6.13389 128.659 6.5124 6.13098 130.574 
6.36104 6.12993 132.508 6.20172 6.13078 134.459 6.0347 6.13356 136.426 
5.86022 6.13829 138.405 5.67858 6.14497 140.393 5.49008 6.15359 142.39 
5.29505 6.1641 144.392 5.09385 6.17646 146.397 4.88686 6.19058 148.405 
4.67447 6.20638 150.414 4.45714 6.22375 152.423 4.23531 6.24255 154.432 
4.00949 6.26264 156.439 3.78021 6.28386 158.444 3.54802 6.30603 160.448 
3.3135 6.32896 162.451 3.07728 6.35245 164.453 2.83997 6.3763 166.454 

LINES 1 241
240 239 238 237 236 235 234 233 232 231 230 229 228 227 226 225 224 223 222 221 220 219 218 217 216 215 214 213 212 211 210 209 208 207 206 205 204 203 202 201 200 199 198 197 196 195 194 193 192 191 190 189 188 187 186 185 184 183 182 181 180 179 178 177 176 175 174 173 172 171 170 169 168 167 166 165 164 163 162 161 160 159 158 157 156 155 154 153 152 151 150 149 148 147 146 145 144 143 142 141 140 139 138 137 136 135 134 133 132 131 130 129 128 127 126 125 124 123 122 121 120 119 118 117 116 115 114 113 112 111 110 109 108 107 106 105 104 103 102 101 100 99 98 97 96 95 94 93 92 91 90 89 88 87 86 85 84 83 82 81 80 79 78 77 76 75 74 73 72 71 70 69 68 67 66 65 64 63 62 61 60 59 58 57 56 55 54 53 52 51 50 49 48 47 46 45 44 43 42 41 40 39 38 37 36 35 34 33 32 31 30 29 28 27 26 25 24 23 22 21 20 19 18 17 16 15 14 13 12 11 10 9 8 7 6 5 4 3 2 1 0 

CELL_DATA 1
FIELD FieldData 2
LengthArray 1 1 double
346.67054791 
TortuosityArray 1 1 double
0.009008994731 
POINT_DATA 240
FIELD FieldData 8
RadiusArray 1 240 double
42.164025709 42.322991473 42.414866018 42.982175849 43.219391583 43.30576374 43.548156241 43.59364852 43.754839352 
43.9883948 44.091858824 44.383899397 44.452863446 44.736787428 44.859550348 44.909247057 45.067535937 45.198244944 
45.430031903 45.706193475 45.710950521 45.787568473 46.278104104 46.418199177 46.438527733 46.533011132 46.579877993 
46.844258966 47.085401858 47.310276447 47.310603124 47.492509706 47.707772496 47.902091283 48.238130777 48.291201333 
48.625376892 49.00351246 49.149942618 49.209841543 49.26373372 49.445048585 49.74354594 49.992612311 50.131727671 
50.209409063 50.776713407 50.835691653 51.010549422 51.026623099 51.27508885 51.405495559 51.516886918 51.841230382 
51.890209136 52.056773596 52.215233467 52.323844711 52.592480235 52.854270724 52.874114442 53.045986667 53.24970319 
53.391028884 53.575654651 53.741413278 53.75431204 53.755916678 53.931047378 54.417762341 54.749432984 54.860199936 
54.913709475 55.047146428 55.098833869 55.186718846 55.23690093 55.28400652 55.34773368 55.362860997 55.412564682 
55.467463572 55.54903903 55.609786611 55.632015841 55.61463721 55.605010006 55.596153406 55.629316369 55.637576091 
55.640168777 55.63082834 55.663319225 55.679538599 55.61797289 55.613790484 55.549358932 55.449686036 55.447820792 
55.403337231 55.253063883 55.253091614 55.213631214 55.130568704 55.073679041 55.001633122 54.966718135 54.957089099 
54.910291012 54.908820999 54.893554086 54.806585204 54.800932167 54.793775715 54.787257163 54.777661203 54.734894427 
54.716989063 54.728882334 54.725320622 54.718156534 54.714218309 54.703576191 54.63170123 54.594465801 54.595103153 
54.632939424 54.636456105 54.827314075 54.853926407 54.918974652 54.98885981 55.110404238 55.120092677 55.266550251 
55.296642172 55.400996867 55.495148382 55.60972008 55.649000904 56.03055741 56.036393855 56.250850168 56.60120193 
56.679291201 57.11412933 57.329299371 57.488844441 57.828916062 58.133305496 58.333155558 58.891965451 59.076735189 
59.253342948 59.570608921 59.79772424 59.994298823 60.220719315 60.339879215 60.653790821 60.898211825 61.035392745 
61.265969223 61.324134054 61.580872221 61.697755487 61.857455823 62.01935818 62.17509058 62.318366022 62.367505825 
62.472372096 62.525024643 62.655788131 62.768306735 62.77454303 62.78485525 62.786749984 62.822480595 62.903781502 
62.914982772 62.975824688 62.985378419 63.004025644 63.145222289 63.173343323 63.253808592 63.33000526 63.344955647 
63.397837063 63.418475146 63.456283334 63.536136134 63.578917755 63.685082301 63.697386712 63.707061596 63.739017686 
63.783450772 63.862239134 63.977600276 64.060724439 64.150011969 64.180012971 64.236099296 64.393075782 64.423356463 
64.454182325 64.457490282 64.522673885 64.546899846 64.576404925 64.688631644 64.716725826 64.721967616 64.837771239 
65.243641928 65.278470169 65.596986381 65.656620001 65.741152703 65.75642259 66.09688046 66.364304382 66.409256456 
66.631123855 66.814529426 66.977969907 67.451253836 67.531657085 67.736185935 67.793009321 68.344032933 68.391262151 
68.55689205 68.584353828 68.954633985 68.972819299 69.230311327 69.310156561 
EdgeArray 2 240 int
32914 32914 33877 33877 33876 33876 33685 33685 33684 
33684 32155 33333 33333 33333 33332 33334 33334 33334 
33326 33326 32947 32947 33678 33678 33677 33677 32647 
32647 32651 32651 32648 32648 32649 32649 32159 33086 
33092 33092 33094 33094 33096 32890 33323 32890 33323 
33323 33325 33324 33107 33109 31443 33107 32373 31443 
31645 31655 32634 31912 32631 32644 31650 32644 31845 
31588 31585 31441 31595 31378 31154 31156 30980 31158 
30982 30982 30586 30586 30736 30737 30595 30737 30595 
30595 30596 30596 30583 30582 30583 30583 30263 30263 
30260 30394 30258 30258 29095 29095 29753 30195 30198 
30195 30193 30193 29838 29838 29732 29732 29553 29553 
29318 29318 29551 29551 29397 29173 29173 29368 28594 
28594 29053 27994 28667 29053 28667 28976 28207 28207 
28683 28786 28310 28155 28387 28385 28389 28387 28389 
28388 28024 28024 27954 27954 27530 27530 27531 27531 
26323 26323 26712 26854 26669 26669 26708 26708 26480 
26478 26480 26388 26160 26389 26160 26364 26153 25921 
25905 25905 25904 25549 25907 25907 25657 25226 25547 
25658 25547 25656 24012 25233 25234 25235 22766 25232 
22295 25232 25020 23961 24744 24744 24771 24771 24769 
24769 24770 24742 23418 23418 23659 23659 20080 23811 
22837 22837 19604 19604 23875 23875 23748 23748 14893 
15380 20907 20086 21313 20245 14833 14833 23135 20061 
23263 15005 15005 22632 21053 23382 15972 21238 21014 
22308 14510 13682 13682 14663 14663 18596 22979 12823 
15483 12762 19887 21716 20034 17074 17930 18536 18536 
14126 14126 14126 20083 20083 21027 21027 19882 22263 
15844 21349 21871 21620 22477 2127 21630 20592 21630 
21844 22061 22061 22071 22071 21342 22046 21342 21342 
22658 22658 22453 22453 22457 22457 21643 21643 22246 
22246 22641 22641 22257 22252 22257 22257 18588 18588 
16937 16937 20785 20785 22031 22031 19287 22582 19287 
19287 22229 22229 22228 18365 18365 18365 21610 21610 
21134 22226 21134 21134 20314 20314 21609 21609 16841 
16841 12008 18366 18366 18366 6294 6294 20026 20026 
18063 18063 17182 17182 15935 15935 19667 19667 21324 
21324 15899 21325 21325 21325 21326 21326 20815 15940 
21265 21265 17681 21267 17681 12426 20656 18409 18409 
18409 7289 20660 7289 13151 13151 13151 20876 20876 
20878 15597 15597 15597 19890 19001 15596 19890 15596 
15596 20519 20519 20655 20655 19668 19668 20506 20506 
20505 19675 20505 20505 20503 20503 15007 15007 20498 
20498 11830 19721 11830 19670 19670 19670 19140 19140 
19671 19671 20272 20272 20271 20271 20265 20265 20262 
13461 19325 20262 19442 19975 19975 19975 11349 19980 
11349 11349 15114 15113 15113 15113 5479 5479 14639 
14639 14640 14641 14646 14646 13391 13391 9543 12793 
13700 13700 13701 10779 5451 13453 10776 12800 14303 
4811 14303 9987 10414 11489 14301 9271 9271 10396 
10780 4773 10401 10780 10401 10401 10014 9277 8725 
3137 14611 13065 14610 14611 14612 14612 14027 14613 
13049 13049 11353 11353 10349 12055 9984 10349 3586 
3586 11732 11732 
EdgePCoordArray 1 240 double
0 0 0 0 0 0.112 0 0.104 0 
0 0 0 0 0 0 0 0 0.06 
0 0 0.052 0.972 0 0.516 0.368 0.38 0.972 
0.888 0.628 0.992 0.984 0.312 0.42 0.532 0.34 0.24 
0 0 0.76 0.644 0 0 0.628 0 0 
0.104 0 0 0.568 0.48 0 0 0 0 
0 0 0.2 0.152 0 0.072 0.864 0.624 0 
0.448 0.072 0.228 0.164 0.048 0 0 0 0 
0 0.032 0 0 0.9 0.72 0.456 0.352 0.888 
0 0.836 0 0.308 0.52 0.196 0.068 0.412 0.86 
0.864 0.66 0 0 0 0.02 0 0 0.004 
0 0 0 0 0.792 0.552 0.684 0 0.888 
0.964 0.016 0.084 0.64 0.764 0.884 0.376 0.504 0.604 
0.228 0.316 0.588 0.952 0.204 0 0 0 0.572 
0.336 0.384 0.812 0.212 0.484 0 0 0.984 0 
0 0 0 0 0 0 0.988 0 0 
0 0 0 0.908 0 0 0.072 0 0 
0.864 0 0 0 0 0.112 0 0 0 
0 0 0 0 0 0.256 0 0 0.044 
0 0.88 0.268 0.928 0 0.208 0.008 0 0 
0.052 0 0.964 0.992 0 0 0 0 0 
0.428 0 0 0 0 0.596 0.164 0 0 
0 0 0 0 0.984 0.228 0.232 0 0.808 
0 0.024 0 0 0 0.88 0 0 0.696 
0 0.036 0.164 0.156 0.156 0.156 0.836 0.204 0.92 
0.352 0.48 0 0.104 0.06 0.264 0.772 0 0.988 
0 0 0.068 0.856 0 0 
CurvatureArray 1 240 double
0 4.23717576e-05 0.00017589312192 0.00030853540191 0.00043960375884 0.00058268953165 0.0007236503335 0.00087256416829 0.0010242525839 
0.0011888044483 0.0013510163397 0.0015218193772 0.0016940778567 0.0018690476907 0.0020364692609 0.0021999670663 0.0023554873204 0.0024910831343 
0.0026123958498 0.0027067247999 0.0027790531459 0.0028170600385 0.0028250330762 0.0028030003776 0.0027444078451 0.0026573541356 0.0025404542809 
0.0023955571516 0.0022314528131 0.002046436894 0.0018510746022 0.0016462786802 0.0014358517514 0.0012289929421 0.0010268988791 0.00083574125097 
0.00066701967761 0.00052608284294 0.0004325451762 0.00040325310746 0.00043379355912 0.00050246705107 0.00058498656511 0.00066844580959 0.0007499696816 
0.00082548010771 0.00089896414668 0.00096903511618 0.001037940384 0.0011061015336 0.0011799879479 0.0012568797326 0.0013364720556 0.0014215264329 
0.001509888374 0.0015995743227 0.0016928616599 0.001783229766 0.0018748266857 0.0019619625442 0.0020488306371 0.0021323847908 0.0022097952058 
0.002288292604 0.0023628702659 0.002437190566 0.0025109740601 0.0025854813058 0.0026623630741 0.0027429469659 0.0028293491938 0.0029211392618 
0.0030228079182 0.003129373676 0.0032466785434 0.0033690393926 0.0035017881141 0.0036350080902 0.003775167604 0.003914382423 0.0040467557691 
0.004176890981 0.0042936323377 0.0043939650637 0.0044775332316 0.0045439308212 0.0045818850335 0.0045997754077 0.004595655515 0.0045643922908 
0.0045149902452 0.0044454529146 0.0043599203735 0.0042604564377 0.0041502933577 0.0040310816366 0.0039078410838 0.0037813432782 0.0036557951773 
0.0035307804097 0.0034092030537 0.0032929485447 0.0031807636937 0.0030750114927 0.0029746815999 0.002879723147 0.0027884972269 0.0027015041395 
0.0026167995231 0.0025334435513 0.0024507818673 0.0023678754156 0.0022843193969 0.0022004820318 0.0021156895682 0.0020316364976 0.0019484360231 
0.0018665093966 0.0017873692748 0.0017121337325 0.0016407417323 0.0015734369198 0.001510574795 0.0014516891529 0.0013963075429 0.0013426336748 
0.001289867329 0.0012357907121 0.0011786777829 0.0011158183328 0.0010455056027 0.00096503806845 0.00087229546188 0.00076574019882 0.00064392189838 
0.00050574144799 0.0003521598957 0.0001865194974 7.0214076341e-05 0.00022532671979 0.00043168640994 0.00064995658992 0.00087468756058 0.0011027334339 
0.0013315162175 0.0015591945895 0.0017834735288 0.0020041139247 0.0022198560807 0.0024302442675 0.0026361645545 0.0028363439248 0.0030320969681 
0.0032226912353 0.0034080056022 0.0035880777385 0.0037619146589 0.0039293064585 0.0040894300132 0.0042407353028 0.0043841539927 0.0045165592244 
0.0046399272936 0.00475233126 0.0048538292132 0.0049454789804 0.0050263323751 0.0050989045742 0.0051631123486 0.0052200002494 0.0052711919796 
0.0053176194702 0.0053601199242 0.0053981864618 0.0054332784399 0.0054635943959 0.0054869260393 0.0055023994419 0.0055066373092 0.0054939061557 
0.0054616937322 0.005405609177 0.005322800549 0.0052089785402 0.005065301601 0.0048908787203 0.004689256239 0.0044672072289 0.0042339345023 
0.003998826703 0.0037769004734 0.0035817024072 0.0034240414221 0.0033149639011 0.0032559791069 0.0032439327121 0.0032704471868 0.0033209425175 
0.0033824476914 0.0034421545383 0.0034911811602 0.0035219118862 0.0035298180744 0.0035131502412 0.0034729675428 0.0034102201031 0.0033284092812 
0.0032306455796 0.00312113085 0.0030032522169 0.0028808426263 0.0027574539693 0.0026357846216 0.0025180128913 0.0024058926315 0.0023016757924 
0.0022047147847 0.0021167348643 0.0020367000203 0.0019654183823 0.0019012071836 0.001843560835 0.0017910091975 0.0017424387019 0.0016959159358 
0.0016493908311 0.001601376565 0.0015499163176 0.0014917683119 0.0014263426751 0.0013511789738 0.0012651306937 0.0011654057503 0.0010533940391 
0.00092726959224 0.00078831053052 0.00063608916315 0.00047252709196 0.00030064611512 0 
TorsionArray 1 240 double
0 0 -0.0079903600224 -0.0027097837025 -0.0055628139698 -0.0093077380059 -0.011824920339 -0.011507301219 -0.013845429016 
-0.01435116066 -0.015411599387 -0.01568025026 -0.015628734545 -0.015047164236 -0.01440093006 -0.014986715055 -0.013757119009 -0.012946662298 
-0.012092662439 -0.011581878604 -0.011503755775 -0.010532679367 -0.010588144997 -0.010627393162 -0.010196903976 -0.010861690101 -0.011793577693 
-0.012550256282 -0.014112164845 -0.016830893366 -0.019996734346 -0.025386637381 -0.033512104154 -0.043901068298 -0.061916862485 -0.09057211101 
-0.13598236552 -0.20830750842 -0.2844925918 -0.2952274609 -0.22352412595 -0.1392958773 -0.077380356725 -0.039338553857 -0.014606594412 
0.0045192872484 0.017329770064 0.02623208253 0.031529712248 0.035419560823 0.037561337092 0.036520033496 0.035022039621 0.032317319978 
0.028828702531 0.025597211746 0.022439935276 0.019307716121 0.016369478157 0.014252303326 0.012981167436 0.01183974569 0.011253274413 
0.011095513277 0.011191292149 0.012356537541 0.013191648285 0.014549952608 0.016042272384 0.017269135231 0.019052530969 0.020150398479 
0.020934285796 0.02191102872 0.022276485345 0.022105358083 0.021619688791 0.020983984332 0.019894427801 0.018436130547 0.016941152706 
0.015192404524 0.013196997156 0.011302612615 0.0093572084109 0.0070440310003 0.0049493406951 0.0028917728923 0.00062710532576 -0.0016673591548 
-0.0039108325785 -0.0061847332379 -0.0086283653805 -0.011049944624 -0.01349864586 -0.015916550062 -0.018443227308 -0.020854703095 -0.023151056848 
-0.025417044529 -0.027455979489 -0.029291440146 -0.030840535274 -0.031955633768 -0.032776411794 -0.033379345881 -0.033354595003 -0.033051495629 
-0.032588840099 -0.031800544959 -0.030855154049 -0.029835231663 -0.028766212378 -0.027730243119 -0.026605525027 -0.025578407448 -0.024699322516 
-0.023694867909 -0.022775696848 -0.021680786551 -0.020518735131 -0.019300229886 -0.017978296224 -0.016423903999 -0.014605769265 -0.012900853037 
-0.011055805476 -0.0092046972804 -0.0073468804749 -0.0055585000924 -0.0041955344406 -0.003225364064 -0.0027673115411 -0.0034789001502 -0.0066979071517 
-0.015490557236 -0.044027796525 -0.19954712947 -1.583058829 -0.15068209865 -0.031612933105 -0.0049064325747 0.0054916002608 0.010907453252 
0.014186025008 0.016328455282 0.017879042159 0.018971941012 0.019676254524 0.02017088227 0.020422711746 0.020500267567 0.020461831515 
0.020290134887 0.020044378481 0.019779443045 0.019502588931 0.019252948684 0.019058479269 0.018946304612 0.018912963058 0.018997575152 
0.019240977361 0.019599854879 0.020100767973 0.020722537742 0.021528031671 0.022447209873 0.023399668327 0.024509634753 0.02556188931 
0.026549300048 0.027460336412 0.028132169272 0.028522394083 0.028461863802 0.027961258738 0.026842221213 0.025072703302 0.022633465866 
0.019315107929 0.015107784112 0.0099693698801 0.003739019059 -0.0036135733495 -0.012305416532 -0.022597071842 -0.034206592922 -0.047361326531 
-0.061695189263 -0.076195081429 -0.089693231314 -0.10037477953 -0.10609043318 -0.10586783578 -0.10020274467 -0.090591939738 -0.079055898912 
-0.067165217443 -0.056224428602 -0.046692083399 -0.038599423866 -0.031990097064 -0.026660049895 -0.022283992874 -0.018851834338 -0.016115717728 
-0.013850695381 -0.01211515304 -0.010739670885 -0.0096130556715 -0.0086872696495 -0.0079351963854 -0.0073611806562 -0.0068341393741 -0.0063409398879 
-0.0059145173176 -0.0054994053307 -0.0050608618749 -0.004605060397 -0.0041730272829 -0.0037099495685 -0.0032179777149 -0.0027282867696 -0.0022798501117 
-0.0018285281635 -0.0013834312257 -0.0010343919588 -0.00072734626089 -0.0004204867445 -0.00011963323054 7.8878882351e-06 0.00013592079925 0.00025786581827 
0.00033356298975 0.00042813237746 0.00025698099145 0.00023134368259 0 0 
TangentArray 3 240 double
-0.022124026344 0.048072875369 -0.99859878135 -0.022124026344 0.048072875369 -0.99859878135 -0.02202699148 0.048006547704 -0.99860411727 
-0.021812750519 0.047857944656 -0.99861595273 -0.021482995651 0.047627462889 -0.99863412002 -0.021034612364 0.04731057524 -0.99865872777 
-0.020466500805 0.046900694062 -0.99868986539 -0.019779832109 0.046392211357 -0.99872745079 -0.018972972376 0.045779134392 -0.99877139385 
-0.01804398972 0.045051837126 -0.99882167898 -0.016993002554 0.044202601959 -0.99887805454 -0.015822317438 0.043224853924 -0.99894007141 
-0.01453265392 0.042110593984 -0.99900725715 -0.013126471971 0.040854533276 -0.99907887719 -0.011609132383 0.039454813554 -0.99915391494 
-0.0099875825551 0.037912563761 -0.99923114728 -0.0082705522521 0.036226751295 -0.99930937174 -0.0064691078913 0.03440544909 -0.99938701999 
-0.0045961091665 0.032458952283 -0.99946250165 -0.0026660901126 0.030400608671 -0.99953423901 -0.00069599115086 0.028246684561 -0.9996007405 
0.0012942096139 0.026016018171 -0.99966068834 0.003284658645 0.023733364393 -0.99971292801 0.0052549897733 0.021420666374 -0.99975674048 
0.0071830248894 0.019103715166 -0.99979170442 0.0090485721746 0.016810070444 -0.99981775583 0.010831141481 0.014563732709 -0.99983527847 
0.012510088758 0.012389824047 -0.99984498295 0.01406917909 0.010311089456 -0.99984785824 0.015493115273 0.0083476593874 -0.99984512799 
0.016768154532 0.0065161179365 -0.99983817151 0.017885109912 0.0048296928183 -0.99982838373 0.018834228774 0.0032993973304 -0.99981717619 
0.019609609647 0.0019310912784 -0.9998058482 0.020210164381 0.00072806507151 -0.99979548868 0.020634123882 -0.00030927576986 -0.99978704597 
0.020883982437 -0.0011862444959 -0.99978120211 0.020963718455 -0.0019103554259 -0.99977841197 0.020877452152 -0.0024910596318 -0.99977893887 
0.020632531976 -0.0029426265678 -0.9997827962 0.02023698141 -0.0032816319763 -0.99978982565 0.019698099909 -0.0035261339124 -0.99979975557 
0.019023703912 -0.0036955932451 -0.99981220301 0.018223667349 -0.0038123378942 -0.99982666699 0.017306201215 -0.0038980105717 -0.99984263808 
0.016278870686 -0.0039735597079 -0.99985959474 0.015148096455 -0.0040629598786 -0.9998770062 0.013918727501 -0.0041881964963 -0.99989435844 
0.012596184138 -0.004369346053 -0.99991111853 0.011185270319 -0.0046233114411 -0.99992675468 0.0096878068618 -0.0049666727312 -0.99994073752 
0.0081042934549 -0.005415067918 -0.99995249761 0.0064366956694 -0.0059776325527 -0.99996141768 0.0046855610744 -0.0066627618018 -0.99996682601 
0.0028499981046 -0.0074761222519 -0.99996799204 0.00093032980305 -0.0084193117939 -0.99996412419 -0.0010740478124 -0.0094935079249 -0.99995435882 
-0.0031620229944 -0.010697480007 -0.99993778083 -0.0053322953466 -0.012027759578 -0.99991344607 -0.0075834674788 -0.013479371389 -0.99988039163 
-0.0099127262682 -0.015047923742 -0.99983763574 -0.012316673301 -0.016731137259 -0.99978416101 -0.014788590927 -0.018524000193 -0.99971904003 
-0.017323189722 -0.020424225324 -0.99964131473 -0.019915218818 -0.022431572446 -0.99955000306 -0.02255783849 -0.024545572281 -0.99944417493 
-0.025242495502 -0.026770909162 -0.99932283815 -0.027961524184 -0.029111351465 -0.99918500909 -0.030706471193 -0.031573601964 -0.99902963934 
-0.033469027188 -0.034166341107 -0.99885558784 -0.036242653853 -0.036898583162 -0.99866158663 -0.039018358977 -0.039782363442 -0.99844625855 
-0.04179055705 -0.042829109619 -0.99820800273 -0.044553616486 -0.046048834251 -0.99794512881 -0.047300416308 -0.049452742017 -0.99765580083 
-0.050025707861 -0.053050176743 -0.99733801056 -0.05272619421 -0.05684833832 -0.99698957611 -0.05539826207 -0.060851343541 -0.99660832153 
-0.058038247112 -0.065061088127 -0.99619205813 -0.060645182741 -0.069477857918 -0.99573841398 -0.063216938697 -0.074093395148 -0.99524559153 
-0.065753098779 -0.078899257454 -0.99471173572 -0.068254692286 -0.083883389732 -0.99413523924 -0.070722445861 -0.08902536526 -0.99351538488 
-0.073157839993 -0.094303934462 -0.99285180082 -0.075564485836 -0.099697968081 -0.99214430586 -0.07794729128 -0.10517874625 -0.99139379215 
-0.08031042774 -0.11071670639 -0.99060186055 -0.08266042225 -0.11628630181 -0.98977004936 -0.0850040262 -0.12185668744 -0.98890103815 
-0.087349243776 -0.12739863632 -0.9879978224 -0.089704987481 -0.13288644104 -0.98706342704 -0.092080066371 -0.13829448171 -0.9861013628 
-0.094484844416 -0.14359911461 -0.98511517522 -0.09692928783 -0.14877863435 -0.98410854641 -0.099422987304 -0.15381284188 -0.98308528586 
-0.10197511648 -0.15868441011 -0.98204904847 -0.10459523419 -0.16337779643 -0.98100332957 -0.10729139758 -0.16787981041 -0.97995149128 
-0.11007016359 -0.17217878832 -0.9788968403 -0.11293663827 -0.17626386387 -0.97784271027 -0.1158946057 -0.18012706628 -0.97679203537 
-0.11894536001 -0.18376106279 -0.97574785326 -0.12208774127 -0.18715998922 -0.9747131485 -0.12531805806 -0.19032058591 -0.97369063819 
-0.12863009457 -0.19324033796 -0.97268312957 -0.132015371 -0.19591726955 -0.97169355525 -0.13546195265 -0.19835269314 -0.97072461002 
-0.13895633996 -0.20054938162 -0.96977888259 -0.14248313265 -0.20251078152 -0.96885909206 -0.14602541301 -0.20424265364 -0.96796772528 
-0.14956552274 -0.20575227813 -0.96710710599 -0.15308555445 -0.20704817072 -0.96627939439 -0.15656842268 -0.20814031326 -0.96548637433 
-0.15999788107 -0.20903942915 -0.96472959689 -0.163359384 -0.20975796074 -0.96401001528 -0.16664106414 -0.21030861144 -0.96332810802 
-0.16983276314 -0.21070384154 -0.96268412458 -0.17292684356 -0.21095719529 -0.96207763124 -0.17591907689 -0.21108183688 -0.96150763727 
-0.17880720728 -0.21109148018 -0.96097261648 -0.18159026889 -0.21099951204 -0.96047081172 -0.18426897349 -0.21081886504 -0.9600001831 
-0.18684501287 -0.21056203125 -0.95955852982 -0.18932041199 -0.21024171077 -0.95914347449 -0.19169632059 -0.20987091453 -0.95875268965 
-0.19397256585 -0.20946157468 -0.95838431354 -0.19614731657 -0.20902577535 -0.95803677145 -0.19821616465 -0.20857544473 -0.95770905599 
-0.20017168436 -0.20812255079 -0.95740080459 -0.20200335249 -0.20767881938 -0.95711240383 -0.20369731957 -0.20725465427 -0.95684529067 
-0.2052361073 -0.20685961201 -0.95660192409 -0.20659956451 -0.20650213809 -0.95638563713 -0.20776519757 -0.20618860981 -0.95620075291 
-0.20870827021 -0.20592277204 -0.95605265017 -0.20940347489 -0.20570595695 -0.95594730188 -0.20982578106 -0.20553572574 -0.9558913155 
-0.2099509917 -0.20540597793 -0.95589171213 -0.20975779429 -0.20530708699 -0.95595536913 -0.20922822801 -0.20522530574 -0.95608897206 
-0.20834811809 -0.20514324977 -0.95629875497 -0.20710814973 -0.20504024871 -0.95659014772 -0.20550402283 -0.20489310738 -0.95696756014 
-0.20353626899 -0.20467642849 -0.9574343564 -0.20120980534 -0.2043635608 -0.95799277098 -0.19853403322 -0.20392761273 -0.95864371193 
-0.19552184566 -0.20334176983 -0.95938695661 -0.19218890605 -0.2025801264 -0.96022118118 -0.18855374347 -0.20161883648 -0.96114376167 
-0.18463615249 -0.20043573734 -0.96215123883 -0.18045758403 -0.19901135257 -0.96323908866 -0.17604060493 -0.19732912163 -0.96440184735 
-0.17140835817 -0.19537517248 -0.96563332416 -0.16658519289 -0.19313926823 -0.96692636564 -0.16159587966 -0.19061440523 -0.96827316404 
-0.1564661141 -0.18779678275 -0.96966526365 -0.15122235627 -0.18468594682 -0.97109366181 -0.14589157263 -0.18128440794 -0.97254902831 
-0.14050200899 -0.17759793288 -0.97402164232 -0.13508187608 -0.17363453274 -0.97550188918 -0.12966019636 -0.16940503997 -0.97698012565 
-0.12426608023 -0.16492229455 -0.97844702364 -0.11892825216 -0.16020000792 -0.97989388625 -0.11367569403 -0.15525402436 -0.98131239904 
-0.1085359861 -0.15010052947 -0.98269515658 -0.10353569792 -0.14475656483 -0.98403551572 -0.098699990952 -0.13923878356 -0.98532779974 
-0.094051769444 -0.13356328081 -0.98656733915 -0.089611615462 -0.12774687768 -0.98775021823 -0.085398148879 -0.12180520255 -0.98887342405 
-0.081426362668 -0.11575374079 -0.9899347549 -0.077708001472 -0.10960808726 -0.99093265852 -0.074252085288 -0.10338424704 -0.99186608234 
-0.071063376886 -0.097098658184 -0.99273453 -0.068142679151 -0.09076838381 -0.9935379589 -0.065486490263 -0.084413081985 -0.99427659692 
-0.063086889427 -0.078053685271 -0.99495108754 -0.060930642352 -0.071712598961 -0.99556253444 -0.05900013434 -0.065415854668 -0.99611231802 
-0.057273280505 -0.059191827777 -0.99660227717 -0.055722359582 -0.053070416555 -0.99703487879 -0.054314979649 -0.047082806697 -0.99741320038 
-0.05301506522 -0.041261558644 -0.99774089153 -0.051782910494 -0.035638948607 -0.998022242 -0.05057671256 -0.030246013981 -0.9982620772 
-0.049353316211 -0.025112762689 -0.99846562251 -0.048068481993 -0.020265924604 -0.99863842973 -0.046680114401 -0.015727601378 -0.99878606792 
-0.045148212303 -0.011516326047 -0.99891391679 -0.043436343847 -0.0076458063035 -0.99902693942 -0.041513099251 -0.0041236214445 -0.99912945024 
-0.039352878838 -0.00095337448139 -0.99922492063 -0.036936130465 0.0018660653853 -0.99931588603 -0.034250495582 0.0043407716538 -0.99940385293 
-0.03129144336 0.0064805275407 -0.99948929376 -0.028060637927 0.008298799884 -0.99957177357 -0.024566773602 0.0098113609629 -0.99965004418 
-0.020825333283 0.011035909773 -0.99972221851 -0.016857480228 0.011992372379 -0.99978598128 -0.012688585939 0.012701550654 -0.99983882221 
-0.0083473937797 0.013184700521 -0.99987823493 -0.0038657718698 0.013463550305 -0.9999018895 0.00072289689823 0.013559289244 -0.9999078073 
0.0053855097583 0.01349235878 -0.9998944707 0.010089839557 0.013282815868 -0.99986087129 0.01480537894 0.01294898187 -0.9998065436 
0.019504351735 0.012507795469 -0.99973153162 0.024162365673 0.011975200559 -0.9996363212 0.028758485065 0.011364925462 -0.99952177966 
0.033275538528 0.010689057363 -0.99938905467 0.037700617248 0.0099581792553 -0.99923945985 0.042024777865 0.0091814327146 -0.99907438128 
0.046242397771 0.0083664508825 -0.99889521129 0.050350830965 0.0075192571637 -0.99870328656 0.054350975088 0.0066448966082 -0.9984997831 
0.058245567757 0.0057477176907 -0.99828573944 0.062038906761 0.0048311349783 -0.99806203925 0.065736642796 0.0038980199875 -0.99782939385 
0.069345187353 0.0029510395315 -0.99758836017 0.072871031891 0.001992760114 -0.99733938136 0.076319514234 0.0010256966336 -0.99708288507 
0.079695016071 5.2719265255e-05 -0.99681929237 0.08300031944 -0.00092279442454 -0.99654909333 0.086236053404 -0.0018969439256 -0.99627292681 
0.089399657358 -0.0028652592996 -0.99599171259 0.092485835216 -0.0038224445891 -0.99570666323 0.095486580356 -0.004762510593 -0.99541932444 
0.098389319005 -0.0056787432932 -0.99513179719 0.10117828458 -0.006563786543 -0.99484665725 0.1038353458 -0.0074096424092 -0.99456689979 
0.1063394118 -0.0082076299682 -0.99429601443 0.10866586455 -0.0089491326148 -0.99403804902 0.11078921055 -0.0096253627607 -0.99379731496 
0.11268396719 -0.010227811258 -0.9935782382 0.11432438565 -0.010748226408 -0.9933853283 0.11568578381 -0.01117889271 -0.9932229517 
0.11674482336 -0.011513398352 -0.99309520585 0.11748315038 -0.011746167842 -0.99300540629 0.11748315038 -0.011746167842 -0.99300540629 

NormalArray 3 240 double
-0.82715780396 0.56014166031 0.045291144066 -0.82715780396 0.56014166031 0.045291144066 -0.82412350999 0.56459410044 0.045320437165 
-0.81895394263 0.57206813932 0.045304346745 -0.81869654337 0.57246716248 0.044914560716 -0.81363346781 0.57966503056 0.044598569467 
-0.80734261843 0.58842681259 0.044178984682 -0.79911392081 0.59959081935 0.043678265952 -0.79234834452 0.60855551793 0.04294511072 
-0.78172319107 0.62219705413 0.042186234493 -0.77304542086 0.63301370592 0.041163398777 -0.76133445326 0.64712056711 0.040060228362 
-0.75134398324 0.65877508895 0.038698850388 -0.73967077049 0.67194021942 0.037195333161 -0.72977625817 0.68276685948 0.035440494006 
-0.71893513481 0.69426807956 0.033527684695 -0.70777621534 0.70573665915 0.031441961309 -0.6982612844 0.71524949266 0.029143471957 
-0.68816313911 0.72506410769 0.026712051869 -0.67954831869 0.73323434874 0.024113738793 -0.67006570588 0.7419922807 0.021433739325 
-0.66122606211 0.74995456329 0.018661398449 -0.65304857722 0.75715057364 0.015829232939 -0.64384177336 0.76504808519 0.013007622086 
-0.63530883766 0.77219093271 0.010190399054 -0.62653111936 0.77936095821 0.0074332552232 -0.61649145658 0.78734702514 0.0047901944833 
-0.60574200125 0.79565785807 0.0022805281838 -0.59393720757 0.80451139815 -6.0829201849e-05 -0.57972047968 0.81481250113 -0.0021802366515 
-0.56219516891 0.82699472784 -0.0040388338885 -0.54106344108 0.84096302496 -0.0056163498881 -0.51117167742 0.85945178462 -0.0067930933306 
-0.47194493173 0.88159566884 -0.0075536807396 -0.41648287562 0.90911046914 -0.0077568821698 -0.33146496369 0.94344056577 -0.0071327913875 
-0.20201767488 0.97936708869 -0.0053818799364 0.007084440236 0.99997335236 -0.0017621787866 0.31023236464 0.95065187676 0.0041096393163 
0.63536219825 0.7721381904 0.010839370871 0.852514796 0.52247200781 0.015541031557 0.94886823939 0.31518232934 0.017583047187 
0.98312226009 0.18205885171 0.018033197903 0.99358775456 0.11167204193 0.017684146411 0.99692742563 0.07647318331 0.016957601829 
0.99738333587 0.070511083317 0.015958334984 0.9961576883 0.086328235317 0.014740957637 0.99326632088 0.11508232753 0.013344425582 
0.98789518529 0.15467577483 0.011768923716 0.9801656799 0.19792487418 0.010049085801 0.96896332306 0.24706979747 0.0081604983155 
0.9552088695 0.29586875971 0.0061394351984 0.93982980778 0.34161948499 0.0040074773173 0.92277391039 0.38533780702 0.001756357759 
0.90593651324 0.42341314742 -0.00058358978707 0.88932626033 0.45726323566 -0.0030225834659 0.87372542322 0.48638771924 -0.0055562021383 
0.85907879209 0.51177780876 -0.0081916694506 0.84624213964 0.53268657418 -0.01092038427 0.83468211785 0.55056028475 -0.013752636176 
0.82422367238 0.56601834595 -0.016690414481 0.81398478051 0.58055058901 -0.019743117538 0.80477192878 0.59314243682 -0.022895246106 
0.79509261167 0.60592365416 -0.026158444048 0.78566826405 0.61794325075 -0.029521478769 0.77543774337 0.63056173037 -0.03298803348 
0.76351915555 0.64474954928 -0.036558416431 0.75125493762 0.65878570066 -0.040217151792 0.73631718161 0.67520630439 -0.043971065216 
0.72056573892 0.69173669437 -0.047805455307 0.70257213071 0.70973051669 -0.051720352244 0.68248506469 0.72877343399 -0.055708333215 
0.66138832218 0.74765849223 -0.059768438811 0.63873150594 0.76677187111 -0.063898051619 0.61467363386 0.78583668515 -0.068095727582 
0.59022261192 0.80398988893 -0.072370759863 0.56568104053 0.82104635103 -0.076732325971 0.54142773797 0.8368177958 -0.081191016717 
0.51765079521 0.85128352703 -0.085755529415 0.49520085933 0.86405725096 -0.090449853354 0.47424923849 0.87521944771 -0.095281572935 
0.45489333656 0.88488444102 -0.1002575603 0.43765247476 0.89294600512 -0.10539327912 0.42274089618 0.89946528379 -0.11069027943 
0.40980770355 0.90474911551 -0.11613218368 0.39937468099 0.90867062333 -0.12172741053 0.3918538274 0.91115350046 -0.12747500362 
0.38641431561 0.91263738222 -0.13333036139 0.38382238661 0.91283905756 -0.13930265801 0.38387846443 0.91187016395 -0.14536206056 
0.3869146056 0.90958582049 -0.15149496078 0.39252046908 0.90612917281 -0.15766294283 0.40123437283 0.90120075606 -0.16385412824 
0.41296831119 0.89473234915 -0.17003293016 0.4277709143 0.88655429378 -0.17616335903 0.4456537104 0.87646744214 -0.18220206716 
0.46645721564 0.86431322125 -0.18809657506 0.49054092181 0.84959589117 -0.19379480316 0.51703810714 0.8324559128 -0.19922035292 
0.54635468705 0.81225448516 -0.20430175542 0.57763468913 0.78909807509 -0.2089554828 0.61080559702 0.76256653535 -0.21309341103 
0.64499858231 0.73283290095 -0.21663971957 0.67986100087 0.69971659675 -0.21951242271 0.714250819 0.66385325073 -0.22168587924 
0.74815051024 0.62490306089 -0.22308513736 0.78063734138 0.58357049768 -0.22372039575 0.8109561612 0.54067790372 -0.22364594571 
0.83911588285 0.49620826153 -0.22284949256 0.86466322884 0.45092584386 -0.22141224905 0.88746829859 0.40529491663 -0.21939929252 
0.90751217492 0.35970329439 -0.21687598386 0.9248734699 0.31441575349 -0.21389670083 0.93963280465 0.26975437841 -0.21052973128 
0.95200848202 0.22565549594 -0.20678357602 0.96197949831 0.18292245631 -0.20281720789 0.96995286953 0.14067591882 -0.19849865679 
0.97592481627 0.099694750484 -0.19398894227 0.98009321515 0.05987534188 -0.18929403861 0.98261056152 0.021289701204 -0.18445387773 
0.98361011503 -0.015302426489 -0.17965794541 0.98330843296 -0.050263315888 -0.17486601942 0.98190858249 -0.082807023498 -0.17028955486 
0.9796159023 -0.11327931637 -0.16589297888 0.97675284606 -0.14035678579 -0.16203039962 0.97353951507 -0.16447188925 -0.15864996137 
0.97020989126 -0.1855049345 -0.15582261127 0.96702348227 -0.20310026339 -0.1536745514 0.96410050735 -0.21763033651 -0.15214219785 
0.96165832419 -0.22870983871 -0.15134423411 0.95967470028 -0.23704552182 -0.15110886879 0.95805627909 -0.24343044935 -0.1512275849 
0.9567270444 -0.24840936408 -0.15154586879 0.95542829105 -0.25326118651 -0.15170877386 0.95349294253 -0.26091338406 -0.15091525625 
0.9492974115 -0.2776683265 -0.1474270158 0.93779968848 -0.31910509703 -0.13676140297 0.87951187798 -0.46676133742 -0.092696873666 
-0.24749680612 -0.93467372767 0.2552064924 -0.93981173983 -0.22738386733 0.25504993737 -0.9663761087 -0.10605241419 0.23424368075 
-0.97026095697 -0.079836719451 0.22851646243 -0.97038598994 -0.081205419808 0.22750101168 -0.96890231467 -0.095116380319 0.22843200044 
-0.96619995662 -0.1160322476 0.23020460758 -0.96232681395 -0.14134025476 0.23227146947 -0.95726954246 -0.16951209321 0.23430892713 
-0.95094692956 -0.19982679916 0.23615500735 -0.94338549986 -0.2314104906 0.23764045004 -0.93461410812 -0.26369609311 0.23866470075 
-0.92463020407 -0.29639706494 0.23918144916 -0.91357245766 -0.32895106788 0.23911620511 -0.90148821967 -0.36118673034 0.23845992456 
-0.88849265885 -0.39283394241 0.23719673029 -0.874725777 -0.42364859293 0.23532251223 -0.86026894491 -0.45355741637 0.23285835282 
-0.8451973346 -0.48251336479 0.22983106489 -0.82959667083 -0.51046208715 0.22626935571 -0.81347276607 -0.53747787192 0.22221520215 
-0.79684897927 -0.56359140142 0.21770722653 -0.77967884793 -0.58891554869 0.21278949834 -0.76194297997 -0.61350328808 0.20750086938 
-0.74353838039 -0.63748998512 0.20188411468 -0.72429970552 -0.66104606826 0.19597967298 -0.7042120146 -0.68414586115 0.18981538181 
-0.68303757558 -0.70697571961 0.18342574036 -0.66077734557 -0.72945479767 0.17683042083 -0.63707209898 -0.75181134827 0.17005539481 
-0.61203856299 -0.77382446779 0.1631088301 -0.58552004191 -0.79550556692 0.15600376122 -0.55735611327 -0.81684043755 0.14874764728 
-0.52788565403 -0.83747106675 0.14134690878 -0.4969882425 -0.85737848884 0.13380887002 -0.4650442151 -0.87625379199 0.1261474139 
-0.43235059057 -0.89390095252 0.11838096939 -0.39937311752 -0.91010037201 0.11053698865 -0.36682953867 -0.9246065408 0.10265882458 
-0.33516284227 -0.93737982236 0.094788911722 -0.3054614857 -0.94822187349 0.086997467744 -0.27819733773 -0.95724148598 0.079340902425 
-0.25447941003 -0.96440140219 0.071903861732 -0.23515515764 -0.9697978166 0.064763004511 -0.2212935797 -0.97348071896 0.058003805012 
-0.21374008483 -0.97552155737 0.051699779896 -0.21386955476 -0.97578132536 0.045941469627 -0.2224720261 -0.9740856133 0.040784991962 
-0.24134952778 -0.96975833644 0.036320439795 -0.27163356769 -0.96184865059 0.032594144709 -0.31427491954 -0.94886951155 0.029629799199 
-0.37048300996 -0.92843358063 0.02744860088 -0.43950637279 -0.8978636591 0.025980722373 -0.5195256505 -0.85408579243 0.025110906676 
-0.60625285966 -0.79489030744 0.024634717327 -0.69356118799 -0.71998808894 0.024290539172 -0.77414920143 -0.63255621432 0.023783390118 
-0.84264168053 -0.53798784519 0.022892720827 -0.89631823065 -0.44289053286 0.021485001881 -0.93555821446 -0.35263207432 0.019530681153 
-0.96244334923 -0.27094617701 0.017057804293 -0.97983183792 -0.19932362648 0.0141301568 -0.9904327865 -0.13757103275 0.010821570284 
-0.9963613082 -0.084925436199 0.0071981802305 -0.99918201362 -0.040302346362 0.0033203228119 -0.99999725601 -0.0022183119072 -0.00075304307247 
-0.99952805248 0.03031380498 -0.0049744883018 -0.99825997412 0.058228270061 -0.0093001415027 -0.99648362701 0.082662484043 -0.013685570259 
-0.99440930597 0.10403153248 -0.01809896274 -0.99215742246 0.12295124195 -0.0225086906 -0.98977184934 0.14010312834 -0.026884934259 
-0.98731845073 0.155654381 -0.031208821423 -0.98479924795 0.17003805961 -0.035461239732 -0.98225972939 0.18328950774 -0.039633071763 
-0.97966492373 0.19582108291 -0.043712020159 -0.97703302634 0.20768169138 -0.047694659016 -0.97438625876 0.21888522342 -0.051581757421 
-0.97174084035 0.22946302114 -0.055375636562 -0.96909014937 0.23952870936 -0.059078589882 -0.96648692953 0.24894137848 -0.062699323121 
-0.96395427806 0.25768927675 -0.066244897603 -0.96154043241 0.26566611498 -0.069724545101 -0.95922712473 0.2730086168 -0.073141085132 
-0.95712098479 0.27940328068 -0.076506386778 -0.95519214416 0.28502066627 -0.079819718974 -0.95352010373 0.28964801783 -0.083086927695 
-0.95201498868 0.29363290043 -0.086297051572 -0.95081349424 0.29656635201 -0.089454446662 -0.94979218628 0.2988832547 -0.092539737096 
-0.9489890807 0.30048539519 -0.095541886094 -0.94832941083 0.30163122097 -0.098437467961 -0.94790872456 0.30203429378 -0.10121430376 
-0.94762619295 0.30202912154 -0.1038412643 -0.94737831778 0.30195714959 -0.10628359612 -0.94729591286 0.30141810078 -0.10852456863 
-0.94722272122 0.30092106428 -0.11052433887 -0.94730064688 0.30002935654 -0.112266957 -0.94737642141 0.2992441766 -0.11371384665 
-0.94726143857 0.29918373815 -0.11482533619 -0.94757523825 0.29787656463 -0.11563183001 -0.94757523825 0.29787656463 -0.11563183001 

BinormalArray 3 240 double
0.56153405489 0.82700079749 0.027371265172 0.56153405489 0.82700079749 0.027371265172 0.56598167101 0.8239714031 0.027127015156 
0.57344454289 0.81880868407 0.026715072859 0.57382440762 0.81854320146 0.026694129675 0.58099752593 0.81348027746 0.026300438178 
0.5897279193 0.80718908016 0.025821891317 0.60085414187 0.7989609578 0.025212856172 0.60977383287 0.79218965687 0.024726914318 
0.62336447363 0.78156327819 0.023991148634 0.6341230284 0.7728775958 0.023413815513 0.64816626304 0.76116133876 0.022669623496 
0.65975072627 0.75116048888 0.022065791042 0.67284087794 0.73947768636 0.02139869965 0.68358747872 0.72957023876 0.020866855344 
0.69500541014 0.7187172401 0.020322614378 0.70638829759 0.70754744747 0.01980360101 0.71581375326 0.69802179645 0.019396966935 
0.72554143214 0.68791602406 0.019004580703 0.73362590912 0.67929610099 0.018703813662 0.74230146531 0.66981309347 0.018410714568 
0.75018559024 0.66097754864 0.018173067653 0.75730889788 0.65280911164 0.017986021027 0.76514061189 0.64361679779 0.017811839689 
0.77222476323 0.63510330774 0.017683425766 0.77934387777 0.62634967737 0.017584136132 0.78728709524 0.61633802389 0.017506283815 
0.79556277288 0.60561957131 0.017458787239 0.80438837116 0.59384770074 0.017442954619 0.81466810961 0.57966447586 0.01746329311 
0.82683457901 0.5621719135 0.017530505418 0.84079157677 0.54107103482 0.017653886349 0.85927224326 0.51120616574 0.01787367 
0.88140991861 0.4720014275 0.018199115674 0.90891889823 0.41655446802 0.018676498657 0.94324186229 0.33154155579 0.019364555428 
0.97915918947 0.20208586892 0.020213442724 0.99975513663 -0.0070459285889 0.02097669362 0.95043148723 -0.31024958313 0.020619996391 
0.77193858283 -0.63544783883 0.017800799588 0.52231119765 -0.85265012282 0.013370896124 0.31505721565 -0.94902458643 0.0095543294902 
0.18195801824 -0.9832806909 0.0070966536729 0.11158526754 -0.99373780301 0.0058229663922 0.076395048432 -0.99706401888 0.0052094939422 
0.070437771793 -0.99750308168 0.0051110030441 0.086257725559 -0.99625846453 0.0053550571557 0.11501428098 -0.9933471281 0.0057617940821 
0.15461060452 -0.98795562324 0.0062647804701 0.19786391705 -0.98020628909 0.0067454544226 0.24701462498 -0.96898495723 0.0072060881935 
0.29582145978 -0.95521325057 0.0075703281571 0.34158234929 -0.93981934189 0.0078168579126 0.38531332163 -0.92275152782 0.0079537465909 
0.42340395781 -0.90590585283 0.007979618793 0.45727227904 -0.88929154303 0.0079129206882 0.48641826778 -0.87369151299 0.0077723155637 
0.51183359659 -0.85905124316 0.0075717250032 0.53277181582 -0.84622712476 0.0073379548596 0.55067981002 -0.83468657555 0.0070758342437 
0.56617760089 -0.82425529543 0.0067920700424 0.58075560837 -0.81405226039 0.0064684391503 0.59339989908 -0.80488440851 0.0061358545046 
0.60624058423 -0.79526057135 0.005742620236 0.61832739137 -0.78590264245 0.005317299528 0.63102095851 -0.77575087436 0.0048094535075 
0.64529165152 -0.76392495517 0.0041650143588 0.65941957194 -0.75176720454 0.0034493942274 0.67593943567 -0.73695288463 0.0025149826765 
0.69257839997 -0.72134111681 0.0014673405953 0.71068901159 -0.70350628159 0.00020139874666 0.72985731766 -0.6835983071 -0.0012846745731 
0.74887851927 -0.66270087247 -0.0029183919213 0.76813868447 -0.64026588426 -0.0047496186297 0.78736204789 -0.6164536727 -0.006773105718 
0.80568895793 -0.59227184405 -0.0089087494266 0.82293675871 -0.56802390433 -0.011132622186 0.83892016135 -0.54408923039 -0.013411646271 
0.8536212369 -0.52065671168 -0.015728079698 0.86665925872 -0.49857586616 -0.017995414938 0.87811803219 -0.47801787325 -0.020189957946 
0.8881151853 -0.45907998564 -0.022293147583 0.89654983594 -0.44227933353 -0.0242359817 0.90348684016 -0.42782787147 -0.025977722143 
0.90923351047 -0.41537429617 -0.027543012209 0.91366836033 -0.40543558484 -0.028846384249 0.91671958511 -0.39841778316 -0.029807253023 
0.91882218731 -0.39349055834 -0.030511778212 0.91969974999 -0.39141071907 -0.030822376054 0.91946269096 -0.3919741724 -0.030734477253 
0.91796906135 -0.39550375805 -0.030159240442 0.91535823401 -0.40158575171 -0.029123657931 0.91133541544 -0.41074546085 -0.027494125797 
0.90583099314 -0.42288688519 -0.025236762953 0.89867500134 -0.4380484016 -0.022289903875 0.88966726364 -0.4562306791 -0.01859374768 
0.87864597057 -0.47726503492 -0.014118953302 0.86511816593 -0.5014922904 -0.0087201863413 0.84921148825 -0.52804689423 -0.0025150989102 
0.83028977774 -0.55731240448 0.0046657039509 0.8084451012 -0.58843459974 0.012698038341 0.78325280914 -0.62132641917 0.021645272323 
0.75487007501 -0.65512427148 0.031358551749 0.72310690974 -0.68946923258 0.041815958769 0.68857908179 -0.72324057967 0.052743834145 
0.65094171229 -0.75640884201 0.064191517626 0.61088238071 -0.78807480465 0.075900060672 0.56921012288 -0.81751061984 0.087614054 
0.52590462132 -0.84472321308 0.099332887533 0.48172197126 -0.86928434169 0.1108542994 0.43712309223 -0.89107854255 0.12207552274 
0.3924943398 -0.91009864303 0.13292348616 0.3481003845 -0.92643067142 0.14336085014 0.30426390099 -0.94016497772 0.15334044877 
0.26092245632 -0.9515156931 0.16290290842 0.21888160384 -0.96048996501 0.17190075805 0.17726304361 -0.96746089007 0.18054705635 
0.13684876895 -0.97245300549 0.1886996729 0.097537666557 -0.97565977943 0.19640366191 0.059405073633 -0.97723651526 0.20366597768 
0.0232190488 -0.97734652132 0.21036789925 -0.01137980304 -0.97619301626 0.21660492858 -0.043594507036 -0.97401150045 0.22226361815 
-0.073767371669 -0.97099507078 0.22743558956 -0.10055674678 -0.9675217805 0.23192659387 -0.12439185371 -0.96379624241 0.23584628437 
-0.14514616978 -0.96005925234 0.23920455971 -0.16245557836 -0.95658690575 0.24197040482 -0.17669341755 -0.95348482971 0.2442255427 
-0.18746883555 -0.95098728358 0.24592401706 -0.19549709774 -0.94904105737 0.24718809885 -0.20158265825 -0.94751629253 0.24814775292 
-0.20628015602 -0.94630961569 0.24889075611 -0.21088717505 -0.94510086148 0.24962163573 -0.21836856739 -0.94308560757 0.25080810507 
-0.23510695965 -0.93834754351 0.25343363058 -0.27691502125 -0.92512539492 0.25973269852 -0.42712058965 -0.86016795996 0.27870967433 
-0.94586780897 0.29016100192 0.14539835254 -0.26973238851 0.95191679096 -0.14525447216 -0.14946827466 0.97295193064 -0.17613567367 
-0.12322636514 0.97547032005 -0.18240865559 -0.12432716855 0.97537899106 -0.18214988048 -0.1378274328 0.97415177911 -0.1789746072 
-0.1582107172 0.97192802055 -0.17414158557 -0.18287076689 0.96863742825 -0.16822548921 -0.2102837624 0.96419872382 -0.16155977299 
-0.23973140185 0.95849954355 -0.15429672709 -0.27034648702 0.95153059711 -0.14663662477 -0.30156915414 0.94329964235 -0.13871492354 
-0.33311931334 0.93379563883 -0.13060332304 -0.36444536624 0.92313903421 -0.12244957549 -0.39538423744 0.91137553379 -0.11430634805 
-0.42567589774 0.89861562176 -0.10625438537 -0.45508701208 0.88499666258 -0.098370313901 -0.48355363104 0.87060428357 -0.090686643601 
-0.51103798365 0.85551926991 -0.083228349032 -0.53749526763 0.83983305402 -0.076021567023 -0.56300773343 0.8235614735 -0.069056436785 
-0.58761457581 0.80673645417 -0.062333007393 -0.61143583543 0.78932219376 -0.055827355277 -0.63453221254 0.77130775177 -0.049530024178 
-0.65704536996 0.75260026285 -0.043407674146 -0.67915094597 0.73304437322 -0.037415765067 -0.7008304182 0.71262937674 -0.031560993688 
-0.72227391623 0.69112601089 -0.02579199486 -0.7434067923 0.66853663706 -0.020127247085 -0.76445892792 0.6445093155 -0.014501370829 
-0.78521529664 0.61915793063 -0.0089663180192 -0.80568979074 0.59232729824 -0.0035118182103 -0.8258700377 0.56385742188 0.001867787025 
-0.84540314864 0.53408172019 0.0070874836407 -0.8642708796 0.50287990026 0.01215123822 -0.88216807119 0.47062829228 0.01698542528 
-0.89890097525 0.43762191177 0.021542958078 -0.91425252982 0.40432463858 0.025766225231 -0.92798039265 0.37145279148 0.029584025309 
-0.94004569758 0.33945057202 0.032975682199 -0.95025298609 0.30940682247 0.035870330821 -0.95871018845 0.28179691885 0.038278859655 
-0.96538075453 0.25773292957 0.040171330616 -0.97035924815 0.23806664152 0.041559640487 -0.97369350135 0.22387161304 0.042455462603 
-0.97545096186 0.21599809 0.042898089943 -0.97548877171 0.21582555555 0.042906710961 -0.97362631114 0.22414815771 0.042537156061 
-0.96918246766 0.24277174065 0.041799836411 -0.96119957654 0.27283047056 0.040729699138 -0.94818365408 0.31527653355 0.039350546693 
-0.92774133155 0.37131988984 0.03765051327 -0.89718862694 0.44020721406 0.035639534029 -0.85344581613 0.52011580913 0.033313421157 
-0.79429769047 0.60675241262 0.030703235952 -0.7194502073 0.69398391161 0.027887804512 -0.63207587953 0.77450228755 0.025025768734 
-0.53756473453 0.84292768444 0.022295178804 -0.44252257569 0.89653728636 0.019866156512 -0.35231704611 0.93571061625 0.017842131679 
-0.27068266479 0.96253123475 0.016263982402 -0.19911151339 0.9798603344 0.015110602362 -0.13741140863 0.99041046115 0.014325614078 
-0.084820189397 0.99630007225 0.013845631517 -0.040253688946 0.99909681898 0.013608336981 -0.0022283181239 0.99990560793 0.013557648427 
0.030243488405 0.99944936314 0.013649246387 0.05809663677 0.99821492444 0.013847217327 0.082469278255 0.99649347093 0.014127297821 
0.10377722518 0.99449534705 0.014466935812 0.1226369811 0.99234045905 0.014852076988 0.1397305829 0.99007169028 0.015277837016 
0.1552256918 0.98775374347 0.015732986908 0.16955560946 0.98538717921 0.016217347245 0.18275596316 0.98301610243 0.016721252461 
0.19523902752 0.98060394961 0.017251554874 0.20705375933 0.9781675602 0.01780350832 0.21821409267 0.97572798685 0.018371321271 
0.22875137821 0.97330040875 0.018950495964 0.23877909548 0.97087726182 0.019541904585 0.24815662158 0.96851071007 0.020131955844 
0.25687233172 0.96622333237 0.020714178357 0.26482033447 0.96406303957 0.021275483358 0.27213719872 0.96201104105 0.021819761049 
0.27851054718 0.96017384049 0.02231750766 0.28411074374 0.95852092739 0.022775360362 0.28872608971 0.95713135325 0.023169327765 
0.29270319881 0.95591396583 0.023522910888 0.29563502745 0.95500460092 0.023793754867 0.29795488895 0.95427779947 0.024015944568 
0.29956512919 0.9537695105 0.024175488027 0.30072293443 0.95340207848 0.024293897687 0.30114327299 0.9532682637 0.024338170651 
0.30115864246 0.95326336579 0.024339833989 0.30110804186 0.95327949356 0.024334220515 0.30059308758 0.95344348596 0.024275806628 
0.30011904296 0.9535942035 0.024220964122 0.29925143151 0.95386941499 0.024118870035 0.29848737925 0.95411108113 0.02402767775 
0.29843996586 0.95412605692 0.024021954376 0.29715126996 0.95453212612 0.023865099445 0.29715126996 0.95453212612 0.023865099445 

