# vtk DataFile Version 4.1
vtk output
ASCII
DATASET POLYDATA
POINTS 391 float
82.5699 3.17662 -323.656 82.4474 2.99768 -322.019 82.325 2.81873 -320.381 
82.2026 2.63975 -318.741 82.0804 2.46071 -317.099 81.9584 2.28159 -315.453 
81.8366 2.10235 -313.801 81.715 1.92296 -312.143 81.5935 1.74337 -310.477 
81.4722 1.56352 -308.803 81.3507 1.38336 -307.118 81.2291 1.20282 -305.424 
81.107 1.02182 -303.717 80.9843 0.840284 -301.999 80.8607 0.658132 -300.267 
80.736 0.475286 -298.523 80.6099 0.291669 -296.765 80.4821 0.107215 -294.993 
80.3526 -0.0781296 -293.209 80.2211 -0.264404 -291.412 80.0876 -0.451625 -289.604 
79.952 -0.639785 -287.785 79.8145 -0.828852 -285.957 79.6751 -1.01876 -284.122 
79.5342 -1.20941 -282.282 79.3919 -1.40068 -280.439 79.2489 -1.59241 -278.596 
79.1054 -1.7844 -276.757 78.962 -1.97643 -274.923 78.8194 -2.16826 -273.098 
78.6782 -2.35961 -271.286 78.5391 -2.55021 -269.491 78.4027 -2.73975 -267.714 
78.2698 -2.92795 -265.961 78.141 -3.1145 -264.233 78.0169 -3.29912 -262.534 
77.8982 -3.48154 -260.866 77.7855 -3.6615 -259.232 77.6793 -3.83879 -257.634 
77.5799 -4.0132 -256.074 77.4878 -4.18456 -254.553 77.4033 -4.35275 -253.071 
77.3266 -4.51767 -251.63 77.2579 -4.67924 -250.228 77.1972 -4.83745 -248.867 
77.1444 -4.99229 -247.545 77.0997 -5.14378 -246.261 77.0628 -5.29197 -245.014 
77.0335 -5.43693 -243.802 77.0116 -5.57875 -242.623 76.9967 -5.71752 -241.476 
76.9886 -5.85335 -240.356 76.987 -5.98635 -239.263 76.9912 -6.11664 -238.193 
77.0011 -6.24433 -237.144 77.016 -6.36954 -236.112 77.0357 -6.49236 -235.094 
77.0596 -6.61291 -234.087 77.0872 -6.73128 -233.088 77.1182 -6.84756 -232.093 
77.1522 -6.96184 -231.101 77.1886 -7.07419 -230.106 77.2271 -7.18468 -229.107 
77.2673 -7.29337 -228.1 77.3088 -7.40031 -227.082 77.3513 -7.50557 -226.051 
77.3946 -7.60916 -225.003 77.4382 -7.71114 -223.938 77.4819 -7.81152 -222.851 
77.5255 -7.91033 -221.743 77.5688 -8.00758 -220.61 77.6115 -8.10329 -219.453 
77.6535 -8.19745 -218.269 77.6946 -8.29007 -217.058 77.7346 -8.38114 -215.821 
77.7736 -8.47065 -214.556 77.8113 -8.55858 -213.264 77.8477 -8.64492 -211.945 
77.8828 -8.72965 -210.602 77.9164 -8.81273 -209.233 77.9486 -8.89415 -207.841 
77.9794 -8.97387 -206.428 78.0087 -9.05187 -204.993 78.0365 -9.12813 -203.54 
78.0629 -9.2026 -202.07 78.0879 -9.27528 -200.585 78.1115 -9.34613 -199.085 
78.1338 -9.41513 -197.574 78.1548 -9.48227 -196.052 78.1746 -9.54754 -194.521 
78.1933 -9.61094 -192.984 78.211 -9.67246 -191.44 78.2277 -9.73213 -189.892 
78.2436 -9.78996 -188.341 78.2587 -9.84601 -186.788 78.2734 -9.90033 -185.235 
78.2876 -9.95298 -183.682 78.3016 -10.0041 -182.131 78.3156 -10.0537 -180.583 
78.3298 -10.102 -179.039 78.3444 -10.1492 -177.499 78.3597 -10.1954 -175.965 
78.376 -10.2408 -174.438 78.3934 -10.2856 -172.917 78.4124 -10.3302 -171.405 
78.4331 -10.3748 -169.901 78.456 -10.4196 -168.406 78.4813 -10.4651 -166.921 
78.5092 -10.5114 -165.445 78.5402 -10.5589 -163.98 78.5745 -10.608 -162.524 
78.6124 -10.6588 -161.078 78.654 -10.7119 -159.643 78.6998 -10.7673 -158.217 
78.7498 -10.8255 -156.8 78.8043 -10.8866 -155.392 78.8634 -10.9509 -153.993 
78.9273 -11.0185 -152.602 78.9961 -11.0896 -151.219 79.0698 -11.1643 -149.842 
79.1485 -11.2426 -148.473 79.2322 -11.3247 -147.109 79.3209 -11.4104 -145.751 
79.4146 -11.4998 -144.398 79.5131 -11.5927 -143.05 79.6163 -11.689 -141.706 
79.7243 -11.7886 -140.368 79.8367 -11.8911 -139.034 79.9534 -11.9963 -137.704 
80.0743 -12.1041 -136.38 80.1991 -12.2139 -135.061 80.3277 -12.3255 -133.748 
80.4598 -12.4384 -132.442 80.5951 -12.5523 -131.142 80.7336 -12.6667 -129.851 
80.8748 -12.7812 -128.569 81.0186 -12.8952 -127.297 81.1649 -13.0085 -126.036 
81.3132 -13.1204 -124.786 81.4636 -13.2305 -123.55 81.6158 -13.3384 -122.327 
81.7696 -13.4438 -121.12 81.925 -13.5462 -119.927 82.0817 -13.6453 -118.751 
82.2399 -13.7409 -117.59 82.3994 -13.8327 -116.447 82.5603 -13.9205 -115.319 
82.7226 -14.0043 -114.208 82.8864 -14.084 -113.113 83.0519 -14.1595 -112.032 
83.2192 -14.231 -110.965 83.3885 -14.2985 -109.911 83.56 -14.3621 -108.869 
83.7341 -14.422 -107.836 83.9111 -14.4784 -106.811 84.0911 -14.5315 -105.792 
84.2747 -14.5814 -104.778 84.462 -14.6285 -103.766 84.6535 -14.6728 -102.754 
84.8495 -14.7146 -101.74 85.0502 -14.754 -100.723 85.256 -14.7911 -99.7006 
85.4672 -14.826 -98.6704 85.6841 -14.8586 -97.6309 85.9067 -14.8891 -96.5806 
86.1354 -14.9171 -95.5177 86.3703 -14.9427 -94.4409 86.6115 -14.9656 -93.3487 
86.8592 -14.9854 -92.24 87.1133 -15.002 -91.1134 87.3739 -15.0149 -89.968 
87.641 -15.0236 -88.8027 87.9146 -15.0277 -87.6166 88.1945 -15.0266 -86.409 
88.4808 -15.0198 -85.179 88.7732 -15.0067 -83.926 89.0717 -14.9867 -82.6494 
89.376 -14.9592 -81.3489 89.686 -14.9237 -80.024 90.0014 -14.8795 -78.6745 
90.3219 -14.8262 -77.3006 90.6472 -14.7633 -75.9022 90.977 -14.6904 -74.4797 
91.3109 -14.6072 -73.0337 91.6483 -14.5134 -71.565 91.9889 -14.4088 -70.0746 
92.3321 -14.2934 -68.5637 92.6773 -14.1673 -67.0339 93.0239 -14.0307 -65.4869 
93.3713 -13.8837 -63.9245 93.7186 -13.7267 -62.3489 94.0653 -13.5603 -60.7623 
94.4105 -13.385 -59.167 94.7535 -13.2014 -57.5655 95.0935 -13.0103 -55.9601 
95.4297 -12.8125 -54.3532 95.7616 -12.6087 -52.747 96.0882 -12.3998 -51.1438 
96.409 -12.1867 -49.5453 96.7233 -11.9702 -47.9534 97.0305 -11.7513 -46.3696 
97.3302 -11.5306 -44.795 97.6218 -11.309 -43.2308 97.9049 -11.0871 -41.6776 
98.1791 -10.8657 -40.1359 98.4442 -10.6452 -38.606 98.6998 -10.4262 -37.0879 
98.9457 -10.2091 -35.5816 99.1817 -9.9943 -34.0868 99.4077 -9.78197 -32.6033 
99.6234 -9.57232 -31.1307 99.8288 -9.36548 -29.6685 100.024 -9.16151 -28.2165 
100.208 -8.96039 -26.7742 100.381 -8.7621 -25.3414 100.544 -8.56652 -23.9177 
100.695 -8.37355 -22.5028 100.836 -8.18304 -21.0966 100.964 -7.99482 -19.6989 
101.081 -7.80872 -18.3094 101.186 -7.62455 -16.9278 101.278 -7.44215 -15.554 
101.358 -7.26134 -14.1874 101.424 -7.08195 -12.8276 101.478 -6.90382 -11.4739 
101.517 -6.72682 -10.1254 101.543 -6.55081 -8.78127 101.553 -6.37567 -7.44019 
101.549 -6.20128 -6.10076 101.529 -6.02755 -4.76139 101.493 -5.85437 -3.42026 
101.44 -5.68166 -2.07538 101.37 -5.50932 -0.724609 101.283 -5.33727 0.63435 
101.177 -5.16543 2.00388 101.054 -4.9937 3.38643 100.911 -4.82201 4.78447 
100.749 -4.65027 6.20044 100.568 -4.47839 7.63671 100.367 -4.30631 9.09552 
100.147 -4.13397 10.5789 99.9069 -3.96131 12.0888 99.6474 -3.78829 13.6267 
99.3686 -3.61491 15.1938 99.071 -3.44119 16.7911 98.7551 -3.26717 18.4191 
98.4216 -3.09295 20.0778 98.0713 -2.91867 21.767 97.7051 -2.74449 23.4859 
97.3242 -2.57065 25.2334 96.9297 -2.39743 27.0078 96.5229 -2.22516 28.8073 
96.1051 -2.05423 30.6295 95.6778 -1.88506 32.4718 95.2423 -1.71811 34.3314 
94.8001 -1.55391 36.2053 94.3526 -1.39299 38.0905 93.9012 -1.23591 39.9837 
93.447 -1.08323 41.8819 92.9913 -0.935545 43.7821 92.5352 -0.793407 45.6815 
92.0795 -0.657368 47.5775 91.625 -0.527946 49.4678 91.1723 -0.405625 51.3504 
90.7218 -0.290841 53.2237 90.2737 -0.183976 55.0863 89.8282 -0.0853561 56.9375 
89.3853 0.00475945 58.7765 88.9447 0.086176 60.6033 88.5061 0.158768 62.4178 
88.0691 0.222477 64.2204 87.6332 0.277314 66.0117 87.1979 0.323356 67.7925 
86.7626 0.360739 69.5637 86.3265 0.389663 71.3261 85.8893 0.410378 73.081 
85.4502 0.423189 74.8293 85.0087 0.428444 76.5721 84.5643 0.426533 78.3104 
84.1166 0.417882 80.045 83.6652 0.40295 81.7769 83.2097 0.382223 83.5067 
82.75 0.35621 85.2353 82.2857 0.325439 86.9631 81.8168 0.290453 88.6909 
81.3432 0.251808 90.419 80.8647 0.210064 92.1481 80.3814 0.165786 93.8786 
79.8931 0.119537 95.6112 79.3998 0.0718737 97.3462 78.9015 0.0233449 99.0845 
78.398 -0.0255162 100.827 77.8893 -0.074195 102.573 77.3752 -0.1222 104.326 
76.8555 -0.169066 106.084 76.33 -0.21436 107.85 75.7984 -0.257685 109.623 
75.2605 -0.29868 111.406 74.7158 -0.337029 113.198 74.1642 -0.372456 115 
73.6053 -0.404732 116.814 73.0388 -0.433675 118.639 72.4644 -0.459147 120.475 
71.882 -0.481057 122.324 71.2912 -0.499357 124.183 70.6921 -0.514044 126.054 
70.0847 -0.525149 127.935 69.4689 -0.532743 129.825 68.8451 -0.536927 131.723 
68.2134 -0.537832 133.627 67.5743 -0.535611 135.536 66.9282 -0.530439 137.448 
66.2757 -0.522509 139.36 65.6175 -0.512024 141.271 64.9544 -0.499202 143.179 
64.2871 -0.484266 145.081 63.6165 -0.467448 146.975 62.9435 -0.448987 148.86 
62.2689 -0.429126 150.733 61.5938 -0.408117 152.594 60.9189 -0.386216 154.441 
60.2451 -0.363688 156.273 59.5732 -0.340807 158.09 58.9039 -0.317857 159.891 
58.238 -0.295132 161.677 57.5759 -0.272938 163.447 56.9184 -0.251592 165.203 
56.2657 -0.23142 166.945 55.6182 -0.21276 168.674 54.9764 -0.195954 170.391 
54.3403 -0.181351 172.099 53.7103 -0.169299 173.797 53.0865 -0.160143 175.488 
52.4689 -0.154221 177.173 51.8577 -0.151856 178.854 51.2529 -0.153352 180.531 
50.6545 -0.15899 182.205 50.0625 -0.169018 183.878 49.4769 -0.18365 185.551 
48.8976 -0.203058 187.223 48.3246 -0.22737 188.895 47.7578 -0.256662 190.567 
47.197 -0.290958 192.24 46.6419 -0.330229 193.912 46.0923 -0.374385 195.585 
45.5477 -0.423283 197.256 45.0076 -0.476721 198.926 44.4715 -0.534442 200.594 
43.9386 -0.596136 202.258 43.4079 -0.661442 203.919 42.8784 -0.729951 205.575 
42.3488 -0.801213 207.226 41.8177 -0.874739 208.871 41.2833 -0.950004 210.508 
40.7438 -1.02646 212.139 40.1971 -1.10352 213.761 39.6407 -1.1806 215.375 
39.0719 -1.25709 216.98 38.4878 -1.33237 218.577 37.8852 -1.40582 220.167 
37.2604 -1.47682 221.748 36.6097 -1.54475 223.324 35.9287 -1.60902 224.893 
35.2132 -1.66902 226.459 34.4583 -1.72418 228.024 33.6591 -1.77395 229.588 
32.8104 -1.81779 231.155 31.9068 -1.8552 232.727 30.9429 -1.88571 234.308 
29.9133 -1.90888 235.899 28.8126 -1.92432 237.506 27.6355 -1.93166 239.13 
26.3771 -1.9306 240.775 25.0328 -1.92088 242.444 23.5986 -1.90229 244.139 
22.071 -1.87471 245.864 20.4473 -1.83804 247.621 18.7256 -1.7923 249.41 
16.905 -1.73754 251.234 14.9857 -1.67391 253.093 12.969 -1.60166 254.988 
10.8573 -1.5211 256.917 8.65432 -1.43263 258.88 6.36507 -1.33676 260.876 
3.9957 -1.23407 262.901 1.55362 -1.12522 264.954 -0.952649 -1.01097 267.031 
-3.51352 -0.892141 269.128 -6.11848 -0.769634 271.243 -8.75621 -0.644397 273.369 
-11.4148 -0.517429 275.503 
LINES 1 392
391 390 389 388 387 386 385 384 383 382 381 380 379 378 377 376 375 374 373 372 371 370 369 368 367 366 365 364 363 362 361 360 359 358 357 356 355 354 353 352 351 350 349 348 347 346 345 344 343 342 341 340 339 338 337 336 335 334 333 332 331 330 329 328 327 326 325 324 323 322 321 320 319 318 317 316 315 314 313 312 311 310 309 308 307 306 305 304 303 302 301 300 299 298 297 296 295 294 293 292 291 290 289 288 287 286 285 284 283 282 281 280 279 278 277 276 275 274 273 272 271 270 269 268 267 266 265 264 263 262 261 260 259 258 257 256 255 254 253 252 251 250 249 248 247 246 245 244 243 242 241 240 239 238 237 236 235 234 233 232 231 230 229 228 227 226 225 224 223 222 221 220 219 218 217 216 215 214 213 212 211 210 209 208 207 206 205 204 203 202 201 200 199 198 197 196 195 194 193 192 191 190 189 188 187 186 185 184 183 182 181 180 179 178 177 176 175 174 173 172 171 170 169 168 167 166 165 164 163 162 161 160 159 158 157 156 155 154 153 152 151 150 149 148 147 146 145 144 143 142 141 140 139 138 137 136 135 134 133 132 131 130 129 128 127 126 125 124 123 122 121 120 119 118 117 116 115 114 113 112 111 110 109 108 107 106 105 104 103 102 101 100 99 98 97 96 95 94 93 92 91 90 89 88 87 86 85 84 83 82 81 80 79 78 77 76 75 74 73 72 71 70 69 68 67 66 65 64 63 62 61 60 59 58 57 56 55 54 53 52 51 50 49 48 47 46 45 44 43 42 41 40 39 38 37 36 35 34 33 32 31 30 29 28 27 26 25 24 23 22 21 20 19 18 17 16 15 14 13 12 11 10 9 8 7 6 5 4 3 2 1 0 

CELL_DATA 1
FIELD FieldData 2
LengthArray 1 1 double
632.36059102 
TortuosityArray 1 1 double
0.042644086426 
POINT_DATA 391
FIELD FieldData 8
RadiusArray 1 391 double
24.667113963 24.546774444 24.484255716 24.192738631 24.183034413 23.909035773 23.871462125 23.832665576 23.832699318 
23.835477378 23.78102038 23.927734759 24.011667666 24.013759388 24.019938388 24.117937948 24.177421197 24.408200364 
24.53283523 24.572272424 25.03802255 25.079418457 25.204676609 25.919015976 26.424690945 26.554177544 27.423596228 
27.626365181 27.809351109 28.855869681 29.248713015 29.479289818 30.153921094 30.154298113 30.201048425 30.59785619 
31.112969692 31.123951812 31.465366283 31.96010704 32.197916714 32.285645723 32.634296471 32.789390826 32.90696535 
33.211838592 33.29804868 33.410009992 33.843273038 34.059223458 34.103764828 34.173958559 34.441379411 34.570730559 
34.668165606 34.756534403 34.77564931 34.964572674 35.114531223 35.134163487 35.318344777 35.493065352 35.516691763 
35.634630502 35.65170919 35.770049143 35.793436299 35.880727991 35.880872104 36.164929747 36.298604813 36.299633455 
37.000338299 37.041749228 37.098974441 37.14660807 37.208685366 37.393404773 37.96930614 38.131672426 38.453938109 
38.538712138 38.958135987 39.28922175 39.658057493 39.866435445 39.934863579 39.962814004 40.180128517 40.312457039 
40.788151439 41.054018021 41.227586072 41.769856419 42.003018842 42.582038702 42.620454364 42.689007276 43.037114605 
43.477480302 43.63823022 43.85769254 43.982185095 44.026246529 44.496985302 44.992313962 45.113184226 45.284877761 
45.760748238 45.807626713 45.86144308 46.100124161 46.40002392 46.455355127 46.834221664 46.990155136 47.30127048 
47.588860751 47.592970231 47.834119796 47.864641681 48.061968451 48.45997513 48.539585472 48.742904616 49.092880295 
49.347470986 49.507219626 50.13134253 50.141365325 50.14161875 50.383151506 50.502809539 50.58137489 50.783783812 
51.040352499 51.0497016 51.264411087 51.532053785 51.766724867 52.019473998 52.117651558 52.218509698 52.290973986 
52.516888855 52.647486718 52.755610805 52.85073755 52.896674929 52.906066813 52.945684013 52.96128654 52.984269785 
53.011445541 53.065710156 53.183408241 53.195801286 53.205592618 53.222244371 53.248434714 53.314737788 53.325621624 
53.379187125 53.396392299 53.433458965 53.444385367 53.445974855 53.467131261 53.471746584 53.461827115 53.433303023 
53.395246351 53.368499605 53.297594405 53.280111946 53.274814446 53.153301424 53.076887168 52.944655912 52.932260292 
52.928175654 52.819468014 52.626235475 52.611354826 52.559073902 52.364882484 51.807670567 51.703344316 51.417671266 
51.165675305 51.028635635 50.509372751 50.340914546 49.888968305 49.820168055 49.602795581 49.406644483 49.285261772 
49.196694113 49.149137495 49.078163855 49.039184542 48.894128347 48.865972602 48.786012261 48.763835133 48.753741413 
48.695991196 48.661418571 48.623572279 48.624427809 48.626870583 48.626515897 48.615030628 48.68375668 48.697955368 
48.727281541 48.742536867 48.869152977 48.889424074 49.033114798 49.162155805 49.223608966 49.226452521 49.28781567 
49.323462979 49.382007009 49.53190683 49.585706757 49.757509473 49.834221321 49.952704176 50.174588602 50.208116571 
50.270286738 50.493135379 50.506302556 50.655554523 50.667109913 50.742132782 50.791002663 50.795031862 50.864481913 
50.924158335 50.955207603 50.970330396 50.995037649 51.30252157 51.311762984 51.312053252 51.306470226 51.467335028 
51.627074304 51.644679207 52.250259105 52.444678226 52.546936674 52.629473949 53.174980855 53.351108131 54.027437148 
54.093100967 54.214381352 54.273249048 54.450472102 55.307748238 55.320787604 55.911507405 56.106022949 56.512728335 
57.151895124 57.425233013 57.730450352 57.747818805 57.98425353 58.430304598 58.686695579 58.988814861 59.742894571 
59.997282308 60.322479154 60.56648379 61.062086512 62.18981219 62.571222206 63.071015743 63.183582975 63.232058189 
63.803074567 63.941871414 64.574392516 65.033926404 65.838402016 66.234715518 66.743963006 66.931374406 66.989002755 
67.220496283 67.238079414 67.624528285 67.933992546 68.029259915 68.326727674 68.458998225 68.880838872 69.339028784 
69.910751315 69.978286254 70.371968809 70.870227121 71.160261462 71.239687837 71.716400137 72.308869559 72.543856687 
72.951300346 73.139064409 74.051934871 74.593091084 75.210954222 75.280870061 75.553344909 75.920795966 76.672387955 
76.701344738 76.957275271 77.187334198 77.4839309 77.756621798 78.140019321 78.633552312 78.665181669 79.013049021 
79.752044886 79.961202016 79.986587546 80.529364364 81.180281128 81.658427507 82.069792507 83.356622295 83.799388074 
83.864265705 84.053020458 84.15890177 84.352665825 84.826788603 85.309380627 85.369177318 85.663896826 85.834616907 
85.934029935 85.994994349 86.402186985 87.610788523 87.72821427 87.854907079 88.0050637 88.422113983 88.584840407 
88.989679408 89.283056157 89.358739265 89.490887596 89.956943387 90.020523111 90.099937818 90.575186934 90.615118596 
90.655429479 90.810994801 91.062237089 91.063944739 91.139556624 91.289868217 91.702283533 91.782403966 91.584858229 
90.792004729 89.880140974 89.767930782 89.758561324 89.368133398 89.293973735 89.231734557 89.0832086 86.836918558 
82.436155731 81.487150198 81.04989223 80.448465817 
EdgeArray 2 391 int
57713 57713 52228 52228 60402 60774 60815 60824 60815 
60813 59250 59250 58456 60525 58081 58081 58989 58081 
58989 58989 55861 60253 59866 56707 60381 60382 60380 
60382 58737 59878 59474 60089 60170 59474 60169 60170 
60169 60168 60174 60173 58424 58424 52712 52712 59247 
59081 59535 59535 59533 59533 57870 57870 58578 58578 
58741 58385 57984 58385 58429 58429 58152 58152 55270 
55270 54348 54348 57719 54348 57719 57719 56451 57580 
57681 54635 57681 57302 57367 57302 54832 57132 56337 
55026 56337 57422 57428 57112 56907 57427 56916 57425 
56916 56920 56296 56920 56922 53810 56224 55719 56368 
56368 56369 56369 55289 55289 55452 56351 56351 56351 
56352 56352 56183 56183 55978 56181 55972 55972 55757 
55757 55731 55759 55560 55731 55340 55429 55429 55429 
54939 54951 54951 55587 54438 55488 55492 55488 55492 
55493 55493 55493 55491 55485 55498 55499 55500 55499 
54129 55059 54968 54129 54968 54439 54439 54439 54517 
54600 54739 54429 54853 54853 54828 54870 54870 55000 
54988 55000 54994 54994 53992 53992 53585 54457 54459 
54456 54459 54460 54460 54460 54461 54461 54465 54465 
54146 53794 53779 53210 53811 53997 53739 53739 53949 
53948 53985 53985 53036 53937 51941 51941 52648 52648 
51630 51630 52910 52902 52080 52913 52911 52911 52301 
51220 51220 51220 51866 52075 52067 52075 52578 52067 
52482 52472 52482 51932 51920 51392 51791 51867 51791 
51430 51623 51430 51814 51814 51958 51958 50953 50475 
51820 49884 48581 49884 51416 48581 51917 51416 51917 
51659 50359 50359 51821 51821 50204 50204 51095 50210 
51095 50813 50773 50813 50960 51388 50960 51419 51419 
50888 50196 50694 50196 50643 50009 49840 49104 48774 
48749 48749 48608 47825 49684 49684 48381 48381 46469 
46469 49587 49587 48852 48852 49543 49464 49817 49543 
46118 45885 49122 49529 46931 46931 49139 49139 48523 
48523 46754 48067 46754 46539 48843 48843 47430 44468 
45342 44468 45342 45342 46303 46303 47877 47624 47624 
47624 47256 47256 47236 48873 48630 48630 31400 31400 
46129 48631 48631 48631 39212 39212 47351 47351 48646 
48646 48429 48429 47726 47726 44678 44678 47596 47596 
47647 47647 47293 47293 46370 46370 47590 47590 47252 
47475 43288 43288 46812 46812 46147 25722 46460 47031 
47031 32245 44829 44829 28058 42883 46235 46822 45314 
45592 41252 41252 46423 44885 45285 46068 25753 31166 
45914 46219 45163 46220 44104 44424 45676 45676 44676 
44676 43697 43697 42492 42492 45158 45146 45144 45153 
43974 45152 45147 38914 45173 44703 44743 44751 45138 
45138 44951 44951 45418 45418 45437 45437 42702 45397 
44723 44723 44942 44942 43205 43205 41480 42477 44440 
44440 42116 42116 44734 44734 44719 44736 42991 44737 
44441 44444 43286 44441 43695 41979 40855 43803 41937 
41937 43486 43486 43489 43489 42566 42566 43253 43253 
43449 43449 41433 41433 43235 43235 34817 34817 43079 
43079 42352 42352 37988 37988 32261 32261 41083 41083 
42053 42053 41406 41406 39784 41078 39784 39784 41070 
41090 41090 41090 41750 38122 41750 41750 38912 38912 
41404 41404 39457 40407 40407 40407 39511 36256 39511 
30155 30155 30155 38344 34520 34520 34520 39621 39621 
39618 39618 34644 35349 38779 34644 38783 38783 37312 
38785 37312 37312 34777 34777 35613 37559 35613 35613 
38241 27192 38242 38241 38242 38242 34293 34293 38238 
38238 38239 38244 37457 36122 37457 37457 37459 37459 
37463 37463 37465 37464 37191 37192 37190 37192 37190 
37190 34258 34258 36943 36943 36942 36942 36946 36946 
32457 36944 32457 33581 33581 33581 34322 34322 32035 
32035 34042 34042 34891 34891 32249 34874 34874 30094 
30094 30094 34224 30838 30838 30838 34176 34176 34969 
34969 36911 36911 36912 36906 36912 36914 36915 36914 
36610 36611 36610 36609 33729 33398 33398 36331 36331 
36330 36329 36336 34681 36335 33683 33683 34053 34053 
35738 33073 35737 35737 34057 34901 34902 34905 34408 
34407 34408 33734 33349 33349 32266 31149 33726 32266 
33726 33726 33735 33735 32464 29944 32161 32161 34402 
34402 34079 34403 34076 34079 34080 34077 33360 22091 
33359 33103 31845 33737 33374 33739 33372 33371 33371 
33371 32159 32159 34088 31859 31859 30377 30377 30377 
30351 30351 29836 32477 29836 32182 30380 30380 22946 
29840 29610 29842 29193 29627 21405 21405 27960 27960 
27234 27234 27230 27230 27232 25907 25907 25907 24910 
24910 26876 26876 26878 26878 25192 25193 25193 25193 
23022 23019 23022 23018 23018 23018 16284 16284 17567 
15303 15303 17005 17719 17005 17719 17719 10343 14036 
14036 14036 17735 17735 18610 18610 18609 18609 17533 
17533 16532 16532 18606 18606 18607 18607 18625 18626 
18625 18625 18627 18627 18620 18620 17347 18621 17347 
17347 17568 17568 16034 17569 17731 17730 17723 17723 
17238 17238 17565 17565 17282 17544 17547 17544 16996 
17547 16276 17546 17546 16992 16992 15841 16053 16053 
15847 17550 19562 17556 15899 17579 19215 19215 
EdgePCoordArray 1 391 double
0 0 0.056 0.148 0.1 0 0.948 0 0.988 
0 0.236 0.708 0.5 0.428 0.544 0.26 0.544 0.404 
0.092 0.068 0 0 0.028 0 0 0 0 
0.544 0.84 0 0 0 0 0.992 0 0.976 
0.036 0.044 0.4 0.144 0.32 0.424 0.224 0.74 0.532 
0.832 0.612 0.748 0.64 0 0 0 0.568 0 
0 0 0.868 0 0 0.928 0.9 0.724 0 
0.548 0.012 0.436 0.956 0.996 0 0.112 0.876 0.896 
0.048 0.612 0.328 0 0.956 0.756 0 0.328 0.792 
0.936 0 0 0.784 0.232 0.512 0 0 0 
0.004 0.06 0.828 0 0.808 0 0.832 0 0 
0 0.112 0.804 0 0.064 0 0.896 0.608 0.888 
0.132 0.08 0.108 0.496 0.748 0.936 0 0 0.024 
0.984 0.988 0.38 0.94 0.024 0 0 0 0.644 
0.604 0.72 0.616 0.996 0.004 0.796 0.648 0.792 0.34 
0 0.036 0 0 0 0 0 0.812 0.468 
0.644 0.304 0 0 0 0.932 0.532 0 0.516 
0.796 0 0 0.464 0 0 0.16 0 0 
0.568 0 0 0 0 0 0 0 0 
0 0 0 0 0.976 0 0 0.092 0.992 
0.176 0 0.012 0.008 0.044 0 0.076 0.856 0.288 
0.588 0.484 0.428 0 0 0 0 0.468 0.872 
0.74 0.532 0.812 0.012 0 0 0 0 0.996 
0 0 0 0.076 0 0 0 0.136 0.144 
0.468 0.136 0.228 0.52 0 0 0 0 0 
0 0 0 0 0 0 0 0 0 
0 0 0.964 0 0.024 0 0.344 0 0 
0 0.476 0 0.948 0.68 0 0.328 0 0 
0 0.972 0.284 0 0.844 0 0 0.872 0 
0.968 0.72 0 0 0 0.968 0.4 0 0 
0 0.948 0.976 0.92 0 0 0 0 0 
0.592 0.088 0 0 0 0 0 0.924 0.06 
0 0.02 0 0 0 0 0.312 0.688 0.856 
0.124 0.076 0.368 0.732 0.984 0.776 0.872 0 0 
0.516 0 0.396 0.292 0.612 0.28 0 0.244 0.768 
0 0 0.104 0 0 0.908 0.924 0.208 0.332 
0.364 0.516 0.408 0.024 0 0 0.068 0.052 0 
0 0.188 0.14 0 0.892 0.376 0.352 0 0 
0 0 0.14 0 0 0 0 0.34 0 
0.684 0.008 0 0 0.228 0.208 0.904 0 0.104 
0 0 0 0 0 0 0 0 0.92 
0 0 0 0.992 0 0 0.196 0.892 0 
0 0 0.996 0.976 0.78 0.788 0.508 0.148 0 
0.796 0.78 0.644 0 
CurvatureArray 1 391 double
0 2.4486317964e-05 9.2550395219e-05 0.00015976051803 0.000222266537 0.00027525247413 0.0003111503104 0.00033382579597 0.00034266717716 
0.00033929239422 0.00031668667796 0.00029488193791 0.0002621846615 0.00024081563529 0.00023178422799 0.00024430285295 0.00027016479422 0.00030349730171 
0.00033733424646 0.00036383079499 0.00038109195757 0.00038500206711 0.00037493360844 0.00035626038992 0.00032312101852 0.00028152093637 0.00024464724449 
0.00021428633322 0.00022562635758 0.00028292243598 0.00037576185375 0.00049775334899 0.00063795229762 0.00079887660182 0.000968108806 0.0011649080345 
0.001366078595 0.0015932494908 0.0018322686435 0.0020846311465 0.0023576072799 0.0026403711056 0.0029407463474 0.0032371961268 0.0035456226173 
0.0038460848937 0.0041276511772 0.0044062694056 0.00463454153 0.00483793398 0.0049687872986 0.0050580447728 0.0050573478233 0.0050003709286 
0.0048631046362 0.0046515578071 0.0043938646146 0.0040896767776 0.0037728276718 0.0034702279169 0.003221324528 0.0030347046426 0.0029284593462 
0.0028997114464 0.002925325727 0.0029732251803 0.0030223437691 0.0030561818659 0.0030597160364 0.0030377832937 0.0029865616468 0.0029062973822 
0.0028049096341 0.0026878406856 0.0025615532824 0.0024257504809 0.002291820194 0.0021575774878 0.0020290419776 0.0019041378488 0.0017892216411 
0.0016810632143 0.0015771235998 0.0014869869187 0.0014004721264 0.0013198484551 0.0012509759413 0.0011808505191 0.0011184218962 0.0010582714126 
0.0010000995338 0.00093976842359 0.00088417030702 0.00082264690806 0.00076067043166 0.00069686555015 0.00063179470241 0.00056679023033 0.00051010617446 
0.00046765871934 0.00046045733029 0.00049370534926 0.00057346676221 0.00069797533125 0.0008465518476 0.0010195022693 0.0012164929485 0.001424474686 
0.0016353308477 0.0018615322553 0.0020860122209 0.0023082481364 0.0025228279952 0.0027232749531 0.0029184756716 0.0030853800268 0.0032345853514 
0.0033589351139 0.003452991196 0.0035216353813 0.0035617629207 0.0035726047053 0.0035515496523 0.0035113747146 0.0034447020861 0.0033591773074 
0.0032504442424 0.0031353039733 0.00300532277 0.0028703187801 0.0027394206554 0.0026045760885 0.0024808145604 0.0023803996357 0.0022899045689 
0.0022339585201 0.0022004077136 0.0022089931855 0.0022613632218 0.0023403003345 0.002463868857 0.0026109456463 0.0027937309301 0.0029865945974 
0.0032041708839 0.00341390248 0.0036408821536 0.00385650816 0.0040641648123 0.0042509591308 0.004420870351 0.0045504528988 0.0046660133186 
0.0047291898017 0.0047683312137 0.0047687847821 0.0047313948095 0.0046615640752 0.0045544743554 0.0044363048333 0.0042888821726 0.0041317132527 
0.003960208563 0.0038008127482 0.0036490884477 0.0035163075701 0.0034188341405 0.0033467940831 0.0033138219873 0.0033252290573 0.003371720301 
0.0034516521965 0.0035540928539 0.0036723404954 0.0037943260226 0.0039115494373 0.0040209347951 0.0041115936348 0.0041821397416 0.0042290383866 
0.0042500098283 0.0042455213326 0.0042156046575 0.0041642443361 0.0040899805752 0.0039980898228 0.0038906763134 0.0037708152128 0.0036412722588 
0.00350575386 0.0033652246426 0.0032257822104 0.0030847484183 0.0029533183829 0.0028243081465 0.0027117062341 0.0026115242537 0.0025323847687 
0.0024796455639 0.0024580175331 0.0024697174691 0.0025116552465 0.0025968208627 0.0027052164757 0.0028485346367 0.0030038198651 0.0031850819159 
0.0033700956998 0.0035583293493 0.0037489963097 0.0039438404202 0.004128041747 0.0043166687174 0.0045054201061 0.0046948283977 0.0048858951837 
0.0050917206196 0.005314438942 0.0055489101585 0.0057924641496 0.0060728407668 0.0063585344749 0.0066673297487 0.0069881811288 0.0073164216845 
0.0076498564208 0.0079727116538 0.0082803903903 0.0085509129236 0.0087956608042 0.0089764383881 0.0090943057895 0.0091401209074 0.0091079677221 
0.008984010094 0.0087826438589 0.0084947404495 0.0081384242794 0.0077261253541 0.0072520171275 0.0067557353338 0.006222878412 0.0056928633151 
0.0051647956286 0.0046449353493 0.0041484990938 0.0036881137557 0.0032547297845 0.0028567921617 0.0025041299608 0.0021919676676 0.0019234372617 
0.0017022548311 0.0015274461398 0.0014057501559 0.001330920048 0.0013062469551 0.0013195263493 0.0013673917465 0.0014389190251 0.0015287404165 
0.0016302572569 0.0017391412102 0.0018520805163 0.0019657614832 0.0020775964129 0.0021852994481 0.0022866893217 0.0023787937661 0.0024602493284 
0.0025284477473 0.0025807816703 0.0026187828114 0.0026366026499 0.0026388941081 0.0026205599156 0.002584997921 0.0025305106747 0.0024611150529 
0.0023755257396 0.002276789591 0.0021662958357 0.0020500071042 0.0019216202713 0.0017968822573 0.0016647454596 0.0015416186017 0.0014277573143 
0.0013237243069 0.0012393917194 0.0011784432273 0.0011442565172 0.0011332851425 0.0011431183293 0.001175622568 0.0012165627822 0.0012648385346 
0.0013188089565 0.0013663776733 0.0014095251884 0.0014517900673 0.0014828439115 0.0015125671938 0.0015315119569 0.0015500975656 0.0015639730011 
0.0015735673162 0.0015812690481 0.0015846331099 0.001585488365 0.0015847899598 0.0015762034246 0.0015634938748 0.0015423093397 0.0015134850191 
0.0014776774648 0.0014229915866 0.001361169353 0.0012814666303 0.0011851715105 0.0010743056153 0.0009434381658 0.00079827241661 0.00063870294127 
0.00047529398847 0.00033535068065 0.00030051024014 0.00041946780973 0.00061833067536 0.00084570881022 0.0010812445491 0.0013140943723 0.0015393331476 
0.0017485719762 0.0019400880885 0.0021047191486 0.0022453254683 0.0023552382568 0.0024308807086 0.0024736856028 0.0024802473262 0.002450878051 
0.0023807250379 0.0022742551461 0.0021322033706 0.0019496071529 0.0017372679148 0.0015026021508 0.0012760335125 0.0011182781352 0.001137466133 
0.0013966868258 0.0018599873921 0.0024786715677 0.0032100794477 0.0040393409991 0.0049583849036 0.0059469573599 0.0070009475895 0.0080964734787 
0.0092121378111 0.010306207846 0.011356033004 0.012307285562 0.01312397663 0.013761361078 0.014188633019 0.014374823535 0.0143227626 
0.014035888115 0.013537238518 0.012856928596 0.012039145052 0.011134497179 0.010178378569 0.0092083110157 0.0082596204107 0.0073471574764 
0.0064944019405 0.0057005044 0.0049716792833 0.0043072300569 0.0037040531497 0.0031565721593 0.0026537672011 0.0021897796879 0.0017612523005 
0.0013587695856 0.00097778723016 0.00060591165195 0 
TorsionArray 1 391 double
0 0 -0.00060834752671 0.0049847737884 0.0066373534911 0.013454540817 0.023030687 0.02655610095 0.036085323664 
0.051529641941 0.068446516033 0.097359987391 0.13659832046 0.16183300684 0.18455582676 0.16446928644 0.13010944767 0.10151252609 
0.075911829224 0.06007000463 0.053093302032 0.049959322408 0.052709876657 0.060762214955 0.079783117358 0.11270569752 0.16734419164 
0.2488293116 0.2537627404 0.18357380157 0.11951821927 0.077676985103 0.05406358027 0.038595648257 0.030326680079 0.023337825088 
0.019458344725 0.016659140103 0.01368132314 0.012442817554 0.011509483556 0.010480506894 0.0097540805486 0.010005100915 0.01028059055 
0.010602619191 0.011993708639 0.013574626972 0.015802085389 0.018633965789 0.022441883202 0.027029362697 0.03357666492 0.041659210172 
0.051896426855 0.064741036258 0.080927664366 0.10135973338 0.12445421074 0.14924716416 0.17046629717 0.18479959154 0.18309372651 
0.16689579376 0.1461289548 0.12100217177 0.097091356295 0.077001328682 0.061594478089 0.050222865876 0.040321458621 0.0325675685 
0.025334437191 0.021332557188 0.016886196407 0.013253712363 0.010900625745 0.0084982343204 0.0064941180712 0.0040938015756 0.0033152333279 
0.00052459420615 -0.00073913962907 -0.0018318219539 -0.0052239658207 -0.0053638056848 -0.0073101404107 -0.010696406634 -0.011625759993 -0.014378253544 
-0.019266682671 -0.022400696964 -0.026401368858 -0.035661124105 -0.042228540077 -0.054162094916 -0.076179900407 -0.10437542248 -0.13575428899 
-0.18067314923 -0.20739640582 -0.19573583139 -0.16061977864 -0.11979056185 -0.08867163522 -0.065857562711 -0.049859862667 -0.040017036827 
-0.031767288099 -0.025094163802 -0.020993949713 -0.017460818484 -0.014954783852 -0.011809065825 -0.0098489371797 -0.0084280132343 -0.0062376934032 
-0.0049782215507 -0.0034834789126 -0.0016997375519 -0.00014755047232 0.0012036351838 0.0030694613372 0.0053483014453 0.0076558361762 0.010180079755 
0.013474761229 0.017293163393 0.021807049135 0.027668168498 0.033714169531 0.040905860715 0.049687169231 0.058115363254 0.066691801185 
0.07376203407 0.079368209602 0.081339030742 0.079309394408 0.074439046835 0.066867868179 0.05785601256 0.04849455297 0.039325475763 
0.03099820947 0.023262311953 0.015218912974 0.0089498719729 0.0036647294464 -0.0015258177288 -0.0052534346342 -0.0093058584902 -0.011928205039 
-0.013429471787 -0.015166261437 -0.014556889933 -0.013303432257 -0.010034241187 -0.0061518890779 -0.00088508360622 0.0068720956216 0.016031317347 
0.025913961072 0.036095397539 0.047875765798 0.057505549877 0.066503790041 0.074532721358 0.076619841283 0.075460151245 0.071959792015 
0.065266363738 0.057844845402 0.050265388789 0.043857199609 0.03727863935 0.031600276856 0.027378978479 0.023541815564 0.020736918504 
0.018495751552 0.016082205866 0.015307226738 0.014910737689 0.014266170313 0.014544255845 0.014852919797 0.015925450714 0.017288435551 
0.019050326251 0.021724444318 0.024512566657 0.028416505564 0.03272248806 0.037606406941 0.043465090784 0.048766944652 0.054837855174 
0.059967380419 0.063383766813 0.06422181653 0.063287905376 0.059618139336 0.054082298895 0.047364222059 0.040357878193 0.032956282748 
0.026018585223 0.019616854121 0.013656616333 0.0083343694349 0.0035881733904 -0.00056416391014 -0.0039807448621 -0.0067072628679 -0.0087807608424 
-0.010242007892 -0.010888415838 -0.01074030669 -0.010177642668 -0.0090204840667 -0.0074525999236 -0.0056568478583 -0.0036909754152 -0.0017046745182 
0.00019190060293 0.0019414763907 0.0034914924894 0.0048114508279 0.0058814593377 0.006737198487 0.0073630363338 0.0077709150236 0.0080264637862 
0.008211284312 0.0082700087231 0.008294056119 0.008282582172 0.0083470846981 0.0085100388611 0.0087625648678 0.0092342824471 0.0098142612444 
0.010884862707 0.012344096218 0.014099810853 0.016568764356 0.020156724274 0.024484201511 0.02984065074 0.03684450811 0.044964422508 
0.053928734491 0.062227194308 0.068018863434 0.069093651296 0.06459462383 0.056059324609 0.045073690767 0.03346278289 0.022289691355 
0.013898774953 0.005634404542 -0.0006938495875 -0.0051914259497 -0.0097658192115 -0.013658852031 -0.016209062371 -0.018479757577 -0.020558140464 
-0.021449796354 -0.023122799997 -0.023973233596 -0.024656568785 -0.025472841869 -0.025609133762 -0.026057754023 -0.026601027689 -0.027338583242 
-0.02799855415 -0.029097000701 -0.031071542163 -0.032917259648 -0.035964048201 -0.039801405754 -0.044464460571 -0.051199540716 -0.057943324443 
-0.065315156059 -0.072266264888 -0.076734225064 -0.077108188174 -0.073270757835 -0.065253385999 -0.054619152884 -0.043763543904 -0.032217888832 
-0.022484468942 -0.014705793443 -0.006636621115 -0.00061921526848 0.0043805938065 0.0083677947687 0.011501238946 0.014441551215 0.015941341529 
0.017045952964 0.017524846158 0.017492897825 0.017396035111 0.016642540571 0.015698292761 0.01480630751 0.013879439708 0.013310084184 
0.012462797563 0.012159176342 0.01251722899 0.01326496287 0.015397535428 0.019261295025 0.026451585932 0.040284161354 0.069247127783 
0.13768611873 0.29995859382 0.40103996496 0.21472122544 0.099781849915 0.052333394342 0.029800274528 0.018080778507 0.010947117542 
0.0064705048546 0.003108653961 0.00079159946455 -0.0008654829515 -0.0028093493371 -0.0045099584633 -0.006223015141 -0.0083306775491 -0.011309480114 
-0.015225057048 -0.020000347021 -0.028097606534 -0.04085497287 -0.061164944696 -0.09668022879 -0.1557513946 -0.23612404489 -0.26145121012 
-0.1949132955 -0.12288358132 -0.076317962328 -0.049421441423 -0.033384564845 -0.023328158007 -0.016736408551 -0.012186056012 -0.0089855828071 
-0.0066985850664 -0.0049744208045 -0.0036782466749 -0.002717486453 -0.0019586258194 -0.0013711057362 -0.00093687883048 -0.00058869854414 -0.00028989915696 
-6.818819123e-05 9.4912110684e-05 0.00021515462685 0.00032975403472 0.00041905072988 0.00046371828081 0.00050676200773 0.0005304013974 0.00054260312782 
0.0005498138596 0.00052297916921 0.00050307188765 0.00048470089439 0.00046733848373 0.00042854408312 0.00035922651951 0.00031303472223 0.00028483440296 
0.00026102015247 0.00022324836754 0 0 
TangentArray 3 391 double
0.074133016078 0.10833071195 -0.99134693865 0.074133016078 0.10833071195 -0.99134693865 0.074054652359 0.10827524328 -0.99135885539 
0.073885501506 0.10815560149 -0.99138453616 0.073630189507 0.10797241516 -0.99142349819 0.073299584356 0.1077295779 -0.99147441166 
0.072915173376 0.10743402593 -0.99153482418 0.072503842811 0.10709159095 -0.991602029 0.072087352217 0.10671162313 -0.99167335506 
0.071690242357 0.10630154367 -0.99174618273 0.071343453069 0.10587241128 -0.99181709213 0.071068133406 0.10543464287 -0.99188348938 
0.070889034543 0.10499735306 -0.9919426902 0.070824303304 0.104572877 -0.99199215292 0.07087768518 0.10417069114 -0.9920306552 
0.071058148057 0.10379971207 -0.99205663113 0.071363652244 0.10346654102 -0.99206950564 0.07178472049 0.10317962185 -0.99206900946 
0.072310042862 0.10294739883 -0.99205498375 0.072918941909 0.10277327704 -0.99202846806 0.073586220281 0.10265936146 -0.99199098972 
0.074284161389 0.10260935922 -0.99194414297 0.07498098596 0.10262392003 -0.99189020702 0.075648670297 0.10270361958 -0.99183125843 
0.076257261907 0.10284801936 -0.99176968845 0.07677242603 0.1030561965 -0.9917083316 0.077170600417 0.10332646326 -0.99164930314 
0.077422187908 0.10365464036 -0.99159544188 0.077498767164 0.10403958248 -0.9915491447 0.077379590177 0.1044794529 -0.9915122001 
0.077043675496 0.10497027803 -0.9914865167 0.076471303212 0.10550901906 -0.99147364397 0.07564372557 0.10609381523 -0.99147472441 
0.074544513591 0.10672271513 -0.99149048284 0.073163447596 0.10739279735 -0.9915210018 0.07148519276 0.1081020997 -0.9915663383 
0.069498961567 0.10884958034 -0.99162576772 0.067197544943 0.10963207697 -0.99169818879 0.064568647882 0.11044635956 -0.99178248188 
0.061613782155 0.11129075348 -0.99187605578 0.058328296963 0.11216069063 -0.99197670802 0.054711442262 0.11304997739 -0.99208183165 
0.050766938562 0.11395400265 -0.99218808863 0.046508022345 0.11486575118 -0.99229172276 0.041951258429 0.11577332636 -0.99238935344 
0.037114107397 0.11666459938 -0.99247766437 0.032032513085 0.11752541601 -0.99255311933 0.026735414842 0.11833716413 -0.9926134863 
0.021266290253 0.11907839531 -0.99265708111 0.015678024579 0.11972500194 -0.99268329464 0.010029630669 0.12025074469 -0.99269288549 
0.0043853362224 0.1206277704 -0.99268812315 -0.0011869216903 0.12082858431 -0.99267267739 -0.0066139641201 0.1208229836 -0.99265203476 
-0.011830135798 0.12058271527 -0.99263279044 -0.016758808518 0.12008340107 -0.99262234466 -0.021337071945 0.11930574222 -0.99262826337 
-0.025507950027 0.11823502121 -0.99265795934 -0.02921927113 0.11686331081 -0.99271808726 -0.032434596663 0.11519256213 -0.99281351248 
-0.035134309593 0.11323043327 -0.99294735473 -0.037310038728 0.11099456259 -0.99312041973 -0.03896077263 0.10850967051 -0.99333162116 
-0.040107867461 0.10580677426 -0.99357751861 -0.040785793884 0.10292034393 -0.99385306853 -0.041025887052 0.099888164384 -0.99415251909 
-0.040873654143 0.096751311082 -0.99446896794 -0.040381401149 0.093549085003 -0.9947954117 -0.039602978598 0.090318998213 -0.99512515929 
-0.038588259961 0.087094712683 -0.99545238822 -0.037381027198 0.083904117379 -0.99577244283 -0.036026864398 0.080774015096 -0.996081133 
-0.03456708696 0.077725942757 -0.99637532804 -0.033041017786 0.074773587259 -0.99665299969 -0.031474904971 0.071929290049 -0.99691298898 
-0.029896728797 0.069200528173 -0.99715468835 -0.02832768292 0.066590971927 -0.99737815538 -0.026782465717 0.064101164312 -0.99758395149 
-0.025273394598 0.061730020729 -0.99777284993 -0.023810265699 0.059474289573 -0.99794583026 -0.022400789772 0.057327890557 -0.9981040615 
-0.021046221377 0.055285441786 -0.99824875482 -0.019754873962 0.053340863856 -0.99838093792 -0.018526390499 0.051486699915 -0.99850182403 
-0.017360024592 0.049715463151 -0.99861253861 -0.016262847508 0.048020518 -0.99871394786 -0.015229158832 0.046395529874 -0.9988070522 
-0.014260992933 0.044835069351 -0.99889260716 -0.013363428765 0.04333470058 -0.99897123207 -0.012534433783 0.041891053929 -0.99904355639 
-0.011777313908 0.040502296321 -0.99911003341 -0.01110080393 0.039167813243 -0.99917098364 -0.010506704891 0.037888159381 -0.99922674931 
-0.0099998003917 0.036666548857 -0.99927752311 -0.0095927815999 0.035507774369 -0.99932335933 -0.0092890593909 0.034418493513 -0.99936433831 
-0.0090974297182 0.033406582487 -0.99940043877 -0.0090346536157 0.032481818728 -0.99943149164 -0.0091132325608 0.031655599859 -0.99945728873 
-0.0093388554761 0.030940676558 -0.9994775937 -0.0097277717024 0.030351528446 -0.99949194853 -0.010294338485 0.029902276095 -0.99949981515 
-0.011046126425 0.029607809591 -0.99950055563 -0.011998887544 0.029483331047 -0.99949325155 -0.013161322888 0.029544085593 -0.99947682644 
-0.014537446146 0.029803417449 -0.99945005827 -0.016139098394 0.030272962424 -0.99941136538 -0.017973340405 0.030962812564 -0.99935892615 
-0.020034133645 0.031880880127 -0.99929087005 -0.022322392592 0.033031804434 -0.99920498932 -0.024839010535 0.034415718109 -0.99909888495 
-0.027573415443 0.036030074035 -0.99897024006 -0.030513853676 0.037867708389 -0.99881677068 -0.033642388637 0.039917503551 -0.99863646168 
-0.036947523086 0.042163707453 -0.99842731449 -0.040409290204 0.044587444757 -0.99818788263 -0.044000970767 0.047166311919 -0.99791745831 
-0.047703155706 0.049873787827 -0.99761566458 -0.051487972715 0.052682057539 -0.99728310398 -0.055329727018 0.055561329201 -0.99692104001 
-0.059206158061 0.058480612848 -0.99653130847 -0.063092782852 0.061408531093 -0.99611660616 -0.066962807331 0.064313602999 -0.9956805426 
-0.070796875927 0.067166230865 -0.99522685846 -0.07457961451 0.069937599615 -0.99475957561 -0.078294630932 0.072599878122 -0.99428326369 
-0.081926587886 0.075126913717 -0.9938027878 -0.085467300642 0.077495289516 -0.99332261659 -0.088912218906 0.079684368338 -0.99284692615 
-0.092256139541 0.081673337432 -0.99238010393 -0.095503958239 0.083444836698 -0.99192537682 -0.098657105507 0.084983968215 -0.9914860063 
-0.10171807752 0.086276394699 -0.99106499102 -0.10470282251 0.087310949883 -0.99066347313 -0.10762067386 0.088077800578 -0.99028283415 
-0.11048202326 0.088568636706 -0.98992389562 -0.11329970361 0.088778106221 -0.98958659299 -0.11608625113 0.088701256768 -0.9892704733 
-0.11886462239 0.08833570816 -0.98897320702 -0.12164705916 0.087682500189 -0.98869296152 -0.12444817866 0.086744789754 -0.98842702931 
-0.12728435706 0.085528011354 -0.98817187357 -0.13017193096 0.084040803273 -0.98792328233 -0.13312460671 0.082295108816 -0.98767674578 
-0.13615537514 0.080306003232 -0.98742729336 -0.1392723239 0.078093201548 -0.98717003179 -0.14248393845 0.075678614993 -0.9868997287 
-0.14580363212 0.073088573238 -0.98661003508 -0.1492333127 0.070353143801 -0.98629602734 -0.15277213516 0.067502938208 -0.98595335998 
-0.156418316 0.064571396185 -0.98557792448 -0.16016051375 0.061592683359 -0.98516747368 -0.16399086505 0.058600031041 -0.98471977361 
-0.16789433368 0.055623892674 -0.98423446154 -0.1718483014 0.052691251951 -0.98371326781 -0.17583752379 0.049824290488 -0.98315751805 
-0.17983418071 0.04703801546 -0.98257167298 -0.18381134719 0.044341641775 -0.98196089914 -0.18773707862 0.041735113757 -0.98133224221 
-0.19158713199 0.039210217421 -0.98069206671 -0.19533720643 0.036751956245 -0.98004727922 -0.19895761083 0.034337677008 -0.97940634725 
-0.20242110857 0.031938819526 -0.97877760835 -0.20570758788 0.029522881326 -0.97816807746 -0.20880276679 0.027054165895 -0.97758348835 
-0.21168781757 0.024494388871 -0.97703034385 -0.21435559109 0.021806609372 -0.97651223871 -0.21679440157 0.018954750308 -0.97603324989 
-0.21898831633 0.01590483978 -0.97559784408 -0.22093629057 0.012627960061 -0.9752064859 -0.2226368434 0.0090997728157 -0.97485897959 
-0.22408724119 0.0053009094481 -0.97455467199 -0.22529090443 0.0012196140967 -0.97429077842 -0.22625152547 -0.0031496228104 -0.97406382085 
-0.2269741843 -0.0078052206034 -0.97386949752 -0.22746081909 -0.012736889588 -0.97370393212 -0.22772068473 -0.017929653393 -0.97356140909 
-0.22776418801 -0.02336111859 -0.97343604453 -0.22759922781 -0.029002470319 -0.97332289001 -0.22723763919 -0.034821220998 -0.97321659352 
-0.22668976545 -0.040780243834 -0.97311290298 -0.22596690216 -0.046839591921 -0.973008228 -0.22508688791 -0.052958842733 -0.97289837797 
-0.22405680184 -0.059096853038 -0.97278266407 -0.22288424885 -0.065212394738 -0.97266127464 -0.22158126922 -0.071265505864 -0.97253430212 
-0.22015403965 -0.077219031847 -0.97240393867 -0.21861019827 -0.083038388766 -0.97227270208 -0.21695262221 -0.088691057264 -0.97214477115 
-0.21518335718 -0.094148183841 -0.97202481567 -0.2133033614 -0.09938330605 -0.9719180184 -0.21130791283 -0.10437261922 -0.97183091242 
-0.20919495956 -0.10909500558 -0.97176939068 -0.20695582897 -0.11353170109 -0.97174062265 -0.20458309303 -0.11766608989 -0.97175122811 
-0.20206856164 -0.12148302714 -0.97180768186 -0.19939909418 -0.1249698427 -0.97191694072 -0.19656801267 -0.1281163757 -0.97208395248 
-0.19356098081 -0.13091379341 -0.97231462264 -0.19036426578 -0.13335662892 -0.97261372386 -0.1869662465 -0.13544229475 -0.97298458747 
-0.18336145399 -0.13717179396 -0.973428208 -0.17953843144 -0.13855033001 -0.9739454593 -0.1754897453 -0.13958712691 -0.97453516268 
-0.17121150852 -0.14029744479 -0.97519395319 -0.16670176906 -0.14070057288 -0.97591693754 -0.16195864085 -0.14082035755 -0.97669802168 
-0.15697895646 -0.14068662429 -0.97752998981 -0.15177017282 -0.14033270854 -0.97840305884 -0.14633484288 -0.13979440988 -0.97930773341 
-0.14067025605 -0.13910975194 -0.98023484736 -0.13478020776 -0.13831770978 -0.98117404509 -0.12866653852 -0.13745702607 -0.98211531291 
-0.12232253329 -0.13656386614 -0.98305010468 -0.11574476114 -0.13567120083 -0.98396975336 -0.1089297783 -0.13480791319 -0.9848660467 
-0.10186557786 -0.13399731505 -0.98573227786 -0.09453085131 -0.13325739496 -0.98656291479 -0.086908027162 -0.13259980691 -0.98735215907 
-0.078986245037 -0.13202902887 -0.98809387643 -0.070737650295 -0.13154377501 -0.9887833029 -0.06213688018 -0.13113652095 -0.98941509034 
-0.053167815528 -0.13079401743 -0.98998288288 -0.043808440248 -0.13049831454 -0.99048019186 -0.034046038212 -0.1302271803 -0.99089946452 
-0.023870636763 -0.1299552756 -0.99123247477 -0.013282145932 -0.12965568167 -0.99147011494 -0.0022917467198 -0.12930094262 -0.99160275016 
0.0090741653896 -0.12886451595 -0.99162069162 0.020784799621 -0.12832179701 -0.99151475456 0.032793822739 -0.12765168663 -0.99127675857 
0.045031955831 -0.12683799903 -0.99090072407 0.05742583492 -0.12586980227 -0.99038329265 0.069892304506 -0.12474257708 -0.98972438347 
0.082333756223 -0.12345848325 -0.98892828633 0.094650664791 -0.12202470649 -0.98800365519 0.10674319875 -0.12045436544 -0.98696334044 
0.11851284757 -0.11876500678 -0.98582431403 0.12987659281 -0.11697640835 -0.98460580464 0.1407490093 -0.11511077495 -0.98333067982 
0.15106266892 -0.11318968442 -0.98202248722 0.16076121291 -0.11123405836 -0.98070526494 0.16980167805 -0.1092627226 -0.97940239309 
0.17816502508 -0.10729050279 -0.97813392327 0.18583235189 -0.10532883073 -0.97691973796 0.19279909882 -0.10338532868 -0.9757766042 
0.19908211079 -0.10146302194 -0.97471614757 0.20470017364 -0.099560873384 -0.97374815605 0.20967134535 -0.097674183949 -0.97288112364 
0.21402999156 -0.095794531121 -0.972118599 0.21781488126 -0.093910503433 -0.97146152515 0.22106233637 -0.0920079986 -0.97090986792 
0.22381338852 -0.090070849019 -0.97046113229 0.22610829831 -0.088081322628 -0.9701117039 0.22799086476 -0.08602047039 -0.96985599151 
0.22950301694 -0.083868706038 -0.96968778757 0.23068899845 -0.081606296832 -0.96959940094 0.23159162051 -0.079214162714 -0.96958261006 
0.23225207058 -0.076674048075 -0.96962882902 0.23271146732 -0.0739691425 -0.96972879659 0.23301174403 -0.071085280354 -0.96987236792 
0.23319785383 -0.068011077716 -0.97004806802 0.23330627081 -0.064738577509 -0.97024589697 0.23338056436 -0.061263901262 -0.97045362928 
0.23346034514 -0.057587982232 -0.97065951371 0.2335779568 -0.053717142888 -0.97085313341 0.23377055758 -0.049663055258 -0.97102260908 
0.2340734032 -0.045442785319 -0.97115631861 0.23451266074 -0.04107905283 -0.97124472888 0.23511146357 -0.036599664761 -0.97127908669 
0.23589008138 -0.032036800641 -0.97125151887 0.23685606211 -0.027426188248 -0.9711575619 0.23801992494 -0.022805981321 -0.97099248326 
0.23938178357 -0.018215795237 -0.97075462734 0.24093557293 -0.013695480253 -0.9704444773 0.2426728064 -0.0092838138462 -0.97006377102 
0.2445747305 -0.0050176192484 -0.96961746307 0.24662194202 -0.0009309427664 -0.96911132026 0.24879264396 0.0029455601663 -0.96855229285 
0.25106391819 0.006584962838 -0.96794811186 0.25340941937 0.0099642106601 -0.96730780038 0.25580407979 0.01306419511 -0.96664036724 
0.25822760546 0.015869472002 -0.96595375854 0.26065490925 0.018367939725 -0.96525729061 0.26306724333 0.020550822458 -0.96455859811 
0.26544749226 0.022412294878 -0.96386478195 0.2677789635 0.023949216135 -0.9631826731 0.27005726936 0.025161110878 -0.9625154491 
0.27227274912 0.02605008229 -0.96186742501 0.27441990856 0.026620911462 -0.96124140613 0.27650063629 0.026880994296 -0.96063771021 
0.27851986662 0.026840595581 -0.96005534545 0.28048277528 0.02651300333 -0.95949282094 0.28239401195 0.025914620904 -0.95894841073 
0.28426675185 0.025064689727 -0.95841753695 0.28611413844 0.023985249192 -0.95789530096 0.2879470685 0.02270109434 -0.95737722244 
0.28978524934 0.021238982815 -0.9568560053 0.29164266732 0.019627215681 -0.95632595228 0.29352829314 0.01789509002 -0.95578287643 
0.29546109127 0.016072056914 -0.95521957294 0.29745250466 0.014186925517 -0.95463120555 0.29951218007 0.01226724916 -0.95401361027 
0.30164715196 0.010338648603 -0.95336357601 0.30386161692 0.0084243044575 -0.95267893272 0.30616261136 0.0065445703585 -0.95195673431 
0.30854795198 0.0047167639809 -0.95119709496 0.31101478487 0.0029551185297 -0.9504004792 0.31355685468 0.001270902382 -0.94956857767 
0.31616454089 -0.00032741127155 -0.94870431425 0.31882940863 -0.0018337884004 -0.94781034253 0.32153599297 -0.0032441672577 -0.94689179984 
0.32426555702 -0.0045560705928 -0.9459551209 0.32699889627 -0.0057680629991 -0.94500711706 0.32971357795 -0.0068792571695 -0.94405594767 
0.33238949435 -0.0078889275256 -0.94310921365 0.33499646417 -0.0087958396433 -0.94217832824 0.33750546157 -0.0095979492034 -0.94127463728 
0.33989019006 -0.010292172683 -0.94040880998 0.34211665376 -0.010873953112 -0.93959456808 0.34415558382 -0.011337278991 -0.93884418315 
0.34597565836 -0.011674509171 -0.93817085313 0.34754586999 -0.011876545609 -0.93758776438 0.34883829966 -0.011933075509 -0.93710695355 
0.34982591816 -0.011832819664 -0.93673999133 0.35048565724 -0.011564100717 -0.93649670349 0.35080088198 -0.011115475064 -0.9363841025 
0.35075722597 -0.010476324752 -0.93640782518 0.35034590342 -0.0096374718194 -0.93657080197 0.3495666238 -0.0085919999486 -0.93687211137 
0.34842357856 -0.0073357553031 -0.93730848529 0.34692986028 -0.0058679574697 -0.93787272011 0.34510344262 -0.0041915099199 -0.93855529679 
0.34296904578 -0.0023130984087 -0.93934385781 0.34055649397 -0.00024336077754 -0.94022402394 0.33790261842 0.0020033195177 -0.94117894535 
0.3350473335 0.0044091194949 -0.94219098063 0.33203178779 0.0069530652483 -0.94324257049 0.32890618422 0.0096116441423 -0.94431368638 
0.32572187229 0.012359209689 -0.94538484854 0.32253183291 0.015168355741 -0.94643707543 0.31939269619 0.018010533919 -0.94745127911 
0.31636726652 0.020856527659 -0.94840748517 0.31352078367 0.023676677031 -0.94928611765 0.31091546853 0.026440864615 -0.95006970908 
0.30862510819 0.029119506898 -0.95073792231 0.30672770811 0.03168328434 -0.95126982637 0.30530343939 0.034103007725 -0.95164425851 
0.30443868686 0.036350523096 -0.95183807731 0.30422164578 0.038397977289 -0.95182707756 0.30475403318 0.040218780713 -0.95158154088 
0.30613873041 0.041786968 -0.95106935974 0.30847541123 0.043076611128 -0.95025645288 0.31187710374 0.044063459621 -0.94910014418 
0.31645806903 0.044724778742 -0.94755157364 0.32232670819 0.045038321373 -0.94555647256 0.32959231073 0.044983766401 -0.94305109589 
0.3383509692 0.044542852846 -0.93996518866 0.34868471274 0.043700196204 -0.93622073463 0.36065783605 0.042444810632 -0.93173191603 
0.37430338971 0.040770557433 -0.92640959305 0.38961056521 0.038677700694 -0.92016718206 0.40652547192 0.03617518311 -0.9129229961 
0.42494302042 0.033281372371 -0.90460808069 0.44469725632 0.03002488168 -0.89517755596 0.46556932236 0.026445913656 -0.88461619911 
0.48729008031 0.022595475258 -0.87294777743 0.50954817999 0.01853346615 -0.86024250238 0.53201256015 0.014326808421 -0.84661524815 
0.55435466686 0.010046262566 -0.8322199084 0.57625941775 0.0057620887231 -0.81724652449 0.59744223851 0.0015406072323 -0.80191046768 
0.61766362757 -0.0025589004484 -0.78643823356 0.63674500352 -0.0064866208418 -0.77104716084 0.65456216845 -0.010203493892 -0.75593932055 
0.67103733982 -0.013681402033 -0.74129731404 0.68614306062 -0.016902609846 -0.72727024011 0.69988651575 -0.019858378443 -0.71397794775 
0.71230418536 -0.02254743823 -0.70150863185 0.72345081735 -0.024974096303 -0.6899240606 0.73338744732 -0.027146490783 -0.67926866566 
0.74218346199 -0.029075325525 -0.66956578033 0.74990947667 -0.030772561691 -0.66082435355 0.75663346533 -0.032250513289 -0.65304341627 
0.76241315373 -0.033520797379 -0.64622174148 0.76729573945 -0.034593893051 -0.64035967299 0.77132533055 -0.035479126709 -0.63545138761 
0.77453882931 -0.036184322674 -0.6314905357 0.77696447184 -0.036715606037 -0.62847289024 0.7786181188 -0.037077151334 -0.6264017161 
0.7786181188 -0.037077151334 -0.6264017161 
NormalArray 3 391 double
0.81156487948 0.57114658714 0.12310167502 0.81156487948 0.57114658714 0.12310167502 0.80958840468 0.57393210662 0.12316067554 
0.81058583889 0.57258341699 0.12287728993 0.80324669883 0.5827823952 0.12312359915 0.79703442926 0.59124117459 0.12316652162 
0.77741561969 0.61664656093 0.12398376165 0.74842926614 0.65131593145 0.1250647473 0.71756794175 0.68501947069 0.1258752309 
0.66153720434 0.73907349218 0.12703897207 0.5813458084 0.80358943731 0.12759728564 0.46915350817 0.87400677309 0.12651935175 
0.26813297009 0.95583658299 0.12033759584 0.020281714264 0.99413294625 0.10624658701 -0.28269461106 0.95585347649 0.080174112778 
-0.5695707989 0.8207054313 0.04507438376 -0.75942002865 0.65046651066 0.01321130526 -0.87673470519 0.48078659356 -0.013435332334 
-0.94204145257 0.33376627365 -0.034029049476 -0.9743358199 0.21973387604 -0.048854209424 -0.99102566336 0.11883013861 -0.061217094959 
-0.99709221748 0.024598090639 -0.072125195145 -0.99436820096 -0.067016007127 -0.082101983562 -0.98089760788 -0.17110689271 -0.092532773261 
-0.95044375866 -0.29316919895 -0.10348179752 -0.88035448813 -0.45992647028 -0.11594661339 -0.73984635817 -0.66079007121 -0.12642724428 
-0.42096872285 -0.8981747242 -0.12675763953 0.034232483278 -0.99423153226 -0.10164544924 0.43339664062 -0.89914167678 -0.060922877226 
0.65560513987 -0.75454906841 -0.02894138787 0.77882625706 -0.6272042004 -0.0066747523947 0.8445776024 -0.53538546508 0.0071468385372 
0.88572753801 -0.46390647974 0.016658525416 0.91058966085 -0.41269915724 0.022491668791 0.9291598689 -0.36870622114 0.026789186594 
0.94098061348 -0.33722153544 0.028933044915 0.95095049053 -0.30784533071 0.030404225475 0.95813931624 -0.28465392555 0.03067887453 
0.96368230692 -0.26535077764 0.030089468912 0.96858954925 -0.2469647377 0.029029354308 0.97261312259 -0.23081697377 0.027335661403 
0.97603247655 -0.21617111793 0.025112795559 0.97899949234 -0.20262504659 0.022429545233 0.98194107746 -0.18817343744 0.019557040843 
0.98455373576 -0.17431976415 0.016326702574 0.98707137735 -0.15975817998 0.012939086077 0.98964412235 -0.14322262471 0.0095807552902 
0.99209799152 -0.12531105612 0.0062220926906 0.994526396 -0.10443931009 0.0031109747634 0.99674560751 -0.080610796067 0.00030571595879 
0.99863235096 -0.052246291204 -0.0019371794154 0.99981256074 -0.01903949927 -0.0035129555157 0.99974665364 0.022156535605 -0.003964400032 
0.99744342937 0.071388138998 -0.0032154041376 0.99120085371 0.13236444562 -0.00072189841682 0.97869512517 0.20528670203 0.003636199159 
0.95527573435 0.29552461285 0.010652443851 0.91560667756 0.40156121835 0.020322399649 0.85135616097 0.52355336162 0.032932730092 
0.75644199477 0.65232482042 0.047621814577 0.62712649512 0.77634863859 0.063207202764 0.47004315228 0.87922484502 0.077608677923 
0.30613196141 0.94785901651 0.088580511542 0.15022114524 0.98400622666 0.095735852339 0.009601166327 0.99498369064 0.099575463708 
-0.10317162226 0.98957176933 0.10051532076 -0.19664537879 0.97539179681 0.099706758665 -0.2679004881 0.95848464422 0.09765508314 
-0.32837654242 0.93976222493 0.094951603385 -0.37547580727 0.92227409504 0.091806382019 -0.41490548859 0.90555609975 0.088439729384 
-0.4454604556 0.8912594098 0.08498027379 -0.46961469491 0.87909957682 0.081522833352 -0.49194624384 0.86711584963 0.078096072166 
-0.50647148163 0.85900631213 0.074798355666 -0.52143380324 0.85028413047 0.071579929557 -0.53069303962 0.84478898385 0.068530799339 
-0.54082564176 0.83857433741 0.065579767067 -0.54534539039 0.83585365922 0.062825675814 -0.55044969285 0.83269642862 0.060181337692 
-0.55307487034 0.83113174433 0.057690652304 -0.55153547664 0.83231095296 0.055381364923 -0.55148291188 0.83249068284 0.053158827026 
-0.54687093088 0.83565542752 0.051109602022 -0.53839206637 0.84125602872 0.049216633501 -0.53372443015 0.84433137139 0.047357870952 
-0.51919572549 0.85343166888 0.04571854302 -0.50622152801 0.86127348593 0.044133286869 -0.48833136245 0.87161422543 0.042674611509 
-0.46758659668 0.88298162555 0.041306458941 -0.43492637183 0.89957289639 0.04009557547 -0.40567528622 0.91318947494 0.038891451728 
-0.35839992428 0.93280201806 0.037813878126 -0.30144792542 0.95277424967 0.036747482035 -0.23197067006 0.97206984423 0.035634620522 
-0.13463536149 0.99030041397 0.034327969925 0.0075193590998 0.99944623208 0.032414324349 0.19099473137 0.98115264383 0.029334316153 
0.41689396253 0.90863203989 0.024233037082 0.67437193419 0.73822160816 0.015854072606 0.86782168767 0.49684041829 0.0059259732471 
0.96987561721 0.24357547794 -0.0035033820565 0.99937488655 0.033596047193 -0.011006440993 0.99221729491 -0.12339169719 -0.016713130925 
0.9714050918 -0.2364814958 -0.021181354457 0.94751045663 -0.3187493147 -0.024956140564 0.92446290749 -0.38021232558 -0.028406340062 
0.9023202392 -0.42989140857 -0.031805074658 0.88409081655 -0.46599090067 -0.035155491584 0.86777641323 -0.49545028495 -0.038640804625 
0.85351130593 -0.5193553611 -0.04229018267 0.8412088613 -0.53873948698 -0.04612392908 0.83001993164 -0.55547308692 -0.050165354419 
0.82205035526 -0.56681435021 -0.054357205712 0.81381090672 -0.57815038157 -0.058770267924 0.80783840967 -0.58599326153 -0.063316674819 
0.80308335328 -0.59197441402 -0.067995741224 0.79911307574 -0.59675893549 -0.07278093906 0.79676778056 -0.59927967528 -0.077620710178 
0.79573153124 -0.60000601417 -0.08248704836 0.79593664858 -0.59904586758 -0.087343574417 0.79710540297 -0.59676669615 -0.09215469016 
0.80032570785 -0.5916891432 -0.096864437101 0.80511565248 -0.58437772875 -0.10144681498 0.81186933135 -0.57416291605 -0.10585430856 
0.82036844071 -0.56114597565 -0.11004915039 0.8317080422 -0.54339300115 -0.11395516154 0.84515822757 -0.52143352508 -0.11753573622 
0.86172858789 -0.49281120943 -0.12066877256 0.88112259565 -0.45654607756 -0.12324224314 0.90236119177 -0.4124132507 -0.12513828446 
0.92538885364 -0.35742969046 -0.12609316375 0.94866286691 -0.29017836222 -0.12583832108 0.96939707656 -0.21177129649 -0.12418625507 
0.9851805416 -0.12172198405 -0.12084311756 0.99298394804 -0.023818715327 -0.11582550557 0.99086045959 0.07923236663 -0.10916859298 
0.97847222196 0.17966276564 -0.10155491862 0.95715150906 0.27409219664 -0.093458313914 0.9303533325 0.35647168518 -0.085852282304 
0.90050934748 0.42760333842 -0.078982909979 0.87203868726 0.4838497554 -0.073742403875 0.84505636407 0.53011059647 -0.069731607219 
0.82317221485 0.56374633827 -0.067657747465 0.8040736956 0.59077565206 -0.066705479285 0.79104762395 0.60800996264 -0.067583592481 
0.7821625104 0.61916123594 -0.069722100057 0.77747108928 0.62465839402 -0.073079382216 0.77574186948 0.62629546205 -0.077321058943 
0.77792216185 0.62290112259 -0.082651688253 0.78112295056 0.61809550094 -0.088345276223 0.78818414468 0.60805124446 -0.095075960103 
0.79453209515 0.59864470167 -0.10170187286 0.80288585389 0.58610813829 -0.1088648513 0.81089300253 0.57359034001 -0.11595973566 
0.81803422506 0.56190318693 -0.12282025544 0.82418858513 0.55133791369 -0.1293819194 0.82738358522 0.54514599495 -0.13510087753 
0.82913135604 0.54115186168 -0.14034192899 0.82646447602 0.54417682863 -0.14431926088 0.81963322225 0.55368417468 -0.14708914202 
0.80624285009 0.57275988373 -0.14804925623 0.78710440473 0.59893665311 -0.14745013265 0.75905372998 0.63477548921 -0.14455972227 
0.72098724219 0.67882428327 -0.13919406975 0.67414000999 0.72675761084 -0.13175212341 0.61446837754 0.77955367251 -0.12134531174 
0.54531666976 0.83113191583 -0.10885526251 0.47168353639 0.87657992182 -0.095510638984 0.39431422197 0.91535383722 -0.081508570352 
0.31866257516 0.94541653927 -0.068130246339 0.24789363385 0.96716093817 -0.056111192952 0.18299583758 0.98205181758 -0.045680970036 
0.12536093197 0.99141492248 -0.037162995195 0.072608915811 0.99690913163 -0.030002143402 0.028682995403 0.99927306577 -0.025112263941 
-0.011509061 0.99970691055 -0.021298697409 -0.046028620145 0.99875946672 -0.018997203884 -0.077266218774 0.99685468148 -0.017625988025 
-0.10525316021 0.99429758378 -0.01714896972 -0.13119087106 0.99120706431 -0.017248507456 -0.15316549738 0.98803022834 -0.018346615372 
-0.17753548112 0.98393321663 -0.018883277088 -0.19885270885 0.97982271765 -0.02012565906 -0.22184186669 0.9748588241 -0.020891607435 
-0.24427709321 0.96946307222 -0.021680713278 -0.26849278301 0.9630331692 -0.021880139314 -0.29426899869 0.95548079419 -0.021499031369 
-0.32260616328 0.94631684676 -0.0202407746 -0.35351307402 0.93525541925 -0.018050132055 -0.38945927605 0.92093382887 -0.014225158834 
-0.42778735813 0.90383076104 -0.0093771865302 -0.47383989331 0.88060881192 -0.0019687233904 -0.52225160445 0.85276520088 0.0066913234626 
-0.57840284503 0.81554557224 0.018318527825 -0.63729969613 0.76996185389 0.031746509467 -0.6992598486 0.71329504719 0.047390292176 
-0.76200692817 0.64430400275 0.064944541435 -0.82126099298 0.56443160762 0.083350715191 -0.8737885973 0.47555147481 0.10170684359 
-0.91597479537 0.383331203 0.11852157206 -0.94776589225 0.28968392076 0.13350295707 -0.96848621689 0.20219246068 0.1454395288 
-0.98034073045 0.12278966892 0.15444982819 -0.98554215419 0.054177144872 0.16053504068 -0.98644897443 -0.0032011415533 0.16403711025 
-0.98504599669 -0.048860922738 0.16521802153 -0.98277309369 -0.084195206876 0.16452420324 -0.98062778916 -0.10980888456 0.16220711452 
-0.97918313677 -0.12678466076 0.15851193793 -0.97867022009 -0.13635814454 0.15365889733 -0.97917180534 -0.13923728323 0.14776858457 
-0.98052465334 -0.13671264152 0.14100020514 -0.98251653654 -0.12979578906 0.13347025348 -0.98488748656 -0.11956948269 0.12529875349 
-0.98740849908 -0.10693330511 0.11657497243 -0.98988198912 -0.092756054914 0.10737766014 -0.99210310974 -0.078450336177 0.097861966017 
-0.99399477223 -0.064870691346 0.088125967687 -0.99555969554 -0.052407212437 0.07819447995 -0.99678309443 -0.042125480582 0.068182890407 
-0.99772453229 -0.034203281157 0.058102437353 -0.99842783432 -0.028981648365 0.047978367237 -0.99893183347 -0.026559432531 0.037812545797 
-0.99925867956 -0.026854711658 0.027584701998 -0.99941054843 -0.02967071597 0.017268592767 -0.99937150035 -0.034781452344 0.0068450606159 
-0.99911623352 -0.041869433756 -0.0037016791433 -0.99861510171 -0.050606058854 -0.01438420791 -0.99783859519 -0.060690402188 -0.025195496207 
-0.99676353041 -0.071825683279 -0.036104510231 -0.99537731941 -0.08371275241 -0.047076183918 -0.99367912121 -0.096075808516 -0.058062406798 
-0.99166702525 -0.10880476141 -0.068978510617 -0.98934662896 -0.12180061696 -0.079736174244 -0.9867452411 -0.13485854723 -0.090260741213 
-0.98386286425 -0.14807448139 -0.10043810187 -0.98073870025 -0.16126345033 -0.11020753798 -0.97731690209 -0.17490604189 -0.11941335517 
-0.97365137825 -0.18871405304 -0.12802343462 -0.96961532653 -0.20343468372 -0.13586923129 -0.96523529752 -0.21884108899 -0.14293144576 
-0.96032211258 -0.23571366309 -0.14906545247 -0.95461936172 -0.25485526924 -0.15411251076 -0.94788164311 -0.27670537238 -0.15797002105 
-0.939741585 -0.30186126023 -0.16051645708 -0.9292407822 -0.33237707615 -0.16135999488 -0.91527309272 -0.36963285365 -0.16014593108 
-0.89658412832 -0.41427127166 -0.15657654462 -0.87051933458 -0.46875984816 -0.14986758446 -0.83384009035 -0.53415778939 -0.13923419038 
-0.78290394535 -0.60966550381 -0.12397332705 -0.71304497471 -0.69347731112 -0.10322830523 -0.62477592893 -0.77690197118 -0.07796387502 
-0.51805187062 -0.8539587335 -0.048751829047 -0.40759482955 -0.91294080333 -0.020138136222 -0.29810959017 -0.95450759288 0.0067769745743 
-0.20628928058 -0.97809230864 0.027931496396 -0.13005183422 -0.99051502136 0.044345381662 -0.078232385461 -0.99546259935 0.05416555324 
-0.043417542413 -0.99728464868 0.059483161649 -0.023236340252 -0.99786761814 0.060994173162 -0.019518105472 -0.99810736299 0.058315825463 
-0.023688870267 -0.99828525019 0.05352940005 -0.03667474071 -0.99824903429 0.04640936251 -0.057733027328 -0.99764151833 0.037125442319 
-0.084884078324 -0.99604766968 0.026148288224 -0.11495625556 -0.99326828781 0.014253691884 -0.14962882978 -0.98874169322 0.001037972874 
-0.18644460157 -0.98238106633 -0.012878317942 -0.22334969643 -0.97436557982 -0.026956074671 -0.26470582504 -0.96340279137 -0.042259765394 
-0.3033911389 -0.95116175055 -0.056966140265 -0.34536259984 -0.93566161574 -0.072539750934 -0.3851818524 -0.91867686627 -0.087565723636 
-0.42567016366 -0.89902943322 -0.10271801196 -0.46494902792 -0.87750852353 -0.11747847705 -0.50491585892 -0.85297055795 -0.13229211119 
-0.54404851196 -0.82612368066 -0.14673404813 -0.58329156875 -0.79614526878 -0.16100825081 -0.62256572717 -0.76273596835 -0.17505929836 
-0.66365851806 -0.72368580951 -0.18930457078 -0.70361664913 -0.68097765561 -0.20296069479 -0.74687640174 -0.6285282921 -0.21708944367 
-0.78915139863 -0.56927859682 -0.23056875168 -0.83313425455 -0.49635496524 -0.24396528929 -0.87591253299 -0.40867445241 -0.25644185794 
-0.91405648681 -0.30529947808 -0.26700742988 -0.94368523232 -0.1846511168 -0.27452167012 -0.95940190315 -0.050149420035 -0.27754823709 
-0.95716382712 0.090131789523 -0.27516116836 -0.9366359804 0.22611589082 -0.26755306787 -0.90169602143 0.34834843414 -0.25612038843 
-0.85982012797 0.44891299088 -0.24328270418 -0.81693799807 0.52853969642 -0.23077715793 -0.77878919337 0.58732624669 -0.22030722241 
-0.74956380668 0.6266930538 -0.2130960254 -0.7273779419 0.65382667716 -0.20840346897 -0.71366940779 0.66930941449 -0.20664192232 
-0.70967968528 0.6730620366 -0.20818799 -0.71040981088 0.67129469089 -0.21137960778 -0.71848818903 0.66079830775 -0.21707215089 
-0.72893492652 0.64702990858 -0.22362059455 -0.74399095919 0.62671030935 -0.23175772005 -0.76069180292 0.60291435592 -0.2405041796 
-0.77804322489 0.57653072614 -0.24952166642 -0.79570474746 0.54766257108 -0.2586883513 -0.81243466299 0.51802563549 -0.26758056608 
-0.82817456646 0.48770859332 -0.27616519598 -0.84280194145 0.45695413806 -0.28439023049 -0.85537334163 0.42792070906 -0.29192518423 
-0.86657141787 0.39958243347 -0.29897802025 -0.8761415119 0.37293289586 -0.30544575019 -0.8844800459 0.34742092672 -0.31143819302 
-0.89191727109 0.32243812522 -0.31704453463 -0.89802332191 0.29968175726 -0.32209464086 -0.90394087506 0.27569467242 -0.32693017908 
-0.90940663188 0.25125769266 -0.33143498573 -0.91490626491 0.22413772255 -0.33572132456 -0.92085581544 0.19108535234 -0.33986902668 
-0.9272820827 0.1481451932 -0.34380363703 -0.93386411377 0.085533145378 -0.34724904328 -0.93712265551 -0.015781638488 -0.34864318209 
-0.91839843589 -0.20162381374 -0.34042936225 -0.77546879307 -0.56428364909 -0.28325273935 -0.24847375067 -0.96519297455 -0.08162914368 
0.29351994748 -0.94832083179 0.1205555491 0.52361680351 -0.82707531132 0.20438168335 0.62357247877 -0.74417778423 0.2394927748 
0.67349120409 -0.69353049016 0.25578322313 0.70114960636 -0.66253489287 0.26350852972 0.71808945645 -0.64273395734 0.2669093341 
0.72809742991 -0.63116925111 0.26739392105 0.73452590497 -0.62418150752 0.26621258536 0.73737231776 -0.62201153901 0.26340787827 
0.73881932988 -0.62180446459 0.25981763916 0.73833349368 -0.62424803008 0.25529991981 0.73576104277 -0.62946460984 0.24985994659 
0.73165720797 -0.63659863203 0.24376199813 0.7253139459 -0.6464035927 0.23681654341 0.71638474815 -0.65906419488 0.22897004096 
0.70290552754 -0.67653647158 0.21959558733 0.68424757644 -0.69879110129 0.20855754813 0.65803445168 -0.72727208414 0.19510503847 
0.61639915088 -0.76737744029 0.1765897815 0.552193351 -0.81997576352 0.15073901405 0.44292079243 -0.88976103301 0.11021105102 
0.25283540599 -0.96651024826 0.04395676837 -0.066942597555 -0.99585530817 -0.061570234856 -0.47331383333 -0.86060791776 -0.187957514 
-0.75844606531 -0.59308923075 -0.27019387555 -0.88394675046 -0.35605401376 -0.3030902203 -0.92919485804 -0.19435790844 -0.31435953815 
-0.9434263644 -0.089408625386 -0.31930047394 -0.94605789194 -0.019349935113 -0.32341930233 -0.94404242004 0.028781138587 -0.32856590696 
-0.93997528288 0.063052882846 -0.3353666673 -0.93482607944 0.087864380312 -0.34406402293 -0.92891365222 0.10624613198 -0.35472691774 
-0.92230222069 0.12001550327 -0.36736207302 -0.91492994883 0.13058492203 -0.38190413309 -0.90674097836 0.13853274633 -0.39828316103 
-0.89762079882 0.14470871305 -0.4163367506 -0.88751744361 0.14940079286 -0.43588093601 -0.87639051063 0.15295213167 -0.45666762343 
-0.86425081012 0.15554829444 -0.47840909826 -0.85114011279 0.15746719575 -0.50076400696 -0.83718319063 0.15867061575 -0.52340036399 
-0.82251918749 0.15930856664 -0.54596974898 -0.80733171091 0.1594614619 -0.56814395247 -0.79182636901 0.15923319083 -0.58962343261 
-0.77622826585 0.15866063083 -0.61016103082 -0.76076197008 0.15771069498 -0.62957808219 -0.74561354754 0.15652850974 -0.64773394489 
-0.73096159788 0.1551618608 -0.66454491149 -0.71696092174 0.15357736042 -0.67998605211 -0.70371237686 0.15193511068 -0.69404943109 
-0.6913185937 0.15012357947 -0.70678250749 -0.67981794526 0.14833472112 -0.7182230655 -0.66925636499 0.14655744001 -0.72843450954 
-0.65965643658 0.14479702576 -0.73748708938 -0.65102524758 0.14306683751 -0.74545154572 -0.64336120608 0.14136919607 -0.75239690916 
-0.63664216901 0.13987945608 -0.75836698663 -0.63086614812 0.13861765361 -0.76340883494 -0.62604691168 0.13741464783 -0.76758222943 
-0.62216222398 0.13640598341 -0.77091346774 -0.61923520971 0.13535309709 -0.7734515461 -0.61719650379 0.1348892631 -0.77516021725 
-0.61719650379 0.1348892631 -0.77516021725 
BinormalArray 3 391 double
0.57954011278 -0.81366825724 -0.045576582064 0.57954011278 -0.81366825724 -0.045576582064 0.5823079284 -0.81171325521 -0.045156038843 
0.58094021246 -0.8126811161 -0.045363786045 0.5910781133 -0.80542326599 -0.043818107843 0.59946917311 -0.79926729667 -0.042526450284 
0.62474661404 -0.77987495726 -0.038557998941 0.65923958191 -0.75121165365 -0.032927572911 0.69274790698 -0.72066702038 -0.02719159991 
0.74647775347 -0.66518445184 -0.017338068242 0.81052277128 -0.58569194017 -0.0042176372176 0.88025241049 -0.47433711291 0.012648997364 
0.96077024055 -0.27450315567 0.03960508042 0.99728259291 -0.027644141902 0.068287856099 0.95658774329 0.27475916471 0.097197174801 
0.81886497338 0.56184358572 0.11743909298 0.64667491773 0.75245464541 0.12499422941 0.47558722713 0.87074578212 0.12497428658 
0.32761129305 0.93701755995 0.12111537068 0.21296135323 0.97013126805 0.11615844689 0.11159391893 0.98759326327 0.11048232255 
0.01699921188 0.99441754477 0.10413824206 -0.074898148579 0.99246016838 0.097021036451 -0.17921261547 0.97988489007 0.087797725858 
-0.30139922302 0.95051254894 0.075394977704 -0.46806192947 0.88195638344 0.055416314204 -0.66833529365 0.74342459186 0.025452141001 
-0.90376498007 0.42724452054 -0.025903290702 -0.99640457555 -0.026065792511 -0.080613251293 -0.89787513103 -0.42500386939 -0.11485625836 
-0.75116321305 -0.64779390557 -0.12695228738 -0.62256068066 -0.77167528009 -0.13013631698 -0.53006292108 -0.83791795908 -0.13010301129 
-0.45818101653 -0.879432226 -0.12910893061 -0.4067844386 -0.90451434079 -0.12798526408 -0.36270071029 -0.92323867907 -0.12680116807 
-0.33124821417 -0.93511143983 -0.12586189142 -0.30195637851 -0.94509896839 -0.12494112782 -0.27892640675 -0.9522466825 -0.12420271851 
-0.25984640306 -0.9577073316 -0.12359819506 -0.24172731507 -0.96251150529 -0.12304270534 -0.22589903022 -0.96640738161 -0.12258222105 
-0.21162070474 -0.9696826971 -0.12219715328 -0.19848676999 -0.97249624662 -0.12187720229 -0.18447713225 -0.97528831345 -0.12157669733 
-0.17110372417 -0.97775354312 -0.1213322896 -0.15704780841 -0.98013524603 -0.12112343024 -0.14103094942 -0.98259024795 -0.12094079523 
-0.12364999039 -0.98494541726 -0.12080233811 -0.10330269698 -0.98729851333 -0.12070707676 -0.079985001178 -0.98946533944 -0.12066789809 
-0.05209795039 -0.99132197901 -0.1206919115 -0.019324456158 -0.99249078116 -0.12078333789 0.021514739511 -0.99242677038 -0.12093891607 
0.070474485456 -0.99013309327 -0.12111896842 0.13130121834 -0.9839002136 -0.12124504006 0.20420720197 -0.97140285662 -0.12114416545 
0.29461435105 -0.94799033906 -0.12048527377 0.40101202751 -0.90834550393 -0.11873415385 0.52358445748 -0.84416974073 -0.11505113958 
0.65311644356 -0.74943391814 -0.108571237 0.77802334164 -0.62045386487 -0.098573228787 0.88178313274 -0.46388503242 -0.085259506858 
0.95114382781 -0.30061305916 -0.07040743914 0.98781077466 -0.14539308341 -0.055594287075 0.99911195278 -0.0054598519629 -0.041779131391 
0.99382340522 0.10670940517 -0.030465424528 0.97964276011 0.19964821917 -0.020991692169 0.96263229354 0.27046194806 -0.013762343146 
0.94375833378 0.33054723055 -0.0076639284229 0.92607806202 0.37732027869 -0.0029715868238 0.90915097788 0.41646573531 0.00088923538816 
0.8946340587 0.4467833281 0.0038155923499 0.88225298496 0.47073649176 0.0060684306144 0.87005644847 0.49288566681 0.0080929550954 
0.86173825719 0.50726663858 0.0093666152846 0.85282139468 0.52209437837 0.010636204513 0.84714083671 0.53124628328 0.011392509734 
0.8407549469 0.54127856523 0.012191557947 0.83787318636 0.54572105442 0.012532131953 0.83456775654 0.55075418358 0.012903062108 
0.83286568206 0.55332047088 0.013084805863 0.8339174797 0.55173655835 0.012977180799 0.83398043788 0.55164153462 0.012970987715 
0.83703692541 0.54699943253 0.012680942841 0.84253753784 0.5385000687 0.012172647404 0.84552132166 0.53380894531 0.011903971182 
0.85453637881 0.51927276368 0.011107393361 0.86229993816 0.50629051557 0.010427391467 0.87256826003 0.48839920313 0.0095315246464 
0.88386880784 0.46765693937 0.0085391791154 0.90039759176 0.43501090388 0.0070491325632 0.91395687606 0.40577021853 0.0057756775786 
0.93351459457 0.35851911985 0.0038134543485 0.95343438516 0.30159646406 0.0015639896286 0.97267842662 0.23215422729 -0.0010455335125 
0.9908534484 0.13486693564 -0.0045114811068 0.99993091475 -0.0072222320886 -0.0092738929736 0.9815487566 -0.19062374593 -0.014987525012 
0.90890715135 -0.41644986567 -0.021384564555 0.73832774892 -0.67387509374 -0.027649470214 0.49676910633 -0.86732661243 -0.031064487145 
0.24335009807 -0.96942991709 -0.031406458124 0.033254515905 -0.99900051992 -0.029868015812 -0.12382091609 -0.99191815997 -0.02769015472 
-0.23698272151 -0.97117879839 -0.025513354453 -0.31931718413 -0.94735548878 -0.023539621897 -0.38084812159 -0.92438081531 -0.021790286173 
-0.43060053347 -0.90231756401 -0.02015426145 -0.46678168225 -0.88417270959 -0.018801083125 -0.49633367828 -0.8679542462 -0.017558653572 
-0.52034426817 -0.85379847895 -0.016431674409 -0.53984864212 -0.84162093714 -0.015415633979 -0.55671815379 -0.83057585001 -0.014444882101 
-0.56821483081 -0.82276589269 -0.013718304401 -0.5797231213 -0.81471105066 -0.012923102295 -0.58775932016 -0.80894204765 -0.012318486041 
-0.59395415363 -0.80441214463 -0.011813761123 -0.59897185313 -0.80068931161 -0.011373013249 -0.60174722697 -0.79860929715 -0.011111496112 
-0.60274867154 -0.79785512524 -0.011010816697 -0.60208317715 -0.79835646227 -0.011081829591 -0.60011578798 -0.7998332769 -0.01130354714 
-0.59537094631 -0.8033633395 -0.011865118402 -0.58841028818 -0.80846236913 -0.012725190408 -0.57856558797 -0.81551591249 -0.013987740899 
-0.56593608799 -0.82430039479 -0.01565897397 -0.54859554597 -0.83589384877 -0.018011122528 -0.52706943347 -0.84956311146 -0.020984087783 
-0.49891146061 -0.86629474073 -0.024915390029 -0.46314356887 -0.88577798476 -0.02992317358 -0.41953671487 -0.9070242752 -0.035998737253 
-0.36511491653 -0.92994645012 -0.043482153025 -0.29845616749 -0.95298127795 -0.052446162472 -0.22065153189 -0.97334229284 -0.062591392758 
-0.13119841081 -0.98860475175 -0.073808006405 -0.033853450387 -0.99576659748 -0.085456581027 0.06869884944 -0.99290196854 -0.097088356458 
0.16871073586 -0.97975409839 -0.10778958344 0.262798367 -0.95769788916 -0.11726794703 0.34489901064 -0.93027054082 -0.12506555619 
0.41579034085 -0.89991129799 -0.1314459897 0.47180906765 -0.87110651334 -0.13627048872 0.51783933862 -0.84392551246 -0.14011477011 
0.55122519765 -0.82203467806 -0.14286276472 0.57798677479 -0.80304768277 -0.14507138714 0.5949302345 -0.7903142619 -0.14649704267 
0.6057747999 -0.78185511725 -0.14744309899 0.61095672818 -0.77772252503 -0.14791737679 0.61227871648 -0.77665780596 -0.14804535046 
0.60858066065 -0.77963114757 -0.14766466474 0.60348616053 -0.78368634866 -0.14710595154 0.59318862957 -0.79173210146 -0.14590246492 
0.58354969154 -0.79908103702 -0.14470402129 0.5708261267 -0.80851770679 -0.14302674882 0.5581520435 -0.81762562456 -0.14126087357 
0.54633293337 -0.82586453709 -0.13952810579 0.53565526674 -0.83310282903 -0.13788803967 0.52933089106 -0.83730163291 -0.13687506456 
0.52520050008 -0.8400102508 -0.13618815389 0.52801500515 -0.83816518234 -0.13667216777 0.5372310956 -0.83201848456 -0.1383039814 
0.55587603069 -0.81910074313 -0.14168913549 0.58150756173 -0.80025201345 -0.14644340414 0.61663509435 -0.77222286317 -0.15307844397 
0.65982244922 -0.73389210199 -0.16135897292 0.70681463447 -0.68654777465 -0.17048526511 0.75857023436 -0.62604855173 -0.18064996659 
0.80911917972 -0.55584779802 -0.19068135316 0.85364032063 -0.48109061026 -0.19962471717 0.89159919825 -0.40254757088 -0.20737965875 
0.92099895305 -0.32582122036 -0.21354498551 0.94222754931 -0.2541618229 -0.21819489706 0.95672502353 -0.18858501391 -0.22161435396 
0.96579881776 -0.13052022834 -0.22404712361 0.97107647543 -0.077523898944 -0.22583295589 0.97330394817 -0.033643239361 -0.2270408706 
0.9736483021 0.0063522542953 -0.22796629727 0.97266641642 0.040476960648 -0.22865182709 0.97076927577 0.071191478323 -0.22921340852 
0.96826314734 0.09853571236 -0.2296893356 0.96526054228 0.12375220518 -0.23012491659 0.96222462206 0.14488488141 -0.23050411675 
0.95826911799 0.16847251161 -0.23094871798 0.9543480559 0.18893063685 -0.23135471177 0.94957249713 0.21111963611 -0.23182012841 
0.94438387352 0.23276291095 -0.23229405228 0.93814775312 0.25626498203 -0.23282408015 0.93077242983 0.28140779716 -0.23339309238 
0.9217490907 0.30922571856 -0.23400442041 0.91078547557 0.33973557254 -0.23462642272 0.89647668027 0.37548267497 -0.23524948995 
0.87933807214 0.41374900019 -0.23574630372 0.85594686772 0.46004203418 -0.2360429758 0.82788828938 0.50886756966 -0.23591264666 
0.79032806179 0.56579792658 -0.23506224926 0.74437161321 0.62573259621 -0.233172939 0.68731119628 0.68905469299 -0.22979762734 
0.61796406702 0.75348120795 -0.22446933228 0.53785855736 0.81463671034 -0.21696820606 0.44892884725 0.86919858467 -0.20726000701 
0.35688758935 0.91336799142 -0.19593407265 0.2636394605 0.94704119874 -0.18332267389 0.17674217659 0.9693470188 -0.17067091189 
0.0980748264 0.98246594047 -0.15856230396 0.030285021118 0.98856875622 -0.14769777158 -0.026226313139 0.99002998924 -0.13839364475 
-0.071006983026 0.98884775571 -0.13091265938 -0.10546497501 0.98651806778 -0.12513688902 -0.1302123377 0.98407293014 -0.12101741723 
-0.14632929895 0.9821273475 -0.11837909257 -0.15504481903 0.98095599676 -0.11698904442 -0.15705889817 0.98067249627 -0.11667886511 
-0.1536509097 0.98115236539 -0.11718120086 -0.14582320011 0.98221503675 -0.11827601574 -0.13465118721 0.98363101077 -0.11974594955 
-0.12102834374 0.9851954059 -0.12141726482 -0.10581855117 0.98673136211 -0.12314078635 -0.090434586601 0.98806013783 -0.12473471684 
-0.075733518811 0.98912088692 -0.12611227216 -0.062105373687 0.98992409777 -0.12725251753 -0.050620853212 0.99046890752 -0.12809712121 
-0.041460114087 0.99081938847 -0.12867788613 -0.034966844692 0.99102485032 -0.12902350876 -0.031241948692 0.99112838626 -0.12918383253 
-0.030204039847 0.99115611828 -0.12921789803 -0.03165659934 0.99111505529 -0.12918516515 -0.035374456589 0.99099521533 -0.12913996675 
-0.041041581768 0.99077792014 -0.12913055998 -0.048330846617 0.99044058036 -0.12919592116 -0.056944737571 0.98996046486 -0.12936604996 
-0.066592697734 0.98931956072 -0.1296619427 -0.076982241407 0.98850845619 -0.13009522108 -0.087845716095 0.98752657103 -0.13066905404 
-0.099084123946 0.98636683177 -0.13138801152 -0.1106096715 0.98502516755 -0.13225324139 -0.12222814196 0.98351609955 -0.13325300458 
-0.13404689219 0.98181913871 -0.13439720818 -0.1458892473 0.97995439663 -0.13566763816 -0.15824471322 0.97783300517 -0.13711755809 
-0.17083051158 0.97548710987 -0.13871494075 -0.1843961794 0.97274935812 -0.14055865432 -0.19871640735 0.96962375962 -0.1426238207 
-0.2145662227 0.96588188566 -0.145029373 -0.23274065228 0.96122558703 -0.14790929524 -0.25367084608 0.9553772086 -0.15134560165 
-0.27794255987 0.94793725254 -0.15544419791 -0.307586423 0.93787691716 -0.16055366906 -0.34396670286 0.92402992771 -0.16689997013 
-0.38772163154 0.90509818323 -0.17455433296 -0.44130801671 0.87831943056 -0.18385377962 -0.50580840955 0.84036300742 -0.19480212678 
-0.58049029232 0.78752473969 -0.20696812533 -0.66365797025 0.71507405181 -0.2196069192 -0.74677654236 0.62371772931 -0.23087007154 
-0.82398460214 0.51353726411 -0.23943444573 -0.88354345729 0.39984934904 -0.24386770421 -0.92601079559 0.287472384 -0.24467046181 
-0.9505281208 0.19353688569 -0.24298099811 -0.96381112952 0.11579532986 -0.24012402668 -0.96932204195 0.063254218909 -0.23751564745 
-0.97145956065 0.028245757501 -0.23551751358 -0.97212563822 0.0083146407084 -0.23431306036 -0.9721895678 0.0053316360348 -0.23413461495 
-0.97207772563 0.010496835083 -0.2344242133 -0.97164618123 0.024765582864 -0.2351390321 -0.97057623295 0.047381239475 -0.23608641253 
-0.96850623909 0.076315090201 -0.23700563674 -0.96529211706 0.10830798605 -0.2376562831 -0.96038211822 0.14508731381 -0.2379408716 
-0.95372652267 0.18412246992 -0.23770703822 -0.94552319852 0.22329245633 -0.23691002511 -0.93449309335 0.26708603257 -0.23534593619 
-0.92230698714 0.30815500824 -0.23321730717 -0.90701418089 0.35263263413 -0.23016407412 -0.89036220137 0.39490078016 -0.22651384992 
-0.87119923839 0.43785945428 -0.22201573215 -0.85029407804 0.47956013646 -0.21684569714 -0.82653626401 0.52195071697 -0.21072554029 
-0.80061109511 0.56345035497 -0.20382730894 -0.77172184886 0.6050234917 -0.19593867023 -0.73957838538 0.64657804587 -0.18697765238 
-0.70205119128 0.68994710592 -0.17634374343 -0.66104661663 0.73207380185 -0.16457618082 -0.61071373491 0.77751517653 -0.14999628083 
-0.55387516545 0.82183913769 -0.13342688208 -0.48392327967 0.86778925064 -0.11296050579 -0.39980783612 0.91233333297 -0.088326574313 
-0.30061318836 0.95190000625 -0.059313481501 -0.18480231623 0.98244353127 -0.02555018157 -0.055636196609 0.99837991156 0.011923330537 
0.079146016687 0.99556810061 0.050794341184 0.20986293857 0.97373952604 0.088254645461 0.32741091452 0.93700683074 0.12173862244 
0.42414827753 0.89322387336 0.14916216251 0.50075044393 0.84856967724 0.17081714133 0.55729155568 0.80903185368 0.18679823794 
0.59512906918 0.77897671463 0.19752637566 0.62118103982 0.75638974652 0.20496015984 0.6360166016 0.74276825015 0.20923242831 
0.63957602194 0.73941137662 0.21026965612 0.6378400333 0.74105476797 0.20975681824 0.62774770108 0.75046326431 0.20673101537 
0.61454281268 0.76239452369 0.20271093121 0.59510131105 0.7792067885 0.1967008143 0.5723743848 0.79777907219 0.18956823466 
0.54721741705 0.81706185442 0.18155722106 0.51973431526 0.83669407522 0.17268255857 0.49156079711 0.85536414806 0.16346301405 
0.46278166618 0.87300642655 0.15392500981 0.43362736962 0.88948836582 0.14414489718 0.40614166452 0.90381045697 0.13481693591 
0.37934921413 0.91668594463 0.12562265981 0.3541860711 0.92784038748 0.11689500589 0.33012725564 0.93768404886 0.10846483111 
0.30659550808 0.94655766873 0.10013877469 0.28518674987 0.95399867797 0.092493459923 0.26264226203 0.96119734029 0.084372479065 
0.23969613386 0.96786550877 0.07604025482 0.21424920455 0.97449681296 0.066732599794 0.1832525615 0.98150794914 0.055323091703 
0.142999241 0.98889671228 0.040429067571 0.084318949656 0.99626453751 0.018635611684 -0.010628697748 0.99980425164 -0.016687995346 
-0.18484085028 0.9793915571 -0.081400478837 -0.525174214 0.82549999088 -0.20674092484 -0.90288401051 0.26130244561 -0.34135245053 
-0.88927802675 -0.31714010564 -0.329555374 -0.77658431032 -0.56200849508 -0.28471610495 -0.69925713385 -0.66792634549 -0.25478198083 
-0.65192837637 -0.7203899263 -0.23670180855 -0.62291965899 -0.74900806592 -0.22573882175 -0.60436011321 -0.76607799298 -0.21879982228 
-0.59350346773 -0.77564168662 -0.21478735477 -0.58693523437 -0.78127932678 -0.21239031101 -0.58489647414 -0.78300551214 -0.21165652007 
-0.58471299123 -0.78316011612 -0.21159147053 -0.58704219951 -0.78119527125 -0.21240387041 -0.59201048127 -0.77696970421 -0.21410667624 
-0.59881799567 -0.77109625316 -0.21639680318 -0.60818820824 -0.76284488353 -0.21948755551 -0.62030734176 -0.75187100469 -0.22340276197 
-0.63705225219 -0.73611371939 -0.22869416279 -0.65841474189 -0.71493385129 -0.23528624258 -0.68580043149 -0.68583977452 -0.24351914064 
-0.72443262585 -0.64053408844 -0.25478118486 -0.77524229515 -0.57152070543 -0.2690045856 -0.84297745019 -0.45515084203 -0.28675203482 
-0.91836340488 -0.25404050755 -0.30343381009 -0.95024622013 0.082448775174 -0.30039028047 -0.82649803051 0.50767751729 -0.24323762865 
-0.57535957779 0.80405162376 -0.14987442266 -0.3513987237 0.93347198397 -0.071756477888 -0.19831688774 0.97994051603 -0.019672241466 
-0.098999926731 0.99499034763 0.013900454463 -0.032862718866 0.99879784222 0.036371858486 0.01236195228 0.9985730353 0.051952625668 
0.044329326809 0.99701568103 0.063203184726 0.067224789375 0.99517342384 0.071489049297 0.083936595267 0.99343353954 0.077746064109 
0.096205957043 0.99193449412 0.082524985349 0.10538878597 0.99068239795 0.086264651995 0.11206176355 0.98969694065 0.089118611001 
0.11704841274 0.98891442432 0.091367009656 0.12065296308 0.98832075237 0.09308572891 0.12322694083 0.98787967844 0.09438676807 
0.12497565697 0.98756983176 0.095325298685 0.12617908175 0.98735028885 0.096011699474 0.12683430599 0.98722762231 0.096408923692 
0.12709480529 0.98717772118 0.096576691114 0.12704562967 0.9871873381 0.096543086136 0.1267823844 0.98723979735 0.096352527403 
0.12633812758 0.98732986193 0.096012609931 0.12568621791 0.98746405526 0.095486722582 0.12493520465 0.98762073406 0.094849777481 
0.12411297675 0.98779431877 0.094118822819 0.12318578273 0.98799205267 0.093257529387 0.12226101478 0.98819095672 0.092362748541 
0.12124912177 0.98841009906 0.091346190689 0.12027666512 0.98862182103 0.090335036398 0.11932631742 0.98882960353 0.089315425071 
0.11839381074 0.98903409788 0.088286232239 0.11748150409 0.98923451691 0.087253462654 0.11658540927 0.9894314806 0.086215935586 
0.1158142118 0.98960097712 0.085305184103 0.11517443893 0.98974158682 0.084536618969 0.11455347582 0.98987799558 0.083779800956 
0.11403406921 0.98999197092 0.083139212036 0.11346349438 0.990116914 0.082428951586 0.11323559857 0.99016673927 0.082143336109 
0.11323559857 0.99016673927 0.082143336109 
