# vtk DataFile Version 4.1
vtk output
ASCII
DATASET POLYDATA
POINTS 229 float
5.48953 -9.63667 -181.383 5.46097 -9.68167 -180.475 5.43239 -9.72649 -179.566 
5.40374 -9.77063 -178.658 5.37493 -9.81359 -177.751 5.34592 -9.8549 -176.844 
5.31666 -9.89409 -175.939 5.28708 -9.93076 -175.035 5.25716 -9.96455 -174.132 
5.22684 -9.99515 -173.231 5.1961 -10.0223 -172.33 5.16493 -10.0459 -171.431 
5.1333 -10.0658 -170.532 5.10121 -10.0819 -169.633 5.06868 -10.0944 -168.734 
5.03572 -10.1032 -167.834 5.00234 -10.1085 -166.932 4.96859 -10.1105 -166.028 
4.93451 -10.1094 -165.12 4.90013 -10.1055 -164.208 4.86552 -10.099 -163.291 
4.83073 -10.0902 -162.368 4.79582 -10.0793 -161.438 4.76086 -10.0667 -160.501 
4.72593 -10.0524 -159.555 4.69109 -10.0369 -158.601 4.65642 -10.0202 -157.637 
4.622 -10.0025 -156.664 4.5879 -9.98401 -155.68 4.55421 -9.96472 -154.686 
4.52099 -9.94474 -153.681 4.48834 -9.9241 -152.666 4.45632 -9.90283 -151.64 
4.42503 -9.88092 -150.603 4.39453 -9.85835 -149.557 4.36491 -9.83509 -148.502 
4.33625 -9.81108 -147.437 4.30862 -9.7863 -146.364 4.28211 -9.76067 -145.284 
4.2568 -9.73416 -144.196 4.23278 -9.70672 -143.102 4.21011 -9.6783 -142.003 
4.18889 -9.64886 -140.898 4.16919 -9.61838 -139.79 4.15111 -9.58681 -138.678 
4.13473 -9.55414 -137.563 4.12014 -9.52034 -136.446 4.10741 -9.48538 -135.326 
4.09664 -9.44924 -134.205 4.08792 -9.41187 -133.081 4.08134 -9.37325 -131.956 
4.07697 -9.33333 -130.829 4.07492 -9.29204 -129.699 4.07526 -9.24931 -128.566 
4.07809 -9.20507 -127.429 4.08348 -9.15919 -126.288 4.09152 -9.11158 -125.141 
4.10228 -9.06208 -123.988 4.11586 -9.01053 -122.828 4.13231 -8.95677 -121.659 
4.15171 -8.90058 -120.48 4.17414 -8.84174 -119.289 4.19964 -8.78002 -118.086 
4.22829 -8.71515 -116.869 4.26014 -8.64685 -115.637 4.29525 -8.57483 -114.389 
4.33366 -8.49877 -113.122 4.37542 -8.41835 -111.837 4.42058 -8.33324 -110.531 
4.46918 -8.24309 -109.204 4.52127 -8.14756 -107.855 4.5769 -8.04632 -106.483 
4.63612 -7.93902 -105.087 4.699 -7.82535 -103.667 4.76559 -7.70498 -102.222 
4.83597 -7.57765 -100.752 4.91024 -7.44309 -99.2574 4.98848 -7.30106 -97.7372 
5.07082 -7.15139 -96.1919 5.15739 -6.99392 -94.6218 5.24833 -6.82854 -93.0275 
5.34382 -6.65521 -91.4092 5.44403 -6.47391 -89.7678 5.54917 -6.28469 -88.1038 
5.65946 -6.08767 -86.4181 5.77512 -5.88298 -84.7115 5.89639 -5.67085 -82.9847 
6.02353 -5.45152 -81.2387 6.15676 -5.2253 -79.4741 6.29635 -4.99253 -77.6916 
6.44252 -4.75359 -75.892 6.59548 -4.50889 -74.0758 6.75542 -4.25886 -72.2433 
6.92249 -4.00394 -70.395 7.0968 -3.74458 -68.5311 7.27841 -3.48126 -66.6516 
7.4673 -3.21443 -64.7566 7.66341 -2.94452 -62.846 7.86657 -2.67198 -60.9196 
8.07655 -2.39722 -58.9773 8.29302 -2.12063 -57.019 8.51555 -1.84257 -55.0444 
8.74361 -1.56338 -53.0536 8.97658 -1.28338 -51.0467 9.21375 -1.00284 -49.0238 
9.45431 -0.722026 -46.9853 9.69737 -0.441153 -44.9318 9.94194 -0.160418 -42.8642 
10.187 0.120014 -40.7836 10.4315 0.400006 -38.6911 10.6742 0.67945 -36.5884 
10.914 0.958266 -34.4772 11.1498 1.2364 -32.3594 11.3805 1.51383 -30.2369 
11.6048 1.79057 -28.1121 11.8218 2.06664 -25.987 12.0304 2.34212 -23.864 
12.2297 2.61708 -21.7451 12.419 2.89164 -19.6325 12.5973 3.16594 -17.528 
12.7641 3.44015 -15.4334 12.919 3.71444 -13.3503 13.0614 3.98901 -11.2799 
13.1912 4.26406 -9.22325 13.3081 4.53982 -7.18101 13.4121 4.81649 -5.15369 
13.5033 5.09429 -3.14146 13.5819 5.37342 -1.14427 13.6481 5.65406 0.838137 
13.7023 5.93638 2.80623 13.7449 6.2205 4.76062 13.7763 6.50653 6.70201 
13.7971 6.79452 8.63117 13.8079 7.08446 10.5489 13.8092 7.3763 12.456 
13.8017 7.66993 14.3532 13.786 7.96515 16.2411 13.7628 8.26171 18.1203 
13.7326 8.55927 19.9911 13.696 8.8574 21.8538 13.6538 9.15562 23.7085 
13.6063 9.45334 25.5551 13.5542 9.74989 27.3936 13.4981 10.0445 29.2235 
13.4383 10.3365 31.0445 13.3754 10.6249 32.8561 13.3098 10.9087 34.6579 
13.242 11.1871 36.4494 13.1724 11.459 38.2301 13.1013 11.7235 39.9997 
13.0293 11.9795 41.7577 12.9565 12.226 43.504 12.8835 12.4621 45.2386 
12.8106 12.6869 46.9615 12.7381 12.8994 48.6729 12.6665 13.0991 50.3732 
12.596 13.285 52.063 12.5272 13.4568 53.7427 12.4603 13.6137 55.4131 
12.3958 13.7556 57.0749 12.334 13.882 58.729 12.2752 13.9928 60.3762 
12.22 14.0879 62.0172 12.1686 14.1674 63.6526 12.1214 14.2312 65.2832 
12.0787 14.2796 66.9092 12.0407 14.3128 68.5311 12.0078 14.3311 70.1491 
11.9801 14.3349 71.7631 11.9578 14.3245 73.3732 11.941 14.3003 74.979 
11.9297 14.2628 76.5803 11.924 14.2124 78.1766 11.9237 14.1495 79.7676 
11.9287 14.0746 81.353 11.9389 13.9881 82.9322 11.9539 13.8904 84.505 
11.9734 13.7819 86.0713 11.9971 13.663 87.631 12.0246 13.5342 89.1841 
12.0553 13.3956 90.7309 12.0889 13.2477 92.2719 12.1247 13.0909 93.8075 
12.1623 12.9254 95.3385 12.2011 12.7515 96.8657 12.2406 12.5696 98.3901 
12.2801 12.38 99.9127 12.3191 12.183 101.435 12.357 11.979 102.957 
12.3933 11.7683 104.481 12.4274 11.5512 106.008 12.4587 11.3282 107.539 
12.4868 11.0997 109.075 12.511 10.8661 110.617 12.5309 10.628 112.166 
12.5461 10.3857 113.724 12.5559 10.1399 115.29 12.56 9.89112 116.865 
12.558 9.63994 118.452 12.5493 9.387 120.049 12.5338 9.13292 121.658 
12.511 8.87836 123.279 12.4806 8.62398 124.912 12.4424 8.37044 126.559 
12.3961 8.1184 128.218 12.3416 7.86851 129.89 12.2787 7.62137 131.576 
12.2073 7.3776 133.274 12.1273 7.13773 134.986 12.0387 6.90228 136.71 
11.9416 6.67168 138.446 11.836 6.44632 140.194 11.722 6.22653 141.953 
11.5998 6.01254 143.722 11.4695 5.8045 145.501 11.3315 5.60252 147.289 
11.186 5.40659 149.085 11.0333 5.21662 150.889 10.8738 5.03247 152.698 
10.7079 4.85391 154.514 10.536 4.68062 156.335 10.3587 4.51225 158.16 
10.1764 4.34836 159.988 9.98969 4.18848 161.82 9.79922 4.03209 163.653 
9.60556 3.87862 165.489 9.40938 3.72748 167.326 9.21133 3.57807 169.165 
9.01211 3.42973 171.003 
LINES 1 230
229 228 227 226 225 224 223 222 221 220 219 218 217 216 215 214 213 212 211 210 209 208 207 206 205 204 203 202 201 200 199 198 197 196 195 194 193 192 191 190 189 188 187 186 185 184 183 182 181 180 179 178 177 176 175 174 173 172 171 170 169 168 167 166 165 164 163 162 161 160 159 158 157 156 155 154 153 152 151 150 149 148 147 146 145 144 143 142 141 140 139 138 137 136 135 134 133 132 131 130 129 128 127 126 125 124 123 122 121 120 119 118 117 116 115 114 113 112 111 110 109 108 107 106 105 104 103 102 101 100 99 98 97 96 95 94 93 92 91 90 89 88 87 86 85 84 83 82 81 80 79 78 77 76 75 74 73 72 71 70 69 68 67 66 65 64 63 62 61 60 59 58 57 56 55 54 53 52 51 50 49 48 47 46 45 44 43 42 41 40 39 38 37 36 35 34 33 32 31 30 29 28 27 26 25 24 23 22 21 20 19 18 17 16 15 14 13 12 11 10 9 8 7 6 5 4 3 2 1 0 

CELL_DATA 1
FIELD FieldData 2
LengthArray 1 1 double
355.23602033 
TortuosityArray 1 1 double
0.0073436004999 
POINT_DATA 229
FIELD FieldData 8
RadiusArray 1 229 double
48.244686033 48.41494042 48.4399776 48.918486121 49.275382072 49.28426476 49.326284252 49.377728835 49.433810854 
49.580185181 49.620645352 49.717218254 49.732441352 49.888133503 49.950885392 50.031209729 50.040365472 50.112286736 
50.343690613 50.396047373 50.502134891 50.821087822 50.86589641 50.873683926 50.891817467 50.906113523 51.038383331 
51.084287585 51.166553098 51.226842719 51.246487204 51.381717076 51.411855081 51.46089099 51.501370897 51.518203573 
52.016941218 52.045954461 52.052854034 52.174786059 52.208546249 52.242183992 52.311927527 52.345281011 52.475883364 
52.499633475 52.62973548 52.656358139 52.734415105 52.734803185 52.792019237 52.824712073 52.882035667 52.927594905 
53.045818708 53.058993648 53.149159571 53.172491142 53.177969446 53.195809651 53.196581829 53.204773425 53.215121672 
53.21719668 53.219786709 53.23451354 53.261761259 53.283847305 53.305493498 53.302222151 53.297710745 53.286405867 
53.300784073 53.272545526 53.270669576 53.234879786 53.227567461 53.226660185 53.199936959 53.115309291 53.035638914 
52.941288715 52.933783962 52.861277301 52.849560618 52.746824309 52.693589964 52.669239969 52.441330117 52.325732728 
52.180263934 52.131394889 51.876626957 51.786996328 51.76503324 51.681676791 51.5420914 51.518354499 51.408070641 
51.380398366 51.228241852 51.174420685 50.930405452 50.915702231 50.727891371 50.543386636 50.439050446 50.397034397 
50.178774237 50.060381688 49.945077481 49.919810025 49.873472843 49.781368363 49.710966215 49.648189546 49.642095045 
49.673856852 49.696613908 49.803830865 49.869621042 49.921729592 50.023867732 50.111893303 50.246392045 50.277398043 
50.620077982 50.73696851 50.894774535 50.950038532 51.208475721 51.29347251 51.518211578 51.709236174 51.865103726 
52.069542907 52.509166896 52.70498163 53.076759401 53.088023719 53.163793838 53.757530902 53.882536664 54.19582692 
54.432895982 54.530788741 54.573876495 54.862862073 55.014954978 55.468146165 55.846435916 56.007804369 56.17918583 
56.318671363 56.390587333 56.490669689 56.578727187 56.64015857 56.666027641 56.693844083 56.888721972 56.900762882 
57.036609845 57.197982742 57.2256059 57.447250849 57.463663388 57.655658361 57.703984329 57.767436243 58.042103333 
58.453865741 58.647790255 58.914448125 58.939252572 59.336930933 59.344824492 59.52786591 59.547819133 59.611387025 
59.756273235 59.865483736 59.92628589 59.936988634 60.109124029 60.542567063 60.579733211 61.152076207 61.586808882 
61.653331401 61.83379871 62.402144578 62.466269312 62.654147527 62.758468001 63.059370047 63.521211065 63.722386087 
63.969466529 63.991683365 64.494570563 64.696572969 65.471634595 65.77218898 65.938054379 66.559118186 66.667783371 
66.912566402 67.258644074 67.360146049 67.480562024 67.723652829 67.740976831 68.192647671 68.230476693 68.23569725 
68.398670842 68.422117645 68.485425923 68.609143166 68.968859177 68.980165661 69.184190466 69.549517206 69.676790937 
69.826650339 70.024438564 70.054220737 70.311901195 
EdgeArray 2 229 int
29562 29562 33772 33772 33773 33773 33761 32079 32795 
33746 32994 32795 32994 32994 33006 32216 32216 32216 
31226 31226 31103 31103 28708 32636 32636 32636 32634 
32634 32635 32635 32199 32199 30448 24275 30448 30448 
32200 32200 30182 30182 32205 32205 32201 32201 31215 
31215 32212 32214 32214 32215 32215 29035 29035 29035 
31219 31218 31218 31218 30174 23808 30174 30174 30173 
30173 30176 30176 30171 30171 30172 28204 28204 28204 
25113 25113 23400 23400 27457 25553 25553 25553 19587 
19587 27455 25946 25946 25946 25931 25925 25931 25931 
26943 26943 26941 26941 25897 25897 16340 24052 25893 
16340 19310 25893 19310 19310 25879 25879 25878 25878 
25877 25877 24351 24596 23144 23144 23773 23773 9073 
9073 14177 23146 20876 23146 20098 20098 22550 22557 
14180 22557 23138 14180 23139 23139 15646 21889 21889 
21889 21256 17360 14734 14734 15836 15836 20669 20669 
19575 19575 18434 18434 11364 11364 14158 14158 17286 
17286 19032 19032 14744 14744 14540 14540 13616 13616 
17856 17856 15823 13066 17853 17853 17264 17264 13759 
13759 14896 14896 16793 16793 16305 16305 16311 16311 
15305 15305 16297 16297 15738 15738 16108 16108 12133 
12133 17174 17174 15747 15747 15641 15641 14056 14056 
8126 15731 14784 14784 15730 15730 17167 17167 15693 
15693 13291 13291 15682 14785 15702 15702 15683 15683 
14416 14416 13680 13680 13698 13698 13684 13684 13691 
13691 13689 13689 13672 13672 13541 13541 13646 13646 
5053 5053 10808 10808 10959 12809 12809 12809 10366 
10366 4678 4678 4945 4945 3666 12946 9879 12946 
9879 9879 2787 12947 12951 10234 10234 10234 9301 
9301 9300 9300 10646 12594 5049 12594 11409 12845 
11409 11409 11528 11528 4459 4459 12612 12613 12608 
12612 10625 12608 10625 10625 12601 12601 8599 12602 
12118 12118 12440 12440 12260 12260 11810 11810 10756 
11380 10756 10756 11500 11384 11384 11384 10618 13275 
13275 11699 11699 11699 13276 13279 13276 13276 13278 
13278 11650 11650 13283 13283 12656 12656 12645 12646 
12645 12645 12664 12664 12663 12663 12649 12649 11375 
10088 11375 11375 12652 12652 17949 17949 16906 16906 
14606 14606 17191 17191 13014 18058 15573 13014 17451 
17514 18625 17514 19221 18625 19220 19221 19220 18621 
18621 18621 19226 19226 19224 19224 13575 13575 18069 
16101 18069 18069 16731 16731 16054 16054 17784 17784 
15108 16902 15108 15108 16055 16055 14314 14314 12851 
12851 13027 19710 13586 19703 19717 13944 14312 19719 
14311 19232 14527 19232 14527 14527 15132 15132 19233 
19233 18631 18631 6095 16026 14684 13208 14684 16559 
17439 18975 21967 16039 20030 22641 19230 16028 15592 
17210 17057 17053 18088 18092 21978 18933 21427 18933 
20264 7611 19853 19236 14329 19853 19485 22713 21417 
22713 21417 23345 12693 12693 23989 23989 23987 23990 
23978 23987 18181 23978 18181 18181 20542 20542 
EdgePCoordArray 1 229 double
0 0 0 0.912 0.008 0.896 0 0.056 0 
0 0 0.708 0 0 0 0 0.96 0 
0 0 0 0 0 0.22 0.204 0.004 0 
0.156 0 0.708 0 0 0 0 0.376 0 
0 0 0.048 0 0 0.108 0 0.896 0 
0 0 0 0.024 0.996 0.58 0 0 0 
0 0.956 0 0 0 0.944 0.864 0 0.412 
0.664 0.712 0 0.224 0 0.684 0 0 0 
0 0 0 0 0 0 0 0 0 
0 0.972 0 0 0 0 0 0 0 
0 0 0 0 0 0 0 0 0 
0.944 0 0 0 0 0 0.316 0 0 
0 0 0 0 0 0 0 0 0 
0 0 0.064 0 0 0 0 0.272 0.984 
0 0.92 0.548 0 0 0 0.152 0.952 0.64 
0 0 0 0.292 0.94 0.96 0 0 0.124 
0 0 0 0 0.868 0 0.276 0 0.252 
0.016 0 0.764 0 0 0 0 0 0.96 
0 0 0 0 0.96 0 0 0 0 
0 0 0.292 0.676 0.636 0.612 0.104 0.976 0.108 
0 0 0 0 0.928 0 0 0 0 
0.872 0 0 0 0 0.068 0.112 0.964 0.268 
0.984 0.952 0 0 0 0 0.956 0.892 0.868 
0.636 0.156 0.252 0.196 0.832 0.76 0.116 0.972 0.976 
0.244 0.16 0.736 0.636 0.032 0.016 0 0 0.808 
0.464 0.136 0 0 
CurvatureArray 1 229 double
0 0.0002013628082 0.00080426927274 0.0013999584737 0.0019786709651 0.0025276416282 0.00303533445 0.003489524748 0.0038816471422 
0.0042002103303 0.0044380027813 0.0045895391386 0.0046530685545 0.0046282070305 0.0045163139884 0.0043296116145 0.0040747652645 0.0037662814772 
0.0034182703219 0.0030470396958 0.0026714698292 0.0023037623239 0.0019620092728 0.0016577124971 0.0014032592064 0.001206698873 0.0010726277655 
0.00099465689482 0.00096422462636 0.0009650719858 0.00098440687135 0.0010150515585 0.001049531179 0.0010885041811 0.0011290468684 0.0011716745728 
0.0012165606121 0.0012635757998 0.0013105506374 0.0013610581281 0.00141129653 0.0014631971278 0.0015165274916 0.0015719989031 0.0016286389664 
0.0016871765585 0.0017475533931 0.0018113377624 0.0018749058352 0.001941033002 0.0020065708905 0.0020722117051 0.002136030216 0.0021980355799 
0.0022565324404 0.0023096146725 0.0023591908195 0.0024018896854 0.0024387862171 0.0024703295386 0.0024958126989 0.0025170421637 0.0025333563631 
0.0025467641549 0.0025568095225 0.0025652704286 0.0025717043845 0.0025775389142 0.0025816320829 0.0025832486693 0.002584703489 0.0025825407134 
0.0025769870675 0.0025688122537 0.0025560274201 0.0025390723108 0.0025182419087 0.002491597658 0.0024613257131 0.0024268428528 0.0023885012355 
0.002346641103 0.0023031066863 0.0022563190734 0.0022087046368 0.0021604920403 0.0021116876975 0.002061913029 0.0020132059252 0.0019632330726 
0.0019127921155 0.0018597434597 0.0018036289716 0.0017430415738 0.0016760890387 0.0016005929812 0.0015169636317 0.0014231523347 0.001318904548 
0.0012044972091 0.0010807764582 0.00095072945723 0.00081679531179 0.0006868223624 0.00057105319468 0.00048947717055 0.00046703610689 0.00051618264069 
0.00062107802536 0.00075938614723 0.00091509709137 0.0010797217712 0.0012482091487 0.001417770779 0.0015867995643 0.0017534198013 0.0019168485844 
0.0020763814831 0.0022295305632 0.0023758248441 0.0025137497363 0.0026404679934 0.0027550502798 0.0028547774296 0.0029366411164 0.0030000272859 
0.0030419467661 0.0030611041198 0.0030562991619 0.0030274155663 0.0029743144114 0.0028973768133 0.0027988464394 0.002680498702 0.0025440030081 
0.0023934383346 0.0022302007147 0.002059679932 0.0018842014638 0.0017096836254 0.0015420322688 0.0013902059199 0.0012687366733 0.0011942896923 
0.001185527533 0.0012543814972 0.0013985675772 0.0016071188203 0.0018654446783 0.0021614908109 0.0024858135398 0.0028290679353 0.0031843822408 
0.0035441235194 0.003900641897 0.0042475053765 0.0045761311299 0.0048804083876 0.0051545396147 0.0053920626994 0.0055910828552 0.0057476747111 
0.0058633861384 0.0059378699547 0.0059747494434 0.0059782570224 0.0059510141597 0.0058991775205 0.005827869368 0.0057401583464 0.0056401144822 
0.0055307980953 0.005413987609 0.0052914061554 0.0051619979705 0.0050283339914 0.0048880763457 0.0047423371769 0.0045887329342 0.0044279123842 
0.0042597265801 0.0040849389087 0.0039030207798 0.0037166209884 0.0035273494972 0.0033381305117 0.0031518933684 0.0029734359062 0.0028054504837 
0.0026540930799 0.0025241061622 0.0024188459284 0.0023440627224 0.0022992936232 0.0022881154984 0.0023066833719 0.002354145725 0.0024234931046 
0.0025105821498 0.0026101195452 0.0027164380865 0.0028246091197 0.0029306496278 0.0030299433759 0.0031196590146 0.0031972591753 0.0032601767298 
0.0033069044089 0.0033347342083 0.0033448042607 0.0033343414875 0.0033043182337 0.0032540714269 0.0031838920008 0.0030939781706 0.0029845751138 
0.0028564732612 0.0027100280301 0.0025463073746 0.0023656138722 0.0021699794016 0.0019588636685 0.0017349766919 0.0014987208232 0.0012512429309 
0.00099483135598 0.00073044106565 0.00045976400496 0 
TorsionArray 1 229 double
0 0 0.00044717377651 -7.3253321797e-05 -0.0011319803805 -0.0013350897503 -0.0013240238853 -0.0019768750432 -0.0026957999028 
-0.0032609519937 -0.0039499234729 -0.0049933459092 -0.006298091917 -0.0079872141482 -0.0099107859114 -0.012592510903 -0.016193746639 -0.020791122971 
-0.026769362673 -0.035324630437 -0.04696196883 -0.061651723355 -0.081895709013 -0.1059048915 -0.13279628526 -0.1573690583 -0.16741387418 
-0.15669127394 -0.12842694299 -0.092423467392 -0.0582194851 -0.029275143972 -0.0082587405528 0.0055551070486 0.014296743802 0.019106905248 
0.020447001539 0.019179083391 0.017277561704 0.014002165206 0.0099527139043 0.0066655570589 0.0034197975669 0.00039064007739 -0.0019454848753 
-0.0036250608026 -0.0044074193417 -0.0048126397409 -0.0043133930361 -0.0033535638981 -0.0018749295128 0.00029515650933 0.0027086948633 0.0056201987465 
0.0083868451584 0.011504634642 0.014808110804 0.017805679628 0.020931177023 0.023575447778 0.025965957261 0.028191431946 0.029631317065 
0.030526642984 0.030879809095 0.030673012538 0.029788653893 0.028231607236 0.02612766318 0.023663506386 0.020806310402 0.017608088158 
0.014340501809 0.010839647671 0.0073223827567 0.003781718452 0.00023962348157 -0.0032138240017 -0.0066453028169 -0.010024960641 -0.01328654977 
-0.016481655103 -0.019579420349 -0.022518696001 -0.025344350388 -0.027926427414 -0.030203585267 -0.032269980704 -0.033972263826 -0.035359533078 
-0.036355876392 -0.037116883739 -0.037527633353 -0.037768424037 -0.038122482258 -0.038456336258 -0.038981523939 -0.040204962433 -0.042360204092 
-0.045829876802 -0.051516069676 -0.06089993387 -0.076366604235 -0.10142328832 -0.14084008897 -0.18757335109 -0.20562605656 -0.17114523164 
-0.12172281708 -0.084830328925 -0.061410608725 -0.046597258831 -0.036928063954 -0.030320822718 -0.025661433987 -0.022219429719 -0.019576415766 
-0.017524698661 -0.015866032437 -0.014479116475 -0.013336379008 -0.01233603557 -0.011452890156 -0.010696122069 -0.0099837166571 -0.0092886683489 
-0.0086383868571 -0.0080002893303 -0.0072968567701 -0.0065219845004 -0.0055967016796 -0.0044618416045 -0.003034281978 -0.0011845208883 0.0012539474643 
0.0045364373986 0.0089811520796 0.015023757409 0.023394882272 0.034749179021 0.050133641674 0.070306149274 0.093820642503 0.11534579149 
0.12531907684 0.11827356937 0.099636705494 0.078496140331 0.060228877245 0.046480004962 0.036510196623 0.029367470939 0.024308357913 
0.020899925771 0.018477279934 0.016766582165 0.015663321644 0.014981425726 0.014560891206 0.014274960813 0.014184016819 0.014129776401 
0.014000351549 0.013881528257 0.013635205636 0.013192057844 0.012589856862 0.011734020906 0.010603122223 0.0091793557189 0.0074455702483 
0.0053858966881 0.0030518774766 0.00042589422791 -0.0024402512767 -0.0055282050997 -0.0088806559322 -0.012348581943 -0.016108258222 -0.019951600942 
-0.024001556119 -0.028443683912 -0.033000537482 -0.037956531946 -0.043236878848 -0.048912625002 -0.055129298249 -0.06174020591 -0.06867192107 
-0.075391349482 -0.081886357032 -0.087446540729 -0.091006534483 -0.092442640392 -0.091167340916 -0.08747949686 -0.081850757032 -0.07521533529 
-0.068003811479 -0.060865496609 -0.054127443375 -0.047901466766 -0.042226360337 -0.037073557332 -0.032600278771 -0.028548055482 -0.025023937807 
-0.021654877431 -0.018671167259 -0.016052933136 -0.013586041602 -0.01153718892 -0.0094686607371 -0.0075840411032 -0.0059881439981 -0.0046623947676 
-0.0033706667974 -0.0022454354782 -0.001340882702 -0.00048811912475 0.00013239661064 0.00064161020063 0.00089384964386 0.0011258609859 0.0012924141665 
0.0013365042149 0.0010877077405 0 0 
TangentArray 3 229 double
0.03138932923 0.049343528845 -0.99828849847 0.03138932923 0.049343528845 -0.99828849847 0.031455266002 0.048891339097 -0.9983086713 
0.031599957268 0.047900638065 -0.99835212805 0.031821520511 0.046383199478 -0.99841674147 0.032114718341 0.044360972561 -0.99849924836 
0.032472969945 0.041867091328 -0.99859533991 0.032888829862 0.038945363375 -0.9986999467 0.033351771702 0.035648398427 -0.99880771473 
0.033849410884 0.03203716843 -0.99891332818 0.034368772402 0.028180376364 -0.9990118387 0.034896064284 0.024151599156 -0.99909907665 
0.035416391444 0.02002671905 -0.99917196205 0.03591462989 0.015881958258 -0.99922865389 0.036375613245 0.011792672072 -0.99926860635 
0.03678593236 0.0078283243612 -0.99929250599 0.037132805767 0.004050189672 -0.99930213184 0.03740476097 0.0005111261832 -0.99930006635 
0.037592588247 -0.0027476310346 -0.99928937142 0.037689796244 -0.0056966344414 -0.99927324972 0.0376905019 -0.0083204254576 -0.99925482065 
0.037591224083 -0.010615142404 -0.99923681809 0.037391839697 -0.012588064549 -0.99922139236 0.037092638072 -0.014256801825 -0.99921012795 
0.036697331473 -0.01564692092 -0.99920392299 0.036210262907 -0.016790278048 -0.99920313421 0.035635500399 -0.017722693013 -0.99920769476 
0.034979084414 -0.018481968873 -0.9992171338 0.034247315056 -0.019106097623 -0.99923074334 0.03344575232 -0.019631321623 -0.99924771346 
0.032580666341 -0.020090534319 -0.99926716678 0.031657255938 -0.020513188508 -0.99928826034 0.030681017272 -0.020925104035 -0.99931016967 
0.029656277587 -0.021347137424 -0.99933217947 0.028585845971 -0.021795131745 -0.99935370197 0.027472398001 -0.022280809748 -0.99937422063 
0.026317330922 -0.022812634012 -0.99939330687 0.02512082419 -0.023395472797 -0.99941062434 0.023882900174 -0.024030375682 -0.99942590927 
0.022602376758 -0.024717629101 -0.99943892829 0.021276985929 -0.02545520662 -0.99944950964 0.019904239597 -0.026238822237 -0.99945752559 
0.018480993696 -0.027065108884 -0.9994628221 0.017003459852 -0.027930345882 -0.99946524609 0.015467782739 -0.028830447162 -0.9994646332 
0.013870487543 -0.029761939793 -0.99946077287 0.012208191836 -0.030722237953 -0.99945340269 0.010477417753 -0.031710621803 -0.99944217451 
0.0086759209411 -0.032726402575 -0.99942669114 0.0068026408178 -0.033770547815 -0.99940646094 0.0048570957162 -0.034845182473 -0.99938091931 
0.0028404617814 -0.035953288541 -0.99934943479 0.00075530183473 -0.037099701773 -0.99931128366 -0.0013945821985 -0.038290025041 -0.99926569496 
-0.0036037840637 -0.039531392291 -0.99921183028 -0.0058651326978 -0.040830386907 -0.99914887766 -0.0081706102029 -0.042195137654 -0.99907597884 
-0.010510705445 -0.043634541727 -0.99899226816 -0.012874609448 -0.045156412703 -0.99889696307 -0.015251253388 -0.046769672078 -0.99878926558 
-0.017629401343 -0.048481959074 -0.99866846543 -0.019997838614 -0.050300481877 -0.99853389926 -0.022345159563 -0.052232223637 -0.99838494012 
-0.024661331839 -0.054282141478 -0.99822105159 -0.026937407731 -0.056453931008 -0.99804174749 -0.029165746243 -0.058749962147 -0.99784658199 
-0.031340231262 -0.061171293731 -0.99763513507 -0.033456976066 -0.063717294818 -0.99740700674 -0.03551435709 -0.066385412656 -0.9971618261 
-0.037512372236 -0.069170419807 -0.9968993304 -0.039453729714 -0.072066731212 -0.99661917976 -0.041343223373 -0.075066885942 -0.99632108304 
-0.04318715927 -0.078160328571 -0.99600493589 -0.044993989896 -0.081336462207 -0.99567058849 -0.04677423509 -0.084582822262 -0.99531799798 
-0.048539392288 -0.087885220844 -0.99494729275 -0.050302630876 -0.091229057707 -0.99455864802 -0.052077565418 -0.094597649333 -0.99415250939 
-0.053878161449 -0.097973581724 -0.99372950092 -0.055719165381 -0.1013393181 -0.9932903489 -0.057614877277 -0.1046759523 -0.99283607455 
-0.059578676918 -0.10796396899 -0.99236795729 -0.061623505249 -0.11118410664 -0.99188741197 -0.063760540268 -0.11431611466 -0.991396197 
-0.065998667976 -0.11733952351 -0.99089636797 -0.068345418027 -0.12023475976 -0.99039007789 -0.070804918917 -0.12298227231 -0.98987980288 
-0.073377099925 -0.12556272869 -0.98936838557 -0.076059308539 -0.1279584247 -0.98885874782 -0.078844698517 -0.13015306356 -0.9883540325 
-0.081721655191 -0.13213165506 -0.98785768044 -0.08467393363 -0.13388168865 -0.98737329233 -0.087680460973 -0.13539265671 -0.98690473972 
-0.090715923728 -0.13665795731 -0.98645589049 -0.093750405016 -0.13767410773 -0.98603078127 -0.096749486314 -0.13844016369 -0.98563373419 
-0.099676098698 -0.13896025321 -0.98526885842 -0.10249129034 -0.13924300069 -0.98494006019 -0.10515398716 -0.13930001462 -0.98465128087 
-0.1076229738 -0.1391466351 -0.98440617097 -0.10985764128 -0.13880222901 -0.98420792512 -0.11181995358 -0.13828922582 -0.98405913847 
-0.11347415486 -0.13763217505 -0.9839618898 -0.11478846243 -0.13685765237 -0.98391747209 -0.11573605 -0.13599383839 -0.98392623842 
-0.1162940242 -0.13506904866 -0.98398783124 -0.11644513155 -0.13411173555 -0.98410089611 -0.11617682538 -0.13314960364 -0.98426324136 
-0.11548128629 -0.13220939146 -0.98447181236 -0.11435570017 -0.1313164149 -0.98472268838 -0.11280118093 -0.1304940086 -0.98501127268 
-0.11082232101 -0.12976386086 -0.98533230617 -0.10842710307 -0.12914544273 -0.98567997745 -0.10562661763 -0.12865604164 -0.98604799102 
-0.10243432102 -0.12831046262 -0.98642974157 -0.098866410615 -0.12812147953 -0.98681828081 -0.09494160042 -0.12809942814 -0.9872064774 
-0.090680129665 -0.12825199512 -0.9875872315 -0.086105509893 -0.12858463324 -0.98795335581 -0.081244113873 -0.12910004434 -0.9882978157 
-0.076123821931 -0.12979813731 -0.98861398295 -0.070776221958 -0.1306762345 -0.98889556989 -0.065235521243 -0.13172856069 -0.98913695364 
-0.059538054308 -0.13294643469 -0.98933334402 -0.053724096485 -0.13431835695 -0.98948082369 -0.047835270366 -0.13582977273 -0.98957670736 
-0.041914212112 -0.13746316474 -0.98961966288 -0.036005236767 -0.13919847836 -0.98960972436 -0.030152472836 -0.14101356708 -0.98954838299 
-0.024398585442 -0.14288398896 -0.98943866648 -0.018783997665 -0.14478370909 -0.98928501404 -0.013346488366 -0.14668488928 -0.98909322842 
-0.0081192734352 -0.14855867944 -0.98887026255 -0.0031300538067 -0.15037569258 -0.98862396989 0.0015980920504 -0.15210565806 -0.98836294694 
0.0060483682362 -0.15371805262 -0.98809623901 0.010209512682 -0.15518171685 -0.9878331846 0.014076103976 -0.15646514456 -0.98758317211 
0.01764816382 -0.15753662753 -0.98735543413 0.020929807301 -0.15836326155 -0.98715906548 0.023929079809 -0.1589125371 -0.98700263662 
0.026655866107 -0.15915111044 -0.98689431493 0.029122790808 -0.15904484178 -0.98684173065 0.031343081946 -0.15855931756 -0.98685183996 
0.033329193603 -0.15766022714 -0.98693080691 0.035093185942 -0.1563140556 -0.98708377776 0.036645989293 -0.15448827153 -0.98731476512 
0.037995835642 -0.1521520899 -0.98762647697 0.039148259611 -0.14927742241 -0.98802007314 0.040106742892 -0.1458410494 -0.98849473316 
0.040871139468 -0.14182404902 -0.98904776886 0.041438291661 -0.13721451854 -0.98967421098 0.041803156779 -0.13200878982 -0.99036668739 
0.041958851524 -0.12621177622 -0.99111555447 0.041895440936 -0.11983878373 -0.99190898672 0.041602620815 -0.11291497605 -0.99273331269 
0.041070797656 -0.10547640018 -0.99357330811 0.040290460738 -0.097569670856 -0.99441281071 0.039253350505 -0.089249654295 -0.99523548655 
0.037953923692 -0.080579650408 -0.99602531073 0.036390764473 -0.071628021675 -0.99676734435 0.034565164697 -0.062466436652 -0.99744834136 
0.032482909402 -0.053166924512 -0.9980571821 0.030155299119 -0.043798766303 -0.99858516212 0.027597228312 -0.034427344841 -0.99902610122 
0.024827829627 -0.025110117443 -0.99937633596 0.021871077807 -0.01589727725 -0.99963439943 0.018753964781 -0.0068304317537 -0.99980079716 
0.01550618852 0.0020596836968 -0.99987765043 0.012160146482 0.010750802999 -0.99986826686 0.0087504077674 0.019228421268 -0.99977682419 
0.0053129348724 0.027485591023 -0.9996080807 0.0018849755383 0.03552120385 -0.99936714522 -0.001495897776 0.043338141304 -0.99905934148 
-0.0047914051946 0.050941184701 -0.99869016123 -0.0079638923497 0.058336538359 -0.9982652076 -0.010976616053 0.065530497869 -0.99779019225 
-0.013793178773 0.072527749912 -0.99727101317 -0.016379593948 0.079330136532 -0.99671381968 -0.018702657914 0.085936307479 -0.99612507329 
-0.020733314466 0.092341838697 -0.99551148386 -0.02244566493 0.098539250772 -0.99487999688 -0.023815811385 0.10451747774 -0.99423785081 
-0.024825558783 0.1102620053 -0.99359246264 -0.025460479224 0.11575661743 -0.99295124227 -0.025711210307 0.12098313357 -0.99232152806 
-0.02557302409 0.1259220751 -0.99171046755 -0.025044941174 0.13055397825 -0.99112482044 -0.024130220073 0.13485871744 -0.99057097616 
-0.022836029551 0.13881664375 -0.99005477382 -0.021173918742 0.14241054431 -0.98958117506 -0.019157307434 0.14562315807 -0.98915463574 
-0.01680150475 0.14843917907 -0.98877880214 -0.014125398493 0.15084514301 -0.98845648156 -0.011149061663 0.15282921364 -0.98818972363 
-0.0078939908303 0.15438230324 -0.98797965027 -0.0043829760661 0.1554979044 -0.98782649855 -0.00063988795879 0.15617228257 -0.98772962328 
0.0033097135141 0.15640393544 -0.98768763016 0.0074405938085 0.1561954742 -0.9876981378 0.011726857822 0.1555529425 -0.98775794752 
0.016142132431 0.15448618808 -0.98786307212 0.0206603181 0.15300942984 -0.98800873763 0.025255548633 0.15114156494 -0.98818944773 
0.02990261804 0.1489065049 -0.98839905212 0.034577361163 0.14633102744 -0.98863119337 0.039256879131 0.14344622811 -0.98887920247 
0.043919034145 0.1402858343 -0.98913649368 0.048543422546 0.13688873283 -0.9893962861 0.053111341273 0.13329536769 -0.98965222699 
0.05760479046 0.1295473055 -0.98989857246 0.062006993882 0.12568845152 -0.99013006512 0.066301231977 0.1217613238 -0.99034252997 
0.070472662689 0.11781028909 -0.99053235162 0.074506857902 0.11387890941 -0.9906968871 0.078388433026 0.11000891082 -0.99083464469 
0.082101192378 0.10623952843 -0.99094528447 0.085629452858 0.10260894437 -0.99102926361 0.08895698321 0.099152596853 -0.99108799694 
0.092066558149 0.095903108799 -0.99112377763 0.094941473598 0.092890160087 -0.99113951326 0.097564009646 0.090140295497 -0.99113873456 
0.099916642934 0.087676926486 -0.99112533064 0.10198221522 0.085519404324 -0.99110345538 0.10374425849 0.083685198758 -0.99107714954 
0.1051879993 0.08218847369 -0.99105022052 0.10630035259 0.081040322472 -0.99102608501 0.1070694223 0.080249053919 -0.9910076832 
0.1070694223 0.080249053919 -0.9910076832 
NormalArray 3 229 double
-0.14445494561 0.9885184064 0.044318493824 -0.14445494561 0.9885184064 0.044318493824 -0.14406857823 0.98859451927 0.043876203502 
-0.14455282319 0.98856859127 0.042855824168 -0.14420126611 0.98868468401 0.041335099521 -0.14271127244 0.98898190998 0.039348118807 
-0.14156288779 0.98924235629 0.036871524635 -0.14017449271 0.98954383715 0.033972134858 -0.13789244385 0.98997041914 0.030728539811 
-0.13511925563 0.99045627876 0.027187251042 -0.13179221556 0.9910006548 0.023420377879 -0.12775787721 0.99161350732 0.019508380406 
-0.12253841666 0.99234200111 0.015546358902 -0.1161217646 0.99316710527 0.011611925124 -0.10781194116 0.99414064767 0.0078075595761 
-0.09789494891 0.99518792307 0.0041924630357 -0.084584616671 0.99641589751 0.00089543413038 -0.068054307482 0.99767953858 -0.0020370407631 
-0.046053861933 0.99892891588 -0.004479154975 -0.01838643841 0.9998105151 -0.0063931823796 0.020143407253 0.99976848076 -0.0075649212127 
0.069584858208 0.99754412281 -0.0079793826411 0.13621891541 0.99065125221 -0.0073826542503 0.22296304303 0.97481062971 -0.0056318429418 
0.33124070916 0.9435426756 -0.0026099652617 0.45911117124 0.88837717723 0.0017097988776 0.5936345066 0.80470521612 0.0068983848119 
0.71347700829 0.70057556505 0.012018165329 0.80474951014 0.59339247696 0.016235584753 0.86468899846 0.50194508014 0.019080682912 
0.89956947083 0.43629362225 0.020558266569 0.91770175372 0.39671838147 0.020928856246 0.9243448733 0.38101226558 0.020401193089 
0.9245885515 0.38047747553 0.019310645826 0.92012560262 0.39121922774 0.017787390096 0.91292800292 0.4078067326 0.016004072238 
0.90369073613 0.4279559047 0.014028437684 0.89432522583 0.44725626046 0.012009493195 0.88529997658 0.46491333236 0.0099772167567 
0.87700688783 0.48041199018 0.0079522564957 0.87067698874 0.49181853261 0.0060093477589 0.86631119031 0.49948752306 0.0041395467678 
0.86337497476 0.50455758512 0.0023013577244 0.86249759921 0.50606087489 0.00053127212711 0.8629491059 0.50528937363 -0.0012204626978 
0.86469096068 0.50229552805 -0.002957198667 0.86703815918 0.49821934335 -0.0047240271831 0.86963518687 0.4936514865 -0.0065461160359 
0.87239861221 0.48872241084 -0.0084300980258 0.87443376323 0.485032629 -0.010437553875 0.87610328641 0.48196018339 -0.012546440274 
0.8765379142 0.48110470445 -0.014817163344 0.87583026662 0.48231109256 -0.017243957684 0.87361555698 0.4862117209 -0.019849963601 
0.86963390242 0.49317740454 -0.022647812567 0.86415786514 0.50256869983 -0.025610272488 0.85633716745 0.51561456315 -0.028779817827 
0.84647366387 0.5314608894 -0.032119455501 0.83427087015 0.55020264189 -0.03562538531 0.81941477642 0.57185288023 -0.039290043879 
0.80233890479 0.59531316962 -0.043064044556 0.7824588276 0.62092989765 -0.046949390957 0.76006739463 0.64784742197 -0.05090455254 
0.73561399754 0.67517351401 -0.054888729326 0.7091474625 0.70259714952 -0.0588822717 0.68133897443 0.72926463416 -0.062851374568 
0.65238753859 0.75493731052 -0.066784404398 0.62345434225 0.77866062984 -0.07065625712 0.59488591902 0.80035301293 -0.074470115127 
0.56784944012 0.81940724186 -0.078222665124 0.54244061263 0.83608925556 -0.081932524103 0.51992735965 0.84990963261 -0.085610496327 
0.50043524072 0.86115858053 -0.089277483321 0.48459297626 0.86978712711 -0.092951605018 0.47288568003 0.8758070485 -0.096649611564 
0.46541003651 0.87938432395 -0.10038281081 0.46260019607 0.88042734575 -0.10415732068 0.46442711243 0.87900515632 -0.10796940495 
0.47100995124 0.87501368106 -0.11180645687 0.4824072603 0.86827945357 -0.1156461228 0.49855092425 0.85859061152 -0.11945349616 
0.51919684646 0.84573099292 -0.12318166358 0.54427345345 0.82927415699 -0.12677058183 0.57334379814 0.80891183177 -0.13014813697 
0.60592165817 0.78428850485 -0.13323094731 0.64159227198 0.75490696476 -0.13592215087 0.67931950988 0.72072473861 -0.1381334668 
0.7183989453 0.6814462013 -0.13976419472 0.75787423457 0.63704221862 -0.1407261748 0.79673025888 0.58766914177 -0.14094635287 
0.83400600135 0.53360214275 -0.14036645954 0.8687357421 0.47538262084 -0.13895889393 0.90032258233 0.41320581576 -0.1366755339 
0.92784480851 0.34822936339 -0.13356766747 0.9511660158 0.28017622016 -0.12955499236 0.96985063855 0.20942907525 -0.12461621623 
0.9835225086 0.13633482173 -0.11872780408 0.99190760118 0.060281317737 -0.11173841531 0.99444124977 -0.020113310553 -0.10335402993 
0.98995265935 -0.1063381146 -0.093198377864 0.97624754937 -0.20110486877 -0.080607407241 0.94901299286 -0.3085732359 -0.064474006106 
0.89920551052 -0.4354286738 -0.042793923558 0.80920164787 -0.58739369509 -0.012701970621 0.64369201635 -0.76469728101 0.029977599856 
0.3526468175 -0.93177553761 0.086223950347 -0.056457556619 -0.98834553439 0.14137060854 -0.44139856809 -0.88081710616 0.17125574323 
-0.69128638238 -0.70101133973 0.17523195798 -0.82876655215 -0.53395388031 0.1674492632 -0.90337110778 -0.39934105441 0.15635652813 
-0.94503354023 -0.29311752861 0.14489210561 -0.96895329384 -0.20789459442 0.13382582696 -0.98274663543 -0.13789420029 0.12326491831 
-0.99042569385 -0.07909930657 0.11313816625 -0.99423928113 -0.028535982389 0.10331480809 -0.99547753002 0.015457331512 0.093731308164 
-0.9949576738 0.054338722633 0.084300240653 -0.9931975931 0.089098944332 0.074966120276 -0.99055481355 0.12034746398 0.065708821877 
-0.9872763194 0.14863559796 0.056506001275 -0.98352336749 0.17447370945 0.047336141667 -0.97945975628 0.19798227218 0.03823095259 
-0.97515799185 0.21958038702 0.029177809551 -0.97070173928 0.23943688137 0.02020181182 -0.96618088191 0.25761564314 0.011343890136 
-0.96166507058 0.27421400346 0.0026405184891 -0.9571959267 0.28938106731 -0.0058784166306 -0.95285299241 0.30310181399 -0.014158574001 
-0.94875870606 0.31522588086 -0.022126041431 -0.94499510938 0.32573067793 -0.029728247543 -0.94179174976 0.33417116202 -0.036850163588 
-0.93930504182 0.34032510732 -0.043414971283 -0.93788012647 0.34344329247 -0.049270409369 -0.93781840982 0.34285599477 -0.05428072452 
-0.93964117609 0.33717432875 -0.058205946729 -0.94382680125 0.3248028435 -0.060778960989 -0.95096784123 0.30309850592 -0.061574837921 
-0.96134233747 0.26872617708 -0.060059569915 -0.97481155149 0.216058245 -0.055328779526 -0.98917435704 0.13921731811 -0.046396440763 
-0.99909442824 0.028510219801 -0.031583078326 -0.99250269623 -0.12184092831 -0.0096532979272 -0.95055129066 -0.30994790114 0.019609752856 
-0.85802581934 -0.51090191821 0.0526395604 -0.72110827175 -0.68779860404 0.083282295202 -0.56959524896 -0.81501123228 0.10638582433 
-0.42996606671 -0.89466100224 0.12128838588 -0.31469463852 -0.94030388133 0.12959897856 -0.22342597106 -0.9655504934 0.13339070488 
-0.15133136798 -0.97933405648 0.13417757965 -0.093890013145 -0.98667666616 0.13286768564 -0.047097459323 -0.99039161573 0.13002413934 
-0.0079366272665 -0.99199996585 0.12598840304 0.026303944401 -0.99230423642 0.12099754084 0.056543433874 -0.99173508485 0.11517101011 
0.084339359958 -0.99049737932 0.10863615384 0.1103297601 -0.98870079836 0.10147943314 0.13533499634 -0.98635072216 0.09379067997 
0.15948542616 -0.98347845568 0.085641847569 0.18308458002 -0.98006823387 0.077112213762 0.20648832527 -0.97606354187 0.068282748643 
0.22945675609 -0.97151555493 0.059220972757 0.25198571899 -0.96643849862 0.049998258106 0.27409949389 -0.96084043695 0.040683192685 
0.29537619244 -0.95486718515 0.031329916286 0.31563824641 -0.94862471611 0.021991939029 0.33458652482 -0.94227927046 0.012713530724 
0.3517878681 -0.9360731029 0.0035273060573 0.36690888727 -0.93024038722 -0.0055398951179 0.37947843705 -0.92508741062 -0.014470608868 
0.38914378227 -0.92088350578 -0.023252645009 0.39539802737 -0.91795639996 -0.031881777334 0.39805094004 -0.91647541488 -0.040351741757 
0.39651872741 -0.9167359424 -0.04866323785 0.3907579148 -0.91873895514 -0.056806551841 0.38016736822 -0.92264653942 -0.06477758433 
0.36456327167 -0.92834747678 -0.072557448328 0.34369404157 -0.93565773561 -0.080118709283 0.31680535269 -0.94445272445 -0.08742665374 
0.28425391701 -0.95408838623 -0.094419605637 0.24478462281 -0.96429913925 -0.10103295738 0.19827729149 -0.97426955611 -0.10716784835 
0.14430592897 -0.98309406238 -0.1127025438 0.081912214194 -0.98969164684 -0.11747694811 0.011169701331 -0.99255295275 -0.12130075746 
-0.068948101059 -0.98989473467 -0.12391357325 -0.15815888137 -0.97946685316 -0.12502180534 -0.25650001258 -0.95852505425 -0.1242475912 
-0.36212980455 -0.92421038831 -0.12123185553 -0.47238820757 -0.87377199741 -0.11563683619 -0.58396871137 -0.80467297172 -0.10715387401 
-0.69082334625 -0.71664255927 -0.095846473699 -0.78720036256 -0.61121782258 -0.082026596573 -0.86778442343 -0.49248805903 -0.066375493669 
-0.92913256025 -0.36637419365 -0.049826054554 -0.97033734766 -0.23943857258 -0.033385651171 -0.99297994283 -0.11692904655 -0.017844640653 
-0.99998905197 -0.0027494861604 -0.0037863263859 -0.99488247175 0.10068682329 0.0084279897176 -0.98102794691 0.19295846311 0.018740301215 
-0.96133786553 0.27403036271 0.027145323855 -0.93807891371 0.34477101066 0.033777238738 -0.91306644325 0.4059650821 0.038755932827 
-0.88760597344 0.45866207745 0.042246119522 -0.86238234723 0.50429959912 0.044481473868 -0.8383423807 0.54324015493 0.045521278596 
-0.8153974362 0.57709939777 0.045643248367 -0.79477044097 0.60525836068 0.044746653396 -0.77559590009 0.62974997865 0.043196807171 
-0.75884473729 0.64998578993 0.040904004455 -0.74388703594 0.66721779723 0.038111531208 -0.73092920638 0.68156221981 0.034863100614 
-0.72022869503 0.6930354176 0.031185522577 -0.71139891569 0.70226102877 0.027221870289 -0.70436860691 0.70946025171 0.023043802833 
-0.69868775364 0.71518001674 0.018787404651 -0.69489355456 0.7189684512 0.014398403225 -0.69203813494 0.72179034069 0.010095735134 
-0.69064401053 0.7231714655 0.0058208418674 -0.69001312801 0.7237947656 0.0017379475318 -0.69032581974 0.72349542023 -0.0021539506951 
-0.69105479633 0.72277967805 -0.0057276052368 -0.6920960133 0.72175011746 -0.0089373560521 -0.69353594448 0.72032579233 -0.011774830243 
-0.69504707379 0.71882481198 -0.01415820982 -0.69671650506 0.71716619146 -0.016086186794 -0.69717207432 0.71669537021 -0.01728713725 
-0.69717207432 0.71669537021 -0.01728713725 
BinormalArray 3 229 double
0.98901338651 0.14281658295 0.038156846484 0.98901338651 0.14281658295 0.038156846484 0.98906764734 0.14244477325 0.038140209283 
0.98899237813 0.14296037643 0.038162897705 0.98903659471 0.14265761251 0.038149966042 0.98924321458 0.14123344451 0.038091686324 
0.98939651052 0.14016671214 0.038050463655 0.98958043456 0.13887495464 0.038004085456 0.98988551523 0.13670318548 0.037932912189 
0.99025098038 0.13405215291 0.037855199893 0.99068138137 0.13085705396 0.037773430192 0.99119129814 0.12696201146 0.037688965736 
0.99183164683 0.12188635427 0.037599215201 0.9925854498 0.11561515654 0.037513470023 0.99350561151 0.10744908342 0.037433866578 
0.99451665353 0.097671465158 0.037375269037 0.99572415726 0.084492337778 0.037342301727 0.99698018791 0.068082869005 0.037352749004 
0.9982313555 0.046189517771 0.037425784402 0.99912032215 0.018614033802 0.037577913778 0.99908641729 -0.019843271125 0.037849377542 
0.99686751747 -0.069231797542 0.038237557832 0.98997285691 -0.1358368033 0.038757005318 0.97412094611 -0.22257803084 0.039337037795 
0.94283238089 -0.33088123729 0.039808395507 0.88764055186 -0.45880723352 0.039876975369 0.80394538601 -0.59340999427 0.039196875173 
0.69980498876 -0.71333883568 0.037691951687 0.59262580718 -0.80468647641 0.035697721813 0.50119289459 -0.86467667237 0.033762918662 
0.43556086524 -0.89958003847 0.032287568259 0.39600670369 -0.91771113914 0.031384004405 0.38032253467 -0.92433316153 0.031031856539 
0.37981115785 -0.92454377416 0.0310208645 0.39057870501 -0.92003939485 0.031237591316 0.40719495187 -0.91279638166 0.031544204012 
0.42737624118 -0.90351166421 0.031878223187 0.44671169073 -0.89409982068 0.03215860738 0.46440667366 -0.88503001895 0.032377569735 
0.47994588367 -0.87669456398 0.032535983774 0.49139482206 -0.87032555026 0.032627678645 0.49910794703 -0.86592363319 0.032672904659 
0.50422426144 -0.86295372018 0.03269206325 0.50577541825 -0.86204540871 0.032694642038 0.50505404496 -0.86246823374 0.032694914853 
0.50211268864 -0.86418367807 0.032701964176 0.49809215069 -0.86650656663 0.032719709961 0.49358369652 -0.8690814958 0.032748865365 
0.48871810874 -0.8718253195 0.032790585188 0.48509722511 -0.87384374971 0.032829609972 0.48209899415 -0.87549996852 0.032868905622 
0.48132444022 -0.87592558154 0.032880980072 0.48261866271 -0.87521404361 0.032857332148 0.48661474879 -0.87300173908 0.032772699343 
0.4936839966 -0.86903010113 0.032600534075 0.50318662972 -0.86357256872 0.032336267868 0.51635249276 -0.85578104245 0.031920379048 
0.53232683706 -0.84595824354 0.031349461543 0.55120446266 -0.83380930149 0.030589035587 0.57299810074 -0.81902190517 0.029602287212 
0.59660831881 -0.80202975613 0.028403947153 0.62238112886 -0.78225055048 0.026940800193 0.64945996756 -0.75997731062 0.025223756119 
0.67695189293 -0.73565900735 0.023280025009 0.70454542259 -0.70934490846 0.021108016036 0.73138673844 -0.68170487405 0.018759091693 
0.75723727417 -0.65293776886 0.01624747985 0.78114359364 -0.62420167405 0.013673194075 0.80302520122 -0.59584228759 0.011067724518 
0.82227722532 -0.56902304436 0.0085404746911 0.83916719728 -0.54383926208 0.0061050823224 0.85320939902 -0.52155400394 0.0038913240166 
0.86469615422 -0.50229161074 0.0019231900689 0.87358181542 -0.48667723743 0.00027988509082 0.87988141505 -0.47519233997 -0.00096719935607 
0.8837632179 -0.46793097648 -0.0017821168304 0.88513880489 -0.46532241284 -0.0020852318036 0.88407883382 -0.467334163 -0.001842735408 
0.88048098762 -0.47408041011 -0.00099759642811 0.87417310061 -0.48561418133 0.0005070163342 0.86494364085 -0.50186164112 0.0027187000544 
0.85257551917 -0.52257331449 0.0056670186448 0.83664147128 -0.54767003476 0.0094117773248 0.81683014307 -0.57670917658 0.013965779949 
0.79278188676 -0.60919863541 0.019336562025 0.76399493478 -0.64471627644 0.02554726061 0.73041882982 -0.68222519145 0.032513400274 
0.69175050169 -0.72101669599 0.040201585857 0.64795187025 -0.76013410215 0.048523402518 0.59916976567 -0.79856443688 0.057362287716 
0.54566982763 -0.83535021338 0.066591742972 0.48798415483 -0.869532666 0.076055291655 0.42629964169 -0.90051639759 0.085666989914 
0.36176599136 -0.92739469115 0.095207427864 0.29409874524 -0.95002480269 0.10468429841 0.22367225086 -0.96797406139 0.11400412571 
0.15082489988 -0.9808684236 0.12308121369 0.074932276961 -0.98842174677 0.13193788076 -0.0054073791177 -0.99004593866 0.14064067544 
-0.091711655546 -0.98454579341 0.14919300558 -0.18674051782 -0.9696859146 0.15759824245 -0.29473825228 -0.94109438852 0.16574291699 
-0.42255539996 -0.88963995775 0.17316951099 -0.57620855771 -0.79764567946 0.17817145692 -0.75648248811 -0.62987597535 0.1760411908 
-0.9285019774 -0.33697284698 0.15599159708 -0.99159118372 0.07202185117 0.10751640487 -0.88975853428 0.45434833394 0.043558490741 
-0.71329321464 0.70078796963 -0.010440860724 -0.54778533741 0.83525400501 -0.047769982572 -0.41375903036 0.9074679256 -0.072838374575 
-0.30761992947 0.94722935704 -0.090147235973 -0.22220053481 0.96958820756 -0.1025944935 -0.15182907563 0.98205540194 -0.11187099408 
-0.092542718989 0.98857459247 -0.1189794952 -0.041396675152 0.99134786235 -0.12456215755 0.0032526508175 0.99164086615 -0.12898764611 
0.042852554596 0.99025185128 -0.13253274914 0.078386109971 0.98768789109 -0.13538185828 0.11045612396 0.98430161356 -0.13765819341 
0.13960885679 0.98033662717 -0.13946133706 0.16635056958 0.97595217426 -0.14087172019 0.19079547323 0.97131385566 -0.14193830067 
0.21335911282 0.96649350703 -0.14271716729 0.23420472843 0.96157608062 -0.14324659283 0.25338960189 0.95665273388 -0.14355924354 
0.27100459563 0.9517933382 -0.14368698793 0.28719258491 0.9470387434 -0.14365945033 0.30193046094 0.94246722185 -0.14350446858 
0.31505813226 0.93819870482 -0.14325349407 0.32654464424 0.93431108472 -0.1429384213 0.33593179565 0.93102802199 -0.14260663007 
0.34298704903 0.9284983253 -0.14230510921 0.34694534316 0.92705655488 -0.14210936956 0.34712256669 0.92699171282 -0.14209957092 
0.34210799091 0.92880796311 -0.14240045725 0.33028281078 0.93296395837 -0.14314858468 0.30896929985 0.94002657103 -0.14452687467 
0.27478983333 0.95024652209 -0.14670410615 0.22204590121 0.96345208088 -0.14985227926 0.14478083615 0.97742792261 -0.15386086439 
0.033163055826 0.98684248561 -0.15824702309 -0.11870240532 0.9797242094 -0.16140078216 -0.30898196556 0.93743866007 -0.16043348641 
-0.51252400744 0.84505768013 -0.15230449451 -0.69193303774 0.70887163599 -0.13685640279 -0.82110798549 0.55847118566 -0.11786267837 
-0.90204517512 0.42003741811 -0.099413628034 -0.94838531107 0.30585104531 -0.083788064944 -0.97389541771 0.21550552894 -0.07130976347 
-0.98763777116 0.14418996129 -0.061488926159 -0.99471982659 0.087414714769 -0.053769268417 -0.99801519297 0.041208335292 -0.047618774594 
-0.99908781632 0.002579786037 -0.042624875103 -0.9987756878 -0.031160364164 -0.038420790823 -0.99753298794 -0.060923966283 -0.034874178202 
-0.99559030828 -0.08825911037 -0.031784705363 -0.99307805474 -0.11380197996 -0.029070372319 -0.99002202664 -0.13837178937 -0.02663896898 
-0.98647042455 -0.1621019653 -0.024475586375 -0.98242340608 -0.18529890303 -0.022551446001 -0.97783834089 -0.20832164201 -0.020839207189 
-0.97277667411 -0.23093463288 -0.019358141724 -0.96726100684 -0.25313691248 -0.018106578388 -0.96130528993 -0.27495529208 -0.017080015113 
-0.9550583667 -0.29596983076 -0.016290348907 -0.94862751033 -0.31600383629 -0.015729656262 -0.94217840466 -0.33475830334 -0.015386101829 
-0.93595130962 -0.35179952208 -0.015239497739 -0.93017740205 -0.36679318727 -0.015256424538 -0.92515920045 -0.37926712291 -0.015391663313 
-0.92116170646 -0.38886772953 -0.01558844094 -0.91850794597 -0.39508770147 -0.015775339291 -0.91736209395 -0.39773687211 -0.015879834351 
-0.91801412911 -0.3962325171 -0.015806680374 -0.92045903137 -0.39053243221 -0.01547872595 -0.9248525753 -0.38003831009 -0.014785020097 
-0.93107645721 -0.36456918116 -0.013636091084 -0.93893882372 -0.3438769129 -0.011939601459 -0.94830616316 -0.31721286597 -0.0095613059792 
-0.9585248251 -0.28493567009 -0.0064671148129 -0.96931763657 -0.24579907668 -0.0024765579603 -0.97985658278 -0.19968707742 0.0024795775881 
-0.98922165893 -0.14617918697 0.0084943983294 -0.99631428433 -0.084325854238 0.015716142772 -0.9996070085 -0.014202724378 0.024168392241 
-0.99729242442 0.065207708744 0.033996689855 -0.98709600301 0.15362402914 0.045178960878 -0.96624296946 0.25108334613 0.057720683225 
-0.93184790627 0.3557598875 0.07137493981 -0.88113622472 0.46501799256 0.085774239039 -0.81155008577 0.57558257828 0.10045473547 
-0.72282834319 0.68146111581 0.11458592376 -0.61653553206 0.7769546423 0.12737904658 -0.49681575345 0.85679562509 0.13811359078 
-0.36966250877 0.91757073552 0.14633377919 -0.24171516556 0.95837861604 0.15193487766 -0.11828112136 0.98078428629 0.15515076571 
-0.0033078298175 0.98768934858 0.15639312311 0.10076460171 0.98258085543 0.1561453092 0.19351136447 0.96879838645 0.15486458028 
0.27489805357 0.94923199377 0.15293685671 0.34580500705 0.92613231484 0.15065799848 0.40702804262 0.90130382195 0.148255162 
0.4596318846 0.87604563323 0.14588550015 0.50507533426 0.8510400371 0.14363064429 0.54372874687 0.82723232149 0.14158296548 
0.577233176 0.80453475362 0.13973435778 0.60496568687 0.78417076689 0.13817643091 0.62899140311 0.7652759694 0.13683020671 
0.64871900913 0.74882305555 0.13574858624 0.66542258037 0.73418173786 0.13487017953 0.67922503038 0.72155881295 0.13418732261 
0.69014797738 0.71121209617 0.13369040199 0.69882781204 0.70275247524 0.13333659536 0.70549282007 0.69610645076 0.13310030069 
0.71070023015 0.69081886646 0.1329453896 0.71399617971 0.68742692027 0.13286716918 0.71635876132 0.68497260283 0.13282566942 
0.7173106716 0.68397779584 0.13281481546 0.7175430299 0.68373427255 0.13281357155 0.71689017751 0.68441880748 0.13281328754 
0.71586306856 0.68549419659 0.13280727959 0.71456471796 0.6868502016 0.13279331461 0.71291305399 0.68856919799 0.13276835855 
0.71122784677 0.69031582951 0.13273660196 0.70942677326 0.6921741977 0.13269714926 0.70886334198 0.69275380596 0.13268355864 
0.70886334198 0.69275380596 0.13268355864 
