# vtk DataFile Version 4.1
vtk output
ASCII
DATASET POLYDATA
POINTS 153 float
-3.78264 -0.631666 -171.311 -3.78369 -0.635076 -169.699 -3.78465 -0.638468 -168.085 
-3.78519 -0.641788 -166.467 -3.78501 -0.644981 -164.84 -3.7838 -0.647993 -163.202 
-3.78126 -0.650768 -161.548 -3.77708 -0.653249 -159.875 -3.77095 -0.655381 -158.182 
-3.76258 -0.657103 -156.465 -3.75168 -0.658353 -154.722 -3.73794 -0.659067 -152.952 
-3.72107 -0.659176 -151.153 -3.70078 -0.658605 -149.325 -3.67679 -0.657271 -147.467 
-3.6488 -0.655085 -145.579 -3.61652 -0.651946 -143.663 -3.57968 -0.647743 -141.718 
-3.53796 -0.642347 -139.747 -3.4911 -0.63562 -137.751 -3.43877 -0.6274 -135.732 
-3.38069 -0.617512 -133.691 -3.31655 -0.605759 -131.632 -3.24602 -0.591924 -129.557 
-3.16879 -0.575768 -127.467 -3.08452 -0.557036 -125.366 -2.99286 -0.535451 -123.255 
-2.89347 -0.51072 -121.136 -2.78599 -0.482533 -119.01 -2.67003 -0.45057 -116.88 
-2.54521 -0.414502 -114.746 -2.41116 -0.373993 -112.608 -2.26746 -0.328709 -110.467 
-2.11371 -0.278316 -108.323 -1.94951 -0.222488 -106.174 -1.77446 -0.160912 -104.021 
-1.58815 -0.0932867 -101.862 -1.39019 -0.0193292 -99.6955 -1.18022 0.0612234 -97.5196 
-0.957861 0.148613 -95.3326 -0.722798 0.243057 -93.1326 -0.474731 0.344751 -90.9175 
-0.213403 0.453867 -88.6853 0.0613938 0.570553 -86.4342 0.349812 0.694933 -84.1624 
0.651942 0.82711 -81.8683 0.967801 0.967163 -79.5506 1.29733 1.11515 -77.2083 
1.64039 1.2711 -74.8406 1.99674 1.43503 -72.4473 2.36606 1.60692 -70.0282 
2.74792 1.78672 -67.5837 3.14178 1.97435 -65.1145 3.54703 2.1697 -62.6218 
3.96292 2.37261 -60.1069 4.38862 2.58289 -57.5716 4.82319 2.80028 -55.0178 
5.26561 3.02449 -52.4478 5.71477 3.25516 -49.8642 6.16948 3.49188 -47.2694 
6.62846 3.73419 -44.6664 7.09039 3.98155 -42.0579 7.5539 4.23338 -39.4467 
8.01757 4.48904 -36.8357 8.47998 4.74785 -34.2277 8.93967 5.00907 -31.6254 
9.3952 5.27193 -29.0313 9.84515 5.53564 -26.4478 10.2881 5.79939 -23.877 
10.7228 6.06236 -21.321 11.1479 6.32371 -18.7813 11.5621 6.58266 -16.2595 
11.9645 6.83841 -13.7569 12.3539 7.09022 -11.2743 12.7296 7.33739 -8.81237 
13.0905 7.57928 -6.37166 13.4362 7.81529 -3.95234 13.766 8.04491 -1.5544 
14.0795 8.2677 0.822367 14.3764 8.48326 3.17833 14.6566 8.69132 5.51401 
14.9198 8.89163 7.83004 15.1663 9.08405 10.1272 15.396 9.26848 12.4061 
15.6093 9.4449 14.6678 15.8063 9.61332 16.9129 15.9874 9.77382 19.1424 
16.1531 9.92651 21.3569 16.3037 10.0715 23.5571 16.4396 10.209 25.7437 
16.5615 10.3392 27.9172 16.6697 10.4623 30.0781 16.7647 10.5784 32.2267 
16.847 10.6877 34.3632 16.9171 10.7904 36.4878 16.9754 10.8868 38.6007 
17.0223 10.9768 40.7016 17.0582 11.0608 42.7907 17.0836 11.1387 44.8676 
17.0987 11.2107 46.9322 17.104 11.2769 48.9842 17.0996 11.3374 51.0232 
17.086 11.3921 53.0489 17.0634 11.4412 55.061 17.032 11.4845 57.0591 
16.9921 11.5222 59.043 16.9438 11.5542 61.0124 16.8873 11.5804 62.9671 
16.8228 11.6009 64.9071 16.7504 11.6156 66.8324 16.6703 11.6244 68.7433 
16.5825 11.6274 70.6401 16.4872 11.6244 72.5234 16.3843 11.6155 74.3941 
16.274 11.6005 76.2531 16.1563 11.5796 78.1017 16.0312 11.5525 79.9414 
15.8988 11.5194 81.7738 15.7592 11.4803 83.6008 15.6122 11.4351 85.4246 
15.458 11.3839 87.2472 15.2966 11.3267 89.0712 15.1281 11.2636 90.8989 
14.9526 11.1946 92.7329 14.7701 11.1197 94.5756 14.5809 11.0391 96.4296 
14.3849 10.9528 98.2972 14.1825 10.8608 100.181 13.9737 10.7633 102.083 
13.7589 10.6603 104.005 13.5384 10.5519 105.949 13.3123 10.4381 107.917 
13.081 10.3191 109.909 12.8449 10.1948 111.928 12.6042 10.0654 113.975 
12.3593 9.93098 116.049 12.1106 9.79154 118.151 11.8584 9.64722 120.283 
11.6031 9.49812 122.442 11.345 9.34436 124.63 11.0844 9.18607 126.846 
10.8216 9.02341 129.089 10.5569 8.85656 131.359 10.2906 8.68575 133.653 
10.0228 8.5112 135.971 9.75393 8.33318 138.311 9.48402 8.15199 140.671 
9.2133 7.96798 143.049 8.94191 7.78149 145.443 8.67 7.59291 147.851 
8.39769 7.40266 150.269 8.1251 7.21118 152.695 7.85235 7.01892 155.126 

LINES 1 154
153 152 151 150 149 148 147 146 145 144 143 142 141 140 139 138 137 136 135 134 133 132 131 130 129 128 127 126 125 124 123 122 121 120 119 118 117 116 115 114 113 112 111 110 109 108 107 106 105 104 103 102 101 100 99 98 97 96 95 94 93 92 91 90 89 88 87 86 85 84 83 82 81 80 79 78 77 76 75 74 73 72 71 70 69 68 67 66 65 64 63 62 61 60 59 58 57 56 55 54 53 52 51 50 49 48 47 46 45 44 43 42 41 40 39 38 37 36 35 34 33 32 31 30 29 28 27 26 25 24 23 22 21 20 19 18 17 16 15 14 13 12 11 10 9 8 7 6 5 4 3 2 1 0 

CELL_DATA 1
FIELD FieldData 2
LengthArray 1 1 double
328.93286158 
TortuosityArray 1 1 double
0.0067320767275 
POINT_DATA 153
FIELD FieldData 8
RadiusArray 1 153 double
56.253710604 56.424173311 56.715302574 56.784438638 57.043111424 57.208347409 57.474424064 57.711209343 58.238954057 
58.285080587 58.447914333 58.68739674 58.831390305 59.060798693 59.246869791 59.358505808 59.443206825 59.729348868 
60.198829664 60.804369057 60.833009522 61.409263724 61.414538576 61.761141481 61.872191916 62.174090531 62.341851708 
62.37781952 62.556647773 62.68569209 62.886220121 62.964032726 63.016360616 63.079061377 63.272525724 63.283227188 
63.356686014 63.357480099 63.3535692 63.353023858 63.350389868 63.253309138 63.253198429 63.06720497 63.038944669 
62.962187824 62.787901287 62.71916782 62.492536249 62.427400574 62.164857483 62.059261997 61.607357757 61.22864973 
60.436481096 59.827464084 59.688732924 58.993247014 58.920642247 58.693612745 58.117361079 57.722372178 57.25436338 
57.248825084 56.488028169 56.452972338 55.770931834 55.684130579 55.143968312 55.124874811 55.104766324 54.712591065 
54.706844568 54.672040723 54.632638507 54.657418038 54.65705547 54.606217877 54.595407799 54.595408981 54.595703261 
54.67927119 54.723241461 54.809888195 54.912782642 54.981985169 55.095182068 55.122029175 55.428377 55.656552227 
55.903362088 56.021216021 56.21218441 56.400108207 56.638120122 56.76757985 56.96389359 57.172777461 57.395735723 
58.009748922 58.11527076 58.365785956 58.427123227 59.080406252 59.38968501 59.887060061 60.002735596 60.513470225 
60.596039666 61.361815141 61.722645975 61.951596027 61.996091258 62.205770688 62.416124758 62.697303588 63.383794253 
63.852645063 63.960628882 63.98721284 64.162837857 64.165206029 64.412590072 64.886804659 65.115847772 65.24383873 
65.447294689 65.561865133 66.531600363 66.565600176 66.871091702 67.243645365 67.800852773 67.89646874 68.274607362 
68.45760449 68.769791837 69.004706586 69.669277812 69.857423167 69.973126619 70.625340869 70.836255185 70.839984569 
71.415056696 72.101797745 72.420840782 73.180024637 73.624344895 74.252826445 74.395872117 74.648779906 75.218260171 

EdgeArray 2 153 int
16931 16931 15940 15940 9107 16568 16625 16568 16625 
16625 18110 18110 16566 16566 16629 16629 19171 19171 
16567 15939 14591 15939 14591 14591 15487 15487 15946 
14867 15946 15946 15948 15948 13229 13229 16569 15489 
15171 15491 15334 15727 15728 15336 15729 15493 15725 
15493 13753 13753 15730 15730 16577 16576 16575 16576 
15337 16575 15732 15732 16140 16143 16340 16346 16346 
16347 16347 16347 16348 16348 16790 16790 16788 16788 
16787 16785 16785 15594 16194 16194 17154 17143 17565 
17154 16793 18261 18261 15341 19745 18684 19745 19743 
19744 19744 19181 19181 9889 9889 18448 18448 14967 
14967 19520 19520 18450 18450 19750 19750 20748 20748 
21739 21739 22126 22126 22208 22121 22208 22209 21298 
22209 22437 22437 22440 22440 21867 22439 22558 21867 
22558 12908 22551 22551 22553 5592 13379 13379 22389 
21871 22682 22682 22705 22711 22707 22707 22561 4063 
4063 22280 20975 20975 22668 22668 22918 22918 22917 
22922 22919 22919 22671 22671 10057 22671 10057 10057 
22853 22853 22714 22714 22386 14645 14645 5215 5215 
5215 15582 16421 14979 16421 14979 14979 21140 21140 
20689 20689 14625 14625 20456 20456 20458 20458 6902 
6902 17579 17579 21482 21482 4286 4286 15343 15343 
21774 21774 21782 21787 21787 21787 18953 21789 18953 
18953 15353 15353 7456 7456 20306 20306 14655 14655 
7457 20298 20298 20298 19973 19973 19974 19974 21793 
21794 21793 21793 18957 18957 8828 8828 17909 17909 
18721 18721 13478 22596 22594 22596 22594 22594 21958 
18314 21958 21958 16285 16285 20469 20469 9912 21957 
15188 21957 15188 15188 21972 21972 21967 21967 21226 
21226 21228 21228 15194 15194 21227 21227 21240 21240 
21239 21231 21231 21231 21980 20770 21980 21980 21395 
21981 21395 21395 21398 21398 21397 21397 21987 21987 
17462 21985 17465 19259 17239 17238 18394 18390 18393 
18392 16536 18392 18215 16536 18212 18212 15221 15221 

EdgePCoordArray 1 153 double
0 0 0.92 0.78 0 0 0 0 0 
0.104 0.876 0 0 0.776 0 0 0 0.42 
0.368 0.784 0.176 0.612 0.62 0 0 0.524 0.184 
0.92 0 0.3 0.928 0.588 0 0 0 0 
0.288 0.696 0 0.276 0.7 0.996 0.004 0.076 0.792 
0 0 0 0 0 0 0 0 0 
0 0 0.86 0.916 0.828 0 0 0.536 0.256 
0.248 0 0.02 0 0.984 0 0.148 0 0.84 
0.144 0 0 0 0.364 0 0 0.996 0 
0 0 0.164 0.124 0 0.328 0.96 0 0 
0 0 0 0 0 0 0 0 0 
0 0.004 0 0.984 0 0 0 0 0 
0.024 0 0 0 0.944 0 0 0 0 
0 0.984 0.84 0 0.996 0 0 0 0.104 
0.736 0 0 0 0 0 0 0 0 
0.18 0 0.96 0 0.68 0 0 0 0 
0.62 0.204 0.228 0.284 0.332 0.136 0.728 0 0 

CurvatureArray 1 153 double
0 4.075867179e-05 0.00016176494056 0.00027944563043 0.00039151178189 0.00049566029235 0.00059095252778 0.00067621968213 0.00075161459588 
0.00081757319218 0.00087498262453 0.00092524292584 0.00096994482898 0.0010104308764 0.0010488868496 0.0010865544084 0.0011251285754 0.0011660002146 
0.0012103806529 0.0012595474647 0.0013140459572 0.001374769448 0.0014423738698 0.0015166667068 0.0015980600357 0.0016859637469 0.001779811684 
0.0018787293189 0.0019809167491 0.0020847445131 0.0021881166458 0.0022884474905 0.00238289845 0.002468814825 0.0025431273791 0.0026035592275 
0.0026478020601 0.0026736532636 0.0026810707068 0.0026688840555 0.0026381367955 0.0025897667767 0.0025254688168 0.0024472496894 0.0023578892607 
0.0022593948859 0.0021543347091 0.0020452320088 0.0019333562427 0.0018211103034 0.0017091315568 0.0015982034176 0.001489637097 0.0013829220171 
0.001278303316 0.0011758166203 0.0010750808307 0.00097582471085 0.00087864693285 0.00078370362877 0.0006929859825 0.00060987105963 0.00054059058455 
0.00049529566303 0.00048626849725 0.00052137416491 0.00059834635065 0.00070923988423 0.00084431573176 0.00099760238738 0.0011635908413 0.0013388797106 
0.0015197030172 0.0017038827006 0.0018877463189 0.0020687276685 0.0022431278466 0.0024087580207 0.002562320425 0.0027015451536 0.0028237785351 
0.0029280898994 0.0030125093823 0.0030777271762 0.0031223423416 0.0031483500357 0.0031569700471 0.003149355521 0.003128410358 0.0030958502808 
0.0030551830357 0.0030077908525 0.002956544362 0.002903009046 0.002850870833 0.0027996035473 0.0027528329404 0.0027096469344 0.0026731217234 
0.0026424300557 0.0026188477601 0.0026027775563 0.0025957352649 0.0025951559845 0.0026038239195 0.0026192994189 0.0026429249508 0.0026722431113 
0.0027072580293 0.0027472373621 0.00278821132 0.0028292721881 0.0028684742473 0.0029016123658 0.0029269521204 0.0029401572383 0.0029391002618 
0.002920589141 0.0028835190113 0.0028250522623 0.0027452432899 0.0026449073348 0.0025247071059 0.0023874147728 0.002235647549 0.0020735141443 
0.0019050378776 0.0017347036879 0.001565718938 0.0014030283032 0.0012496736799 0.0011090580168 0.00098280681214 0.00087405812373 0.00078213915894 
0.00070805638038 0.00064936971146 0.00060437446842 0.00056933505531 0.00054072474348 0.00051618510127 0.00049177209424 0.00046650849075 0.00043845183049 
0.00040693490376 0.00037202106901 0.00033276267488 0.00029031461501 0.00024441117302 0.0001958048252 0.0001445200165 9.1515246486e-05 0 

TorsionArray 1 153 double
0 0 0.00016473961948 0.00016575085184 0.00025746128095 0.00041735454703 0.00059513716224 0.00078997707127 0.0010544370367 
0.0014022433753 0.0017878364066 0.0022295192521 0.0027694169854 0.0033497037909 0.0039707358185 0.0046422096614 0.0052887965713 0.0059184965954 
0.0065134900796 0.0070322163301 0.0074611673588 0.0077732212362 0.0079747590589 0.0080611339599 0.0080107724244 0.0078595674417 0.0076031460484 
0.0072512661711 0.0068403798407 0.0063706179728 0.0058528917413 0.0053126861125 0.0047686592879 0.0042301239116 0.0037102593097 0.003223231647 
0.0027930367895 0.0024218457395 0.0021249391817 0.0019225907391 0.0018191052042 0.0018321964398 0.0019716024115 0.0022429874669 0.0026530101253 
0.0032083861413 0.0038999121797 0.0047414134206 0.0057221641253 0.0068286520033 0.0081053963976 0.0095308631467 0.011126144052 0.012972720251 
0.015144930497 0.017749350556 0.021028359254 0.025318318243 0.031055680242 0.039132433263 0.050538486223 0.066523476525 0.087264602692 
0.10817277826 0.11775498352 0.10807030731 0.087086337878 0.065947425642 0.049488098708 0.037646575031 0.029296366046 0.023277870843 
0.018860245819 0.015540253863 0.012997760101 0.010993067513 0.0093595546074 0.0080391028928 0.0069587661082 0.0060277014701 0.0052333452062 
0.0045618718795 0.0039968335224 0.0034811972044 0.0030437501196 0.0026771821309 0.0023710114972 0.0021359089959 0.0019404920294 0.0017666229931 
0.0017133205387 0.0017307076015 0.0017591004415 0.0018667649026 0.0020684148566 0.0023030208739 0.0025867157364 0.0029091481381 0.0032948442883 
0.0037216111547 0.0040706918152 0.0044784399061 0.0048354268496 0.0051225391479 0.0054159018446 0.005604261831 0.0056965870197 0.0057422005607 
0.0056177799766 0.005521162821 0.005360707942 0.0051212923807 0.0048928527615 0.0046067163965 0.00441083571 0.0042544866415 0.0041357022231 
0.0041558156895 0.0042538892184 0.0045324793051 0.0050263481506 0.0057522065633 0.0066742268307 0.0079189219439 0.0095767511471 0.011667567622 
0.014222388689 0.017339164765 0.021133102445 0.025562864882 0.030806179613 0.036465351871 0.042491575634 0.048173236466 0.052986350924 
0.055668912561 0.056200330749 0.053903913324 0.049327984119 0.043869463878 0.037766420385 0.031979632678 0.026376306053 0.021493121726 
0.01813392281 0.014691253895 0.011438084349 0.0098702582735 0.0075598270309 0.0059405420726 0.0051183892694 0 0 

TangentArray 3 153 double
0.00062287567066 0.002108922349 -0.99999758223 0.00062287567066 0.002108922349 -0.99999758223 0.00046227880619 0.0020769716073 -0.99999773624 
0.00011138492423 0.0020070777187 -0.99999797961 -0.00042493879762 0.0019001043418 -0.99999810451 -0.001139152216 0.0017573515578 -0.99999780702 
-0.0020218126779 0.0015803139298 -0.99999670744 -0.003062165137 0.0013705861272 -0.9999943723 -0.0042486950433 0.001129754562 -0.99999033608 
-0.0055701095061 0.00085907607211 -0.99998411781 -0.0070157279346 0.00055930165456 -0.99997523306 -0.0085761090352 0.00023061185519 -0.99996319791 
-0.01024361941 -0.00012758430243 -0.99994752461 -0.012012307319 -0.00051682458925 -0.99992771607 -0.013878506716 -0.00093962624525 -0.9999032474 
-0.015840860986 -0.0013995828177 -0.99987354615 -0.017899902507 -0.0019014170203 -0.99983797593 -0.020058398489 -0.002450883663 -0.99979580606 
-0.02232091275 -0.0030548043243 -0.9997461903 -0.024693791946 -0.0037211065456 -0.99968813637 -0.027184596591 -0.0044585721856 -0.99962048741 
-0.029801780697 -0.0052767143937 -0.99954190015 -0.03255483888 -0.006185677586 -0.99945080912 -0.035453332505 -0.0071959136748 -0.99934542579 
-0.038506633584 -0.0083179236511 -0.99922372436 -0.041723792119 -0.0095618661054 -0.99908342789 -0.045112563064 -0.01093716115 -0.99892203658 
-0.04867940167 -0.012452139895 -0.99873683224 -0.05242847609 -0.014113328908 -0.99852494653 -0.056361113795 -0.015925130125 -0.99828343424 
-0.060475834414 -0.017889463418 -0.99800933891 -0.064767706018 -0.02000521594 -0.99769982239 -0.069227808149 -0.022267937953 -0.99735231965 
-0.073843300065 -0.02466986418 -0.99696467582 -0.078597306205 -0.027199834842 -0.9965353142 -0.083469190146 -0.029843548752 -0.99606337996 
-0.088435118623 -0.03258409945 -0.99554884675 -0.093467774438 -0.035402264063 -0.99499269085 -0.098538115973 -0.038277668699 -0.99439683214 
-0.10361593126 -0.041189529257 -0.99376413775 -0.10867025246 -0.044117354254 -0.99309840161 -0.11367098678 -0.047042096905 -0.99240412529 
-0.11858907759 -0.049946590552 -0.99168642663 -0.12339725433 -0.052816129658 -0.99095084342 -0.12807093343 -0.055638996697 -0.9902030792 
-0.13258820259 -0.058406400122 -0.98944886728 -0.13692969285 -0.061112248868 -0.98869386175 -0.14107935568 -0.063753225629 -0.98794338989 
-0.14502335641 -0.066328013075 -0.98720252268 -0.1487503373 -0.068836927214 -0.98647595744 -0.15225115479 -0.071281314836 -0.98576800517 
-0.15551732582 -0.073662664005 -0.9850828256 -0.15854217915 -0.0759826462 -0.98442420475 -0.16131971106 -0.078242182634 -0.98379576726 
-0.16384353312 -0.080440763938 -0.98320119007 -0.166107447 -0.082576772459 -0.98264408241 -0.1681049217 -0.084646751192 -0.98212812953 
-0.16982835829 -0.086645172488 -0.98165724304 -0.17126961535 -0.088564950347 -0.98123542966 -0.17241981698 -0.090396924246 -0.98086686293 
-0.17326881506 -0.09213017011 -0.98055593899 -0.17380607711 -0.093752364214 -0.98030706504 -0.17402033482 -0.095249657947 -0.98012469907 
-0.17389966063 -0.09660714197 -0.98001324897 -0.17343200649 -0.097809169157 -0.97997689032 -0.17260562816 -0.098839755239 -0.98001938752 
-0.17141001297 -0.09968310921 -0.98014380842 -0.16983511445 -0.1003238858 -0.98035256507 -0.16787272511 -0.10074771396 -0.98064705491 
-0.16551703138 -0.10094175597 -0.98102745845 -0.16276470298 -0.10089506769 -0.98149265753 -0.15961611894 -0.10059886812 -0.98204000036 
-0.15607564817 -0.10004736453 -0.982665211 -0.15215149955 -0.099237996473 -0.98336246687 -0.14785619942 -0.098171464036 -0.98412443722 
-0.14320733058 -0.096852007618 -0.98494230749 -0.13822745678 -0.095287634032 -0.98580598344 -0.13294348576 -0.093490309079 -0.98670440949 
-0.12738622456 -0.091475126622 -0.98762596716 -0.12159042504 -0.089260126381 -0.98855874807 -0.11559378755 -0.086866403413 -0.98949093186 
-0.10943565131 -0.084317033525 -0.99041126613 -0.10315644545 -0.081636312287 -0.99130936658 -0.096796222058 -0.078848806289 -0.99217607164 
-0.090394006453 -0.075979488003 -0.99300354531 -0.083987008816 -0.073052496588 -0.99378544721 -0.077608255556 -0.070089731036 -0.99451716339 
-0.071287755151 -0.067111278225 -0.99519552466 -0.065051197546 -0.064134382826 -0.99581882019 -0.058919472422 -0.06117358596 -0.9963866158 
-0.052908216006 -0.058240668949 -0.99689956623 -0.047028974808 -0.05534351286 -0.99735919864 -0.041289638249 -0.052487182072 -0.99776763903 
-0.035694000262 -0.049674630645 -0.99812743145 -0.030241488308 -0.046905518649 -0.99844144781 -0.024929300184 -0.044177110419 -0.99871262779 
-0.01975214838 -0.041485104789 -0.99894386164 -0.014702743595 -0.038823596038 -0.99913790726 -0.0097723159056 -0.036185504217 -0.99929730868 
-0.0049506897356 -0.033562212638 -0.9994243686 -0.00022787899382 -0.030944709133 -0.99952107184 0.0044076603613 -0.028324037307 -0.99958907629 
0.0089684038787 -0.025689781131 -0.99962973289 0.013465706921 -0.023032482636 -0.99964402638 0.017911015527 -0.020343153986 -0.99963260832 
0.022315580443 -0.017612385343 -0.9995958277 0.026689834598 -0.014832058403 -0.99953372268 0.031043482525 -0.011995185202 -0.99944605544 
0.035384211483 -0.0090961907186 -0.99933238559 0.039719997962 -0.0061309847765 -0.99919203999 0.044055025942 -0.0030974235303 -0.99902430434 
0.048390287106 3.7798218367e-06 -0.99882850385 0.052725618513 0.0031700619181 -0.99860400553 0.057056780416 0.0063959448495 -0.99835044734 
0.061376350037 0.0096725591039 -0.99806782598 0.065672898961 0.012988763852 -0.9977566649 0.06993111352 0.016330436352 -0.99741814512 
0.074132737029 0.019681025372 -0.99705415828 0.07825657142 0.023022703401 -0.9966673789 0.082279089737 0.026335916536 -0.99626129649 
0.086174395831 0.029600376808 -0.99584024381 0.089916517086 0.032797000474 -0.99540915041 0.093479530459 0.035907778122 -0.99497347143 
0.096839131276 0.03891602375 -0.99453895135 0.099973200005 0.041807795223 -0.99411139594 0.10286254626 0.044572378032 -0.99369643236 
0.10549195792 0.047202622198 -0.99329922947 0.10785093134 0.049694592522 -0.99292427913 0.10993287126 0.052047081745 -0.99257536998 
0.11173584135 0.054261763847 -0.99225539189 0.11326262228 0.056342921863 -0.99196625626 0.11451967707 0.058296814857 -0.99170899206 
0.1155174132 0.06013007914 -0.99148378748 0.11626965373 0.061850631913 -0.99129000144 0.11679307761 0.063466285359 -0.99112633284 
0.11710626062 0.06498438857 -0.9909909954 0.11723036804 0.066411606706 -0.99088169794 0.11718679856 0.067753404064 -0.99079600851 
0.11699862852 0.069014469999 -0.99073120666 0.11668976852 0.070197584998 -0.99068450931 0.11628310274 0.071305166507 -0.99065322553 
0.11580175975 0.072338047242 -0.9906347255 0.11526826079 0.073295826388 -0.99062654411 0.11470475096 0.074178128636 -0.99062627935 
0.11413232472 0.074983497691 -0.99063176182 0.11356874076 0.075709411728 -0.99064132061 0.11303202681 0.076353782516 -0.99065324953 
0.11253859339 0.076914606769 -0.99066604275 0.11210114399 0.077388951515 -0.99067869852 0.11173212147 0.077775114549 -0.9906901456 
0.1114413434 0.078070828288 -0.99069963801 0.11123669875 0.078274272684 -0.99070658375 0.11123669875 0.078274272684 -0.99070658375 

NormalArray 3 153 double
0.98082504366 0.19488763271 0.0010219374118 0.98082504366 0.19488763271 0.0010219374118 0.98076594713 0.19518560255 0.00085878420992 
0.98071450098 0.19544517404 0.00050151147766 0.98066065908 0.19571578814 -4.4840427539e-05 0.98056032283 0.19621635258 -0.00077218804524 
0.98039859753 0.19701725369 -0.0016708387049 0.98017218186 0.19812885071 -0.0027299117925 0.97986909329 0.19960224079 -0.0039377014712 
0.97944843349 0.20162554712 -0.0052825072449 0.97887885503 0.2043295826 -0.006753433116 0.97814522116 0.20775551202 -0.0083410761539 
0.97719862519 0.2120898224 -0.010037636866 0.97597910653 0.21754233594 -0.011837047821 0.97446771987 0.22410708046 -0.013736062689 
0.97259127492 0.23198851984 -0.015733359873 0.97030611082 0.24122218936 -0.017829937641 0.96758998953 0.25173088202 -0.020029358564 
0.9643851534 0.26355710174 -0.022336741522 0.96068041103 0.27655037194 -0.024759637226 0.95646185289 0.29057710567 -0.027306951958 
0.9517488087 0.30540932979 -0.029989105087 0.94657987608 0.3207951209 -0.03281811395 0.94099458476 0.33652205285 -0.035806415498 
0.93507440441 0.35230301153 -0.038967246341 0.92892068091 0.36785305999 -0.042314239143 0.92260438434 0.38301181717 -0.045859545351 
0.91625873227 0.39750251818 -0.049615356346 0.90996707864 0.41120305784 -0.053590680347 0.90382074011 0.4239907951 -0.057791655343 
0.89790996469 0.43575935504 -0.062221216739 0.89231235339 0.44643701376 -0.066877924148 0.88707205171 0.45602022193 -0.07175466724 
0.88222548279 0.46451473244 -0.076839188256 0.87778980072 0.47195596512 -0.082113535656 0.87376841011 0.47839626187 -0.087554452342 
0.87013920839 0.48392548325 -0.093133692524 0.8668466537 0.48868391612 -0.098817554588 0.86385637718 0.49276480233 -0.10457059432 
0.86106874596 0.49636946928 -0.11035381596 0.85839982904 0.49966394416 -0.11612784512 0.85572872598 0.50287188318 -0.12185325864 
0.85292233322 0.50623054684 -0.12749167399 0.84982356509 0.51000907889 -0.13300619411 0.84627008808 0.51447317274 -0.13836290166 
0.84206393004 0.51993042569 -0.14352940523 0.83699957721 0.52667528572 -0.148475086 0.83086318289 0.53498128027 -0.1531711496 
0.82335879342 0.54520380701 -0.15758523445 0.81425499475 0.55753592303 -0.16168641888 0.80319793097 0.57227990976 -0.16543514913 
0.78975433782 0.58974674183 -0.16878052732 0.77353541285 0.61006049454 -0.17166583258 0.75386839859 0.63356507966 -0.17400496384 
0.72998154124 0.66050104945 -0.17568526724 0.70068356268 0.69128666543 -0.17653694001 0.66451860154 0.72617037999 -0.17632812436 
0.61884441654 0.76584991114 -0.17465824264 0.56024808927 0.81049413122 -0.17094250999 0.48291849964 0.86014029868 -0.16415964575 
0.37804670076 0.91312366778 -0.15259704905 0.2333942194 0.96317518816 -0.13349417688 0.034594146179 0.99410541863 -0.10275048275 
-0.22088581701 0.97364522715 -0.056784042594 -0.49860895646 0.86682531689 0.0017258444953 -0.73007975507 0.680728961 0.059930233613 
-0.87535716191 0.47191741187 0.1050894641 -0.94831652558 0.28722803591 0.13489189266 -0.97809658419 0.14120839517 0.15292894141 
-0.98613182087 0.029216823502 0.16337199605 -0.98398463406 -0.056673845261 0.16900389105 -0.97738854328 -0.12365328096 0.17152697041 
-0.96915330545 -0.17660359582 0.17190997784 -0.96060178538 -0.21928398229 0.170759319 -0.95237699779 -0.25417596562 0.168441778 
-0.94473930049 -0.28315182275 0.16520502224 -0.93781563378 -0.30742774076 0.16121420919 -0.93164793572 -0.3278883744 0.15659290468 
-0.92615959973 -0.34538647439 0.15144827212 -0.92132517579 -0.3603944936 0.14586202191 -0.91710625877 -0.37328521584 0.13990803324 
-0.91343222073 -0.3844183585 0.1336566638 -0.91023289347 -0.39408506968 0.12717325781 -0.90743879113 -0.40252964816 0.12051855754 
-0.90505759572 -0.40979643398 0.11374370809 -0.90296128965 -0.41621133203 0.10690667186 -0.90115543446 -0.42179270081 0.10004899047 
-0.89952777565 -0.42680261939 0.093216441252 -0.89806191041 -0.43129175143 0.086442062846 -0.89670151724 -0.43539108957 0.079755802918 
-0.89546837686 -0.43906905109 0.073176187482 -0.89410738787 -0.44285271155 0.06673421035 -0.89274904192 -0.44648321628 0.060430834289 
-0.89123921834 -0.45027353945 0.054280709002 -0.88958767847 -0.45420542448 0.048282447099 -0.88759807512 -0.45865908657 0.042444073289 
-0.88541358112 -0.46334894946 0.036749712935 -0.88278127068 -0.46874673169 0.031204641723 -0.8798865161 -0.47448371606 0.025786081161 
-0.8763965367 -0.48115371275 0.020499150512 -0.87256243583 -0.48826246707 0.015315313609 -0.86826351129 -0.49599788999 0.010225854124 
-0.86348968227 -0.50433954926 0.0052141790595 -0.85832707356 -0.51310288161 0.0002601450011 -0.85282411692 -0.52217752407 -0.0046539180301 
-0.84689262146 -0.53167838232 -0.0095386311235 -0.84083543154 -0.541098658 -0.014422876755 -0.83453679862 -0.55061360597 -0.01931291463 
-0.8282167679 -0.55988385675 -0.024229162666 -0.82202493743 -0.56870298073 -0.029187702018 -0.81575839125 -0.57738181044 -0.034183213496 
-0.80977336624 -0.58542962031 -0.03923334021 -0.80390269103 -0.59310661959 -0.044328333426 -0.79829660471 -0.60022942432 -0.049468869883 
-0.79295259493 -0.60682802222 -0.054643697072 -0.78767712948 -0.61317647621 -0.059827658473 -0.78258410445 -0.61914165003 -0.065005666353 
-0.77747517255 -0.62498980369 -0.070143434152 -0.77223299779 -0.63087245469 -0.0752073337 -0.766785277 -0.63687852196 -0.080162879452 
-0.76076530981 -0.6434425191 -0.084958036681 -0.75400684746 -0.65073367122 -0.089550896805 -0.74605203976 -0.65923600463 -0.093884206204 
-0.73681495254 -0.66896580678 -0.09792075917 -0.72539449554 -0.68079671665 -0.10158078774 -0.71147195847 -0.69485343793 -0.10481580084 
-0.69382696326 -0.71206915178 -0.10752519764 -0.6720073787 -0.73238202064 -0.10964788558 -0.64400193444 -0.75692584115 -0.1110170232 
-0.60899675492 -0.78529346476 -0.11152186647 -0.56418675457 -0.81816667388 -0.11089003438 -0.50813158613 -0.8543669582 -0.10890083522 
-0.43837143735 -0.89261506192 -0.10520852695 -0.35393005239 -0.92996017146 -0.099536915284 -0.25463265131 -0.96268498046 -0.091650648034 
-0.14326041671 -0.9863147362 -0.081606949147 -0.025721260232 -0.99722376633 -0.069879729855 0.093037853191 -0.9940313444 -0.056970555679 
0.20310838869 -0.97816025795 -0.044153054395 0.30231114122 -0.95267550466 -0.031896029793 0.38698243147 -0.92184954621 -0.020928733702 
0.45793012825 -0.88891534828 -0.011379861289 0.51560797598 -0.85681786654 -0.0033998068928 0.56145063634 -0.82750462206 0.0030468716393 
0.59790552031 -0.80152447416 0.00821620985 0.62940907606 -0.77696908937 0.0127768984 0.65137102405 -0.75859375739 0.015852453205 
0.6706119387 -0.7415749897 0.018605437933 0.68616458332 -0.72714773021 0.020840898619 0.6963068426 -0.71740049145 0.022210713828 
0.70713199344 -0.70667906654 0.023854575437 0.71185883338 -0.70189609632 0.024471847225 0.71185883338 -0.70189609632 0.024471847225 

BinormalArray 3 153 double
0.1948893167 -0.98082330879 -0.0019470930901 0.1948893167 -0.98082330879 -0.0019470930901 0.19518694436 -0.98076412391 -0.0019467928583 
0.19544578573 -0.98071257542 -0.0019466005774 0.19571533196 -0.9806588193 -0.0019465248078 0.19621456527 -0.98055905212 -0.0019467095037 
0.19701396455 -0.98039874763 -0.0019476695417 0.19812399412 -0.98017502519 -0.001950113654 0.19959586321 -0.979876354 -0.0019550606293 
0.20161780679 -0.97946230185 -0.0019644970898 0.20432074477 -0.97890199145 -0.0019810093237 0.20774594263 -0.97818075735 -0.0020073058078 
0.21207997355 -0.97725016805 -0.0020478922165 0.2175327288 -0.97605074918 -0.0021087753933 0.22409830428 -0.97456407362 -0.0021946361764 
0.23198120414 -0.97271751697 -0.0023136758562 0.2412170077 -0.97046805201 -0.0024728971179 0.25172856973 -0.96779417037 -0.0026778678457 
0.26355844277 -0.96463895956 -0.0029368271357 0.27655625919 -0.96099221909 -0.0032542831816 0.29058857802 -0.95684119204 -0.0036347671823 
0.30542766576 -0.95220654144 -0.0040796352313 0.32082194541 -0.94712841146 -0.0045881955513 0.33655943407 -0.94164809073 -0.0051595124347 
0.35235365386 -0.9358490264 -0.0057881254718 0.36792049923 -0.92983476864 -0.0064660094321 0.38310051768 -0.92367869219 -0.007187971927 
0.39761822317 -0.91751658963 -0.0079408028333 0.41135285424 -0.91143450624 -0.0087160850099 0.42418332665 -0.90552647444 -0.0095031305545 
0.43600501003 -0.89988541026 -0.010289783134 0.44674803665 -0.89459140622 -0.011063799947 0.45641065463 -0.88969078681 -0.011816015029 
0.46500039198 -0.88522170169 -0.012536917936 0.4725542606 -0.88120243757 -0.0132187299 0.47912593312 -0.87763681511 -0.013854998402 
0.48480613426 -0.87450237457 -0.014443305014 0.48973528984 -0.87174234142 -0.014987863908 0.49400647699 -0.86932023424 -0.01548970703 
0.49781959938 -0.86713365328 -0.015964768503 0.50133871757 -0.86509514041 -0.016428277608 0.50478436416 -0.86307989794 -0.016906669533 
0.50838973649 -0.86095062085 -0.017432851048 0.51241879927 -0.85854597774 -0.018049328419 0.51713129284 -0.85569951302 -0.018803440822 
0.52282760664 -0.85220950761 -0.019754717789 0.52979426854 -0.84786699219 -0.02096655864 0.53829637442 -0.84245507653 -0.022504606354 
0.54867888915 -0.83567541755 -0.024455533203 0.56112577973 -0.82729388489 -0.026882844799 0.57592765999 -0.81695451467 -0.029877272533 
0.59338221011 -0.80422173089 -0.033540427768 0.61360194141 -0.78870325882 -0.037945052621 0.63691317181 -0.76972297009 -0.043222226663 
0.66353767497 -0.74650361497 -0.049498552734 0.69386660176 -0.71784665692 -0.056967676018 0.72811795989 -0.6822840367 -0.065823474144 
0.76693540591 -0.63715502642 -0.07644315189 0.810425072 -0.57901253253 -0.089194673888 0.85852264351 -0.50198312987 -0.10465088584 
0.90942762756 -0.39713624752 -0.12338634907 0.95672283651 -0.25200010142 -0.14552444116 0.98413422261 -0.051787250525 -0.16969947721 
0.95967096647 0.20659630144 -0.19065572206 0.84929997508 0.48892457131 -0.19910378175 0.6612040898 0.72583661002 -0.18965855421 
0.45207128481 0.87598928881 -0.16814969326 0.26805186293 0.95259391837 -0.14392020516 0.12306835561 0.98484013285 -0.12224603299 
0.012171449946 0.99446324172 -0.10437775951 -0.072676622024 0.99328156158 -0.090054694666 -0.13868788715 0.9872131147 -0.078587124366 
-0.19074134997 0.9791841986 -0.069397713345 -0.23258145047 0.9706010278 -0.061963809858 -0.26667695507 0.9621626381 -0.055914751926 
-0.29488864775 0.95417227684 -0.050950481242 -0.31842582689 0.94678849328 -0.046867278152 -0.3381688239 0.94007913286 -0.043509430029 
-0.35496640068 0.93399169403 -0.040723087673 -0.36929079191 0.92851948758 -0.038417081971 -0.38151564373 0.92364082608 -0.03651627031 
-0.39200180657 0.91930036631 -0.03494882174 -0.40104217659 0.9154411343 -0.033655641751 -0.40888302942 0.9120047961 -0.032587116253 
-0.41557150051 0.90900715074 -0.031722671238 -0.42143456402 0.90632856064 -0.031007231719 -0.42649248718 0.90397917407 -0.030427146307 
-0.43100793125 0.90185120747 -0.029942658194 -0.43503235141 0.89993011178 -0.029540601441 -0.43869680275 0.89816055998 -0.029201434051 
-0.44196957669 0.89656365801 -0.028922317095 -0.44537653113 0.89488466936 -0.028656134704 -0.44865834877 0.89325127109 -0.028422751023 
-0.45212674555 0.89150780745 -0.028199915152 -0.45576223484 0.8896613427 -0.027990723409 -0.45994367812 0.88751350706 -0.027777468121 
-0.46438415455 0.88520434766 -0.027579337993 -0.46955410494 0.8824790252 -0.027380880436 -0.47508338282 0.87952021721 -0.027202332474 
-0.48156474241 0.87599354027 -0.027031764173 -0.48850255235 0.87214803114 -0.026889926017 -0.49608371017 0.86786164913 -0.026778918325 
-0.50428676003 0.86312319758 -0.026705981716 -0.5129262223 0.85801802873 -0.026678696442 -0.52189100502 0.85259415283 -0.026701862075 
-0.5312954946 0.84676319101 -0.026780510904 -0.54063243502 0.84082831325 -0.026913153911 -0.55007693457 0.83467405162 -0.027103387312 
-0.55928967713 0.82852116827 -0.02734466647 -0.56806454211 0.82252010962 -0.027628703613 -0.57671258162 0.81646840168 -0.027963319873 
-0.58474394006 0.81072323246 -0.028326046608 -0.5924191696 0.80511768612 -0.028723492056 -0.59955571443 0.79980230687 -0.029141297405 
-0.60618406928 0.79477430321 -0.029575008263 -0.61257800322 0.7898391615 -0.030038124541 -0.61860468703 0.78510950449 -0.030517325105 
-0.62452917736 0.78038477851 -0.031030696165 -0.63050147197 0.77554490589 -0.031591024042 -0.6366085849 0.77051422295 -0.032207792003 
-0.643280745 0.76492191909 -0.032929330503 -0.65068325162 0.75859742018 -0.033782542333 -0.65929350926 0.75107823938 -0.034836001063 
-0.66912323855 0.74227373149 -0.036108159389 -0.68103464311 0.73127829098 -0.03773428179 -0.69514527179 0.71776876702 -0.039762396811 
-0.71237321108 0.70052083162 -0.042367116977 -0.73264879689 0.67907806865 -0.045592950167 -0.75708405891 0.65142487847 -0.049692609722 
-0.78526304781 0.61674130329 -0.054700187889 -0.81784160102 0.57221391884 -0.06087977272 -0.8536319668 0.5163899516 -0.068219375154 
-0.89133955941 0.44679158991 -0.076753273711 -0.92801664082 0.36242044482 -0.086235349727 -0.95995916054 0.26307728716 -0.096274353127 
-0.9827321999 0.15152646762 -0.10619393997 -0.99277160394 0.033678752461 -0.11519671893 -0.98874223745 -0.085505336549 -0.12279098218 
-0.97214109231 -0.19605997221 -0.12846082645 -0.94603988913 -0.29577302426 -0.13238899614 -0.91472555324 -0.38093173586 -0.13478937221 
-0.88141360897 -0.45232367893 -0.13606373285 -0.84903571371 -0.51038305753 -0.13655581798 -0.81952181366 -0.55653724557 -0.13656606912 
-0.79339952182 -0.59324193412 -0.13631289876 -0.7687303533 -0.62496969458 -0.13589159197 -0.75029297607 -0.64707465654 -0.13548003143 
-0.73322213051 -0.66644630535 -0.1350356598 -0.7187569117 -0.68210492495 -0.13461565008 -0.70899415652 -0.69230597746 -0.1343120233 
-0.69824434894 -0.70321379586 -0.13395964496 -0.69345756769 -0.70796540043 -0.13379683706 -0.69345756769 -0.70796540043 -0.13379683706 

