# vtk DataFile Version 4.1
vtk output
ASCII
DATASET POLYDATA
POINTS 220 float
-1.88325 -12.202 -203.835 -2.29673 -11.9478 -202.045 -2.70983 -11.6937 -200.255 
-3.1214 -11.4403 -198.468 -3.53029 -11.1881 -196.686 -3.93539 -10.9375 -194.909 
-4.33561 -10.6891 -193.141 -4.72994 -10.4433 -191.382 -5.11739 -10.2006 -189.635 
-5.49708 -9.96124 -187.901 -5.8682 -9.72573 -186.182 -6.23002 -9.49438 -184.478 
-6.58194 -9.26747 -182.792 -6.92341 -9.04525 -181.125 -7.25404 -8.82793 -179.476 
-7.57351 -8.61567 -177.849 -7.8816 -8.4086 -176.242 -8.17822 -8.20678 -174.657 
-8.46333 -8.01025 -173.094 -8.73702 -7.81899 -171.554 -8.99941 -7.63296 -170.037 
-9.25073 -7.45207 -168.542 -9.49125 -7.27621 -167.071 -9.72127 -7.10524 -165.622 
-9.94115 -6.939 -164.196 -10.1513 -6.7773 -162.792 -10.352 -6.61995 -161.41 
-10.5437 -6.46674 -160.049 -10.7269 -6.31746 -158.71 -10.9017 -6.17189 -157.391 
-11.0687 -6.02983 -156.092 -11.2281 -5.89104 -154.812 -11.3802 -5.75533 -153.55 
-11.5253 -5.62249 -152.307 -11.6637 -5.49231 -151.08 -11.7954 -5.3646 -149.869 
-11.9208 -5.23916 -148.673 -12.0399 -5.11579 -147.491 -12.1529 -4.9943 -146.322 
-12.2599 -4.8745 -145.164 -12.361 -4.75619 -144.016 -12.4564 -4.63916 -142.877 
-12.546 -4.52321 -141.746 -12.6301 -4.40812 -140.62 -12.7087 -4.29368 -139.498 
-12.782 -4.17966 -138.379 -12.85 -4.06583 -137.262 -12.9129 -3.95195 -136.143 
-12.9709 -3.83778 -135.023 -13.0241 -3.72308 -133.9 -13.0726 -3.60762 -132.771 
-13.1167 -3.49116 -131.636 -13.1566 -3.37346 -130.494 -13.1925 -3.25429 -129.344 
-13.2244 -3.13344 -128.183 -13.2528 -3.01069 -127.013 -13.2778 -2.88583 -125.831 
-13.2996 -2.75867 -124.638 -13.3185 -2.62902 -123.432 -13.3347 -2.49669 -122.213 
-13.3486 -2.36151 -120.982 -13.3602 -2.22332 -119.737 -13.37 -2.08194 -118.479 
-13.3782 -1.93723 -117.207 -13.3851 -1.78903 -115.922 -13.391 -1.63719 -114.622 
-13.3962 -1.48157 -113.31 -13.401 -1.32203 -111.983 -13.4057 -1.15844 -110.642 
-13.4105 -0.990669 -109.288 -13.4157 -0.818608 -107.919 -13.4216 -0.642143 -106.536 
-13.4283 -0.461172 -105.139 -13.4361 -0.2756 -103.727 -13.4451 -0.0853433 -102.299 
-13.4553 0.109676 -100.856 -13.4668 0.30953 -99.3967 -13.4796 0.514284 -97.9204 
-13.4935 0.724003 -96.4264 -13.5084 0.938754 -94.9137 -13.524 1.1586 -93.3812 
-13.54 1.38363 -91.8278 -13.556 1.61392 -90.252 -13.5716 1.84957 -88.6523 
-13.5862 2.09069 -87.0271 -13.5992 2.33741 -85.3747 -13.6099 2.58988 -83.6931 
-13.6177 2.84824 -81.9804 -13.6219 3.11267 -80.2348 -13.6215 3.38333 -78.4542 
-13.6158 3.6604 -76.6368 -13.6041 3.94402 -74.781 -13.5854 4.23433 -72.8851 
-13.559 4.53144 -70.9479 -13.5241 4.83541 -68.9686 -13.48 5.14624 -66.9464 
-13.4259 5.46386 -64.8815 -13.3613 5.78813 -62.7742 -13.2855 6.11882 -60.6256 
-13.1981 6.4556 -58.4373 -13.0987 6.79801 -56.2114 -12.9871 7.14552 -53.951 
-12.8629 7.49747 -51.6594 -12.7262 7.85309 -49.3406 -12.5769 8.21152 -46.9992 
-12.4154 8.5718 -44.6403 -12.2418 8.93291 -42.2692 -12.0566 9.29373 -39.8915 
-11.8602 9.65314 -37.5131 -11.6535 10.01 -35.1398 -11.4371 10.363 -32.7776 
-11.2119 10.7112 -30.432 -10.9789 11.0534 -28.1086 -10.7392 11.3885 -25.8121 
-10.4939 11.7156 -23.5473 -10.2443 12.0339 -21.3181 -9.99145 12.3426 -19.1278 
-9.73676 12.6411 -16.9794 -9.48147 12.929 -14.8747 -9.22688 13.2059 -12.8153 
-8.97421 13.4716 -10.8018 -8.72467 13.7263 -8.83446 -8.4794 13.9699 -6.91272 
-8.23948 14.2028 -5.03558 -8.00588 14.4253 -3.20153 -7.7795 14.6379 -1.40868 
-7.56113 14.8412 0.345246 -7.35145 15.0358 2.06276 -7.15106 15.2225 3.74659 
-6.96045 15.402 5.3996 -6.78 15.5749 7.02471 -6.61002 15.7421 8.62486 
-6.45075 15.9042 10.203 -6.30234 16.0619 11.7618 -6.16491 16.2157 13.3041 
-6.03853 16.3661 14.8325 -5.92323 16.5136 16.3492 -5.81902 16.6584 17.8565 
-5.72591 16.8008 19.3563 -5.64388 16.9409 20.8506 -5.57294 17.0786 22.3409 
-5.51305 17.2139 23.8285 -5.46422 17.3465 25.3147 -5.42644 17.4762 26.8007 
-5.39967 17.6026 28.2871 -5.3839 17.7252 29.7749 -5.3791 17.8436 31.2647 
-5.38519 17.9571 32.7568 -5.40211 18.0651 34.2518 -5.42973 18.1671 35.7499 
-5.46793 18.2624 37.2514 -5.51651 18.3503 38.7564 -5.57526 18.4303 40.2652 
-5.64392 18.5016 41.7779 -5.72219 18.5638 43.2944 -5.80972 18.6162 44.8149 
-5.90614 18.6583 46.3395 -6.01105 18.6896 47.8684 -6.12399 18.7097 49.4016 
-6.24452 18.7182 50.9394 -6.37216 18.7148 52.4822 -6.50642 18.6992 54.0302 
-6.64681 18.6713 55.5841 -6.79285 18.6307 57.1445 -6.94408 18.5776 58.7122 
-7.10003 18.5118 60.2883 -7.26028 18.4333 61.8738 -7.42442 18.3423 63.4703 
-7.59209 18.239 65.0791 -7.76294 18.1234 66.7021 -7.93667 17.996 68.3411 
-8.11301 17.8569 69.998 -8.29172 17.7066 71.675 -8.47257 17.5454 73.3742 
-8.65538 17.3738 75.0977 -8.83997 17.1922 76.8476 -9.02615 17.0012 78.6257 
-9.21377 16.8013 80.4337 -9.40263 16.5931 82.2732 -9.59252 16.3772 84.1452 
-9.78321 16.1541 86.0505 -9.97443 15.9247 87.9894 -10.1659 15.6894 89.9617 
-10.3571 15.4491 91.9669 -10.5478 15.2044 94.0037 -10.7374 14.956 96.0706 
-10.9253 14.7047 98.1655 -11.111 14.4512 100.286 -11.2937 14.1962 102.429 
-11.4727 13.9404 104.591 -11.6472 13.6846 106.77 -11.8164 13.4294 108.961 
-11.9793 13.1756 111.162 -12.1351 12.9239 113.369 -12.2828 12.6748 115.578 
-12.4215 12.4289 117.788 -12.5504 12.1867 119.995 -12.6685 11.9488 122.197 
-12.7751 11.7155 124.394 -12.8693 11.4872 126.583 -12.9504 11.2641 128.765 
-13.018 11.0465 130.938 -13.0715 10.8344 133.105 -13.1105 10.628 135.265 
-13.1348 10.4271 137.42 -13.1443 10.2318 139.572 -13.1389 10.0418 141.722 
-13.119 9.85694 143.873 -13.0847 9.67695 146.025 -13.0366 9.50154 148.181 
-12.9752 9.33035 150.343 -12.9013 9.16303 152.511 -12.8158 8.99919 154.687 
-12.7197 8.83843 156.872 -12.6141 8.68033 159.065 -12.5003 8.52449 161.266 
-12.3794 8.3705 163.475 -12.253 8.21796 165.691 -12.1225 8.06645 167.912 
-11.9893 7.9156 170.136 
LINES 1 221
220 219 218 217 216 215 214 213 212 211 210 209 208 207 206 205 204 203 202 201 200 199 198 197 196 195 194 193 192 191 190 189 188 187 186 185 184 183 182 181 180 179 178 177 176 175 174 173 172 171 170 169 168 167 166 165 164 163 162 161 160 159 158 157 156 155 154 153 152 151 150 149 148 147 146 145 144 143 142 141 140 139 138 137 136 135 134 133 132 131 130 129 128 127 126 125 124 123 122 121 120 119 118 117 116 115 114 113 112 111 110 109 108 107 106 105 104 103 102 101 100 99 98 97 96 95 94 93 92 91 90 89 88 87 86 85 84 83 82 81 80 79 78 77 76 75 74 73 72 71 70 69 68 67 66 65 64 63 62 61 60 59 58 57 56 55 54 53 52 51 50 49 48 47 46 45 44 43 42 41 40 39 38 37 36 35 34 33 32 31 30 29 28 27 26 25 24 23 22 21 20 19 18 17 16 15 14 13 12 11 10 9 8 7 6 5 4 3 2 1 0 

CELL_DATA 1
FIELD FieldData 2
LengthArray 1 1 double
378.22747591 
TortuosityArray 1 1 double
0.0095535483418 
POINT_DATA 220
FIELD FieldData 8
RadiusArray 1 220 double
43.913221946 44.585737266 44.818978791 44.910925644 45.657199623 45.936584022 46.796207121 46.984062372 47.715070953 
48.229053112 48.401264752 48.652896289 48.901261335 48.967966993 49.37065911 49.952134598 50.017164587 50.339278658 
50.684458228 50.743105874 50.753083044 51.331948572 51.622575288 52.034172123 52.041861155 52.333217601 52.35810215 
52.525790233 52.956648972 52.99567683 53.106311667 53.61147213 53.632350004 54.097175267 54.186962123 54.205889828 
54.560118382 54.69070969 54.847985865 54.890794881 55.120420348 55.142320945 55.228560748 55.312699775 55.340583871 
55.422768804 55.581677372 55.89358471 56.109869003 56.13481341 56.190513591 56.214627844 56.281259121 56.409320707 
56.457690508 56.647449101 56.802458956 56.98833447 57.026244232 57.140836432 57.317604471 57.402838204 57.579769845 
57.623965191 57.765776271 57.934801387 58.044565416 58.145757632 58.19034117 58.490658154 58.574500172 58.624980417 
59.077604227 59.116783225 59.29642441 59.357933053 59.558873357 59.590560502 59.818506085 59.95753365 59.962722105 
60.16961109 60.202090165 60.348760337 60.387849656 60.515469871 60.679609934 60.762483147 60.76766238 60.906209245 
60.956416742 60.977306957 61.097537353 61.103200923 61.173325047 61.245178012 61.292885554 61.3524339 61.366949701 
61.528121035 61.637039497 61.644708275 61.571387184 61.564079013 61.666307489 61.686231141 61.611982149 61.529200564 
61.613202377 61.634639523 61.628700825 61.632382519 61.662300963 61.679654443 61.684201513 61.839625911 61.95013583 
62.079992626 62.209062147 62.232904231 62.310977515 62.338373645 62.331667444 62.278677368 62.229074361 62.215255496 
62.276242562 62.286229514 62.316389468 62.336691879 62.338589703 62.345070946 62.382651547 62.457227964 62.795219387 
63.070279452 63.177748247 63.220786847 63.260350631 63.2986285 63.654094323 63.707753862 64.110686139 64.193430707 
64.28336452 64.863222756 64.956479949 64.958886386 65.266014579 65.548334229 65.784911893 65.863264247 66.087886035 
66.352570647 66.60844003 66.953173994 67.468066674 67.57981873 67.586120081 68.459170928 68.901741357 69.251342624 
69.312892166 69.708988369 70.604978766 70.626755027 71.378220999 71.819978993 71.913039563 72.362653645 72.563151219 
72.807350322 72.939240828 73.315208078 73.318810579 73.735900257 73.868151437 74.097166138 74.101140696 74.302447362 
74.350071568 74.531352579 74.761179446 75.450344042 75.823844109 75.921801264 76.197439772 76.576427775 76.890200052 
77.489290356 77.556411527 77.748786567 77.852865399 77.885933904 78.713227084 78.732442955 79.072727879 79.16801904 
79.241701397 79.270978146 79.694349584 80.001232011 80.06324863 80.119639041 80.284452916 80.728330372 80.925926247 
80.999008894 81.060255292 81.455761747 81.684652064 82.047273245 82.17329752 82.177432172 82.188682747 82.410041779 
82.647574037 83.562684067 83.65690183 84.31829762 
EdgeArray 2 220 int
3653 3653 3884 4061 3795 4434 4010 4222 4747 
3793 4747 4883 4885 4339 4725 4892 5441 5442 
5606 5599 5882 5884 5907 5806 6095 6096 6097 
6096 6097 5444 5688 5983 5904 5983 6226 6226 
6102 6039 5694 6102 5694 5694 6207 6207 6514 
6514 6516 6448 7082 6550 7252 6260 6260 6395 
7086 6395 7450 7450 7449 7091 6986 6986 6539 
4225 6835 6539 7211 7211 8200 8202 8201 8199 
8203 8208 8222 9539 9782 9593 9782 9782 7499 
7499 8440 10378 10378 10378 10377 10377 9787 9817 
7763 9787 9804 7763 9994 9994 10369 10369 10646 
11030 11030 11030 11022 11022 11216 11216 11217 11217 
11213 11213 10181 10181 10620 10619 10342 10619 10342 
10342 10998 10808 10998 10998 10995 10995 11009 11009 
10797 11012 11199 11012 11199 11199 11198 11198 11372 
11373 11372 11372 10729 10729 11193 10891 9485 10891 
9485 9485 11793 11794 11799 11797 11788 11393 10341 
10821 11476 11011 11640 11958 11640 11250 11250 11250 
12383 12383 12478 12478 12001 12001 12646 12646 12921 
12921 12205 12205 13617 12809 12713 13617 14069 12713 
14328 14069 14328 13812 14665 14593 14665 14594 14809 
14809 14812 14810 14663 14812 14663 14663 15348 15521 
15349 15349 15347 15306 14554 15306 15102 15102 16587 
16587 16567 16567 16560 16560 16954 16954 17918 17918 
17933 17932 17064 16566 17064 16754 16754 18112 17892 
18116 17432 18167 18550 17924 18536 18536 20703 20703 
22187 22188 21994 22188 20362 20982 22353 22353 19413 
19413 20125 21590 17983 17983 22560 22560 19576 19576 
19337 19337 22394 22932 22394 22394 22515 22515 13951 
20743 17620 13951 22841 17620 22841 16949 19786 19786 
23367 23367 23366 21425 21425 21425 22861 21111 22861 
23570 16882 23187 23187 23368 23368 23368 23576 23576 
23577 23577 22082 22082 22595 22088 22595 22595 23797 
23797 23796 23796 23788 23788 19695 22073 22073 23792 
23792 23951 23951 21414 22496 23800 23758 23758 22104 
22104 16263 16263 22124 22124 24172 24172 24171 24167 
24329 24167 24332 24329 24333 24335 24335 24334 12045 
24173 24315 22215 24159 24315 21113 21113 25066 25066 
20212 20212 26568 26568 25071 25071 26570 26569 26570 
26570 24857 24857 19096 25075 27224 19096 27224 27224 
27747 27747 26682 26682 25969 28096 25969 25969 25727 
25727 28164 28164 28307 26558 28307 28307 28014 28014 
31085 31085 29983 29983 31084 31084 31090 31090 28999 
31091 28999 28999 30540 29089 30540 30540 31288 31521 
31521 31521 31520 31520 31518 31518 31516 31516 31513 
31512 31513 31513 32016 32015 32850 32845 32850 32850 
32852 32852 32854 32854 33043 33043 33465 33465 33464 
33464 32041 33466 32041 32041 26100 27519 27519 27519 
32038 32038 34177 34177 30587 33606 30587 30587 
EdgePCoordArray 1 220 double
0 0.324 0.832 0.8 0.62 0.544 0.364 0.944 0.332 
0.86 0.368 0.74 0.916 0.796 0.332 0.844 0.768 0 
0.268 0.28 0 0 0 0.836 0.82 0.912 0.176 
0.524 0 0.384 0 0.116 0.908 0 0.08 0.896 
0.284 0.836 0.392 0 0 0.084 0 0 0.892 
0.984 0.828 0 0 0.184 0 0 0 0 
0 0 0.16 0.332 0 0.892 0 0 0 
0.136 0.776 0 0 0.528 0 0 0.552 0.948 
0 0.02 0.716 0.568 0.096 0.896 0.14 0.964 0 
0 0 0 0 0 0 0.016 0.972 0.352 
0.248 0.356 0.576 0.596 0 0.124 0.632 0 0.044 
0 0.584 0.968 0 0 0 0 0 0 
0.552 0.148 0.292 0.844 0.86 0.2 0.248 0 0 
0.124 0.092 0.908 0 0 0.096 0 0 0 
0 0.856 0 0 0.9 0.916 0.884 0.82 0 
0 0.604 0 0.576 0.004 0.876 0.104 0 0 
0 0 0.028 0 0 0 0 0.1 0.084 
0.064 0.052 0.208 0 0 0 0 0 0.936 
0.86 0.948 0.536 0.452 0.34 0.416 0.308 0 0 
0 0 0 0.996 0 0 0.008 0.988 0 
0 0 0.932 0 0 0 0.68 0 0 
0 0 0 0 0.988 0 0.964 0 0.176 
0 0 0 0 0.772 0 0.02 0.604 0 
0 0 0 0 0 0.092 0 0.024 0 
0 0 0.968 0 
CurvatureArray 1 220 double
0 6.9825081188e-05 0.00028324528252 0.00049663450178 0.00071143404138 0.00092224434653 0.0011321978341 0.001339552872 0.0015416377651 
0.0017378990848 0.0019277573034 0.0021072573911 0.0022763267794 0.0024359006672 0.0025822765837 0.0027145262363 0.0028300996867 0.0029290012279 
0.0030131976066 0.0030776303506 0.0031268763242 0.0031584947274 0.003173490189 0.0031756239857 0.0031688794271 0.0031484374527 0.0031265414237 
0.0031007649967 0.0030795152027 0.0030616987386 0.00305648295 0.0030606804074 0.0030843331749 0.0031216519899 0.0031803188444 0.0032521767097 
0.0033421673865 0.0034433806539 0.0035522094515 0.0036654817172 0.0037727191942 0.0038715123384 0.003956931617 0.0040175519833 0.0040552946573 
0.0040616070721 0.0040379555881 0.0039790602865 0.0038905567397 0.0037727772055 0.0036292301166 0.0034642194084 0.0032846732519 0.0030910159964 
0.0028923005554 0.0026900940366 0.0024902457047 0.0022953939291 0.0021095741422 0.0019346110146 0.0017769914268 0.0016360225569 0.0015189095066 
0.0014245854145 0.0013588276369 0.0013185620813 0.0013028334851 0.0013074100961 0.0013249348493 0.0013502158231 0.001375670002 0.0013942502807 
0.001403057863 0.0013962142674 0.0013710508658 0.0013267593348 0.0012630125471 0.0011802868257 0.0010839917041 0.00097977798372 0.00087921944223 
0.00079965651608 0.0007622952233 0.00078360648948 0.00086348508855 0.00098695255123 0.0011359844425 0.001294407637 0.0014503855794 0.0015960143228 
0.0017261563851 0.0018373968367 0.0019285002727 0.0019988087192 0.0020498413265 0.0020824470113 0.0021001580298 0.00210417133 0.0020979719727 
0.0020841712414 0.0020650677178 0.0020425696981 0.0020185494753 0.0019943721867 0.0019712102523 0.0019491110202 0.0019286416093 0.0019099661083 
0.0018917173427 0.0018741906064 0.0018556768603 0.0018349363027 0.0018107371454 0.0017816350404 0.0017457334814 0.0017025008484 0.0016512939152 
0.0015925045341 0.0015282267415 0.001464199983 0.001409147273 0.0013756657116 0.0013795236655 0.0014362170697 0.0015531919901 0.0017306254598 
0.0019577156973 0.002223645135 0.0025137909709 0.0028155049213 0.0031171163883 0.0034102694734 0.0036856403501 0.0039390250578 0.004165560471 
0.0043635475862 0.0045331469802 0.0046761437733 0.0047953638963 0.0048940996705 0.0049774706958 0.0050499597347 0.0051156393739 0.0051768567511 
0.0052389820758 0.0053014308189 0.0053655736156 0.0054314621368 0.0054973950783 0.0055618125178 0.0056228499448 0.0056790349062 0.0057280467136 
0.0057669695659 0.0057951425812 0.0058120137093 0.0058150443942 0.0058020657932 0.005773846767 0.005726702577 0.0056617793328 0.005575475648 
0.0054651134289 0.0053329169877 0.0051721235055 0.0049862127353 0.0047735014913 0.0045317538341 0.0042657964423 0.0039780302406 0.0036702247545 
0.0033502898049 0.0030221768316 0.0026942430077 0.00237319245 0.0020671622192 0.0017816897416 0.0015254269286 0.0013052633298 0.0011255348338 
0.00099225253847 0.00090780813585 0.00086800323641 0.00086736373297 0.00089546889977 0.00094456572087 0.0010080400971 0.0010829612282 0.0011683611887 
0.0012634680647 0.0013698159691 0.0014869800588 0.0016164837291 0.0017584056151 0.0019122733786 0.002076327595 0.0022489470074 0.0024265966128 
0.0026047386129 0.0027787380471 0.0029417975522 0.0030871914464 0.0032081204559 0.0032979738218 0.0033502405214 0.0033615445231 0.0033280863629 
0.0032491417098 0.0031270210434 0.0029637062932 0.002764399928 0.0025340963427 0.0022795192985 0.0020061470921 0.0017191261568 0.0014232885413 
0.0011223510572 0.00081777143378 0.00051217226927 0 
TorsionArray 1 220 double
0 0 -0.00029515260279 -5.6870754053e-05 -0.00012793447399 -7.3147369969e-05 -9.6765381219e-05 -0.00018641455446 -0.00026403075804 
-0.00019175233448 -0.0001722366408 -0.00017648049934 -0.00010873872336 -5.8647413938e-05 -6.5600993999e-06 0.0001762574633 0.00042314756434 0.00067539765359 
0.00097458964224 0.0013256972893 0.0018328893925 0.0025214861254 0.0032796592148 0.0039986231139 0.0050914755849 0.0061891685567 0.0074055144464 
0.0087089369069 0.0099440944621 0.01121510145 0.012292930359 0.013128237152 0.013510489437 0.013715057831 0.013496179234 0.013056283798 
0.012369614595 0.011968119399 0.011076169113 0.010518559253 0.010487269798 0.010097546414 0.010426260687 0.010848024217 0.011413100848 
0.012485330275 0.013591015985 0.015365879441 0.016993427852 0.018845141133 0.021576320144 0.024058283045 0.026968096813 0.030819023454 
0.034818197004 0.039532293647 0.04534760239 0.051911488286 0.059518816253 0.068425747762 0.078005713537 0.087893752835 0.097196449217 
0.10519839429 0.10883570017 0.10760018846 0.10181255007 0.092306581129 0.080042841876 0.067469641119 0.055009872872 0.043033162011 
0.031914484026 0.021331625825 0.011125797618 -0.00018645599512 -0.013032172661 -0.028493179637 -0.048156698146 -0.074046326739 -0.10722394052 
-0.14289974345 -0.16663700058 -0.16071594957 -0.13095247709 -0.096106167106 -0.067457632109 -0.047256411818 -0.033364662991 -0.023841216071 
-0.017266604472 -0.012766126642 -0.0096147809197 -0.0073601780856 -0.0058761806668 -0.0048804754819 -0.0042902132754 -0.0040018262537 -0.0039508116047 
-0.0041298602052 -0.0044403004076 -0.0049309863121 -0.0055500782677 -0.0062567735433 -0.0071269215634 -0.0080755404816 -0.0091354884854 -0.010393662073 
-0.011759836793 -0.013326697221 -0.015210644001 -0.017401212626 -0.020031462041 -0.023316368743 -0.027354046516 -0.032417527361 -0.03901343281 
-0.04757313876 -0.058516498396 -0.072222749751 -0.088272797825 -0.10478427643 -0.11752848911 -0.1218265198 -0.11639421491 -0.10406504685 
-0.089445080606 -0.075151016488 -0.062764871783 -0.052327147965 -0.043434823857 -0.035751063605 -0.028864524475 -0.022488601851 -0.016534205794 
-0.010732550428 -0.0051111648595 0.00042591091108 0.0057538193054 0.010884571136 0.0156748452 0.019925518229 0.023621022872 0.026913633861 
0.029434265991 0.031286116321 0.032680306846 0.033374145383 0.03370073915 0.03369725198 0.033442159707 0.033018628512 0.032428537746 
0.031812019982 0.031216714735 0.030568884272 0.029863765822 0.029188615768 0.028495333936 0.027849718919 0.027221775895 0.026480198385 
0.025899450756 0.025330357937 0.024790397161 0.02444393542 0.024179260012 0.02414039014 0.024336822846 0.024840762276 0.025850051093 
0.027343955826 0.02957773168 0.032697466207 0.036920403838 0.042843245231 0.050684645862 0.060556748994 0.072445580132 0.085085607336 
0.09526780938 0.098524484483 0.092588239173 0.078949322876 0.06271195748 0.046892953886 0.033665307818 0.023404213218 0.015631109499 
0.0099692960814 0.0059262310081 0.0032289209985 0.00138368644 0.00021170426379 -0.00038039794842 -0.00067878120907 -0.00073262768124 -0.00071314913017 
-0.00057250402308 -0.00039045522149 -0.00025396782618 -2.9304327521e-05 7.9078183971e-05 0.00019494408604 0.00037143192954 0.00039629495354 0.00041592853534 
0.00053039949927 0.0005752216795 0.00057540887923 0.00056455016616 0.00054090915781 0.00054965783084 0.00049255879189 0.00047561138861 0.00043323312169 
0.00032389935371 0.00029538597437 0 0 
TangentArray 3 220 double
0.22285959336 -0.13705116726 -0.96516867914 0.22285959336 -0.13705116726 -0.96516867914 0.22255788899 -0.13695648354 -0.96525173279 
0.22189268111 -0.13674679092 -0.96543459294 0.22086479804 -0.13642266715 -0.96571610573 0.2194797755 -0.13598542001 -0.96609347047 
0.21774603505 -0.13543760087 -0.96656263144 0.21567185072 -0.13478150537 -0.96711922668 0.21327018417 -0.1340205098 -0.96775737222 
0.21055743523 -0.13315896332 -0.96847005992 0.20755123255 -0.13220235695 -0.96924972153 0.20427328767 -0.13115737821 -0.97008771051 
0.20074874495 -0.13003161993 -0.97097462337 0.19700174233 -0.12883295734 -0.97190142639 0.1930582661 -0.12756982972 -0.97285890264 
0.18894735249 -0.12625174805 -0.97383745774 0.18469957688 -0.12488979369 -0.97482747485 0.18034623203 -0.12349594346 -0.9758196496 
0.17591591936 -0.1220813704 -0.97680588057 0.171438108 -0.1206578805 -0.97777842633 0.16694119962 -0.11923720584 -0.97873036359 
0.16245028997 -0.11783101688 -0.97965593692 0.15798987816 -0.11645180036 -0.9805499358 0.15357980932 -0.11511055117 -0.98140858116 
0.14923370288 -0.11381542686 -0.982229785 0.14496434007 -0.11257618377 -0.9830116698 0.14077902354 -0.11140011537 -0.98375366877 
0.13667814697 -0.11029243251 -0.98445653204 0.13265806672 -0.10925710134 -0.98512167936 0.12871080451 -0.10829598353 -0.98575124081 
0.1248235261 -0.10740975482 -0.98634792639 0.12098037215 -0.10659746986 -0.98691475264 0.11716198248 -0.10585669754 -0.98745502654 
0.11334726384 -0.10518328152 -0.98797210237 0.10951455252 -0.10457319738 -0.98846902287 0.10564303309 -0.10402170141 -0.98894844921 
0.10171414987 -0.10352434486 -0.98941242247 0.097710554773 -0.10307655778 -0.98986255143 0.093620749313 -0.1026764298 -0.99029930125 
0.089436878385 -0.1023205049 -0.99072274581 0.085158298603 -0.1020074987 -0.991131946 0.080790633575 -0.10173927633 -0.99152508449 
0.076342993883 -0.10151583742 -0.99190033876 0.071832752141 -0.1013408733 -0.99225504943 0.06728179933 -0.10121825048 -0.99258653288 
0.062715371762 -0.10115195442 -0.99289227223 0.058162355361 -0.10114775534 -0.99316981026 0.053654059006 -0.10121046946 -0.99341717462 
0.049222328021 -0.10134679443 -0.99363272374 0.0448965364 -0.10156091765 -0.99381571784 0.040705468194 -0.10185623241 -0.9939659817 
0.036675218162 -0.10223798434 -0.99408365993 0.032827139699 -0.10270783476 -0.99416974385 0.029180452901 -0.10326692991 -0.99422554904 
0.025751079095 -0.10391743049 -0.99425250795 0.022550583002 -0.10465928612 -0.99425243527 0.01958825912 -0.10549203077 -0.99422720318 
0.016870765417 -0.10641589362 -0.99417857292 0.014402747977 -0.10742989732 -0.99410833314 0.012187808878 -0.10853259476 -0.99401817548 
0.010227387212 -0.10972307241 -0.99390957734 0.0085221227203 -0.11099935158 -0.99378393898 0.0070710894112 -0.11235860508 -0.99364256328 
0.0058724672468 -0.11379762435 -0.99348659519 0.004923804868 -0.11531325409 -0.99331697337 0.0042195610358 -0.11690086806 -0.99313462449 
0.0037520829184 -0.11855374855 -0.99294054735 0.003511480431 -0.12026518772 -0.99273559125 0.0034853433505 -0.12202663741 -0.99252070615 
0.0036564598935 -0.12382839297 -0.99229691091 0.0040050993089 -0.12565986187 -0.99206529941 0.0045070192035 -0.1275082145 -0.99182727428 
0.0051333829203 -0.12936058907 -0.99158433145 0.0058519605079 -0.13120370513 -0.9913381574 0.0066265850583 -0.13302276302 -0.99109082979 
0.007419067165 -0.13480321964 -0.99084461416 0.0081874995636 -0.13653185806 -0.99060184564 0.0088877892516 -0.13819537884 -0.99036510665 
0.0094753002248 -0.13978177877 -0.99013699709 0.009906107581 -0.14128057739 -0.98992003085 0.010137270095 -0.14268219893 -0.98971663918 
0.010128534546 -0.14397964724 -0.98952881412 0.009843852646 -0.14516833938 -0.98935799982 0.0092513448001 -0.14624609963 -0.98920497924 
0.0083261271511 -0.14721297583 -0.98906977274 0.0070502254286 -0.14807000954 -0.9889517514 0.005413066173 -0.14882083956 -0.98884935983 
0.0034121315101 -0.14947161916 -0.98876012886 0.0010527202752 -0.1500286827 -0.98868108415 -0.0016521813585 -0.1504993749 -0.98860872364 
-0.0046831673626 -0.15089175765 -0.98853919771 -0.0080153215748 -0.15121400397 -0.98846855267 -0.011619725623 -0.15147344331 -0.98839302808 
-0.015464500905 -0.15167669411 -0.98830917717 -0.019516568799 -0.15182984246 -0.9882139457 -0.023742599877 -0.15193709917 -0.9881049574 
-0.02811087739 -0.15200148816 -0.98798042803 -0.032591643631 -0.15202435093 -0.98783924881 -0.037157324861 -0.15200556968 -0.98768094038 
-0.041784372246 -0.15194355971 -0.98750555487 -0.046452390433 -0.15183502437 -0.98731367903 -0.051143778457 -0.15167569016 -0.9871062754 
-0.055843615955 -0.15145969395 -0.98688472056 -0.060539343475 -0.15118006372 -0.98665068602 -0.065220243165 -0.1508291674 -0.98640604324 
-0.069875997356 -0.15039799334 -0.98615302494 -0.074496150203 -0.14987731614 -0.9858940682 -0.079070269559 -0.14925743164 -0.98563183368 
-0.083585579121 -0.14852778388 -0.98536944766 -0.088027271721 -0.14767841809 -0.98511029041 -0.092378032375 -0.14669954423 -0.98485813337 
-0.096616085472 -0.14558156519 -0.9846173571 -0.10071598273 -0.14431619782 -0.98439277012 -0.10464821854 -0.14289663065 -0.98418966836 
-0.108378206 -0.14131767328 -0.98401396315 -0.11186733707 -0.13957717026 -0.98387189839 -0.11507373738 -0.13767624841 -0.98376993529 
-0.11795156548 -0.13561927594 -0.9837148165 -0.12045207986 -0.13341499696 -0.98371323822 -0.12252615301 -0.13107705529 -0.98377138981 
-0.12412567124 -0.12862348375 -0.98389471854 -0.12520481348 -0.12607741002 -0.98408751713 -0.12572150913 -0.12346685361 -0.98435259851 
-0.12564040611 -0.12082330406 -0.98469092488 -0.12493478578 -0.11818168713 -0.98510120705 -0.12358759108 -0.11557787929 -0.98557996182 
-0.12159316911 -0.11304806964 -0.98612130855 -0.1189569048 -0.11062661956 -0.9867172877 -0.11569624047 -0.1083424028 -0.98735824486 
-0.11183989708 -0.10621915104 -0.98803306087 -0.10742630231 -0.10427308974 -0.988729848 -0.10250129042 -0.10251049412 -0.98943675091 
-0.097116332562 -0.10092780275 -0.99014241227 -0.091325987277 -0.099510762168 -0.9908366022 -0.085185090955 -0.09823457449 -0.99151070022 
-0.078747487523 -0.097066124722 -0.99215774988 -0.072063675296 -0.095963839874 -0.99277276763 -0.065179453081 -0.09488025015 -0.99335259451 
-0.058135614111 -0.093763198167 -0.99389572544 -0.050968289534 -0.092558750611 -0.99440188613 -0.043708856775 -0.091212360848 -0.99487177117 
-0.03638416467 -0.089671014217 -0.99530663706 -0.029017893331 -0.087886112746 -0.99570778497 -0.021632496635 -0.085814117868 -0.99607628838 
-0.014249004266 -0.083414774498 -0.99641303749 -0.0068874956158 -0.080655320742 -0.9967182559 0.00043030669159 -0.077510686787 -0.99699142838 
0.007681871147 -0.073960933145 -0.99723155246 0.014843957163 -0.06999513592 -0.99743688416 0.021891294614 -0.06560870522 -0.99760526714 
0.028797508225 -0.060803460286 -0.99773425457 0.035535798136 -0.055587121984 -0.99782126602 0.042079079481 -0.049972873466 -0.99786374971 
0.048400147783 -0.043980256705 -0.99785929004 0.05447229627 -0.037633222828 -0.99780584759 0.060270632517 -0.030958330412 -0.99770187563 
0.065772160498 -0.023986315402 -0.99754632954 0.070955708519 -0.016752980348 -0.99733877147 0.075802991597 -0.0092963683882 -0.99707947727 
0.080298685235 -0.001657688526 -0.99676946844 0.084430133851 0.0061194445486 -0.99641061059 0.088187895581 0.0139892421 -0.99600562056 
0.09156634236 0.021900351989 -0.99555812464 0.094562521616 0.029801702146 -0.99507275516 0.097176723257 0.037638790948 -0.9945551799 
0.099413021332 0.045354580559 -0.99401207901 0.10127836245 0.05289385753 -0.99345102201 0.10278285763 0.060198142716 -0.9928805909 
0.10393965459 0.067210768811 -0.99231006281 0.10476544059 0.073880133709 -0.99174892402 0.10527929491 0.080156991956 -0.99120690408 
0.10550187703 0.085998666677 -0.99069348604 0.10545614967 0.091370435879 -0.99021737207 0.10516585451 0.096245799969 -0.98978628452 
0.10465542513 0.10060875521 -0.98940644852 0.1039493483 0.10445360895 -0.98908239119 0.10306971705 0.10778353415 -0.98881714346 
0.10203730098 0.11061110385 -0.98861194253 0.10087025108 0.11295883233 -0.98846623344 0.099583695037 0.11485479699 -0.98837819851 
0.098189207956 0.11633158403 -0.9883450015 0.096693406388 0.11742636672 -0.98836300698 0.095099816562 0.11817688922 -0.98842817025 
0.093407525767 0.11862103878 -0.98853633382 0.09161109088 0.11879558993 -0.98868347606 0.089701032617 0.11873319827 -0.98886609426 
0.087664129597 0.118464157 -0.98908100977 0.085483987615 0.11801470859 -0.98932553612 0.083140429845 0.11740609557 -0.98959763422 
0.080611056457 0.11665553344 -0.98989562283 0.077871179418 0.11577579067 -0.99021818086 0.074895012303 0.11477585625 -0.99056410189 
0.071656729897 0.11366072078 -0.99093216398 0.068130033763 0.11243266629 -0.99132093393 0.064290426891 0.11109204616 -0.99172843979 
0.060117458997 0.10963722103 -0.99215198981 0.055595330844 0.10806628889 -0.99258794895 0.050714560375 0.10637736583 -0.99303166586 
0.04547435855 0.10457065215 -0.99347725763 0.039883444359 0.10264795601 -0.99391785777 0.0339618657 0.10061383973 -0.99434573813 
0.02774214816 0.098477446018 -0.99475251487 0.021269534197 0.096250602659 -0.99512985505 0.014600738058 0.093950605016 -0.99546978973 
0.007803918987 0.09159870306 -0.9957654224 0.00095608652107 0.08921832878 -0.99601163432 -0.0058604752736 0.08683763158 -0.99620524018 
-0.012559482894 0.084486710137 -0.99634544973 -0.019055664677 0.082194302645 -0.99643413142 -0.025267644486 0.079989557038 -0.99647539704 
-0.03112021048 0.077900605301 -0.99647530235 -0.036546756311 0.075953174308 -0.99644139312 -0.041490790741 0.074169734886 -0.99638213789 
-0.045906290265 0.072568914031 -0.99630636113 -0.049756912027 0.071166605154 -0.99622264781 -0.053015321997 0.069974952344 -0.99613898713 
-0.055662586398 0.069003213376 -0.99606236402 -0.057685258664 0.068258680601 -0.99599857603 -0.059074442643 0.067746060631 -0.9959521482 
-0.059074442643 0.067746060631 -0.9959521482 
NormalArray 3 220 double
0.92463049417 -0.28396031431 0.25382078155 0.92463049417 -0.28396031431 0.25382078155 0.92239316423 -0.2910177346 0.25396757416 
0.92268475687 -0.29072215669 0.25324586283 0.92283276296 -0.29117027519 0.25218953677 0.92310147244 -0.29155969131 0.25075210466 
0.9234817135 -0.29190526923 0.24894344462 0.92389489588 -0.29242874912 0.24678664481 0.92432058437 -0.29317227161 0.24429792565 
0.92477720958 -0.29405786828 0.24148930151 0.92539335802 -0.29467772131 0.23835304382 0.92599812132 -0.2955149816 0.23494334416 
0.9266927725 -0.29623788244 0.23126526416 0.92745070665 -0.29689760481 0.22734774905 0.92826005608 -0.29750065714 0.22321878794 
0.929116407 -0.29803010926 0.21890809994 0.93013851185 -0.29810205405 0.21442367906 0.93126078469 -0.29788120497 0.2098097677 
0.93252537717 -0.2972132454 0.20508707343 0.9339163101 -0.29611637253 0.20028834125 0.93547171554 -0.29444533218 0.19543442831 
0.93727600224 -0.29190906835 0.19053291433 0.93937751502 -0.28831205052 0.18559645955 0.94174100387 -0.28370750505 0.18064864572 
0.94431095451 -0.27821336215 0.17571040466 0.94740267435 -0.27071097374 0.17071538106 0.95060620199 -0.26243760832 0.16575388525 
0.95432667568 -0.25185783259 0.16071163072 0.9581027469 -0.24041971395 0.15568393468 0.96221473133 -0.2268780926 0.15056275074 
0.96627347176 -0.21252477267 0.14542626573 0.9704178036 -0.19656136643 0.14018885723 0.97426931367 -0.18052118695 0.13494964061 
0.97791168451 -0.16395163685 0.1296479775 0.98116763101 -0.14781350575 0.12434326431 0.98406556836 -0.13209888964 0.11901613552 
0.9865566012 -0.11737922078 0.11370220382 0.9886970683 -0.10359191167 0.10838276138 0.99059126408 -0.090119709384 0.10299216236 
0.99210734339 -0.07862119565 0.097681762794 0.99350074404 -0.06671072983 0.092227708004 0.9946868021 -0.055449977392 0.086737914016 
0.99569966129 -0.044596085943 0.081199591344 0.99660939694 -0.032725090838 0.075490253357 0.99734329169 -0.021015949068 0.069747318263 
0.99792847919 -0.0079350769565 0.063841874773 0.99830710533 0.0061448156263 0.05783739872 0.99842557353 0.021735661594 0.051710106725 
0.99817453145 0.039849808787 0.045382788582 0.99748527539 0.059168393779 0.03901572184 0.99613382178 0.081644659394 0.032427745808 
0.99389496485 0.10731178373 0.02563161958 0.99059156183 0.13556746279 0.018703493174 0.98568784761 0.16819074012 0.011460454271 
0.97867483302 0.20537892514 0.0038817934325 0.96893829271 0.24726941689 -0.0040522075831 0.95536085427 0.29517699845 -0.012497108304 
0.93654243304 0.34989065447 -0.021559244546 0.91089867071 0.41144384846 -0.031266136065 0.87578363762 0.48089334219 -0.0417685709 
0.82854221898 0.55741164027 -0.053009948666 0.76579944956 0.63979680252 -0.064894179514 0.6855508551 0.72394311463 -0.076983062073 
0.58521953553 0.80599109373 -0.08886198323 0.46708582604 0.87857565514 -0.0996777272 0.33684427471 0.93526962419 -0.10865847721 
0.2033406705 0.97229308238 -0.11532013559 0.074165501019 0.99003893567 -0.11967616432 -0.042743238734 0.99160146449 -0.12206371764 
-0.14268233512 0.98208608443 -0.12307994965 -0.2264623447 0.96618471986 -0.12329595914 -0.2922131918 0.94837799299 -0.1232502858 
-0.3426213058 0.93135041492 -0.12327629712 -0.37787400158 0.91756035867 -0.12366983109 -0.39955674312 0.90820529204 -0.12456948482 
-0.40733935917 0.90452801313 -0.12610995175 -0.39833358855 0.90819965284 -0.12846689387 -0.37035799847 0.91951497979 -0.13163265138 
-0.31607234999 0.93899653613 -0.13558677928 -0.22723412572 0.96375055209 -0.13981961758 -0.088503750515 0.9857550687 -0.1430175887 
0.10831459633 0.98391492126 -0.14205413035 0.35160322036 0.92672766299 -0.13248024034 0.58885584733 0.80032595826 -0.11281467814 
0.76541850494 0.63742797444 -0.088431271086 0.87343278306 0.48245015048 -0.066007770624 0.93211693889 0.35884055548 -0.048902637782 
0.96321491146 0.26618469187 -0.036915364884 0.97976724265 0.19802717972 -0.029006660014 0.98869313067 0.14799037952 -0.024181417175 
0.99359997783 0.11086583983 -0.021629831647 0.99633095587 0.083023051281 -0.020779781974 0.99788402649 0.061481693677 -0.021153510637 
0.99874682604 0.044710160454 -0.022489531657 0.99921068859 0.031242434864 -0.024533855465 0.99943775319 0.019798374581 -0.02705922896 
0.99950205815 0.0098970679291 -0.029961371725 0.99945359691 0.00048542139542 -0.033049538543 0.99930510023 -0.0085608484773 -0.036277107444 
0.99905618682 -0.018092197074 -0.039489340172 0.99869098486 -0.028245601909 -0.042643906178 0.99817711381 -0.039476378453 -0.045651560876 
0.99746358479 -0.052155288728 -0.048437824899 0.99648361832 -0.066516370214 -0.050950671459 0.99515323153 -0.082736874807 -0.053147486439 
0.99332853417 -0.10140141539 -0.054919724689 0.9909032862 -0.12223702863 -0.056291972992 0.98763868992 -0.14596684714 -0.057127031418 
0.98330638684 -0.17267230266 -0.057383146474 0.97761366383 -0.20254180076 -0.056994238552 0.97013659048 -0.23604494029 -0.05583710216 
0.96030167586 -0.27373510165 -0.05375672475 0.9474619629 -0.31583533453 -0.050634675096 0.93055194086 -0.36323278197 -0.046206400704 
0.90816973289 -0.41666876234 -0.040185554126 0.87846057186 -0.4767251627 -0.032251247086 0.83861427355 -0.54428436561 -0.021923265167 
0.7844424653 -0.62014248706 -0.0085623816972 0.71037797016 -0.70376948449 0.008464763218 0.60918450025 -0.79247157713 0.029716057755 
0.47267866597 -0.87949529509 0.055343514986 0.29602396126 -0.95145909297 0.084234249377 0.083334649451 -0.99003280462 0.113535818 
-0.14457769279 -0.97972966048 0.13866175797 -0.35927097158 -0.92011098621 0.15594916489 -0.53760754984 -0.82701380711 0.16439673114 
-0.6735606241 -0.72033482812 0.16563158231 -0.77148429706 -0.61528101205 0.1619915294 -0.84010572134 -0.51966645058 0.15546432743 
-0.88783504864 -0.43592791266 0.14736275437 -0.92085071773 -0.36449167015 0.13849107569 -0.94359956413 -0.30478456466 0.12932993359 
-0.95922612554 -0.25582532379 0.12016090792 -0.96978858561 -0.21713191395 0.11119276582 -0.97681137335 -0.18794791497 0.10254326969 
-0.98130675487 -0.16776389127 0.094299149748 -0.98388317845 -0.15647397489 0.086543551731 -0.98496843791 -0.15346237081 0.079287307096 
-0.98463123506 -0.15885069068 0.072579535726 -0.98291023355 -0.17170783898 0.066361817426 -0.97949232307 -0.1921367162 0.06064875384 
-0.97419266597 -0.21883210225 0.055327756172 -0.96661079513 -0.25125437808 0.050346879176 -0.95652459349 -0.28806623907 0.045591051381 
-0.94341670548 -0.32906042782 0.041038453438 -0.92753793649 -0.3719416538 0.036507294454 -0.90849487009 -0.41666889261 0.032001639832 
-0.8866355807 -0.46165579636 0.027409354566 -0.86211057675 -0.50621177708 0.022693395472 -0.83514865998 -0.54973529213 0.017827627775 
-0.80604633587 -0.59171411094 0.012795129965 -0.77507558392 -0.63182288477 0.0075948333993 -0.74249980757 -0.66984254899 0.0022350230944 
-0.70867432043 -0.70552814585 -0.0032776493683 -0.67363786949 -0.73900795627 -0.0089028848018 -0.63763882013 -0.77019671275 -0.014620490396 
-0.60085569577 -0.79909710384 -0.020402242468 -0.56357440876 -0.8256488688 -0.026226537012 -0.5257636059 -0.85002687732 -0.032045881935 
-0.48777591232 -0.87214819295 -0.03784427151 -0.44942949263 -0.89225304525 -0.043561845681 -0.41108907965 -0.91026740739 -0.049183489488 
-0.37294661345 -0.92624037133 -0.05467721683 -0.33458637299 -0.94045548711 -0.059961952659 -0.29653836687 -0.95280411988 -0.065033115509 
-0.25838569079 -0.96351654267 -0.06980477633 -0.22006474451 -0.9726575348 -0.074221480873 -0.1814746588 -0.98027981648 -0.07822039128 
-0.14210848017 -0.98647361196 -0.08170062892 -0.10175307003 -0.99120687708 -0.084588649196 -0.059574767048 -0.99444751503 -0.086746682835 
-0.014779497859 -0.99600783083 -0.088033898927 0.033569538332 -0.99552938476 -0.088285503793 0.087098845858 -0.99237214159 -0.087242900243 
0.14721274377 -0.98547698224 -0.084637613103 0.21621360489 -0.97305989885 -0.080038180378 0.29727695041 -0.95201300188 -0.072785019159 
0.39191415077 -0.91789348811 -0.062248236269 0.5019089408 -0.86361665703 -0.047472990675 0.62403891832 -0.78089610185 -0.027869455191 
0.74935604102 -0.66215808556 -0.0034919211614 0.86014780446 -0.50949778491 0.023616978087 0.94010908656 -0.33716608602 0.050139164358 
0.98273241093 -0.17026821941 0.072427494559 0.9956732098 -0.026446658511 0.089081050349 0.99116447747 0.086761085439 0.10032692885 
0.9796431217 0.16975344383 0.1071593319 0.96716154497 0.22871471786 0.11085180995 0.95661471404 0.26885771269 0.11226673245 
0.94883376495 0.29522435207 0.11205832606 0.9437392096 0.3116288529 0.11065153546 0.94083255237 0.32108686963 0.10833896138 
0.93942542194 0.32616353336 0.10534337244 0.93920380162 0.3279401528 0.10174219975 0.93959250472 0.32806765793 0.097660313798 
0.94029280668 0.32737179434 0.093151199588 0.94114411495 0.32628495666 0.088237644757 0.94193493076 0.32538585918 0.082961610718 
0.9427341599 0.32446328913 0.07730380173 0.94330620906 0.3241685203 0.07133138434 0.94379000733 0.32408605124 0.06502809739 
0.94411511574 0.32439321979 0.058443880606 0.94421185264 0.32526473195 0.051641373739 0.94429531408 0.32606002364 0.044623097036 
0.94414357714 0.3273919493 0.037515560488 0.94387567726 0.32890198081 0.030367629083 0.94358867054 0.33030330511 0.023241072936 
0.94319286907 0.33184807547 0.016250124353 0.94264512975 0.33366147732 0.0094962051651 0.9421058411 0.33530198968 0.0030265294818 
0.94148154446 0.33705070555 -0.0030534122027 0.94091394371 0.33853384299 -0.0087056124769 0.94027788039 0.34012656085 -0.013835832061 
0.93969383629 0.34152030482 -0.018422145119 0.93914430754 0.3427905873 -0.022418360357 0.93860302 0.34403407702 -0.025786133783 
0.9381769186 0.34497849469 -0.028529066187 0.93785520267 0.34567261329 -0.030627818339 0.93748705181 0.34654268385 -0.032034293472 
0.93748705181 0.34654268385 -0.032034293472 
BinormalArray 3 220 double
-0.30885603588 -0.94899078892 0.063438408335 -0.30885603588 -0.94899078892 0.063438408335 -0.31568787848 -0.94686408727 0.061559431546 
-0.31530378606 -0.94698518615 0.061665060723 -0.3155921935 -0.94689425319 0.06158604283 -0.3157725443 -0.94683732074 0.061536885851 
-0.31586102805 -0.94680936311 0.061512932738 -0.3160757412 -0.94674144966 0.061455295347 -0.31646055972 -0.94661952342 0.061353011576 
-0.31694270636 -0.94646640753 0.06122630397 -0.3171271335 -0.94640772259 0.061178458775 -0.31749000497 -0.94629204677 0.061085668976 
-0.31771126326 -0.94622137728 0.06102997928 -0.31784508847 -0.94617856737 0.060996871881 -0.31790214561 -0.94616029168 0.060983016262 
-0.31787041421 -0.94617046566 0.060990570419 -0.31737740164 -0.94632853957 0.061105483597 -0.31658898826 -0.94658097365 0.061285176305 
-0.31535695687 -0.94697435327 0.061559434662 -0.31370256749 -0.9475002743 0.061918731888 -0.31148564218 -0.94820063019 0.062387976525 
-0.30842113889 -0.94916012731 0.063019471638 -0.30431740448 -0.95042892407 0.063841817105 -0.29922754518 -0.951976687 0.064832581481 
-0.2932680056 -0.95375226014 0.065958344156 -0.28533053243 -0.95605552744 0.067411539918 -0.27663896195 -0.95849700888 0.068951930335 
-0.26566836512 -0.96145889745 0.070831548609 -0.25385224779 -0.96450051682 0.072785914459 -0.23995070246 -0.96788341811 0.075002328867 
-0.22524356838 -0.97123445448 0.077259105183 -0.20893308981 -0.97467974671 0.079664015314 -0.19254187674 -0.97785809842 0.081982711921 
-0.17561644306 -0.9808447064 0.084276490572 -0.15911204432 -0.98347120645 0.0864161064 -0.14301925297 -0.9857633433 0.088408847352 
-0.12790740534 -0.9876764797 0.09019349815 -0.11371347595 -0.98926434236 0.091789467326 -0.099820352761 -0.99062404006 0.093273299669 
-0.087886654122 -0.99163966332 0.094481289975 -0.07552705328 -0.99254428049 0.0956635536 -0.063804696122 -0.99326452653 0.09671887662 
-0.052477917268 -0.99383385124 0.09767468622 -0.040121884827 -0.99431337909 0.098646533286 -0.027919849551 -0.99464224506 0.099535352246 
-0.014336406997 -0.99483934214 0.10044476474 0.00025272231423 -0.99485243772 0.1013339198 0.016358975352 -0.99462756944 0.10221732748 
0.034996673901 -0.99405272496 0.10312328941 0.054840007224 -0.99306821578 0.10396197586 0.077849046011 -0.99144311865 0.10478582215 
0.1040563656 -0.98895478948 0.10554950093 0.13285607446 -0.98543014147 0.10619180649 0.16603604501 -0.98033046271 0.10669683984 
0.2037951254 -0.97314986757 0.10699010288 0.24627232106 -0.96327787751 0.10698445952 0.29479134695 -0.94960095357 0.10656496017 
0.35014803782 -0.9307266986 0.10556592308 0.41237867616 -0.90508164092 0.10378367272 0.48254997399 -0.87003578622 0.10091210679 
0.55983318223 -0.8229538934 0.096611062571 0.64302299841 -0.76048615729 0.090455669207 0.72799040156 -0.6806481548 0.082146604285 
0.81085363005 -0.58088592471 0.071329749167 0.88419827372 -0.46347348535 0.058187121628 0.94155091732 -0.33407322119 0.043323815378 
0.97910085977 -0.20147250596 0.027754922987 0.99723976453 -0.073206491995 0.012396030251 0.99908001077 0.042848983458 -0.0017597421242 
0.9897617802 0.14203327728 -0.014077165883 0.97401168659 0.22515924636 -0.024587561201 0.95634258366 0.29038050494 -0.032985224512 
0.93945957294 0.34037074289 -0.039540715634 0.92583853532 0.37532462743 -0.044208942099 0.91668451356 0.39682249437 -0.047131842333 
0.9132467377 0.40454562837 -0.048199903018 0.91720407603 0.39564181063 -0.046949340709 0.92884657515 0.36795956191 -0.04300930855 
0.94868777175 0.31423965292 -0.03528388121 0.97378977256 0.22632868092 -0.022556751833 0.99602425769 0.089043442439 -0.0026350443583 
0.9940650688 -0.10574161389 0.025560713641 0.93609736352 -0.34655734286 0.060164226177 0.80818512959 -0.58145544875 0.09352196231 
0.64347897239 -0.75631601672 0.11798684223 0.4868936925 -0.86331751087 0.13273058284 0.36211698518 -0.92145852509 0.14066085309 
0.26871060959 -0.95226253989 0.14488154959 0.20013755773 -0.96864680377 0.14720165599 0.14994386837 -0.97747060607 0.14855319119 
0.11285899168 -0.98231382105 0.14940684378 0.085207869372 -0.98500837456 0.14999373666 0.063972272479 -0.9865474126 0.15043852911 
0.047598599703 -0.98741844322 0.15079519651 0.03459918124 -0.98791275384 0.1511002563 0.023674172826 -0.98819185498 0.15138160814 
0.014332282498 -0.98833071168 0.15164758499 0.0055038529521 -0.98837662917 0.15192546367 -0.002941064491 -0.98834256139 0.15221803928 
-0.011865994194 -0.9882235714 0.15255612448 -0.021412430603 -0.98800218185 0.15294834575 -0.032043148899 -0.98764168632 0.15341817379 
-0.044134879407 -0.98708651443 0.15398806919 -0.057925696546 -0.98626576582 0.1546753143 -0.07359596218 -0.98509145353 0.15549425244 
-0.091737496133 -0.98341150927 0.1564801433 -0.11207587161 -0.9811192073 0.15762011314 -0.13534293722 -0.97796518273 0.1589540522 
-0.16162301992 -0.97371647481 0.16048123293 -0.19110919318 -0.96807432761 0.1622016415 -0.22427950184 -0.96060503324 0.1641239628 
-0.2616983442 -0.95072346242 0.166249435 -0.30359861607 -0.93777442731 0.16854377416 -0.35088721225 -0.92067502358 0.17098440054 
-0.40432895114 -0.89800693634 0.17349824655 -0.46453495303 -0.86790053162 0.17594301527 -0.53243228223 -0.82752630169 0.1780901032 
-0.60888212885 -0.77267762213 0.17953229633 -0.69343668491 -0.69778861504 0.17954557288 -0.78350595817 -0.59565728822 0.17694860414 
-0.87244925152 -0.45819649207 0.16996552056 -0.94693905244 -0.28076695156 0.15644919261 -0.98855927407 -0.067756784355 0.13475748525 
-0.98148447726 0.15978586162 0.10562527788 -0.92483277855 0.37340174327 0.072494619398 -0.83408886199 0.55017262443 0.040073103711 
-0.72906185395 0.68435215302 0.01144306623 -0.62502898668 0.78050690404 -0.012154775053 -0.52994033334 0.84747194874 -0.03089561783 
-0.44636393653 0.89369141594 -0.045550952243 -0.37482468599 0.92535017434 -0.056863957176 -0.31482272478 0.94688857198 -0.065488046393 
-0.26543107963 0.96144005655 -0.071967767966 -0.22620712472 0.97105681613 -0.076674614885 -0.19642566325 0.97725408653 -0.079946289386 
-0.1756014979 0.98103692296 -0.082040658923 -0.16364815266 0.9830090725 -0.083141118073 -0.15996504374 0.98358885662 -0.08345145838 
-0.16468631184 0.98284023154 -0.083087291161 -0.17688896586 0.98079013847 -0.082225288328 -0.19668331117 0.97712014999 -0.08094373101 
-0.22276633978 0.9716334804 -0.079394821156 -0.25460073176 0.96392285411 -0.07766079258 -0.29084830607 0.95375771508 -0.075851722262 
-0.33130331374 0.94061746222 -0.074006108305 -0.37366554401 0.92474543816 -0.072249123258 -0.41789578348 0.90574782769 -0.070597356736 
-0.46240494795 0.88397042148 -0.06912277525 -0.50650272496 0.85956402769 -0.067857732932 -0.54958847054 0.83275843219 -0.066827439488 
-0.59115142557 0.8038515722 -0.066050298348 -0.63086848571 0.77311701194 -0.065536551521 -0.66852328818 0.74081959442 -0.06529120679 
-0.70387366286 0.70731589296 -0.065315345056 -0.73705141593 0.67264476592 -0.065606624388 -0.76797407894 0.63705463302 -0.066160476316 
-0.79664700826 0.60072329346 -0.066970657197 -0.82301225582 0.56393553098 -0.068026051468 -0.84724644418 0.52665727506 -0.069322272404 
-0.86926795668 0.48923898209 -0.070840933758 -0.88931697591 0.45149424763 -0.07258278518 -0.90731949371 0.41378442231 -0.074523742414 
-0.92332357734 0.37629662383 -0.07664478084 -0.93760860092 0.33860793745 -0.078960598899 -0.9500640407 0.30124347388 -0.081429036677 
-0.96091304809 0.2637780014 -0.084067115982 -0.97021348245 0.22614057538 -0.086869089107 -0.97800952571 0.18822238181 -0.089831523408 
-0.98437885393 0.14950761004 -0.092982506285 -0.98927777454 0.10977546482 -0.096326694769 -0.9926565958 0.068183550012 -0.099919399087 
-0.99430926798 0.023929693834 -0.10380967858 -0.99385717615 -0.023930890727 -0.10805195915 -0.99063309762 -0.077034268874 -0.11274656236 
-0.98355256599 -0.13679545261 -0.11794640344 -0.97079668832 -0.20553315264 -0.12373323368 -0.94921180365 -0.28645061359 -0.13016527107 
-0.91432581044 -0.38109936787 -0.13700943095 -0.8590183977 -0.49133142775 -0.14380827692 -0.77502162299 -0.61401111856 -0.14943838254 
-0.65484685479 -0.74027942852 -0.15219055322 -0.50079550682 -0.85242187652 -0.15026910789 -0.32733916701 -0.9339985296 -0.14316360031 
-0.15972489674 -0.97823196769 -0.13247707252 -0.015564938339 -0.99256646229 -0.12070439357 0.097707232827 -0.98912837472 -0.10990156947 
0.18059444755 -0.97834043759 -0.10117130867 0.23935545492 -0.96631366874 -0.094587841776 0.27924175514 -0.95599756226 -0.089959452738 
0.30531351767 -0.94827953076 -0.086888362087 0.32139132483 -0.94312428891 -0.084995246861 0.33049182371 -0.94006900011 -0.083937056737 
0.33517933956 -0.93845542785 -0.083403958368 0.33653308534 -0.93798408927 -0.083254613922 0.33620331064 -0.93809923201 -0.083289644132 
0.33501541582 -0.93851339257 -0.083410329851 0.33340203071 -0.93907390778 -0.083566031699 0.33194369941 -0.93957857504 -0.083698755917 
0.33043060765 -0.94010028865 -0.083827565955 0.32951890206 -0.94041382783 -0.083899497111 0.32879631041 -0.94066204699 -0.083951769593 
0.32844637529 -0.94078224451 -0.08397468058 0.3286511589 -0.94071179201 -0.083962730515 0.32877527014 -0.9406689879 -0.083956399075 
0.32944195937 -0.94043829629 -0.08392738692 0.33029954856 -0.94014018999 -0.08389655175 0.33106808313 -0.93987177443 -0.083874739688 
0.33200823954 -0.93954183016 -0.08385510276 0.3332522183 -0.9391028246 -0.083838200309 0.33436227405 -0.93870881879 -0.083830920383 
0.33562484106 -0.93825812951 -0.083831071092 0.33666791523 -0.93788376277 -0.083837714638 0.33786982985 -0.93745014429 -0.083852281069 
0.33892197709 -0.93706863895 -0.083870491466 0.33990030792 -0.93671229712 -0.083891913213 0.34090137353 -0.93634612185 -0.083917778966 
0.34165149771 -0.93607072102 -0.083939617364 0.34219881614 -0.93586922 -0.08395697284 0.34296973323 -0.93558465119 -0.083982870553 
0.34296973323 -0.93558465119 -0.083982870553 
