# vtk DataFile Version 4.1
vtk output
ASCII
DATASET POLYDATA
POINTS 204 float
22.0318 -16.2451 277.56 23.199 -15.4303 273.011 24.3652 -14.6166 268.462 
25.5272 -13.8067 263.915 26.6817 -13.0038 259.37 27.8258 -12.2106 254.83 
28.9564 -11.4296 250.294 30.0706 -10.6633 245.765 31.166 -9.91366 241.241 
32.2402 -9.18237 236.725 33.2909 -8.4707 232.217 34.3164 -7.77953 227.716 
35.315 -7.1093 223.222 36.2855 -6.46004 218.736 37.2268 -5.83143 214.255 
38.1383 -5.22277 209.78 39.0193 -4.63308 205.31 39.8696 -4.06113 200.842 
40.6892 -3.5055 196.376 41.4781 -2.96468 191.91 42.2365 -2.43708 187.443 
42.9646 -1.92115 182.973 43.663 -1.4154 178.5 44.3318 -0.918465 174.022 
44.9716 -0.429174 169.538 45.5825 0.0534513 165.05 46.1649 0.530148 160.556 
46.7189 1.0014 156.059 47.2447 1.46743 151.559 47.7423 1.92819 147.059 
48.2114 2.38341 142.561 48.6521 2.83256 138.07 49.064 3.27492 133.588 
49.4468 3.70958 129.121 49.8001 4.13549 124.674 50.1237 4.55149 120.251 
50.417 4.95632 115.858 50.6799 5.34868 111.5 50.912 5.72728 107.183 
51.1133 6.09081 102.912 51.2837 6.43804 98.6919 51.4234 6.76779 94.5265 
51.5326 7.07898 90.4197 51.6119 7.37064 86.3748 51.662 7.64192 82.394 
51.6837 7.89212 78.479 51.6783 8.12065 74.6307 51.6469 8.32708 70.8492 
51.591 8.5111 67.1339 51.5123 8.67254 63.4835 51.4126 8.81135 59.8962 
51.2937 8.92759 56.3698 51.1575 9.02141 52.9014 51.006 9.09304 49.4882 
50.8412 9.14279 46.1268 50.665 9.17099 42.814 50.4791 9.17802 39.5464 
50.2854 9.16429 36.321 50.0853 9.1302 33.1345 49.8801 9.07614 29.9841 
49.6711 9.0025 26.8672 49.4591 8.90965 23.7812 49.2448 8.7979 20.7239 
49.0286 8.66757 17.6934 48.8107 8.51894 14.6879 48.5909 8.35224 11.7058 
48.3689 8.16771 8.74557 48.1443 7.96555 5.80577 47.9162 7.74597 2.88503 
47.6838 7.50915 -0.0180278 47.4462 7.25531 -2.90482 47.2021 6.98467 -5.77684 
46.9504 6.69749 -8.63565 46.6898 6.39407 -11.4829 46.4193 6.07474 -14.3204 
46.1374 5.73992 -17.1498 45.8432 5.39008 -19.9732 45.5356 5.02575 -22.7925 
45.2136 4.64755 -25.6095 44.8763 4.2562 -28.4262 44.5232 3.85246 -31.2444 
44.1537 3.43721 -34.0657 43.7674 3.0114 -36.8918 43.364 2.57606 -39.7239 
42.9436 2.13229 -42.5632 42.5063 1.68127 -45.4106 42.0524 1.22422 -48.2666 
41.5824 0.762438 -51.1316 41.0968 0.297258 -54.0056 40.5966 -0.16995 -56.8885 
40.0825 -0.637789 -59.7797 39.5558 -1.10485 -62.6784 39.0176 -1.5697 -65.5838 
38.4693 -2.03092 -68.4946 37.9124 -2.48712 -71.4094 37.3484 -2.9369 -74.3269 
36.7789 -3.3789 -77.2454 36.2056 -3.81182 -80.1633 35.6304 -4.2344 -83.079 
35.0549 -4.64543 -85.991 34.4809 -5.0438 -88.8977 33.9103 -5.42844 -91.7976 
33.3447 -5.79841 -94.6896 32.786 -6.15285 -97.5725 32.2356 -6.49101 -100.446 
31.6953 -6.81226 -103.308 31.1663 -7.11607 -106.159 30.6502 -7.40206 -108.999 
30.1481 -7.66997 -111.828 29.6612 -7.91965 -114.645 29.1904 -8.15109 -117.452 
28.7368 -8.36439 -120.248 28.3009 -8.55979 -123.035 27.8836 -8.73761 -125.813 
27.4852 -8.89827 -128.583 27.1063 -9.04227 -131.345 26.7472 -9.17021 -134.101 
26.408 -9.28271 -136.851 26.0888 -9.38046 -139.597 25.7897 -9.46418 -142.337 
25.5106 -9.5346 -145.074 25.2514 -9.59246 -147.807 25.0116 -9.63849 -150.538 
24.7911 -9.67341 -153.265 24.5894 -9.69793 -155.989 24.406 -9.71272 -158.711 
24.2403 -9.7184 -161.43 24.0916 -9.71557 -164.148 23.9592 -9.7048 -166.862 
23.8424 -9.68661 -169.575 23.7403 -9.66145 -172.286 23.652 -9.62978 -174.995 
23.5767 -9.59197 -177.702 23.5133 -9.54839 -180.408 23.461 -9.49934 -183.112 
23.4188 -9.44511 -185.814 23.3857 -9.38594 -188.515 23.3609 -9.32204 -191.214 
23.3433 -9.25358 -193.912 23.3321 -9.18072 -196.608 23.3265 -9.10356 -199.302 
23.3257 -9.02219 -201.993 23.3289 -8.93668 -204.682 23.3355 -8.84706 -207.368 
23.3447 -8.75333 -210.051 23.356 -8.6555 -212.73 23.3689 -8.55352 -215.405 
23.3829 -8.44736 -218.075 23.3977 -8.33697 -220.741 23.4128 -8.22226 -223.403 
23.4281 -8.10318 -226.06 23.4432 -7.97965 -228.713 23.458 -7.8516 -231.362 
23.4725 -7.71897 -234.006 23.4864 -7.58168 -236.648 23.4998 -7.4397 -239.287 
23.5126 -7.29299 -241.923 23.525 -7.14151 -244.558 23.5368 -6.98528 -247.192 
23.5483 -6.82429 -249.826 23.5594 -6.65858 -252.459 23.5702 -6.4882 -255.093 
23.5809 -6.31324 -257.727 23.5915 -6.13379 -260.362 23.602 -5.94999 -262.998 
23.6126 -5.76198 -265.633 23.6232 -5.56996 -268.267 23.6341 -5.37414 -270.9 
23.6452 -5.17475 -273.531 23.6565 -4.97205 -276.158 23.6682 -4.76635 -278.779 
23.6803 -4.55795 -281.393 23.6929 -4.34717 -284 23.7061 -4.13435 -286.595 
23.72 -3.91984 -289.179 23.7346 -3.70397 -291.75 23.7502 -3.48709 -294.305 
23.7667 -3.26949 -296.843 23.7845 -3.05147 -299.363 23.8035 -2.83328 -301.865 
23.8239 -2.61515 -304.346 23.8459 -2.39723 -306.807 23.8695 -2.17966 -309.248 
23.8948 -1.96251 -311.668 23.9218 -1.74579 -314.068 23.9505 -1.52947 -316.448 
23.9809 -1.31348 -318.81 24.013 -1.09769 -321.154 24.0467 -0.881958 -323.481 
24.0818 -0.6661 -325.793 24.1181 -0.44992 -328.092 24.1556 -0.233218 -330.378 
24.194 -0.0157966 -332.653 24.2331 0.202524 -334.919 24.2728 0.421899 -337.178 
24.3128 0.642451 -339.429 24.3531 0.864258 -341.676 24.3934 1.08735 -343.918 
24.4337 1.31172 -346.157 24.4738 1.53729 -348.393 24.5139 1.76394 -350.627 
24.5537 1.9915 -352.86 24.5935 2.21977 -355.092 24.6331 2.44849 -357.324 

LINES 1 205
204 203 202 201 200 199 198 197 196 195 194 193 192 191 190 189 188 187 186 185 184 183 182 181 180 179 178 177 176 175 174 173 172 171 170 169 168 167 166 165 164 163 162 161 160 159 158 157 156 155 154 153 152 151 150 149 148 147 146 145 144 143 142 141 140 139 138 137 136 135 134 133 132 131 130 129 128 127 126 125 124 123 122 121 120 119 118 117 116 115 114 113 112 111 110 109 108 107 106 105 104 103 102 101 100 99 98 97 96 95 94 93 92 91 90 89 88 87 86 85 84 83 82 81 80 79 78 77 76 75 74 73 72 71 70 69 68 67 66 65 64 63 62 61 60 59 58 57 56 55 54 53 52 51 50 49 48 47 46 45 44 43 42 41 40 39 38 37 36 35 34 33 32 31 30 29 28 27 26 25 24 23 22 21 20 19 18 17 16 15 14 13 12 11 10 9 8 7 6 5 4 3 2 1 0 

CELL_DATA 1
FIELD FieldData 2
LengthArray 1 1 double
642.83376939 
TortuosityArray 1 1 double
0.012074252724 
POINT_DATA 204
FIELD FieldData 8
RadiusArray 1 204 double
62.175261597 63.637369119 67.485724755 67.783166445 69.765589939 69.352341666 69.312987252 68.741966021 68.621832785 
68.418271581 67.249193284 66.829763691 66.528863216 66.21062346 66.118023121 65.273761776 65.086696134 65.059490732 
65.056337264 65.046086298 64.910313113 64.906377218 64.669649459 64.280902343 64.097194108 63.676944616 63.656843389 
63.508868269 63.173042515 63.140392494 63.129467905 62.940326515 62.861503312 62.701052703 61.444681852 61.441611643 
60.252864388 59.860314973 59.725438774 58.936609043 58.803569718 58.271558455 57.747926214 57.708105638 57.681547205 
56.779145627 56.764329014 56.7044431 55.976214747 55.773688263 55.665933018 55.052153653 54.14754235 54.117615306 
53.174098105 52.974814952 52.96798801 52.494808637 52.48296443 52.312699366 52.19796002 51.636351073 51.338788513 
51.264033192 50.790688274 50.736250745 50.237318816 49.927249563 49.660247833 49.606956927 49.261352817 49.163428061 
49.015479192 48.878328321 48.854566471 48.772768998 48.35021285 48.14879449 48.132234378 47.995117911 47.27623798 
47.060645566 46.594873159 46.390443591 46.001616767 45.926689339 45.739817526 45.622681076 45.597995596 45.392923844 
45.313375038 45.278438508 45.141168936 45.117092518 45.122342777 45.053939721 44.907229291 44.935445625 45.022137079 
45.17773293 45.290145379 45.467207554 45.57808954 45.721939191 45.835117111 45.877569943 45.933536799 46.188152886 
46.306495279 46.668200032 46.675429445 46.726162279 46.72634585 46.741252635 46.887927145 46.916727434 46.933196247 
46.727026132 46.770213607 46.773865907 46.637179055 46.586002769 46.603527293 46.581361095 46.524841515 46.195260787 
46.07003998 45.988209483 45.98381553 45.874247613 45.866309244 45.487456143 45.178660204 45.107631799 44.928019272 
44.917010406 44.801991133 44.516466008 43.892811251 43.702806576 43.367502071 43.177529788 42.575222565 42.007554478 
41.960316502 41.438291695 41.242820756 40.978439473 40.736857048 40.691720287 40.259048731 39.730098378 39.699470787 
39.537227885 39.431655302 38.433534205 38.320018586 37.839593386 37.697336726 37.393439626 37.201782434 37.043362516 
36.562566408 36.528334069 35.930480386 35.563143264 35.468583043 35.466127627 34.902841716 34.741619555 34.149847815 
33.994668373 33.973856904 33.867693625 33.058233414 32.772946512 32.731995586 32.301096829 32.048067496 32.023203777 
31.952257835 31.896301435 31.876634524 31.788284541 31.563164198 31.419791884 31.154944897 31.15050564 30.966562571 
30.94919601 30.865970022 30.865301489 30.883867559 30.882605141 30.636381001 30.402016077 30.332728555 30.238537625 
30.001153842 29.938523629 29.783178153 29.655954054 29.58668382 29.462813787 
EdgeArray 2 204 int
5714 5714 4100 4103 2614 4334 2354 4334 2685 
2683 2775 2318 2318 2009 1634 2667 3376 3375 
3314 3314 3629 3784 3634 3703 3558 3804 3077 
3555 3555 3812 3762 4031 4284 4286 4283 4285 
4283 4019 4019 4315 4829 4827 4829 4828 4828 
4824 4821 4824 4822 4820 4810 4810 5341 5040 
5343 5340 5029 5029 5607 5607 4667 4667 6215 
6215 7036 7036 7030 7035 6291 6291 6952 5954 
8183 7780 7711 7711 9170 9170 7018 7018 9633 
9153 9623 9622 8138 8703 10101 8138 10101 8669 
10773 10773 10774 10774 11103 10757 9199 10767 11740 
8656 9078 10201 12238 11194 12242 11196 11216 11196 
13075 10240 13075 13073 13074 13073 13067 13067 12718 
13079 11240 11240 13307 13307 4427 4427 13282 13282 
13423 13423 13955 13955 14169 14169 6674 6674 14576 
14576 14497 14497 8158 8158 14634 14634 15080 15080 
14963 14963 13869 8275 14844 13869 14844 14844 15494 
15494 7469 7469 13543 13543 15355 15355 14607 14607 
16171 16171 16434 16434 16727 16727 16731 16731 16473 
16473 16768 16768 16767 16766 16764 14170 14071 14071 
16932 16741 16741 15822 15822 15822 17099 17099 9225 
7710 17179 17179 14026 14026 15872 15872 15969 17498 
17534 16318 17653 14622 7062 7062 15361 15626 16827 
15361 14133 14133 12946 17863 17863 17990 16412 16412 
17860 6678 16818 16818 17181 4699 17323 17323 16936 
11028 7227 7227 18520 18448 18448 18448 18526 18526 
16019 16019 18611 18611 18524 18525 18319 18049 18489 
18049 19129 18967 19130 19117 19127 19119 19273 19101 
19499 19499 19740 19507 19740 19745 19738 19747 19508 
19747 19742 19749 19550 19736 19550 19431 17639 20101 
20309 20309 20306 20308 20535 20535 20537 20537 20532 
20532 20284 20284 20751 20594 20783 20783 20990 20960 
21227 20990 21329 20875 21328 21328 20390 20157 21351 
20157 20995 21351 21508 19454 21583 21222 21584 21037 
21586 20942 21517 20448 21860 21863 21864 21863 22024 
21239 21599 21615 20672 21511 21371 20672 21371 21371 
22246 22175 22246 22250 21442 21241 22392 20831 22391 
22392 22391 22407 22405 22405 22409 22409 22077 22077 
22769 22769 22414 22865 22414 22834 22108 22108 23314 
20244 20244 22964 23019 22330 21133 23201 23201 23209 
22587 23200 23020 23255 23426 23429 23429 23267 23199 
23267 23398 23398 23074 23074 22909 23535 23534 23536 
23534 22615 23024 23024 22591 23516 23546 23546 23704 
23820 23827 23827 23817 23817 23781 23786 23419 23080 
23577 23577 24049 24049 23996 23996 23831 24106 23919 
23919 24309 24309 
EdgePCoordArray 1 204 double
0 0.276 0.792 0.796 0.652 0.864 0.124 0.312 0.164 
0 0.892 0.732 0.744 0.568 0.564 0.432 0.248 0.02 
0.18 0.132 0.02 0.032 0.104 0.236 0.976 0 0.88 
0.156 0 0 0 0 0 0.996 0 0.016 
0.696 0 0 0 0.296 0.816 0.848 0.028 0.036 
0 0 0.068 0.052 0.112 0.116 0.876 0.856 0.796 
0.844 0.988 0.976 0 0.092 0 0 0 0 
0 0 0 0 0 0 0 0 0 
0 0.228 0.648 0 0 0 0 0 0 
0 0 0 0 0 0 0.9 0.068 0 
0.94 0.204 0 0 0.032 0 0 0 0.672 
0.788 0.032 0 0.5 0.428 0 0.1 0.34 0 
0.072 0 0.94 0 0.924 0 0.82 0 0 
0 0 0.16 0.484 0.58 0.228 0.124 0.132 0.436 
0 0.016 0.036 0.968 0.988 0.392 0.364 0.364 0.104 
0 0.708 0 0 0 0 0.964 0 0.06 
0.724 0.332 0 0.504 0.916 0.008 0.588 0.144 0.196 
0.476 0.468 0.856 0.84 0.34 0.764 0.052 0.492 0 
0.592 0.66 0.876 0.584 0.016 0.008 0 0 0 
0 0.208 0.172 0 0.812 0.4 0.864 0.9 0.232 
0.272 0.484 0.672 0.284 0.244 0 0 0.996 0.08 
0.08 0 0.972 0 0.996 0 0 0.044 0.848 
0 0 0 0.888 0 0 
CurvatureArray 1 204 double
0 5.607994601e-05 0.0002235352485 0.00039076377223 0.00055467024456 0.00071202215301 0.00086196073347 0.0010013802426 0.00112899177 
0.0012432302959 0.0013416944854 0.0014249763332 0.0014917313644 0.0015420041563 0.0015773301976 0.0015986082785 0.0016066162204 0.0016041222492 
0.0015927624141 0.0015745214614 0.0015517576552 0.0015259753142 0.001499409763 0.0014723301081 0.0014468861156 0.0014239365617 0.0014038749387 
0.0013876451695 0.001376424487 0.001370268366 0.0013703946631 0.0013772040163 0.001391646377 0.0014134491474 0.0014434592795 0.0014811542534 
0.0015271005051 0.001580190107 0.0016398486723 0.0017054022041 0.0017755646886 0.0018486859832 0.0019230758572 0.0019967347094 0.0020672721842 
0.002133112712 0.0021907907399 0.0022391276114 0.002276052028 0.0023003320424 0.002312184993 0.0023115551997 0.0022998061727 0.0022794533422 
0.002253720712 0.0022250477364 0.0021976324744 0.0021734172717 0.0021549672448 0.0021425296693 0.0021370184763 0.0021374420845 0.0021428483014 
0.0021527346878 0.0021661111384 0.0021834607032 0.0022040180701 0.0022283658998 0.0022572114227 0.0022891354338 0.0023241780636 0.0023598931008 
0.0023951951099 0.0024259335913 0.0024498896238 0.0024639581555 0.0024659769218 0.0024528937443 0.0024240963294 0.0023795665679 0.0023179120601 
0.0022428582288 0.002153992946 0.0020548987187 0.0019470183982 0.0018338267992 0.001717540101 0.0016016784331 0.0014883094184 0.0013808334246 
0.0012823864845 0.0011960575312 0.0011266006094 0.0010767785545 0.0010513274695 0.0010531804686 0.001082339129 0.0011386501408 0.0012189137043 
0.0013197593148 0.0014370080783 0.0015674635429 0.0017072869055 0.0018539390153 0.0020038131325 0.0021539007516 0.0023017204414 0.0024443666261 
0.0025793272268 0.0027038993162 0.0028156646965 0.0029130147779 0.0029948303066 0.0030592633814 0.0031065536979 0.0031366355783 0.0031485087643 
0.0031456930858 0.003126208675 0.0030927587335 0.0030466457476 0.0029875963783 0.0029186750031 0.002839213184 0.0027506411654 0.0026538395903 
0.0025497971981 0.0024386068838 0.0023212298129 0.0021991663313 0.0020726779296 0.0019432009103 0.0018117682832 0.0016802533198 0.0015497088436 
0.0014221241541 0.0012987626038 0.0011812735854 0.0010721401006 0.00097151965485 0.00088242070989 0.00080552182846 0.00074240069536 0.00069322101153 
0.00065880723439 0.00063774346103 0.00062824449366 0.00062809356443 0.00063454010782 0.0006451006506 0.00065768155942 0.00066993940116 0.00068116029516 
0.00069006505824 0.00069603687128 0.00069898001645 0.0006984027632 0.00069460403787 0.00068790704208 0.00067845336736 0.00066646260692 0.00065253915943 
0.00063652994329 0.00061964162012 0.00060063128641 0.00058120739789 0.00056036477623 0.00053943518623 0.00051713058662 0.0004953587313 0.00047261592813 
0.00045123120672 0.0004299188092 0.00041016719964 0.00039270995364 0.00037919841167 0.00036846973042 0.00036386037751 0.00036297899893 0.00036746361963 
0.00037533115595 0.00038562938552 0.00039707317792 0.00040719713145 0.00041483217461 0.00042039740528 0.00042203294707 0.0004196256973 0.00041536197401 
0.00040749646483 0.00039928133894 0.00039034884154 0.00038235224736 0.00037394183656 0.00036433052757 0.00035248915958 0.00033613656168 0.00031515324329 
0.00028729844564 0.0002518466691 0.00020844073521 0.00015831093693 0.00010239135195 0 
TorsionArray 1 204 double
0 0 0.00035372848437 0.00075760510386 0.001136733181 0.001565195677 0.002050892401 0.0025672394316 0.0031274831254 
0.0036651132649 0.0042619397998 0.0048832039332 0.0054892200804 0.0061239405505 0.0067411466322 0.0073080947774 0.0078076144087 0.008212549252 
0.00847002084 0.0085523245041 0.0084271085605 0.008065982977 0.0074737130023 0.0066498378282 0.0056179008955 0.0044239659947 0.0031125590166 
0.001756219585 0.00038604529168 -0.00093683404367 -0.002136104025 -0.0031973494985 -0.0041021042816 -0.0048298907973 -0.0053860701979 -0.0057891317248 
-0.0060724312624 -0.006276401148 -0.0064252773614 -0.0065461090501 -0.0066852573827 -0.0068688139721 -0.007106719269 -0.0074386640564 -0.0078462712141 
-0.0083949136491 -0.0090704079612 -0.0098513255146 -0.01081724773 -0.011872588055 -0.013047474181 -0.014369590427 -0.01567897976 -0.016888189731 
-0.017973097354 -0.018699067107 -0.018883491249 -0.018426127587 -0.017224369423 -0.015265079554 -0.012538057799 -0.009233350507 -0.0054613764445 
-0.0015493350735 0.0024800411744 0.0064115323507 0.009921335465 0.013158564869 0.015755379659 0.017751178941 0.019177251269 0.020068721963 
0.020497971775 0.020517597909 0.020367044508 0.020124432213 0.019817565426 0.019545534449 0.019444816975 0.019416572493 0.019658671403 
0.020131754737 0.0208209922 0.021827849796 0.023159735449 0.024877606881 0.027044231484 0.029756651703 0.033053208833 0.037009735604 
0.041632409576 0.046694726678 0.051795650757 0.056237770887 0.05882647764 0.058985929757 0.056556755551 0.051863873905 0.046289324721 
0.040447148711 0.034899113793 0.030112240513 0.026087041895 0.02273739049 0.019947638684 0.01772473659 0.015942028183 0.014525637053 
0.013395857671 0.012494636953 0.011775333987 0.011226587707 0.010782293674 0.010430436506 0.010140352549 0.0098243160291 0.0095896630754 
0.0093093917653 0.0089655165412 0.0086103791478 0.0081608454773 0.0076802790504 0.0071160436573 0.0064401842182 0.0057305918829 0.0049464449433 
0.0040801001475 0.0031440715911 0.0021215126723 0.0010276888141 -0.00017540681017 -0.0015331419681 -0.0030199598379 -0.0047315314308 -0.0067183820094 
-0.0089756357009 -0.011705863286 -0.014814002347 -0.018469907058 -0.02275756181 -0.027153225354 -0.031662522646 -0.035782607176 -0.038748397204 
-0.039726698111 -0.038769055499 -0.035662843152 -0.031191801851 -0.026318564818 -0.021100854122 -0.015959543352 -0.011593105415 -0.007906006429 
-0.0045699677977 -0.0017886610148 0.00042279338698 0.0022754574749 0.0036864426993 0.0046623068422 0.005421528074 0.0059740703694 0.0062231877304 
0.0063217862664 0.0062952309036 0.0063277275896 0.0064183032978 0.006850541607 0.0075821199316 0.0084648079346 0.0099379431088 0.012380517664 
0.015097289186 0.018423582299 0.022709665245 0.026711686917 0.030522466062 0.033963733046 0.035008679639 0.034521744153 0.031800539506 
0.026511060281 0.020713279598 0.014297898046 0.0069050693584 -0.00023766779229 -0.0077492957651 -0.01452147547 -0.021713424531 -0.028654835621 
-0.034765391554 -0.039943175142 -0.043401958587 -0.044866530407 -0.044136370106 -0.042350028636 -0.038374299653 -0.033550336769 -0.029044765927 
-0.024570047026 -0.02026095304 -0.016297809448 -0.012986046447 0 0 
TangentArray 3 204 double
-0.24478420282 -0.17083745343 0.95440832905 -0.24478420282 -0.17083745343 0.95440832905 -0.24433103853 -0.17039050992 0.95460432522 
-0.24333443298 -0.16941038305 0.95503323285 -0.24179642074 -0.16790820084 0.95568892795 -0.23972656822 -0.16590887224 0.95655915583 
-0.2371385334 -0.16344727325 0.9576274353 -0.23404956194 -0.1605683828 0.95887360846 -0.23048195753 -0.15732711012 0.96027404821 
-0.22646093011 -0.15378557545 0.96180322515 -0.22201836005 -0.15001270311 0.96343346252 -0.21718899067 -0.14608139781 0.96513686467 
-0.21200977262 -0.1420657426 0.96688633308 -0.20652281867 -0.13803961439 0.96865545486 -0.20077015283 -0.13407294998 0.97042041911 
-0.19479349781 -0.13022897339 0.97216043311 -0.1886365606 -0.12656373254 0.97385721213 -0.18234169951 -0.12312296716 0.97549589419 
-0.1759480742 -0.11994076786 0.97706524214 -0.16949290797 -0.11703929185 0.97855707974 -0.16300913618 -0.11442809361 0.97996644479 
-0.15652508706 -0.11210476589 0.98129119969 -0.15006350222 -0.11005548715 0.98253179849 -0.14364264262 -0.10825746376 0.98369055742 
-0.13727543057 -0.10667990977 0.98477147248 -0.13096736149 -0.10528561226 0.98578014287 -0.12471980208 -0.10403385669 0.98672282209 
-0.11852989331 -0.10288190777 0.9876061854 -0.11238902687 -0.10178676624 0.98843723162 -0.1062854488 -0.10070613064 0.98922276491 
-0.10020475881 -0.099599563801 0.9899691577 -0.094129549129 -0.098429800348 0.9906821904 -0.088040602058 -0.097162544868 0.99136688076 
-0.081918763553 -0.095766624435 0.99202725256 -0.075745312252 -0.094214227189 0.99266627175 -0.069502603666 -0.092480634376 0.99328582007 
-0.063174711285 -0.090543938552 0.99388668924 -0.056748718975 -0.088384654922 0.99446856947 -0.05021708723 -0.08598582826 0.99502999025 
-0.04357653603 -0.083332600162 0.99556856281 -0.036829259817 -0.080412438582 0.99608104356 -0.029984708126 -0.077215184595 0.99656346137 
-0.023060023258 -0.073733170472 0.99701136147 -0.016079926857 -0.069961762074 0.99742006587 -0.0090777142226 -0.065899415967 0.99778497788 
-0.0020932156388 -0.061548288799 0.99810191193 0.0048253338486 -0.056914181313 0.99836741339 0.011623177478 -0.052007304237 0.99857906149 
0.018242728177 -0.046842261092 0.9987357035 0.024622706634 -0.041437070817 0.99883767023 0.030704014672 -0.035813851345 0.99888669604 
0.036431002755 -0.029997588155 0.9988858427 0.041752436461 -0.024014793529 0.9988393383 0.046627464595 -0.017893657194 0.99875206962 
0.051028427907 -0.01166207511 0.9986291081 0.054939521373 -0.0053463508314 0.99847537051 0.05836070475 0.0010294721573 0.9982950307 
0.061308324435 0.0074443532147 0.99809111356 0.063813669238 0.01388099884 0.99786528825 0.065921870675 0.020325935425 0.99761774409 
0.067690111003 0.026769800654 0.99734719463 0.069186616551 0.03320693228 0.9970509073 0.070486363317 0.039633745851 0.99672505676 
0.07166968716 0.046048699656 0.99636487955 0.072816589397 0.052451237908 0.99596516603 0.074007213149 0.058840572236 0.99552032599 
0.075318552826 0.0652139972 0.99502474852 0.076818751501 0.071565956309 0.99447332459 0.078570911342 0.077888014356 0.99386119207 
0.080626090495 0.084167289136 0.99318442445 0.083023400434 0.09038590099 0.99244017648 0.085790214664 0.096521252288 0.99162678812 
0.088941168928 0.1025462561 0.99074403043 0.092478002123 0.10842941636 0.98979335257 0.096388210929 0.11413573228 0.98877820941 
0.10064921592 0.11962808773 0.98770383008 0.10522877119 0.12486816585 0.98657733953 0.11008489142 0.12981773542 0.98540787101 
0.11516807261 0.13444013987 0.98420636243 0.12042600466 0.13870183838 0.98298493245 0.1258011828 0.14257334014 0.98175704993 
0.13123696116 0.14602963265 0.98053669305 0.13667824503 0.14905127052 0.97933792743 0.14207070991 0.15162447548 0.97817479615 
0.14736397253 0.15374080244 0.97706070705 0.15251108355 0.15539702328 0.97600826562 0.15746974316 0.15659470267 0.97502891192 
0.16220222772 0.15733945846 0.97413281032 0.16667500512 0.15763969326 0.97332891141 0.17085786966 0.15750652125 0.97262494526 
0.17472458982 0.15695256624 0.97202737084 0.17825114748 0.15599115505 0.97154170676 0.18141670277 0.1546362308 0.9711722896 
0.18420161374 0.15290147187 0.97092270825 0.1865873634 0.15080019652 0.97079578519 0.18855898965 0.14834497678 0.97079311663 
0.19010132659 0.14554774608 0.97091572201 0.19120012754 0.1424196121 0.97116382002 0.19184410507 0.13897136865 0.97153630815 
0.19202125318 0.13521387978 0.97203140126 0.19172162515 0.13115872986 0.97264598186 0.19093869503 0.12681838134 0.97337531964 
0.18966704176 0.12220672572 0.97421349275 0.18790345457 0.11733956642 0.97515317664 0.18564783821 0.11223526014 0.97618549802 
0.18290473843 0.10691565566 0.97729980008 0.17968185123 0.10140579908 0.97848418293 0.17599057216 0.095733930287 0.97972564175 
0.17184656776 0.089931752366 0.98101021252 0.1672699898 0.084034019842 0.98232328386 0.16228604535 0.078078249852 0.98364984948 
0.1569242545 0.072103288815 0.98497507283 0.15121721031 0.066148254077 0.98628482894 0.1452014645 0.060252187251 0.98756579965 
0.13891643033 0.054452743926 0.98880590819 0.1324026666 0.048784341911 0.9899947585 0.12570449414 0.043278081067 0.99112329599 
0.11886419998 0.037960660551 0.99218460491 0.11192465871 0.032853572066 0.99317345594 0.10493017036 0.02797352108 0.99408608353 
0.097921560866 0.023331309437 0.99492060885 0.090940242744 0.018933080283 0.99567635842 0.084024877859 0.014780539009 0.99635403124 
0.077212114899 0.010870897642 0.99695542172 0.070538307164 0.0071979290287 0.99748310113 0.064036551119 0.0037529355717 0.99794049702 
0.05773737121 0.00052485335168 0.99833166858 0.05166945582 -0.0024988058431 0.99866111535 0.045859452754 -0.0053311556783 0.99893367616 
0.040330289758 -0.007986436041 0.99915448484 0.035101737688 -0.01047875267 0.99932880663 0.030190817309 -0.012822016459 0.99946191045 
0.025610941093 -0.015030326613 0.99955898724 0.021371252689 -0.017117198292 0.99962506525 0.01747701651 -0.019096166602 0.99966488901 
0.013929731419 -0.020980524311 0.9996828398 0.010726665875 -0.022782866323 0.99968288954 0.0078623954665 -0.024515977129 0.99966851986 
0.0053266051712 -0.026192205797 0.999642734 0.003107281768 -0.027823684821 0.99960801686 0.0011901959516 -0.029422656404 0.99956635134 
-0.00044255050944 -0.031000149417 0.9995192819 -0.0018099106686 -0.032566687733 0.99946792599 -0.0029314880795 -0.034132165046 0.99941302858 
-0.0038282272172 -0.035705649145 0.99935501765 -0.00452238047 -0.037294953512 0.99929406809 -0.0050353843065 -0.038906303476 0.99923017591 
-0.00538965007 -0.040544323812 0.99916320463 -0.0056072272311 -0.042212116514 0.99909293673 -0.00570842279 -0.043911220118 0.99901912827 
-0.0057139539835 -0.045641570984 0.99894153869 -0.0056446635308 -0.047400960477 0.99885999355 -0.0055190767607 -0.049185856624 0.9987743946 
-0.0053537360171 -0.050991831291 0.99868472035 -0.0051646236799 -0.052813038479 0.99859106226 -0.0049657529339 -0.054643138065 0.99849359976 
-0.0047687173512 -0.056475037083 0.99839262293 -0.0045833863957 -0.05830121341 0.99828851595 -0.0044171842261 -0.060114602652 0.99818170842 
-0.0042750544332 -0.061908321764 0.99807268453 -0.0041604876814 -0.063675644209 0.99796197456 -0.0040755192121 -0.065410620199 0.99785010944 
-0.0040203978505 -0.067107634369 0.99773764177 -0.0039943448179 -0.068762268739 0.99762507768 -0.0039958306041 -0.070369973881 0.99751295737 
-0.0040233535768 -0.07192669583 0.99740180622 -0.0040754822441 -0.073429277308 0.99729209948 -0.0041519233125 -0.074874823824 0.99718429705 
-0.0042531333321 -0.076260395356 0.99707886496 -0.0043796381083 -0.077583674852 0.99697622447 -0.0045334765129 -0.078842600072 0.99687676872 
-0.0047189606826 -0.08003551058 0.99678084274 -0.0049401740684 -0.081161673188 0.99668870641 -0.0052016073038 -0.082219680722 0.99660065592 
-0.0055094237455 -0.083209630747 0.99651683558 -0.0058685585644 -0.084133728078 0.99643719111 -0.0062832275428 -0.084993571564 0.99636168827 
-0.0067577818985 -0.085792229311 0.99629013132 -0.0072936902009 -0.086534860946 0.99622212379 -0.0078907213956 -0.087226569603 0.99615724766 
-0.0085469966033 -0.087874625628 0.99609487451 -0.0092561422314 -0.08848804925 0.99603423082 -0.010010817242 -0.089076170727 0.99597450738 
-0.010800659622 -0.089648213847 0.99591492785 -0.011611115047 -0.090214471821 0.99585467368 -0.012427704768 -0.090785465803 0.99579292594 
-0.013234171408 -0.091371654993 0.99572891761 -0.014013311041 -0.091979886605 0.99566225577 -0.014748979726 -0.092617073947 0.99559255984 
-0.015425573934 -0.093287450521 0.99551971515 -0.016029763928 -0.093991430711 0.99544395001 -0.016551969427 -0.094727747708 0.99536560425 
-0.016986293723 -0.095491636766 0.99528529233 -0.017330799438 -0.096275644067 0.9952038202 -0.017587273122 -0.097068114761 0.99512233867 
-0.017760351515 -0.097855742633 0.99504212149 -0.017859699362 -0.098622387391 0.99496465055 -0.017898109082 -0.099351288984 0.99489144085 
-0.01788919659 -0.10002556918 0.99482403577 -0.01784780179 -0.10062707853 0.99476411628 -0.017789191186 -0.1011381465 0.99471333559 
-0.017727847102 -0.10154323591 0.99467315973 -0.017676147844 -0.10182976849 0.99464478687 -0.017676147844 -0.10182976849 0.99464478687 

NormalArray 3 204 double
-0.67993632355 -0.67149559985 -0.29458488641 -0.67993632355 -0.67149559985 -0.29458488641 -0.68063504181 -0.67104983023 -0.29398650516 
-0.6822452889 -0.66998616739 -0.29267712805 -0.68578230553 -0.66721564934 -0.29073339453 -0.69063400143 -0.66332840723 -0.28813208817 
-0.69722092462 -0.65779925984 -0.28492650986 -0.70548914542 -0.65057177336 -0.28114308351 -0.71548440886 -0.64144582508 -0.2768200032 
-0.72723625472 -0.63019537649 -0.27199488464 -0.74037916248 -0.61702088288 -0.26669069321 -0.75526156723 -0.60123143885 -0.26096115037 
-0.77142682106 -0.5830664372 -0.25482187811 -0.78882216614 -0.5622323207 -0.24830305629 -0.807232782 -0.53860099717 -0.24142121182 
-0.82632538335 -0.51219500425 -0.23418505174 -0.84569774125 -0.48316226532 -0.2266044038 -0.86493053953 -0.45174025629 -0.21869134104 
-0.8835920812 -0.4182941887 -0.21046378725 -0.90114294579 -0.3836034905 -0.20196473291 -0.91722556742 -0.34835606953 -0.19324933968 
-0.93144666451 -0.3136874154 -0.184410728 -0.94361951738 -0.28064612277 -0.17555614542 -0.95367851178 -0.25034257336 -0.16681094727 
-0.96165521783 -0.22395514556 -0.1583140385 -0.96773582619 -0.20232078439 -0.15017879647 -0.97211751545 -0.186223069 -0.14250791109 
-0.97502542815 -0.17607518686 -0.13536226593 -0.97665351331 -0.17195800778 -0.12875697457 -0.97708087269 -0.17395438856 -0.12269001155 
-0.97638525315 -0.18155031634 -0.11709534606 -0.97457991625 -0.19410251696 -0.111884761 -0.97163365026 -0.21092075151 -0.10696020877 
-0.96752598419 -0.23118378698 -0.10221314281 -0.96228054457 -0.25397584721 -0.097531649102 -0.95592558521 -0.27855010179 -0.092823037779 
-0.94855655477 -0.30413228372 -0.088000093211 -0.94021273546 -0.33031704998 -0.083009990776 -0.93098391696 -0.35667219576 -0.077806755069 
-0.92090255888 -0.38301609067 -0.072368165255 -0.91001713263 -0.40917319639 -0.06667918476 -0.89822705654 -0.43531256957 -0.060754602074 
-0.88547882038 -0.46145997084 -0.05460727028 -0.87161028279 -0.48781724606 -0.048268513284 -0.856378581 -0.51465521627 -0.041781986225 
-0.83965489741 -0.54197957609 -0.035182273288 -0.82085716816 -0.57041946791 -0.028550658566 -0.79987110555 -0.59977115553 -0.02192659348 
-0.77612008508 -0.63039730089 -0.015390144922 -0.74906845859 -0.6624312518 -0.009015596884 -0.71851807117 -0.69550244901 -0.0028504052875 
-0.68370503274 -0.72975222101 0.0030206187949 -0.6442711268 -0.76474944039 0.0085445066547 -0.60025861956 -0.7996886905 0.013696274238 
-0.55185030433 -0.83373880043 0.018462238691 -0.49933102034 -0.86611026436 0.022837296348 -0.44450008479 -0.89537454811 0.026908980363 
-0.38882784778 -0.92079706239 0.030751824152 -0.33508691106 -0.94155439552 0.034526545002 -0.28541145115 -0.9576366535 0.038371127397 
-0.24279640807 -0.96914621067 0.042491488326 -0.20925707713 -0.97672806265 0.047050688631 -0.18650953503 -0.98106538399 0.052200629038 
-0.17567655077 -0.98273461483 0.058055372828 -0.17631408621 -0.98221073313 0.064617480063 -0.18924647262 -0.97929004086 0.071949902534 
-0.21266358761 -0.97385130798 0.079923891589 -0.24536755109 -0.9653887911 0.088426505573 -0.28632884363 -0.95317448131 0.097335509871 
-0.33227449452 -0.9371627751 0.10639357719 -0.38226865856 -0.91680739893 0.1154766901 -0.43346010964 -0.8925482939 0.1243779579 
-0.48507073908 -0.86430095174 0.13300467249 -0.5350299062 -0.83294386887 0.14123565692 -0.58288852563 -0.79876955387 0.14902404676 
-0.62807935701 -0.76228452504 0.15632857761 -0.67058958942 -0.72367255598 0.163118467 -0.71012487982 -0.68340235834 0.16936313555 
-0.74705928432 -0.64130408268 0.17501856831 -0.78163955625 -0.59718597977 0.18002363642 -0.813783195 -0.55116553506 0.18431892064 
-0.8441816949 -0.50209773844 0.18776348699 -0.87249727123 -0.45005359337 0.19026369805 -0.89896020147 -0.39389288211 0.19162190273 
-0.92323512342 -0.3330284933 0.1916479312 -0.94498939903 -0.26622445277 0.19005151002 -0.96341072275 -0.19249459718 0.18650900609 
-0.97735454176 -0.11034388987 0.1805611411 -0.98498730111 -0.018370024195 0.17164661038 -0.98363835581 0.084498032519 0.15910897986 
-0.96959351104 0.19922553696 0.14211829149 -0.93804683993 0.32510047698 0.11990748918 -0.88369402029 0.45893426832 0.092001173158 
-0.80174446929 0.5948034162 0.058435451922 -0.69111965617 0.72244640276 0.020611064896 -0.55642866499 0.83068134373 -0.018858578054 
-0.40690987844 0.911688324 -0.056997813241 -0.25557592507 0.96251242483 -0.09083379642 -0.11317211883 0.98645259285 -0.11875754113 
0.015183090666 0.98993531423 -0.1407037576 0.12592619548 0.9795515899 -0.15691168221 0.22019512448 0.96081411421 -0.16837560718 
0.29995883597 0.93757430815 -0.17600884473 0.36753071545 0.91230793036 -0.18059737927 0.42505119702 0.88652671382 -0.1827617728 
0.47424676416 0.86116941504 -0.18296788046 0.51713291265 0.83640833701 -0.18164427995 0.55471710803 0.81254688211 -0.1790432753 
0.58832735777 0.78936552919 -0.17542229454 0.61850770876 0.76696224596 -0.17093018306 0.64609553538 0.74504552133 -0.16573391416 
0.67136317129 0.72366589726 -0.15993486607 0.694956974 0.70244056005 -0.15366217454 0.71685845724 0.68155001891 -0.14698137303 
0.73754484861 0.66062726142 -0.13999720626 0.75689756389 0.63990671 -0.13276098929 0.77502974984 0.61936915873 -0.12534245922 
0.79217808689 0.59881034708 -0.11781361077 0.8080663867 0.57869088716 -0.11020694991 0.82282998169 0.55895233236 -0.10258221767 
0.83642042128 0.53979592827 -0.094980180515 0.84873084714 0.52154658447 -0.08743631591 0.85991016309 0.5041378786 -0.079996942356 
0.8697409003 0.48812709826 -0.072682200697 0.87830436788 0.47359004631 -0.065527897919 0.88561458362 0.4607139879 -0.058561340725 
0.89164258815 0.44976647659 -0.051803586092 0.89638623595 0.44095570264 -0.045274543721 0.89983322437 0.43448804521 -0.038991112983 
0.90192119631 0.43064088825 -0.03296332827 0.90265123705 0.42951226789 -0.027202132013 0.90181303884 0.43158100218 -0.021704412907 
0.89926139146 0.43710152271 -0.016468414656 0.89475853978 0.44640255868 -0.011485255956 0.88780382832 0.4601728563 -0.0067308802276 
0.87790183107 0.47883567928 -0.0021834055983 0.86430872693 0.50295689249 0.0021883426678 0.84563806953 0.53371790994 0.0064380092214 
0.82111525989 0.57066440001 0.010576981413 0.7878994745 0.61562872102 0.014686590724 0.74480868328 0.66701467384 0.018747004899 
0.68952482258 0.72390443243 0.022757234945 0.62103917443 0.78332636789 0.026648549644 0.5389003018 0.8418233218 0.030330835704 
0.44704226474 0.89387969851 0.03364963768 0.35014649018 0.93598288721 0.036516712228 0.25452944305 0.96628209154 0.038906068689 
0.16734484236 0.98505075565 0.040874350417 0.091228966507 0.99492057829 0.042547838499 0.027924794065 0.99863879614 0.044054065914 
-0.021144561413 0.99874001547 0.045511416333 -0.057185914621 0.99725654217 0.047001704941 -0.082839718913 0.99537903389 0.048560888167 
-0.099187457118 0.99380115118 0.050210758366 -0.1070828297 0.99289156324 0.051957783098 -0.10867415742 0.99262152751 0.053781322355 
-0.10488352519 0.99292541242 0.055664813947 -0.096699483109 0.99364633907 0.057586133922 -0.08546846675 0.99456156442 0.059518365036 
-0.072126434032 0.99550133994 0.061439886882 -0.056862684419 0.99637094046 0.063337067562 -0.040594983505 0.9970466543 0.065192150378 
-0.023988308832 0.99746506069 0.066992639393 -0.0072040840527 0.99760912619 0.068732325169 0.0093023109371 0.99747514436 0.07040456948 
0.02624015366 0.99705883949 0.072007811537 0.043232692464 0.99635498248 0.073536951125 0.062462895735 0.99522620833 0.074987871738 
0.08327723308 0.9935973432 0.076349342131 0.10702494119 0.99122295831 0.077606113681 0.13553228927 0.98764003222 0.078728427614 
0.17167522304 0.98192799807 0.079655661407 0.21365858549 0.97359920695 0.080340482177 0.26582444613 0.96064273327 0.08064057827 
0.32741226453 0.94145287906 0.080421922114 0.3958297956 0.9148694654 0.079577849837 0.47102543711 0.87867105077 0.077924464327 
0.54758386555 0.83333996844 0.075474546657 0.61903192971 0.78201595773 0.072460415761 0.68340807278 0.7267636217 0.069051026327 
0.73534644593 0.67448819968 0.065812407322 0.77327996344 0.63090358402 0.063235795309 0.80063348613 0.59600501354 0.061351811111 
0.81594835049 0.57493965506 0.060602659786 0.82046910857 0.56842078169 0.061059453163 0.81541731536 0.5754742232 0.062642000605 
0.79879255346 0.59803091157 0.065494162664 0.77356306018 0.62994276136 0.069081903156 0.73316179878 0.67604325265 0.073751592158 
0.68167698749 0.72740548319 0.078725775691 0.61421310919 0.78465896787 0.083979525067 0.53584644609 0.83963091774 0.088817274134 
0.44594980532 0.89021110168 0.093021317866 0.35259289195 0.93082019949 0.096187362796 0.25802794403 0.96112244465 0.098311883755 
0.16691179254 0.98094365902 0.099448435603 0.086549914752 0.99123549648 0.099806326317 0.015706347532 0.99490011294 0.099634712375 
-0.04487265007 0.99406102486 0.099141939284 -0.095069637646 0.99058557171 0.098498675683 -0.13549082491 0.98593759393 0.097822784861 
-0.16678621429 0.98119092473 0.097194279435 -0.19206668792 0.97661887294 0.096571033023 -0.19206668792 0.97661887294 0.096571033023 

BinormalArray 3 204 double
0.69120712523 -0.721046617 0.048212925096 0.69120712523 -0.721046617 0.048212925096 0.6906795809 -0.72156718293 0.047984550082 
0.68944159978 -0.72278534685 0.047451268422 0.68646712983 -0.72569285057 0.046181882783 0.68231653106 -0.72970519409 0.044435134359 
0.67649707926 -0.73524494056 0.04203069277 0.66895879414 -0.74227633814 0.0389867874 0.65951507028 -0.75086312595 0.035276595029 
0.64795283544 -0.7610543898 0.030876185188 0.63446555743 -0.77251629044 0.02592368504 0.61839219545 -0.78560866986 0.020251183912 
0.59996042875 -0.79990677869 0.014022458578 0.57888506249 -0.81537714122 0.0072250959782 0.55503745946 -0.83182534821 -9.3075885857e-05 
0.52843339604 -0.84893856793 -0.0078392499212 0.49921095586 -0.86633471994 -0.015892594792 0.46759669205 -0.88361274086 -0.02412172835 
0.43394390102 -0.90035780882 -0.032380655744 0.39901572076 -0.91605139935 -0.040451061117 0.36349041251 -0.93035168631 -0.048171151117 
0.32849202167 -0.94288532011 -0.055319660259 0.29506465685 -0.95348075152 -0.061735765601 0.26431815561 -0.96208571214 -0.06728294813 
0.23743356581 -0.96874325269 -0.071845752834 0.21525547827 -0.97364328173 -0.075391239664 0.19857619978 -0.97698409672 -0.077907429976 
0.1878192718 -0.9789856187 -0.07944230306 0.18307545324 -0.97983156603 -0.080084209697 0.18443527755 -0.97959080536 -0.079909213748 
0.19139185914 -0.97832479756 -0.079055339656 0.20330670136 -0.97603062827 -0.077656924174 0.2194923736 -0.97266226228 -0.075836808189 
0.23912922469 -0.96818531815 -0.073718407576 0.26130212631 -0.96261100577 -0.071423037994 0.2852641997 -0.95595877163 -0.06904464721 
0.31024090359 -0.94831711426 -0.066672577192 0.33582673355 -0.93972272467 -0.064355308736 0.36158980975 -0.93026414642 -0.062140384429 
0.3873494063 -0.91997519099 -0.060050690253 0.41293150031 -0.90890656015 -0.058107150826 0.43850777893 -0.89696197357 -0.056304047637 
0.46410720095 -0.88409168919 -0.054647883152 0.48993565994 -0.87013773984 -0.05313532559 0.51626865207 -0.85486096843 -0.051762955358 
0.54311625984 -0.83813480255 -0.050544841992 0.57111314609 -0.81937928128 -0.049470878067 0.60005926062 -0.79847968121 -0.048570386524 
0.63032120098 -0.77485808094 -0.047855386268 0.66203486816 -0.74797580563 -0.047350053144 0.69483022738 -0.71763062328 -0.047087616789 
0.72884855096 -0.68305332196 -0.047095107166 0.76365663045 -0.64388009995 -0.047402190506 0.79844565826 -0.60014816113 -0.048028278069 
0.83238052665 -0.55203587624 -0.04898009997 0.86466767091 -0.49982439567 -0.050253282196 0.89387566404 -0.44531265285 -0.051797089182 
0.9192682928 -0.38997096238 -0.053557953201 0.94002371122 -0.33657486262 -0.055432699742 0.95613524698 -0.28726102453 -0.057327944901 
0.96771274307 -0.24502857002 -0.059102003135 0.97541001008 -0.21189523656 -0.060627724356 0.97992135701 -0.18957815939 -0.061759659583 
0.98183563057 -0.17919875576 -0.062342605683 0.98163694272 -0.18030791266 -0.062273343573 0.97913671415 -0.19372352189 -0.061339156046 
0.97421830926 -0.21762528463 -0.059480428579 0.96638172804 -0.25080429804 -0.056599998204 0.95490439584 -0.29221886557 -0.052590202582 
0.93973033037 -0.33858795078 -0.04759312726 0.92031396146 -0.38896604244 -0.041564770678 0.89707991418 -0.44050106801 -0.034733797132 
0.86994013964 -0.49241053012 -0.027129748717 0.83975640432 -0.54263023596 -0.019016004408 0.80681489791 -0.59071163391 -0.010463559531 
0.77161263379 -0.63609073528 -0.0015874073271 0.73432724876 -0.67875324889 0.0075841182615 0.69541640169 -0.71840696836 0.016954529352 
0.65470507923 -0.75541705192 0.026576999515 0.61199442931 -0.79001943368 0.036498121821 0.56738961389 -0.82212492703 0.046686512032 
0.51974428907 -0.8523926369 0.0573817614 0.46911359929 -0.88047457763 0.068534291491 0.41435066015 -0.90656407157 0.080343727634 
0.35485316186 -0.93029876293 0.092862506977 0.28937070534 -0.9513024261 0.10624635988 0.21689411999 -0.96872283402 0.1205529409 
0.1358989957 -0.98136054576 0.13587840957 0.044938394663 -0.9873258172 0.15221127214 -0.057124192335 -0.98389622332 0.16936660942 
-0.17134684433 -0.96730299151 0.18698978999 -0.29714416453 -0.93272527542 0.20427654312 -0.4314775295 -0.87490969447 0.21990945422 
-0.56857327712 -0.78919581599 0.23215165854 -0.69823977019 -0.67478181353 0.23902034946 -0.80921730592 -0.53662116344 0.23917583228 
-0.89346843059 -0.38423983851 0.23253797549 -0.94769375737 -0.23083865823 0.2204315225 -0.97487840825 -0.087167888314 0.20497279911 
-0.98127331161 0.041776552757 0.18803565501 -0.97333725488 0.15256497076 0.17128490288 -0.9565858675 0.24648191838 0.15553180387 
-0.93490700607 0.32560702218 0.14116995826 -0.91083119455 0.39233361613 0.12829991695 -0.88592683675 0.44885814248 0.11687603627 
-0.86118282806 0.49694696012 0.10680756287 -0.83683211159 0.53864455599 0.097847122136 -0.81321353197 0.57498050311 0.089895341744 
-0.7901516799 0.6073008655 0.082740446649 -0.76776882245 0.63616601354 0.076314077988 -0.74580412888 0.66242807764 0.070464482621 
-0.72432469969 0.68637364816 0.065153238798 -0.70297095217 0.70866188558 0.060250911412 -0.68193143863 0.72928680618 0.055769770878 
-0.66085537122 0.74873661601 0.051610640162 -0.63998094632 0.76690252998 0.047800605229 -0.61929578314 0.78390615058 0.04431568644 
-0.59860269012 0.79999072275 0.041105509391 -0.57836112029 0.81488496116 0.038221912774 -0.55851632078 0.82872780349 0.035633511618 
-0.53927010559 0.84147252232 0.033342876177 -0.52094704277 0.85301271895 0.031360483727 -0.50348220557 0.86349669081 0.029650187963 
-0.48743107786 0.87270485247 0.028234461294 -0.47286973321 0.8807159916 0.027084267651 -0.45998492301 0.88754072404 0.026178880364 
-0.44904330633 0.89314603569 0.025500352416 -0.44025218152 0.89752538921 0.02502383636 -0.43381687256 0.90066182186 0.024722534985 
-0.43001351534 0.90248802884 0.024571007753 -0.42893893769 0.90300022562 0.024535286022 -0.43107047861 0.90198305663 0.024592844817 
-0.43666122971 0.89928657731 0.024710773773 -0.44603859144 0.89466851802 0.024855941231 -0.45989011331 0.8876239512 0.024996098423 
-0.47863800266 0.8776538098 0.025088893116 -0.50284725632 0.86401117198 0.025086480723 -0.53369882714 0.84530713914 0.024927944848 
-0.5707375555 0.82076556392 0.024546523814 -0.61579604001 0.78754499581 0.023835198549 -0.6672770105 0.74446338538 0.022708128139 
-0.72426191615 0.68920342675 0.021055008251 -0.78377743528 0.62075696712 0.018807438113 -0.84236445266 0.53867289721 0.015926039012 
-0.89450464404 0.44688274883 0.012539959667 -0.9366840361 0.35006445306 0.0088258263443 -0.96705191563 0.25452940717 0.0050371980755 
-0.98588369264 0.16742510741 0.0014758046027 -0.99581415669 0.091384791461 -0.0017277779958 -0.99959372736 0.028148882658 -0.0044744406839 
-0.99976010035 -0.020862130574 -0.0066718254905 -0.99834758924 -0.0568554135 -0.0083398449133 -0.99654760085 -0.082470178837 -0.0095681158313 
-0.99505436327 -0.098788182729 -0.010378299097 -0.99423668925 -0.10666361426 -0.010783280884 -0.99406502242 -0.10824338588 -0.01086741025 
-0.99447307931 -0.10444948805 -0.010658281617 -0.9953030707 -0.096270043984 -0.010191962314 -0.99633108437 -0.085050156573 -0.0095310645722 
-0.99738633509 -0.071724764779 -0.0087210489022 -0.99837333972 -0.056483283732 -0.0077661570857 -0.99916737209 -0.040242016872 -0.006718825843 
-0.99970415496 -0.023664701621 -0.0056200050442 -0.99996607262 -0.0069124343058 -0.0044801640072 -0.99994874886 0.0095605004266 -0.003331138331 
-0.99964757138 0.026461689542 -0.0021241526973 -0.99905671748 0.043415321172 -0.00088608167622 -0.99803865065 0.062598362668 0.00054479541809 
-0.9965173422 0.083358692968 0.0021248527397 -0.99424669008 0.10704120848 0.0039621903959 -0.99076255791 0.13546590406 0.0062082751905 
-0.98514229896 0.17149846543 0.0091064345138 -0.97689590209 0.21334799515 0.012531138734 -0.96400742068 0.265340278 0.016859114831 
-0.94486552233 0.32671491222 0.022056990786 -0.91830514152 0.39488653696 0.027933671352 -0.88209725011 0.46980131687 0.03451324405 
-0.83672351621 0.54606244184 0.041346910806 -0.78533195025 0.61722180753 0.04786405983 -0.72999393325 0.68132676722 0.053876652568 
-0.67763747927 0.7330373242 0.058853445291 -0.6339971782 0.77079863311 0.062586302181 -0.59907078416 0.7980247237 0.065350867834 
-0.57802390529 0.81326969131 0.066938584696 -0.57157293838 0.81777696471 0.067418188184 -0.57874014373 0.81276529062 0.066876217052 
-0.60146098232 0.79624760563 0.065072554014 -0.6335643764 0.77117560768 0.062324658704 -0.67989428914 0.73101819277 0.057932352306 
-0.73149062632 0.67983727068 0.052371261181 -0.78897737811 0.61276089553 0.045152870876 -0.84415319612 0.5348332224 0.036861981675 
-0.89489677447 0.44542736978 0.027463089577 -0.93561631876 0.35256879694 0.017814249576 -0.96597736408 0.25849840906 0.0081427631454 
-0.98581186006 0.16785050332 -0.001088626788 -0.99608741755 0.087896616669 -0.0091674087426 -0.99971644397 0.017409383677 -0.016246384875 
-0.99883252947 -0.042866821196 -0.02227136546 -0.99531061482 -0.092813879238 -0.027246354834 -0.99061888789 -0.13303434217 -0.031242323255 
-0.98583369904 -0.16417472544 -0.034330414595 -0.98122267666 -0.18933112601 -0.03682096595 -0.98122267666 -0.18933112601 -0.03682096595 

