# vtk DataFile Version 4.1
vtk output
ASCII
DATASET POLYDATA
POINTS 330 float
-15.8344 -13.202 269.871 -15.861 -12.5626 268.737 -15.8874 -11.9237 267.603 
-15.9127 -11.2864 266.467 -15.9361 -10.6522 265.331 -15.9567 -10.0222 264.193 
-15.9738 -9.39761 263.052 -15.9865 -8.77962 261.907 -15.9942 -8.16924 260.758 
-15.9961 -7.56744 259.602 -15.9914 -6.97506 258.439 -15.9795 -6.39288 257.266 
-15.9598 -5.82156 256.081 -15.9317 -5.26168 254.883 -15.8947 -4.71375 253.667 
-15.8482 -4.17819 252.432 -15.792 -3.6554 251.174 -15.7257 -3.14576 249.89 
-15.6489 -2.64961 248.578 -15.5616 -2.16733 247.235 -15.4636 -1.6993 245.856 
-15.355 -1.24596 244.441 -15.2357 -0.807774 242.985 -15.106 -0.385281 241.486 
-14.966 0.0209484 239.942 -14.816 0.410292 238.351 -14.6564 0.782094 236.711 
-14.4875 1.13568 235.02 -14.3099 1.47039 233.278 -14.1239 1.78555 231.482 
-13.9302 2.08057 229.633 -13.7293 2.35491 227.73 -13.5217 2.60813 225.773 
-13.308 2.83989 223.761 -13.0887 3.05001 221.694 -12.8645 3.23843 219.574 
-12.6357 3.40526 217.4 -12.403 3.55079 215.174 -12.1668 3.67545 212.897 
-11.9275 3.77985 210.569 -11.6855 3.86475 208.194 -11.4413 3.93106 205.772 
-11.1951 3.9798 203.306 -10.9473 4.01213 200.798 -10.6981 4.02927 198.252 
-10.4478 4.03253 195.67 -10.1965 4.02325 193.057 -9.94434 4.00281 190.414 
-9.69153 3.97259 187.747 -9.43812 3.93395 185.059 -9.18415 3.88822 182.354 
-8.92966 3.83668 179.636 -8.67463 3.78053 176.91 -8.41904 3.72091 174.179 
-8.16283 3.65885 171.448 -7.90594 3.59527 168.719 -7.64829 3.53099 165.996 
-7.38978 3.46669 163.282 -7.13035 3.40294 160.579 -6.86992 3.34016 157.891 
-6.60843 3.27864 155.219 -6.34583 3.21854 152.565 -6.08213 3.15988 149.93 
-5.81734 3.10255 147.314 -5.55151 3.04631 144.719 -5.28477 2.99082 142.145 
-5.01723 2.93563 139.591 -4.7491 2.88016 137.058 -4.48061 2.8238 134.546 
-4.21202 2.76582 132.052 -3.94366 2.70548 129.577 -3.67587 2.64195 127.121 
-3.40906 2.57443 124.68 -3.14365 2.50208 122.256 -2.88008 2.42407 119.846 
-2.61887 2.33959 117.449 -2.36052 2.2479 115.064 -2.10559 2.14826 112.69 
-1.85467 2.04005 110.325 -1.60838 1.92268 107.968 -1.36739 1.79568 105.617 
-1.13241 1.65866 103.272 -0.9042 1.51134 100.931 -0.683574 1.35355 98.5935 
-0.471399 1.18524 96.2579 -0.268599 1.00646 93.9238 -0.0761535 0.817405 91.5904 
0.104907 0.618361 89.2575 0.273507 0.409734 86.9248 0.428537 0.192035 84.5923 
0.568862 -0.0341327 82.2605 0.693344 -0.268079 79.9299 0.800856 -0.509042 77.6013 
0.890302 -0.756205 75.2759 0.960645 -1.00871 72.955 1.01093 -1.26567 70.6403 
1.04029 -1.5262 68.3335 1.04802 -1.78941 66.0366 1.03352 -2.05446 63.7518 
0.996401 -2.32054 61.4814 0.936424 -2.58689 59.2276 0.853563 -2.85283 56.9927 
0.747991 -3.11775 54.7792 0.620088 -3.38111 52.5893 0.470434 -3.64249 50.4252 
0.299806 -3.90153 48.2889 0.109159 -4.15794 46.1823 -0.100384 -4.41154 44.1069 
-0.327557 -4.66219 42.0644 -0.570975 -4.90982 40.0558 -0.829158 -5.15441 38.082 
-1.10056 -5.39595 36.1436 -1.38359 -5.63449 34.2409 -1.67666 -5.87004 32.3739 
-1.97818 -6.10265 30.5421 -2.2866 -6.33233 28.745 -2.60044 -6.55906 26.9814 
-2.91828 -6.78281 25.2501 -3.23882 -7.00351 23.5494 -3.56084 -7.22104 21.8774 
-3.88326 -7.43524 20.2319 -4.2051 -7.64593 18.6104 -4.52552 -7.85286 17.0101 
-4.84381 -8.05577 15.4282 -5.15937 -8.25437 13.8615 -5.47173 -8.44835 12.3067 
-5.78053 -8.63736 10.7606 -6.08551 -8.82108 9.21957 -6.38652 -8.99915 7.68025 
-6.68347 -9.17123 6.13921 -6.97637 -9.337 4.59309 -7.26524 -9.49614 3.03869 
-7.5502 -9.64836 1.47298 -7.83135 -9.79339 -0.106787 -8.10882 -9.93099 -1.70311 
-8.38274 -10.061 -3.3181 -8.65322 -10.1831 -4.95353 -8.92032 -10.2974 -6.61073 
-9.18408 -10.4036 -8.29059 -9.44449 -10.5017 -9.99355 -9.70144 -10.5918 -11.7196 
-9.95481 -10.6738 -13.4683 -10.2044 -10.7479 -15.2388 -10.4498 -10.8141 -17.0297 
-10.6908 -10.8726 -18.8397 -10.9269 -10.9236 -20.6667 -11.1577 -10.9674 -22.5087 
-11.3826 -11.0042 -24.3637 -11.6011 -11.0344 -26.2293 -11.8126 -11.0582 -28.1035 
-12.0167 -11.076 -29.9841 -12.2127 -11.0881 -31.8694 -12.4001 -11.095 -33.7578 
-12.5786 -11.0969 -35.6479 -12.7476 -11.0942 -37.5389 -12.907 -11.0873 -39.4303 
-13.0564 -11.0763 -41.3218 -13.1958 -11.0616 -43.2137 -13.325 -11.0433 -45.1066 
-13.4442 -11.0216 -47.0014 -13.5536 -10.9966 -48.8993 -13.6535 -10.9681 -50.8015 
-13.7441 -10.9362 -52.7096 -13.8261 -10.9008 -54.6251 -13.8999 -10.8616 -56.5494 
-13.9662 -10.8183 -58.484 -14.0256 -10.7708 -60.4299 -14.0789 -10.7186 -62.3881 
-14.1268 -10.6614 -64.3592 -14.17 -10.5987 -66.3434 -14.2094 -10.5303 -68.3405 
-14.2455 -10.4558 -70.3498 -14.2792 -10.3748 -72.3703 -14.3109 -10.287 -74.4006 
-14.3414 -10.1923 -76.4389 -14.371 -10.0904 -78.4829 -14.4002 -9.98127 -80.5303 
-14.4293 -9.86493 -82.5783 -14.4585 -9.74142 -84.6242 -14.4881 -9.6109 -86.6652 
-14.518 -9.47359 -88.6983 -14.5482 -9.32978 -90.7208 -14.5787 -9.17985 -92.7302 
-14.6093 -9.02419 -94.7241 -14.6397 -8.86328 -96.7004 -14.6697 -8.69759 -98.6576 
-14.6988 -8.52763 -100.594 -14.7269 -8.3539 -102.51 -14.7535 -8.1769 -104.403 
-14.7781 -7.99712 -106.275 -14.8004 -7.81503 -108.126 -14.82 -7.63104 -109.956 
-14.8365 -7.44555 -111.767 -14.8496 -7.2589 -113.56 -14.8588 -7.07139 -115.337 
-14.8639 -6.88328 -117.1 -14.8645 -6.69478 -118.851 -14.8604 -6.50605 -120.593 
-14.8514 -6.31722 -122.327 -14.8373 -6.12839 -124.056 -14.8178 -5.9396 -125.783 
-14.7929 -5.75089 -127.508 -14.7624 -5.56226 -129.234 -14.7263 -5.37371 -130.963 
-14.6845 -5.18521 -132.697 -14.6371 -4.99672 -134.436 -14.584 -4.80819 -136.182 
-14.5253 -4.61959 -137.935 -14.461 -4.43086 -139.696 -14.3912 -4.24195 -141.466 
-14.3161 -4.05284 -143.245 -14.2358 -3.86348 -145.032 -14.1503 -3.67385 -146.828 
-14.06 -3.48393 -148.631 -13.9649 -3.29373 -150.442 -13.8653 -3.10326 -152.259 
-13.7614 -2.91253 -154.082 -13.6533 -2.72159 -155.908 -13.5414 -2.53049 -157.738 
-13.4258 -2.33929 -159.569 -13.3067 -2.14809 -161.399 -13.1845 -1.95697 -163.229 
-13.0594 -1.76604 -165.054 -12.9315 -1.57541 -166.875 -12.8011 -1.3852 -168.69 
-12.6685 -1.19555 -170.495 -12.534 -1.00656 -172.291 -12.3976 -0.818373 -174.075 
-12.2597 -0.631098 -175.847 -12.1205 -0.44484 -177.604 -11.98 -0.259694 -179.345 
-11.8386 -0.075735 -181.07 -11.6964 0.106981 -182.779 -11.5536 0.28842 -184.469 
-11.4102 0.468573 -186.142 -11.2664 0.647457 -187.797 -11.1223 0.825114 -189.433 
-10.9781 1.00161 -191.053 -10.8337 1.17705 -192.655 -10.6892 1.35155 -194.241 
-10.5448 1.52525 -195.811 -10.4005 1.69831 -197.367 -10.2564 1.87092 -198.91 
-10.1125 2.04326 -200.44 -9.96902 2.21552 -201.959 -9.82601 2.38792 -203.468 
-9.68361 2.56065 -204.969 -9.54199 2.73391 -206.462 -9.40132 2.90789 -207.948 
-9.26181 3.08275 -209.428 -9.1237 3.25865 -210.903 -8.98723 3.43572 -212.374 
-8.85268 3.61406 -213.842 -8.72034 3.79376 -215.306 -8.59051 3.97487 -216.768 
-8.46349 4.1574 -218.227 -8.33957 4.34135 -219.684 -8.21904 4.52669 -221.139 
-8.10215 4.71334 -222.592 -7.98916 4.90121 -224.042 -7.88024 5.09018 -225.491 
-7.77558 5.28011 -226.936 -7.67526 5.47085 -228.38 -7.57936 5.6622 -229.821 
-7.48787 5.85398 -231.259 -7.40074 6.04598 -232.695 -7.31785 6.23799 -234.129 
-7.23906 6.42978 -235.56 -7.16415 6.62113 -236.989 -7.09286 6.81179 -238.415 
-7.02492 7.00155 -239.84 -6.96001 7.19017 -241.263 -6.89781 7.37739 -242.684 
-6.83801 7.56299 -244.106 -6.78027 7.74672 -245.527 -6.72432 7.92831 -246.948 
-6.66991 8.10751 -248.371 -6.61681 8.28405 -249.797 -6.5649 8.45764 -251.226 
-6.51409 8.62796 -252.66 -6.46439 8.79471 -254.099 -6.41589 8.95751 -255.546 
-6.36879 9.11599 -257.002 -6.32337 9.26974 -258.468 -6.28004 9.41829 -259.947 
-6.23929 9.56115 -261.44 -6.20173 9.69779 -262.949 -6.16806 9.8276 -264.475 
-6.1391 9.94995 -266.021 -6.11573 10.0641 -267.588 -6.09894 10.1694 -269.178 
-6.0898 10.2649 -270.792 -6.08941 10.3498 -272.431 -6.09898 10.4232 -274.096 
-6.11971 10.4839 -275.789 -6.15287 10.531 -277.509 -6.19971 10.5633 -279.256 
-6.26152 10.5795 -281.031 -6.33954 10.5785 -282.833 -6.43499 10.5588 -284.661 
-6.54906 10.5191 -286.513 -6.68284 10.4579 -288.389 -6.83737 10.3737 -290.285 
-7.01356 10.2651 -292.201 -7.21222 10.1303 -294.133 -7.43403 9.96798 -296.079 
-7.67948 9.7764 -298.036 -7.94895 9.55406 -300 -8.24259 9.29943 -301.97 
-8.5604 9.01107 -303.94 -8.90219 8.68761 -305.909 -9.26755 8.3278 -307.872 
-9.65591 7.93054 -309.828 -10.0665 7.49491 -311.773 -10.4984 7.0202 -313.704 
-10.9505 6.50595 -315.619 -11.4216 5.952 -317.517 -11.9103 5.35847 -319.395 
-12.4153 4.72586 -321.252 -12.935 4.05503 -323.088 -13.468 3.34722 -324.903 
-14.0128 2.60412 -326.695 -14.5678 1.8278 -328.468 -15.1316 1.02077 -330.22 
-15.7028 0.185963 -331.954 -16.2801 -0.673307 -333.672 -16.8623 -1.55335 -335.376 
-17.4482 -2.45014 -337.068 -18.0367 -3.35936 -338.752 -18.6268 -4.27649 -340.431 

LINES 1 331
330 329 328 327 326 325 324 323 322 321 320 319 318 317 316 315 314 313 312 311 310 309 308 307 306 305 304 303 302 301 300 299 298 297 296 295 294 293 292 291 290 289 288 287 286 285 284 283 282 281 280 279 278 277 276 275 274 273 272 271 270 269 268 267 266 265 264 263 262 261 260 259 258 257 256 255 254 253 252 251 250 249 248 247 246 245 244 243 242 241 240 239 238 237 236 235 234 233 232 231 230 229 228 227 226 225 224 223 222 221 220 219 218 217 216 215 214 213 212 211 210 209 208 207 206 205 204 203 202 201 200 199 198 197 196 195 194 193 192 191 190 189 188 187 186 185 184 183 182 181 180 179 178 177 176 175 174 173 172 171 170 169 168 167 166 165 164 163 162 161 160 159 158 157 156 155 154 153 152 151 150 149 148 147 146 145 144 143 142 141 140 139 138 137 136 135 134 133 132 131 130 129 128 127 126 125 124 123 122 121 120 119 118 117 116 115 114 113 112 111 110 109 108 107 106 105 104 103 102 101 100 99 98 97 96 95 94 93 92 91 90 89 88 87 86 85 84 83 82 81 80 79 78 77 76 75 74 73 72 71 70 69 68 67 66 65 64 63 62 61 60 59 58 57 56 55 54 53 52 51 50 49 48 47 46 45 44 43 42 41 40 39 38 37 36 35 34 33 32 31 30 29 28 27 26 25 24 23 22 21 20 19 18 17 16 15 14 13 12 11 10 9 8 7 6 5 4 3 2 1 0 

CELL_DATA 1
FIELD FieldData 2
LengthArray 1 1 double
621.67617859 
TortuosityArray 1 1 double
0.01851718371 
POINT_DATA 330
FIELD FieldData 8
RadiusArray 1 330 double
71.760394372 72.443048891 72.748489039 74.299810901 75.387954849 75.398839833 76.393636772 77.628539522 77.797579413 
78.290209718 78.651227155 78.851893176 78.918852808 78.987993115 80.153608676 80.18264703 80.698359877 80.900870434 
80.900934106 80.916788424 81.407759581 81.703616392 81.843626884 82.418700569 83.370317185 83.755201701 84.083003889 
84.189691438 84.282414379 84.291803273 84.442965303 84.497719629 84.527179779 84.275757774 83.887830106 83.474529038 
83.278339747 82.989813905 82.858837321 82.668658865 82.488326649 81.92503427 81.699048235 81.542877301 80.679518497 
80.199389124 79.819433267 79.108473499 79.053797052 78.08157039 77.687243574 76.583792522 76.011418917 75.747799099 
75.551651909 74.906156632 74.416826722 73.904172157 73.725809922 73.392566833 73.366622288 72.939227318 72.433224997 
72.120242773 71.485125333 71.37431479 70.635447032 70.45718139 70.293342809 69.893093683 69.650615745 69.134229207 
69.134202346 69.130871651 68.530752614 68.429652022 68.150631263 67.86015632 67.533283968 66.951583054 66.641579665 
65.643973955 65.568878024 64.456013852 64.325161476 63.322948418 63.322761168 63.29954219 62.31570962 61.279281193 
61.105895989 59.236233037 58.398853972 58.398529945 58.317847177 56.778528186 55.675930802 55.500120512 55.311547378 
55.230116547 54.600783736 54.158677658 53.220921114 53.18672161 52.140062222 51.7109912 51.689514402 51.337521126 
51.092678634 50.893139705 50.844891852 50.826191672 50.791026362 50.788402964 50.795895995 50.895938522 50.913231025 
50.9452113 51.100670931 51.291320885 51.314304792 51.524142518 51.558712033 51.618791287 52.01328946 52.103833961 
52.421099586 52.520253813 52.525260762 52.5663779 52.571813277 52.576795863 52.576926074 52.594972731 52.60925195 
52.613268808 52.617367554 52.605714285 52.605779832 52.606965274 52.565768162 52.600681522 52.618410667 52.631074909 
52.662340234 52.806843299 52.831545581 52.834386481 52.925820876 52.968135201 53.008316993 53.100449318 53.245330353 
53.276923993 53.269705148 53.267349103 53.269226466 53.280635563 53.329904209 53.35027756 53.365075155 53.380080674 
53.377471049 53.38213895 53.378187664 53.38318554 53.308602373 53.263956079 53.171859818 53.001145337 52.881945856 
52.782643926 52.426192961 52.345742021 52.215181346 51.878207583 51.629262951 51.233830407 51.077796622 50.403831538 
50.377995515 49.948625989 49.878834005 49.137849264 49.092404035 48.812911005 48.417161267 48.352708619 48.276609676 
47.908356549 47.869154611 47.609758145 47.489499027 46.935102858 46.497116378 46.266949676 46.266879186 46.249327225 
45.460011248 45.049076186 44.932563667 44.436315348 44.283332036 43.373506153 43.368175818 42.872499323 42.759662978 
42.04235482 41.78004329 41.761898771 41.36116247 41.335410956 40.707977461 39.915842984 39.732799765 39.106713404 
38.500906537 38.448568904 38.43093711 37.81100037 37.259403087 36.915975082 36.331316491 36.311581294 35.640390698 
35.57999 34.780024575 34.544855157 33.703085716 33.555816535 33.358161982 32.85402822 32.784646997 32.674020378 
32.520785624 32.137695136 32.110202042 31.546285213 31.439835114 31.193693154 31.122733119 30.921007091 30.830748595 
30.787823465 30.724990404 30.608702478 30.509522976 30.459756628 30.394772418 30.227815481 30.225732314 30.208462972 
30.214450254 30.18584488 29.919071669 29.908360094 29.896108419 29.844558208 29.787266828 29.540961807 29.538821461 
29.515599103 29.279950085 29.175244749 29.087244202 29.009671365 28.958762006 28.374638311 28.163750387 28.047289312 
27.778130207 27.701915673 27.441442838 27.269845978 27.119334687 27.030079173 26.924391349 26.816426687 26.814151426 
26.727301947 26.688868236 26.688149657 26.676440263 26.629776976 26.640820136 26.641257102 26.644276342 26.742854196 
26.808653353 26.894833456 26.984056227 27.15284467 27.369246301 27.397280787 27.579670291 27.814703487 27.891023395 
28.430915338 28.473990941 29.006497479 29.33024993 29.371438309 29.501659417 30.14035086 30.185475345 31.106212476 
31.557326886 31.600579222 32.157478327 32.331148891 32.746471124 32.813203896 33.154412531 33.514669249 34.089502489 
34.200114182 34.3042674 34.689336995 34.981360305 35.190901668 35.208795049 35.369367915 35.623866893 35.62487636 
35.701422733 35.014057246 34.791492004 31.834710543 30.611563344 29.291154032 
EdgeArray 2 330 int
61944 61944 58347 58347 60718 65067 60718 60718 60956 
57477 60808 60956 61814 60808 55073 63570 60048 63570 
60048 60048 60291 58478 58478 58478 60174 60174 61097 
61855 56260 55218 60103 55218 60103 60103 61827 61827 
57733 61827 57733 57733 54678 54678 56055 56055 56056 
61202 56000 56000 55360 55360 53472 53472 55196 55353 
55196 55191 54110 55190 55190 55424 54955 52463 52463 
54634 55022 55425 55423 55423 55298 55298 55128 55128 
55037 55027 55040 55040 54731 54731 54728 54728 52684 
52684 54380 54380 54046 54046 52155 52155 53506 53506 
52583 52583 52670 52670 51616 51616 51499 51499 50916 
50916 51404 51404 51306 51306 51308 51308 50835 50835 
50664 50664 50913 50913 50344 50344 50347 50347 48738 
49453 50570 50570 50342 50342 46960 46960 37281 37281 
49163 49163 49897 49149 47291 48777 48235 48235 48475 
48475 48798 48798 48794 48796 48791 48791 47629 47629 
47882 47629 47882 47882 36028 36028 46605 46605 45299 
45299 38040 38040 46966 46966 45906 45906 45564 45564 
45347 45347 43909 43909 45574 45574 45925 45925 45908 
45908 45573 45908 45573 45573 45352 45352 44985 44985 
33415 33415 43911 43911 45046 45046 43986 45046 43986 
43986 45020 45020 43043 43043 42143 35922 40315 42149 
42797 35858 41095 41095 40708 40708 41465 41465 36258 
36258 33786 33786 38196 41796 39684 41113 42131 40671 
33468 39110 37881 37175 40308 38593 35146 39681 41691 
39182 34566 36778 36778 38209 38209 36666 40951 40286 
40952 40952 38765 39187 37880 37880 37209 40072 40017 
40017 39334 39130 38945 38945 38763 38649 36926 38763 
37640 37882 37640 39108 37539 39108 35409 37243 38424 
35409 38272 38053 38053 37892 38640 37887 37887 37082 
37901 37776 36467 36176 36467 33560 33560 33560 36450 
36450 36142 36142 36364 36364 35243 35587 36436 36436 
36053 36053 35672 35672 34665 34665 35368 35359 35369 
35369 35370 35366 33549 33910 31592 31592 33721 33410 
32061 33626 35050 35050 35051 33971 32775 32989 34548 
34548 34556 34556 34553 34553 33382 33382 33311 33311 
33131 33131 33735 33735 32854 32854 33300 33300 30649 
32915 32739 32915 32715 32715 32007 32007 32066 32066 
32163 32163 31116 31116 32193 32193 30350 30350 30695 
30695 29754 29754 31061 31061 30576 30576 29811 29811 
29015 29015 30574 30574 30573 30573 26414 26414 30568 
30568 29821 29821 28830 28830 29784 26855 29389 29389 
26500 26500 29782 29782 1212 1212 29058 29058 28452 
28452 26465 28668 28812 28812 28960 28812 28960 28960 
14825 14825 28811 28811 27803 27803 28095 28095 28302 
28302 27786 27786 25277 27729 27727 27727 27602 27602 
27463 27463 28190 28190 27728 26311 24072 26311 27451 
24072 27155 27155 23471 23471 27183 26813 14128 14128 
21148 21148 24347 27814 24347 24347 25806 25806 26959 
26959 15065 15065 20450 20450 27623 27025 27625 27625 
20701 20701 26444 26444 25943 25943 22203 22203 1474 
1474 26906 27204 26907 17793 17793 26823 26823 26825 
26826 26826 26447 26447 26616 26616 18677 18677 26425 
26830 26451 26451 26622 26622 26142 26142 26166 26166 
12987 26159 26160 26174 25843 26180 26179 26180 26178 
26178 26177 26177 16092 16092 25850 25850 25853 25849 
4248 16869 22264 22264 25528 25528 16522 12276 20379 
18341 15350 15350 22355 16941 17552 18153 8391 18153 
17773 8391 11366 11366 18620 18894 20870 18620 15765 
21492 17017 15765 11058 19053 14251 11058 14251 18520 
17647 20367 13457 17647 16650 13457 12599 19052 18409 
18408 18410 19061 17744 17745 17747 17745 17747 17731 
17093 17099 17754 17755 17754 17759 17759 16571 17758 
14647 17753 17729 17729 17727 17728 17727 17088 17088 
17102 17102 17103 17103 11880 11880 16577 16577 16578 
16578 16026 16026 15571 15571 15572 15572 15060 13130 
13130 13068 13068 15107 15098 15098 11090 11090 13480 
10822 13847 13843 13846 12393 10539 12393 11570 13473 
11882 13473 11882 12727 11246 9578 11246 8969 9959 
8969 9959 9959 8960 8960 10336 6084 9137 9137 
8124 8124 9916 9916 9334 9334 6964 4861 8397 
8280 8049 8280 7750 1752 6455 3558 4582 3558 
6979 653 3566 3040 2123 3040 2035 2035 1451 
1451 1554 1554 
EdgePCoordArray 1 330 double
0 0 0.972 0 0.02 0.996 0.556 0.84 0.924 
0 0.496 0 0 0.012 0.98 0.952 0 0 
0.996 0 0 0 0.168 0 0 0 0.34 
0.456 0.948 0.08 0.716 0.312 0.508 0 0 0 
0.984 0 0 0 0 0 0 0 0 
0 0 0 0 0 0 0 0 0 
0 0 0 0 0.876 0 0 0 0 
0 0.456 0.768 0 0 0 0.98 0 0 
0.992 0 0 0 0 0 0 0 0 
0 0 0 0 0 0.992 0 0 0 
0 0 0 0.996 0 0 0 0.036 0.788 
0.38 0 0 0 0 0 0.368 0.364 0.904 
0.844 0.252 0.832 0.924 0.32 0.992 0.064 0.128 0.82 
0 0.664 0 0.992 0 0.004 0 0.288 0.788 
0.148 0.936 0.992 0.188 0.728 0.996 0.008 0.536 0.416 
0.832 0.256 0.844 0 0 0 0 0.048 0 
0 0 0 0.108 0 0.076 0.084 0 0.792 
0.788 0 0.104 0.04 0 0 0 0 0 
0 0 0 0 0.448 0.064 0 0 0 
0 0 0 0 0 0 0 0 0 
0 0 0 0 0 0 0 0.484 0 
0 0 0 0 0 0.748 0 0.996 0 
0 0 0 0 0 0 0.996 0 0 
0 0 0.008 0.048 0.204 0 0 0.128 0 
0 0.248 0 0 0 0 0 0.996 0 
0 0 0 0 0 0.928 0.484 0.748 0.476 
0 0 0 0 0.036 0 0 0 0 
0.896 0.12 0.508 0.248 0 0 0 0 0.236 
0.384 0 0 0.556 0.4 0 0.428 0.984 0.904 
0.964 0 0.416 0.724 0.14 0.936 0.636 0.364 0.276 
0.276 0.708 0.488 0.264 0.172 0.208 0.472 0.116 0.112 
0.316 0.012 0.028 0.568 0.54 0.976 0.004 0.016 0 
0 0 0 0 0 0 0 0 0.092 
0.916 0.092 0 0 0.992 0.96 0.648 0.696 0.42 
0.064 0.62 0.228 0.344 0.224 0 0 0.232 0 
0 0 0 0.468 0.952 0.912 0.544 0.996 0.988 
0.852 0.216 0.448 0 0 0 
CurvatureArray 1 330 double
0 0.00031788723051 0.0012646582181 0.0022143098288 0.0031720689803 0.0041366463967 0.0051181357849 0.0060802923175 0.0070611217468 
0.008006024045 0.0089124296454 0.0097765881411 0.010561362274 0.011246020956 0.011819015026 0.012259877994 0.012566030698 0.012727409292 
0.01275386467 0.012654597319 0.012447391681 0.012143471726 0.011768210299 0.011338937717 0.010871865406 0.010381285711 0.0098777202228 
0.0093712420722 0.0088652724157 0.0083639500832 0.0078701081112 0.0073842297193 0.0069051779796 0.006436148221 0.0059754907971 0.0055254515992 
0.0050858459116 0.0046589648997 0.0042459244316 0.0038486968851 0.0034683194307 0.0031066018761 0.0027644886273 0.0024425685347 0.0021417217165 
0.001861498664 0.0016019263367 0.0013623244175 0.0011422585758 0.00094096415844 0.00075811168181 0.00059387133265 0.00044943675796 0.00032915485326 
0.0002433544127 0.00020936474638 0.00022949274049 0.00027834035818 0.00033256179555 0.0003810004217 0.00041940638554 0.00044603124647 0.00045942307119 
0.00046115350816 0.00045377844055 0.00044168990787 0.00043312582896 0.00043926603778 0.00047034668222 0.0005333954894 0.00062687527656 0.00074553154273 
0.00088277442473 0.0010326911052 0.0011901249342 0.0013506177313 0.0015104489136 0.0016663848303 0.0018161307837 0.0019578214378 0.0020906536057 
0.0022143789216 0.0023297153033 0.0024382092377 0.0025418557192 0.0026432424092 0.0027452020522 0.0028502969323 0.0029608956789 0.0030786615263 
0.0032045240279 0.0033384803833 0.0034797226445 0.0036267810334 0.0037774644725 0.0039293322703 0.0040794791915 0.0042249694883 0.0043628910418 
0.004490238406 0.0046042384042 0.0047021700804 0.0047814947381 0.0048400410399 0.0048757337887 0.0048866138656 0.004871149754 0.004827954963 
0.0047558248498 0.0046534745435 0.0045205853285 0.0043557339825 0.0041587113893 0.0039281986245 0.0036645631156 0.0033671417584 0.0030363370672 
0.0026742235706 0.0022836453436 0.0018728792461 0.0014580923386 0.0010806346502 0.00084585671507 0.00090975222934 0.0012346358616 0.0016680458377 
0.0021253923342 0.0025704496029 0.002980992766 0.003342526471 0.0036451298458 0.0038835588345 0.0040552317677 0.0041629221728 0.004210157453 
0.0042043895663 0.0041531483464 0.0040673600103 0.0039546355557 0.0038247265512 0.0036853982046 0.0035441069488 0.0034065266172 0.0032776659664 
0.0031620953882 0.0030621936101 0.0029805509897 0.0029179355672 0.0028756138722 0.002852868253 0.0028480209496 0.0028586712104 0.0028814710178 
0.0029106837445 0.0029417306644 0.002968913901 0.0029852641723 0.002986350845 0.0029660573846 0.0029223951477 0.0028520075501 0.002756366169 
0.0026371952687 0.0024995477242 0.0023499382237 0.0021959320168 0.0020471154657 0.0019109031663 0.0017972246804 0.0017105369299 0.0016536466075 
0.0016247442659 0.0016197820614 0.0016323039811 0.0016553256703 0.0016824066744 0.0017090616894 0.0017311473524 0.0017463325572 0.0017518357656 
0.0017482391195 0.0017333645179 0.0017083023631 0.0016737558653 0.0016303639272 0.0015801760656 0.0015261211464 0.0014715964787 0.0014206311441 
0.0013799631793 0.0013532603592 0.001346056294 0.0013599209369 0.0013950408401 0.0014470402608 0.0015119302859 0.0015819579876 0.0016523276411 
0.0017159348693 0.0017699905014 0.001810964617 0.0018370681484 0.0018478042579 0.0018432912659 0.0018250036699 0.0017942173888 0.0017528543743 
0.0017021172019 0.0016457303416 0.0015843330451 0.0015200674149 0.0014543428381 0.0013880933223 0.0013247384037 0.0012619036178 0.0012033885028 
0.0011478156606 0.0010961768486 0.0010491424244 0.0010064452835 0.00096797755144 0.00093451264542 0.00090400369794 0.00087831602516 0.00085551378455 
0.00083631924063 0.00081916563269 0.00080478866834 0.00079205209547 0.00078096606367 0.00077031831678 0.00076087871309 0.00075067340557 0.00073980576501 
0.00072895568801 0.00071599742639 0.00070087905331 0.00068425078993 0.0006657848617 0.0006445876697 0.00062242389349 0.00060114241787 0.00058163938891 
0.0005699947546 0.00056892754896 0.0005823043412 0.0006170650424 0.00067051278257 0.0007441390479 0.00083570160452 0.00094157323428 0.0010563929911 
0.0011788746564 0.0013036033661 0.001428202009 0.0015496170655 0.001663336986 0.0017668244895 0.0018583611781 0.0019333956349 0.0019908672319 
0.0020272973862 0.0020431548597 0.0020359206038 0.0020062367653 0.0019550756463 0.0018838490731 0.0017962298473 0.0016982369241 0.0015942627037 
0.0014968510428 0.0014144916158 0.0013599702153 0.001345961965 0.0013777578764 0.001457092734 0.0015776965689 0.0017349450454 0.0019169003594 
0.0021244046904 0.0023495153428 0.0025939268563 0.0028535907975 0.0031315009569 0.0034206590011 0.0037264281502 0.0040402159877 0.0043594831062 
0.0046819908357 0.0050001970015 0.0053153692218 0.0056188787554 0.0059127171402 0.0061934059726 0.0064626521943 0.0067198398754 0.0069670901783 
0.0072068085738 0.0074413969483 0.0076742350283 0.0079063229292 0.0081436195536 0.0083833949356 0.0086310816136 0.0088878418935 0.0091524525591 
0.0094233004602 0.0097032715659 0.0099830794159 0.01026279763 0.010538821329 0.010797749026 0.011032485817 0.011234309445 0.011388249739 
0.011481050621 0.011499320092 0.011422976727 0.011245475747 0.010949798639 0.010523396936 0.0099578535536 0.0092581085628 0.0084161017821 
0.0074398511401 0.0063374900031 0.0051243596293 0.003809896605 0.0024221217179 0 
TorsionArray 1 330 double
0 0 -0.00010789993865 0.0016669266228 0.0025650306209 0.003995064584 0.0043419379157 0.0056241348876 0.0065967737806 
0.0070215063053 0.0081551303346 0.0091343503865 0.0098580988716 0.010671073239 0.011399103093 0.012200422888 0.012895593064 0.013472825014 
0.014101623519 0.014584349285 0.014914726404 0.015099803903 0.015200269626 0.015179551566 0.014943141457 0.014540067107 0.014078390956 
0.013506683266 0.01280152871 0.012092529319 0.011368929494 0.010599274158 0.0098651311238 0.0091722970502 0.0085449280403 0.0079474609381 
0.0073625313778 0.0068701277405 0.0064058791137 0.0059333884258 0.0054619398441 0.0049980415563 0.0044313003218 0.0038298329116 0.003054333284 
0.0019740164734 0.00064165722942 -0.0012773464018 -0.0040570075025 -0.0083807086489 -0.015148403684 -0.026583232133 -0.047540469014 -0.086433997803 
-0.1484032949 -0.18016420644 -0.12810556584 -0.06919239489 -0.034008585957 -0.01344656403 0.00054072956822 0.011716047818 0.022520783745 
0.034812508518 0.049737710906 0.067796380694 0.087140872305 0.10156183337 0.10340415307 0.092121185505 0.075339972238 0.059624826748 
0.047261858356 0.038259666054 0.032049091711 0.02782254251 0.025089565922 0.023497212702 0.02267214091 0.022485870817 0.022830876325 
0.023518608558 0.024384794393 0.025383303089 0.026367132622 0.027186942209 0.027730774882 0.027897884485 0.027621375395 0.026919366985 
0.025804012386 0.024303085896 0.022523101799 0.020577999096 0.01850792358 0.016400201402 0.014361585305 0.012348287297 0.010423533354 
0.0086030533475 0.0068742362498 0.0052641558945 0.0037276572147 0.0022651688721 0.00090345282649 -0.00037246713271 -0.0015746883824 -0.0026870884876 
-0.003665250664 -0.0045000768214 -0.0051435027712 -0.0055206310604 -0.0055005062524 -0.0049650147555 -0.0036739364262 -0.0011584959858 0.0031339803958 
0.010522539378 0.023650094943 0.048166814009 0.098262450388 0.2054526759 0.36187667432 0.31906810378 0.16736068082 0.083723763693 
0.044268829814 0.024131289796 0.013004385284 0.0065100873939 0.0025628443734 0.00024524109098 -0.0010467938762 -0.0016757872212 -0.0016861782979 
-0.0012535584391 -0.00044708006373 0.00070849161861 0.0021821668622 0.0040066798354 0.0061540613305 0.008503758744 0.011089144309 0.013886904825 
0.016592028638 0.019303704989 0.021733009357 0.023655583305 0.025095573035 0.025756450399 0.025643984294 0.024781774467 0.023217326762 
0.021054630945 0.018352581915 0.015253610976 0.011892985348 0.0081896085865 0.0041644915004 -6.8449952615e-05 -0.0047360193168 -0.0098611038085 
-0.015463483417 -0.021758505575 -0.028692196134 -0.036200869356 -0.043871106809 -0.051101447391 -0.057029233086 -0.060316337019 -0.06031093602 
-0.057158116122 -0.051337780454 -0.044119541643 -0.036324359279 -0.028861777347 -0.021936998388 -0.01556969667 -0.0098594000342 -0.0044381987426 
0.000786269075 0.005911312271 0.011264519257 0.017038258345 0.023310657737 0.030383149207 0.038336875937 0.04693506809 0.055972005636 
0.064536993657 0.071497333814 0.075532689005 0.076043479211 0.072661974239 0.066496208038 0.058901970323 0.050924805744 0.043259082489 
0.036204918859 0.030063780638 0.024801904824 0.019983449276 0.016065708675 0.012554609671 0.0094887600771 0.0067593552063 0.0042748067162 
0.0023558917155 0.00013134023479 -0.0015672781095 -0.0030945559751 -0.0047877740037 -0.0061877838793 -0.0073659639392 -0.0084431657987 -0.0095569669291 
-0.010323082667 -0.011040354562 -0.011658419899 -0.011911163641 -0.012213090752 -0.012311254714 -0.012140175298 -0.011952951692 -0.011658658793 
-0.011332452155 -0.011001460295 -0.01100168684 -0.010924013034 -0.010877103879 -0.011602381972 -0.01250128077 -0.013629334396 -0.015955806231 
-0.018527904472 -0.021656989222 -0.026561087464 -0.03255394134 -0.039788901386 -0.049365250244 -0.060830364943 -0.074494583684 -0.090295552252 
-0.10627470594 -0.11973879409 -0.12617493574 -0.12451892017 -0.11652752792 -0.10267991789 -0.087727998442 -0.074706265707 -0.064151137953 
-0.05494099766 -0.047577367439 -0.041778487013 -0.036865633096 -0.03397809288 -0.03155869709 -0.029300623144 -0.028150297457 -0.027159297291 
-0.027419604948 -0.028246822089 -0.029318707121 -0.03182983695 -0.035389529798 -0.040098046309 -0.047148441503 -0.056014878274 -0.06743981107 
-0.081382877751 -0.094903488297 -0.10568807539 -0.10880293646 -0.10123221771 -0.08485491242 -0.064032722059 -0.042786372579 -0.023872827855 
-0.0083031716444 0.0038073166636 0.01292515323 0.019153416157 0.0230410895 0.025029816507 0.025392653711 0.024781243262 0.023365232571 
0.021451219035 0.019205627873 0.016858106068 0.014555740036 0.012240322123 0.010031879138 0.0079531446107 0.0060011492566 0.0041250409691 
0.002417014412 0.00084671931465 -0.00068490906376 -0.0020373539357 -0.0032929758174 -0.0045001410795 -0.0055501098041 -0.006495926939 -0.0073594877475 
-0.0081154927514 -0.0087594516611 -0.0093090706155 -0.0097304079579 -0.01005235122 -0.010299299707 -0.010414056446 -0.010429388793 -0.010375279742 
-0.010200751114 -0.0099710548116 -0.0096559563964 -0.0092306693932 -0.0087871891627 -0.0082876923334 -0.0077037733261 -0.0070541311343 -0.0063896483438 
-0.0056988895227 -0.0049223145895 -0.0041904239655 -0.0035106476825 0 0 
TangentArray 3 330 double
0.020361219177 -0.49080057938 0.87103399017 0.020361219177 -0.49080057938 0.87103399017 0.019836346586 -0.49003319519 0.87147804732 
0.018681764722 -0.48834515381 0.87245057305 0.016899938761 -0.48572448006 0.87394858061 0.014495702444 -0.48215308592 0.87596705209 
0.011477153109 -0.47760242699 0.87850110796 0.0078593780456 -0.47205414582 0.88153452206 0.0036639552174 -0.46548069948 0.88505044706 
-0.0010790174859 -0.45785626116 0.88902557884 -0.0063277284901 -0.4491810099 0.89341836795 -0.012029193185 -0.43944794656 0.89818750869 
-0.018118102816 -0.42866584156 0.90328142383 -0.0245160203 -0.41687139247 0.90863480392 -0.031134751308 -0.40411613889 0.91417764879 
-0.037879514195 -0.39047087933 0.91983565641 -0.044649417099 -0.37602286022 0.92553402863 -0.051343799689 -0.36087555792 0.93119957363 
-0.057866844089 -0.3451447482 0.93676386093 -0.064128673429 -0.32894854747 0.94216790773 -0.070052040772 -0.31240516124 0.94736251077 
-0.07557293764 -0.29563246889 0.95230781496 -0.080642630892 -0.27874162068 0.9569743335 -0.085226662341 -0.26183073733 0.96134337311 
-0.089303762783 -0.24498850936 0.96540430299 -0.092867380419 -0.22829389519 0.96915300499 -0.095922815766 -0.21181693013 0.97259056212 
-0.098483017308 -0.19561824196 0.97572260336 -0.10056868949 -0.17975273976 0.97855755643 -0.1022076585 -0.16427225261 0.98110561183 
-0.10343085794 -0.14922405996 0.98337898979 -0.10427206471 -0.13465295428 0.98539125144 -0.10476821371 -0.12060424205 0.98715664319 
-0.1049569541 -0.10712000982 0.98869072074 -0.10487623328 -0.094239682681 0.99001002919 -0.10456316615 -0.081999892982 0.99113195985 
-0.10405495643 -0.070433100596 0.99207446514 -0.10338841855 -0.059566665893 0.99285580384 -0.10259777853 -0.049421408067 0.99349444904 
-0.10171572797 -0.040011172261 0.99400855971 -0.10077373481 -0.031342596031 0.99441555501 -0.099801029995 -0.023414829418 0.99473187351 
-0.098824100698 -0.016219449102 0.99497272656 -0.097868120731 -0.0097414414646 0.9951517147 -0.096954730131 -0.0039594022066 0.99528091685 
-0.096104074425 0.0011533789748 0.99537062273 -0.095334633797 0.0056278067038 0.99542937238 -0.094661591187 0.0094980197287 0.99546419864 
-0.094098421598 0.012800704963 0.99548060202 -0.093656492994 0.015574266361 0.995482749 -0.093345782704 0.017858133476 0.99547358173 
-0.093173244314 0.019692389369 0.99545515034 -0.093143910129 0.021117221536 0.99542868904 -0.093261084843 0.022173146065 0.99539475669 
-0.093525246312 0.022900952696 0.99535349232 -0.093934575363 0.02334157803 0.99530471027 -0.094484186406 0.023536553232 0.99524809429 
-0.09516692774 0.023528139183 0.99518324068 -0.095973022749 0.023359484364 0.99510979967 -0.096888852472 0.023074570255 0.99502769533 
-0.097897993692 0.022718161958 0.99493711758 -0.098982304487 0.022335989354 0.99483848286 -0.10012018169 0.021974129628 0.99473267105 
-0.10128744001 0.021678354057 0.99462098483 -0.10245917558 0.021493832058 0.99450496858 -0.1036085294 0.021464396218 0.99438652059 
-0.10470745065 0.02163136355 0.99426778782 -0.10572825382 0.022032955368 0.99415093684 -0.10664279566 0.022703413227 0.99403816283 
-0.10742400263 0.023671993933 0.99393144651 -0.10804621232 0.024962440209 0.99383242681 -0.10848454112 0.026592091377 0.99374240375 
-0.10871528985 0.028571387597 0.99366224723 -0.10871632655 0.030903543692 0.99359233659 -0.10846737553 0.033584397049 0.99353254437 
-0.10794889966 0.036602343917 0.99348241227 -0.10714254948 0.039938488297 0.99344118661 -0.10603068765 0.043566855551 0.99340798385 
-0.10459580213 0.047454954597 0.99338197359 -0.1028212012 0.051564772331 0.99336240861 -0.10069043354 0.055853540982 0.99334878998 
-0.098186633285 0.060274535534 0.99334101164 -0.095293224176 0.06477836726 0.99333929982 -0.091994398261 0.069314789898 0.99334409476 
-0.088274666699 0.073833372872 0.99335603701 -0.084119407708 0.078284802068 0.99337576728 -0.079515461833 0.082622476498 0.99340365296 
-0.074451641022 0.086803421084 0.9934395398 -0.068919379405 0.090789358487 0.99348246664 -0.062913229715 0.094547637434 0.99353040707 
-0.056431146137 0.098051347819 0.99358012205 -0.049475128751 0.10127975975 0.99362700341 -0.042052033607 0.10421907375 0.99366493907 
-0.034173664455 0.10686212099 0.99368639306 -0.02585701447 0.10920776476 0.99368258459 -0.017124745748 0.11126138721 0.99364362163 
-0.0080051898873 0.11303431032 0.99355883652 0.0014677340299 0.11454208362 0.99341731253 0.011254476472 0.11580561488 0.99320813343 
0.021310208446 0.11684968476 0.99292095667 0.031585086038 0.11770199049 0.99254653482 0.042024816942 0.11839273346 0.99207715195 
0.052571146821 0.11895299766 0.99150716531 0.063162702325 0.11941476053 0.99083327962 0.073735851442 0.11980978851 0.99005486656 
0.084225322381 0.12016788422 0.98917428933 0.094565188635 0.12051620058 0.9881969796 0.10468989534 0.12087859747 0.98713139474 
0.11453504446 0.12127452058 0.9859889524 0.12403799023 0.12171757051 0.98478394077 0.13313910223 0.12221517965 0.98353313585 
0.14178211868 0.12276791474 0.98225550135 0.14991452458 0.12336883695 0.9809718474 0.15748811264 0.1240027799 0.97970444776 
0.16445951555 0.12464691659 0.97847647592 0.1707908316 0.12527089412 0.9773114626 0.17644921274 0.12583640426 0.97623300225 
0.1814080306 0.12629960144 0.97526382949 0.18564679648 0.12661143027 0.97442537563 0.18915174914 0.12671889513 0.97373709872 
0.19191652981 0.12656794766 0.97321559801 0.19394252835 0.12610508777 0.97287399109 0.19523959123 0.12527969121 0.97272118358 
0.19582627773 0.12404711089 0.97276121594 0.19573055685 0.12237120955 0.97299272155 0.19498924727 0.12022548678 0.97340897149 
0.19364814667 0.1175962726 0.97399769608 0.19176095059 0.11448393791 0.97474158924 0.18938776887 0.11090206452 0.97561929311 
0.18659386486 0.10687822597 0.97660625352 0.1834472298 0.10245264505 0.97767610659 0.18001646838 0.097675648272 0.97880209381 
0.1763679328 0.092605974008 0.97995841027 0.17256340953 0.087307127508 0.98112146811 0.16865879576 0.081844192469 0.98227070544 
0.16470157842 0.076282222823 0.98338924773 0.16073029478 0.070683235063 0.98446414491 0.15677347356 0.065103403004 0.98548649149 
0.15284995602 0.059592316397 0.98645103617 0.14896974349 0.054192734058 0.98735564165 0.1451337025 0.048939778591 0.98820094438 
0.14133489657 0.043861454336 0.98898969653 0.13756063595 0.038978570164 0.98972609469 0.13379309531 0.034306406131 0.99041530589 
0.13000980843 0.029855153289 0.99106312591 0.12618696932 0.025630012434 0.99167532552 0.12229900944 0.021633837121 0.99225749147 
0.11832095212 0.017866680589 0.9928146524 0.11422982385 0.014325780599 0.99335105544 0.11000439119 0.011006977067 0.99387015267 
0.10562832479 0.0079041260981 0.99437426646 0.10109068252 0.0050093284816 0.99486460412 0.096386552561 0.0023127245791 0.99534129011 
0.091519237831 -0.00019715962572 0.99580328893 0.086500717225 -0.0025340172126 0.99624856571 0.081351278911 -0.0047149856186 0.99667433916 
0.076101014239 -0.0067597091077 0.9970771996 0.070788360416 -0.0086902385475 0.99745350156 0.065459914553 -0.010531931248 0.99779961817 
0.060168566948 -0.012313053557 0.9981122844 0.054971198156 -0.014062574336 0.99838890788 0.04992703652 -0.015810948903 0.99862771087 
0.045093912248 -0.017588686065 0.99882790169 0.040526001554 -0.019424374355 0.99898965804 0.036271049165 -0.021345090821 0.99911400655 
0.032368861052 -0.023374318419 0.99920263114 0.02884934589 -0.02553169064 0.99925764846 0.025732186709 -0.027831303337 0.99928137835 
0.023025686272 -0.030282321677 0.99927613739 0.020727783095 -0.032890000598 0.99924401768 0.018826526916 -0.035653475646 0.99918686519 
0.017301622392 -0.038567190113 0.99910621343 0.016126377131 -0.041622078949 0.99900327452 0.015267897392 -0.044805562368 0.99887904818 
0.014689658661 -0.048102099231 0.99873440012 0.014351462875 -0.051493303899 0.99857021544 0.014211968886 -0.054959378516 0.99838744316 
0.01422900452 -0.058479501858 0.99818719852 0.014359891057 -0.062031897581 0.9979708599 0.01456333168 -0.065593498127 0.99774014772 
0.014798302942 -0.069141546253 0.99749709614 0.015025113612 -0.072653069067 0.99724409124 0.015206382842 -0.076104353832 0.99698389819 
0.015306550177 -0.079473058442 0.99671949038 0.015292159437 -0.082736820404 0.99645409749 0.015133020036 -0.085873496258 0.99619111336 
0.014801659189 -0.088862228196 0.99593394123 0.014273801557 -0.091683297879 0.99568591005 0.013529851875 -0.09431792986 0.9954501852 
0.012554189727 -0.096750153175 0.99522952136 0.011336108375 -0.098966391759 0.99502620365 0.0098704855899 -0.10095561012 0.99484196649 
0.0081574982491 -0.10271059404 0.99467783181 0.0062023828382 -0.10422723535 0.99453416928 0.0040165205563 -0.1055059909 0.99441055578 
0.0016161967567 -0.10655188588 0.99430582998 -0.00097830693811 -0.10737352966 0.99421826982 -0.0037430396765 -0.10798327157 0.99414566474 
-0.0066511816995 -0.10839668872 0.99408546899 -0.0096740131221 -0.10863264888 0.99403488926 -0.012783045133 -0.10871163523 0.99399113383 
-0.015949624031 -0.10865489141 0.99395157028 -0.019146344256 -0.10848571014 0.99391361204 -0.022347584246 -0.10822564963 0.99387514017 
-0.025530394871 -0.10789606471 0.99383431122 -0.028674729083 -0.10751683974 0.99378966038 -0.031763319348 -0.10710633861 0.99374006852 
-0.034781284935 -0.1066812292 0.99368474757 -0.03771720444 -0.10625437281 0.99362337973 -0.040563108995 -0.10583913074 0.99355559109 
-0.043312515156 -0.10544496034 0.99348144742 -0.045961287517 -0.10507945334 0.99340116194 -0.048506970033 -0.10474973516 0.9933149384 
-0.050950282769 -0.1044603189 0.99322309199 -0.053292433252 -0.1042138917 0.99312606518 -0.055535580176 -0.10401208525 0.99302431262 
-0.057683956581 -0.1038559694 0.99291817325 -0.05974123343 -0.10374498553 0.99280811993 -0.061712610224 -0.10367815248 0.99269451214 
-0.063603692412 -0.1036541239 0.99257765082 -0.065419859592 -0.10367039094 0.9924579044 -0.067167201044 -0.10372491591 0.99233548204 
-0.068850871885 -0.10381523911 0.99221063972 -0.070476007474 -0.10393842035 0.99208363415 -0.072047918863 -0.10409188652 0.99195462424 
-0.073570952353 -0.10427304085 0.99182379883 -0.075048910841 -0.10447947749 0.99169133291 -0.076484961543 -0.10470897247 0.99155740214 
-0.077881936538 -0.1049603668 0.99142207226 -0.079241824523 -0.10523229464 0.99128547725 -0.080565712522 -0.10552340983 0.99114780731 
-0.081854009632 -0.10583409911 0.99100911427 -0.08310618748 -0.10616484489 0.99086951074 -0.084320133055 -0.10651598586 0.99072925662 
-0.085493775809 -0.10689017309 0.99058836314 -0.086623819955 -0.107289664 0.99044699092 -0.087704935194 -0.10771634897 0.99030552483 
-0.088731004004 -0.10817428181 0.99016419532 -0.089695197903 -0.10866778961 0.99002327396 -0.090588464893 -0.10920044453 0.98988332289 
-0.091399964506 -0.10977634189 0.9897450183 -0.092118706605 -0.11039955946 0.98960905471 -0.092731783024 -0.11107319585 0.98947640779 
-0.093225697985 -0.11180045606 0.98934808195 -0.093586246513 -0.11258428072 0.98922514839 -0.093797733499 -0.11342494833 0.98910907704 
-0.093846324784 -0.11432299804 0.98900107151 -0.093717368406 -0.11527707739 0.98890254843 -0.09339604201 -0.11628282177 0.98881519239 
-0.092870813378 -0.1173364596 0.988740192 -0.092132146418 -0.11843318309 0.9886785366 -0.091172443186 -0.11956495665 0.98863127947 
-0.089985945073 -0.12072195463 0.98859938264 -0.088570975967 -0.1218940723 0.9885833386 -0.086930182813 -0.12306981034 0.98858331217 
-0.085069277019 -0.12423723993 0.98859917374 -0.08299935453 -0.12538430471 0.98863030668 -0.08073477636 -0.12649531467 0.98867630256 
-0.078293427394 -0.12755550321 0.98873643244 -0.075698777825 -0.12855180654 0.98880944983 -0.072977740641 -0.12946947817 0.98889428333 
-0.070161312021 -0.13029582558 0.98898957938 -0.067282258998 -0.13101628993 0.98909444918 -0.064375320685 -0.13161725607 0.98920812572 
-0.061477632783 -0.13208795993 0.98932970819 -0.058625491 -0.13241637847 0.98945892008 -0.055854698822 -0.13259169267 0.98959572334 
-0.053199165258 -0.13260504513 0.98974024412 -0.050688451706 -0.13244613616 0.98989327803 -0.048348358856 -0.13210658978 0.99005569799 
-0.04619842632 -0.13157752362 0.99022879209 -0.04425102254 -0.13084810024 0.99041436867 -0.042511593772 -0.12990976411 0.99061406087 
-0.040976329573 -0.12875147449 0.99082995425 -0.039632717039 -0.12736095292 0.99106429429 -0.038458838858 -0.12572574501 0.9913193001 
-0.037424146363 -0.12383213441 0.99159721448 -0.036489205591 -0.12166448725 0.99190034299 -0.035607189535 -0.11920818711 0.99223058619 
-0.034724098399 -0.11644754979 0.99258964589 -0.033780807007 -0.11336622042 0.99297883016 -0.032715341985 -0.10994929263 0.99339864075 
-0.031463346373 -0.10618336147 0.99384865628 -0.029961310442 -0.10205609602 0.99432734707 -0.028148689756 -0.097558945804 0.99483159548 
-0.025968767315 -0.092684426753 0.99535683057 -0.02337121458 -0.087426222419 0.99589680287 -0.020313631289 -0.081783738617 0.99644306234 
-0.016761149622 -0.075756187411 0.99698548833 -0.012688465819 -0.069345531966 0.99751200496 -0.00807881605 -0.06255263047 0.99800896847 
-0.0029242185619 -0.055379255071 0.99846110943 0.0027759078171 -0.047827190977 0.99885176785 0.00901522907 -0.039895155348 0.999163201 
0.015781718468 -0.031579635917 0.99937663769 0.023059124998 -0.022873990075 0.99947238948 0.03082711959 -0.013768678291 0.99942989359 
0.039062306832 -0.0042489900035 0.99922774294 0.047739763586 0.0057030671482 0.99884352628 0.056833547727 0.016109402782 0.9982536927 
0.066314155578 0.026996082343 0.99743352877 0.076152417987 0.038391772126 0.9963568041 0.086316639071 0.05032694906 0.99499579699 
0.096770379838 0.062832988315 0.99332145309 0.1074780123 0.075943019104 0.99130274625 0.11839950691 0.08968722292 0.98890735603 
0.12948862404 0.10409054844 0.98610235471 0.14069662493 0.11917455833 0.98285394865 0.1519688896 0.13495112057 0.97912902707 
0.16324396132 0.15141938872 0.9748967011 0.1744594528 0.16856922464 0.97012798941 0.18554580781 0.18637090399 0.96479979237 
0.19642619382 0.20477203918 0.95889788943 0.20702426511 0.2237007843 0.95241740469 0.21726218477 0.24306052664 0.94536697819 
0.22706087892 0.26272752919 0.93777268177 0.23634651813 0.28255265142 0.92967968814 0.24504839932 0.30235885475 0.92115710112 
0.2531059566 0.32194791904 0.91229760065 0.26047271517 0.34110514661 0.90321716304 0.26711155904 0.35959741597 0.89405878635 
0.27299965954 0.37718138661 0.88498891942 0.27813329258 0.39361856123 0.87618850701 0.28252376164 0.40867630141 0.86785022024 
0.28619284285 0.42212971722 0.86017449308 0.28917260827 0.43377388522 0.85335773221 0.2915031079 0.44342690406 0.84758393026 
0.29322293943 0.45092969447 0.84301999883 0.29436935181 0.45615257802 0.83980444764 0.29436935181 0.45615257802 0.83980444764 

NormalArray 3 330 double
0.50726586521 -0.74567838907 -0.43202439984 0.50726586521 -0.74567838907 -0.43202439984 0.50997808798 -0.74477090682 -0.43039359444 
0.50977365902 -0.74600932962 -0.42848675206 0.50732688378 -0.74903300941 -0.42610912195 0.50433164404 -0.75293312223 -0.42277808159 
0.49905072835 -0.75858273868 -0.41892791637 0.4945273402 -0.76437754108 -0.41372658181 0.48693933101 -0.77220783055 -0.40814844646 
0.47951487489 -0.78038716716 -0.40132449974 0.47092057826 -0.78950172651 -0.39359983843 0.4606502105 -0.79969244039 -0.3850888006 
0.44931107811 -0.8105591115 -0.3756507445 0.43685217424 -0.82200235276 -0.36533862362 0.42300459445 -0.83400313156 -0.35426810415 
0.40805966736 -0.84629551617 -0.34244883879 0.3914453434 -0.85895896945 -0.33009094495 0.37379500332 -0.87159745624 -0.31716741598 
0.35466408781 -0.88423375286 -0.30388164657 0.33420296949 -0.89667399723 -0.29031727106 0.31251505842 -0.90876020914 -0.27656684645 
0.28977977694 -0.9203321485 -0.26270975868 0.26615491446 -0.93126166926 -0.24882376267 0.24164007319 -0.94148059765 -0.23499863676 
0.21656538641 -0.95086334094 -0.22126531645 0.19126133464 -0.95932276311 -0.20765100059 0.16596394484 -0.96682227923 -0.19419230005 
0.14070211357 -0.97337626606 -0.1809462901 0.11593686011 -0.97896082764 -0.16791171017 0.09180116216 -0.98361950258 -0.15512969015 
0.068335844356 -0.98741157595 -0.14264849123 0.045731724994 -0.99039339423 -0.13049725665 0.024150808816 -0.99263516751 -0.11871041513 
0.0034731005842 -0.99421523978 -0.10734986984 -0.01616495082 -0.99520686758 -0.096446799265 -0.035020940848 -0.99567336004 -0.08607028416 
-0.052773188244 -0.99569308087 -0.076225188117 -0.069691509651 -0.99531799343 -0.066971527067 -0.085762470761 -0.99460646248 -0.058333381617 
-0.10101034273 -0.99361142062 -0.050331456168 -0.11524490786 -0.99240778151 -0.042958193647 -0.12858290051 -0.99103679651 -0.036228519873 
-0.14081153292 -0.98957822061 -0.030117395071 -0.15152158321 -0.98814842776 -0.024574265717 -0.16092093572 -0.9867726337 -0.019601577111 
-0.1676252327 -0.98573602668 -0.015042176541 -0.1715171859 -0.98512130155 -0.01085707951 -0.1710744817 -0.98523416422 -0.0068675590034 
-0.16456164884 -0.98636261907 -0.002871833497 -0.14868193845 -0.98888395803 0.0014828114672 -0.11770120924 -0.99302592756 0.0067773552029 
-0.063077214758 -0.99791272195 0.013837064513 0.035376070144 -0.99907359651 0.024504742766 0.21124303162 -0.97655024039 0.041545271498 
0.50593508586 -0.85994021378 0.067323975047 0.83931960899 -0.53583500705 0.091779296079 0.98656792725 -0.13160104867 0.09677235614 
0.98709209705 0.13159322572 0.091282062266 0.96056363748 0.26428409448 0.086437351625 0.94240868389 0.32367617283 0.084259169615 
0.93687494544 0.33931655668 0.084437023731 0.94228909392 0.32343527166 0.086492129835 0.95563115348 0.28048378649 0.089988577074 
0.97355960058 0.20791940119 0.094610922832 0.99001191576 0.099535784772 0.099845050953 0.99315388479 -0.051996944516 0.10460248036 
0.96266482925 -0.2487410748 0.10679093703 0.87432833896 -0.47417186356 0.10349395875 0.72092707596 -0.68673868072 0.093027606338 
0.53102761356 -0.84380388218 0.077489883636 0.34448335612 -0.93680974598 0.06098128565 0.1851394969 -0.9816124962 0.046478747798 
0.055814682308 -0.99783456676 0.034797968451 -0.047490601296 -0.9985368545 0.025861032383 -0.13175475461 -0.99109797068 0.019117980003 
-0.2025299211 -0.97917500822 0.014068913653 -0.26394818042 -0.96448178529 0.010307468274 -0.31929110601 -0.94762716424 0.0074797871284 
-0.37086142328 -0.92867300921 0.0053147606676 -0.42000566182 -0.9075142066 0.0036344004583 -0.46810385273 -0.88367062695 0.0022374353541 
-0.51586143919 -0.85667146137 0.00099137805889 -0.56358953768 -0.82605495833 -0.00019708541613 -0.61113840008 -0.79152257674 -0.0013661814381 
-0.65844436776 -0.75262500512 -0.0025722040965 -0.70473315834 -0.70946246453 -0.0037665578174 -0.74934359746 -0.66216319155 -0.0049072091458 
-0.79128092825 -0.61142452822 -0.0058769785168 -0.82978244875 -0.55804836257 -0.0065660329054 -0.86407688873 -0.50331365312 -0.0068188662898 
-0.89387298777 -0.44827272376 -0.0065304571842 -0.91893916103 -0.39436012957 -0.0055593639378 -0.93945306021 -0.342656336 -0.0038187779001 
-0.95575579281 -0.29415869723 -0.0012350531098 -0.96840093406 -0.24938875358 0.0022091877269 -0.97788803688 -0.20902645007 0.0065521366575 
-0.98483646167 -0.17308646785 0.01175663303 -0.98976337738 -0.14160504485 0.017789549322 -0.99309837393 -0.11467040606 0.02462351882 
-0.99524377662 -0.091946899775 0.032180626638 -0.99648684225 -0.07335565445 0.040409419392 -0.99706860149 -0.058574422775 0.049226424965 
-0.99716053878 -0.047355070919 0.058552174668 -0.99687957934 -0.039550060726 0.068314690823 -0.99630932329 -0.034891413313 0.07842398611 
-0.99550067255 -0.033100112556 0.088785097344 -0.99447673604 -0.033967730181 0.099308684347 -0.99324369085 -0.037264737573 0.10990136453 
-0.99179831945 -0.042715107439 0.12046374201 -0.99014077414 -0.04991206724 0.13088175172 -0.98826782135 -0.058562800275 0.14105712212 
-0.98620719547 -0.068087330356 0.15086246399 -0.98400593338 -0.077940109554 0.16018009361 -0.9817888709 -0.087075566809 0.16884448061 
-0.97970422638 -0.094606932024 0.1767177332 -0.97804750928 -0.098631111665 0.18356190617 -0.97718818878 -0.09669444503 0.18908576893 
-0.97754232588 -0.084994938699 0.19283895225 -0.97940499977 -0.056267783769 0.19390663459 -0.98171615888 0.0028627751191 0.19032915676 
-0.9768248125 0.12039340027 0.17697094355 -0.92502068521 0.35375255196 0.13854913903 -0.67481698934 0.73687066504 0.040542001597 
-0.15995163654 0.98272304369 -0.09311763184 0.21707768942 0.96216352614 -0.16467733824 0.39683629213 0.89792574052 -0.1903951726 
0.48337380482 0.85248880156 -0.19902916375 0.52820360066 0.82503017417 -0.20081376435 0.55228489591 0.80949947438 -0.19922849879 
0.5651872175 0.80141618371 -0.19569238531 0.5716300112 0.79799941512 -0.19088232963 0.57416563602 0.79752178402 -0.18518322394 
0.57459512041 0.79864924099 -0.1788849839 0.57378901708 0.80070148273 -0.17217229577 0.57254576124 0.80305288071 -0.16521931505 
0.57165215721 0.80510139598 -0.15819466914 0.57148690476 0.8065586387 -0.1512146819 0.57269644372 0.80694684992 -0.14441455868 
0.57562111693 0.80600769993 -0.13788370968 0.58085785157 0.8032757959 -0.1317275673 0.58883258962 0.79837055094 -0.12601843035 
0.6000491161 0.79078619712 -0.12082321267 0.61452347361 0.78030238292 -0.11614254857 0.63278832231 0.76617894782 -0.11202124383 
0.65461282723 0.74815044065 -0.10841109062 0.67955640719 0.72603620587 -0.10523553204 0.70748979189 0.69925888055 -0.1024461436 
0.73705125748 0.66841731532 -0.099868595796 0.7674943401 0.63361391001 -0.097395333309 0.79761943903 0.59565182683 -0.09487956403 
0.82618673813 0.55580413675 -0.092180449741 0.85238965825 0.51524153737 -0.08920778372 0.87550634656 0.47551243861 -0.085886889898 
0.89527673673 0.43786272635 -0.08219365878 0.91155190839 0.40369590843 -0.078119983468 0.92446715213 0.37407295866 -0.073687897472 
0.93425530504 0.34987869896 -0.06893417889 0.94123631964 0.33164710334 -0.063909228139 0.94545809909 0.32042138718 -0.058643989529 
0.94706834298 0.31659566536 -0.053185885441 0.94598968156 0.3206878552 -0.047569127683 0.94170649989 0.33382926483 -0.041795813303 
0.93362639192 0.35644754801 -0.035873469802 0.92052468665 0.38954863153 -0.029768522821 0.90064104298 0.43393196633 -0.023425633276 
0.87170422361 0.48974494486 -0.016782000052 0.8307836226 0.55650983299 -0.009766177131 0.7752953177 0.63159443959 -0.0023736531944 
0.70327970202 0.71089321839 0.0053378632168 0.61504669157 0.78838033853 0.013191247739 0.51526171767 0.85677889549 0.020863521744 
0.40989176259 0.91170138176 0.028095079023 0.30716238123 0.95102556405 0.034664795994 0.21336738739 0.97613122815 0.040523862542 
0.13240986491 0.99013909374 0.045740602522 0.06641496149 0.9965167214 0.050432894695 0.014342625426 0.99839676463 0.05475572547 
-0.023764931925 0.99798648417 0.058806508304 -0.049658163003 0.99679792136 0.062673525741 -0.064175523127 0.99572728286 0.066397894526 
-0.06769689216 0.99524797719 0.069989961311 -0.060814838739 0.99544381463 0.073438187021 -0.043541223737 0.99610294926 0.076701214493 
-0.015197850996 0.99670262436 0.079705105951 0.024872228181 0.99629373179 0.082341801478 0.077417864845 0.99341496691 0.084458141832 
0.14390334758 0.98586302557 0.085824946116 0.2246171862 0.97063084236 0.086156181023 0.31894439556 0.94394490074 0.085102860766 
0.42455648578 0.90165341011 0.082297742489 0.53604685682 0.84062308549 0.077502228639 0.64572479008 0.76028576286 0.070746408166 
0.74526942335 0.6638337837 0.062435520594 0.82844176464 0.55753677907 0.053263332462 0.89180107332 0.45026635497 0.044170750555 
0.93671451529 0.34825916947 0.035797593905 0.96623746507 0.25606039947 0.02860477078 0.98421158303 0.17552504225 0.022771020498 
0.99411403065 0.10678287111 0.018295149919 0.99865803375 0.049529387151 0.015131802323 0.9999133436 0.0017381087492 0.013049301551 
0.99923323049 -0.037281851838 0.011958871174 0.99759731716 -0.068272760163 0.011765331164 0.99553313816 -0.093622503107 0.012190066907 
0.99357469046 -0.11239155587 0.0133218862 0.99177532421 -0.12712511339 0.014863103208 0.99050778518 -0.13640657988 0.016957961441 
0.98959584084 -0.14257050636 0.019331903898 0.98916426754 -0.14515132508 0.022025999328 0.9893318244 -0.14350024248 0.025104215532 
0.98972373692 -0.14017006682 0.028271486389 0.99061124741 -0.13296689325 0.03176730722 0.99170071 -0.123600045 0.035393935281 
0.99301740715 -0.11125069825 0.039239154412 0.99429570302 -0.097554430477 0.043118302938 0.99558664519 -0.081124084312 0.047181721723 
0.99667802371 -0.063267571612 0.051284806982 0.99749666964 -0.043900496129 0.055435913492 0.99794969221 -0.02331951946 0.059603790451 
0.99796257725 -0.0015967183382 0.063782010717 0.99749836292 0.019899711795 0.067830800126 0.9964937256 0.042756133058 0.071917785874 
0.99503544123 0.06449487009 0.075795002629 0.99305756916 0.086589807675 0.079617017936 0.99072003927 0.10745199298 0.083233845227 
0.98794005942 0.12824277818 0.086765366579 0.98492854144 0.14764535561 0.090092270583 0.98154117678 0.16692686793 0.093339911313 
0.97780355241 0.18597771661 0.096501304787 0.97377648602 0.20456654882 0.099558437033 0.96940161668 0.22303646955 0.10254383857 
0.96410510821 0.24359825358 0.10564672819 0.95822798089 0.26453891493 0.10871200085 0.95101394126 0.28817668787 0.11192265226 
0.94177181368 0.31584404434 0.1153619981 0.93040850807 0.34669306435 0.11892824407 0.91564758849 0.38278850579 0.12272918774 
0.89545327094 0.42669663801 0.12685983873 0.86863699121 0.47777826642 0.13114002305 0.83177137576 0.53832585441 0.1355051768 
0.78081738882 0.60895224248 0.13964731182 0.71112588965 0.68837049983 0.14298959416 0.61589221629 0.77443652982 0.14465420558 
0.49057844122 0.85952407889 0.14335672571 0.33247863521 0.93301280501 0.13764106513 0.14998973172 0.98054006907 0.12666591225 
-0.038736260478 0.99305227619 0.1111156104 -0.2199743632 0.97112373663 0.092357824189 -0.37702578 0.92332384319 0.072970143321 
-0.50425741178 0.86180594952 0.054908724696 -0.60412277111 0.79593400169 0.039047949678 -0.68269051203 0.73026743584 0.025360144787 
-0.74431516986 0.66768625829 0.013783628059 -0.79240656374 0.60997873496 0.0042167100586 -0.83074339842 0.55664289856 -0.00375359314 
-0.86150749718 0.5076395959 -0.010337938701 -0.8862831321 0.46287758756 -0.015701868848 -0.90781651729 0.41886424402 -0.020540594628 
-0.92534316328 0.37834048375 -0.024464433781 -0.94040993414 0.3388934709 -0.027935124169 -0.95333213056 0.30032440797 -0.03103383355 
-0.96430851801 0.26261346298 -0.033811997159 -0.974220272 0.22257930698 -0.036787412645 -0.98253206538 0.18179800355 -0.039752061657 
-0.98947850887 0.1381282245 -0.043045023999 -0.99486669527 0.089643958483 -0.046949114524 -0.99804235153 0.035346361964 -0.051595535217 
-0.99799770295 -0.026896367787 -0.057246574671 -0.99276784332 -0.10131965561 -0.064392054374 -0.97950331192 -0.18777772215 -0.072888881184 
-0.95297976894 -0.29139435043 -0.083179880572 -0.90742757077 -0.40941402579 -0.094632760126 -0.83787331773 -0.53543929856 -0.1061746721 
-0.74339475801 -0.65865862701 -0.11633162434 -0.63353252461 -0.76379757917 -0.12349007376 -0.52404980481 -0.8421448306 -0.12713727375 
-0.42957340554 -0.8939359041 -0.12784869419 -0.35896777799 -0.92471998797 -0.12662968929 -0.31377126162 -0.94132047417 -0.12435176028 
-0.29211152674 -0.94863386887 -0.12150982995 -0.28926875102 -0.94991107121 -0.11829009458 -0.3013763652 -0.9465821928 -0.11469280176 
-0.3242837832 -0.93946737185 -0.11063943774 -0.35398880749 -0.92921873466 -0.1060399327 -0.38778086098 -0.91622098569 -0.10082216638 
-0.42281144761 -0.90122962742 -0.094950715753 -0.45734936614 -0.88488113748 -0.088413402936 -0.49028616647 -0.86776906353 -0.081217777255 
-0.52055908646 -0.85066574206 -0.073389595908 -0.54793587861 -0.83399522984 -0.064947898587 -0.57185323312 -0.81844732194 -0.05592728295 
-0.59271083697 -0.80408148131 -0.046333952365 -0.61033289607 -0.79131773785 -0.03619383564 -0.62494078101 -0.78025506471 -0.025515764288 
-0.63663811585 -0.77102990761 -0.014310520893 -0.64567334431 -0.76360937571 -0.0025794918941 -0.65211133141 -0.75806153351 0.00967072196 
-0.65602802642 -0.75440292394 0.02243784536 -0.65769872672 -0.75243317912 0.035730880494 -0.65711375706 -0.7521611245 0.049549501241 
-0.65424872586 -0.75357562495 0.063893522303 -0.64945886466 -0.75630468461 0.078780753755 -0.64251002742 -0.76046481633 0.09420258909 
-0.63359461624 -0.76578160907 0.11016528258 -0.62280563358 -0.77205402519 0.12667172123 -0.61019391166 -0.77910772835 0.1437168668 
-0.59580368505 -0.78676848266 0.1612864643 -0.57978870616 -0.79477827052 0.17936710101 -0.56221759546 -0.80295394993 0.19793011304 
-0.54324586349 -0.81106216437 0.21693800341 -0.52307040554 -0.81886268076 0.23634986972 -0.50178204322 -0.82621268135 0.25610034415 
-0.47955319512 -0.83294219544 0.27610873238 -0.45669446061 -0.83883296411 0.29629280782 -0.43330115197 -0.84383359277 0.31653590542 
-0.40962062528 -0.84784159774 0.33671288731 -0.38596155699 -0.85076786905 0.35668993472 -0.36235715876 -0.85270540256 0.3762855112 
-0.33928792465 -0.85356841378 0.3953538506 -0.31685606818 -0.85349406812 0.41370292209 -0.2952524754 -0.8526115437 0.4311374854 
-0.27473481116 -0.85105411783 0.4474680682 -0.25562422175 -0.84895460324 0.46252820335 -0.23805656305 -0.84653561281 0.47613709058 
-0.22221818799 -0.84400679303 0.48813073069 -0.20824831148 -0.84158821548 0.49835922419 -0.19662499019 -0.83936891832 0.50675283145 
-0.18665942237 -0.83780744702 0.51306621576 -0.17964607776 -0.8366643252 0.51741675049 -0.17964607776 -0.8366643252 0.51741675049 

BinormalArray 3 330 double
0.86154904837 0.45064235415 0.23378345943 0.86154904837 0.45064235415 0.23378345943 0.85995864385 0.4529721448 0.2351326581 
0.86010569597 0.45275720963 0.23500872515 0.86158796711 0.45057882805 0.23376247485 0.8633883642 0.44790636877 0.232250764 
0.866496766 0.44322471762 0.22964146882 0.86912653853 0.4391945561 0.2274361491 0.87342811001 0.43246131023 0.22383152549 
0.87753308797 0.42586795306 0.22039093919 0.88215291691 0.41823850156 0.2165243335 0.88750024342 0.40911795737 0.21205144394 
0.89319163086 0.39904827157 0.20729010474 0.89919916737 0.38798244057 0.20226340055 0.90559248028 0.37567129627 0.19690946353 
0.91216909084 0.36237603633 0.19139268015 0.91911749667 0.34755761738 0.18554441494 0.92608914783 0.33179316745 0.17964460557 
0.93320137868 0.31465182837 0.173578264 0.94031690851 0.29625765105 0.16743809532 0.94732626367 0.27669097839 0.16129182444 
0.95410503194 0.25610579799 0.15522051496 0.96055105413 0.23463761902 0.14928784327 0.96661599979 0.21227093358 0.14350804753 
0.97217502095 0.18931333058 0.13797170543 0.97713599439 0.16607749274 0.13275358707 0.98145544088 0.14278749418 0.12789428868 
0.98514161953 0.11946609593 0.12338493175 0.98815210528 0.096564229886 0.11929277575 0.99051811754 0.074211192974 0.11561382991 
0.99228638507 0.052445777758 0.11232617858 0.9934968273 0.031456423332 0.10942827597 0.99420337951 0.011403553219 0.10690930336 
0.99447070111 -0.0078332930417 0.10472184185 0.99435389578 -0.026118440452 0.10285016777 0.99390144279 -0.043710155162 0.10123904558 
0.99317045699 -0.060286541129 0.099889820868 0.99219651702 -0.076117700107 0.098753062429 0.9910189173 -0.091189414004 0.097805911499 
0.98967207768 -0.105524646 0.097024366743 0.98821215616 -0.11893038663 0.096396564005 0.98666417393 -0.13152115312 0.095895746373 
0.98509182786 -0.14307995932 0.095510292231 0.98359699103 -0.15319200055 0.095232190994 0.98219358212 -0.16206200206 0.095035123693 
0.98115533339 -0.16829484671 0.09492658389 0.98055757737 -0.17176830041 0.094881444098 0.98070010955 -0.17094861589 0.094888702479 
0.98186809235 -0.16408816426 0.094921670693 0.98444001468 -0.14787142989 0.094931015599 0.98865210777 -0.11653580681 0.094796706358 
0.99364984352 -0.061501294108 0.094220906919 0.99502399251 0.037496822685 0.092310576976 0.9729741783 0.21414476315 0.086390212227 
0.85748627814 0.50988074595 0.068839724839 0.53546138004 0.84400000945 0.030742389706 0.1332533806 0.99102330682 -0.010786190523 
-0.12881167576 0.99102454541 -0.03574776325 -0.26097256035 0.96416194277 -0.047802414682 -0.32012251216 0.94588651505 -0.053106288344 
-0.33568038287 0.94039787297 -0.05450248687 -0.31983396767 0.94598664294 -0.053061327711 -0.27702896547 0.95960720253 -0.049081250509 
-0.20474999049 0.97790570689 -0.042164793592 -0.09684277975 0.99480181078 -0.031477504301 0.053950289822 0.99841654506 -0.015930121534 
0.24962527176 0.96832843696 0.0052212909145 0.47367868015 0.88015657283 0.030869325875 0.68475650072 0.72654975014 0.056868227489 
0.84051755324 0.53612931754 0.078074308009 0.932554145 0.34894752675 0.092619599538 0.97670592863 0.18902319431 0.10156653479 
0.99250476422 0.059244013877 0.10688517123 0.99293776398 -0.044374781066 0.11002488662 0.98533015436 -0.12882895946 0.11192669977 
0.97330810442 -0.19969119082 0.11311393454 0.95856759394 -0.26111262513 0.11387872872 0.94170626147 -0.31639324691 0.11438806935 
0.92277923844 -0.36785115093 0.11473451032 0.90167790514 -0.41684414243 0.11496919715 0.87791811671 -0.46476510736 0.11512243626 
0.85102665093 -0.5123289838 0.11520699527 0.82054008705 -0.55985441764 0.11522585038 0.78615958089 -0.60719640184 0.11517657296 
0.74743467794 -0.65429674821 0.11505289 0.70446795582 -0.70038168251 0.11484945812 0.65738988757 -0.74479086603 0.11456483576 
0.6069031601 -0.78652731191 0.1142074511 0.55381513783 -0.82482684087 0.11379576303 0.49941271098 -0.85891565991 0.11336151587 
0.44475454745 -0.88850295347 0.11294199481 0.39128382276 -0.91335781514 0.11258095564 0.34008759774 -0.93366215521 0.11231832352 
0.29216951444 -0.94976373269 0.11218657178 0.24805452167 -0.96222602007 0.11220535001 0.20842679868 -0.97156000684 0.11238070434 
0.17330049252 -0.97839885494 0.11270590026 0.14271055514 -0.98327418473 0.113161721 0.1167431217 -0.9866305071 0.11371581244 
0.095056299765 -0.98888417865 0.11433451396 0.077565169731 -0.99033589726 0.11497154018 0.063938397534 -0.99123770997 0.11558409778 
0.053917848826 -0.99176997414 0.11612572485 0.047345298824 -0.99205640347 0.11654404754 0.043940374742 -0.99218355351 0.11679486124 
0.043410897613 -0.99220162374 0.11683934191 0.04553511369 -0.99213005131 0.11663839298 0.05006991518 -0.99196759222 0.11616066282 
0.056725806596 -0.99169950603 0.11538748898 0.065083211113 -0.99130904292 0.11432653699 0.074837776119 -0.990774368 0.11298433068 
0.085400224932 -0.990097043 0.11142103494 0.096218285107 -0.9892954409 0.10971131308 0.10624550506 -0.98845392216 0.10803118259 
0.11459797799 -0.98768045166 0.10655810078 0.11938828011 -0.98720773239 0.10567559639 0.11819018163 -0.98732739436 0.10590418926 
0.10724797221 -0.98834420678 0.10804444171 0.07937955268 -0.99035523033 0.11355793403 0.021330710118 -0.99193453722 0.12494348591 
-0.094769885922 -0.98462479341 0.14674019533 -0.32668490574 -0.92679913618 0.18525747904 -0.71169061601 -0.66432418439 0.22840719148 
-0.96750583612 -0.13735986922 0.21228453408 -0.95632987294 0.24344739893 0.16176074333 -0.89693932387 0.42340901836 0.12737602785 
-0.85372721645 0.50934660094 0.10823991876 -0.82718117367 0.55337025549 0.097737742244 -0.81185815679 0.57655124063 0.092059764195 
-0.80358331166 0.58848036951 0.089133135933 -0.7997413608 0.59388583835 0.087825775443 -0.7987038835 0.59533055671 0.087485054301 
-0.79920885873 0.59462889557 0.087645174884 -0.80061728283 0.59266736121 0.088075906999 -0.80233756107 0.5902606195 0.088582386317 
-0.80379549714 0.58821149654 0.088994573472 -0.80471640348 0.58691314742 0.089243864531 -0.80463709916 0.58702498101 0.089223373268 
-0.80330394042 0.5888975662 0.088895645765 -0.80025756591 0.59313669866 0.088185514189 -0.79511784648 0.60017444252 0.087053137465 
-0.78737888293 0.6105189295 0.085446658475 -0.7768127006 0.62418656047 0.083385645698 -0.76267840326 0.64171090875 0.080800759812 
-0.74470094409 0.66285713994 0.077723329161 -0.72268937879 0.68717867416 0.074199269268 -0.69606116589 0.71454110803 0.070212949511 
-0.66539882486 0.74357183534 0.065919113767 -0.63079631043 0.77351676456 0.061382649804 -0.59304490926 0.80316732232 0.056744937697 
-0.55340593667 0.83127569817 0.052178375716 -0.51304243919 0.85703037566 0.047816218883 -0.47349579683 0.87970595771 0.043808199611 
-0.43600893773 0.89904181994 0.040249375417 -0.40198351238 0.91488971591 0.037229873846 -0.37248148149 0.92738729262 0.03479016292 
-0.34839009836 0.93677062419 0.032941417946 -0.33024717807 0.9433634923 0.031656322829 -0.31909870331 0.94721656081 0.030932256323 
-0.31534314212 0.9484806658 0.030710410715 -0.31950225313 0.94708053698 0.030931645853 -0.33271032309 0.94250094739 0.031556379248 
-0.35539878924 0.9341497651 0.032494875961 -0.38857681927 0.92080104114 0.033667464563 -0.43304748318 0.90069275322 0.034963432544 
-0.48896216968 0.87155236803 0.036227978161 -0.55584736004 0.83044863692 0.037266255104 -0.63107450029 0.77479925299 0.037829785207 
-0.71054027226 0.70264771617 0.037665746385 -0.78821819708 0.61430830182 0.036570262707 -0.85682607581 0.51444995278 0.03450104204 
-0.91197006356 0.40903931638 0.031582286575 -0.95152047352 0.30629720708 0.028121333789 -0.97685272652 0.21250949865 0.024463517215 
-0.99108619282 0.13157037316 0.020913997776 -0.99768887355 0.065596216588 0.017721398527 -0.99979613374 0.013541310461 0.014977445534 
-0.99961630811 -0.024558608893 0.012810592813 -0.99866303645 -0.050457384635 0.011233519475 -0.99783235646 -0.064997470486 0.010291609627 
-0.99759618134 -0.068563185998 0.010047313268 -0.99803597197 -0.061750655696 0.01053827173 -0.99893589772 -0.044576247005 0.011833446099 
-0.99976734036 -0.016368004504 0.014048259031 -0.99957367018 0.023524849729 0.017293331668 -0.99688387785 0.075844882221 0.021681511326 
-0.98948104451 0.14204787651 0.027379980623 -0.97434253641 0.22241839122 0.03444823642 -0.94767685191 0.31634182853 0.042853609815 
-0.90531441097 0.42149796666 0.052395433009 -0.84411211337 0.53250209525 0.062580017633 -0.76350643022 0.64169581857 0.072693929821 
-0.66671353806 0.74079365649 0.081962288122 -0.5600408673 0.82358328261 0.089804251325 -0.4524098951 0.88663898824 0.09589886 
-0.35009042369 0.93132284762 0.10037155347 -0.25765132253 0.96067892501 0.10349782145 -0.1769563491 0.97853491129 0.10562138946 
-0.10813443418 0.98835599675 0.10704843685 -0.05087774664 0.99284731324 0.10800771959 -0.0031462755965 0.99407180794 0.10867999635 
0.035756965328 0.99338017803 0.10916620967 0.066580855351 0.99175081594 0.10953222716 0.091729800488 0.98970805578 0.10983445738 
0.11026120542 0.98778873115 0.1100721999 0.12473758938 0.98604225808 0.11027782677 0.13373637887 0.98484591546 0.110422388 
0.13960778635 0.98401868176 0.11053008611 0.14188539145 0.98368750174 0.11057773106 0.13991845989 0.98397447061 0.11053083628 
0.13627527511 0.98449667989 0.11043249833 0.12875137498 0.98553443054 0.11020421796 0.11906626573 0.98678798222 0.10987585041 
0.10639782791 0.98828706554 0.10939916956 0.092390321528 0.98975885845 0.10881833768 0.075650718799 0.99126200828 0.1080583161 
0.057493288286 0.99257803321 0.10716048619 0.037833570983 0.99363460307 0.10610794734 0.016969548119 0.99433748834 0.10490468877 
-0.0050264015042 0.99461212193 0.10354449381 -0.026781671833 0.99441261633 0.10210920889 -0.049888094201 0.99368659793 0.10048941811 
-0.071861172632 0.9925033037 0.09885931422 -0.094179598156 0.99080725168 0.09711433112 -0.1152514693 0.98874614961 0.095384225429 
-0.13624152804 0.9862458734 0.093580570846 -0.15583141286 0.98350642487 0.091824196244 -0.17529109771 0.98039351887 0.090008772982 
-0.19451122554 0.97693173268 0.0881463148 -0.21326061176 0.97317968087 0.086262507524 -0.23188288325 0.9690818042 0.084325471998 
-0.25258911582 0.96408455766 0.082095701784 -0.27366493792 0.95851353052 0.079745304295 -0.29742662739 0.95163466799 0.076999090859 
-0.32520249883 0.94277093218 0.073663452258 -0.35614087371 0.93182232594 0.069791338631 -0.39229751214 0.91753482114 0.065057774084 
-0.43622270516 0.89790216832 0.059003793379 -0.48726229998 0.87173346823 0.051538445644 -0.5476770111 0.83563181928 0.042063691219 
-0.61803741943 0.78557388013 0.03005706328 -0.69700366783 0.71690863591 0.015096184827 -0.7823538805 0.62282486017 -0.0034057634879 
-0.86639584616 0.49871737069 -0.025282838728 -0.9384559508 0.3417775379 -0.049885298369 -0.98422815727 0.16023718059 -0.074959858513 
-0.99483283493 -0.027882411456 -0.09762275187 -0.97099347804 -0.20887767613 -0.11636916268 -0.92148181781 -0.36599369662 -0.13007641403 
-0.85854497535 -0.49348015221 -0.13920439893 -0.791547437 -0.59368564585 -0.14487929074 -0.72499741406 -0.67261704803 -0.14820612778 
-0.66173820927 -0.73458918462 -0.14993756113 -0.60352880624 -0.78298644818 -0.15061607484 -0.54982592636 -0.82158536091 -0.15062850142 
-0.50056772809 -0.85256504086 -0.15021584704 -0.45564604343 -0.87750960967 -0.14954453529 -0.41152286307 -0.89919501803 -0.14865144708 
-0.37095844698 -0.91683590242 -0.14765418603 -0.33150995583 -0.93200088434 -0.14654521748 -0.29297115594 -0.94500947308 -0.14534441022 
-0.25531641621 -0.95606336971 -0.14407067958 -0.21533220671 -0.96607100354 -0.14261436419 -0.17460400507 -0.97448775457 -0.14102147923 
-0.13096862663 -0.98156679062 -0.13918999389 -0.082482182634 -0.98713214081 -0.13699206593 -0.028137469286 -0.99054029586 -0.13430638515 
0.034211602237 -0.99080396013 -0.13090866612 0.10882412482 -0.98599814828 -0.12635252848 0.1955395053 -0.97328689296 -0.12032009752 
0.29949167835 -0.94751078507 -0.11192875762 0.41787205076 -0.90291690102 -0.10061818446 0.5442068245 -0.83452274429 -0.086085547107 
0.66759656543 -0.74134463705 -0.068723758244 0.77270032225 -0.63276571156 -0.050415932709 0.85081885251 -0.52439023765 -0.0334986398 
0.90225612911 -0.43074842059 -0.01974020358 0.93263640945 -0.36068087888 -0.009931332895 0.94883071379 -0.31576125955 -0.0038863267287 
0.95575367796 -0.29416619618 -0.0010752157475 0.95665168518 -0.29123368085 -0.00070454241918 0.95294385611 -0.30313908578 -0.0021683580153 
0.94543645254 -0.32577008914 -0.0048747548425 0.93476962084 -0.35515784719 -0.008286104751 0.92132168927 -0.38861466451 -0.012041071726 
0.90584551823 -0.42331401547 -0.015784214155 0.88897994557 -0.45753910015 -0.019303580466 0.87132475654 -0.49019207712 -0.022469894885 
0.85366111623 -0.52021994902 -0.025177435932 0.83642410042 -0.54739670605 -0.027414785019 0.82031616618 -0.57116648153 -0.029158838614 
0.80541002768 -0.59193421046 -0.030472574631 0.79214017087 -0.60953162147 -0.031387133075 0.78062010343 -0.62418780073 -0.031966287683 
0.77100119767 -0.63601541503 -0.032272976841 0.76326549064 -0.64527319944 -0.032377289714 0.75749620471 -0.65203767906 -0.032347564682 
0.75372499278 -0.65639787814 -0.032256175016 0.75176678554 -0.65864389922 -0.032170082084 0.75164583291 -0.65878230845 -0.032162274982 
0.75336646958 -0.6568066603 -0.032310578757 0.75657385122 -0.65309210367 -0.032660553731 0.7614002249 -0.64742602769 -0.033305197656 
0.76758931458 -0.64002386111 -0.034294334064 0.77495910837 -0.63100335976 -0.035681091884 0.78335493037 -0.62044125401 -0.037519373484 
0.79262264989 -0.60840817911 -0.039860035914 0.80252695652 -0.59508396497 -0.042726557252 0.81290641032 -0.58056278674 -0.046152125661 
0.8235504483 -0.56502241924 -0.050143044014 0.83424292037 -0.54867870978 -0.05468476251 0.84485947607 -0.53163755635 -0.059782726381 
0.85524586139 -0.51407753405 -0.065412579463 0.86520004814 -0.4963035537 -0.071495868921 0.87466979756 -0.47839988306 -0.07801472376 
0.88354643376 -0.46058535641 -0.084893043584 0.89172529396 -0.44312304406 -0.092021562314 0.89924889296 -0.42599603214 -0.099392198459 
0.90599176537 -0.40959797414 -0.1068102086 0.91200668677 -0.39394816239 -0.11423068171 0.91732076767 -0.37913487572 -0.12157037148 
0.92195009053 -0.36529589393 -0.12871262739 0.92590395226 -0.35261949732 -0.13550410067 0.92925206317 -0.34111748256 -0.14187834998 
0.93204760266 -0.33084593871 -0.14774380263 0.93435102793 -0.32182214353 -0.15303158019 0.93614344591 -0.31437620728 -0.15748983771 
0.93764522493 -0.30780040994 -0.16149408599 0.93865540613 -0.30317920856 -0.16434231359 0.93865540613 -0.30317920856 -0.16434231359 

