# vtk DataFile Version 4.1
vtk output
ASCII
DATASET POLYDATA
POINTS 272 float
-29.1556 14.2467 293.612 -27.972 14.1956 291.614 -26.7895 14.145 289.615 
-25.6115 14.0966 287.617 -24.4413 14.0521 285.618 -23.2822 14.013 283.618 
-22.1373 13.981 281.616 -21.0099 13.9572 279.613 -19.9027 13.9431 277.609 
-18.8187 13.9398 275.602 -17.7603 13.9482 273.592 -16.7301 13.969 271.579 
-15.7301 14.0028 269.561 -14.7623 14.0499 267.539 -13.8282 14.1105 265.511 
-12.9292 14.1844 263.476 -12.0664 14.2713 261.432 -11.2404 14.3706 259.38 
-10.4516 14.4818 257.316 -9.70031 14.6039 255.239 -8.98626 14.7359 253.148 
-8.30905 14.8765 251.041 -7.668 15.0246 248.914 -7.06218 15.1788 246.767 
-6.49047 15.3376 244.597 -5.95155 15.4996 242.402 -5.44396 15.6632 240.178 
-4.96611 15.8269 237.924 -4.51631 15.9892 235.637 -4.0928 16.1487 233.315 
-3.69378 16.3039 230.956 -3.31745 16.4534 228.557 -2.96199 16.5958 226.117 
-2.62562 16.7298 223.633 -2.3066 16.8543 221.104 -2.00323 16.968 218.529 
-1.71391 17.0697 215.907 -1.43707 17.1586 213.236 -1.17127 17.2335 210.516 
-0.915145 17.2935 207.747 -0.66742 17.3378 204.928 -0.426942 17.3657 202.061 
-0.192665 17.3763 199.144 0.036333 17.3692 196.18 0.260849 17.3437 193.17 
0.481548 17.2994 190.114 0.698955 17.2359 187.015 0.913457 17.153 183.874 
1.1253 17.0506 180.695 1.33458 16.9285 177.478 1.54128 16.7867 174.228 
1.74524 16.6255 170.948 1.94617 16.445 167.64 2.14372 16.2456 164.307 
2.33744 16.0275 160.954 2.52681 15.7914 157.584 2.71129 15.5375 154.2 
2.89036 15.2666 150.806 3.06347 14.979 147.405 3.23015 14.6754 144.001 
3.38998 14.3563 140.597 3.54263 14.0222 137.195 3.68787 13.6737 133.8 
3.82559 13.3112 130.413 3.95577 12.935 127.037 4.0785 12.5457 123.674 
4.19397 12.1435 120.326 4.30247 11.7288 116.995 4.40433 11.3019 113.682 
4.4999 10.863 110.388 4.58956 10.4126 107.114 4.67366 9.95081 103.862 
4.75249 9.47813 100.632 4.82626 8.99497 97.4245 4.89507 8.50186 94.2405 
4.95889 7.9994 91.0805 5.01757 7.48831 87.9449 5.07076 6.96943 84.8342 
5.118 6.44368 81.7492 5.15866 5.91214 78.6902 5.19198 5.37597 75.6581 
5.21707 4.83643 72.6535 5.23298 4.29485 69.6771 5.23866 3.75264 66.7299 
5.23305 3.21121 63.8128 5.21508 2.67198 60.9266 5.18372 2.13635 58.0725 
5.13803 1.60567 55.2512 5.07714 1.08118 52.464 5.00032 0.564031 49.7116 
4.90699 0.0552256 46.995 4.79675 -0.444382 44.3149 4.66934 -0.934104 41.6722 
4.52471 -1.41343 39.0671 4.36298 -1.88202 36.5002 4.18441 -2.33971 33.9714 
3.98945 -2.7865 31.4808 3.77866 -3.22253 29.0279 3.55272 -3.64809 26.6121 
3.31241 -4.06355 24.2326 3.05857 -4.46939 21.8883 2.79208 -4.86614 19.5778 
2.51384 -5.25435 17.2995 2.22474 -5.63461 15.0517 1.92568 -6.00747 12.8326 
1.61749 -6.37345 10.64 1.30099 -6.73302 8.47212 0.976917 -7.08659 6.32676 
0.645976 -7.43449 4.20195 0.308804 -7.77697 2.09575 -0.0340162 -8.11418 0.00635315 
-0.381952 -8.44619 -2.06792 -0.734519 -8.77301 -4.12857 -1.09127 -9.09453 -6.17692 
-1.4518 -9.41062 -8.2141 -1.81573 -9.72105 -10.2411 -2.18269 -10.0256 -12.2586 
-2.55236 -10.3239 -14.2674 -2.92438 -10.6157 -16.268 -3.29846 -10.9007 -18.2607 
-3.67427 -11.1786 -20.246 -4.05151 -11.449 -22.2241 -4.42985 -11.7116 -24.1955 
-4.809 -11.9661 -26.1603 -5.18862 -12.2124 -28.1189 -5.56841 -12.4502 -30.0717 
-5.94802 -12.6793 -32.019 -6.32711 -12.8995 -33.9612 -6.70531 -13.1107 -35.8986 
-7.08225 -13.3129 -37.8316 -7.45751 -13.5059 -39.7605 -7.83068 -13.6898 -41.6856 
-8.20129 -13.8645 -43.6071 -8.56887 -14.03 -45.525 -8.9329 -14.1865 -47.4394 
-9.29285 -14.334 -49.3501 -9.64816 -14.4726 -51.257 -9.99825 -14.6026 -53.1595 
-10.3425 -14.7242 -55.0574 -10.6804 -14.8376 -56.95 -11.0112 -14.9431 -58.8368 
-11.3343 -15.0411 -60.717 -11.6493 -15.132 -62.5898 -11.9554 -15.2163 -64.4547 
-12.2522 -15.2945 -66.3107 -12.5391 -15.367 -68.1572 -12.8157 -15.4344 -69.9936 
-13.0816 -15.4974 -71.8192 -13.3363 -15.5564 -73.6336 -13.5797 -15.6121 -75.4364 
-13.8114 -15.6649 -77.2274 -14.0312 -15.7155 -79.0066 -14.239 -15.7643 -80.7739 
-14.4347 -15.8119 -82.5296 -14.6183 -15.8584 -84.2743 -14.7897 -15.9044 -86.0085 
-14.9491 -15.95 -87.7331 -15.0964 -15.9955 -89.4491 -15.2319 -16.0409 -91.1578 
-15.3556 -16.0862 -92.8608 -15.4677 -16.1313 -94.5597 -15.5684 -16.1763 -96.2564 
-15.6578 -16.2207 -97.953 -15.736 -16.2644 -99.6518 -15.8033 -16.307 -101.355 
-15.8598 -16.3481 -103.066 -15.9056 -16.3873 -104.786 -15.9408 -16.4241 -106.52 
-15.9655 -16.458 -108.269 -15.9799 -16.4885 -110.036 -15.9839 -16.5152 -111.824 
-15.9777 -16.5375 -113.636 -15.9612 -16.5549 -115.476 -15.9346 -16.567 -117.344 
-15.8978 -16.5734 -119.244 -15.8509 -16.5736 -121.178 -15.794 -16.5674 -123.148 
-15.7271 -16.5544 -125.156 -15.6503 -16.5343 -127.203 -15.5638 -16.5071 -129.291 
-15.4676 -16.4724 -131.42 -15.3621 -16.4304 -133.591 -15.2474 -16.3808 -135.804 
-15.1239 -16.3238 -138.06 -14.9918 -16.2594 -140.357 -14.8516 -16.1875 -142.695 
-14.7038 -16.1085 -145.073 -14.5488 -16.0223 -147.489 -14.3872 -15.9292 -149.942 
-14.2196 -15.8293 -152.428 -14.0465 -15.7228 -154.947 -13.8687 -15.6099 -157.494 
-13.6868 -15.4908 -160.067 -13.5014 -15.3657 -162.663 -13.3133 -15.2348 -165.277 
-13.1231 -15.0983 -167.906 -12.9315 -14.9565 -170.546 -12.739 -14.8096 -173.193 
-12.5464 -14.658 -175.843 -12.354 -14.5018 -178.491 -12.1624 -14.3414 -181.132 
-11.9721 -14.1773 -183.764 -11.7834 -14.0098 -186.381 -11.5966 -13.8395 -188.98 
-11.4119 -13.6668 -191.557 -11.2296 -13.4923 -194.107 -11.0497 -13.3167 -196.629 
-10.8722 -13.1406 -199.119 -10.6973 -12.9648 -201.574 -10.5247 -12.7899 -203.991 
-10.3544 -12.6169 -206.371 -10.1863 -12.4465 -208.71 -10.0201 -12.2794 -211.009 
-9.8556 -12.1166 -213.266 -9.69264 -11.9586 -215.483 -9.53095 -11.8063 -217.659 
-9.37031 -11.6603 -219.797 -9.21049 -11.5213 -221.896 -9.0513 -11.3897 -223.959 
-8.89255 -11.2661 -225.989 -8.7341 -11.1509 -227.988 -8.57584 -11.0443 -229.958 
-8.4177 -10.9467 -231.902 -8.25965 -10.8582 -233.824 -8.10172 -10.7788 -235.726 
-7.94395 -10.7088 -237.611 -7.78644 -10.6479 -239.482 -7.62934 -10.5962 -241.343 
-7.47282 -10.5537 -243.195 -7.31707 -10.5201 -245.042 -7.16234 -10.4954 -246.885 
-7.00886 -10.4794 -248.727 -6.85689 -10.4722 -250.569 -6.70671 -10.4734 -252.414 
-6.55858 -10.4832 -254.262 -6.41277 -10.5015 -256.115 -6.26953 -10.5281 -257.974 
-6.12911 -10.5632 -259.839 -5.99173 -10.6068 -261.711 -5.85759 -10.6588 -263.591 
-5.72687 -10.7194 -265.478 -5.59974 -10.7885 -267.373 -5.47632 -10.8664 -269.276 
-5.35671 -10.953 -271.186 -5.24101 -11.0485 -273.103 -5.12926 -11.1529 -275.028 
-5.02152 -11.2662 -276.959 -4.9178 -11.3884 -278.897 -4.8181 -11.5197 -280.84 
-4.72241 -11.6599 -282.788 -4.63069 -11.809 -284.741 -4.54291 -11.9669 -286.697 
-4.45901 -12.1336 -288.655 -4.37892 -12.3089 -290.615 -4.30256 -12.4926 -292.575 
-4.22983 -12.6846 -294.535 -4.16064 -12.8847 -296.493 -4.09484 -13.0925 -298.447 
-4.03231 -13.3078 -300.398 -3.9729 -13.5304 -302.342 -3.91644 -13.7598 -304.281 
-3.86274 -13.9957 -306.212 -3.81162 -14.2377 -308.135 -3.76286 -14.4854 -310.049 
-3.71623 -14.7382 -311.954 -3.67152 -14.9958 -313.85 -3.62849 -15.2575 -315.737 
-3.58688 -15.5228 -317.617 -3.54645 -15.7912 -319.489 -3.50695 -16.0619 -321.355 
-3.46812 -16.3344 -323.216 -3.42971 -16.6081 -325.074 
LINES 1 273
272 271 270 269 268 267 266 265 264 263 262 261 260 259 258 257 256 255 254 253 252 251 250 249 248 247 246 245 244 243 242 241 240 239 238 237 236 235 234 233 232 231 230 229 228 227 226 225 224 223 222 221 220 219 218 217 216 215 214 213 212 211 210 209 208 207 206 205 204 203 202 201 200 199 198 197 196 195 194 193 192 191 190 189 188 187 186 185 184 183 182 181 180 179 178 177 176 175 174 173 172 171 170 169 168 167 166 165 164 163 162 161 160 159 158 157 156 155 154 153 152 151 150 149 148 147 146 145 144 143 142 141 140 139 138 137 136 135 134 133 132 131 130 129 128 127 126 125 124 123 122 121 120 119 118 117 116 115 114 113 112 111 110 109 108 107 106 105 104 103 102 101 100 99 98 97 96 95 94 93 92 91 90 89 88 87 86 85 84 83 82 81 80 79 78 77 76 75 74 73 72 71 70 69 68 67 66 65 64 63 62 61 60 59 58 57 56 55 54 53 52 51 50 49 48 47 46 45 44 43 42 41 40 39 38 37 36 35 34 33 32 31 30 29 28 27 26 25 24 23 22 21 20 19 18 17 16 15 14 13 12 11 10 9 8 7 6 5 4 3 2 1 0 

CELL_DATA 1
FIELD FieldData 2
LengthArray 1 1 double
629.52664383 
TortuosityArray 1 1 double
0.015383766536 
POINT_DATA 272
FIELD FieldData 8
RadiusArray 1 272 double
94.23828103 94.274325991 95.087132282 95.624946144 96.324621359 96.352488941 96.420438196 97.705232254 97.958273424 
99.701733088 99.819408831 100.37714347 100.94961132 102.17910474 102.77252104 102.81537822 102.90741999 102.90968359 
102.63430843 102.75547242 102.74976468 102.69722899 102.63369992 102.5704337 102.54927977 102.43647904 102.01226446 
101.43556076 101.0668174 101.05294069 100.72608841 99.6720216 99.538715061 99.449030553 98.829250731 98.743969041 
98.480344738 98.226723385 98.018988514 97.619994525 97.570152259 96.950044679 96.545430769 96.466711639 95.976201167 
95.863883522 95.271919692 95.207134615 94.357131398 93.288102489 92.510213906 90.375596428 90.297031612 88.4879322 
87.523199938 86.459453506 85.598520224 84.85980722 84.647659386 83.320086275 82.247155637 81.942946136 81.62839987 
80.484626665 79.301566428 78.983032214 77.791649961 77.279669815 75.585695171 75.367562756 75.367433989 75.359514846 
73.851110392 72.862050124 72.066195934 72.019783012 71.864638484 71.232757883 69.250266362 69.049366357 68.436437966 
66.037815172 65.602057834 65.242241131 64.05578548 63.636878219 63.483643325 62.99866671 62.897844547 62.807785522 
61.513118082 61.401181492 59.08211653 59.044681176 59.007575564 58.770625477 58.49526305 58.488508972 58.339834367 
58.331561546 58.332879167 58.344082003 58.388804229 58.391059921 58.4762658 58.536890935 58.686911567 58.87184721 
59.191981713 59.32432342 60.198616939 60.437480009 60.538279615 61.019035509 61.760266215 62.27827548 62.571251589 
62.697400476 63.134848184 63.21780666 63.746158243 63.832301214 63.930399003 64.69212786 64.859874477 65.05142817 
65.216558434 65.29933037 65.695865565 65.824924275 66.048676614 66.151184315 66.473420287 66.666576545 66.915326353 
66.921702023 66.939236601 66.936251303 66.914825027 66.909500548 66.919144404 66.928054868 66.936672992 66.95110387 
66.950615284 66.955337091 66.965553254 66.908947932 66.753712111 66.590863046 66.525918308 66.451293647 66.258742101 
66.225360088 66.171049409 66.022561907 65.886933196 65.788164606 65.665989858 65.572951646 65.475591745 65.136595765 
65.11181678 64.993607887 64.699635363 64.438185393 64.435664397 64.138913321 63.824698984 63.708742163 63.708684189 
63.694248631 63.400409766 63.293789782 62.923016935 62.703009461 61.984351739 61.846141113 60.94953779 60.548699195 
60.258766113 60.255471448 60.020913412 59.577656863 59.342011094 59.206056755 58.648760559 58.432148055 57.421926935 
56.942444387 55.740415741 55.483336066 54.501496861 54.342454191 53.493497172 53.347929526 52.858956454 52.147033319 
52.057724523 51.168698922 51.004890253 49.819952345 49.315443755 49.258630421 48.485689411 47.737368533 47.276502216 
46.794904367 46.400480759 46.372668362 45.754445717 45.106693358 44.870591839 44.742156329 44.1646052 43.909694978 
43.892981338 43.627432989 43.580510865 43.392031186 43.387109903 43.019640789 42.849257037 42.765533471 42.52677306 
42.229953297 42.224720064 42.098322184 42.056991006 41.893767532 41.758294691 41.75416113 41.420827811 41.230267904 
41.055686458 40.74942089 40.382956737 40.230399907 39.957917553 39.577155398 39.366219196 39.10147541 38.810285724 
38.764341438 38.376438596 37.970566226 37.897805797 37.734938238 37.645955719 37.297218955 37.251923114 36.944306495 
36.904447912 36.760782467 36.725474239 36.610137642 36.48509431 36.452407325 36.563600625 36.617192497 36.913309033 
37.159100923 37.156352885 37.162664587 37.194539328 37.308250247 37.333630688 37.346610225 37.427861557 37.510866368 
37.303555451 36.870160495 
EdgeArray 2 272 int
25925 25925 29221 29221 25941 25941 29207 29207 29208 
29208 29212 29211 27435 29212 27435 27435 29175 29175 
27442 27442 23700 25919 25919 25919 24999 24999 25403 
25403 29874 29873 24139 22138 6706 27431 22134 6706 
22841 22841 26971 32663 17085 32664 25032 25032 31438 
21717 20547 31438 24144 20547 24144 24144 34586 34586 
43357 43357 43359 43359 43361 43361 38854 38854 40109 
41652 41653 40110 40110 26855 38027 38027 30186 35792 
29533 29533 35672 24167 38100 38100 33764 39381 40837 
39382 20464 20464 41637 41637 41633 41639 36400 36400 
36403 36403 36595 36595 38628 38628 22064 22064 22450 
22450 21276 21276 22461 22461 22462 22462 20489 20489 
22068 22068 22076 22076 11830 11830 23263 23263 21628 
21628 21651 21651 21633 21633 12274 12274 7479 7479 
22475 22475 17329 17329 18638 18638 18883 18883 18030 
18030 19226 19226 6995 6995 18994 6995 18994 18994 
24691 24691 15775 15775 24014 24014 28448 15577 28446 
28446 29066 29066 10114 10114 26550 26550 31644 31644 
32395 32395 32396 32396 31032 31032 31027 31027 30641 
30641 28410 28410 31036 31036 21178 29342 29733 29733 
32323 32323 32330 31016 31016 25780 30993 31038 32329 
31038 29683 32329 30017 30017 31556 29051 29051 31287 
31287 29011 29011 28386 28737 28386 30001 30025 31560 
30001 31001 31560 31001 26003 30304 26003 30991 30991 
28745 28745 30974 30974 30975 30984 28131 30975 28131 
30990 30298 30359 26483 26909 27071 27071 19911 19911 
19136 19136 27548 27548 25888 27300 25888 25888 20068 
20068 32365 32365 31773 31773 27351 25465 31919 25465 
31919 31919 20038 28678 20038 20038 34800 33129 34800 
34691 34691 34691 35293 37317 23590 23590 29101 29101 
35207 39081 39081 39081 42644 42644 29485 29485 40280 
40280 44382 44382 44383 38333 44383 42137 40610 42137 
40610 40610 38329 45880 43285 43285 41165 48301 45156 
45156 49540 49540 47338 47338 49802 49802 51705 51705 
51704 51704 50466 49224 47876 51345 51296 51296 53775 
53771 53155 53155 52740 52740 54457 54457 55025 55025 
55026 55026 54476 54476 55982 55982 55707 56566 56002 
55707 56577 56577 57533 57533 57546 57546 57329 57546 
57329 57329 57755 57755 57754 57754 57998 57998 58034 
58034 57749 58287 58582 57749 59033 58743 59302 58743 
59286 59302 59744 59286 59742 59316 60177 60177 60183 
60183 60337 60184 60704 60704 60918 60918 60106 60106 
61379 61379 59174 59174 61858 61858 62327 62327 62927 
62927 62256 62256 63202 63202 63876 63876 63879 63879 
62044 60161 63085 63085 62330 62330 60637 60637 64961 
64961 64965 64971 64970 64970 64714 64714 62092 62092 
65976 65976 66217 66217 62815 62815 66736 66736 64717 
64717 64936 64936 63896 63896 65656 65656 66434 66434 
65513 67260 66216 65774 65782 66430 65698 65698 65447 
65447 67550 67550 68622 68622 67804 67804 68856 68856 
65624 65624 68849 68842 69149 69149 69146 69147 69154 
69154 67495 67495 57751 57751 67539 67539 68049 68049 
65464 65464 66489 66489 68571 68571 68804 68804 68803 
68803 68573 68573 68305 68305 58138 58138 67897 68833 
68832 68833 65843 65843 69263 69124 69162 69480 69127 
69507 68083 69706 69710 67083 69160 69518 68930 66798 
60492 68930 69161 69161 69165 69165 57897 57897 68944 
68944 64992 64992 67914 60545 67914 64810 69349 64107 
70834 70933 69211 70834 62407 62407 67597 71112 71376 
70646 71376 66387 71529 66387 71726 71728 73078 73078 
74442 74442 74826 74826 
EdgePCoordArray 1 272 double
0 0 0 0 0 0.876 0.984 0 0 
0 0.08 0 0 0 0.168 0.152 0.22 0.772 
0 0.916 0.808 0 0.564 0.256 0.464 0 0 
0 0 0 0 0.288 0.84 0.2 0 0.276 
0 0.872 0 0.964 0.736 0 0 0.908 0 
0 0 0 0 0 0 0 0 0 
0 0 0 0 0 0 0 0 0 
0 0 0 0 0 0 0 0.984 0 
0 0 0 0.952 0 0 0 0 0 
0 0 0 0 0 0 0 0.516 0 
0 0.028 0.976 0.988 0.88 0.896 0 0.064 0.94 
0.116 0.508 0.56 0.016 0.928 0.4 0.5 0.528 0 
0 0 0.824 0.348 0.192 0.672 0.74 0 0 
0 0 0.928 0 0 0 0 0.38 0.94 
0 0.98 0 0.884 0.224 0 0.664 0 0 
0.08 0 0 0 0 0 0.372 0.284 0.1 
0 0.572 0 0.072 0 0 0 0 0 
0 0.136 0.416 0 0.448 0 0 0 0 
0 0 0 0.528 0.296 0 0 0 0.996 
0 0 0 0 0 0.324 0.796 0.56 0.272 
0.008 0.988 0.52 0 0 0.852 0 0 0 
0 0 0 0 0 0 0 0 0 
0.532 0 0 0 0 0.032 0 0 0 
0 0 0 0 0 0 0 0 0 
0.592 0.004 0.992 0 0 0 0 0 0 
0 0.008 0 0.084 0 0 0 0 0 
0 0 0 0 0 0 0 0 0.848 
0.768 0 0.756 0.148 0.252 0.388 0.2 0.844 0.092 
0.836 0 0 0 0 0 0.284 0.288 0.772 
0.076 0.876 0 0.308 0.116 0.556 0.756 0.604 0 
0 0 
CurvatureArray 1 272 double
0 0.00021007541692 0.00085017470444 0.0014834083515 0.0021213058413 0.0027504701333 0.0033760948284 0.0039843730118 0.0045845093943 
0.0051589802689 0.0057096240576 0.0062252891242 0.0067057895898 0.0071396212409 0.0075172819595 0.0078380037181 0.0080896986159 0.0082743609338 
0.0083794073541 0.0084063018173 0.0083582192468 0.008234829633 0.008042927958 0.0077857911772 0.0074770800647 0.0071250938915 0.0067410846761 
0.0063367568254 0.0059245809845 0.0055130772269 0.0051118794734 0.0047288660378 0.0043690667314 0.0040362352408 0.0037341450939 0.0034621217504 
0.0032215170893 0.0030089908985 0.0028242042633 0.0026638628733 0.0025243739648 0.0024036556749 0.0022980229899 0.0022045838318 0.0021211822745 
0.0020455141358 0.0019757330971 0.0019110823143 0.001849675131 0.0017924350505 0.0017382892924 0.0016880486548 0.0016409970864 0.0015986134694 
0.0015610220721 0.0015277727148 0.0014998376841 0.0014767000533 0.0014578642321 0.0014431596445 0.0014316830373 0.0014228529349 0.0014158376478 
0.0014099343209 0.0014054248313 0.0014011928157 0.0013976520158 0.0013941558685 0.0013908486189 0.0013867990545 0.0013815240583 0.0013742988606 
0.0013634104251 0.0013486268997 0.0013293621652 0.0013050541439 0.0012776131905 0.0012496939557 0.0012250241309 0.001210367329 0.0012119962149 
0.001237317746 0.0012911480922 0.0013753760793 0.0014880521972 0.0016247502986 0.0017791426904 0.0019448330835 0.0021149804614 0.0022836662907 
0.0024454824275 0.0025952115806 0.0027292651258 0.0028436406935 0.0029357973506 0.0030038485493 0.0030461634204 0.0030623589022 0.0030525328327 
0.0030175943042 0.0029591174345 0.0028793221201 0.0027809704471 0.0026671796468 0.0025415685286 0.0024081198895 0.0022708315407 0.002133949921 
0.0020017346807 0.0018783368007 0.0017678530912 0.0016739965766 0.0015998741826 0.0015473824217 0.0015174784905 0.0015088851127 0.0015204481238 
0.0015486266348 0.0015896787954 0.0016412096966 0.0016991493136 0.0017610281576 0.0018248719917 0.0018890083374 0.0019520215568 0.0020125724417 
0.0020708660709 0.0021258482456 0.0021775141635 0.0022262108705 0.0022711234522 0.0023130357221 0.0023520478433 0.0023881276642 0.0024220116901 
0.0024535050642 0.0024838201143 0.0025128220032 0.0025423658501 0.0025719890561 0.0026031696773 0.0026379366229 0.0026761773262 0.002719940551 
0.0027703014572 0.0028275293545 0.0028924029864 0.0029663080873 0.0030460056451 0.0031338798976 0.0032261874201 0.0033208443301 0.0034168049591 
0.0035100106974 0.0035987247354 0.0036792987518 0.0037492793257 0.0038078571915 0.0038524804926 0.0038822358315 0.0038986054389 0.0039000819776 
0.0038897580087 0.0038676040249 0.0038355530303 0.0037954486566 0.0037480801197 0.0036925236362 0.0036299711983 0.003559314666 0.003478629604 
0.0033886929715 0.0032874573931 0.0031748688305 0.003051143886 0.0029183273874 0.0027757237998 0.00262625405 0.0024719928346 0.0023139270235 
0.0021554642055 0.0019987356563 0.0018442424277 0.0016956086169 0.0015528960811 0.0014187690088 0.0012932384652 0.0011787806122 0.0010747486912 
0.00098318261857 0.00090369905144 0.00083658875645 0.00078217278045 0.00073927429856 0.00070750694299 0.00068431482063 0.00066866535144 0.00065764603271 
0.00064970934801 0.00064137703757 0.00063156827819 0.00061778677113 0.00059815744679 0.00057094484008 0.00053425796166 0.00048709975583 0.00042844553811 
0.00035695578228 0.00027565099712 0.00019099439917 0.00014130592325 0.00019802157854 0.00032876918371 0.00049140549687 0.00067229087529 0.00086640392875 
0.0010685644082 0.0012739952104 0.0014776834987 0.0016740331313 0.0018587184 0.0020262052105 0.002173263771 0.0022968215471 0.0023963473855 
0.0024720076234 0.0025246917695 0.0025586047938 0.0025761077134 0.0025821680947 0.0025811667209 0.0025757607368 0.0025700585065 0.002565250866 
0.0025624338039 0.0025630989185 0.0025657391299 0.0025704876843 0.002576354513 0.0025819760367 0.0025870343813 0.0025900451824 0.0025901567032 
0.0025873482688 0.0025807688518 0.0025702681866 0.0025555119826 0.0025375671316 0.0025154764706 0.0024909488392 0.0024622308358 0.0024327418685 
0.0024008523466 0.0023665887108 0.0023311100389 0.002294398842 0.0022536728652 0.0022120514876 0.0021631018254 0.0021090848374 0.0020453187962 
0.0019728008085 0.0018847051492 0.0017805682228 0.0016574559138 0.0015112092114 0.0013462077045 0.001152129798 0.0009386994916 0.00070273518286 
0.00044794031812 0 
TorsionArray 1 272 double
0 0 -7.3856985837e-05 -0.0011034415727 -0.0017086443869 -0.0023870135851 -0.0030081022153 -0.0037962530537 -0.0045423224913 
-0.005234199688 -0.0059848021915 -0.0067966355452 -0.0076337839084 -0.0083924125117 -0.0092313550433 -0.010094190358 -0.011011567081 -0.011901326446 
-0.012781114911 -0.013767252737 -0.014755154603 -0.015785598215 -0.016811076355 -0.017884836155 -0.019011616158 -0.020130643899 -0.021270069878 
-0.022430745151 -0.023599643036 -0.024692918944 -0.025743124754 -0.02671564316 -0.027519368672 -0.028124533741 -0.028439291574 -0.028502655611 
-0.028193788453 -0.027472503125 -0.026366372094 -0.024886859862 -0.023082773734 -0.020996903375 -0.01869236356 -0.016241994504 -0.013722461425 
-0.011173940278 -0.0086878019177 -0.0062099307658 -0.0038509042973 -0.0016491349651 0.00040929398143 0.002289923593 0.0039126095707 0.0052180373597 
0.0062056140489 0.0068271680568 0.0070321314042 0.0068178567554 0.0061984536001 0.0052118224202 0.0039204948018 0.0024164645657 0.00078510364942 
-0.00093573035756 -0.0025728357739 -0.0040193686066 -0.0051730359308 -0.005939100093 -0.0062129766382 -0.0058816145338 -0.0049374631896 -0.0032696829461 
-0.00088339661705 0.0022225079443 0.0061471083723 0.010905663242 0.016492396618 0.022859966256 0.029665453693 0.036312232975 0.041789313515 
0.044921351468 0.045070060921 0.042438603389 0.037917420555 0.032529386278 0.027183898373 0.022295637514 0.018015783177 0.014368694738 
0.011278732481 0.0086521509495 0.0064376331539 0.0045221328028 0.0028615034514 0.0014728659845 0.00028281046619 -0.00068961785126 -0.0014263564171 
-0.0019020494774 -0.0020682650388 -0.0018943293982 -0.0012630288788 -0.00012967576444 0.0015823424467 0.0039891901011 0.0071280739226 0.011091731835 
0.015813445402 0.02111215003 0.026801379373 0.032437693516 0.037421186181 0.041180795657 0.043231849938 0.043631781995 0.042559282568 
0.0403350421 0.037715525518 0.03501971928 0.032522519195 0.030460185305 0.028794523594 0.027623276603 0.02680746183 0.026290880053 
0.026041667678 0.026018039043 0.026206135128 0.026409634361 0.026762221784 0.02724126514 0.0276924557 0.028285279797 0.029003400515 
0.029734893003 0.030628487254 0.03163791522 0.03258405749 0.033638858379 0.034695696261 0.035639051977 0.036441427031 0.036986809024 
0.037214650011 0.036976592344 0.036376509215 0.035164822125 0.033422208122 0.031198612866 0.028463327528 0.025384884105 0.021850869104 
0.018019200692 0.014023224112 0.0098210115631 0.0054096274437 0.00099287666249 -0.0034063010962 -0.0077661322819 -0.011914248466 -0.015891298844 
-0.019418623753 -0.022443854594 -0.024894899671 -0.026567821927 -0.027559278092 -0.027730421698 -0.027257528767 -0.026201102347 -0.024655966963 
-0.022849297631 -0.020787867715 -0.018748426632 -0.016829740077 -0.014992531733 -0.013280433049 -0.011959950408 -0.010886964138 -0.010019945234 
-0.0096377526237 -0.0094758642805 -0.0097289026039 -0.010456914546 -0.011467433209 -0.012878621341 -0.01472121739 -0.0169904799 -0.019497216817 
-0.022059022274 -0.024684981325 -0.026891154838 -0.028288469018 -0.028782758175 -0.028121832064 -0.026328357205 -0.023714758856 -0.020431924324 
-0.016767662769 -0.0133013183 -0.0095580131002 -0.0059331164551 -0.0024225850036 0.0013696603808 0.0060431784886 0.012160968978 0.021374149499 
0.038768414621 0.078353015021 0.19018766996 0.40165678824 0.2381233956 0.10064527137 0.053290336928 0.034234434215 0.025358894783 
0.020822779362 0.018434959266 0.017059160836 0.01675567384 0.017002574437 0.017420445115 0.018330490519 0.01940103491 0.020684748716 
0.021987682714 0.023361478042 0.024495742464 0.025357493527 0.02602308203 0.026090538982 0.025509151991 0.024476484888 0.022848330147 
0.020697875991 0.018279725646 0.015647461638 0.013049027731 0.010403373239 0.0078915239671 0.0056473977701 0.0038111487984 0.0021963937737 
0.00077872575155 -0.0003676381033 -0.0012436699152 -0.0019409654672 -0.0026196280844 -0.0031908176728 -0.0034494435272 -0.0039033094489 -0.0044135388705 
-0.0046434652516 -0.0049942991454 -0.0054722869124 -0.0058062936592 -0.0062115956763 -0.0065242012511 -0.0067172184065 -0.0069358793307 -0.0070975404733 
-0.0071527632151 -0.0069613818987 -0.0067700899892 -0.0063302486711 -0.0061004711069 -0.0055311962299 -0.0047348995737 -0.0043079671676 -0.003253277037 
0 0 
TangentArray 3 272 double
-0.50932884895 0.021898864642 0.86029330077 -0.50932884895 0.021898864642 0.86029330077 -0.50840369105 0.021313713061 0.86085504736 
-0.50636567622 0.020028545017 0.862086225 -0.50321143175 0.018053451697 0.86397472639 -0.4989345293 0.015408326288 0.86650269414 
-0.49353253483 0.012123135941 0.86964283855 -0.48700712405 0.0082391822125 0.87335913403 -0.47936016241 0.0038077441073 0.87761001349 
-0.47059807932 -0.0011094446063 0.88234699346 -0.46074016835 -0.0064402815868 0.88751170136 -0.44981234303 -0.01210311813 0.89304108001 
-0.43784975104 -0.018007411929 0.89886780376 -0.42489822953 -0.024055160593 0.90492145725 -0.41102564359 -0.030142547712 0.91112531911 
-0.39631118866 -0.036161993284 0.91740381075 -0.38084969434 -0.042004155867 0.92368239196 -0.36474972485 -0.04756054072 0.92989011888 
-0.34813643172 -0.052727829612 0.93595982867 -0.33115317654 -0.05741020295 0.94182888163 -0.31394568222 -0.061521033799 0.94744565597 
-0.29666561451 -0.064987456096 0.95276762315 -0.27946688245 -0.067750959314 0.95776201069 -0.2625027375 -0.069770683194 0.96240550942 
-0.24591771413 -0.071022728959 0.96668518653 -0.22984183564 -0.071499716168 0.97059802245 -0.21439201459 -0.071211638771 0.97414832884 
-0.1996667758 -0.070183276993 0.97734716773 -0.18574309506 -0.06845125617 0.98021116509 -0.17267807498 -0.066061618345 0.98276047184 
-0.16050958648 -0.063069345283 0.98501722337 -0.14925546085 -0.059533018649 0.98700487694 -0.13891691161 -0.055512782286 0.98874689515 
-0.12948129142 -0.051069867096 0.99026585514 -0.12092222311 -0.046263266204 0.99158334302 -0.11320342013 -0.041149703568 0.99271933978 
-0.10628161055 -0.035780714911 0.99369208495 -0.10010811295 -0.030204267566 0.99451800785 -0.094630104259 -0.024464621762 0.99521184963 
-0.089791263464 -0.018600354894 0.99578690281 -0.085535128309 -0.012647174424 0.99625488245 -0.081804132556 -0.0066364587961 0.99662632983 
-0.078540646367 -0.00059595224968 0.99691073407 -0.075687656442 0.0054486885451 0.99711668849 -0.07318885706 0.011474647402 0.99725208632 
-0.070989086072 0.017461889625 0.99732423618 -0.069034957167 0.023391922804 0.99733995841 -0.067275510668 0.029249131003 0.99730561715 
-0.065661578268 0.035018735192 0.99722727867 -0.064147272731 0.040688703877 0.99711060408 -0.062690674641 0.046249944919 0.99696079256 
-0.061253827949 0.051695162243 0.99678261359 -0.059803327748 0.057018749556 0.99658036514 -0.058311402966 0.062217780438 0.99635773098 
-0.056756158758 0.067293304702 0.99611763843 -0.055121987225 0.072247223514 0.99586239271 -0.053399455173 0.07708410262 0.9955935613 
-0.051585458409 0.08181162125 0.99531191046 -0.049683552516 0.08643870544 0.99501753493 -0.04770312736 0.090976443733 0.99470985635 
-0.045658788337 0.095437522825 0.99438772835 -0.043569606389 0.099835370847 0.99404959038 -0.041457719255 0.10418360695 0.99369363164 
-0.039347297563 0.10849501159 0.99331798667 -0.037263304033 0.1127825782 0.99292070994 -0.035229420274 0.11705726479 0.99250011824 
-0.033266557249 0.12132708251 0.9920549759 -0.031391131362 0.1255971164 0.99158457089 -0.029613948954 0.12986860973 0.99108887504 
-0.027938897711 0.13413844101 0.99056867336 -0.026361688805 0.13839816089 0.99002576251 -0.024869724317 0.14263507869 0.9894628498 
-0.023441551306 0.14683052784 0.98888386061 -0.022047442605 0.15096098827 0.98829382792 -0.020650254632 0.15499973734 0.98769866276 
-0.019206461052 0.15891513871 0.98710541005 -0.017667705823 0.16267277471 0.98652188042 -0.015982321928 0.16623771359 0.98595617954 
-0.014097582121 0.16957371889 0.98541666925 -0.011961881895 0.17264606862 0.9849112896 -0.0095261984575 0.17542226925 0.98444719462 
-0.0067463913363 0.17787320138 0.98403028939 -0.0035847404582 0.1799751369 0.98366462767 -1.1274047162e-05 0.18171013477 0.98335213774 
0.0039950069023 0.18306666575 0.98309238417 0.0084455251144 0.18404032974 0.98288240911 0.013341338573 0.18463499735 0.98271660535 
0.018673605937 0.18486179838 0.98258710145 0.024423509287 0.18473921189 0.9824840537 0.03056261648 0.18429285112 0.98239608687 
0.03705421282 0.18355433456 0.98231094444 0.043853555143 0.18256035655 0.98221615845 0.050909757322 0.18135158189 0.98209968962 
0.05816685294 0.17997060534 0.9819507108 0.065564882444 0.17846134596 0.98176004919 0.073042325282 0.17686724524 0.98152065504 
0.080536706467 0.1752288127 0.98122816007 0.087986339355 0.17358318946 0.98088086964 0.095332072874 0.17196236503 0.98047985237 
0.10251838614 0.17039196348 0.98002885635 0.10949479902 0.16889043296 0.9795340273 0.11621690561 0.16746841098 0.97900355575 
0.12264737899 0.16612897012 0.97844712975 0.12875632956 0.16486712611 0.97787557405 0.13452179852 0.16367099404 0.97730020538 
0.13993008767 0.16252275181 0.97673226921 0.14497532207 0.16139946568 0.97618254874 0.14965891603 0.1602748952 0.9756608872 
0.15398871669 0.15912033562 0.975175981 0.15797794571 0.15790660664 0.97473507798 0.16164411491 0.15660573552 0.97434379134 
0.16500763064 0.15519132639 0.97400622896 0.16809048634 0.15363957158 0.97372504869 0.17091494934 0.15193019409 0.97350156457 
0.1735025335 0.1500466895 0.973335945 0.1758730069 0.14797698386 0.97322736177 0.17804354737 0.14571231326 0.97317440215 
0.18002832971 0.14324714989 0.97317524349 0.18183815755 0.14058060616 0.97322760834 0.18348032356 0.13771391954 0.97332925941 
0.184958673 0.13465089352 0.97347800497 0.18627371058 0.13139855032 0.97367167245 0.18742295042 0.12796550899 0.97390834588 
0.18840176568 0.12436210569 0.97418624572 0.18920300766 0.12060032237 0.97450386563 0.18981805983 0.11669416085 0.97485977299 
0.19023764462 0.11265859007 0.97525262402 0.19045185758 0.1085095139 0.97568118529 0.1904505283 0.10426434033 0.97614422275 
0.19022328083 0.099940837623 0.97664063627 0.18976113354 0.095558027331 0.97716906194 0.18905554389 0.091135956557 0.97772810062 
0.18809839338 0.086694934783 0.97831640214 0.18688352158 0.082256140761 0.97893231465 0.18540527029 0.077841433837 0.97957419164 
0.18365866723 0.073473604796 0.98024033959 0.18164040148 0.069175656833 0.98092889296 0.17934756472 0.064971437725 0.98163800014 
0.17677784971 0.060885010086 0.98236582157 0.17393105039 0.056940231862 0.98311026834 0.17080806289 0.053161857152 0.98386910847 
0.16741006524 0.049573189472 0.9846402231 0.16373996623 0.046196760742 0.98542127172 0.15980229294 0.043053919967 0.98620970749 
0.15560251087 0.040163302059 0.98700292187 0.151147947 0.037541238421 0.98779803277 0.1464480357 0.035200193436 0.98859188709 
0.14151201828 0.033148766727 0.98938137639 0.13635210212 0.031390626101 0.99016298297 0.13098147931 0.029923507544 0.99093311367 
0.12541323656 0.028739495835 0.99168823804 0.11966353541 0.027824465401 0.9924245248 0.11374799694 0.027158412304 0.99313836591 
0.10768296493 0.026714148067 0.99382630945 0.10148550069 0.026458393649 0.99448511631 0.095172877231 0.026353240116 0.99511186817 
0.088763514319 0.026355795247 0.99570397739 0.082275079584 0.026418542452 0.99625944005 0.075725482193 0.026492216397 0.99677671212 
0.069134013729 0.026526822217 0.99725463942 0.062519151219 0.026472600642 0.99769261656 0.055900181388 0.026282602934 0.99809037392 
0.049296859755 0.025912771906 0.99844796954 0.042728734078 0.025325252154 0.99876568167 0.036216383983 0.024489181905 0.99904386966 
0.029779528139 0.023381238721 0.99928299164 0.02343708882 0.021987656498 0.99948348952 0.017208752242 0.020303343389 0.9996457538 
0.011112896306 0.018333295942 0.99977017049 0.0051662560206 0.016090377322 0.99985719458 -0.00061466286605 0.013595675234 0.99990738561 
-0.0062154291418 0.010877000998 0.99992152657 -0.011623265264 0.0079666088 0.9999007115 -0.01682643097 0.0049016047991 0.99984641095 
-0.021814526438 0.0017202951713 0.99976055484 -0.026579230515 -0.0015398411329 0.99964552387 -0.031113313341 -0.0048414089751 0.99950413831 
-0.035410807985 -0.0081481852837 0.99933962283 -0.039466948653 -0.011429294628 0.99915550901 -0.043277663474 -0.014656792404 0.99895556572 
-0.046840584756 -0.017806545711 0.99874365407 -0.050154365809 -0.020861290105 0.99852358318 -0.053218475061 -0.023806521552 0.99829907515 
-0.056033237536 -0.026633193027 0.99807361919 -0.05859989113 -0.029337309565 0.99785037707 -0.060921271287 -0.031918001243 0.99763211651 
-0.063001524217 -0.034377959889 0.99742115669 -0.064845985758 -0.036723315488 0.99721933206 -0.066460936318 -0.038962793217 0.99702800597 
-0.067854179714 -0.041106467122 0.99684806699 -0.069035609719 -0.043165855091 0.99667988519 -0.070015070913 -0.045152614979 0.99652352266 
-0.070804517741 -0.047078731448 0.99637859939 -0.07141735417 -0.048955153186 0.99624442508 -0.071867983716 -0.050791962596 0.99612005775 
-0.072171714372 -0.052597071996 0.99600441348 -0.072345222356 -0.054376176878 0.99589627984 -0.072405576328 -0.056132619474 0.9957944374 
-0.072370999715 -0.057866971806 0.99569767097 -0.072260499985 -0.059575916553 0.99560490673 -0.072092350342 -0.061252573061 0.99551535162 
-0.071886337629 -0.062887433025 0.99542831245 -0.07166202922 -0.064466818341 0.99534344972 -0.071438170333 -0.065973511318 0.99526081186 
-0.071233349525 -0.067386600201 0.99518081575 -0.071066228061 -0.068682317934 0.99510418069 -0.070954170104 -0.069834655364 0.99503197268 
-0.070912791798 -0.070814150681 0.99496569389 -0.070956801505 -0.07159041044 0.99490700342 -0.071098984089 -0.072132152914 0.99485772198 
-0.071348747192 -0.072407120955 0.99481986566 -0.071713731965 -0.072385068275 0.99479522644 -0.072197494225 -0.072036538496 0.99478553415 
-0.072799960131 -0.071335623582 0.99479213638 -0.073517249875 -0.070261833651 0.99481580642 -0.074340858343 -0.068799579161 0.9948568011 
-0.075257620165 -0.06693960902 0.99491475984 -0.076249017564 -0.064680484069 0.99498870461 -0.077292366062 -0.062029100181 0.99507702259 
-0.078362093158 -0.059001514437 0.99517747344 -0.079428434512 -0.055621238528 0.99528759744 -0.080458715648 -0.05191922222 0.99540483696 
-0.081420987115 -0.047933673608 0.99552648674 -0.082282208069 -0.04370706048 0.99565020519 -0.083011423655 -0.039284497629 0.9957739863 
-0.083580182738 -0.034711200884 0.99589632271 -0.083964207798 -0.030031813338 0.99601611533 -0.084143434233 -0.025287115771 0.99613274429 
-0.084103987135 -0.02051299218 0.99624582132 -0.083837935906 -0.015739683197 0.99635508875 -0.083341241063 -0.010989659877 0.99646046831 
-0.082616122009 -0.0062791709198 0.99656166312 -0.081670318288 -0.0016175530569 0.99665808713 -0.080514352816 0.0029917274275 0.99674895965 
-0.079162684257 0.0075492833115 0.99683312432 -0.077632571353 0.01206050782 0.99690908714 -0.075942485975 0.016532897817 0.99697512613 
-0.074112343864 0.020974980442 0.99702929279 -0.072161607309 0.025395836919 0.99706958328 -0.070110813788 0.029804019366 0.99709387433 
-0.067980187502 0.034207202921 0.99710007591 -0.065788760497 0.038611260747 0.99708625983 -0.063553534778 0.043018939745 0.99705081066 
-0.061290470023 0.0474315275 0.99699234124 -0.059014590551 0.051848807085 0.99690971472 -0.056739391698 0.056268384719 0.99680214201 
-0.05447647999 0.060686057245 0.99666921071 -0.052235754404 0.065097160063 0.99651080562 -0.050026972464 0.069496678544 0.99632701143 
-0.047858626349 0.073879409582 0.99611815801 -0.045736462406 0.07823849043 0.99588499066 -0.043667187484 0.082568860314 0.99562822381 
-0.04165697054 0.086867075526 0.99534858617 -0.039710196869 0.091126732237 0.99504724458 -0.0378315279 0.095342753873 0.99472535646 
-0.036025990254 0.099511270657 0.99438404806 -0.034298121563 0.10362526675 0.99402487039 -0.032652560164 0.10767794182 0.99364947097 
-0.031093786175 0.11165935608 0.99325996832 -0.029626218097 0.11555524071 0.99285914084 -0.028254363662 0.11934956698 0.99245018605 
-0.02698258191 0.12302289812 0.99203694831 -0.025815063243 0.1265507996 0.99162416148 -0.024755271975 0.12990209391 0.99121774727 
-0.023806303073 0.13304339705 0.99082426012 -0.022970481035 0.1359352674 0.99045139208 -0.02225027652 0.13853964204 0.99010690977 
-0.021646780297 0.14081347027 0.9897994663 -0.021160508498 0.14271352675 0.9895378124 -0.020791735175 0.14420340195 0.98932961272 
-0.020539885208 0.14524675232 0.98918223501 -0.020539885208 0.14524675232 0.98918223501 
NormalArray 3 272 double
-0.74972741897 0.47948380917 -0.45607463643 -0.74972741897 0.47948380917 -0.45607463643 -0.75269265202 0.47462174024 -0.45627620504 
-0.75381796473 0.47519801211 -0.45381199339 -0.75751683147 0.47191779779 -0.45106744746 -0.76201197178 0.4684449849 -0.44709848019 
-0.76815783043 0.46284330517 -0.44239080282 -0.77525571039 0.45645563596 -0.43660833238 -0.7838877572 0.44779968965 -0.43011094157 
-0.79342099322 0.43803708396 -0.42261878874 -0.80403386852 0.42647106756 -0.41430902332 -0.81546781707 0.41337134219 -0.40513747393 
-0.82776008566 0.39825036202 -0.39523396835 -0.8406399247 0.38134511596 -0.38457823591 -0.85390861601 0.36269907084 -0.37321503121 
-0.86750958104 0.34191224904 -0.36127986487 -0.88117478211 0.31915983665 -0.34880940647 -0.89481173955 0.2940206188 -0.33595211933 
-0.90808097672 0.26689637269 -0.32273094981 -0.92085148977 0.23740758679 -0.30930595132 -0.93290749028 0.20540581052 -0.29579058061 
-0.9439823793 0.17094056169 -0.28227042341 -0.95385009696 0.13371959938 -0.26886625165 -0.9621954155 0.093979316693 -0.25563229536 
-0.96875275239 0.051231592359 -0.24267968331 -0.97316654836 0.0056779854007 -0.23003180137 -0.97506748003 -0.042870172863 -0.21772817382 
-0.97405047564 -0.094272319015 -0.20576297231 -0.96964274695 -0.14869036862 -0.19412397472 -0.961369878 -0.20583542305 -0.18275594734 
-0.94875922588 -0.26535312847 -0.17159151646 -0.93128093866 -0.32701443503 -0.16055333245 -0.90853122203 -0.39013534659 -0.14955076041 
-0.88020862281 -0.45392765896 -0.13850076088 -0.84620115891 -0.5174259694 -0.12733406787 -0.80671774684 -0.57943748755 -0.1160115294 
-0.76197749533 -0.63911474573 -0.10451142712 -0.71304590987 -0.69493788274 -0.092880942835 -0.66085715074 -0.74610844131 -0.081178938851 
-0.60694495335 -0.79169766782 -0.069517094079 -0.55264032946 -0.83139906598 -0.058002235684 -0.49972423804 -0.86492055556 -0.046777328717 
-0.44939966486 -0.89260759636 -0.035939117151 -0.40333487032 -0.91469378947 -0.025617452619 -0.36221729488 -0.93195874005 -0.015859953668 
-0.32721750929 -0.94492496157 -0.006746749256 -0.29854758177 -0.95439320247 0.0017194463964 -0.27669829427 -0.96090972113 0.0095163960825 
-0.26194841649 -0.96493846111 0.016637108059 -0.25396494021 -0.96693708083 0.023119058378 -0.25259733191 -0.96713731951 0.028982634845 
-0.25744935994 -0.9656841951 0.03426167539 -0.26801766472 -0.96262459204 0.038992642885 -0.28324772764 -0.95807106279 0.043250010817 
-0.30218501745 -0.95208493127 0.047100943451 -0.323690595 -0.94480756407 0.050626727935 -0.34643491208 -0.93652255339 0.05392920077 
-0.36900296689 -0.92767091623 0.05712689042 -0.39007990665 -0.91880179352 0.060340124624 -0.40841338576 -0.91057204963 0.063694966604 
-0.42302844119 -0.90361355746 0.067301387126 -0.43311615047 -0.89851701575 0.071257088146 -0.43830964772 -0.89563766481 0.075616308417 
-0.43830930537 -0.89521947692 0.080417914434 -0.43294138673 -0.8973410776 0.085678154237 -0.42290544199 -0.90156063115 0.091320400173 
-0.40863443355 -0.90749869079 0.097283225329 -0.39142261134 -0.91438025787 0.10342670517 -0.37231015347 -0.92160962877 0.1096395995 
-0.35326763326 -0.92833431367 0.11574705761 -0.33610854695 -0.93393925435 0.12160803368 -0.3228882179 -0.93786644464 0.12708159097 
-0.31610549331 -0.93949574436 0.13200402808 -0.31772152936 -0.93834469683 0.13624338408 -0.33005469303 -0.93358123931 0.13960647981 
-0.35535442086 -0.92390928892 0.14182687131 -0.39539399562 -0.90738378244 0.14254213273 -0.45139540405 -0.88107562326 0.14123715976 
-0.52323382599 -0.84106447571 0.13724762667 -0.60775909938 -0.78341766804 0.1299447364 -0.69926720104 -0.70491234031 0.11884432691 
-0.78805722884 -0.60670790592 0.10426562696 -0.86495277313 -0.49420709906 0.087269946171 -0.92347365269 -0.37727658907 0.069705007931 
-0.96276387858 -0.26504391853 0.053267582605 -0.9855642769 -0.16467632799 0.039303474351 -0.99646982714 -0.079011763647 0.028372959164 
-0.99975548232 -0.0081890795208 0.02054055854 -0.99867098121 0.049124949425 0.015588798094 -0.99541678315 0.094716446924 0.013199337317 
-0.99135366202 0.13057182881 0.012996703838 -0.98729038008 0.15824847747 0.014667132617 -0.98365629371 0.17916374984 0.017906607583 
-0.98063814035 0.1945393134 0.022434197825 -0.97833966607 0.20509615119 0.028054706469 -0.97672052766 0.21171774059 0.034534173855 
-0.97569428597 0.21513920985 0.041662701569 -0.97519228341 0.21580288544 0.049286154446 -0.97505467765 0.21447085225 0.057189414416 
-0.97517387537 0.21161895905 0.065217551045 -0.97537294569 0.20807748092 0.073153118547 -0.97552651344 0.20448824372 0.080824375996 
-0.97546924738 0.20177485999 0.08801507427 -0.97501394541 0.20104906611 0.094483222194 -0.97398513049 0.20334934352 0.10001004988 
-0.97210792197 0.21005846886 0.10431504063 -0.96900812462 0.22260209172 0.10710538354 -0.96414405976 0.24237508115 0.10807660278 
-0.95662730848 0.27101640478 0.10683773219 -0.94536121223 0.30928949447 0.10311249691 -0.92881464916 0.35773346955 0.096592506253 
-0.90527395944 0.41580093551 0.087112802676 -0.87314796474 0.48169383996 0.074724000303 -0.83160695725 0.55213200919 0.059834046263 
-0.78088188465 0.62318816621 0.043127621344 -0.72279506949 0.69058755176 0.025614856533 -0.65946210456 0.75169417757 0.0080991392195 
-0.59396536655 0.80444535838 -0.0085328023286 -0.52873459689 0.84845435192 -0.023768440149 -0.46499396109 0.88451956554 -0.037493390335 
-0.40381102493 0.91349517233 -0.04963090036 -0.34519379876 0.93658877038 -0.060354921039 -0.28884600086 0.95482251073 -0.069871029623 
-0.23450961687 0.96895196078 -0.078341159715 -0.18124826462 0.97966555723 -0.086049186851 -0.12908810519 0.98725844133 -0.093043168044 
-0.077275689549 0.99203007076 -0.099522894404 -0.025779387992 0.9940825569 -0.10552389884 0.025935067478 0.99346246476 -0.11117420286 
0.077895683828 0.99013208553 -0.11649341457 0.12989059294 0.98406140423 -0.12145610963 0.18236340054 0.97510454067 -0.1261535767 
0.23506238919 0.96317336457 -0.13054785701 0.28777846293 0.94818949792 -0.13461141227 0.34082527479 0.929883452 -0.1384012202 
0.39392448221 0.90812727695 -0.14187442041 0.44685223842 0.88277885641 -0.14499850931 0.49982541615 0.85342157689 -0.14780448392 
0.55230793726 0.8199956542 -0.15021008464 0.60391224251 0.78239233182 -0.15215860955 0.65449069065 0.74029790012 -0.15362602298 
0.70330327252 0.69389521915 -0.15451191445 0.74987815051 0.64322109061 -0.15475589805 0.79341800717 0.58880331293 -0.15426770428 
0.83334721616 0.53115512661 -0.15299231614 0.86901211611 0.47122491884 -0.15088080696 0.89989924211 0.41024628132 -0.14791667492 
0.92596868103 0.34900857058 -0.14413542039 0.94692933866 0.28955613824 -0.13957818736 0.96323018745 0.23267740511 -0.1343459383 
0.97524780436 0.17990872665 -0.12854792948 0.98364989755 0.13218457517 -0.12231155766 0.9891696247 0.090237603402 -0.11576108368 
0.99250854226 0.055144313047 -0.10902246687 0.99439759956 0.027010341615 -0.10219518308 0.99542260353 0.0062329426572 -0.095367661174 
0.9960420427 -0.0069792004855 -0.088608915646 0.99655883482 -0.012276352042 -0.081974263765 0.99709564035 -0.010152411613 -0.07547988166 
0.99760623786 -0.00032447929827 -0.069149756957 0.99787574037 0.016684335259 -0.062973325662 0.99755114754 0.040615286832 -0.056939498701 
0.99616458846 0.071078627905 -0.051028828579 0.99323999418 0.10691571947 -0.045203350466 0.98827307719 0.14751495075 -0.039441909312 
0.98092229768 0.19145481255 -0.033712025647 0.97100254869 0.23742468097 -0.027992343646 0.95846722464 0.28433151909 -0.022274796231 
0.94371027831 0.33035902188 -0.016547727337 0.92691080716 0.37512551338 -0.010826115619 0.90887576361 0.41703563015 -0.0051117022238 
0.88993573094 0.45608559425 0.00057053378424 0.87084038005 0.49152671118 0.0062068239832 0.85201158084 0.52339055244 0.01177266856 
0.83375793222 0.5518608487 0.017242799607 0.81624389325 0.5772655424 0.022592040161 0.79976415094 0.59967027906 0.027800346825 
0.78431728142 0.61948991766 0.032842715862 0.76939304633 0.63766303515 0.037685459587 0.75527891184 0.65403596164 0.042316973187 
0.74135991224 0.66948044979 0.046705544356 0.72707242991 0.68467699573 0.050824139671 0.71244508366 0.69959555616 0.054663155522 
0.69606211118 0.71562093946 0.05817394941 0.67776383028 0.73271619406 0.061344676397 0.6564113569 0.75167218246 0.064133147825 
0.63134993846 0.7726407723 0.06650933908 0.60101873569 0.79630207826 0.068406721196 0.56455750741 0.82243939611 0.069772921378 
0.52093320103 0.85067794352 0.070538191613 0.46984551724 0.87991666825 0.070653003233 0.41018307091 0.90931128857 0.070020202955 
0.34441656744 0.93629882885 0.068714854093 0.27320802552 0.95963687469 0.06674161767 0.20085762638 0.9775056597 0.064334276806 
0.12929156399 0.98968942671 0.061632216712 0.063850620474 0.99621200168 0.059031737077 0.0043044594593 0.99838812039 0.056591807707 
-0.044377293303 0.9975136197 0.054747003047 -0.084771688785 0.99496923671 0.053385192503 -0.11482019252 0.99198632717 0.052720490297 
-0.13518220509 0.98941584529 0.052745203659 -0.14587593329 0.98785635856 0.053479219695 -0.14767069449 0.98751389829 0.054860429014 
-0.13837072264 0.98873621915 0.057045876845 -0.11572097281 0.99145785021 0.060166333739 -0.074277201169 0.99514657081 0.064546107468 
-0.0023880190597 0.99748601657 0.070823330305 0.13457649468 0.98761457029 0.080663669859 0.42216213184 0.90147258817 0.095531707875 
0.91353446081 0.39567529165 0.094317827011 0.92060228684 -0.38863975618 0.038086341141 0.72217606659 -0.69170537866 0.0023233563217 
0.5993740527 -0.80035472629 -0.013529858002 0.52091632107 -0.85333001808 -0.021773072261 0.46575977142 -0.88451835271 -0.026365110244 
0.42164431053 -0.90629479558 -0.029082965772 0.384145352 -0.92276714547 -0.030547402015 0.34969325178 -0.93634440234 -0.031205606406 
0.31764270713 -0.94769786444 -0.031174803139 0.28487945906 -0.95806818561 -0.030806582639 0.2519734731 -0.96726640161 -0.030084500413 
0.21789892615 -0.97553592585 -0.029149877368 0.18177653216 -0.9829375271 -0.028126680793 0.143849076 -0.98923029503 -0.027034546955 
0.10313732958 -0.99432723589 -0.026000754281 0.060518850005 -0.99785429487 -0.024985495958 0.01499713047 -0.99959685806 -0.024108244157 
-0.031533801509 -0.99923254535 -0.023236602182 -0.07977321551 -0.9965600778 -0.022455409615 -0.12818930069 -0.99151323697 -0.021656502525 
-0.17600664918 -0.98416936651 -0.020792245213 -0.22150578332 -0.97495937308 -0.019733443791 -0.26477616638 -0.96413253977 -0.018493984605 
-0.30362789911 -0.95264083719 -0.01689775703 -0.33849408659 -0.94084931453 -0.014977339465 -0.36822998429 -0.92964890846 -0.012632722401 
-0.39341265243 -0.91930865446 -0.0099036736442 -0.41381384942 -0.91033640274 -0.0067625347207 -0.42968597696 -0.90297263239 -0.0032227855156 
-0.44137570418 -0.89732213211 0.00069208412107 -0.44955007311 -0.89324153767 0.004928199322 -0.45497349325 -0.89045516568 0.0094190419302 
-0.45764824241 -0.88902056235 0.014160717976 -0.45823373272 -0.88862668727 0.01909075344 -0.45697062179 -0.88915305999 0.024180296503 
-0.45451631891 -0.89025429397 0.029363377116 -0.45079766042 -0.89195390234 0.034636764478 -0.44592228493 -0.89417829601 0.039981129963 
-0.44013523279 -0.89678477032 0.045365764433 -0.43426638736 -0.89935592913 0.050711118681 -0.42676927257 -0.90261650507 0.056137623412 
-0.41899812164 -0.90590024941 0.061524890703 -0.41056322092 -0.90937492171 0.066896138878 -0.40142658446 -0.91303735667 0.072245986772 
-0.39114910691 -0.91704986263 0.077601067036 -0.38069580912 -0.92097908686 0.082874739723 -0.36882568109 -0.92530904417 0.088152083048 
-0.35712894886 -0.92938380582 0.093298742619 -0.34444236059 -0.93363798838 0.098384789915 -0.3318653204 -0.93765243601 0.10331175328 
-0.31849190763 -0.94173902063 0.10812271639 -0.30566665231 -0.94544519045 0.11269999785 -0.29294221391 -0.94893902601 0.11704522302 
-0.28081446962 -0.9520919624 0.12109553575 -0.26972101219 -0.95481839724 0.12478943817 -0.25834815068 -0.95751131545 0.128172984 
-0.24966569278 -0.95942566421 0.13103219719 -0.2409166007 -0.96132148723 0.13349228331 -0.23428118351 -0.9626940707 0.1353973903 
-0.22959728432 -0.96363404228 0.13672790353 -0.22959728432 -0.96363404228 0.13672790353 
BinormalArray 3 272 double
-0.42248422559 -0.87727744555 -0.22779675735 -0.42248422559 -0.87727744555 -0.22779675735 -0.41830546078 -0.87993177538 -0.22525676938 
-0.41875085432 -0.87965090046 -0.2255260857 -0.4158683746 -0.88145769326 -0.22379863717 -0.41279788074 -0.88335829628 -0.22198204895 
-0.40787152955 -0.88635721041 -0.21911574783 -0.40224699455 -0.88970802417 -0.21590967346 -0.39463124408 -0.89412579598 -0.21167248797 
-0.38603183192 -0.89895621818 -0.20701966702 -0.37582979597 -0.90447827575 -0.20167055598 -0.36425416317 -0.91048209647 -0.19580923529 
-0.35085728738 -0.91709998488 -0.1892796387 -0.33583628682 -0.92411971724 -0.182254593 -0.31921465478 -0.93141870865 -0.17481760022 
-0.30060700017 -0.9390358482 -0.16687452548 -0.28015087665 -0.94676958631 -0.15856492913 -0.25742880372 -0.95461503795 -0.14980166998 
-0.23278738072 -0.96228171667 -0.14079748984 -0.20584000452 -0.96971217706 -0.13148454741 -0.17641350058 -0.97674132471 -0.12187970056 
-0.14452259591 -0.98313577644 -0.11205920021 -0.1098556059 -0.98870059991 -0.10199445867 -0.072610572264 -0.99312634634 -0.091802859406 
-0.032289048044 -0.99615816812 -0.081402220245 0.010936167106 -0.99742445883 -0.070886170579 0.057266687315 -0.99653953799 -0.060245130439 
0.10657790367 -0.99306950285 -0.049539004353 0.15903598938 -0.9865118346 -0.038755054792 0.21436007112 -0.97635426009 -0.027966385355 
0.27219956641 -0.96208626167 -0.017245902286 0.33232306674 -0.94314228989 -0.0066332752838 0.39404709143 -0.9190825547 0.0037613015275 
0.45658227682 -0.88957380195 0.013823002109 0.51896186239 -0.85447649259 0.02342026904 0.57999264013 -0.81397721093 0.032398109196 
0.63882275779 -0.76827864882 0.040662044975 0.69393363958 -0.71843513371 0.048031890609 0.74452197394 -0.66537483878 0.054436699358 
0.78965521122 -0.61062986298 0.059798142342 0.82901894313 -0.55553185514 0.064124487143 0.8623130347 -0.50186491208 0.067437676463 
0.88987151212 -0.45083403128 0.069838156829 0.91191686082 -0.4041108552 0.071428675375 0.9292158105 -0.3623827249 0.072365310753 
0.94227875455 -0.32682089808 0.072793195459 0.95189469801 -0.29763473088 0.072870095839 0.95859900877 -0.27531254272 0.072738876852 
0.96284556614 -0.26012968775 0.07253248452 0.9650839013 -0.25174811041 0.072359880885 0.96553843384 -0.25001269529 0.072313103718 
0.96434837877 -0.2545223871 0.072460739971 0.96155607917 -0.26476925237 0.072850186077 0.95727242991 -0.27969409441 0.073489512741 
0.95155817146 -0.29833855732 0.074371711966 0.94455596194 -0.31956064458 0.075465417243 0.93655290821 -0.34202857793 0.076714418422 
0.92799555544 -0.36432613111 0.078043060434 0.91943961794 -0.38513843539 0.07936733931 0.91154973423 -0.40321437117 0.080593131863 
0.90496531038 -0.41758139087 0.08163068667 0.90028444927 -0.42743428868 0.082388344212 0.89786742353 -0.43241062594 0.082795774924 
0.897962551 -0.43221628914 0.082778840307 0.90065154296 -0.42668381796 0.082266139199 0.90548874928 -0.41651653643 0.08126561268 
0.91209168173 -0.40215154515 0.079767780788 0.91967545156 -0.38488194081 0.077864982067 0.92763579257 -0.36574558966 0.075643902521 
0.93510501939 -0.34670200562 0.073323407016 0.94145425063 -0.32955032733 0.071137020744 0.94611029777 -0.31632541212 0.069379666291 
0.94843439983 -0.30949724138 0.068437174127 0.94792770825 -0.31099840827 0.068651656912 0.94373590935 -0.32311166959 0.070437081039 
0.93453429441 -0.34804827904 0.074216224857 0.91834167955 -0.38754643559 0.080351228106 0.8921808979 -0.44279879029 0.089120574147 
0.85207254475 -0.51366847436 0.10058368124 0.7940313536 -0.59703441475 0.11429836879 0.71479691738 -0.68725949971 0.12938217406 
0.6155650171 -0.77476876623 0.14426735113 0.5018404626 -0.85051060742 0.15744159793 0.38366184677 -0.90809900466 0.16780877532 
0.27031417652 -0.94669864114 0.17519112087 0.16909089036 -0.96902572929 0.17999279644 0.082884813394 -0.97962597912 0.18292908121 
0.011843648501 -0.98273040783 0.18466367676 -0.045384617174 -0.98155904709 0.18569349367 -0.090616523314 -0.97829695886 0.18634297946 
-0.12587653516 -0.97429913465 0.18680549808 -0.15275657466 -0.9703757703 0.18717984214 -0.1727092715 -0.96696016179 0.18750880792 
-0.18699052091 -0.96424324563 0.18780177938 -0.1963485268 -0.96233420222 0.18804291866 -0.20169737123 -0.96119382847 0.18821422517 
-0.20380014531 -0.96073408578 0.18829635468 -0.20312167406 -0.96088396332 0.1882646928 -0.20044992259 -0.96147345182 0.18811865932 
-0.19628013984 -0.96238453591 0.18785662551 -0.19146411101 -0.96342087563 0.18751456105 -0.18665918789 -0.96443708427 0.18713486599 
-0.18280417897 -0.96523990343 0.18680085917 -0.18102379363 -0.96560763447 0.18663408691 -0.18236461091 -0.96532939984 0.18676803391 
-0.1882173175 -0.96408598932 0.1873831545 -0.20001352558 -0.96145645832 0.18866920349 -0.21915392053 -0.95685227596 0.19080168005 
-0.2472886326 -0.94933177927 0.19395232676 -0.28519317502 -0.93776623536 0.19813970004 -0.33342844453 -0.92059839689 0.20328321136 
-0.3914735498 -0.89611675257 0.2091009937 -0.45755679438 -0.86276643803 0.21511823105 -0.52841077653 -0.81979720697 0.2207138208 
-0.60010028586 -0.7675431587 0.22529346737 -0.66830829186 -0.70794890042 0.22841274359 -0.73034938755 -0.64321363882 0.22992604667 
-0.78408860714 -0.57649624407 0.22990680011 -0.82908058143 -0.51025709782 0.22861120625 -0.86609213541 -0.44571292839 0.22632807703 
-0.89595030299 -0.38392148546 0.22333237018 -0.91986050358 -0.32486288826 0.21981983028 -0.9388506939 -0.26821409639 0.21591797761 
-0.95368234454 -0.21369643043 0.21171637003 -0.96506543222 -0.16034636955 0.20721426907 -0.97329613441 -0.10818152728 0.20246331 
-0.97869203858 -0.056430317988 0.19742723429 -0.98135799436 -0.0050552412789 0.19212217841 -0.98135415042 0.046489551952 0.18650134856 
-0.97864567943 0.098235849731 0.18056121388 -0.97320046551 0.14997271789 0.17432451871 -0.96488423734 0.20215185429 0.16772905633 
-0.95360613861 0.25452123303 0.16079264392 -0.9392859552 0.30687229159 0.15352944674 -0.92166318024 0.35952395868 0.14587496468 
-0.90060701544 0.41219713518 0.13784239363 -0.87597365347 0.46466785899 0.1294370088 -0.84735411984 0.51715599617 0.12058470559 
-0.81468124705 0.56912225631 0.1113297942 -0.77784188179 0.62017743357 0.10169541697 -0.73652327968 0.6701737357 0.091654909675 
-0.6908967918 0.71836754084 0.081300057524 -0.64099296631 0.76428560623 0.07067905815 -0.5873253724 0.80712887364 0.059932364113 
-0.53039633854 0.84632212581 0.049179095399 -0.47113930017 0.88121378296 0.038600888014 -0.41077284099 0.91129519644 0.028403134656 
-0.35008049136 0.93653306238 0.018694187416 -0.29108921627 0.95664615789 0.0097568833179 -0.23458784722 0.97209351857 0.0016532049413 
-0.18210777083 0.98326338865 -0.0054651945167 -0.1345864679 0.99083451555 -0.01155185895 -0.092762313225 0.99554989607 -0.016599929871 
-0.057716311445 0.99812096413 -0.020575917027 -0.029565303105 0.99928494177 -0.02356900509 -0.0087157220861 0.99963326133 -0.025639403802 
0.0046138592446 0.99962826231 -0.026870978497 0.010064791044 0.99957558583 -0.027337669725 0.0081200581092 0.99959746449 -0.027184069737 
-0.0015107348235 0.99964804927 -0.02648575587 -0.018312905801 0.99951029728 -0.025373275486 -0.042034245056 0.99882912616 -0.023947838817 
-0.072290610105 0.99713407168 -0.02230943261 -0.10792853768 0.99394550179 -0.020585679956 -0.14833980732 0.98875660265 -0.018859541059 
-0.19210576677 0.9812228964 -0.017233744431 -0.23791753467 0.97115707474 -0.015785527164 -0.28468304856 0.95851101272 -0.014567098523 
-0.33058647001 0.94367727901 -0.013630074261 -0.37524613971 0.92683436976 -0.012976350189 -0.4170665037 0.90878844667 -0.012613116026 
-0.45604359795 0.88986944074 -0.012514599527 -0.49142846089 0.87082605917 -0.012650789983 -0.52325246041 0.85207881319 -0.012983019054 
-0.55169904559 0.83393443643 -0.013472892819 -0.5770957037 0.81655503332 -0.014086387999 -0.59950751839 0.80023253944 -0.014785743955 
-0.6193484292 0.78496232329 -0.015545875993 -0.63755525268 0.77023063093 -0.016372994455 -0.65397309515 0.75632145238 -0.01723518203 
-0.66947101516 0.74261622274 -0.018157796585 -0.68472638422 0.72854802044 -0.019171871617 -0.69970693628 0.71414235789 -0.020270569419 
-0.71579173904 0.69798090521 -0.02156020152 -0.73294081829 0.67990168497 -0.0230533219 -0.7519393122 0.65876412419 -0.02484148644 
-0.77293470821 0.63391197563 -0.026973023466 -0.7965999482 0.60378340343 -0.029565592581 -0.82271365904 0.56751681955 -0.03266335491 
-0.85089623948 0.52407756561 -0.036308330557 -0.88004504119 0.47316314934 -0.040464300182 -0.90931168374 0.41365954824 -0.045144656079 
-0.93614312385 0.34803461918 -0.050079491953 -0.95930023263 0.27694848206 -0.055159785813 -0.97698065838 0.20470188515 -0.060049407787 
-0.98897671111 0.1332230711 -0.064627224922 -0.99533374657 0.06785925954 -0.068599226142 -0.99736598305 0.0083839192381 -0.072047246671 
-0.99639003118 -0.040224272244 -0.074759037468 -0.99377672589 -0.080541468604 -0.076947325572 -0.99076688298 -0.11050452027 -0.078547658064 
-0.98820955566 -0.13077253476 -0.079626743378 -0.9867039909 -0.14136422527 -0.080195948525 -0.98645321927 -0.14305172661 -0.080288540306 
-0.98781544482 -0.13364031975 -0.079755325253 -0.99073621498 -0.11087862945 -0.078407154342 -0.99471021063 -0.069328374515 -0.075796921809 
-0.99747966061 0.0026462830356 -0.070903623756 -0.98835939789 0.13961473307 -0.060443584537 -0.90372787326 0.42678346417 -0.033642321755 
-0.40045492279 0.91553168837 0.037915463846 0.38386009185 0.91854207405 0.094508666693 0.68793113804 0.71857804465 0.1019624591 
0.79715174889 0.59526762125 0.10102251397 0.85043600606 0.51661509363 0.099335012062 0.88178300738 0.46140427135 0.097799929825 
0.90363287125 0.41731143316 0.096430294776 0.92011870748 0.37989107678 0.095206795603 0.93367045568 0.34555976464 0.094063432052 
0.94496692692 0.31366794391 0.093004989109 0.95526688292 0.28109007374 0.091943204482 0.96438361866 0.24839505364 0.090907279107 
0.97256911366 0.21455074062 0.089873794055 0.97989128509 0.17867151614 0.088823188009 0.98611183285 0.1409969916 0.087768453798 
0.99114935519 0.10054093947 0.086686072643 0.99462931819 0.058179862511 0.085601536173 0.99634078937 0.012910582275 0.08448874666 
0.99595790007 -0.033369708874 0.083392588515 0.99328114579 -0.081365064411 0.082293934789 0.98824174205 -0.1295404504 0.081225186885 
0.98091601874 -0.1771192537 0.080203080628 0.97173306369 -0.22237716693 0.07926694496 0.96094277702 -0.26540439958 0.078418645588 
0.94949637614 -0.3040040191 0.077705778837 0.93776059696 -0.33861056024 0.077122962121 0.92662798225 -0.36807549538 0.076687757896 
0.91636992825 -0.39297792309 0.076383941806 0.90749699749 -0.41308919777 0.076200487049 0.90025242848 -0.42866320763 0.076114515264 
0.8947436403 -0.44004870014 0.076098355069 0.8908291479 -0.44791598088 0.07612294868 0.888234242 -0.45303307686 0.076164050632 
0.88701835635 -0.45540387561 0.076195443322 0.88687041009 -0.45569102676 0.07620081251 0.88767026099 -0.45413731932 0.076163002502 
0.88907099209 -0.4514028074 0.076080723579 0.8910964568 -0.44741546223 0.075937532439 0.89367254508 -0.44228428259 0.075723150684 
0.89665518943 -0.4362555542 0.075435818373 0.89962263245 -0.43016002994 0.075109705233 0.90330568731 -0.4224521607 0.074652576607 
0.90703101979 -0.41448624743 0.074134201479 0.91096703666 -0.40587334286 0.073524741868 0.91510954141 -0.39657602626 0.072814714273 
0.91962193546 -0.38615677704 0.071961374059 0.92406403445 -0.37557865442 0.071037557451 0.92892487709 -0.3636050517 0.069928099467 
0.93353740704 -0.35182087728 0.068774849801 0.93833988908 -0.33906797696 0.067462282557 0.94290354759 -0.32644079113 0.0661007552 
0.94754147405 -0.31303831006 0.064592347768 0.95178856905 -0.30019708022 0.063089086646 0.95580962321 -0.28747203502 0.061545050658 
0.95946677565 -0.27535495207 0.06002630079 0.96266449638 -0.26427907858 0.058597235801 0.96579560893 -0.25294040478 0.057096351856 
0.9680901088 -0.24428254428 0.055924769174 0.97031511603 -0.23557132143 0.054724109237 0.97194651643 -0.22896616586 0.053800223847 
0.97306895961 -0.22430517941 0.053141192498 0.97306895961 -0.22430517941 0.053141192498 
