# vtk DataFile Version 4.1
vtk output
ASCII
DATASET POLYDATA
POINTS 260 float
-47.6775 -2.0537300000000003 -177.357 -47.2576 -2.0750100000000002 -176.06 -46.8375 -2.0964000000000005 -174.763
-46.4167 -2.11825 -173.463 -45.9947 -2.14089 -172.159 -45.5709 -2.1646700000000005 -170.85
-45.1449 -2.1898900000000006 -169.533 -44.7162 -2.21686 -168.207 -44.2845 -2.24586 -166.872
-43.8493 -2.27716 -165.526 -43.4103 -2.3109800000000003 -164.167 -42.9674 -2.3475300000000003 -162.797
-42.5203 -2.3869900000000004 -161.414 -42.069 -2.42951 -160.018 -41.6133 -2.4752199999999998 -158.609
-41.1533 -2.5241900000000004 -157.188 -40.689 -2.57652 -155.755 -40.2207 -2.63224 -154.311
-39.7485 -2.6913900000000006 -152.857 -39.2727 -2.75398 -151.394 -38.7935 -2.82 -149.922
-38.3113 -2.88944 -148.444 -37.8264 -2.9622699999999997 -146.959 -37.3393 -3.0384500000000005 -145.471
-36.8503 -3.1179400000000004 -143.979 -36.3599 -3.2006799999999997 -142.485 -35.8685 -3.2866000000000004 -140.99
-35.3764 -3.37564 -139.495 -34.884 -3.4677200000000004 -138.001 -34.3918 -3.5627400000000002 -136.51
-33.9002 -3.6606 -135.021 -33.4094 -3.7612 -133.537 -32.9199 -3.8644000000000003 -132.058
-32.4318 -3.97008 -130.584 -31.9456 -4.0780899999999995 -129.117 -31.4613 -4.188270000000001 -127.657
-30.9793 -4.30045 -126.205 -30.4997 -4.41447 -124.761 -30.0227 -4.530139999999999 -123.326
-29.5482 -4.647270000000001 -121.9 -29.0764 -4.76567 -120.484 -28.6073 -4.885160000000001 -119.077
-28.1407 -5.0055499999999995 -117.68 -27.6766 -5.12665 -116.292 -27.2147 -5.248290000000001 -114.914
-26.7549 -5.370290000000001 -113.545 -26.2969 -5.49249 -112.185 -25.8403 -5.614739999999999 -110.833
-25.3848 -5.736890000000001 -109.488 -24.93 -5.8588000000000005 -108.149 -24.4754 -5.980359999999999 -106.816
-24.0205 -6.10144 -105.488 -23.565 -6.22193 -104.164 -23.1083 -6.34173 -102.842
-22.65 -6.46073 -101.521 -22.1896 -6.578849999999999 -100.202 -21.7267 -6.69599 -98.8822
-21.261 -6.812059999999999 -97.5616 -20.7921 -6.926959999999999 -96.2393 -20.3197 -7.040609999999999 -94.9149
-19.8438 -7.15291 -93.5879 -19.364 -7.263769999999999 -92.258 -18.8804 -7.3730899999999995 -90.9252
-18.3929 -7.480789999999999 -89.5893 -17.9017 -7.58677 -88.2507 -17.4067 -7.690949999999999 -86.9096
-16.9081 -7.793229999999999 -85.5664 -16.4063 -7.8935200000000005 -84.2215 -15.9013 -7.991820000000001 -82.8755
-15.3934 -8.08792 -81.5289 -14.8829 -8.18182 -80.1823 -14.3699 -8.27352 -78.8363
-13.8548 -8.36282 -77.4912 -13.3375 -8.449819999999999 -76.1474 -12.8183 -8.53432 -74.8051
-12.2972 -8.61642 -73.4646 -11.7741 -8.69592 -72.1257 -11.2489 -8.77292 -70.7881
-10.7215 -8.84712 -69.4516 -10.1915 -8.918619999999999 -68.1156 -9.65873 -8.98732 -66.7794
-9.12263 -9.05302 -65.442 -8.58277 -9.11572 -64.1025 -8.03864 -9.17522 -62.7599
-7.48968 -9.23122 -61.413 -6.93532 -9.283719999999999 -60.0604 -6.37497 -9.332419999999999 -58.7011
-5.80809 -9.37702 -57.3338 -5.23414 -9.41742 -55.9574 -4.65266 -9.45312 -54.5707
-4.06324 -9.48402 -53.1728 -3.46558 -9.50972 -51.7628 -2.85947 -9.529819999999999 -50.3402
-2.24482 -9.54422 -48.9044 -1.62167 -9.55242 -47.455 -0.990189 -9.554219999999999 -45.9921
-0.350718 -9.54922 -44.5158 0.296271 -9.53742 -43.0264 0.95015 -9.51832 -41.5245
1.61014 -9.49202 -40.0109 2.27531 -9.458219999999999 -38.4867 2.94462 -9.417019999999999 -36.953
3.61687 -9.368319999999999 -35.4114 4.29078 -9.31212 -33.8633 4.96497 -9.24872 -32.3106
5.63801 -9.17822 -30.755 6.3084 -9.10092 -29.1984 6.97465 -9.01702 -27.6428
7.63527 -8.92702 -26.0901 8.28882 -8.83142 -24.5422 8.93392 -8.73042 -23.0009
9.56927 -8.62482 -21.4678 10.1937 -8.51502 -19.9444 10.8062 -8.40152 -18.4319
11.4059 -8.28492 -16.9314 11.992 -8.16572 -15.4437 12.5639 -8.04452 -13.9692
13.1214 -7.92182 -12.5082 13.6641 -7.798029999999999 -11.0605 14.192 -7.6736699999999995 -9.6258
14.7052 -7.549109999999999 -8.20361 15.2037 -7.424709999999999 -6.79312 15.6879 -7.30078 -5.39342
16.1581 -7.177579999999999 -4.00346 16.6147 -7.055339999999999 -2.62212 17.0581 -6.93422 -1.24827
17.4888 -6.81437 0.119204 17.907 -6.69589 1.48136 18.3131 -6.578860000000001 2.83913
18.7075 -6.4633199999999995 4.19335 19.0903 -6.3493200000000005 5.54468 19.4617 -6.23687 6.89361
19.8219 -6.12599 8.24047 20.1708 -6.01671 9.58541 20.5084 -5.90903 10.9284
20.8347 -5.80298 12.2694 21.1494 -5.698589999999999 13.6081 21.4525 -5.59591 14.9441
21.7437 -5.49498 16.2771 22.0228 -5.39587 17.6066 22.2897 -5.298640000000001 18.9321
22.5441 -5.20336 20.2534 22.7859 -5.11013 21.5699 23.0148 -5.01901 22.8816
23.2308 -4.93009 24.1881 23.4336 -4.843450000000001 25.4895 23.6233 -4.75916 26.7858
23.7998 -4.67728 28.0772 23.9629 -4.597860000000001 29.3641 24.1127 -4.520950000000001 30.6469
24.2493 -4.44656 31.9262 24.3726 -4.374700000000001 33.2026 24.4827 -4.30536 34.4769
24.5796 -4.238530000000001 35.75 24.6635 -4.1741600000000005 37.0227 24.7345 -4.11218 38.2958
24.7927 -4.0525400000000005 39.5703 24.8383 -3.99516 40.8469 24.8715 -3.93993 42.1263
24.8924 -3.88677 43.4091 24.9013 -3.8355799999999998 44.6958 24.8984 -3.78624 45.9866
24.8841 -3.73866 47.2818 24.8585 -3.69274 48.581 24.8221 -3.6483900000000005 49.8842
24.7751 -3.60551 51.1906 24.718 -3.5640300000000003 52.4995 24.6511 -3.5238800000000006 53.8101
24.5749 -3.4850100000000004 55.1212 24.4897 -3.44736 56.4315 24.396 -3.4108899999999998 57.7396
24.2943 -3.37558 59.0441 24.185 -3.3414000000000006 60.3435 24.0685 -3.30834 61.6361
23.9455 -3.2763900000000006 62.9206 23.8162 -3.24553 64.1955 23.6812 -3.21578 65.4595
23.5409 -3.1871200000000006 66.7114 23.3956 -3.15955 67.9501 23.2459 -3.1330700000000005 69.1747
23.0921 -3.1076600000000005 70.3847 22.9346 -3.0833300000000006 71.5794 22.7737 -3.0600600000000004 72.7586
22.6096 -3.0378200000000004 73.9222 22.4428 -3.0166 75.0702 22.2734 -2.99635 76.2029
22.1017 -2.9770600000000003 77.3205 21.9278 -2.9586799999999998 78.4237 21.7521 -2.94117 79.513
21.5746 -2.92447 80.5891 21.3955 -2.90854 81.6527 21.2148 -2.8933200000000006 82.7047
21.0328 -2.87874 83.7458 20.8494 -2.8647500000000004 84.777 20.6647 -2.85127 85.7991
20.4787 -2.83825 86.8131 20.2915 -2.8256100000000006 87.8197 20.103 -2.81329 88.8199
19.9133 -2.80123 89.8145 19.7221 -2.7893700000000003 90.8046 19.5296 -2.77763 91.7908
19.3354 -2.7659800000000003 92.7742 19.1396 -2.75435 93.7556 18.942 -2.74269 94.736
18.7423 -2.7309500000000004 95.7164 18.5404 -2.7191000000000005 96.6976 18.336 -2.7070700000000003 97.6807
18.1289 -2.6948200000000004 98.6667 17.9187 -2.6823 99.6567 17.7051 -2.6694600000000004 100.652
17.4879 -2.65624 101.653 17.2666 -2.64256 102.661 17.0409 -2.6283600000000003 103.678
16.8103 -2.61354 104.703 16.5745 -2.5980000000000003 105.74 16.333 -2.5816400000000006 106.787
16.0853 -2.56432 107.847 15.8311 -2.54592 108.92 15.5698 -2.52629 110.008
15.3011 -2.50527 111.11 15.0245 -2.4826799999999998 112.229 14.7394 -2.45835 113.363
14.4454 -2.43209 114.515 14.1421 -2.40371 115.684 13.829 -2.37302 116.871
13.5056 -2.3398100000000004 118.076 13.1714 -2.3038900000000004 119.3 12.826 -2.26507 120.543
12.4689 -2.2231600000000005 121.805 12.0995 -2.17796 123.085 11.7174 -2.1293 124.385
11.3221 -2.07701 125.703 10.913 -2.02091 127.039 10.4897 -1.9608700000000003 128.394
10.0517 -1.8967199999999997 129.767 9.59852 -1.82835 131.157 9.12969 -1.75564 132.564
8.6448 -1.6784700000000004 133.986 8.14348 -1.5967700000000002 135.424 7.62538 -1.51045 136.875
7.09023 -1.4194600000000004 138.339 6.53785 -1.3237700000000001 139.814 5.96811 -1.2233500000000004 141.3
5.38098 -1.11822 142.794 4.77654 -1.00841 144.295 4.15498 -0.8939700000000004 145.802
3.51658 -0.7749800000000002 147.312 2.86177 -0.65157 148.825 2.19108 -0.5238700000000001 150.338
1.50517 -0.39205000000000023 151.851 0.804833 -0.25633000000000017 153.363 0.0909743 -0.11692999999999998 154.872
-0.635384 0.025859999999999772 156.377 -1.37311 0.1717599999999999 157.878 -2.12096 0.3204199999999999 159.376
-2.8776 0.4714999999999998 160.869 -3.64162 0.6246099999999999 162.358 -4.41152 0.7793299999999999 163.844
-5.18576 0.9352599999999998 165.327 -5.96273 1.09194 166.809
LINES 1 261
260 259 258 257 256 255 254 253 252 251 250 249 248 247 246 245 244 243 242 241 240 239 238 237 236 235 234 233 232 231 230 229 228 227 226 225 224 223 222 221 220 219 218 217 216 215 214 213 212 211 210 209 208 207 206 205 204 203 202 201 200 199 198 197 196 195 194 193 192 191 190 189 188 187 186 185 184 183 182 181 180 179 178 177 176 175 174 173 172 171 170 169 168 167 166 165 164 163 162 161 160 159 158 157 156 155 154 153 152 151 150 149 148 147 146 145 144 143 142 141 140 139 138 137 136 135 134 133 132 131 130 129 128 127 126 125 124 123 122 121 120 119 118 117 116 115 114 113 112 111 110 109 108 107 106 105 104 103 102 101 100 99 98 97 96 95 94 93 92 91 90 89 88 87 86 85 84 83 82 81 80 79 78 77 76 75 74 73 72 71 70 69 68 67 66 65 64 63 62 61 60 59 58 57 56 55 54 53 52 51 50 49 48 47 46 45 44 43 42 41 40 39 38 37 36 35 34 33 32 31 30 29 28 27 26 25 24 23 22 21 20 19 18 17 16 15 14 13 12 11 10 9 8 7 6 5 4 3 2 1 0 

CELL_DATA 1
FIELD FieldData 2
LengthArray 1 1 double
362.17405496 
TortuosityArray 1 1 double
0.044635069403 
POINT_DATA 260
FIELD FieldData 8
RadiusArray 1 260 double
41.533573659 42.169000459 42.226185373 42.377937918 42.730141785 43.203108303 43.276901232 43.467175871 43.51679025 
43.859540455 44.175581881 44.207654209 44.350337531 44.67590323 44.959383983 45.252734271 45.784957606 46.228572879 
46.482699356 46.828214631 46.846035671 47.139073553 47.340190734 47.390716459 47.399624308 47.562996659 47.745764151 
48.124890192 48.231223109 48.45976933 48.742036666 48.752866819 48.963348245 48.975070282 49.075811334 49.291859444 
49.520643723 49.593501686 49.774382098 49.79851563 49.815496056 49.868570504 49.972923093 50.067072502 50.121162462 
50.15904511 50.189697997 50.203668088 50.207778906 50.249738243 50.266460362 50.310045983 50.387240886 50.387493577 
50.385013934 50.384517978 50.411093418 50.411835586 50.42646423 50.460681384 50.450730677 50.435492707 50.396621463 
50.393410338 50.366610453 50.330355604 50.327616172 50.292690566 50.292540663 50.276381828 50.179224906 50.175317126 
50.113638227 50.093480044 49.965457621 49.951004777 49.940793858 49.926665603 49.870198577 49.844932496 49.843187166 
49.802415483 49.775962258 49.710505933 49.624988383 49.5906705 49.541721539 49.513462927 49.430726247 49.426055986 
49.385917622 49.338751143 49.333271183 49.328291031 49.318427816 49.305508217 49.301152034 49.273603304 49.269021938 
49.268548076 49.217862447 49.192532473 49.15388755 49.14930998 49.083157761 49.040706637 48.981178326 48.87860152 
48.856540941 48.855966248 48.826139464 48.607770428 48.569250761 48.577576963 48.573402608 48.546309032 48.487826431 
48.446562894 48.425047804 48.423910349 48.422281075 48.394815437 48.39293912 48.365749805 48.367194124 48.364974587 
48.345872034 48.360063694 48.332948005 48.339106884 48.379009352 48.405642241 48.386040108 48.391199103 48.40570258 
48.436935086 48.453792393 48.506266002 48.526312486 48.567031735 48.589067786 48.630348264 48.662398794 48.719207395 
48.8041067 48.867408888 48.887102549 49.03920488 49.077503212 49.14525001 49.190136567 49.252610523 49.273759402 
49.286031825 49.32116207 49.345799857 49.437401469 49.499226579 49.509174845 49.586156422 49.655817921 49.680271464 
49.715602901 49.758395404 49.787067719 49.802455749 49.812223395 49.839494082 49.85021885 49.836737168 49.840417218 
49.859529857 49.885395775 49.960681487 50.022229048 50.054469479 50.142939683 50.1652653 50.278319956 50.374340499 
50.37782564 50.476211154 50.545008521 50.682735496 50.703780421 50.72243921 50.753806755 50.804358242 51.008333066 
51.091142092 51.169173936 51.240828159 51.28322808 51.435741852 51.496359366 51.516375971 51.673353697 51.739143015 
51.818949715 51.897143698 52.015274968 52.058918843 52.180809326 52.224703372 52.449498397 52.465523759 52.564281342 
52.704166158 52.872194707 52.947816805 53.07747042 53.173768738 53.196594258 53.272556643 53.337036696 53.383401931 
53.45287649 53.581184665 53.786616229 54.02226139 54.230210054 54.236912175 54.273069296 54.414454649 54.64288465 
54.870203659 55.088103706 55.354499821 55.716464781 55.844121176 55.846276328 55.876410073 56.274862388 56.277364588 
56.41740279 56.728042599 56.760391114 57.222429567 57.316287956 57.583086534 57.687807341 58.038674945 58.329412668 
58.552440864 58.891668186 59.059524419 59.638738377 59.687967484 59.887731007 60.0786357 60.170113728 60.532544237 
60.573599181 60.769369179 61.097758664 61.097763696 61.098177982 61.301556389 61.369050554 61.076782567 
EdgeArray 2 260 int
3030 3030 5361 5341 5341 2841 4427 5930 5353 
4166 5696 5556 4352 5696 4352 4352 3062 5203 
6220 6220 2548 2548 6510 6318 6510 6510 6203 
6203 7288 7288 3504 3504 3280 3280 6688 6688 
5025 7773 8084 8084 8100 8100 8091 8091 7532 
8413 6566 6313 6566 2677 7382 2677 8737 7475 
8164 8159 6281 9002 7118 7926 7955 8123 8123 
6040 10152 9536 10148 10152 10149 10149 9518 9518 
5100 5100 10788 8382 10796 5568 8310 10429 8310 
6930 9538 9804 11322 8916 6907 11313 11353 9890 
9890 11952 11338 8656 11959 11973 11973 10685 11065 
10463 11545 11948 12275 11824 11674 12593 11674 12559 
12559 9150 10039 12556 12577 8550 12577 12280 7643 
12280 11002 10709 11002 12258 12848 12258 13933 13918 
13933 13935 13934 14259 14556 14556 14258 14258 15103 
15102 15101 15103 12335 15096 14767 14570 14570 14754 
13445 15215 10756 12908 15112 11604 14134 14628 14628 
15220 15220 15220 15523 15523 15723 15722 15724 15723 
14334 14770 14715 10092 15836 15968 15967 11872 16245 
16246 16248 16250 16249 16251 15956 14437 15555 14437 
15975 13350 11583 13366 12414 16455 12414 13382 13860 
16884 16885 16884 16885 16893 15195 16994 17243 17244 
17243 17242 17365 17365 16967 14586 12099 12099 17369 
17369 17601 17601 17865 17865 17467 17467 18475 18475 
18480 18480 15799 14823 17638 18118 18773 18773 17642 
18004 18781 16368 18497 18496 18101 18495 17457 17569 
18505 17893 19035 19036 19034 19036 19034 19034 19297 
19297 19298 19298 16365 16365 18777 18777 19862 16714 
19852 19852 14551 14551 18133 18133 19869 19869 19866 
19866 19590 19590 17880 17880 20712 20712 21897 20711 
21897 21896 21896 21896 21615 21615 18922 19451 19795 
20220 22131 22131 21203 21203 21253 18269 18269 18269 
20950 20950 22165 21880 21880 22209 22209 22209 19106 
19106 22754 18265 22754 22568 22568 22568 21510 21510 
21082 20219 20219 20219 20403 20403 21368 21368 20399 
20399 21116 22369 22369 20624 16286 12391 20894 16286 
21112 22591 21882 22591 22365 22365 22779 21117 21117 
21117 23116 23116 23941 23026 22957 22957 21499 21499 
23118 23118 21120 21120 23951 23951 22230 22230 23385 
23385 24454 24454 23715 23715 24899 24899 24466 24466 
23366 23366 24633 25136 24633 24633 25399 25399 25401 
25401 24471 25156 24471 24471 25155 25155 25226 25226 
25227 25391 22438 25391 25212 25474 25474 25474 21919 
25476 25476 25476 24963 21428 21428 21428 24390 25470 
25949 24390 25949 25949 25954 25954 25433 25433 25942 
24651 24651 24651 25701 25700 25697 25700 25697 25697 
25128 25128 24210 26229 26229 26229 26230 26230 24231 
24231 26165 26164 26165 26165 26166 26166 23697 23697 
23015 25473 26650 24028 26667 23922 26394 26394 25765 
25765 26395 23025 25958 26395 25958 25958 21729 24096 
25442 25442 25875 25875 26467 26467 27162 27162 27161 
27165 27165 27164 27164 27163 27159 27158 27158 26899 
26899 26899 27028 26152 13333 27028 27595 27595 26404 
27596 27598 27599 27599 27599 25548 26191 28279 28271 
28272 28272 21989 21989 28355 28355 28514 28514 28513 
28513 28765 28608 28608 28608 28746 28746 28852 28852 
29003 29004 28741 28741 15053 15053 27095 15053 27095 
27095 29000 27068 29898 29898 30757 30757 
EdgePCoordArray 1 260 double
0 0.704 0.284 0.456 0.736 0.14 0.772 0 0.912 
0 0 0.936 0 0 0 0 0 0 
0.64 0 0 0 0.064 0.016 0.044 0.792 0.644 
0.564 0.628 0.512 0.236 0.692 0.124 0.832 0 0 
0 0.884 0.112 0.12 0.368 0.848 0.728 0.588 0.56 
0.58 0.536 0.92 0.192 0.148 0.252 0.24 0.612 0.816 
0.064 0.516 0.004 0.028 0.848 0.264 0.628 0.848 0.16 
0.104 0.204 0 0 0.328 0.4 0.532 0.876 0.228 
0.568 0.228 0.144 0.9 0.46 0 0 0.18 0.82 
0.688 0.588 0.78 0.536 0.752 0.38 0.428 0.84 0.872 
0.744 0.712 0.28 0.272 0.708 0.148 0.104 0.788 0.396 
0.4 0 0.36 0 0 0 0 0 0 
0 0.016 0.924 0 0.144 0.284 0.456 0.592 0.052 
0.292 0.908 0.828 0 0 0 0 0 0.996 
0 0 0 0 0 0 0 0 0.824 
0.128 0 0 0.324 0.668 0 0 0.04 0 
0 0.584 0.072 0 0 0.524 0.332 0 0 
0.072 0 0 0 0 0.032 0.004 0.304 0.416 
0.552 0.232 0 0.232 0 0 0.948 0 0 
0 0 0 0 0 0 0 0 0 
0 0.656 0 0 0 0.776 0 0 0 
0.056 0.856 0.496 0 0.096 0 0.008 0 0.884 
0.952 0 0 0 0.436 0 0.036 0.932 0 
0 0.264 0 0 0 0.912 0 0 0 
0.916 0.528 0.3 0 0 0.916 0.904 0 0.88 
0 0 0 0 0.996 0.072 0.016 0.992 0.02 
0 0.148 0.988 0 0.956 0.508 0 0.308 0.108 
0 0 0 0 0 0.14 0 0 0 
0.928 0 0 0.988 0 0.052 0 0 
CurvatureArray 1 260 double
0 5.6751217583e-05 0.00022593099134 0.00039096128528 0.00054712825739 0.00069192976032 0.00082160556481 0.00093506806913 0.0010309684045 
0.0011097739021 0.0011727616692 0.001220699062 0.0012564564737 0.0012817031347 0.0012984954671 0.0013084313612 0.0013150087789 0.0013176672101 
0.0013177296897 0.001316033744 0.0013135641626 0.0013098252302 0.0013041747577 0.001300784681 0.0012922241255 0.0012869816368 0.0012769476971 
0.0012685066667 0.0012577074405 0.0012432847655 0.001228198986 0.0012101939222 0.0011891294794 0.0011627509327 0.0011351630869 0.0011012305514 
0.0010632807661 0.0010215761581 0.00097641362318 0.00092745278765 0.00087702150778 0.00082611907235 0.00077794006297 0.0007329605882 0.00070061184762 
0.00068030778706 0.00067710289927 0.00069854532408 0.00073649766686 0.00079417649855 0.00086587443739 0.00094429984935 0.0010325629667 0.0011172915838 
0.0012027954656 0.0012805621413 0.0013540931992 0.001418392582 0.0014753707728 0.0015215511246 0.0015571475983 0.0015857475471 0.0016062848531 
0.001616796897 0.0016228581596 0.0016241884916 0.0016207223959 0.0016176693971 0.0016110188044 0.0016064497285 0.0016052613317 0.0016055098728 
0.0016136976067 0.0016240457901 0.0016457839628 0.0016727021455 0.0017084062865 0.0017547299802 0.0018079402707 0.0018694323009 0.0019389631133 
0.002015598161 0.0020960174572 0.0021784823743 0.0022622590735 0.0023448110651 0.002423078978 0.0024954926982 0.0025600728884 0.0026160019262 
0.0026608643322 0.0026953700438 0.0027173668991 0.0027298808228 0.0027310503907 0.0027225166231 0.0027070871906 0.0026853284315 0.0026592480903 
0.0026312340819 0.002604483289 0.0025806350167 0.0025622036314 0.002551923116 0.0025520644751 0.0025651808064 0.0025917144875 0.0026345858821 
0.0026929680327 0.0027687226384 0.0028601510198 0.0029681189681 0.0030914205939 0.0032268816566 0.0033742577747 0.0035304375772 0.0036916400247 
0.0038572790799 0.0040213667826 0.004181941316 0.0043361729208 0.0044799527577 0.0046118047331 0.0047293872403 0.0048351652711 0.0049241740833 
0.0050043387615 0.0050706315175 0.0051321243538 0.005189292381 0.0052456705213 0.0053038179665 0.0053697758146 0.005441701764 0.0055264153946 
0.0056197844239 0.0057287855913 0.005850397628 0.0059829211747 0.0061288379321 0.0062846310739 0.0064510233603 0.0066264323363 0.006804446317 
0.0069870082711 0.0071681503447 0.0073451094451 0.0075133129435 0.0076689303015 0.0078061462987 0.0079196385914 0.0080059885536 0.0080600307379 
0.0080795482876 0.0080606689352 0.0079999018476 0.0079037252871 0.0077696148077 0.0076012487143 0.0074037249949 0.0071836828306 0.0069419698607 
0.0066927859547 0.006435616951 0.0061791169081 0.0059266671375 0.0056850484506 0.0054557679441 0.0052417593679 0.0050447500851 0.0048661089065 
0.0047071836183 0.0045638173283 0.0044392141629 0.0043295691206 0.0042338627237 0.0041492151816 0.0040768624513 0.0040090130615 0.0039473102293 
0.0038867083005 0.0038240927608 0.0037642408337 0.0036962228836 0.003622574693 0.0035420575844 0.0034559426439 0.0033566994204 0.0032550892711 
0.0031410808911 0.0030276769875 0.0029068639078 0.0027867875866 0.0026664300999 0.0025499863833 0.0024413095885 0.0023373202955 0.0022506024856 
0.0021682288678 0.0021078112576 0.0020567081479 0.0020236556669 0.0020053967791 0.0020021130239 0.0020127816371 0.0020393536483 0.0020751392292 
0.0021261718871 0.0021818742899 0.0022534700458 0.0023289264908 0.002411052318 0.002497692336 0.0025872585719 0.0026821363226 0.0027810788354 
0.0028771798921 0.0029739344724 0.003075232933 0.0031715049661 0.003269209931 0.0033684702184 0.0034653551917 0.0035589571612 0.0036538155478 
0.0037490467775 0.0038399324772 0.0039343531079 0.0040274901381 0.0041202421192 0.0042149878585 0.0043107867132 0.0044042036911 0.004503449459 
0.004601513478 0.0046999226069 0.0048005923454 0.0048978331239 0.0049936876696 0.0050868789128 0.0051729403818 0.0052530863539 0.0053224536817 
0.0053728077922 0.0054083282057 0.0054184318967 0.0054012091787 0.0053499705923 0.0052557880187 0.0051159202984 0.0049229708959 0.004673689871 
0.0043651975991 0.0039846734478 0.0035437609928 0.0030378500892 0.0024681501226 0.0018465651673 0.0011788099805 0 
TorsionArray 1 260 double
-0.0 -0.0 -0.0017893251543 0.0047767691042 0.0060295029779 0.007206548319 0.0087997242712 0.012399334139 0.014458501231
0.015929864798 0.016940738606 0.017761243535 0.018314452621 0.018597339236 0.018250890387 0.01733591591 0.016463293708 0.013790176665
0.011554161415 0.0091671221757 0.0057697547006 0.0021696552837 0.00097392748041 -0.0031265576566 -0.0051329878024 -0.0066255482993 -0.008805566386
-0.0079674195238 -0.010488146919 -0.0096790772326 -0.0076598287177 -0.0063705769596 -0.0053887030422 -0.0020686351542 0.0024891790184 0.0047676107168
0.0096232444514 0.016019728757 0.023129376019 0.031628477304 0.041972814583 0.054322538913 0.068297906283 0.084994213886 0.10128978195
0.1135316409 0.12157270441 0.11936463373 0.10954752179 0.096144621725 0.081379765444 0.067408600842 0.055940146576 0.046238363338
0.038537929922 0.032758998313 0.027619811557 0.023480498377 0.020264929834 0.018414392792 0.016318643001 0.014226586378 0.013322589806
0.012226157759 0.01122502363 0.010652408685 0.0093481609961 0.0089448064799 0.008834046109 0.0078152032562 0.0076190133722 0.0070722770079
0.0068207835239 0.0067105487407 0.0062664803184 0.0068235064893 0.0068638059194 0.0072266034164 0.0083537155258 0.0087874333121 0.0093957767851
0.010526327927 0.011859920521 0.012825414291 0.013831100318 0.015166232014 0.016148852816 0.0174841294 0.018723068137 0.019872417803
0.02132169247 0.022765735794 0.02438148278 0.025987847547 0.02778266192 0.029725414669 0.031701722555 0.034069464258 0.036307530787
0.038694694401 0.041200005526 0.043456295268 0.045730969212 0.047693765404 0.049447882917 0.050718533957 0.051449295349 0.051667120179
0.051390720921 0.050591344941 0.049320619999 0.047830094472 0.045946515066 0.043840643681 0.041755587028 0.039496295549 0.03720746214
0.034798480245 0.032376709232 0.030022094981 0.027512267266 0.02497264746 0.022481982963 0.019830752454 0.017207728737 0.014707936047
0.012156643472 0.0097818633265 0.0075438465815 0.0055837456529 0.0038592995622 0.002455069231 0.0013916268768 0.00063426213192 0.00025751025592
0.00014736160517 0.00029997183573 0.00064064657757 0.0010749963159 0.0015806889848 0.0021373563885 0.0025930932553 0.0030114668442 0.0033694876812
0.0035208041699 0.0035973595135 0.0035274509805 0.0033035761027 0.0029951964462 0.0025701361832 0.0020676131271 0.0015028977242 0.00087453425528
0.00026349510452 -0.00030962626914 -0.00093529806224 -0.001536472766 -0.0020482129983 -0.0024856439136 -0.0029044104856 -0.0032469522012 -0.0035134155132
-0.0036913886074 -0.0037413470897 -0.0037683146866 -0.003683035904 -0.0035070956823 -0.0033166067714 -0.0029621208072 -0.002546010402 -0.0021471344382
-0.0016319878296 -0.0011021333739 -0.00054179421837 5.0223389873e-06 0.00051957741305 0.0010348083107 0.0015180918409 0.0019766229913 0.0023944168908
0.0027316789058 0.0028574852213 0.0029409288886 0.0030712594971 0.0029589885879 0.0025097591563 0.0020328018244 0.0013650816537 0.00044304741767
-0.00090730170748 -0.0025817167139 -0.0042662635312 -0.0064434965533 -0.0087501028827 -0.011272007386 -0.013676033322 -0.016026251555 -0.018028001782
-0.019695406357 -0.020654016363 -0.020687430637 -0.020441270547 -0.019379532673 -0.018063161415 -0.01688681612 -0.015489253658 -0.014598980078
-0.014217166053 -0.01405294762 -0.014294956353 -0.015005413692 -0.015793348046 -0.016591226775 -0.017126072871 -0.017358497311 -0.017372806233
-0.017345696497 -0.016596466349 -0.015548623147 -0.014443989035 -0.01283832232 -0.01112456152 -0.0093701015659 -0.0075996436046 -0.0056844093083
-0.003878618989 -0.0022200573187 -0.00058457048459 0.00074691442397 0.0019694278364 0.003063169904 0.0037666297753 0.0044521225815 0.0049420552456
0.0051526260206 0.0053018561673 0.0052563410048 0.0051002145502 0.0048812274955 0.0045840098279 0.0042514925127 0.0039026791587 0.0034971842052
0.0031164620264 0.0027705699289 0.0024263244356 0.0021204511944 0.0018109332204 0.0015459242132 0.0013162174908 0.001107187336 0.00095660096067
0.00076480222947 0.0006229948776 0.00054263862937 0.00041333190622 0.00031883755272 0.00025302028255 -0.0 -0.0
TangentArray 3 260 double
0.30801484066 -0.015644788068 0.95125290987 0.30801484066 -0.015644788068 0.95125290987 0.30799319353 -0.015836523262 0.95125674624
0.30794741203 -0.016255962502 0.95126449272 0.30788000765 -0.016896006481 0.9512751578 0.30779741782 -0.017745772147 0.95128641173
0.30770516464 -0.018790283615 0.9512961983 0.30761121695 -0.020011592526 0.95130167422 0.3075271951 -0.021389941186 0.95129884615
0.30746379437 -0.022904305003 0.95128408373 0.30742990872 -0.024533703843 0.95125440793 0.30743318752 -0.026257694477 0.95120732162
0.30747976522 -0.028057161403 0.95114088845 0.30757437277 -0.029915424266 0.95105366442 0.3077201363 -0.031817452689 0.95094477622
0.30791770028 -0.03375056193 0.95081417187 0.30816559006 -0.035705370081 0.95066245095 0.3084619618 -0.037674630016 0.95049031577
0.30879926862 -0.039652485101 0.95030031681 0.30917088838 -0.041634749104 0.95009468446 0.30956960651 -0.043618980333 0.94987580413
0.30998502508 -0.045604069419 0.94964706764 0.31040576268 -0.04758844976 0.94941224025 0.31082802581 -0.049571569639 0.94917258592
0.31123874554 -0.051552584297 0.94893243928 0.31163149513 -0.053529844544 0.94869403233 0.31200129692 -0.055501458226 0.94845916035
0.31234129157 -0.05746463465 0.94823031661 0.31265389921 -0.059416403731 0.94800697797 0.31293128473 -0.061351750647 0.94779215745
0.31317597654 -0.063265203944 0.9475855221 0.31339401757 -0.065151448863 0.94738560178 0.31358920824 -0.06700406701 0.94719177756
0.31376425002 -0.06881517226 0.94700394269 0.31392823551 -0.070577816081 0.94681985342 0.31409242307 -0.072284293007 0.94663664136
0.31426119544 -0.073925733653 0.94645384829 0.31444422344 -0.075494599667 0.94626919836 0.31465271256 -0.076983206245 0.94607994188
0.31489661881 -0.07838329773 0.94588380793 0.31518553581 -0.079686847764 0.94567863691 0.31552883996 -0.080886439024 0.94546228647
0.31593526296 -0.081974913267 0.94523278784 0.31641165138 -0.082944646052 0.94498881081 0.31696593124 -0.0837892369 0.94472851244
0.3176050983 -0.08450322137 0.94445021421 0.31833171996 -0.08508084502 0.94415367705 0.31915191362 -0.085517856314 0.94383724883
0.32006835745 -0.085810793241 0.94350026726 0.32108034232 -0.085958064821 0.94314295039 0.32218879206 -0.085958703151 0.94276480822
0.32339021544 -0.085813333485 0.94236661674 0.32468269756 -0.085524958646 0.94194831459 0.32606124847 -0.08509666064 0.9415108181
0.32751847141 -0.084534341456 0.9410555754 0.3290465833 -0.083844816284 0.94058407003 0.33063632249 -0.083035317693 0.94009827054
0.33227931284 -0.082114885683 0.93959970403 0.33396639338 -0.081093487971 0.93909014173 0.33568794174 -0.079981337889 0.93857156965
0.33743174886 -0.07878799245 0.93804704952 0.33918900725 -0.077523485952 0.93751849394 0.3409529758 -0.076197895163 0.9369871659
0.34271373053 -0.074820321299 0.93645566816 0.34446406618 -0.073399612388 0.93592574706 0.34619966049 -0.071942624064 0.9353983397
0.34791541233 -0.070455635452 0.93487478803 0.34961053244 -0.068944769135 0.93435490817 0.35128315929 -0.067413399617 0.93383915936
0.3529318586 -0.065863493585 0.93332797204 0.35456064957 -0.06429587582 0.93281980368 0.35617156195 -0.062709485639 0.93231397011
0.35776969539 -0.061101694254 0.93180868639 0.35935986404 -0.059468522913 0.93130230479 0.36094827039 -0.057803631319 0.9307927193
0.36254326462 -0.056099577112 0.93027695807 0.36414964009 -0.054347458765 0.92975340459 0.36577581358 -0.052536325298 0.92921902086
0.36742840345 -0.050654902543 0.92867133539 0.36911077572 -0.04869060406 0.92810907781 0.37082819852 -0.046631187907 0.92753004237
0.3725846517 -0.044463917642 0.92693238014 0.37438019695 -0.042176071438 0.9263156304 0.37621140179 -0.039756348617 0.92568051395
0.37807414538 -0.037195019255 0.92502782182 0.37996211709 -0.034483586427 0.92435906002 0.38186461961 -0.031615380583 0.92367736792
0.3837695961 -0.028587474093 0.92298626937 0.38566136226 -0.025398380126 0.92229075456 0.38752273143 -0.022049304654 0.92159641969
0.38933501826 -0.018545005642 0.92090951039 0.39107696661 -0.014892112314 0.92023748629 0.39272637178 -0.011100399478 0.91958837424
0.39426022518 -0.0071811774051 0.918970786 0.39565585556 -0.0031479227432 0.91839345302 0.39688983919 0.00098278045933 0.91786572531
0.39793967768 0.0051943465128 0.91739687796 0.39878419307 0.0094689642924 0.91699591388 0.3994014131 0.013787386472 0.91667247105
0.39977235993 0.018129555471 0.91643514744 0.39987913497 0.022475822275 0.91629226496 0.39970486901 0.02680653061 0.91625183634
0.39923582647 0.031101336427 0.91632061078 0.39845917783 0.035340413246 0.91650495841 0.39736446486 0.03950465274 0.91681015727
0.39594217756 0.04357549572 0.91724095428 0.39418511096 0.047534375599 0.9178009487 0.39208820163 0.051363563431 0.9184925838
0.38964794741 0.055045734604 0.91931737946 0.38686271327 0.058563779461 0.92027578737 0.38373285907 0.061901173537 0.92136710251
0.38026115623 0.06504227389 0.92258926705 0.37645106656 0.067972076954 0.92393960367 0.3723098811 0.070676336048 0.92541353349
0.36784762454 0.073142610426 0.92700500735 0.3630756421 0.075359355544 0.92870719048 0.35800950057 0.077317220282 0.93051128147
0.35266653766 0.079009870005 0.93240750408 0.34706684311 0.080434583768 0.93438476237 0.34123376538 0.081592032607 0.93643059411
0.33519096468 0.082486130396 0.93853239448 0.3289639115 0.083125886736 0.94067679459 0.32257857554 0.083524435613 0.94285032283
0.31606007162 0.08369791088 0.94504004722 0.30943013506 0.083667134972 0.947234291 0.30270925829 0.083455046102 0.94942211909
0.29591353924 0.083085153288 0.95159446961 0.28905516888 0.082582557196 0.95374379715 0.28214254886 0.081971273175 0.95586416007
0.27517706343 0.081273765978 0.95795206494 0.26815759845 0.080509665421 0.96000505007 0.26107947353 0.079695913324 0.9620218656
0.25393320061 0.078845707894 0.96400274065 0.24670761508 0.077968544277 0.96594837272 0.23938944846 0.0770705833 0.96785991608
0.23196491632 0.076153964893 0.96973854787 0.2244194923 0.075217933285 0.97158538173 0.21673703937 0.074258648928 0.97340161744
0.20890542235 0.073270558176 0.97518713579 0.20091262057 0.07224683703 0.97694140737 0.1927477484 0.071179686129 0.97866325044
0.1844020727 0.07006061627 0.98035064422 0.17586733081 0.068881953239 0.98200099718 0.16714024686 0.067636828919 0.98361038895
0.15822005275 0.066319147279 0.98517419049 0.14910757074 0.064925394516 0.98668719739 0.13980832561 0.063453695068 0.98814334014
0.13033119891 0.061904610988 0.98953605176 0.12068889905 0.060281566975 0.99085837652 0.11089873488 0.058590184818 0.9921031503
0.10098338943 0.056838970013 0.9932631507 0.09096953416 0.055038612844 0.99433158199 0.0808879039 0.053201782751 0.99530232458
0.07077277331 0.051342988504 0.99617022245 0.060661741874 0.049477333582 0.99693136501 0.050596980883 0.047620314453 0.99758320514
0.04061900732 0.04578770865 0.99812503324 0.030766736582 0.04399436923 0.99855791189 0.021079797298 0.042253657681 0.99888451312
0.011593988476 0.040576734758 0.99910915721 0.0023395113303 0.038972938786 0.99923752768 -0.0066561720829 0.03744953601 0.99927635198
-0.01537328093 0.036010994146 0.99923314123 -0.023798932195 0.034659117231 0.99911578729 -0.031923958611 0.033393367542 0.99893230195
-0.039745812889 0.032211763211 0.99869047891 -0.047267644251 0.03111023878 0.99839767771 -0.054497391529 0.030083319655 0.99806063353
-0.061445744759 0.02912527866 0.99768539059 -0.068126244417 0.028228840907 0.99727726704 -0.074554672045 0.02738645404 0.99684080124
-0.080748901581 0.026590967927 0.99637971443 -0.086725326993 0.025835013448 0.99589721846 -0.092500146894 0.02511168702 0.99539596443
-0.098089650097 0.024414351614 0.99487806287 -0.10350751854 0.02373726509 0.99434538057 -0.10876553171 0.023075540421 0.99379956659
-0.11387490143 0.022424695446 0.99324198454 -0.11884341699 0.021781183106 0.99267407657 -0.12367563248 0.021142299628 0.99209744536
-0.12837485283 0.020505993463 0.99151369198 -0.1329402803 0.019871457312 0.99092482412 -0.13737301767 0.019238978933 0.99033252784
-0.14167148498 0.018609500709 0.98973879222 -0.14583001283 0.017984408345 0.98914618152 -0.14984469047 0.017366099575 0.9885570228
-0.15371263121 0.016758306687 0.98797347442 -0.15742817649 0.01616505247 0.98739812656 -0.16098799097 0.015590509754 0.98683321933
-0.16438980406 0.015039239219 0.98628079856 -0.16763318345 0.014516510766 0.98574255601 -0.17072057584 0.014027406878 0.98521962873
-0.17365417537 0.013576121291 0.98471311371 -0.17643973635 0.013166902294 0.98422337511 -0.17908414121 0.012803145261 0.983750451
-0.18159777248 0.012487440044 0.98329360461 -0.18399072956 0.012221334539 0.98285199823 -0.18627710679 0.012005310564 0.98242389629
-0.18847024913 0.011839082631 0.98200753628 -0.19058511525 0.011721621223 0.98160069144 -0.19263877286 0.011651006125 0.98120056933
-0.19464593704 0.011624333509 0.98080468701 -0.19662395341 0.011639229094 0.98040988841 -0.19858863258 0.011692801752 0.98001318022
-0.20055545468 0.011782685352 0.97961149336 -0.20254052628 0.011907716778 0.97920148156 -0.20455783527 0.012066944103 0.97878009833
-0.20662123358 0.012260985233 0.97834417976 -0.20874249105 0.012491952976 0.97789085462 -0.21093391737 0.012762965536 0.97741699863
-0.21320753948 0.013078740798 0.97691938851 -0.21557086496 0.013445183112 0.97639563151 -0.21803180001 0.013869237208 0.97584311159
-0.22059638428 0.014358421939 0.97525948904 -0.22327119167 0.014920445688 0.97464216781 -0.22606348751 0.015563108021 0.97398823878
-0.22897643179 0.016293300189 0.9732955985 -0.23201138187 0.017117729451 0.9725624412 -0.23517409241 0.018041973176 0.97178579608
-0.23846759005 0.019069751449 0.97096320892 -0.24189356722 0.020203756741 0.97009242361 -0.24545794214 0.021445359651 0.96917000325
-0.2491650745 0.022794093002 0.96819274681 -0.25301712552 0.024247373403 0.9671578977 -0.25701867998 0.025802144527 0.96606192735
-0.26117701001 0.027454178867 0.9649004288 -0.26549648044 0.029197198514 0.96366962309 -0.26998341142 0.031025016824 0.96236500658
-0.27464612109 0.032930806157 0.96098130584 -0.2794902552 0.034907241892 0.95951377359 -0.28452328836 0.036947094408 0.95795689391
-0.28975331359 0.039042982038 0.95630469141 -0.2951846118 0.041188078561 0.9545520348 -0.30082421417 0.043375812213 0.952692674
-0.30667899334 0.045600416602 0.95072004136 -0.31275104787 0.047856423892 0.94862877078 -0.31904384463 0.050139143822 0.94641274899
-0.32555699183 0.052444380987 0.94406685779 -0.33228633018 0.054768000502 0.94158709682 -0.33922694177 0.057106654575 0.9389696012
-0.34636854123 0.05945661179 0.93621244649 -0.3536972123 0.06181406134 0.93331522212 -0.36119517084 0.064174883351 0.93027933058
-0.36883396033 0.066533227859 0.92711101778 -0.37658119582 0.068882642332 0.92381912978 -0.38439917506 0.071215394024 0.92041601565
-0.39224056215 0.07352168467 0.91691979109 -0.40005171821 0.075790033607 0.91335343299 -0.40776787832 0.078006450029 0.90974741064
-0.41531666262 0.08015462266 0.90613867935 -0.42261966637 0.082216427836 0.9025702613 -0.42959242332 0.084171983374 0.89909144532
-0.43614814385 0.086000118066 0.89575598034 -0.44219071552 0.08767767932 0.89262533891 -0.44762546395 0.089181111377 0.8897629872
-0.45236490319 0.090488151391 0.88723045981 -0.45632039054 0.091576515025 0.88509064116 -0.45941360302 0.092426163576 0.88340055787
-0.46157894407 0.093020136071 0.88220866731 -0.46157894407 0.093020136071 0.88220866731
NormalArray 3 260 double
-0.15241080284 -0.9877626185 0.033105236261 -0.15241080284 -0.9877626185 0.033105236261 -0.10207003694 -0.99464054913 0.016488953701
-0.11220189015 -0.99349711334 0.019344808955 -0.099435745471 -0.99493817306 0.014510834371 -0.09463419957 -0.99543917823 0.012050340761
-0.082458761672 -0.99656998143 0.0069874706266 -0.071726459827 -0.99742188865 0.002211562578 -0.051145004846 -0.99867368275 -0.0059214740746
-0.033333498689 -0.99935594541 -0.01328804887 -0.0091413054703 -0.99969759603 -0.022828776263 0.012301353562 -0.99942601201 -0.031564588003
0.038768041314 -0.99836590025 -0.041982951137 0.062341111984 -0.99672461577 -0.051513358295 0.089782613506 -0.99401024127 -0.062311496284
0.11279079764 -0.99102807374 -0.071704902404 0.13777621495 -0.98708517868 -0.081734720988 0.15856164124 -0.98319926722 -0.090429015554
0.1760293608 -0.97948749541 -0.098070946143 0.19049950248 -0.97608115816 -0.10476407896 0.20116987826 -0.97333127079 -0.11025841184
0.20589536422 -0.97192482696 -0.11388252605 0.206178628 -0.97160120241 -0.11610976203 0.2074583603 -0.97102178217 -0.11864959875
0.19571145326 -0.97364666346 -0.11708630066 0.19124187993 -0.97444804177 -0.11780304435 0.17488670383 -0.97787851142 -0.11475302924
0.16413476403 -0.97989246163 -0.11344841502 0.15008861515 -0.98241353939 -0.1110722523 0.13182391706 -0.98544725982 -0.10731334026
0.12033152918 -0.98709354718 -0.10567238143 0.10794237494 -0.98873368866 -0.10370215329 0.10040512162 -0.98957544385 -0.10324365589
0.090841080573 -0.99061955487 -0.10208229815 0.093485186789 -0.99008971175 -0.10479924872 0.097056545483 -0.98942856146 -0.10775504046
0.10648537083 -0.98792688606 -0.11252259154 0.12415730225 -0.98499893223 -0.11984184495 0.15185163891 -0.97978636817 -0.13022961453
0.18931549563 -0.9713708891 -0.14352086581 0.24003786384 -0.9573742609 -0.16067466661 0.30416505225 -0.9351663511 -0.18151450839
0.38441775092 -0.89976255472 -0.20651958239 0.47785951555 -0.84660985235 -0.23431184629 0.58538685491 -0.76643701896 -0.26437951143
0.69403772642 -0.6579464737 -0.29226370293 0.79275937692 -0.52222466729 -0.31434688988 0.87091843618 -0.36623497589 -0.32767822624
0.91992471714 -0.20992688432 -0.331163431 0.94272537353 -0.066074752349 -0.32696023797 0.94622434191 0.059980640242 -0.31790221386
0.93757674995 0.16370566072 -0.3068391999 0.92267335703 0.24763114245 -0.29555489086 0.90463309519 0.31722466864 -0.28461811729
0.88660827102 0.37175928509 -0.2751741407 0.86830403384 0.41838286455 -0.26646553899 0.85141623107 0.45598319794 -0.25917122654
0.83542644577 0.48801619214 -0.25279013018 0.82115934692 0.51417766927 -0.24762603132 0.80753362795 0.537428086 -0.24302364517
0.79442018004 0.55842706282 -0.23886354484 0.78268153995 0.57613865096 -0.23552889819 0.77177075857 0.59179130159 -0.23270786746
0.76069522 0.60703645024 -0.22989025719 0.7509446555 0.61984044378 -0.22777170289 0.74096161639 0.6325232242 -0.22558868296
0.73173481895 0.64380037404 -0.22379730363 0.72361160358 0.65334465796 -0.22254663574 0.71474837735 0.66355778665 -0.22096565537
0.7066010087 0.67263196476 -0.2197299581 0.69930960671 0.68047639102 -0.2189017022 0.69130559246 0.68896892576 -0.21775765697
0.68486874461 0.69549510224 -0.21735078886 0.67714743819 0.70331454453 -0.21637929293 0.67079862684 0.70946751435 -0.21606723101
0.66375398315 0.71623860144 -0.21548298231 0.65622894237 0.72336124401 -0.21473724841 0.6489379568 0.73007601526 -0.21416941928
0.64055098975 0.73772812233 -0.21319391889 0.63087368572 0.74643453458 -0.2117401196 0.62132478406 0.75475919245 -0.21046157399
0.61017483546 0.76431210385 -0.20859932424 0.59794275316 0.77450836671 -0.20640071182 0.58362079035 0.7861317064 -0.20342987309
0.56875806536 0.79772189914 -0.20038471678 0.5516728172 0.8105760437 -0.19652882777 0.53309835303 0.82393495178 -0.19219089791
0.5129262303 0.83774507372 -0.187322913 0.49030011482 0.85243557079 -0.18154722544 0.46606050688 0.86722753444 -0.17522559016
0.43938400643 0.88245195371 -0.16798882188 0.41016836673 0.89790434123 -0.15978017692 0.37825861854 0.91338118863 -0.15051651658
0.34318502526 0.92877907383 -0.13997667825 0.30514906745 0.94363217861 -0.12822775878 0.26325932882 0.95786305909 -0.11486028824
0.21783308329 0.97085088174 -0.0999865653 0.16827361633 0.98221256986 -0.083321411687 0.11399591548 0.99138002821 -0.064579957608
0.056040496145 0.99745060948 -0.04417855171 -0.0068754195047 0.99974472629 -0.0215223338 -0.073411672769 0.99729765805 0.0028473753033
-0.14346982307 0.9892316684 0.028932958782 -0.21624512254 0.97470698702 0.056429924953 -0.29039037897 0.95314423149 0.084790929777
-0.36516631329 0.92396857314 0.11373495281 -0.43839403643 0.88744283067 0.14232319245 -0.50905524576 0.84375414757 0.17012258881
-0.57549644018 0.79387413843 0.19638660768 -0.63688632258 0.73868568397 0.22072442642 -0.69219185844 0.67971028135 0.24261979419
-0.74107764195 0.61824949558 0.26186158521 -0.78363613887 0.55532905674 0.278431393 -0.81969040381 0.49270488629 0.29214643063
-0.84987188307 0.43100771623 0.30323279987 -0.87471362136 0.37096658766 0.31186514945 -0.89467842409 0.31355855361 0.31816906029
-0.91048584264 0.25894535504 0.32243268051 -0.92263596064 0.20795940273 0.32480112521 -0.93180824411 0.16042677599 0.32557126063
-0.93851708802 0.11663180479 0.32493491288 -0.94324491323 0.07693579892 0.32306333205 -0.94646548705 0.041184470012 0.32016702088
-0.94857525994 0.0093622748436 0.31641321722 -0.94993863053 -0.018096862283 0.3119120097 -0.95084088932 -0.041844426357 0.30683977446
-0.95153882531 -0.061673368289 0.30128103088 -0.95221956442 -0.07782613711 0.29533200558 -0.95300642371 -0.090642346821 0.28907217321
-0.95399317284 -0.10031111413 0.28255036108 -0.95517750848 -0.10750203751 0.27582465302 -0.95659842216 -0.11228199319 0.26890930205
-0.95817192318 -0.11551471805 0.26184521295 -0.95989410261 -0.11732853872 0.25463174544 -0.96167362509 -0.11845127014 0.24729159997
-0.9634671569 -0.11922201531 0.23982733089 -0.96522258096 -0.12003618791 0.2322427239 -0.9668969774 -0.12121777939 0.22453615534
-0.96846391775 -0.12295268204 0.21670320255 -0.96991225536 -0.12530200008 0.2087333842 -0.97122039729 -0.12838514336 0.2006195276
-0.97237995205 -0.13220579471 0.19235086872 -0.97342261315 -0.13648274259 0.18390453282 -0.97431494013 -0.14137387889 0.17528212634
-0.97509508778 -0.14655480142 0.16646699362 -0.97579046682 -0.15179807291 0.15744938846 -0.97639096787 -0.15712110227 0.14823507372
-0.97695550428 -0.16213485934 0.13881725411 -0.97748397368 -0.16682358131 0.12920903183 -0.97800747857 -0.17099666623 0.11942157256
-0.97854319964 -0.17455178976 0.10947547271 -0.97910624243 -0.17740169456 0.099396201168 -0.97970722634 -0.17948407952 0.08921443745
-0.98036227292 -0.18070584833 0.078963347252 -0.98104341638 -0.18120636806 0.068688189392 -0.98175662545 -0.18094108259 0.058431609674
-0.982516574 -0.17981874653 0.04823277113 -0.98329347034 -0.17798716728 0.038138162931 -0.98407288873 -0.1755157499 0.028191686892
-0.98483433719 -0.1725151899 0.018434683463 -0.9855915067 -0.16890900692 0.0088954654303 -0.98629920949 -0.16496581254 -0.00038736444187
-0.98697455966 -0.16060173861 -0.0093968149374 -0.9875706255 -0.15612932474 -0.018107832961 -0.98809231624 -0.15156101717 -0.02651099119
-0.98853907692 -0.14694618318 -0.034602205845 -0.98888085098 -0.14254469751 -0.04237536769 -0.98913189831 -0.13832575814 -0.049840469273
-0.98928935906 -0.13437596271 -0.057005830322 -0.98931515755 -0.13105648448 -0.06387266178 -0.98924773398 -0.12815407836 -0.070465970608
-0.9890709423 -0.12586019164 -0.076797677381 -0.98877931822 -0.12428246428 -0.082881414899 -0.98838818731 -0.12334711126 -0.088737147445
-0.98788360712 -0.12320321432 -0.094376621888 -0.98729289728 -0.12364614491 -0.099821670102 -0.9866031257 -0.12478937096 -0.10508037525
-0.98583061203 -0.12649399048 -0.1101693004 -0.98496864897 -0.12880201044 -0.11509475506 -0.9840322307 -0.1315775887 -0.11986620494
-0.98301689424 -0.1348369149 -0.12448611172 -0.98195258187 -0.13833953303 -0.12896239981 -0.98087897707 -0.14179442196 -0.13330706751
-0.97976923726 -0.14540674284 -0.13751043909 -0.97864170892 -0.14905702105 -0.14157121895 -0.97756507178 -0.15230032706 -0.14550306116
-0.9765921476 -0.15483097689 -0.14931559141 -0.97568583096 -0.15694195422 -0.1529914451 -0.97496345228 -0.15791208521 -0.15655682695
-0.97439253481 -0.15798550248 -0.15999927845 -0.97415441755 -0.15599668591 -0.16336524951 -0.9741482465 -0.15254365135 -0.16663021416
-0.97444406562 -0.14704181609 -0.16981598071 -0.97506060586 -0.13910384226 -0.17293621939 -0.97591123132 -0.12895242933 -0.17597880428
-0.97700002679 -0.11594477845 -0.17896300177 -0.97812094522 -0.10104704059 -0.18184859668 -0.97925327173 -0.08345757593 -0.18465606633
-0.98016812349 -0.064612924677 -0.18733824932 -0.98081851024 -0.043928842961 -0.18990867996 -0.98105480748 -0.023214294705 -0.1923345035
-0.98087351217 -0.00264839719 -0.19462820739 -0.98028547513 0.017531157195 -0.19680712836 -0.97936410901 0.035922391253 -0.19888570536
-0.97815121149 0.053474539731 -0.20089967909 -0.97673358545 0.069520118824 -0.20287546951 -0.97515245606 0.084370163849 -0.20483984693
-0.97339562996 0.098638826147 -0.20681230511 -0.97142355603 0.11285963634 -0.20880368116 -0.96926023029 0.12682835006 -0.2108297313
-0.96674792313 0.1416988313 -0.21288469726 -0.96387797629 0.15724527085 -0.2149724904 -0.96053842582 0.17389808855 -0.21708382555
-0.95673455586 0.19131217847 -0.21922280903 -0.95246008431 0.20929547856 -0.2213937453 -0.94776232907 0.2274744044 -0.22361118697
-0.94263220372 0.24581262374 -0.22587758304 -0.93708074008 0.26420772285 -0.22819720806 -0.93149672721 0.28127600615 -0.23064616963
-0.92572255437 0.29774738769 -0.2332042998 -0.92007942426 0.31271120185 -0.23593549392 -0.91470739145 0.32595727654 -0.23887704347
-0.90970470067 0.33741054921 -0.24205676785 -0.90517377774 0.34697260739 -0.24550039065 -0.90118541994 0.35461168165 -0.24922960122
-0.89792664609 0.35996056048 -0.25329061005 -0.89524897927 0.36351157565 -0.25765985229 -0.89326886686 0.36501310214 -0.26236647416
-0.89192064786 0.36465367431 -0.26740466662 -0.89103667443 0.36285526901 -0.27274474987 -0.89069685671 0.35937268573 -0.27840686449
-0.89070947761 0.3546509479 -0.28435775293 -0.8908814132 0.34914871185 -0.29056063847 -0.89135510943 0.34241724428 -0.29704629221
-0.89179495137 0.33531350359 -0.30375420822 -0.89222648799 0.32772582908 -0.31068903277 -0.89254715393 0.31990855644 -0.31783343678
-0.89265816663 0.31213282717 -0.32516841137 -0.89253505312 0.30446927496 -0.33268549645 -0.89213816039 0.29704424992 -0.34037364228
-0.89143295125 0.28998555037 -0.34821785423 -0.89042135008 0.28331463865 -0.35620588829 -0.88909674272 0.27708803882 -0.36432018998
-0.88743057643 0.27145775641 -0.37252873513 -0.88549105713 0.26625084579 -0.38080976202 -0.88327376286 0.26155250239 -0.38912433532
-0.88081747232 0.25731450145 -0.39742902233 -0.87816353789 0.253491775 -0.40567316984 -0.87532391406 0.25017233953 -0.41378961564
-0.87239493661 0.24715383831 -0.42171323763 -0.86939097291 0.24455784385 -0.42936091721 -0.86640978498 0.24221555012 -0.43665285041
-0.86350473821 0.24013968235 -0.44350028192 -0.86069861743 0.23849010196 -0.44980035707 -0.85814393232 0.23693694003 -0.45546665945
-0.85585111336 0.23568567963 -0.4604032278 -0.85389680788 0.23469298307 -0.46452066175 -0.85235195804 0.23391327012 -0.46774001506
-0.85127298729 0.23332235167 -0.46999466096 -0.85127298729 0.23332235167 -0.46999466096
BinormalArray 3 260 double
0.93909414071 -0.15517812377 -0.30662998026 0.93909414071 -0.15517812377 -0.30662998026 0.94589740474 -0.10217329673 -0.30795895366
0.94476405905 -0.11269085797 -0.30776881464 0.94621479243 -0.099058350262 -0.30800163933 0.94673392136 -0.093733291907 -0.3080729656
0.94790193811 -0.080592787295 -0.30819915373 0.94880485568 -0.068913802775 -0.30825352167 0.95016378207 -0.046833169783 -0.30821330512
0.95097575837 -0.027624032833 -0.30802925152 0.95152681925 -0.0016774585202 -0.30756121078 0.95149015335 0.021405139477 -0.30693371938
0.9507645518 0.049782777218 -0.30588959142 0.94947964221 0.075133931863 -0.30470198771 0.94723143953 0.10455280944 -0.30302031287
0.94470361798 0.1293222975 -0.30134833258 0.94130318373 0.15616650271 -0.29926633578 0.93792826167 0.178605216 -0.29730582364
0.93469603392 0.19756499378 -0.2954850206 0.93173134611 0.21338256807 -0.29384447981 0.92935318303 0.22521905305 -0.29253895354
0.92817906851 0.23082980656 -0.29189247537 0.92797555779 0.23178965234 -0.29177889098 0.92754890281 0.23379340886 -0.29153674702
0.92996100474 0.22215874008 -0.29294713494 0.93075902069 0.21814116906 -0.29343155208 0.93384679233 0.20167599022 -0.2953928967
0.93568301086 0.19107218374 -0.29662893282 0.93793440438 0.17701222725 -0.29823769797 0.94058304574 0.15852337619 -0.30028964896
0.94204093903 0.14711846615 -0.30152118684 0.94346840617 0.13476268629 -0.30283062088 0.94423546853 0.12747900193 -0.30359262844
0.9451454351 0.11805663718 -0.30456975708 0.94483309785 0.12141307409 -0.30421913589 0.9444183272 0.12572232399 -0.30375635055
0.94334551827 0.13614497314 -0.30259507505 0.9411215621 0.15516980674 -0.30035401851 0.93698172353 0.18464089119 -0.29660241244
0.93005363425 0.22426469728 -0.29104223572 0.91817204376 0.27764101077 -0.28262265868 0.89884657876 0.34484964803 -0.27046912598
0.86741449284 0.42861108097 -0.25275410754 0.81947175075 0.52571089356 -0.22824133308 0.74622706231 0.63683095068 -0.19388530559
0.64609491241 0.74830852149 -0.15031873082 0.51980523889 0.84855326685 -0.098792038857 0.37368855154 0.92658439372 -0.042405515704
0.22648346816 0.97394415189 0.011748516652 0.090422806206 0.99410529533 0.059819544663 -0.029221174763 0.99449154051 0.10066130735
-0.12793985505 0.98276982475 0.1333973952 -0.20797841745 0.96507217281 0.15931314804 -0.27445040595 0.94452478419 0.18041592701
-0.32658448317 0.92447227058 0.19670687911 -0.37118250341 0.90439251735 0.21047024429 -0.40714865065 0.88610634757 0.22146222492
-0.43778203705 0.86896337193 0.23075863207 -0.46277832172 0.85384142007 0.23830873738 -0.48497736597 0.83950821197 0.24499574798
-0.50501127948 0.82580364964 0.25102179156 -0.52188161912 0.81366723173 0.25609609843 -0.53676900479 0.8024817357 0.26058031268
-0.5512622617 0.79114389816 0.2649551872 -0.5634062757 0.78128760464 0.26863180628 -0.57543173193 0.77119299121 0.27228604848
-0.58610495698 0.76194296494 0.27554291425 -0.59511236146 0.75391470123 0.27830540869 -0.60476019964 0.74508153737 0.28128029366
-0.61331404491 0.737040189 0.28393246048 -0.62068737682 0.72994377976 0.28623287485 -0.6286798838 0.72207294627 0.28874255655
-0.63478787616 0.71592817079 0.29067371151 -0.64213069937 0.70838700315 0.29301197704 -0.64787772638 0.7023635713 0.29485566871
-0.65421176322 0.69559694023 0.29690379858 -0.66087715561 0.68832758509 0.29907611205 -0.66714884577 0.6813434864 0.30113696406
-0.67430764334 0.67319484429 0.30350931413 -0.68246291321 0.66367515447 0.30623465093 -0.69024775255 0.65434248962 0.30885910441
-0.69919049442 0.6433117191 0.31190172264 -0.7087340348 0.63115605748 0.31517947114 -0.71961917306 0.61677903089 0.31895434285
-0.73046163738 0.60187731489 0.32275299246 -0.74248629101 0.58461727621 0.3270118469 -0.75497387921 0.56580178769 0.33148571426
-0.76787211135 0.54531270642 0.33616435389 -0.78158244035 0.52221501313 0.34120429216 -0.79537018837 0.49742359381 0.34634669302
-0.80954304299 0.47003684127 0.35171782639 -0.82390576956 0.43993865367 0.35725797946 -0.83826392885 0.40695403351 0.36290770203
-0.85251563814 0.37056424909 0.36864511934 -0.86622196381 0.33098096935 0.37431418265 -0.87930255393 0.28722359612 0.37990738936
-0.89117493274 0.2396280121 0.38520858644 -0.9014738806 0.18753348052 0.39009747023 -0.90966116904 0.13029024386 0.39438687844
-0.91489973387 0.069018844222 0.39773719478 -0.91654209179 0.0023064385118 0.39993158705 -0.91369948232 -0.068401689756 0.40059264203
-0.9055535129 -0.14301542961 0.39939882594 -0.89132952974 -0.22067474854 0.39602313667 -0.87050267654 -0.29992575145 0.39021741856
-0.8425457588 -0.37997796255 0.38175043196 -0.80773062782 -0.45846014595 0.37065553747 -0.76624382471 -0.53426652788 0.35697293774
-0.71901204747 -0.60558551786 0.34101005286 -0.6668680928 -0.67150111246 0.32306841809 -0.61124424249 -0.73086399429 0.30367465795
-0.55335827603 -0.78328606768 0.28329764299 -0.49416494852 -0.82884825843 0.26231959164 -0.43530793048 -0.8673215958 0.24137161207
-0.37736707261 -0.89937895633 0.22070701263 -0.32101738071 -0.92558346915 0.2006067868 -0.26716982422 -0.94641591328 0.18143098997
-0.21596722801 -0.96265504909 0.16325872987 -0.16818885379 -0.97482468401 0.14638765286 -0.12366452024 -0.98366965479 0.13077116147
-0.082660103432 -0.98974393679 0.11650857006 -0.045516794769 -0.99356477886 0.10371717117 -0.012089021126 -0.99565431154 0.092338223303
0.017635400596 -0.99644719254 0.082352808827 0.043238752729 -0.99632942047 0.073878929075 0.065335351467 -0.9956326126 0.066685774987
0.08372001682 -0.99463221994 0.060808764473 0.098615467767 -0.99354074583 0.056140679437 0.11033738479 -0.99250424449 0.052545087129
0.11905717084 -0.9916311085 0.049931300059 0.12540904944 -0.99093970841 0.048073533418 0.12944870499 -0.99047529773 0.046922461268
0.13200187596 -0.99017155294 0.046214721495 0.13318657757 -0.99002773704 0.045895701872 0.13370314423 -0.9899643538 0.045760763001
0.13387798613 -0.98994276839 0.045716519238 0.13409422316 -0.98991594396 0.045663587351 0.13466733405 -0.98984438323 0.045528080571
0.13577983845 -0.98970402812 0.045274409856 0.13749303909 -0.989484615 0.044898339449 0.13992585671 -0.98916667314 0.044385215731
0.14308425641 -0.9887432113 0.043746516123 0.14669389275 -0.9882447761 0.04304839528 0.15091234319 -0.98764299509 0.042270307903
0.15542195692 -0.98697693027 0.041479566327 0.15999967879 -0.98627685677 0.040719339129 0.16466423397 -0.98553872973 0.039988776515
0.16903171667 -0.98482491161 0.039346819843 0.17308746585 -0.98414227904 0.038790511262 0.17664326326 -0.98352800183 0.03833832497
0.17959833377 -0.98300610587 0.037992556219 0.18186673663 -0.98259828509 0.037750499897 0.18338728869 -0.98232124863 0.03760408004
0.18406799936 -0.98219615857 0.037545674869 0.18404882031 -0.98219969743 0.037547118445 0.18328631674 -0.98234038413 0.037596486724
0.18169006043 -0.98263355537 0.037683123652 0.17940835852 -0.98304886133 0.037783291705 0.17651116627 -0.98356944338 0.037880842542
0.17310952525 -0.98417073613 0.037961222557 0.16912690091 -0.9848608315 0.038016232923 0.16483192874 -0.98558805438 0.038034488598
0.16014019111 -0.98636214944 0.038010910736 0.1553636717 -0.98712835009 0.037944037296 0.1505139045 -0.98788366779 0.037834157521
0.14563915599 -0.98861985695 0.037683082172 0.14099798715 -0.98929932895 0.03750207145 0.13655812703 -0.98992978464 0.037294764077
0.13240462415 -0.9905023063 0.037070159365 0.12889660147 -0.99097292113 0.036855606284 0.12581940109 -0.99137607109 0.036646472885
0.12336241722 -0.99169155113 0.036463425932 0.12163131801 -0.99191049049 0.036323564337 0.1205508773 -0.99204581211 0.036229720724
0.12026803117 -0.99208109921 0.036203497921 0.12057747957 -0.99204242505 0.036233938861 0.12159083633 -0.9919148816 0.03633918259
0.12316862913 -0.99171387174 0.036511441934 0.12535151684 -0.99143109804 0.036761053534 0.1280035424 -0.99108039095 0.037077645767
0.13113993591 -0.99065559637 0.037467407113 0.13452140661 -0.99018548706 0.03790372511 0.13785893647 -0.98970915101 0.038349837608
0.14135569342 -0.98919692965 0.0388330055 0.14489310859 -0.98866504213 0.039337279408 0.14803073724 -0.98818167812 0.039797887744
0.15046662171 -0.9877988296 0.040165507568 0.15249107683 -0.98747552582 0.040479098319 0.15339209068 -0.98733009138 0.040622126559
0.15341180012 -0.98732689738 0.040625328222 0.15140107849 -0.98765090234 0.040291544156 0.14795160974 -0.98819717986 0.039707113813
0.14248856222 -0.98903710408 0.038763596144 0.13463221882 -0.99019026139 0.037381972982 0.12460392832 -0.99156812698 0.035588068321
0.11177296938 -0.99317716053 0.033255542754 0.097091853225 -0.99480658149 0.03054566201 0.079773863496 -0.99643901245 0.027302475432
0.061232465961 -0.99784017061 0.023781905417 0.040894545011 -0.99896589549 0.019868966665 0.020536988703 -0.99966261838 0.015902248816
0.000335137184 -0.99992892791 0.011917500588 -0.019478403123 -0.99977856892 0.0079627217867 -0.037529948017 -0.99928617532 0.0043177318117
-0.054751411429 -0.99849969551 0.00080063732232 -0.070489986983 -0.99750947833 -0.0024499745509 -0.085051628251 -0.9963614125 -0.0054914678998
-0.099038444078 -0.99504776278 -0.0084460864916 -0.112972772 -0.99353241195 -0.011423624247 -0.12665499785 -0.9918425663 -0.014381765797
-0.1412125994 -0.98982341241 -0.017567413664 -0.15642394003 -0.98746805105 -0.020937983158 -0.1727080389 -0.9846659835 -0.02459337799
-0.18972671101 -0.98142421311 -0.028465576404 -0.20729149229 -0.97773860666 -0.03251852195 -0.22503747957 -0.97365968645 -0.036673529673
-0.242928636 -0.96918041787 -0.040926708009 -0.26086472599 -0.96431388174 -0.045258504296 -0.27750133956 -0.95945729221 -0.049342790496
-0.29354890704 -0.95445420933 -0.053349802963 -0.30812555102 -0.94963335685 -0.057053767255 -0.32103081887 -0.94514123305 -0.06039257334
-0.33219591092 -0.94108158552 -0.06333503108 -0.34153003717 -0.93756177109 -0.065841925172 -0.34900750283 -0.93465758681 -0.067889309872
-0.35427998487 -0.93256349004 -0.069361584154 -0.35782800895 -0.93113203036 -0.070372281766 -0.35941576071 -0.93048529467 -0.070833800906
-0.35923121536 -0.93056072334 -0.070779051227 -0.35768539539 -0.93119146163 -0.070310879005 -0.35454986649 -0.93246243086 -0.069341237438
-0.35025653993 -0.93418325328 -0.067985333186 -0.34524824774 -0.93616169501 -0.066369633332 -0.33910302427 -0.93854620011 -0.064344146586
-0.33264058644 -0.94100236786 -0.062167386427 -0.32575861645 -0.94356003712 -0.059797827442 -0.31870143272 -0.94612080718 -0.057313305658
-0.31172751341 -0.94858984029 -0.054802119283 -0.30490486012 -0.9509463322 -0.052288617792 -0.2983531209 -0.95315452241 -0.049818386711
-0.29219193534 -0.95518233437 -0.047440289141 -0.28644039753 -0.95703282982 -0.045167037943 -0.28114948096 -0.9586990159 -0.043025181769
-0.27645701605 -0.96014791364 -0.041079218608 -0.27219880729 -0.96143937339 -0.039270098118 -0.268448755 -0.96255839103 -0.037637877103
-0.26515641018 -0.96352675584 -0.036170000247 -0.26227356611 -0.96436393069 -0.034853776093 -0.25987189708 -0.96505377793 -0.033731332943
-0.25775791808 -0.96565533016 -0.032720620327 -0.25603115789 -0.96614280518 -0.03187673419 -0.2545278655 -0.96656438197 -0.031126535128
-0.25324763318 -0.96692135805 -0.030474967283 -0.25231975956 -0.96717893681 -0.029994051461 -0.25143674242 -0.96742318342 -0.029528778101
-0.25076855089 -0.96760743841 -0.029171544536 -0.25026374622 -0.96774632296 -0.028898299835 -0.24987052846 -0.96785432083 -0.02868331672
-0.24955796823 -0.96794004695 -0.0285111556 -0.24955796823 -0.96794004695 -0.0285111556
