# vtk DataFile Version 4.1
vtk output
ASCII
DATASET POLYDATA
FIELD FieldData 4
Angle 1 2 double
0 0 
METADATA
INFORMATION 0

Offset 1 2 double
0 0 
METADATA
INFORMATION 0

Normal 3 2 double
0.019365 0.943136 -0.331843 -0.058772 -0.997856 -0.028811
METADATA
INFORMATION 1
NAME L2_NORM_RANGE LOCATION vtkDataArray
DATA 2 1 1 

Binormal 3 2 double
0.006812 0.331773 0.943335 -0.001694 -0.028761 0.999585
METADATA
INFORMATION 1
NAME L2_NORM_RANGE LOCATION vtkDataArray
DATA 2 1 1 

POINTS 2 double
-10.561158 -50.655626 24.948075 0.928599 -174.779957 26.385013
METADATA
INFORMATION 1
NAME L2_NORM_RANGE LOCATION vtkDataArray
DATA 2 66.8322 72.4716 

