# vtk DataFile Version 4.1
vtk output
ASCII
DATASET POLYDATA
POINTS 192 float
-2.86334 0.3650700000000002 210.993 -2.88617 0.13806999999999992 208.534 -2.90897 -0.08843999999999985 206.073
-2.93171 -0.31296999999999997 203.604 -2.95433 -0.5340599999999998 201.121 -2.97681 -0.7503100000000003 198.617
-2.99915 -0.9603999999999995 196.087 -3.02137 -1.1631300000000002 193.526 -3.04356 -1.35744 190.927
-3.06585 -1.5424599999999997 188.286 -3.08842 -1.7174999999999998 185.6 -3.11153 -1.8820700000000001 182.863
-3.1355 -2.03591 180.072 -3.16075 -2.1789799999999997 177.224 -3.18773 -2.3114899999999996 174.317
-3.21702 -2.43383 171.348 -3.24924 -2.5466599999999997 168.315 -3.2851 -2.6508099999999994 165.218
-3.32537 -2.74731 162.054 -3.3709 -2.8373899999999996 158.823 -3.42258 -2.9224 155.526
-3.48135 -3.00386 152.161 -3.54817 -3.08337 148.728 -3.62405 -3.16264 145.229
-3.70996 -3.2434499999999997 141.663 -3.80689 -3.3275900000000003 138.032 -3.91578 -3.41689 134.337
-4.03751 -3.5131799999999997 130.579 -4.17289 -3.6182199999999995 126.76 -4.32265 -3.73375 122.884
-4.48738 -3.8614 118.952 -4.66756 -4.00272 114.968 -4.86351 -4.159089999999999 110.936
-5.07539 -4.33178 106.861 -5.30317 -4.52186 102.748 -5.54666 -4.73021 98.6034
-5.80547 -4.9575 94.4336 -6.07903 -5.204180000000001 90.246 -6.36658 -5.47043 86.0486
-6.66719 -5.756210000000001 81.8499 -6.97978 -6.0612200000000005 77.6589 -7.30312 -6.384920000000001 73.485
-7.63586 -6.726420000000001 69.3378 -7.97656 -7.084820000000001 65.2269 -8.32371 -7.45872 61.1622
-8.67574 -7.846820000000001 57.1532 -9.03109 -8.24732 53.2091 -9.38819 -8.658520000000001 49.3386
-9.74555 -9.078520000000001 45.5498 -10.1017 -9.505320000000001 41.85 -10.4553 -9.93702 38.2456
-10.8051 -10.37162 34.742 -11.1499 -10.80702 31.3436 -11.4888 -11.24142 28.0536
-11.821 -11.67312 24.8742 -12.1457 -12.10032 21.8061 -12.4624 -12.52152 18.8494
-12.7708 -12.935319999999999 16.0028 -13.0704 -13.34072 13.264 -13.3613 -13.73642 10.6302
-13.6433 -14.121920000000001 8.09751 -13.9167 -14.496319999999999 5.66153 -14.1814 -14.859119999999999 3.3174
-14.4379 -15.210120000000002 1.05984 -14.6863 -15.54902 -1.11662 -14.9271 -15.87562 -3.21763
-15.1605 -16.190019999999997 -5.24881 -15.3871 -16.49222 -7.21578 -15.607 -16.78232 -9.124
-15.8209 -17.06062 -10.9788 -16.029 -17.327219999999997 -12.7852 -16.2317 -17.58232 -14.5481
-16.4294 -17.82632 -16.2722 -16.6223 -18.05932 -17.9619 -16.811 -18.28172 -19.6215
-16.9955 -18.49362 -21.255 -17.1763 -18.69542 -22.8665 -17.3536 -18.88722 -24.4596
-17.5275 -19.069419999999997 -26.0381 -17.6984 -19.24202 -27.6058 -17.8665 -19.40552 -29.1661
-18.0318 -19.559919999999998 -30.7227 -18.1945 -19.70562 -32.279 -18.3548 -19.84262 -33.8385
-18.5127 -19.97112 -35.4045 -18.6682 -20.09142 -36.9803 -18.8214 -20.203619999999997 -38.569
-18.9721 -20.30772 -40.1737 -19.1203 -20.40402 -41.7972 -19.2657 -20.49262 -43.4421
-19.4082 -20.57342 -45.1111 -19.5475 -20.64662 -46.8062 -19.6833 -20.71232 -48.5296
-19.8152 -20.770519999999998 -50.283 -19.9428 -20.821119999999997 -52.0678 -20.0656 -20.86442 -53.8854
-20.183 -20.900219999999997 -55.7365 -20.2946 -20.92872 -57.622 -20.3998 -20.94982 -59.5422
-20.4979 -20.96372 -61.4972 -20.5883 -20.970319999999997 -63.4871 -20.6703 -20.96972 -65.5115
-20.7434 -20.96202 -67.57 -20.8068 -20.947219999999998 -69.6618 -20.8599 -20.92552 -71.7864
-20.9022 -20.897019999999998 -73.9428 -20.9329 -20.86162 -76.1301 -20.9514 -20.81972 -78.3476
-20.9573 -20.77122 -80.5943 -20.95 -20.71622 -82.8696 -20.929 -20.654819999999997 -85.1729
-20.8938 -20.58702 -87.5036 -20.8441 -20.513019999999997 -89.8617 -20.7793 -20.43272 -92.247
-20.6991 -20.34602 -94.6599 -20.6033 -20.25292 -97.1006 -20.4915 -20.153419999999997 -99.57
-20.3635 -20.04732 -102.069 -20.2191 -19.93442 -104.598 -20.0581 -19.814619999999998 -107.159
-19.8803 -19.68752 -109.752 -19.6857 -19.55312 -112.379 -19.4742 -19.410919999999997 -115.041
-19.2458 -19.26072 -117.739 -19.0006 -19.10212 -120.473 -18.7386 -18.935019999999998 -123.244
-18.4601 -18.75902 -126.051 -18.1652 -18.573819999999998 -128.895 -17.8543 -18.37922 -131.774
-17.5278 -18.17502 -134.686 -17.1861 -17.960919999999998 -137.631 -16.8298 -17.737019999999998 -140.606
-16.4595 -17.50302 -143.608 -16.0759 -17.25892 -146.634 -15.6799 -17.00492 -149.68
-15.2722 -16.74082 -152.743 -14.8539 -16.46692 -155.818 -14.4259 -16.18332 -158.901
-13.9894 -15.890320000000001 -161.989 -13.5453 -15.588120000000002 -165.075 -13.0949 -15.276919999999999 -168.157
-12.6393 -14.957220000000001 -171.229 -12.1796 -14.629320000000002 -174.287 -11.7171 -14.293619999999999 -177.328
-11.253 -13.95042 -180.347 -10.7883 -13.600320000000002 -183.34 -10.3242 -13.243720000000001 -186.304
-9.86168 -12.88122 -189.235 -9.40188 -12.513119999999999 -192.129 -8.94571 -12.14012 -194.984
-8.49409 -11.76272 -197.796 -8.04786 -11.38152 -200.562 -7.60779 -10.99712 -203.279
-7.17457 -10.61012 -205.943 -6.74884 -10.22132 -208.552 -6.33116 -9.83122 -211.102
-5.92198 -9.440620000000001 -213.591 -5.52173 -9.05022 -216.016 -5.13073 -8.66072 -218.372
-4.74923 -8.272920000000001 -220.659 -4.37741 -7.887320000000001 -222.873 -4.0154 -7.504720000000001 -225.011
-3.66324 -7.125820000000001 -227.071 -3.3209 -6.7510200000000005 -229.052 -2.98831 -6.381070000000001 -230.952
-2.66531 -6.016360000000001 -232.769 -2.35169 -5.657310000000001 -234.503 -2.04719 -5.30425 -236.153
-1.75148 -4.957420000000001 -237.721 -1.4642 -4.616950000000001 -239.205 -1.18492 -4.282920000000001 -240.609
-0.913178 -3.9552599999999996 -241.933 -0.648483 -3.6338399999999997 -243.179 -0.390302 -3.3184299999999998 -244.351
-0.138085 -3.00874 -245.452 0.108738 -2.7043899999999996 -246.485 0.35074 -2.40495 -247.455
0.588496 -2.10995 -248.365 0.82257 -1.8188799999999996 -249.219 1.05351 -1.5312199999999998 -250.023
1.28183 -1.2464599999999995 -250.781 1.50802 -0.9640799999999996 -251.497 1.73252 -0.6836100000000003 -252.177
1.95573 -0.40459999999999985 -252.823 2.178 -0.1266799999999999 -253.441 2.39961 0.15050000000000008 -254.035
2.6208 0.42722000000000016 -254.609 2.84176 0.7036800000000003 -255.166 3.06262 0.9800500000000003 -255.709
3.28345 1.2564200000000003 -256.242 3.50431 1.5328300000000001 -256.767 3.72519 1.80929 -257.288

LINES 1 193
192 191 190 189 188 187 186 185 184 183 182 181 180 179 178 177 176 175 174 173 172 171 170 169 168 167 166 165 164 163 162 161 160 159 158 157 156 155 154 153 152 151 150 149 148 147 146 145 144 143 142 141 140 139 138 137 136 135 134 133 132 131 130 129 128 127 126 125 124 123 122 121 120 119 118 117 116 115 114 113 112 111 110 109 108 107 106 105 104 103 102 101 100 99 98 97 96 95 94 93 92 91 90 89 88 87 86 85 84 83 82 81 80 79 78 77 76 75 74 73 72 71 70 69 68 67 66 65 64 63 62 61 60 59 58 57 56 55 54 53 52 51 50 49 48 47 46 45 44 43 42 41 40 39 38 37 36 35 34 33 32 31 30 29 28 27 26 25 24 23 22 21 20 19 18 17 16 15 14 13 12 11 10 9 8 7 6 5 4 3 2 1 0 

CELL_DATA 1
FIELD FieldData 2
LengthArray 1 1 double
474.4441342 
TortuosityArray 1 1 double
0.013055697337 
POINT_DATA 192
FIELD FieldData 8
RadiusArray 1 192 double
76.462399468 77.696244105 77.606110139 77.5037675 77.389040672 77.365986162 77.357036179 76.896716493 76.856159757 
76.513220016 75.729562586 75.103484186 75.061454292 74.527436549 73.720678958 73.602716094 72.8147564 72.75552538 
71.984824832 71.332448424 70.667123605 70.629739397 70.192280905 69.463665698 69.347005383 68.932118889 68.12936302 
67.709233171 66.315035679 66.222557328 65.44099335 65.314353632 64.22286947 63.657503337 62.440450187 62.06675639 
60.767211998 59.843242074 59.71265569 57.067147414 56.327163461 55.870822033 54.713726929 53.332266482 52.118609647 
51.971343456 50.459772219 50.087431169 49.682747704 49.666990323 49.490812662 49.46721873 49.467090371 49.489981382 
49.5333819 49.625295125 49.678363957 49.692366436 49.69568099 49.733214158 49.984737535 50.020969779 50.070152024 
50.363006367 50.387257804 50.44756974 50.869323553 50.940365704 51.106456371 51.114168763 51.47961444 51.512291543 
51.634479353 51.734632581 51.892730086 52.043172761 52.064670763 52.066084608 52.072615406 52.163459197 52.380875212 
52.471513282 52.486883204 52.536990576 52.685379599 52.74308916 52.965802302 53.126485164 53.212341156 53.37378804 
53.423427968 53.452021856 53.459115175 53.517102717 53.520479581 53.573812559 53.701923237 53.760641244 53.846115046 
53.843290542 53.835980522 53.896533055 53.89099344 53.879116073 53.894256241 53.896999184 53.658420684 53.556404619 
53.516920796 53.409873191 53.198346594 52.945761639 52.824218762 52.806417946 52.709380013 52.708311274 52.607891679 
52.259405367 52.259334802 52.256465148 51.72094932 51.683779059 50.900637202 50.20138857 50.191711783 49.70841076 
49.641581872 49.544166296 48.559128889 48.129877029 47.17121762 46.727566552 45.547611803 44.92213607 43.818659663 
43.433777365 43.355433158 42.270244502 41.233157817 40.667223613 40.327637235 39.74176668 38.160211831 37.938299366 
37.875508665 36.999995291 36.905183447 35.874549647 34.905187288 34.871027708 33.845876381 33.803744421 33.037861776 
32.725696809 31.967977683 31.595089231 31.123742673 30.865651306 30.370525513 30.179045703 30.160639817 29.775393172 
29.598319566 29.385470324 29.264311686 29.123451506 29.013356177 29.00044139 28.94167663 28.929098186 28.918846833 
28.904324349 28.902867032 28.876617733 28.853171246 28.8315838 28.810684164 28.773453722 28.729261185 28.721696133 
28.68841501 28.627510719 28.567282489 28.536471968 28.47261916 28.436881708 28.31661267 28.220378519 28.139822094 
28.081512424 28.02741652 27.959098556 
EdgeArray 2 192 int
26803 26803 31408 31406 26049 31406 26049 26046 26143 
18762 26143 26313 26576 26313 24529 26573 26574 28239 
26044 26044 30329 30329 32950 32950 32949 32949 32948 
32948 32701 32701 32702 32702 30841 30841 32117 32117 
32104 32104 32106 32106 31060 31060 19446 19446 31948 
31948 25101 25101 23907 28165 23904 23904 31440 31440 
31436 31436 26201 26201 27696 27696 24717 24717 27258 
27258 28732 28732 28821 28821 27901 27901 27261 27902 
27262 27262 26661 26661 26161 26161 26548 26548 26554 
26554 23938 23938 23942 23942 23937 23937 25253 25253 
25094 25090 19445 19445 25727 25727 25732 25732 25733 
25733 25415 25415 25410 25410 25069 24250 25066 25066 
23793 23793 26533 26533 26531 26531 26532 26525 26525 
26525 26526 26524 26526 26526 26982 26516 26516 26516 
26515 26514 26515 26515 26513 26511 26511 26511 27798 
27798 27331 27335 27337 27335 27334 27337 27334 27334 
27329 27329 27171 28021 28021 28021 28020 28020 27170 
27791 27791 27790 27790 27176 27176 27176 26419 26419 
26422 26422 28405 28404 28404 28404 28400 28400 27165 
28401 27165 27165 26977 28011 28011 28011 28013 28009 
28014 28013 28014 25240 28222 25240 26425 28221 28221 
28220 28390 28220 28391 28390 28386 28391 28387 28387 
27156 28521 28684 28684 28677 28677 28678 28217 29117 
28217 29118 29118 28517 28517 28512 28512 27782 28380 
28504 28504 28510 28510 28377 28377 24244 24244 27986 
27986 27775 21994 28214 28214 28211 28215 27978 27978 
27983 27983 27984 27983 27984 27984 26742 26742 27973 
27973 24206 24206 17590 21315 21315 21298 21291 21291 
18329 15052 19763 19763 16722 16722 10172 15606 16208 
16208 15704 15704 17428 14119 8517 8517 14091 17424 
14125 14125 15053 14481 14121 7770 10346 17675 10719 
17679 14410 14750 6288 6288 15005 15005 16613 15007 
14736 15007 13875 13875 4746 4746 6989 6989 14738 
14738 14401 14401 13533 13533 13871 14400 8843 8843 
6171 6171 4466 10885 15002 14996 14995 14995 5936 
5936 4160 4160 5633 5633 8837 14990 6067 6067 
2584 2584 5393 5393 3922 3922 7875 7875 5805 
5805 6134 3399 7271 2403 8821 8814 4133 2554 
8495 427 427 589 8209 589 1204 2450 6002 
7259 2874 8216 2874 588 2052 588 831 2052 
3356 3356 5266 5266 6920 6920 8819 8819 6062 
6062 1189 1189 553 11814 11806 8818 8161 11793 
720 4015 3252 3252 3655 3655 
EdgePCoordArray 1 192 double
0 0.444 0.456 0.472 0.312 0.76 0.972 0.776 0.296 
0 0 0 0 0 0 0 0 0 
0 0 0 0 0 0 0.092 0 0 
0 0 0 0 0 0 0 0 0.92 
0 0 0 0 0 0 0 0 0 
0.004 0 0 0 0 0 0 0.012 0 
0 0 0 0.676 0 0.916 0 0.212 0 
0.22 0 0.06 0 0 0.892 0.996 0.584 0 
0 0.004 0 0 0.888 0.204 0.028 0 0 
0 0.176 0 0 0.908 0 0.036 0 0.772 
0.732 0.864 0.932 0.952 0.112 0.816 0.508 0.94 0 
0.116 0 0 0.136 0.404 0 0 0 0.728 
0 0 0 0 0 0.864 0 0.944 0 
0 0.976 0 0 0 0 0.984 0.02 0 
0.324 0 0 0.652 0 0 0.852 0 0.112 
0 0.96 0.572 0.34 0.144 0.46 0 0 0.96 
0.924 0 0 0 0 0 0 0.004 0 
0 0.656 0.652 0 0 0 0 0.98 0 
0 0 0 0 0 0.016 0.54 0.4 0.248 
0.956 0.116 0.644 0.244 0.94 0.716 0.588 0.112 0.904 
0 0 0 0 0 0 0.056 0.9 0.164 
0.704 0 0 
CurvatureArray 1 192 double
0 0.00011221909804 0.00044449659846 0.0007636338282 0.0010550131165 0.0013099170124 0.0015186295095 0.0016766786585 0.001782031644 
0.0018353014913 0.0018403708626 0.0018023090753 0.0017271271538 0.0016224426266 0.0014957603819 0.0013548109086 0.001206865307 0.0010602388243 
0.00092293037619 0.00080469029993 0.00071539429825 0.00066423015336 0.00065476163292 0.0006820731682 0.00073508263325 0.00080239130167 0.0008749439185 
0.00094684993145 0.0010141927179 0.0010751602746 0.0011284895644 0.0011739651747 0.0012115666189 0.0012418408013 0.0012655076265 0.0012830607091 
0.0012955805267 0.0013037985402 0.0013085384522 0.0013104200091 0.0013103095401 0.0013085306833 0.0013057099041 0.0013020775197 0.001297732181 
0.0012928222015 0.0012871797876 0.0012806287509 0.0012725121701 0.0012624106097 0.0012495190517 0.0012325288803 0.0012106353015 0.0011820152091 
0.0011455239867 0.0010987772981 0.0010406529769 0.00096920546213 0.00088268248485 0.00078037898738 0.00066085122457 0.00052702120797 0.00038351531065 
0.00025408951066 0.00022513269644 0.00035537087618 0.00055577635198 0.00078459520188 0.0010262621438 0.0012756725787 0.0015284044071 0.0017811181542 
0.0020297132047 0.0022721501921 0.0025062042963 0.0027280342461 0.0029359363651 0.0031262576703 0.0032977330113 0.003447297926 0.0035725965604 
0.003673916822 0.0037498564447 0.0037992206265 0.0038249528281 0.0038282062453 0.0038106274132 0.0037771709866 0.0037297223959 0.0036719375766 
0.0036073285666 0.0035388345239 0.003468560003 0.0034003645236 0.0033327516186 0.0032688688055 0.0032105816003 0.0031555667901 0.0031060538876 
0.0030614265376 0.0030217414367 0.0029861841038 0.002954497443 0.0029269196735 0.002902493985 0.0028805613959 0.0028599513053 0.0028400281298 
0.0028201725748 0.0027992269863 0.0027761479165 0.0027494208272 0.0027190240723 0.0026824753733 0.0026405604202 0.0025916462986 0.0025366613013 
0.0024744130221 0.0024061521154 0.0023327004241 0.0022542647286 0.002172893266 0.0020893740047 0.0020059364305 0.0019231896227 0.0018424777281 
0.0017646712987 0.0016913553122 0.0016226421241 0.0015587323814 0.0015003936692 0.001447135275 0.0013987837971 0.0013553645306 0.0013168807723 
0.0012822603557 0.001252790654 0.0012259154736 0.0012036507888 0.0011848055495 0.0011693644243 0.0011576666659 0.001149657697 0.0011460827614 
0.0011461116953 0.0011507056553 0.0011599045749 0.0011743563571 0.0011935905195 0.001217517398 0.0012477606784 0.0012839905634 0.0013262969147 
0.0013752768779 0.0014341177685 0.0015015015592 0.0015820801993 0.0016776150426 0.001792093407 0.001928885163 0.0020942408422 0.0022937951194 
0.0025337991812 0.0028259258266 0.0031762187624 0.0035960633545 0.0041005534846 0.0047003649694 0.005409175228 0.0062486292454 0.0072214081993 
0.008359820874 0.0096520429394 0.011114185226 0.012731164537 0.014484192936 0.016325985186 0.01819538734 0.019992977572 0.021637063602 
0.022980356138 0.02388449781 0.024298220439 0.024070618855 0.023184843153 0.02163365736 0.019482165923 0.016753865299 0.013600943803 
0.010125375251 0.0064212511239 0 
TorsionArray 1 192 double
-0.0 -0.0 -0.00043540037238 -0.00089451428029 -0.0014189547978 -0.002014690952 -0.0027067041291 -0.0034940215895 -0.0044114197672
-0.005504354643 -0.0068135250835 -0.0084370519974 -0.010478878617 -0.013069627433 -0.016437050016 -0.020852316995 -0.02673116991 -0.034551644055
-0.044641558969 -0.056557010916 -0.067976479623 -0.073984143793 -0.070696522227 -0.059940337715 -0.0471793932 -0.036047949235 -0.02754713096
-0.021371808138 -0.016969558819 -0.013826653474 -0.011555894842 -0.0099082051394 -0.0087023139359 -0.0078003353979 -0.0071173023323 -0.0066018676829
-0.0061958182465 -0.0058805744596 -0.0056114984152 -0.0053687829275 -0.0051599426881 -0.004952840719 -0.0047456176544 -0.0045285946055 -0.0042894607282
-0.0040299828284 -0.0037538007619 -0.0034372546353 -0.0030725026926 -0.0026576580676 -0.0022005770007 -0.0016463360234 -0.00099016790972 -0.00023175180735
0.00074233237672 0.0020070681235 0.0037135960358 0.0060886106334 0.0096798306224 0.015717033694 0.026692087702 0.049621138491 0.1090263384
0.28427711418 0.40842806829 0.18274627796 0.082671373519 0.045801670476 0.029482496751 0.020945882036 0.016045018521 0.013223623462
0.011582809665 0.010454588051 0.010059644369 0.0098702388969 0.01006099907 0.010526798831 0.010950896589 0.011758063701 0.012778283179
0.013715939538 0.01467942628 0.015860575834 0.017025680895 0.018077018252 0.019224782459 0.020186266027 0.020961564841 0.021683290928
0.022268852137 0.022491376771 0.022525368497 0.022481954761 0.02223572768 0.021744482978 0.020993182366 0.02027611263 0.019468630946
0.01850434753 0.017451710073 0.016374749002 0.015252449722 0.014140778472 0.012969635719 0.011811601416 0.010638769077 0.0094285627808
0.0082474547404 0.0070316695708 0.0058490637581 0.0047061400083 0.003502436104 0.0023682436865 0.0012699932721 0.00012206734371 -0.00092694767741
-0.0019695867632 -0.0029943162415 -0.0039077708709 -0.0048493524625 -0.0057406206973 -0.0065169551347 -0.007244092883 -0.0078469878702 -0.0084383710937
-0.0089466783646 -0.0093518426352 -0.0097105405984 -0.0099711325678 -0.010235019071 -0.010510787644 -0.010695507488 -0.010956489356 -0.011272420143
-0.011569313321 -0.011943487171 -0.012384559708 -0.012802472152 -0.013308380739 -0.013820466623 -0.014206564679 -0.014547182262 -0.014747865678
-0.014796078129 -0.014616523997 -0.014055942483 -0.013191796413 -0.012215014807 -0.01072249741 -0.0088228180384 -0.0067778781293 -0.0045192034132
-0.0018974583926 0.00080743201146 0.0035504576004 0.0064016240814 0.0091928601356 0.011720415203 0.013954101726 0.015885598714 0.017304828677
0.018346375795 0.018884042261 0.018849700297 0.018531645851 0.017844183433 0.016870952301 0.015795655356 0.014515714052 0.013268672589
0.011962955364 0.010686565164 0.0094583297209 0.0082997501827 0.0072264262593 0.0062162113439 0.005273249584 0.0044262248278 0.0036870836121
0.0030057786868 0.0024091708911 0.001854466406 0.0013934506911 0.0010215570301 0.00067343441402 0.00042028356369 0.00020030717895 7.2736063615e-05
2.8714131179e-05 -0.0 -0.0
TangentArray 3 192 double
-0.0092358206881 -0.091793406343 -0.995735241 -0.0092358206881 -0.091793406343 -0.995735241 -0.0091995806796 -0.091107701284 -0.99579855115
-0.0091219560754 -0.089614666082 -0.99593473759 -0.0090090011187 -0.08735410433 -0.99613658619 -0.0088711403035 -0.08439037137 -0.99639327983
-0.0087225830679 -0.08080853871 -0.99669147514 -0.0085809893249 -0.076711464044 -0.99701640804 -0.0084663859813 -0.072212683475 -0.99735332187
-0.0084003851889 -0.06743223326 -0.99768849219 -0.0084053592823 -0.062490664729 -0.99801015363 -0.0085035010052 -0.057504403471 -0.99830903735
-0.0087164635309 -0.05258345245 -0.99857849155 -0.0090647092188 -0.047827909581 -0.9988144583 -0.0095669137608 -0.043325698979 -0.99901519406
-0.010239824028 -0.039151939127 -0.99918080029 -0.01109762731 -0.035369290433 -0.99931269178 -0.012151983758 -0.032027627632 -0.99941310796
-0.013411940963 -0.02916495196 -0.99948462991 -0.014883371628 -0.02680808009 -0.9995297955 -0.01656889123 -0.024973676009 -0.99955079278
-0.018467965878 -0.023669662677 -0.99954923906 -0.020576803503 -0.022895996402 -0.99952607195 -0.02288829793 -0.02264578641 -0.99948151267
-0.025391836652 -0.022905942718 -0.99941511516 -0.028073785079 -0.023658451768 -0.99932584288 -0.030917759647 -0.02488116543 -0.99921219956
-0.033904791754 -0.026548551387 -0.99907238953 -0.03701369079 -0.028632169732 -0.99890449271 -0.040221710903 -0.031101668966 -0.99870661366
-0.043505153981 -0.033925561315 -0.9984770192 -0.046839823367 -0.03707140484 -0.99821427654 -0.050201571751 -0.040506617759 -0.99791733932
-0.053566803344 -0.044198891555 -0.99758561315 -0.056913444046 -0.048116754678 -0.99721895179 -0.060220820763 -0.052229364221 -0.99681770964
-0.0634700916 -0.056507150992 -0.99638270226 -0.066644910779 -0.060922133571 -0.99591513168 -0.069731019094 -0.065447824466 -0.99541657975
-0.072716657848 -0.070058954791 -0.99488895387 -0.075592816155 -0.074731769572 -0.99433439484 -0.07835255811 -0.079444044295 -0.99375526185
-0.08099127214 -0.084174636244 -0.99315408898 -0.083506471175 -0.088903682869 -0.99253352812 -0.085897342831 -0.093611885852 -0.99189639647
-0.08816480746 -0.098280570313 -0.9912456286 -0.09031111398 -0.10289157121 -0.9905842858 -0.092339387793 -0.10742702117 -0.98991558862
-0.094253552609 -0.11186865488 -0.98924297919 -0.096058180292 -0.11619774411 -0.98857013422 -0.097758248368 -0.1203953124 -0.98790095335
-0.099358287781 -0.12444121777 -0.98723974493 -0.10086299086 -0.12831438709 -0.98659113879 -0.10227669858 -0.13199271493 -0.98596014125
-0.10360275575 -0.13545318627 -0.98535217224 -0.10484403359 -0.13867140761 -0.98477305473 -0.10600266686 -0.14162214299 -0.98422893842
-0.10708023533 -0.14428041735 -0.98372607182 -0.10807691851 -0.14662092542 -0.98327091074 -0.10899215923 -0.14861937129 -0.98286977352
-0.10982497572 -0.15025187125 -0.98252880359 -0.11057362069 -0.15149744009 -0.98225353145 -0.11123578396 -0.15233886021 -0.98204860981
-0.1118090624 -0.15276151612 -0.9819178442 -0.11229095631 -0.15275506927 -0.98186385509 -0.11267918148 -0.15231376376 -0.98188793629
-0.11297162313 -0.15143755843 -0.9819898565 -0.11316636614 -0.15012952095 -0.98216826487 -0.11326155546 -0.14839713232 -0.98242053682
-0.11325522419 -0.14625276764 -0.98274278535 -0.11314612528 -0.14371072507 -0.98313029749 -0.11293314609 -0.14078754627 -0.98357763869
-0.1126142724 -0.13750233395 -0.984078825 -0.11218655097 -0.13387585737 -0.98462756035 -0.11164752549 -0.12992885483 -0.98521739872
-0.11099277217 -0.12568406574 -0.98584183323 -0.11021792687 -0.12116561932 -0.98649424798 -0.10931760986 -0.11639929468 -0.9871681034
-0.10828513547 -0.11141246509 -0.98785707066 -0.10711530253 -0.10623342471 -0.98855489045 -0.10580107096 -0.10089345098 -0.98925560142
-0.10433438158 -0.095424518482 -0.98995378584 -0.10270870388 -0.089858517983 -0.99064442102 -0.10091885651 -0.084229114316 -0.99132277322
-0.098958680212 -0.078569654602 -0.99198487337 -0.096822676193 -0.07291136646 -0.99262747394 -0.094507479253 -0.067284484319 -0.99324777097
-0.092008999081 -0.061716518256 -0.99384375807 -0.089324756085 -0.056231282578 -0.9944139635 -0.086454110414 -0.050849935699 -0.99495727086
-0.083396228237 -0.045590239118 -0.99547305298 -0.080150614395 -0.040466788633 -0.99596100226 -0.076719244069 -0.035490330615 -0.996420892
-0.073103920847 -0.030667975821 -0.99685269324 -0.069306687285 -0.0260059803 -0.9972563723 -0.065331027781 -0.02150920317 -0.99763180131
-0.061179803904 -0.017178006024 -0.99797893149 -0.056858129998 -0.013011725878 -0.99829747473 -0.052370835052 -0.0090100149987 -0.99858705943
-0.047722121075 -0.005170777805 -0.99884726671 -0.042917403738 -0.0014905667327 -0.99907751184 -0.037962925437 0.002034878532 -0.99927707647
-0.032865509762 0.0054102194075 -0.99944513996 -0.027631788429 0.0086414621195 -0.99958081684 -0.022268392058 0.011735045314 -0.99968315352
-0.016783153879 0.01469837457 -0.99975111079 -0.011184958762 0.017538946985 -0.99978361761 -0.0054838969832 0.020264960023 -0.99977960485
0.00030909160662 0.022885850977 -0.99973803683 0.0061820852287 0.025411306208 -0.99965796518 0.012121311373 0.027851904377 -0.99953856616
0.018111059461 0.030218028301 -0.99937923747 0.024134676924 0.03252014125 -0.9991796424 0.030172855908 0.034769626018 -0.9989397739
0.036205096106 0.036977045551 -0.99866004682 0.04221022693 0.039152745704 -0.99834130399 0.048166055255 0.041307795655 -0.99798481809
0.054050399713 0.04345163656 -0.99759235641 0.059840805332 0.045593279237 -0.9971661501 0.065516878172 0.047741587154 -0.99670872351
0.07105936868 0.049903233663 -0.99622298377 0.076450848865 0.052085118777 -0.99571201063 0.081676826712 0.054293267062 -0.99517894729
0.086726381062 0.056532195871 -0.99462688766 0.091591618035 0.058805854829 -0.99405877439 0.096267211771 0.061116361258 -0.99347743524
0.10075003983 0.063465980031 -0.99288544095 0.10504025336 0.065856539866 -0.99228496982 0.10914034393 0.068289298824 -0.9916778494
0.11305340509 0.07076486916 -0.99106571976 0.11678422247 0.073283414394 -0.99044989099 0.12033786135 0.075845547146 -0.9898314261
0.12371840536 0.078451619387 -0.98921135234 0.12693060644 0.081101148794 -0.98859052434 0.12997851248 0.083794794229 -0.98796964465
0.13286464046 0.086532928307 -0.98734950227 0.1355918607 0.089316130494 -0.98673070092 0.13816101024 0.092144526797 -0.98611405092
0.14057187258 0.095018073183 -0.98550043856 0.14282523708 0.097937566465 -0.98489044301 0.14491983958 0.10090291038 -0.98428493983
0.14685465804 0.10391430492 -0.9836846683 0.14862989248 0.10697141664 -0.98309016427 0.15024647794 0.11007463334 -0.98250169006
0.15170617452 0.11322364791 -0.98191936643 0.15301192288 0.11641786994 -0.98134307508 0.1541688957 0.11965755419 -0.98077215566
0.15518563628 0.12294319865 -0.9802052786 0.15607301623 0.12627538986 -0.97964061753 0.15684213619 0.129654527 -0.97907622172
0.15750905997 0.13308267245 -0.97850901801 0.15809361535 0.13656361791 -0.97793496054 0.15861647807 0.1401010299 -0.97734974001
0.15910027719 0.14369916255 -0.97674851035 0.15957165296 0.14736602993 -0.97612506412 0.16005855421 0.15111058422 -0.97547262932
0.16058994496 0.1549432849 -0.97478379554 0.16119769516 0.15887879656 -0.97404970668 0.16191512847 0.16293355565 -0.97326057539
0.16277610301 0.16712654619 -0.97240560357 0.16381534315 0.1714800449 -0.97147265919 0.16506971569 0.17602022667 -0.97044776715
0.16657622483 0.18077565402 -0.96931549262 0.16837462661 0.18578062351 -0.96805761452 0.17050631971 0.19107319513 -0.96665331378
0.17301155864 0.19669297658 -0.96507972393 0.17593388081 0.20268555048 -0.96330983448 0.17931779253 0.20909965058 -0.96131288632
0.18320578208 0.21598364008 -0.95905511241 0.18764229295 0.22338977913 -0.95649745242 0.19266683373 0.2313666875 -0.95359789592
0.1983168205 0.23996170675 -0.95030985368 0.2046226123 0.24921504456 -0.94658409457 0.21160006968 0.2591503107 -0.9423728174
0.21925340085 0.26977849357 -0.9376286635 0.22756611736 0.28108619315 -0.93231122178 0.23649779367 0.29303125048 -0.92639164495
0.2459788573 0.30553698808 -0.91985952769 0.25590679071 0.31848727316 -0.91273083179 0.26615114539 0.33173213117 -0.90505102671
0.27655384699 0.34508700874 -0.89690184865 0.28692429943 0.35832708366 -0.88841214958 0.29706763643 0.37122220666 -0.87974137829
0.30678551695 0.38353739284 -0.87108077403 0.31587969135 0.39503576101 -0.86265101178 0.32417652027 0.40550891267 -0.8546766087
0.33153148452 0.41478355941 -0.84737327879 0.33782608339 0.42271621384 -0.84094264961 0.342972286 0.42919994375 -0.83555814838
0.34691851437 0.43417144821 -0.83134992509 0.34963266792 0.43759076643 -0.82841494353 0.34963266792 0.43759076643 -0.82841494353

NormalArray 3 192 double
0.053016514017 0.99433221566 -0.092155814468 0.053016514017 0.99433221566 -0.092155814468 0.052440281179 0.99442640425 -0.09146662473
0.051286713647 0.99462340456 -0.089966416518 0.048583709953 0.99496230903 -0.087690516798 0.044483140218 0.99541277325 -0.084703371137
0.038611219556 0.99595886675 -0.081087048724 0.030744169824 0.99656152236 -0.07694106954 0.020509802578 0.99716671463 -0.072373277009
0.0074391434807 0.99769187171 -0.067495098132 -0.0091322661938 0.99800858592 -0.062413653542 -0.029979715416 0.99791101244 -0.057226112166
-0.056401895015 0.99705250907 -0.052010771891 -0.089836388537 0.99485528006 -0.046823018282 -0.13246473874 0.99031101019 -0.041679684392
-0.18706548733 0.98166730778 -0.036548601609 -0.25728844247 0.96582673709 -0.031326846325 -0.34752639525 0.9373148596 -0.025811985035
-0.46190338087 0.88671197157 -0.019676031617 -0.60019596605 0.79975510696 -0.012512842942 -0.75154069595 0.65967445675 -0.0040241077662
-0.88749378733 0.46078702369 0.005486004441 -0.97413007427 0.22549707139 0.014888559095 -0.99973281831 -0.0027092249003 0.022955437227
-0.98088003469 -0.19239045207 0.029330385188 -0.94081151495 -0.33717869973 0.034412465684 -0.89498545658 -0.44440835045 0.038758877181
-0.85056734077 -0.52412210869 0.042792686241 -0.81006500534 -0.58447181944 0.046769428215 -0.77375726209 -0.63143992189 0.050826414518
-0.74121795513 -0.66900521228 0.055026983661 -0.71181814688 -0.69984822203 0.059391850455 -0.68484908027 -0.72587631843 0.063916411009
-0.65979152023 -0.74831244124 0.068583089161 -0.63620272093 -0.76802559771 0.073367425579 -0.61375439588 -0.78561044767 0.078241715531
-0.59213911221 -0.80153164656 0.083176266791 -0.57126122012 -0.81602144103 0.088145482964 -0.55086260154 -0.82938469782 0.093120444836
-0.53109796091 -0.84161426112 0.098083593952 -0.51182243085 -0.85289292606 0.10301192141 -0.49310636617 -0.86325304255 0.10789020423
-0.47502951575 -0.87272237141 0.11270590755 -0.45765337937 -0.88133948536 0.11744826904 -0.44111920629 -0.88910220972 0.12211104173
-0.42556395949 -0.89601618392 0.12668983599 -0.41109110459 -0.90210631814 0.13118038913 -0.39779069006 -0.90740343979 0.13557862798
-0.3859031915 -0.91187183518 0.139887394 -0.375541338 -0.91553414309 0.14410390796 -0.36691039112 -0.91837072326 0.1482294827
-0.3600189496 -0.92043743341 0.15225402165 -0.35539832656 -0.92157263047 0.1561919212 -0.35298622444 -0.92184195476 0.16002542236
-0.35326194077 -0.92108000608 0.16376087326 -0.35674431338 -0.91908113375 0.16740180543 -0.36419677571 -0.91549688157 0.17095662726
-0.37678633602 -0.90972656143 0.17444093676 -0.39618156717 -0.90077943284 0.17786674566 -0.42594807041 -0.88640317012 0.18126682351
-0.47299479254 -0.86150636489 0.18461503048 -0.5498921025 -0.81393209842 0.18743856264 -0.68699032075 -0.70225927385 0.18675173756
-0.91920354712 -0.35954316598 0.16060370716 -0.88601183861 0.46273349261 0.029338313853 -0.45473964021 0.88652670709 -0.085336142636
-0.21476328853 0.9686755578 -0.12467715759 -0.093525396503 0.98573891387 -0.13989922763 -0.02238772734 0.98891328166 -0.14679683586
0.024457677044 0.98839667077 -0.14991278545 0.058154689957 0.98683018098 -0.15094444657 0.084149736257 0.98499873985 -0.15065292692
0.10593475182 0.9830728353 -0.14948454387 0.12503087315 0.98110594772 -0.14764281258 0.14213550873 0.97913463069 -0.14523385327
0.15912638286 0.97692534686 -0.14246284054 0.17516050916 0.97463839343 -0.13927956805 0.19217578317 0.971907799 -0.135881193
0.20933101684 0.96886495693 -0.13221656714 0.22727570941 0.96533326077 -0.12836451054 0.24657393891 0.96110742539 -0.12439376794
0.26732440438 0.95606374765 -0.1203319295 0.28919948868 0.95019337883 -0.11617314046 0.31259309933 0.94326486952 -0.11196847854
0.33774994484 0.93504769761 -0.10775331993 0.364389183 0.92547486224 -0.10352199128 0.39243640977 0.9144049354 -0.099283827534
0.42220083121 0.90150335917 -0.095069193369 0.45279892985 0.8869741716 -0.09082922461 0.48449481157 0.87049830411 -0.086587990508
0.51677941403 0.85215167054 -0.082319910258 0.54966116839 0.83173562629 -0.078028507107 0.58196169402 0.80987386653 -0.073653968028
0.6141945381 0.78611244569 -0.069226383038 0.64553866064 0.76098143534 -0.06470774827 0.67608159639 0.73437102415 -0.060107186878
0.70497061335 0.70707044021 -0.05538796704 0.73233732914 0.67906229677 -0.050561185218 0.75807159852 0.65057330844 -0.04562698613
0.78206238989 0.62187728161 -0.040584047887 0.80405328189 0.59350094715 -0.035425211432 0.82416707399 0.56554317422 -0.030158784008
0.84233478597 0.53838445854 -0.024784736144 0.8586574302 0.51218610604 -0.019308297324 0.87322700334 0.48712010441 -0.013733336126
0.8860047167 0.4636062073 -0.0080577012852 0.8972493937 0.44151814264 -0.0022924302122 0.90687548778 0.42138358644 0.0035668959087
0.91509497658 0.40312618425 0.0095112255449 0.92195231879 0.38699155753 0.015538863612 0.92752286963 0.37313911917 0.021645416503
0.9319559568 0.36150262666 0.027819875889 0.93530692822 0.35219487192 0.034054694547 0.93753078137 0.34555501522 0.040345575255
0.93886559868 0.34110635504 0.046667356532 0.93917409837 0.33932476626 0.053016185839 0.93851510715 0.34009449814 0.059372771476
0.9369616916 0.34319743172 0.065713859571 0.93437156359 0.34894393458 0.072027159249 0.93080928544 0.3570228872 0.078286219434
0.92625724326 0.36730461431 0.084467979865 0.92048868816 0.38013093695 0.090559625293 0.91361977809 0.39494418412 0.096529749368
0.90551695236 0.41177820336 0.1023609311 0.89616783214 0.43036319761 0.10803117508 0.88561985451 0.45032319235 0.11351870208
0.87357643473 0.47196186126 0.11881167533 0.86033916514 0.49443734717 0.12388797622 0.84561340606 0.51803897758 0.12873843717
0.82966960016 0.54209431071 0.13334958896 0.81235638073 0.56666768143 0.13771292425 0.79368266752 0.59156984071 0.14182012143
0.77346760842 0.61687237467 0.14565827163 0.75216691162 0.64185290301 0.14923065354 0.72889798843 0.66742102173 0.15250213838
0.7042977912 0.69266876283 0.15548185202 0.67771899413 0.71811669869 0.15813087002 0.64937249487 0.74335308116 0.16044176398
0.61874489312 0.76862995382 0.16236610276 0.58637362446 0.7932823709 0.16391782254 0.55124461029 0.81786488328 0.16500427969
0.51440381469 0.84139135923 0.16567829083 0.47545919705 0.86395525081 0.16589115868 0.43522785164 0.88494071914 0.16570045492
0.39377451017 0.90425740418 0.16510657805 0.35220756382 0.9214013738 0.1642234464 0.31095740738 0.93632217217 0.16311431788
0.27209468689 0.94852778187 0.16204792005 0.23556297928 0.95841893511 0.16106901505 0.20233640969 0.9660994396 0.16034915068
0.17453183744 0.97152758994 0.16022727517 0.15232351845 0.97516181091 0.16080108292 0.13623947475 0.97730659817 0.16220548295
0.12668122562 0.97820037051 0.16454756824 0.12476933652 0.97785510406 0.16802383201 0.12935093365 0.97648100808 0.17249109199
0.14103888207 0.97386469966 0.17803252651 0.15907240999 0.96986983763 0.18452226539 0.18301884127 0.96420527783 0.19186528069
0.21124170292 0.95679422395 0.19980429416 0.24302329651 0.94741075188 0.20821273874 0.27695032998 0.93608480354 0.21689572449
0.31152068303 0.92305065654 0.2256819654 0.34597215146 0.90846255899 0.23451876114 0.37889029464 0.89288082318 0.2433227902
0.4093503138 0.87685759048 0.25209737527 0.43725376372 0.86064967968 0.26094304931 0.4618741277 0.84487354493 0.26992773708
0.48332222094 0.8297313929 0.27918711714 0.50164226119 0.81542568119 0.28885290416 0.51682112161 0.80216466478 0.29904477731
0.52930624798 0.78981075597 0.30989331326 0.5391319063 0.77844694369 0.32149205818 0.54665674632 0.76789741356 0.33391610317
0.55206324079 0.75807131048 0.34720896647 0.55561988914 0.74879439846 0.36137720961 0.55752408441 0.73993474152 0.37638208458
0.5579497236 0.73138402721 0.39213455684 0.55708306033 0.72304489516 0.40849056718 0.55511839149 0.7148413855 0.42525917393
0.55226766542 0.7067227424 0.44220288454 0.54866262528 0.69875646658 0.45903019947 0.54455504104 0.69095178026 0.47544236731
0.54005692619 0.68346668661 0.49113318434 0.53548222197 0.67633571078 0.50579521179 0.53093946352 0.66976018346 0.51915757023
0.52665906626 0.66383308528 0.5309951627 0.5227932447 0.65869120519 0.54112209297 0.51947088403 0.65445372474 0.54939996617
0.51687765265 0.65113929144 0.55574734847 0.51501916138 0.64886733995 0.5601128802 0.51501916138 0.64886733995 0.5601128802

BinormalArray 3 192 double
0.99855092452 -0.053641545939 -0.0043169076342 0.99855092452 -0.053641545939 -0.0043169076342 0.99858168651 -0.053061410614 -0.0043705924629
0.9986423098 -0.051898889398 -0.00447686929 0.99877848446 -0.049186014942 -0.0047196300871 0.99897074687 -0.045074117469 -0.0050764976487
0.99921623799 -0.039190761894 -0.0055672177173 0.9994904515 -0.031312672263 -0.0061930535069 0.99975380385 -0.02106825983 -0.0069613304121
0.99993704435 -0.0079889326652 -0.0078793579638 0.99992297286 0.008589485205 -0.0089593021164 0.99951433563 0.029442398534 -0.010209702949
0.99837009646 0.055868369249 -0.011656578198 0.99591528472 0.089305446707 -0.013314760497 0.99114154749 0.13193554073 -0.015213347427
0.98229407483 0.18653799209 -0.017376077058 0.96627092476 0.25676395234 -0.019818494821 0.93759145362 0.34700876795 -0.022520680929
0.88682883725 0.46140143591 -0.025363918527 0.7997145038 0.59972751791 -0.027993153996 0.65947862298 0.75113642344 -0.029698808169
0.46044946702 0.88719505514 -0.029516477604 0.2250493136 0.97397476566 -0.026943687604 -0.0032276641299 0.9997398804 -0.022577726324
-0.19294976593 0.98105108518 -0.017582834955 -0.33776553397 0.94114334833 -0.0127922615 -0.44502261139 0.89547872429 -0.0085281706376
-0.52477201137 0.85122922271 -0.0048110798053 -0.5851706365 0.81090868237 -0.0015604595266 -0.63220401244 0.77480082036 0.001332451765
-0.6698531515 0.74248305181 0.0039589395905 -0.70080022597 0.7133289403 0.0063926684086 -0.72695360199 0.68663147631 0.0086992121649
-0.74953702205 0.66187230511 0.010922651529 -0.76941988392 0.63860900336 0.013098971632 -0.78719692218 0.61651303151 0.015254104075
-0.80333232181 0.59527637401 0.017413192805 -0.81805811179 0.5748021411 0.019581223775 -0.83167780973 0.55483115026 0.021781081349
-0.84418436588 0.53551580587 0.023991208233 -0.85575903467 0.51670960829 0.026223182195 -0.86643348751 0.49848051954 0.028463720184
-0.87623477048 0.48090570078 0.030697458392 -0.88520057254 0.46404401378 0.032910479426 -0.89332832281 0.44803356515 0.035077516533
-0.9006232748 0.43300799953 0.037172425693 -0.90710969922 0.41906743531 0.039172416859 -0.91281761835 0.4062984526 0.04105560923
-0.91771182547 0.39493690669 0.042776689042 -0.92181425974 0.38509131008 0.044307487484 -0.92510544792 0.37696177977 0.045604022097
-0.92763909285 0.37055271487 0.046651890884 -0.92925706161 0.36638682405 0.047349853357 -0.93002161388 0.3643972196 0.047691341651
-0.92977011686 0.36505349846 0.047575971428 -0.92830017962 0.36886326776 0.046889937168 -0.92526976779 0.37657486434 0.045466783105
-0.92009014786 0.38933371881 0.04305084447 -0.91178920016 0.40877710015 0.039264957351 -0.89815864441 0.43840814599 0.033306861038
-0.87419357178 0.48500634886 0.023546562936 -0.82788414045 0.56085922013 0.0066921732577 -0.71810229046 0.69543136538 -0.026538961568
-0.37757591624 0.92053931529 -0.1002187432 0.44985971477 0.87323742684 -0.18730358619 0.88346774796 0.43688776017 -0.16915620984
0.97011037633 0.19681039002 -0.14195607811 0.98916448267 0.076025789187 -0.12559341382 0.99331294652 0.0053677251461 -0.11532813103
0.99326485704 -0.041014011786 -0.10836408358 0.99187498525 -0.074252416899 -0.10329855862 0.99003279057 -0.099781507887 -0.099391771694
0.98797563432 -0.12108223924 -0.09614175644 0.98578976386 -0.13967238152 -0.093328277073 0.98353054208 -0.15624937652 -0.090850454757
0.98099918389 -0.1726857906 -0.088432001689 0.9783510641 -0.18814594001 -0.086199191596 0.97525285364 -0.20456401063 -0.08387751198
0.97183067189 -0.22110621398 -0.081591588508 0.96792151741 -0.2384243174 -0.079257687303 0.96333142066 -0.2570856441 -0.076808499298
0.95794154292 -0.27719356361 -0.074241017292 0.95174291586 -0.29842585271 -0.071606092924 0.94451095211 -0.32118038893 -0.068863772121
0.93601931303 -0.34570596259 -0.065994189583 0.92619970454 -0.37172599049 -0.063038839656 0.91491092498 -0.39916965352 -0.060013224001
0.90182082601 -0.42834888207 -0.056889656439 0.8871269453 -0.45838287683 -0.053767286957 0.87051161069 -0.48953752316 -0.050621626484
0.85204700947 -0.52130515103 -0.047506138152 0.83153381108 -0.55369512096 -0.04442109914 0.80958924417 -0.58552946702 -0.041478897905
0.78576134171 -0.6173221995 -0.038631798762 0.76057637402 -0.64825222256 -0.035953236678 0.73392474535 -0.67840736514 -0.033435237364
0.70659285724 -0.70693444441 -0.031148441435 0.67856406433 -0.73396532077 -0.02908123977 0.65006518685 -0.75939001177 -0.027240830953
0.62137027406 -0.78309763738 -0.025633432079 0.5930062532 -0.80483191036 -0.024273024694 0.56507296029 -0.82471617988 -0.02314675324
0.53795163965 -0.84268197105 -0.022251495684 0.51180455433 -0.85883101825 -0.021572673775 0.4868046008 -0.87325614375 -0.021094739918
0.4633723856 -0.88591943332 -0.020803603513 0.44138239907 -0.89708088546 -0.020675171766 0.42136299854 -0.90665605633 -0.020688619684
0.40323825253 -0.91485819524 -0.020818124344 0.38725405576 -0.92173304157 -0.02103559789 0.37356980623 -0.92735725002 -0.021310342823
0.36211888118 -0.93188128089 -0.021614675911 0.35301340966 -0.93536154112 -0.02191620397 0.34659144934 -0.93775412799 -0.022171212966
0.34237490947 -0.93929715886 -0.022366687641 0.34083765886 -0.93985411927 -0.022448269258 0.34186170417 -0.93948358067 -0.022386979876
0.34522650936 -0.93825768217 -0.02216256053 0.35123903423 -0.93603385805 -0.021719977549 0.35958533454 -0.93287480343 -0.021047287619
0.37013252415 -0.92876099594 -0.020122797636 0.38321774837 -0.92346500268 -0.018882429846 0.39828105286 -0.91709941259 -0.017345614917
0.41535236103 -0.90952890117 -0.015478828338 0.43415917836 -0.90073824698 -0.013282253827 0.45432378017 -0.89077147059 -0.010774504843
0.47614456014 -0.87933160463 -0.0078922082426 0.49878158156 -0.86671484692 -0.0047231363084 0.5225192368 -0.85262664125 -0.0012073943964
0.54668755444 -0.83733272454 0.0025741470039 0.57134801659 -0.82068098552 0.0066455952912 0.59631084378 -0.80267837677 0.010990953291
0.62164428325 -0.78314354801 0.01563868008 0.64663247538 -0.7625270189 0.020469177608 0.67217059498 -0.73995108772 0.025672534645
0.69736045817 -0.71604611396 0.03108623586 0.72271143087 -0.69016739701 0.036839541256 0.74781474855 -0.66252213767 0.042866291402
0.77291287082 -0.63259747064 0.049255804393 0.79734993835 -0.60092538063 0.055872736872 0.82166149948 -0.56649416181 0.062902662171
0.84488012454 -0.53034177457 0.070108325482 0.8670915217 -0.49207564521 0.077549032174 0.88769516898 -0.45250800954 0.085051680045
0.90660182647 -0.41170250489 0.092596845075 0.92332940137 -0.37076459906 0.099982141593 0.93783657553 -0.33012552101 0.10714335248
0.94967462831 -0.29185615795 0.11374569621 0.95924517012 -0.25590558949 0.11983752697 0.96667498242 -0.22325227084 0.12529126839
0.97197198198 -0.19601822436 0.12979723407 0.97560440472 -0.17438411855 0.13336500547 0.97789550485 -0.15888207765 0.13592963987
0.97910110248 -0.14991526214 0.13742796407 0.97926988121 -0.14860231722 0.13765119353 0.97859572612 -0.15378697015 0.13674784321
0.97689247275 -0.16607265042 0.13453985083 0.97401810633 -0.18468899818 0.13106754936 0.96968427589 -0.20919091433 0.12629951088
0.96378466643 -0.23793597999 0.12043913894 0.95608797226 -0.27019892935 0.11352677162 0.94659944205 -0.30456874492 0.10577039253
0.93552510675 -0.33955507414 0.097442938479 0.92301313941 -0.37440798447 0.088687122147 0.9095986695 -0.40774363234 0.0798460439
0.89582326447 -0.43867144765 0.071190166751 0.88196168607 -0.46711957409 0.062792418366 0.86862962156 -0.49240839677 0.054923140326
0.85605798411 -0.51468134108 0.047621896146 0.84447937315 -0.53402056612 0.040946590617 0.83413153605 -0.55045554452 0.034975335158
0.8249274723 -0.56446199964 0.029619527262 0.81698615297 -0.57611823216 0.024928065103 0.81018011097 -0.58581112888 0.020820880563
0.80445890161 -0.59375706534 0.017274923455 0.79968756463 -0.60024786618 0.014223154478 0.79576107526 -0.60549918624 0.011620954201
0.79258217725 -0.60969217943 0.0094307292084 0.79004441544 -0.61300239511 0.0076082338578 0.78804006195 -0.6155936864 0.006105246464
0.78645940483 -0.61762279894 0.0048664964858 0.78526668719 -0.61914546072 0.0038895312138 0.78435363623 -0.62030614267 0.0031084882619
0.78372263146 -0.62110575314 0.0025456553114 0.78324888161 -0.62170471596 0.0021060885061 0.78295138405 -0.62208023469 0.001819841143
0.78276248166 -0.62231843434 0.001632046136 0.78266260973 -0.6224442937 0.0015298889962 0.78263657702 -0.62247709232 0.0015026158488
0.78261423229 -0.62250524231 0.0014787566364 0.78263162531 -0.62248333013 0.0014975896343 0.78263162531 -0.62248333013 0.0014975896343

