# vtk DataFile Version 4.1
vtk output
ASCII
DATASET POLYDATA
POINTS 141 float
11.0006 -10.479815 187.273 10.7629 -10.241849 184.506 10.5257 -10.003873 181.738
10.2908 -9.765861000000001 178.969 10.0596 -9.527800000000001 176.196 9.83385 -9.289710000000001 173.418
9.61502 -9.051668000000001 170.634 9.40458 -8.813821 167.843 9.20386 -8.576400000000001 165.043
9.01408 -8.339730000000001 162.233 8.83632 -8.10426 159.413 8.67149 -7.87051 156.583
8.52032 -7.639130000000001 153.741 8.38335 -7.4108600000000004 150.887 8.26093 -7.18651 148.022
8.15318 -6.96698 145.146 8.06002 -6.7532000000000005 142.26 7.98114 -6.546150000000001 139.364
7.91604 -6.3468100000000005 136.46 7.86401 -6.156160000000001 133.548 7.82414 -5.975150000000001 130.631
7.79536 -5.804690000000001 127.71 7.77646 -5.645630000000001 124.788 7.76608 -5.498760000000001 121.865
7.7628 -5.36481 118.944 7.76509 -5.244420000000001 116.026 7.77141 -5.138160000000001 113.114
7.78018 -5.046550000000001 110.208 7.78986 -4.9700500000000005 107.311 7.79894 -4.909050000000001 104.422
7.80597 -4.86392 101.543 7.80958 -4.83497 98.6741 7.80852 -4.82251 95.8141
7.80162 -4.8268200000000006 92.9625 7.78785 -4.848160000000001 90.118 7.76628 -4.88677 87.2789
7.73612 -4.942900000000001 84.4431 7.69668 -5.01674 81.608 7.64739 -5.108460000000001 78.7709
7.58778 -5.218210000000001 75.9288 7.51746 -5.3460600000000005 73.0785 7.43615 -5.492020000000001 70.217
7.3436 -5.656020000000001 67.3413 7.23965 -5.837890000000001 64.4486 7.12416 -6.03735 61.5364
6.99705 -6.2540000000000004 58.6024 6.85827 -6.487300000000001 55.645 6.70777 -6.7365900000000005 52.6628
6.54556 -7.001040000000001 49.6553 6.37164 -7.27969 46.6222 6.18604 -7.57146 43.5637
5.98882 -7.87511 40.4808 5.78006 -8.189300000000001 37.3748 5.55987 -8.51258 34.2474
5.3284 -8.843415 31.1008 5.08586 -9.180204 27.9375 4.83251 -9.521307 24.76
4.56865 -9.865070000000001 21.5714 4.29466 -10.209842 18.3745 4.01101 -10.554011000000001 15.1724
3.71822 -10.89602 11.9682 3.4169 -11.234390000000001 8.76499 3.10772 -11.56775 5.56563
2.79146 -11.894850000000002 2.37303 2.46893 -12.21457 -0.810008 2.14103 -12.52593 -3.98078
1.8087 -12.82812 -7.13665 1.47295 -13.12049 -10.2751 1.13481 -13.40253 -13.3935
0.795317 -13.6739 -16.4895 0.455548 -13.93441 -19.5606 0.116557 -14.18401 -22.6043
-0.220615 -14.42278 -25.6181 -0.554954 -14.65092 -28.5995 -0.885494 -14.8687 -31.5461
-1.21132 -15.07652 -34.4553 -1.53158 -15.2748 -37.3247 -1.8455 -15.464020000000001 -40.1518
-2.15238 -15.6447 -42.9344 -2.45161 -15.81736 -45.6704 -2.74268 -15.982520000000001 -48.3578
-3.02516 -16.14068 -50.9949 -3.29872 -16.29231 -53.5803 -3.56313 -16.43784 -56.113
-3.81824 -16.57765 -58.5923 -4.064 -16.71209 -61.0182 -4.30044 -16.841430000000003 -63.3908
-4.52766 -16.96591 -65.711 -4.74584 -17.08568 -67.9801 -4.95522 -17.20089 -70.2
-5.15609 -17.3116 -72.373 -5.34878 -17.41788 -74.5019 -5.53368 -17.51972 -76.5901
-5.71117 -17.61713 -78.6412 -5.88166 -17.71008 -80.6593 -6.04555 -17.79853 -82.6489
-6.20324 -17.882460000000002 -84.6144 -6.35512 -17.96185 -86.5607 -6.50152 -18.03666 -88.4925
-6.64276 -18.106900000000003 -90.4148 -6.77911 -18.17257 -92.3322 -6.91077 -18.233719999999998 -94.2494
-7.03788 -18.290390000000002 -96.1708 -7.16054 -18.342660000000002 -98.1006 -7.27874 -18.390610000000002 -100.043
-7.39244 -18.434350000000002 -102.0 -7.50148 -18.47401 -103.977 -7.60567 -18.50974 -105.976
-7.7047 -18.541690000000003 -107.998 -7.79824 -18.570050000000002 -110.047 -7.88585 -18.59498 -112.123
-7.96704 -18.6167 -114.228 -8.04129 -18.6354 -116.363 -8.10798 -18.651310000000002 -118.529
-8.16651 -18.66464 -120.725 -8.2162 -18.675629999999998 -122.951 -8.25636 -18.684530000000002 -125.209
-8.28632 -18.691560000000003 -127.496 -8.30538 -18.69699 -129.813 -8.31287 -18.70106 -132.159
-8.30813 -18.704030000000003 -134.533 -8.29057 -18.70614 -136.934 -8.25963 -18.70765 -139.361
-8.21483 -18.70879 -141.814 -8.15577 -18.70981 -144.292 -8.08215 -18.71092 -146.792
-7.99376 -18.71234 -149.315 -7.89054 -18.71424 -151.859 -7.77253 -18.7168 -154.422
-7.63993 -18.72015 -157.005 -7.49307 -18.724420000000002 -159.605 -7.33245 -18.729689999999998 -162.222
-7.15872 -18.736 -164.854 -6.97267 -18.743389999999998 -167.5 -6.77526 -18.751829999999998 -170.158
-6.5676 -18.761270000000003 -172.827 -6.35093 -18.77164 -175.506 -6.12662 -18.78283 -178.193
-5.89617 -18.794690000000003 -180.886 -5.66117 -18.807070000000003 -183.583 -5.42327 -18.81977 -186.284

LINES 1 142
141 140 139 138 137 136 135 134 133 132 131 130 129 128 127 126 125 124 123 122 121 120 119 118 117 116 115 114 113 112 111 110 109 108 107 106 105 104 103 102 101 100 99 98 97 96 95 94 93 92 91 90 89 88 87 86 85 84 83 82 81 80 79 78 77 76 75 74 73 72 71 70 69 68 67 66 65 64 63 62 61 60 59 58 57 56 55 54 53 52 51 50 49 48 47 46 45 44 43 42 41 40 39 38 37 36 35 34 33 32 31 30 29 28 27 26 25 24 23 22 21 20 19 18 17 16 15 14 13 12 11 10 9 8 7 6 5 4 3 2 1 0 

CELL_DATA 1
FIELD FieldData 2
LengthArray 1 1 double
375.2149452 
TortuosityArray 1 1 double
0.003221177405 
POINT_DATA 141
FIELD FieldData 8
RadiusArray 1 141 double
52.917428637 52.917707106 52.9870459 57.014483967 58.383236045 60.204259649 70.976496366 73.611830163 74.391163477 
79.264871942 80.31159533 80.815941674 82.379606098 83.009098597 82.987198456 82.978005632 82.281610947 81.768268996 
81.40020494 81.385426922 81.32426067 79.953804794 79.286627389 78.372194199 78.013251724 77.906260297 77.380357427 
77.108621124 76.517792249 76.440177315 75.822037129 75.579912846 75.257140959 75.054920154 74.796258587 74.261989592 
74.22708381 73.701075033 73.406752019 73.084151749 73.021978167 72.439287468 72.23553569 71.558731466 71.314699951 
70.916527818 70.236781418 70.025211507 69.018984061 68.579356731 67.928141159 67.09157334 66.149337853 66.107596432 
65.121044203 64.392612585 64.344052032 63.1084485 63.060165242 62.03878661 61.672147337 61.64127552 61.195101399 
61.136622655 60.39864241 59.825617619 59.584710688 59.293500141 59.256514629 59.048849187 59.037142487 59.027458402 
58.952768683 58.952544546 59.119316752 59.205207974 59.217692046 59.45487415 59.525525384 59.577905515 59.804840753 
60.155350497 60.196378243 60.522548638 60.698596901 60.999332865 61.120703608 61.182335583 61.389059159 61.453302301 
61.527985465 61.590922989 61.691498731 61.754153729 61.833469408 61.916429121 62.072799138 62.088163507 62.103741668 
62.190733903 62.247742165 62.435401719 62.44185736 62.487089883 62.506021042 62.515514259 62.518076584 62.663618612 
62.668459609 62.686241962 62.698330012 62.69821931 62.699359501 62.687701695 62.662339537 62.649062921 62.569728243 
62.303474077 62.257823462 62.190388268 61.875626364 61.851953113 61.828925968 61.620209921 61.106921378 60.960996864 
60.77570661 60.303727787 60.263197086 60.044381937 59.621422902 59.154870949 58.485653173 58.330781497 57.636220378 
56.996985203 55.974081874 55.718770955 55.072124712 54.273633675 54.108454776 
EdgeArray 2 141 int
15633 15633 15519 15633 15519 15519 15128 15128 14651 
15131 15172 14673 15165 15172 15171 9591 9591 25162 
21352 25162 25162 25170 25171 25169 13924 19257 22706 
23452 23452 23453 23451 23453 22704 22704 23086 23086 
16601 20044 24935 16601 24935 18478 24943 24943 20556 
18981 24932 24934 24937 24936 24938 24937 22308 20835 
22302 20999 23191 21884 22303 21884 21664 22309 20631 
20066 21883 24679 24680 21886 22657 22658 21881 21881 
22298 22298 24244 24244 22660 22440 21652 21652 24592 
21675 19502 19502 23786 24580 21435 24583 20935 23627 
23627 24925 24627 24240 24240 23564 21432 21432 23950 
23950 23945 23945 22924 22924 22373 22373 22259 22259 
22263 22263 21219 21219 20309 20309 20310 20310 20311 
20311 20306 20306 18251 18251 16211 16211 20297 20297 
20299 19348 19107 19107 18800 18800 20056 20056 20061 
20061 20062 20062 19103 19103 23532 23532 23303 16757 
20922 20922 23299 21346 21995 21995 21987 21987 21979 
21979 19501 19501 21978 21978 18056 22587 17014 20283 
23679 21967 23679 21785 21794 21785 17168 17168 16339 
16339 15781 15781 21103 21103 14367 18140 18140 13344 
20276 10575 10575 10575 20048 20048 23847 23847 14360 
14360 14361 14359 18143 6410 13738 15368 10912 15368 
17584 10912 10964 12325 16898 11787 16898 18136 18135 
18136 18133 18135 14251 17353 10434 14251 18125 10434 
18125 18125 18123 18123 17814 10902 17814 17810 17812 
17812 17004 17004 9162 9162 14231 17578 15271 15271 
15362 15362 16540 16540 16539 16539 16535 16535 7487 
11296 16534 11296 16532 16532 11851 11851 12279 12279 
13782 13782 11295 11295 16170 16171 16168 16168 16992 
16992 16167 16167 17344 17344 17341 17341 17332 17332 
11757 11757 9001 9001 16521 16521 16525 16525 16516 
16516 16509 16509 
EdgePCoordArray 1 141 double
0 0.996 0 0 0.028 0.948 0.584 0.888 0.208 
0.864 0.352 0.48 0.14 0.936 0.476 0.672 0 0 
0.08 0.768 0.156 0 0.872 0.656 0.716 0.372 0.104 
0.216 0.724 0.764 0.652 0.668 0.452 0.416 0.304 0 
0 0 0.568 0 0.996 0 0.992 0.976 0.032 
0.712 0.424 0.808 0 0 0 0 0 0 
0 0 0 0 0 0 0 0 0 
0.004 0 0 0 0 0 0 0 0.944 
0 0.996 0 0 0 0 0 0.028 0.04 
0.08 0.196 0.564 0 0 0 0 0.008 0.076 
0.384 0 0 0 0 0.996 0.612 0.256 0.92 
0.524 0.576 0.032 0.028 0.816 0.932 0.472 0.676 0.036 
0 0 0.28 0.384 0 0 0 0.052 0 
0 0 0 0 0.576 0.924 0 0 0 
0 0 0.912 0 0 0 0 0 0 
0 0 0 0 0 0 
CurvatureArray 1 141 double
0 7.5768466818e-05 0.00030241684483 0.00052620203309 0.00074196275569 0.00094712930405 0.0011380519786 0.0013119756145 0.001466251129 
0.0015999455438 0.0017113796833 0.0018007163009 0.0018679348501 0.0019141002022 0.0019402475129 0.0019483340436 0.0019409536571 0.0019198573772 
0.0018889066585 0.0018512486305 0.0018102136151 0.0017705211478 0.00173594029 0.0017107146463 0.0016987947738 0.0017032156118 0.0017259995822 
0.0017675107833 0.0018267935971 0.0019012460262 0.0019871312596 0.0020803418954 0.0021759070764 0.0022690233416 0.0023547396107 0.0024287814975 
0.0024870619582 0.0025262660317 0.002544268254 0.0025394409664 0.002511674482 0.0024614418914 0.0023905611369 0.0023013756347 0.0021969749634 
0.002080763498 0.0019561107875 0.0018268213452 0.0016960699873 0.0015672739458 0.0014433197135 0.0013269658425 0.0012207287346 0.0011269238591 
0.0010474197359 0.0009836635101 0.0009361995419 0.00090483448966 0.00088822288262 0.00088394114374 0.00088914037851 0.00090072905408 0.00091570065283 
0.00093135431158 0.00094557990697 0.00095662954128 0.00096324051738 0.00096458497559 0.00096022239468 0.00095016160993 0.00093456095749 0.00091386487898 
0.00088910249657 0.0008611131935 0.00083131644486 0.0008009169415 0.00077183928568 0.00074546281566 0.00072367264235 0.00070783386064 0.00069915611047 
0.00069837753855 0.00070578888869 0.00072095996444 0.00074329351715 0.00077181799265 0.00080618153991 0.00084584736106 0.00089085086917 0.00094183713542 
0.00099941109639 0.0010639886166 0.0011361064618 0.0012149233789 0.0012987302743 0.0013860304938 0.0014724512331 0.0015559557984 0.0016318610991 
0.0016990910709 0.0017536987014 0.0017972334461 0.0018278255089 0.0018484875443 0.0018606030047 0.0018674856667 0.0018717523031 0.0018758665621 
0.001882378464 0.0018932918689 0.0019090053972 0.001930774391 0.0019575426636 0.0019891711122 0.0020248179514 0.002062608667 0.0021013732607 
0.0021394901599 0.0021753622222 0.0022069369806 0.0022331055161 0.0022517868175 0.0022616359331 0.002261004862 0.0022485976285 0.0022236076062 
0.0021842276231 0.0021304181646 0.0020613708176 0.0019763096245 0.0018760600846 0.0017594443049 0.0016283191522 0.0014825067153 0.0013229292474 
0.0011503151427 0.00096661209818 0.00077245864142 0.00057003056494 0.00036014862252 0 
TorsionArray 1 141 double
-0.0 -0.0 0.0013443906246 0.0020541660767 0.0033327719008 0.0046757449616 0.006048931296 0.0073909033585 0.0087702424554
0.010170994205 0.011597800582 0.013042652487 0.014512061804 0.016047109598 0.017649545219 0.019383610868 0.021201908866 0.023205415459
0.025400162901 0.027730677712 0.030218216372 0.0327284634 0.03506628431 0.03701255965 0.038284632329 0.038570382691 0.037743295531
0.035834035264 0.033016446957 0.029589889869 0.025880856815 0.022161348109 0.018643152366 0.015432712937 0.012607372452 0.010206999278
0.0082235398052 0.0066496226967 0.0054718616574 0.0046709434079 0.0042387039598 0.0041706375522 0.0044443839298 0.0050674079082 0.0060496025431
0.0073868800452 0.0091126898122 0.011233850205 0.013766318571 0.016748218379 0.020162102786 0.02397951107 0.028103805505 0.0323175289
0.036325165853 0.039689604243 0.04196487456 0.042868276823 0.042369342591 0.040719759841 0.038328265587 0.035648821431 0.033012622423
0.030643943805 0.028645819285 0.027059745307 0.02589972896 0.025127956443 0.024741404914 0.024726654409 0.025053790346 0.025751651183
0.026812555788 0.028221788956 0.029977237151 0.032025992221 0.034187401473 0.036321598663 0.038123417959 0.039139616553 0.038983455925
0.037438421665 0.03431539449 0.029695604958 0.023905409061 0.017319911755 0.010264258858 0.0032088690542 -0.003514043682 -0.0095057145835
-0.014399440127 -0.017910922382 -0.01981222118 -0.020226929987 -0.019253467999 -0.017036610077 -0.014028488041 -0.010521411876 -0.0066644952765
-0.0025524863313 0.0014480957886 0.0053999302238 0.0092956140957 0.012785893922 0.015925728498 0.018720643486 0.020890963489 0.022468012616
0.023380449899 0.023599513319 0.023283306623 0.022456257536 0.021213845803 0.019767002027 0.018188733952 0.016485642203 0.014918471231
0.013412666151 0.011969608092 0.010743010805 0.0095895934391 0.0085338256456 0.0076658769506 0.0068621564984 0.0061584626933 0.0055327553646
0.0049479926216 0.0044675562278 0.0040293699652 0.0036114519997 0.0032232786028 0.0028813925854 0.0025780150214 0.0022568446835 0.001958275068
0.0017247595058 0.0014767661409 0.0011666437579 0.00091130102696 -0.0 -0.0
TangentArray 3 141 double
-0.085179439501 0.085368946362 -0.99270167023 -0.085179439501 0.085368946362 -0.99270167023 -0.084654767483 0.085343396632 -0.99274874716
-0.083504569771 0.085283935579 -0.99285126638 -0.081742679874 0.085183315566 -0.9930065141 -0.079393397908 0.085027856386 -0.99321042685
-0.076489879038 0.084797677867 -0.99345792676 -0.073074872024 0.084468365947 -0.99374300412 -0.069199991425 0.084012496947 -0.99405898293
-0.064923809528 0.083400703321 -0.9943989248 -0.060311216149 0.082603081879 -0.99475589371 -0.055432320782 0.081590945445 -0.99512319611
-0.050360557684 0.080338214158 -0.99549464367 -0.045171533939 0.07882290425 -0.99586469075 -0.039941753324 0.077027675422 -0.99622858499
-0.034747161348 0.074940838677 -0.99658241279 -0.029661122036 0.072555667117 -0.9969232132 -0.024754067671 0.069871933805 -0.99724878992
-0.020092078517 0.06689423005 -0.9975577529 -0.01573516225 0.063630817056 -0.99784944946 -0.011737516391 0.060094368546 -0.99812368852
-0.008146284003 0.056299366067 -0.99838069865 -0.0050011102855 0.052261337745 -0.99862091981 -0.0023341241985 0.047996692063 -0.99884476743
-0.00016970818461 0.043520929628 -0.99905250106 0.0014752361323 0.038847993791 -0.99924404279 0.0025917891758 0.033990119082 -0.99941880832
0.0031784842353 0.028957496969 -0.99957559024 0.0032410014829 0.023758336162 -0.99971247735 0.0027921413336 0.018399349203 -0.99982681895
0.0018516094991 0.012886780746 -0.99991524762 0.00044558402939 0.0072268835966 -0.99997378646 -0.0013937746099 0.0014270849465 -0.99999801041
-0.0036289839979 -0.004502515128 -0.99998327878 -0.0062177113769 -0.010548196849 -0.99992503499 -0.009113904536 -0.016691756802 -0.99981914465
-0.012269245418 -0.022909725055 -0.99966224802 -0.015634146375 -0.029172839735 -0.99945210935 -0.019159556547 -0.035446702268 -0.99918789159
-0.022798415859 -0.041692086743 -0.99887036303 -0.026507100088 -0.047866059849 -0.99850198496 -0.030246814061 -0.053923211035 -0.99808687876
-0.033984683972 -0.059817107797 -0.99763067057 -0.037694211513 -0.065502193508 -0.99714021535 -0.041355563949 -0.070935013664 -0.99662326943
-0.044955544807 -0.076075538282 -0.99608810427 -0.048486576435 -0.080887914283 -0.99554316693 -0.051946303026 -0.08534117538 -0.99499671627
-0.055336247174 -0.08940961157 -0.99445654561 -0.058660533921 -0.093072751639 -0.99392977854 -0.061925088303 -0.096315143163 -0.99342270793
-0.065136065847 -0.09912600842 -0.99294074717 -0.068299015151 -0.10149889928 -0.9924883969 -0.071418066374 -0.10343135118 -0.99206925937
-0.074495087595 -0.1049246612 -0.99168608813 -0.077529299312 -0.10598338395 -0.99134087481 -0.080516788555 -0.10661531865 -0.991034924
-0.083450465516 -0.10683162981 -0.99076890478 -0.086320429938 -0.10664668284 -0.99054291599 -0.089113802911 -0.10607804502 -0.99035659159
-0.091815176969 -0.10514664525 -0.99020914774 -0.094407420126 -0.10387682042 -0.99009941178 -0.096872135673 -0.10229611293 -0.99002590603
-0.099190321179 -0.10043529426 -0.98998688469 -0.10134322178 -0.09832801102 -0.98998038044 -0.1033131585 -0.096010362123 -0.99000424325
-0.1050841219 -0.093520484894 -0.99005618337 -0.10664234822 -0.090897779675 -0.99013383096 -0.10797700811 -0.088182283069 -0.99023474524
-0.10908051094 -0.085413642135 -0.99035647717 -0.10994861947 -0.082630364391 -0.99049660472 -0.11058063596 -0.079869319662 -0.99065272156
-0.11097920138 -0.077164430313 -0.99082252071 -0.11115001709 -0.07454612645 -0.99100380864 -0.11110160157 -0.072040886937 -0.99119450399
-0.11084467516 -0.069670788205 -0.99139267662 -0.11039170079 -0.067452924536 -0.99159657894 -0.10975664475 -0.065399168615 -0.99180463181
-0.10895412973 -0.063516287613 -0.992015463 -0.10799885449 -0.061805743785 -0.99222794632 -0.10690565451 -0.060263855302 -0.99244115633
-0.10568893841 -0.058881760947 -0.99265441445 -0.10436196344 -0.057645864877 -0.99286732993 -0.10293697251 -0.056538104765 -0.99307976638
-0.10142517465 -0.055536304255 -0.99329182663 -0.099836555161 -0.0546149213 -0.99350383624 -0.098179613152 -0.053745572532 -0.99371634635
-0.096461455474 -0.052897614553 -0.99393009311 -0.094688048998 -0.052039549696 -0.99414589404 -0.092863927305 -0.051139738654 -0.99436463037
-0.090992306002 -0.050167620693 -0.9945871556 -0.089075498541 -0.04909525941 -0.99481415906 -0.087114656157 -0.047898388558 -0.99504612006
-0.085109770669 -0.046558003859 -0.99528321558 -0.083060561278 -0.045061337612 -0.99552519758 -0.080965379618 -0.043402210078 -0.99577148757
-0.078821713991 -0.041582548741 -0.99602109869 -0.076626196624 -0.039611510021 -0.99627273086 -0.074374836967 -0.037504834993 -0.99652484715
-0.072062448874 -0.035284045126 -0.99677582215 -0.069682801414 -0.03297592326 -0.99702401961 -0.067229139923 -0.030609446435 -0.99726792014
-0.064693717709 -0.028214963079 -0.99750620988 -0.06206788685 -0.025823486836 -0.99773780371 -0.059342471241 -0.02346317338 -0.99796189837
-0.056507880764 -0.021159577357 -0.99817790584 -0.053553385745 -0.018935234954 -0.99838544248 -0.05046884906 -0.016808778754 -0.99858417784
-0.047244132259 -0.014795172229 -0.99877379563 -0.043869059726 -0.012905402191 -0.99895393097 -0.040334628322 -0.011147145535 -0.9991240458
-0.036632435325 -0.0095255254892 -0.99928340777 -0.032755500656 -0.0080433403511 -0.99943102906 -0.02869896991 -0.0067012712193 -0.99956563671
-0.024459149314 -0.00549871717 -0.99968570767 -0.020035059073 -0.0044341610347 -0.99978944515 -0.015428908149 -0.0035044146097 -0.9998748261
-0.01064538096 -0.0027065475667 -0.99993967341 -0.0056925076084 -0.0020368513373 -0.99998172313 -0.00058232876637 -0.0014905757493 -0.99999871954
0.0046696668775 -0.0010634666035 -0.99998853156 0.010044069872 -0.00075006149104 -0.99994927575 0.015517266714 -0.00054395132815 -0.99987945201
0.021061688753 -0.00043901081199 -0.99977808164 0.026645829704 -0.0004278593196 -0.99964484528 0.032235095666 -0.00050247257323 -0.99948018796
0.037791160423 -0.00065400724083 -0.99928544494 0.043272836083 -0.00087244448528 -0.99906291118 0.048637361072 -0.0011477182689 -0.99881584381
0.053839455207 -0.0014689400624 -0.99854852425 0.058833462369 -0.0018244320348 -0.99826614445 0.063572998674 -0.0022020484971 -0.99797476162
0.068012191945 -0.0025896924355 -0.99768112904 0.07210726588 -0.0029754921969 -0.99739244465 0.07581542026 -0.0033473178829 -0.99711625075
0.079096151386 -0.0036936205299 -0.99686014867 0.081912730696 -0.0040040862203 -0.9966314624 0.084232337011 -0.0042689957786 -0.99643699704
0.086026491844 -0.0044794934752 -0.99628277956 0.087271387711 -0.004628518125 -0.99617382103 0.087271387711 -0.004628518125 -0.99617382103

NormalArray 3 141 double
0.99488116293 -0.047078835074 -0.08941507105 0.99488116293 -0.047078835074 -0.08941507105 0.99483276528 -0.048803591836 -0.089027965008
0.99469385728 -0.05294838517 -0.088207702645 0.99443028401 -0.059540501018 -0.086967459351 0.99382893326 -0.070674986259 -0.085493261284
0.99281791211 -0.085447091395 -0.083734031099 0.99116034957 -0.10447752519 -0.081765568356 0.98869017157 -0.12712338402 -0.079570031221
0.98504916798 -0.15399299962 -0.077228833536 0.97995872174 -0.18464514223 -0.074746739936 0.9729496391 -0.21944843481 -0.072189917844
0.96363648609 -0.25800140788 -0.06957008121 0.95142501477 -0.30051499344 -0.066941616184 0.93574359255 -0.34676475422 -0.064328331519
0.91584052041 -0.39676301668 -0.061767708087 0.89084220222 -0.4504278367 -0.059286884558 0.85990397738 -0.50727607874 -0.056886989902
0.82170819356 -0.56728777563 -0.054591430273 0.77516007236 -0.62959043382 -0.052371250244 0.71894051929 -0.69325690272 -0.050193590749
0.65191646176 -0.7567704357 -0.047994109358 0.57341859558 -0.81798805809 -0.045679876023 0.48379966044 -0.87411519328 -0.043133715727
0.38435800701 -0.92230657783 -0.040242998567 0.27813405136 -0.95983303635 -0.036905173166 0.16937591103 -0.98499685862 -0.033060388289
0.062744630791 -0.99761683548 -0.028701234753 -0.037392376469 -0.99901569927 -0.023863000715 -0.12782348818 -0.99162240674 -0.018605330274
-0.20676048138 -0.97830533753 -0.01299114709 -0.27379644918 -0.96176165498 -0.0070727242544 -0.32946843355 -0.94416617308 -0.00088820236232
-0.37494643057 -0.92702995687 0.005534733549 -0.41151557146 -0.91132144013 0.012172395498 -0.44067879269 -0.89746376091 0.018999987533
-0.46379650856 -0.88556053786 0.025987158844 -0.48213405278 -0.87547211086 0.033095894867 -0.49684387583 -0.86690461395 0.040280930562
-0.50899127279 -0.85946060531 0.047490547893 -0.51952556191 -0.85270424789 0.054668603021 -0.52940768615 -0.84611680728 0.061756378444
-0.53951548612 -0.83916868562 0.068694667318 -0.55067118948 -0.83130756487 0.075425285342 -0.56376046943 -0.82186865888 0.081890418573
-0.57960485533 -0.81012876321 0.088031805026 -0.598992179 -0.79524362934 0.093786670127 -0.62276264349 -0.77611197235 0.099080251549
-0.65148787786 -0.75152180124 0.10381968627 -0.68569610536 -0.71984964216 0.10787652098 -0.72551905445 -0.6791794631 0.11107366265
-0.7704843644 -0.62733272559 0.11317020643 -0.81933409894 -0.56189900448 0.1138470161 -0.86956540928 -0.48077979879 0.11272437208
-0.917353083 -0.38274453201 0.10940724078 -0.95778357311 -0.26818388646 0.10357620444 -0.98554756072 -0.14015262394 0.095148555247
-0.99642597777 -0.004112342077 0.08437037083 -0.98851278122 0.13297917097 0.071826328426 -0.96265912639 0.26436318339 0.058305348278
-0.92185687441 0.38495546723 0.044600351567 -0.87001323673 0.4920315731 0.031335267373 -0.8107776366 0.58504965791 0.018881784023
-0.74708940776 0.66468214102 0.0074207971815 -0.68083117282 0.73243402504 -0.0030517335539 -0.61321318648 0.78981690109 -0.012603598055
-0.54468180877 0.83837021877 -0.021379978375 -0.47534186316 0.87930557207 -0.029526666746 -0.40504295586 0.91354113715 -0.037185946865
-0.33334905225 0.94175243136 -0.044505813034 -0.25978877982 0.96428552906 -0.051606281844 -0.18389340102 0.98119904976 -0.058580216923
-0.10495952928 0.99231549375 -0.065524484629 -0.022567012551 0.99711491008 -0.072474726853 0.063646550699 0.99480591718 -0.079437420208
0.1538189365 0.98431686296 -0.086371569769 0.24740416745 0.96442456592 -0.093147380956 0.34307961119 0.9340156219 -0.099555002049
0.43890635099 0.89233669133 -0.10533966187 0.53184562447 0.83964185094 -0.11018980842 0.61813583861 0.77778803253 -0.11381503188
0.69445682302 0.71011226207 -0.11606160531 0.75846183426 0.64113873575 -0.11694771259 0.80892514181 0.57622212666 -0.11665408558
0.84627463994 0.52007783011 -0.11549149071 0.87191259855 0.47625444699 -0.11379860375 0.88757672265 0.44687179859 -0.11186222341
0.89477281232 0.43279304498 -0.10987171857 0.89485451526 0.43311930343 -0.10790303752 0.88849860039 0.44648298874 -0.10593950104
0.87652284634 0.47001357749 -0.10389868535 0.85957133316 0.50079749629 -0.10168082863 0.83885378782 0.53524076346 -0.099205079405
0.81582958619 0.57019468445 -0.096437068165 0.79206517744 0.60325032946 -0.093390549223 0.76941829257 0.63235539423 -0.09012295183
0.7495453205 0.6562488093 -0.086713971308 0.73351118247 0.67456132303 -0.083236810697 0.72213816128 0.68713557602 -0.079756982113
0.7160428341 0.69387075552 -0.076328463715 0.71558269578 0.69470420561 -0.072989534883 0.72023743617 0.69021342612 -0.069738525491
0.73027791144 0.67989664521 -0.066593722562 0.74500298258 0.66402879319 -0.063532021529 0.76359382719 0.6428543855 -0.060520295148
0.78534078646 0.61638518748 -0.057525209926 0.8093645198 0.58477198832 -0.0545050068 0.83425396462 0.54897898157 -0.051404282983
0.85925745963 0.50926856309 -0.048188678336 0.88303941909 0.46715426528 -0.044813801025 0.90504180695 0.42331665027 -0.041259438586
0.92458840262 0.37911664309 -0.037508088113 0.94149608487 0.33534928676 -0.033555596234 0.95556697761 0.29330405663 -0.02940206915
0.96713448142 0.25302799718 -0.025054490514 0.97628382267 0.2155199117 -0.020519874613 0.98338283022 0.18085438109 -0.015808290884
0.98880392533 0.14881982456 -0.010929641762 0.99278808524 0.11973746902 -0.005895448903 0.99563400104 0.093340340274 -0.00071891808778
0.99759347473 0.069182640797 0.0045849083599 0.99881787348 0.047570107766 0.0099970230958 0.99948959976 0.027935879725 0.015496018952
0.99972743834 0.010083934427 0.021056193944 0.99962700124 -0.0059788886995 0.026647913098 0.99926683299 -0.020651134733 0.032238596597
0.9987123876 -0.033843152216 0.037791637929 0.99801439078 -0.045773447312 0.043267393323 0.99720629393 -0.056703617753 0.048624140937
0.99633197441 -0.066529990252 0.053817814528 0.99541636511 -0.075421655766 0.058803349457 0.99449478681 -0.083327065999 0.063535179889
0.99357302985 -0.090515790913 0.067967094599 0.9926844825 -0.096878600761 0.072055915222 0.99185339285 -0.10240807727 0.075759044291
0.99108835772 -0.10722527438 0.079035483923 0.99038210214 -0.11155408764 0.081847280245 0.98979726771 -0.11496893016 0.08416361411
0.98933015595 -0.1176332065 0.085955053656 0.98897996663 -0.11964654714 0.087197071922 0.98897996663 -0.11964654714 0.087197071922

BinormalArray 3 141 double
-0.054368508615 -0.99523651776 -0.080921807851 -0.054368508615 -0.99523651776 -0.080921807851 -0.056047653581 -0.99515562304 -0.080770950551
-0.060092571299 -0.99494880212 -0.080409974721 -0.066532281897 -0.99458470302 -0.079841868577 -0.077464442013 -0.99386885954 -0.078892016504
-0.09198854166 -0.99272763052 -0.077652815807 -0.11073041369 -0.99093367179 -0.076087013337 -0.13305301883 -0.98832259187 -0.074265392937
-0.15957141228 -0.98454582359 -0.072155981239 -0.18985115456 -0.97932778083 -0.069811437446 -0.22426827148 -0.9722064092 -0.067219344891
-0.26242815569 -0.96279854844 -0.064423739606 -0.30454880361 -0.9505144336 -0.061419359615 -0.35041202227 -0.93478390147 -0.058227761451
-0.40003596832 -0.91485680808 -0.054847468137 -0.45334356573 -0.8898597862 -0.051275455245 -0.50985525967 -0.85894638529 -0.047526007406
-0.5695541704 -0.82079823441 -0.043569546404 -0.63156889322 -0.77431712157 -0.039417361127 -0.69497248898 -0.71818071103 -0.03506716227
-0.75824703424 -0.6512517862 -0.030537616632 -0.81924727839 -0.57285625545 -0.025876774402 -0.87517566261 -0.48334143876 -0.021180489897
-0.92318410604 -0.38400065777 -0.0165710948 -0.96054113559 -0.27786935007 -0.012220930276 -0.98554811318 -0.1691917856 -0.0083100115818
-0.99802455308 -0.062626774936 -0.0049878368404 -0.99929540482 0.037458965335 -0.0023494307127 -0.9917930025 0.12785330028 -0.00041688091384
-0.97838983789 0.20676701247 0.00085303753469 -0.96178755756 0.2737924235 0.0015501494338 -0.94416556211 0.32946654009 0.0017861342815
-0.92703937601 0.37496024647 0.0016759749032 -0.91138151973 0.41156040664 0.0013255864319 -0.89761859296 0.44077225764 0.00082369580627
-0.8858567967 0.4639587032 0.00023970907903 -0.87595794912 0.4823873221 -0.00037796032423 -0.86762841957 0.49721214951 -0.0010019689691
-0.86046970688 0.50949900669 -0.001626568002 -0.85404365472 0.52019641093 -0.0022649247955 -0.84782818547 0.53026279876 -0.0029550246401
-0.84128953488 0.54057176276 -0.0037533734117 -0.83387072589 0.55193948512 -0.0047346876305 -0.82490232782 0.56524342666 -0.0060015147225
-0.81365669091 0.58129501933 -0.0076739714469 -0.79928556937 0.6008699654 -0.0098925870134 -0.78068448907 0.62479363806 -0.012831148281
-0.75663825224 0.65362137635 -0.016662881952 -0.72552036006 0.68786187246 -0.021592858962 -0.68541037713 0.72762535009 -0.027820223371
-0.6341223361 0.77241678248 -0.03551305387 -0.569233589 0.82095522546 -0.044784360566 -0.48862609302 0.87071966825 -0.055603961636
-0.39104194537 0.9178765923 -0.067740373996 -0.27683900526 0.9575201958 -0.080717035365 -0.14904043855 0.98437310804 -0.093789828039
-0.013087804879 0.99426862141 -0.10610663433 0.12406153611 0.98536441235 -0.11690042827 0.25562890388 0.95857162259 -0.12567540677
0.37649684778 0.91692609912 -0.13227491209 0.48390516317 0.86435787568 -0.13682564019 0.57728278453 0.80451998301 -0.13961441052
0.65728129214 0.74034478662 -0.14096417955 0.72539538565 0.67370023097 -0.1411719989 0.78313215948 0.60578153911 -0.14047329878
0.83203308499 0.53701889648 -0.13903830514 0.87331410311 0.46750326691 -0.13697873096 0.9078993169 0.39707238092 -0.13435905136
0.93647202387 0.32527967623 -0.13119939305 0.95938578839 0.25164586491 -0.12748830423 0.9767062711 0.17569666055 -0.12318905576
0.98826469838 0.0967244104 -0.1182255233 0.99354738369 0.014308428259 -0.11251162267 0.99176889985 -0.07191173586 -0.10593937669
0.98186210476 -0.16206879577 -0.098389596387 0.96260316347 -0.25560782386 -0.089776333481 0.93287183435 -0.35119477046 -0.080077299461
0.89190258026 -0.44687907818 -0.069346065606 0.83992647247 -0.53961246482 -0.057809243681 0.778767787 -0.62563091691 -0.04589868995
0.71172998339 -0.70162205887 -0.034160170488 0.64330725672 -0.76525686915 -0.023188308886 0.57882993584 -0.81533520926 -0.013579466798
0.52300302843 -0.85231142755 -0.0057500188613 0.4793757219 -0.87760977211 7.1834583161e-05 0.45007591022 -0.89298208776 0.0038296188113
0.43597798332 -0.89994001055 0.0055835003004 0.43619900262 -0.89983307022 0.0055566041928 0.44938461046 -0.89332954048 0.003975422409
0.47268181697 -0.88123234553 0.0012054464152 0.50319248679 -0.86417100345 -0.0024079090677 0.53734100843 -0.84334042326 -0.0064475703977
0.57199511644 -0.82018923066 -0.010545741808 0.6047592065 -0.79627791371 -0.014414794584 0.63359300687 -0.77346163677 -0.017804440175
0.65724344799 -0.75339789749 -0.02055865113 0.67534418719 -0.73715530911 -0.022633583019 0.68773894731 -0.72556053333 -0.024021923859
0.69432676976 -0.71923460067 -0.024737138174 0.69504367682 -0.71853925097 -0.024811935139 0.69046236558 -0.72295815107 -0.024356385778
0.6800800651 -0.73276494709 -0.023380277327 0.66416724804 -0.74726093792 -0.021976289287 0.6429641811 -0.76562896924 -0.020232233524
0.61647928476 -0.7871604493 -0.018213141556 0.58485990542 -0.81097668188 -0.015991012517 0.54906576819 -0.83566712437 -0.013683547042
0.50935705555 -0.86048046667 -0.011347089246 0.46724392979 -0.88408163821 -0.0090976395105 0.42340576924 -0.9059132159 -0.0069856870141
0.3792022553 -0.92529986237 -0.0050807755127 0.33542838184 -0.94205953132 -0.0034117603326 0.29337368735 -0.95599572349 -0.0020140108106
0.25308623998 -0.96744333 -0.00087085058493 0.21556552136 -0.97648937827 1.1045523035e-05 0.18088714165 -0.98350364103 0.00065579552286
0.14884042836 -0.98886062436 0.0010920011313 0.11974728875 -0.99280350007 0.0013405552857 0.093341292358 -0.99563314482 0.0014297131319
0.069176971483 -0.99760344388 0.0013839672305 0.047560196425 -0.99886761999 0.0012269723097 0.027924083031 -0.99960956915 0.00097716219183
0.01007245272 -0.99994905947 0.00065127584277 -0.0059881668269 -0.99998203475 0.0002683872785 -0.020656599035 -0.99978661631 -0.00016358712679
-0.033843685426 -0.99942694246 -0.00062580686164 -0.045768301925 -0.99895146547 -0.001110034731 -0.056692278628 -0.99839039583 -0.0016134024493
-0.066512478728 -0.99778334453 -0.0021183864774 -0.075398168224 -0.99715006157 -0.0026212476418 -0.083298216374 -0.9965198197 -0.0031074257057
-0.090481910345 -0.99589165329 -0.0035831287861 -0.096840386261 -0.99529175781 -0.0040319260915 -0.10236634766 -0.99473684016 -0.0044440628171
-0.10718053004 -0.99422789023 -0.0048204022294 -0.11150603707 -0.99375029702 -0.0051721246107 -0.11491858963 -0.99335991502 -0.0054586613133
-0.11758097304 -0.99304700939 -0.0056878741012 -0.11959235127 -0.99280576176 -0.0058642085031 -0.11959235127 -0.99280576176 -0.0058642085031

