# vtk DataFile Version 4.1
vtk output
ASCII
DATASET POLYDATA
POINTS 290 float
-62.9444 -14.68824 -236.474 -62.7627 -14.80288 -235.14 -62.5811 -14.91748 -233.807
-62.3995 -15.03191 -232.476 -62.2181 -15.14602 -231.148 -62.0369 -15.25968 -229.825
-61.8559 -15.372779999999999 -228.509 -61.6753 -15.48518 -227.2 -61.4951 -15.59677 -225.9
-61.3154 -15.707429999999999 -224.609 -61.1363 -15.817039999999999 -223.33 -60.9578 -15.925519999999999 -222.061
-60.7801 -16.03277 -220.805 -60.6032 -16.1387 -219.561 -60.4273 -16.24324 -218.329
-60.2525 -16.346330000000002 -217.11 -60.0789 -16.4479 -215.903 -59.9065 -16.54793 -214.709
-59.7356 -16.64636 -213.525 -59.5661 -16.74318 -212.353 -59.3983 -16.838369999999998 -211.191
-59.2322 -16.93191 -210.038 -59.0679 -17.0238 -208.895 -58.9056 -17.11405 -207.759
-58.7452 -17.20265 -206.631 -58.587 -17.28961 -205.51 -58.4309 -17.37493 -204.395
-58.2772 -17.45861 -203.285 -58.1258 -17.54066 -202.18 -57.9769 -17.62105 -201.081
-57.8305 -17.6998 -199.986 -57.6868 -17.77686 -198.896 -57.5457 -17.85222 -197.812
-57.4074 -17.92584 -196.732 -57.2719 -17.99768 -195.658 -57.1394 -18.0677 -194.589
-57.0097 -18.13584 -193.528 -56.883 -18.20206 -192.473 -56.7592 -18.2663 -191.425
-56.6384 -18.3285 -190.385 -56.5207 -18.38861 -189.353 -56.4058 -18.4466 -188.329
-56.2939 -18.5024 -187.314 -56.1849 -18.55601 -186.307 -56.0786 -18.60738 -185.309
-55.975 -18.65653 -184.318 -55.8741 -18.70344 -183.335 -55.7755 -18.74814 -182.359
-55.6793 -18.79066 -181.389 -55.5853 -18.831049999999998 -180.425 -55.4933 -18.86937 -179.464
-55.4031 -18.9057 -178.505 -55.3147 -18.94013 -177.548 -55.2277 -18.97277 -176.591
-55.1421 -19.00373 -175.632 -55.0576 -19.03316 -174.67 -54.9742 -19.06118 -173.703
-54.8916 -19.08796 -172.73 -54.8097 -19.11365 -171.75 -54.7283 -19.13843 -170.76
-54.6473 -19.16249 -169.76 -54.5665 -19.186 -168.748 -54.4859 -19.20916 -167.724
-54.4054 -19.23219 -166.687 -54.3248 -19.2553 -165.635 -54.244 -19.27872 -164.567
-54.1629 -19.30268 -163.484 -54.0815 -19.32742 -162.385 -53.9997 -19.3532 -161.269
-53.9173 -19.38029 -160.135 -53.8343 -19.40896 -158.984 -53.7506 -19.43948 -157.815
-53.666 -19.47216 -156.627 -53.5805 -19.50728 -155.419 -53.494 -19.54515 -154.192
-53.4063 -19.58605 -152.945 -53.3173 -19.63029 -151.677 -53.2268 -19.67816 -150.388
-53.1347 -19.72992 -149.076 -53.041 -19.78583 -147.741 -52.9453 -19.84613 -146.383
-52.8476 -19.91102 -145.001 -52.7478 -19.98068 -143.594 -52.6456 -20.05521 -142.162
-52.5411 -20.13472 -140.705 -52.4341 -20.21921 -139.224 -52.3246 -20.30866 -137.717
-52.2124 -20.40297 -136.187 -52.0977 -20.50198 -134.634 -51.9802 -20.60547 -133.06
-51.8603 -20.71312 -131.467 -51.7378 -20.82458 -129.856 -51.6128 -20.93941 -128.231
-51.4856 -21.05711 -126.593 -51.3562 -21.17715 -124.947 -51.2249 -21.29891 -123.296
-51.0916 -21.42176 -121.643 -50.9568 -21.54502 -119.991 -50.8204 -21.668 -118.344
-50.6827 -21.78998 -116.705 -50.5438 -21.91026 -115.078 -50.4039 -22.02814 -113.464
-50.2629 -22.142917 -111.866 -50.121 -22.253948 -110.287 -49.9781 -22.360605 -108.726
-49.8342 -22.462302 -107.185 -49.6891 -22.5585 -105.664 -49.5428 -22.648706 -104.162
-49.3949 -22.732475 -102.678 -49.2453 -22.80941 -101.211 -49.0936 -22.879162 -99.7568
-48.9394 -22.941423 -98.3141 -48.7822 -22.995927 -96.8795 -48.6218 -23.0424398 -95.4492
-48.4575 -23.0807603 -94.0196 -48.2889 -23.1107114 -92.5868 -48.1153 -23.132137 -91.1466
-47.9364 -23.1448982 -89.6951 -47.7514 -23.14887 -88.2283 -47.5599 -23.1439391 -86.7425
-47.3611 -23.1300029 -85.2341 -47.1547 -23.10696971 -83.6997 -46.94 -23.0747591 -82.1364
-46.7165 -23.0333043 -80.5415 -46.4837 -22.982555 -78.9128 -46.2409 -22.922479 -77.2485
-45.9879 -22.85307 -75.5471 -45.7241 -22.774345 -73.8076 -45.4491 -22.686353 -72.0296
-45.1626 -22.589177 -70.2129 -44.8642 -22.482936 -68.3579 -44.5536 -22.367787 -66.4651
-44.2306 -22.243925 -64.5357 -43.8949 -22.111589 -62.571 -43.5465 -21.971049999999998 -60.5728
-43.1851 -21.82262 -58.5429 -42.8108 -21.66665 -56.4835 -42.4235 -21.503519999999998 -54.3969
-42.0232 -21.33361 -52.2856 -41.6101 -21.15737 -50.1519 -41.1842 -20.97522 -47.9984
-40.7457 -20.78761 -45.8275 -40.2947 -20.595 -43.6417 -39.8315 -20.39783 -41.4432
-39.3565 -20.196559999999998 -39.2343 -38.8698 -19.99162 -37.0171 -38.3719 -19.78344 -34.7935
-37.8633 -19.57243 -32.5654 -37.3443 -19.35899 -30.3346 -36.8155 -19.14349 -28.1029
-36.2776 -18.92631 -25.8719 -35.7312 -18.7078 -23.6432 -35.1771 -18.4883 -21.4186
-34.616 -18.26815 -19.1997 -34.0489 -18.04767 -16.9883 -33.4768 -17.82719 -14.7863
-32.9006 -17.60702 -12.5956 -32.3215 -17.3875 -10.4183 -31.7405 -17.16895 -8.25629
-31.159 -16.95169 -6.11184 -30.5779 -16.73604 -3.98701 -29.9987 -16.52232 -1.88391
-29.4223 -16.31087 0.195463 -28.8499 -16.102 2.24921 -28.2827 -15.89601 4.27562
-27.7215 -15.693200000000001 6.27321 -27.1674 -15.49386 8.24075 -26.621 -15.298269999999999 10.1773
-26.0831 -15.10666 12.0823 -25.5542 -14.91927 13.9555 -25.0347 -14.73631 15.797
-24.5249 -14.55797 17.6073 -24.0248 -14.384409999999999 19.3871 -23.5346 -14.21577 21.1377
-23.054 -14.05217 22.8603 -22.5828 -13.89372 24.5567 -22.1207 -13.74049 26.2288
-21.6671 -13.59255 27.8787 -21.2215 -13.44995 29.5085 -20.7834 -13.31272 31.1205
-20.3521 -13.18087 32.717 -19.9268 -13.0544 34.3003 -19.5069 -12.933399999999999 35.8728
-19.0916 -12.8177 37.4365 -18.6803 -12.7075 38.9937 -18.2723 -12.6025 40.5462
-17.867 -12.5029 42.0959 -17.4637 -12.4086 43.6444 -17.062 -12.3195 45.193
-16.6614 -12.2356 46.7429 -16.2616 -12.1569 48.2951 -15.8622 -12.0833 49.8502
-15.4632 -12.0147 51.4086 -15.0645 -11.9511 52.9706 -14.666 -11.8924 54.5359
-14.268 -11.8387 56.1042 -13.8707 -11.7897 57.6749 -13.4743 -11.7455 59.2471
-13.0793 -11.7061 60.8197 -12.6861 -11.671199999999999 62.3916 -12.2953 -11.6409 63.9613
-11.9075 -11.6151 65.5274 -11.5232 -11.5937 67.0882 -11.1432 -11.5766 68.6422
-10.7679 -11.5638 70.1878 -10.3981 -11.5551 71.7234 -10.0342 -11.5504 73.2478
-9.67695 -11.5496 74.7595 -9.32668 -11.5526 76.2576 -8.98383 -11.5593 77.7411
-8.64876 -11.5695 79.2095 -8.32173 -11.583 80.6622 -8.00292 -11.5998 82.0993
-7.69243 -11.6197 83.5208 -7.39027 -11.6425 84.9271 -7.09639 -11.668099999999999 86.319
-6.81065 -11.696299999999999 87.6973 -6.53285 -11.727 89.0631 -6.26271 -11.76 90.4179
-5.99991 -11.7953 91.763 -5.74409 -11.8326 93.1 -5.49483 -11.8718 94.4308
-5.25169 -11.912799999999999 95.7572 -5.0142 -11.9556 97.0809 -4.78189 -12.0 98.4038
-4.55425 -12.0458 99.7279 -4.33078 -12.0932 101.055 -4.11098 -12.1419 102.386
-3.89434 -12.192 103.724 -3.68037 -12.2435 105.07 -3.46859 -12.296199999999999 106.426
-3.2585 -12.3502 107.792 -3.04964 -12.4055 109.171 -2.84157 -12.4621 110.562
-2.63384 -12.5201 111.968 -2.42604 -12.5795 113.389 -2.21775 -12.6403 114.825
-2.00861 -12.7027 116.278 -1.79823 -12.7667 117.748 -1.58629 -12.8324 119.235
-1.37244 -12.8999 120.739 -1.15639 -12.9694 122.26 -0.937867 -13.040799999999999 123.799
-0.7166 -13.114419999999999 125.355 -0.492361 -13.19029 126.928 -0.264939 -13.26852 128.517
-0.0341505 -13.34925 130.123 0.200163 -13.43258 131.745 0.438135 -13.5186 133.382
0.679868 -13.60742 135.033 0.92544 -13.699119999999999 136.699 1.1749 -13.793759999999999 138.379
1.42826 -13.891399999999999 140.072 1.68552 -13.99209 141.777 1.94662 -14.095839999999999 143.494
2.21151 -14.20267 145.223 2.48007 -14.31256 146.962 2.75217 -14.4255 148.712
3.02766 -14.54143 150.471 3.30634 -14.660309999999999 152.24 3.588 -14.78206 154.018
3.87241 -14.9066 155.804 4.15931 -15.03383 157.598 4.44842 -15.16366 159.4
4.73947 -15.29597 161.209 5.03217 -15.43065 163.025 5.32621 -15.56758 164.848
5.6213 -15.70664 166.679 5.91716 -15.84771 168.516 6.21352 -15.99068 170.36
6.51011 -16.13544 172.21 6.80669 -16.281869999999998 174.068 7.10306 -16.42988 175.932
7.39902 -16.57937 177.804 7.69442 -16.730249999999998 179.683 7.98914 -16.88243 181.569
8.28308 -17.03583 183.463 8.57619 -17.190379999999998 185.365 8.86842 -17.34601 187.274
9.15979 -17.50263 189.19 9.45031 -17.66019 191.114 9.74003 -17.81861 193.045
10.029 -17.97782 194.983 10.3173 -18.13774 196.927 10.605 -18.298299999999998 198.877
10.8922 -18.45941 200.833 11.179 -18.62098 202.793 11.4655 -18.78293 204.756
11.7518 -18.945149999999998 206.722 12.0379 -19.10754 208.69
LINES 1 291
290 289 288 287 286 285 284 283 282 281 280 279 278 277 276 275 274 273 272 271 270 269 268 267 266 265 264 263 262 261 260 259 258 257 256 255 254 253 252 251 250 249 248 247 246 245 244 243 242 241 240 239 238 237 236 235 234 233 232 231 230 229 228 227 226 225 224 223 222 221 220 219 218 217 216 215 214 213 212 211 210 209 208 207 206 205 204 203 202 201 200 199 198 197 196 195 194 193 192 191 190 189 188 187 186 185 184 183 182 181 180 179 178 177 176 175 174 173 172 171 170 169 168 167 166 165 164 163 162 161 160 159 158 157 156 155 154 153 152 151 150 149 148 147 146 145 144 143 142 141 140 139 138 137 136 135 134 133 132 131 130 129 128 127 126 125 124 123 122 121 120 119 118 117 116 115 114 113 112 111 110 109 108 107 106 105 104 103 102 101 100 99 98 97 96 95 94 93 92 91 90 89 88 87 86 85 84 83 82 81 80 79 78 77 76 75 74 73 72 71 70 69 68 67 66 65 64 63 62 61 60 59 58 57 56 55 54 53 52 51 50 49 48 47 46 45 44 43 42 41 40 39 38 37 36 35 34 33 32 31 30 29 28 27 26 25 24 23 22 21 20 19 18 17 16 15 14 13 12 11 10 9 8 7 6 5 4 3 2 1 0 

CELL_DATA 1
FIELD FieldData 2
LengthArray 1 1 double
453.3186992 
TortuosityArray 1 1 double
0.0041243630734 
POINT_DATA 290
FIELD FieldData 8
RadiusArray 1 290 double
36.342914053 36.50771347 36.555790888 36.732555052 37.093022909 37.458235647 37.603935452 37.786529664 38.019206882 
38.094483291 38.328337537 38.448347111 38.682535807 38.770148346 38.977736416 39.285225323 39.331869282 39.369391876 
39.429904222 39.520399271 39.545848862 39.656034927 39.917736338 40.158253376 40.492981214 40.58051533 40.704043833 
40.744280343 40.846112104 40.971162725 41.157407351 41.224377951 41.279409492 41.722594514 41.768652629 41.859221419 
41.921452066 42.207297917 42.27096335 42.716754361 42.984675235 43.002340339 43.115972895 43.268292464 43.304356823 
43.443958881 43.480876273 43.558155562 43.813804569 43.878804125 44.036654072 44.130930388 44.177308523 44.497765979 
44.535158606 44.564898115 44.643172004 44.686008134 44.867977761 45.024477623 45.191366353 45.486875879 45.5602502 
45.606554882 45.65757532 45.714724966 45.909105918 46.050587714 46.265158513 46.404899372 46.623173553 46.893179301 
47.111310099 47.329737497 47.498663133 47.568859413 47.735856156 47.838855108 47.976425243 48.04262253 48.166003693 
48.359202381 48.389855383 48.413990742 48.454599016 48.922585291 48.927069194 49.175311219 49.309230911 49.478319275 
49.656635625 49.708800241 50.083209814 50.109164357 50.813233135 51.164734956 51.332188333 51.586287416 51.816667862 
52.025649434 52.069086401 52.22113536 52.338710931 52.434932528 52.628449144 52.654217347 52.68848007 52.800315213 
52.833851976 52.852585053 52.906577893 52.922575007 53.024279563 53.050670754 53.138258642 53.235054929 53.272260716 
53.356333621 53.546161805 53.588854529 53.661310642 53.792839466 53.807898901 53.965553746 53.98731154 53.988347101 
53.983900064 53.910641009 53.849893153 53.845878069 53.848910293 53.894595954 53.788696403 53.767400949 53.747798042 
53.680571429 53.586082381 53.534778179 53.479572039 53.454307115 53.388766404 53.162530349 52.979044556 52.807966361 
52.71612738 52.486090488 52.466734646 52.32419887 52.31946992 52.272790534 52.123592434 52.123582737 52.123107553 
51.695818847 51.488939049 51.412180856 51.36320377 51.09127791 51.060873963 51.027732372 51.033785784 51.044961433 
51.066268126 51.069871582 51.147659258 51.173824579 51.222224848 51.359957924 51.489604898 51.49162673 51.604418502 
51.780971929 51.8793208 52.125359913 52.271648588 52.334365096 52.550566325 52.998325904 53.017481634 53.048910737 
53.361478076 53.479464622 53.497951081 53.524858007 53.70791255 54.131462194 54.161047002 54.312282195 54.545090853 
54.547720576 54.73817475 54.830853919 54.85322216 54.930196937 55.557958584 55.723851339 55.754038117 55.955798396 
55.95951268 56.153775793 56.15488169 56.243798811 56.593731214 56.756558398 56.780077704 57.021381368 57.163285418 
57.219869596 57.440562011 57.579790362 57.602409927 57.609366403 57.667437996 57.679885282 57.738104647 57.79792953 
57.803355844 57.895517362 58.249556795 58.304793337 58.329204982 58.395302623 58.599886643 58.649193816 58.720738098 
58.735132679 58.766221334 58.853792522 58.868335046 58.917459407 59.122491646 59.214784247 59.356454042 59.458104064 
59.516940516 59.644274209 59.713174371 60.035426083 60.058797231 60.251463379 60.359528939 60.480289232 60.6038964 
60.756959382 60.953262461 61.085110958 61.286415758 61.611328543 61.91819875 62.156437353 62.206827231 62.265684566 
62.528048808 62.812578472 62.827137457 63.217832642 63.322244777 63.433107703 63.620224033 63.81892577 64.005104041 
64.533108166 64.911030411 64.926165776 65.13704434 65.281298872 65.519264989 65.74003938 65.779943354 65.959633197 
66.241225033 66.591171788 66.866668706 66.949202951 66.991356814 67.386625794 68.032358585 68.081756327 68.122563258 
68.309959993 68.611081817 68.759712665 68.843800339 69.342978786 69.520494696 70.55619399 70.642775553 70.75159695 
70.762121782 71.099764603 
EdgeArray 2 290 int
11642 11642 5462 9631 5462 5855 5465 5465 5947 
5947 4657 4657 5892 5892 5893 5893 3304 3304 
5438 5438 5003 5004 5004 5004 3540 3540 4223 
4223 5471 5471 5474 5474 3059 3059 5888 5888 
5887 5882 5882 5882 3622 5878 3622 3622 3618 
3618 1427 1427 7154 7154 7155 7151 7152 7151 
7152 3899 3899 3899 4280 4280 3613 3613 4227 
4227 3344 3344 4239 4239 3940 5087 5087 4279 
4279 4279 3651 3651 4704 4283 4283 4283 3081 
1298 6232 3081 6232 6232 4702 7130 7130 7131 
7131 7131 4291 4277 4291 4291 1942 1942 7567 
2474 7567 7567 7566 7566 7560 7565 7560 7560 
7561 3324 3324 3324 1597 1597 2467 2467 1436 
1436 2739 2739 2734 2734 4317 4317 5945 5945 
1461 1461 1025 1025 7217 6349 7217 7217 7216 
7216 7219 7215 7215 7215 1274 1274 2192 2192 
3371 3371 3311 3311 2181 2181 3983 3983 517 
517 6337 6337 5110 5078 5078 7209 1595 1595 
915 915 5115 5101 5101 1505 1505 1505 721 
3636 4341 3636 4335 2535 5103 2535 5103 5103 
3029 3029 2275 2275 3660 821 3655 2840 3027 
3027 6270 6270 6065 7172 793 6269 1780 6521 
6521 4260 4260 7232 5141 5141 3045 7230 6370 
7234 7233 7237 5520 7233 5520 5520 6371 6371 
2638 2638 5303 3488 5303 5303 1115 2650 2011 
1115 2011 5521 8497 5521 8497 6535 8496 2914 
3201 6532 8502 8502 7646 7646 4885 4885 3709 
3108 3709 3709 2885 8958 8957 2339 8957 8960 
8961 8960 3402 3402 5254 5254 3457 3457 6078 
6078 6869 6869 7746 7746 7750 7750 7759 7759 
4836 4836 6546 6546 6871 6871 3210 3210 8946 
8943 8945 8947 6494 6494 9412 9412 9406 9406 
9407 9407 10279 10279 10281 10281 8143 8143 6051 
11444 11443 11443 11447 11447 11953 11447 11953 11953 
11955 11955 8999 8999 12758 12758 12760 12760 11295 
11295 12720 12720 11967 11967 13491 13491 13493 13493 
11940 13495 11940 11940 13863 13862 13863 13863 13117 
12703 13117 13117 13099 10150 13099 14801 14801 14801 
14479 14803 14479 14479 13451 13451 11931 14163 14163 
14163 14757 14757 4446 4446 11357 4343 11357 12590 
12590 12590 15557 15557 15559 2853 2853 2853 8578 
8578 16290 16290 16291 16293 16293 16294 16294 16294 
16295 16301 16301 16301 15387 15387 15330 13786 15330 
15330 13408 13408 16083 10560 14486 16083 17011 14213 
17011 17011 10996 10996 16537 17010 16537 16552 16552 
16552 17523 17523 17525 17525 17518 17518 17521 17522 
17484 17522 17484 17484 17939 16018 17940 17939 17940 
13794 13794 13794 17938 17938 17644 17211 17644 17645 
17645 17645 17667 17667 17666 16769 16769 16769 17655 
17656 17656 17656 18121 18121 18119 18120 18119 18119 
17921 17921 17916 17767 17236 17916 16229 17236 16229 
16229 17495 17495 3423 17984 17986 17986 17991 17991 
18116 17909 17909 17909 18115 18115 14138 14113 14138 
14138 16784 18113 16784 18399 18399 18411 18410 18411 
18410 18412 13378 13378 17227 18389 17227 17227 19149 
19149 10624 17672 19167 10624 19167 19167 19166 19166 
16836 16836 19417 17591 19417 19417 17700 17171 20054 
17700 20054 20054 20243 20243 20058 20058 20662 20662 
20152 20152 20691 20689 20690 20689 20663 20663 20888 
20887 20887 20891 20994 20998 20998 20996 21388 21388 
21387 21387 21584 21584 21880 21877 20220 21877 20220 
21586 20510 20387 21640 21018 21920 21640 21904 21920 
22553 22552 22547 22547 20186 22184 23000 21867 22805 
22805 22818 22816 22817 23815 23815 23276 23812 23813 
22555 23811 24456 24456 
EdgePCoordArray 1 290 double
0 0.104 0.184 0 0 0 0 0 0 
0 0.36 0 0 0 0 0 0 0 
0.1 0 0.984 0 0 0 0 0.108 0.592 
0.032 0 0 0 0 0 0 0.16 0.084 
0 0 0.036 0 0.548 0.992 0 0.64 0.064 
0 0.944 0 0 0.996 0 0 0.996 0 
0.376 0 0 0 0 0 0 0 0 
0 0 0.928 0 0 0.42 0 0 0 
0 0 0 0 0 0 0.54 0.308 0 
0 0.636 0.304 0 0.96 0.972 0.544 0.564 0 
0 0 0.652 0.3 0 0 0.576 0.6 0.6 
0.92 0.168 0 0.664 0.748 0.1 0.724 0 0 
0 0.752 0 0.94 0.3 0.272 0.668 0.032 0.608 
0.26 0 0 0 0.152 0 0.044 0.048 0.236 
0.972 0 0 0 0 0 0 0 0 
0 0 0 0 0.712 0.6 0 0 0 
0 0 0 0 0.008 0 0 0.98 0 
0 0 0 0 0 0 0 0 0 
0.344 0 0.292 0 0.948 0 0.04 0.008 0 
0.972 0 0 0.304 0 0 0 0.68 0.04 
0 0 0.116 0 0 0 0.088 0.14 0 
0.004 0 0 0.856 0 0 0.488 0.916 0.02 
0 0 0.984 0.084 0 0 0 0 0.204 
0.876 0 0.228 0.992 0.04 0 0 0.824 0.012 
0 0 0.796 0 0.216 0 0 0.828 0 
0 0.92 0.596 0.88 0 0 0.512 0 0 
0.088 0 0 0.104 0 0.58 0.18 0.76 0.54 
0.156 0 0.86 0 0 0.32 0.248 0 0 
0 0.056 0 0.208 0.568 0 0 0 0 
0 0.868 0.896 0 0.384 0.124 0.924 0.176 0 
0 0 0.808 0.492 0.204 0.464 0.048 0.66 0.956 
0.972 0 0.056 0.068 0 0.356 0.928 0.468 0.18 
0.152 0 
CurvatureArray 1 290 double
0 2.4830079711e-05 0.00010687701739 0.00018476246153 0.00026199252485 0.00033309561945 0.00039809047469 0.000456272021 0.00050412374442 
0.00054049604129 0.00056695021651 0.00057322268013 0.00056829213237 0.00055448368381 0.0005280962615 0.00049772082338 0.00047139201741 0.00046815531807 
0.00049694369554 0.00056485300394 0.00066666344703 0.00079054522028 0.00093119929553 0.0010784177185 0.0012271765457 0.0013706997943 0.0015075563691 
0.0016304968582 0.0017417268231 0.0018470431676 0.0019356144346 0.002006512791 0.0020752505888 0.00212468516 0.0021794676242 0.0022177482857 
0.0022572987244 0.0022927717068 0.0023325937509 0.0023722861103 0.0024113182639 0.002448551221 0.0024936801709 0.0025368079225 0.0025773171061 
0.0026105772542 0.0026492079567 0.0026660072571 0.0026796964888 0.0026740997175 0.0026517059564 0.0026035284241 0.0025408607787 0.002455253143 
0.0023488134642 0.0022173952034 0.0020751118438 0.0019214185751 0.0017546837701 0.0015812696697 0.0014162311381 0.0012496902968 0.0010965863407 
0.00096980283443 0.00086611768601 0.00081002882511 0.00080151062227 0.00083950327556 0.00090662301179 0.0010065669195 0.0011175142663 0.0012351010113 
0.0013511618546 0.0014628916634 0.0015649194571 0.0016547758969 0.0017298605639 0.0017879775504 0.0018286962236 0.001849028477 0.0018504632806 
0.0018325707543 0.001798077819 0.0017459202825 0.0016795151258 0.0016014967242 0.0015136798187 0.0014178605898 0.0013179013375 0.0012145038676 
0.0011102862736 0.0010073906924 0.0009102924451 0.00082130915219 0.00074620146973 0.00069095104657 0.00066849573165 0.00068484274927 0.00074817909055 
0.0008537746394 0.0010001328085 0.001181518882 0.0013919427205 0.0016304180802 0.0018948707324 0.0021807749679 0.0024831365291 0.0027938211056 
0.0031104439344 0.0034179705624 0.0037082843426 0.003970547435 0.0041937656352 0.0043695358416 0.0044903255926 0.0045564394324 0.0045631863292 
0.004518954508 0.004426206567 0.0042942891811 0.0041339844763 0.003953389641 0.0037609611833 0.0035642716153 0.0033712205678 0.0031856630691 
0.0030108959518 0.0028516904313 0.0027064580704 0.002577533693 0.0024646704894 0.0023687856257 0.0022860398236 0.0022172566188 0.0021600884662 
0.0021146542777 0.0020787567332 0.0020489814723 0.0020260526567 0.0020073242157 0.0019911885311 0.0019757858285 0.001959198545 0.001941969188 
0.0019216329734 0.0018949794664 0.0018643865753 0.001827034213 0.0017842456034 0.0017333531187 0.0016770505802 0.0016136752097 0.0015430500684 
0.0014691175313 0.0013887084469 0.0013048549975 0.0012174241222 0.0011268458226 0.0010335722509 0.0009380294149 0.00084100111451 0.00074190051272 
0.00064169839802 0.00054020838392 0.00043949725395 0.0003446744716 0.00026496607074 0.00022947217031 0.00026356381843 0.00035317895247 0.0004723638973 
0.00060573555548 0.0007476242875 0.00089363655587 0.0010407770507 0.0011863175355 0.0013273750494 0.0014615527278 0.001586825911 0.0017014428178 
0.0018023587898 0.001890517693 0.0019632309321 0.0020224760569 0.0020669346195 0.0020974994709 0.0021143729458 0.0021200750569 0.0021153527416 
0.0021006244162 0.0020789514318 0.0020516822931 0.0020199681151 0.0019859377884 0.0019519031765 0.0019202073519 0.001891164476 0.0018697171657 
0.0018546460919 0.0018487738991 0.0018543462959 0.0018705092574 0.0018998164513 0.0019403841623 0.0019938066634 0.0020580757926 0.0021346058521 
0.002217656605 0.0023108663345 0.0024074166535 0.0025089851073 0.0026102173564 0.0027107160902 0.0028065736373 0.0028938424839 0.0029693908605 
0.0030330175653 0.0030767082899 0.003103655503 0.0031072708573 0.0030895338235 0.0030467926628 0.0029811266011 0.0028933564452 0.0027833234875 
0.0026548364949 0.0025087575352 0.0023504086386 0.0021793102584 0.0020023425018 0.0018192624801 0.0016358948259 0.0014531154144 0.0012753284709 
0.001104478054 0.00094446472779 0.00079866143963 0.00067484807536 0.00057771414856 0.00051623971595 0.00049632114324 0.00051394909555 0.00055861202691 
0.00061855322585 0.00068466056592 0.00075101147954 0.00081387776391 0.00086947925827 0.00091954695811 0.00095935998468 0.00099096273074 0.0010116195407 
0.0010239482566 0.0010252915993 0.0010181288807 0.00099963253816 0.00097388570057 0.00093907942007 0.00089674698335 0.00084782286534 0.00079290985937 
0.00073493773779 0.0006752891639 0.0006144682664 0.00055784272269 0.00050752342815 0.00046696522214 0.00044071680167 0.00042878885554 0.00043220502423 
0.00044695099865 0.00046832536892 0.00049343332398 0.00051751452419 0.00053633547186 0.00054933077294 0.0005546444837 0.00055239168234 0.00054043488746 
0.0005210121884 0.00049255293777 0.00045818430035 0.00041736847226 0.00037112022221 0.00032126507753 0.00026850586013 0.00021291480482 0.00015572081771 
9.7709788569e-05 0 
TorsionArray 1 290 double
-0.0 -0.0 -0.0056056332022 0.0041646724281 0.00711676083 0.0094187961021 0.011451695562 0.016249614741 0.021537893929
0.026774840144 0.03527154297 0.048026795609 0.061515400156 0.082301607999 0.11513731497 0.15522486878 0.2024367453 0.23454230278
0.23818952659 0.20250075185 0.15667478397 0.11780660919 0.087752985183 0.067482105848 0.051928042543 0.040238610293 0.030929724447
0.023102684415 0.01845237787 0.013646503122 0.0081657805413 0.0044647609669 6.5314649524e-05 -0.0030012920983 -0.0065902050345 -0.010388775428
-0.013124588643 -0.016318135942 -0.017786261637 -0.020153711211 -0.022749303653 -0.023265513873 -0.022919821541 -0.02271523082 -0.022773709587
-0.019823077304 -0.017539564941 -0.015477360797 -0.011174658228 -0.0080385556265 -0.0052279470703 -0.00079143644502 0.005427457869 0.010676091246
0.014815816171 0.021082177654 0.0306613098 0.039541857078 0.048918778869 0.064038479958 0.082424387939 0.10400701078 0.13455638502
0.16872614236 0.2054038841 0.22727429381 0.22266956969 0.19803971122 0.16110915043 0.12314385191 0.094304792868 0.073906969475
0.057926117679 0.046516298971 0.037873537329 0.030715097728 0.027864096305 0.023988548233 0.020485045442 0.018885745393 0.017564945909
0.017848159412 0.017438371799 0.016645905246 0.018009645695 0.019702962747 0.021801638059 0.024563666156 0.028283840325 0.033326150273
0.040475666483 0.0507353113 0.064339107309 0.082028356845 0.10358964433 0.12707635195 0.14418860203 0.14650601576 0.13205081178
0.10947799067 0.086188349625 0.067492427718 0.05330148343 0.041946947929 0.03357218063 0.027277468341 0.022914654629 0.018818182741
0.015545799846 0.013322267196 0.010993159832 0.0090226080089 0.0072393775828 0.005686626851 0.0038055787264 0.0021714985053 0.00049193978093
-0.0014193867067 -0.0029638067312 -0.0050214837713 -0.0072238502814 -0.0091895725191 -0.011088683081 -0.013174275051 -0.015243877215 -0.016961707309
-0.018745363013 -0.020260285755 -0.021294422689 -0.022262353427 -0.023034735975 -0.023297798899 -0.023191206719 -0.022871457175 -0.02235239093
-0.021700390704 -0.020685000471 -0.019581490124 -0.018508791186 -0.017319192886 -0.016109944714 -0.014895627049 -0.013777687079 -0.012722460093
-0.01158343066 -0.010562322777 -0.00965003805 -0.0087525096661 -0.0078766110041 -0.0071115002391 -0.0063845315393 -0.0056587590671 -0.0051113292456
-0.004579378746 -0.0041439998949 -0.0039195217884 -0.0038535350836 -0.0040953506588 -0.0047342783567 -0.0060586401395 -0.0084238939979 -0.01236111511
-0.019287188897 -0.031726761795 -0.054927179142 -0.10143252167 -0.18943980706 -0.27101298096 -0.2140615507 -0.11885219745 -0.062008606807
-0.032235188377 -0.015409292731 -0.0048854886462 0.0025736258334 0.0077184745043 0.011419949763 0.014480511932 0.016969965755 0.018752423456
0.020133076632 0.021097555901 0.021320991224 0.021444678865 0.021025588794 0.020013167175 0.018427114628 0.016378788763 0.014153573079
0.010964693203 0.0077957879328 0.0041431851199 0.0001177996365 -0.0039436910639 -0.0082659549794 -0.012450522264 -0.016825762906 -0.02065936314
-0.02412888496 -0.027378473425 -0.029546230854 -0.031342450801 -0.032362917783 -0.032398324736 -0.032300617545 -0.031682677658 -0.030259276015
-0.029234964579 -0.027783796428 -0.026290062177 -0.025099036363 -0.023826066882 -0.022677838759 -0.021690405284 -0.020722247548 -0.019979373441
-0.019170401404 -0.018332425184 -0.017843913171 -0.017037061232 -0.01622889778 -0.015543683919 -0.014516033897 -0.013417720129 -0.012195471554
-0.010500640689 -0.0087242153669 -0.0066571238833 -0.0039046271942 -0.00036910679471 0.0038089870566 0.0087583291023 0.015854224596 0.025261912248
0.037570199805 0.054633327503 0.077663452311 0.10819548689 0.14362219781 0.1697295663 0.17127943061 0.14564125509 0.11026472624
0.079521551312 0.056155158864 0.04009209345 0.028157453861 0.020092456518 0.014129462174 0.0093997006795 0.0059035572334 0.0029404569846
0.00027907183482 -0.0018937025216 -0.0042045131794 -0.0068181013238 -0.0091981292311 -0.012293160775 -0.015904297331 -0.020236067255 -0.025651862732
-0.032431595672 -0.041031566379 -0.051751321181 -0.064193367597 -0.078804901508 -0.091983321443 -0.10032421797 -0.10309900569 -0.09575346222
-0.081885181712 -0.067948869874 -0.055594104681 -0.04372631838 -0.034426432995 -0.027645516278 -0.022400194128 -0.017910015595 -0.014455669772
-0.011611063852 -0.009187652681 -0.0077230992955 -0.0061046352303 -0.0048664485333 -0.0042295094079 -0.0029204144055 -0.0018618384125 -0.0016813670118
-0.0 -0.0
TangentArray 3 290 double
0.13448414087 -0.084862805778 0.98727519975 0.13448414087 -0.084862805778 0.98727519975 0.13457210928 -0.084858818995 0.98726355561
0.13476663514 -0.084850568296 0.98723772979 0.13506381906 -0.084837041265 0.98719827857 0.13545808162 -0.08481521444 0.98714613281
0.1359399378 -0.084782643547 0.98708268988 0.13649922474 -0.084736209418 0.98700949157 0.13712267716 -0.084671073133 0.98692866043
0.13779373841 -0.084581598046 0.98684286435 0.13849590999 -0.084462863897 0.98675473525 0.13920656036 -0.084308831089 0.9866679049
0.139901069 -0.084112718152 0.98658640855 0.14056109324 -0.083869190628 0.98651332375 0.14116393797 -0.08357252602 0.98645241928
0.14168408047 -0.083216344746 0.98640795886 0.14209838339 -0.08279770066 0.98638359182 0.14238707901 -0.082313055389 0.98638252247
0.14253391338 -0.081759806262 0.98640732845 0.14252113482 -0.081137158572 0.98646058595 0.14233737749 -0.080444853911 0.98654381375
0.14197629978 -0.079686062908 0.9866574186 0.14143386984 -0.078863558197 0.98680139828 0.14071081229 -0.077980124844 0.98697495786
0.13981013012 -0.0770412542 0.9871766674 0.13873985083 -0.076052465292 0.98740431249 0.13751130055 -0.075018959904 0.98765520192
0.13613965778 -0.073945995057 0.98792610219 0.13464287866 -0.072837627288 0.98821352717 0.13303309329 -0.071696892108 0.98851492237
0.13132551201 -0.070526184199 0.98882742035 0.12954275644 -0.069327974407 0.98914726215 0.12769913106 -0.068102279664 0.98947208724
0.12581106198 -0.066847480622 0.9897994701 0.1238902518 -0.065561889829 0.99012769081 0.12194805869 -0.064241872996 0.99045527549
0.11999835566 -0.062884517609 0.99078046614 0.11804815138 -0.061485659584 0.99110249098 0.11610411538 -0.060039400546 0.99142075063
0.11416889083 -0.05854232073 0.99173497521 0.11224867452 -0.056990939367 0.99204448887 0.11035088642 -0.055381993722 0.99234848548
0.10847605868 -0.053713655666 0.99264685961 0.10662331726 -0.051985573152 0.99293955929 0.10479555743 -0.050200487847 0.99322595725
0.10299747628 -0.048362295395 0.993505213 0.101224801 -0.046477112694 0.99377734813 0.099478609644 -0.044554574939 0.99404169735
0.097762235861 -0.042606428716 0.99429735868 0.09607308896 -0.040646818311 0.99454401498 0.09441440937 -0.038692290778 0.99478079291
0.09279164293 -0.036760783792 0.99500671142 0.091206337045 -0.034871509127 0.99522127285 0.089656609238 -0.033044759793 0.99542440008
0.088145604634 -0.031301071465 0.99561568655 0.086680823594 -0.029659472615 0.99579453227 0.085265497304 -0.028138074391 0.99596086456
0.083897164815 -0.026753587323 0.99611520985 0.082579782787 -0.025521208095 0.99625762101 0.081320137208 -0.024453252365 0.99638801364
0.08011701543 -0.023560132064 0.99650699145 0.078971949304 -0.022850779204 0.99661490713 0.077891039004 -0.022332082277 0.9967117257
0.076872719373 -0.022008928123 0.99679796955 0.075920001601 -0.021885248978 0.99687370777 0.075035012942 -0.021964432928 0.99693897031
0.074215830594 -0.022248432884 0.99699399082 0.073462740519 -0.022737797995 0.99703872457 0.072782386266 -0.023432499664 0.99707253608
0.072175242507 -0.024331716955 0.99709513183 0.071639131874 -0.025433076021 0.99710630999 0.071174807548 -0.026731997788 0.99710558471
0.07078441924 -0.028222619417 0.99709229751 0.070468277462 -0.029897100754 0.99706588811 0.070226748593 -0.031744604961 0.99702581904
0.070059592685 -0.033751676021 0.99697165348 0.069963862697 -0.035901887297 0.99690326131 0.069943649582 -0.038176497306 0.99682016479
0.069996610163 -0.040554478182 0.99672253354 0.070117932619 -0.043011984528 0.99661097963 0.07030588267 -0.045523180401 0.99648618802
0.070557315341 -0.048061788454 0.9963492007 0.070872838119 -0.050601116016 0.996201068 0.071248367933 -0.053114673757 0.9960434235
0.071676941154 -0.055576373316 0.99587834741 0.072157773602 -0.057962032026 0.995707617 0.072689504446 -0.060249170213 0.99553316039
0.073270029754 -0.062416650267 0.99535705378 0.073897403034 -0.064446246068 0.99518131775 0.074570111871 -0.066321832003 0.99500789596
0.075286927492 -0.068028360217 0.99483869082 0.076048102631 -0.069552180636 0.99467541452 0.076856324377 -0.070881157072 0.99451946536
0.077714815884 -0.072003991174 0.99437207958 0.078626710072 -0.072908920838 0.99423444405 0.07959480509 -0.073583661383 0.99410769627
0.080624109459 -0.074015364905 0.99399269551 0.081720615957 -0.074190010108 0.99389012639 0.082891128741 -0.074092109544 0.9938004931
0.084142858176 -0.073704571739 0.99372411439 0.085482926863 -0.073008675487 0.9936611105 0.086920550871 -0.071984917153 0.99361108566
0.088461587774 -0.07061297313 0.99357352799 0.090110636192 -0.068872359234 0.99354751843 0.09187473415 -0.06674412526 0.99353120483
0.093759022192 -0.064211466475 0.99352208497 0.095765593773 -0.061261956549 0.99351694688 0.097890984355 -0.057888969748 0.99351206453
0.10013325111 -0.054092860297 0.99350253874 0.10248787322 -0.049883314793 0.99348270783 0.10494240705 -0.045279974954 0.99344693621
0.1074855265 -0.040313199717 0.99338900111 0.11010291074 -0.035023732554 0.99330291815 0.11277851462 -0.029461631874 0.99318327558
0.11549454254 -0.023684351609 0.99302571071 0.11823752258 -0.017754065745 0.99282661195 0.12099323465 -0.01173486637 0.99258396626
0.1237501499 -0.0056897302343 0.99229709632 0.12650166772 0.00032224320961 0.99196634228 0.12924020219 0.0062481081184 0.99159363213
0.13196652151 0.012042507157 0.99118102041 0.13468540481 0.017668465617 0.99073087519 0.13740148147 0.023097521977 0.9902460994
0.1401208498 0.028309234148 0.98972962708 0.14285351164 0.033290225132 0.98918382272 0.14561084465 0.038033228259 0.98861061873
0.14840212698 0.042535818555 0.98801189914 0.15123932027 0.046799528098 0.98738871382 0.15413293128 0.050828479091 0.98674186351
0.15709048299 0.054628807085 0.98607214421 0.16012084278 0.058207776194 0.98537970879 0.1632331245 0.06157343829 0.98466423656
0.16643293087 0.064734110126 0.98392559399 0.16972337698 0.067697821443 0.98316376066 0.17310715146 0.07047262983 0.98237850269
0.17658607221 0.073066235881 0.98156950048 0.18016146769 0.075485793358 0.98073632571 0.18382976498 0.077738028508 0.97987928666
0.18758604953 0.079829459868 0.97899884135 0.19142511712 0.08176602671 0.97809546641 0.19533837179 0.083553500376 0.97717026821
0.19931473235 0.085197457505 0.97622488736 0.20334017171 0.08670337232 0.97526165709 0.20740036651 0.088076840701 0.97428309957
0.21147994895 0.089323574065 0.97329210945 0.21555803785 0.090449717438 0.97229295016 0.21961384204 0.091461654812 0.97129013486
0.22362707021 0.092365880256 0.97028834768 0.22757649935 0.093169525596 0.96929271969 0.231440181 0.093880106463 0.96830881863
0.23519706058 0.094504891773 0.9673423221 0.23882794127 0.095051478406 0.96639869149 0.24231225535 0.095527417033 0.96548396336
0.24563445472 0.095939486548 0.96460319799 0.24878049994 0.096294399986 0.96376120039 0.25173691114 0.096597980965 0.9629628018
0.25449421453 0.096854835995 0.96221194937 0.25704398501 0.097068602683 0.96151239001 0.25937956587 0.097241483508 0.96086749071
0.26149604295 0.097374376951 0.96028019361 0.26339059007 0.097466433767 0.95975293245 0.2650612754 0.097515062372 0.95928793013
0.26650695101 0.097516384888 0.95888716737 0.26772710833 0.09746444334 0.95855249087 0.26872152597 0.097351652805 0.95828565531
0.26949196801 0.097169117019 0.95808780489 0.27003939613 0.096906021461 0.95796030583 0.27036640516 0.09655066578 0.9579039492
0.27047793175 0.09609008062 0.95791877779 0.27037906791 0.095510783734 0.9580046189 0.27007700231 0.094799098697 0.95816049997
0.26958198528 0.093941241077 0.9583843678 0.2689066334 0.092924475581 0.95867317911 0.26806545285 0.091737245735 0.95902303973
0.26707616137 0.090370042429 0.95942877769 0.26595993769 0.088815006361 0.95988395454 0.26473996717 0.087067638053 0.96038116193
0.26344051604 0.085127435321 0.96091228229 0.26208744783 0.082996630691 0.9614685273 0.26070694415 0.080680586407 0.96204081631
0.25932441949 0.078189439394 0.96261999617 0.2579634866 0.075536174675 0.96319734525 0.25664538662 0.07273643391 0.96376478287
0.25538652874 0.069808813967 0.96431553468 0.25420074054 0.066772337604 0.96484373783 0.253097521 0.063648005204 0.96534479659
0.25208120357 0.060457724163 0.96581568138 0.25115079119 0.057222517228 0.96625507171 0.25030079853 0.053961758162 0.96666314656
0.24952351934 0.050694024792 0.96704091389 0.24880496481 0.047436382208 0.96739127509 0.24813032852 0.0442022265 0.96771767745
0.24748209759 0.041003478018 0.96802444502 0.2468410575 0.037850046867 0.96831651142 0.2461879513 0.03474876035 0.96859899664
0.24550263286 0.031703776727 0.96887735437 0.24476621781 0.028718077156 0.96915673173 0.24395900137 0.025792133752 0.96944250551
0.24306364079 0.022924561351 0.96973941397 0.24206443563 0.020114172646 0.97005166309 0.24094526154 0.017357788353 0.97038347478
0.23969361927 0.014651548858 0.97073801873 0.23829728164 0.011991977025 0.97111822043 0.23674571364 0.0093755617779 0.9715264103
0.23503159672 0.0067984843399 0.97196395466 0.2331471644 0.0042583804743 0.9724321395 0.23108616425 0.0017529772454 0.97293170971
0.22884673662 -0.00071929367291 0.97346219945 0.22642659043 -0.0031575048728 0.97402311539 0.22382600999 -0.0055606756154 0.97461325465
0.22104858545 -0.0079263975391 0.9752305856 0.21809847554 -0.010250257347 0.97587293599 0.21498351723 -0.012527135818 0.97653733067
0.21171323533 -0.014751204514 0.97722050119 0.20830101324 -0.016914713851 0.97791849371 0.20476384211 -0.019009321317 0.97862680051
0.20111955646 -0.021026798356 0.97934100178 0.19739029392 -0.022958663475 0.98005610637 0.19360060293 -0.024797644981 0.98076698729
0.18977541153 -0.026535768282 0.98146887173 0.18594265153 -0.028167649946 0.98215676643 0.18213075717 -0.029689373466 0.9828259909
0.17836855046 -0.03109769637 0.98347221287 0.17468356203 -0.032393159179 0.98409163008 0.17110303439 -0.033577662074 0.98468080728
0.16765232327 -0.03465503337 0.98523688886 0.16435485426 -0.035632221369 0.98575748878 0.16123057922 -0.036517081868 0.98624094574
0.15829723781 -0.037318567921 0.98668602351 0.1555695744 -0.038047794997 0.98709192724 0.15305921207 -0.038717388462 0.98745827326
0.15077484426 -0.039339559314 0.98778507045 0.14872163257 -0.039925987386 0.98807276632 0.14690290108 -0.04049003651 0.9883218578
0.14531924221 -0.041044687546 0.98853308061 0.14396916777 -0.041601463424 0.98870733636 0.14284945311 -0.042171298763 0.9888455973
0.14195362226 -0.042764086163 0.98894914028 0.14127453091 -0.043389539534 0.98901913772 0.14080481397 -0.044055740384 0.98905666981
0.14053435188 -0.04476930765 0.98906309457 0.14045329288 -0.045535920946 0.98903961115 0.14055016602 -0.046359250861 0.98898759886
0.14081231711 -0.047241670169 0.98890854782 0.141227359 -0.04818447761 0.98880386791 0.14178183185 -0.049187826613 0.98867510835
0.14246265885 -0.050250069357 0.9885238092 0.1432545255 -0.051368088105 0.988351891 0.14414315411 -0.052538186717 0.98816116604
0.14511366058 -0.053755265322 0.9879536411 0.14614954806 -0.055013039936 0.9877316817 0.14723470861 -0.056304190862 0.98749773603
0.1483527673 -0.057621241885 0.98725439929 0.14948707782 -0.058956518169 0.98700442883 0.15062145161 -0.060301273595 0.98675069532
0.15173887901 -0.061646526363 0.9864963347 0.152822446 -0.062984052603 0.98624454833 0.153857319 -0.064305787874 0.98599832202
0.15482754392 -0.065603534431 0.98576092838 0.15571840973 -0.066869958014 0.98553548165 0.15651592585 -0.068097734387 0.98532505475
0.15720765474 -0.069280836226 0.9851324373 0.15778290648 -0.070414746637 0.98496005903 0.15823147431 -0.071494019174 0.98481033999
0.15854557851 -0.072514511627 0.98468520104 0.15872053502 -0.07347391561 0.98458589036 0.15875223999 -0.07436969872 0.9845135216
0.15864079676 -0.075201302839 0.9844683142 0.15838896256 -0.075968277741 0.98444997705 0.15799948622 -0.076670139134 0.98445815153
0.15747981074 -0.077308058968 0.9844915303 0.15684189939 -0.077884208225 0.98454795145 0.156097795 -0.078400940343 0.98462519313
0.15526040913 -0.078860214336 0.98472091069 0.15434778952 -0.079265732967 0.9848318148 0.15337905171 -0.07962159758 0.98495444955
0.15237277601 -0.079931388838 0.98508553446 0.15134770183 -0.08019880139 0.98522181533 0.15032361802 -0.08042807557 0.98535990101
0.14931951566 -0.080623209552 0.98549661609 0.14835332998 -0.080788206247 0.985629015 0.14744125738 -0.080927001836 0.98575448059
0.14659669117 -0.081042359947 0.9858709581 0.14583254998 -0.081137357161 0.9859764686 0.14515885826 -0.081214505741 0.98606952591
0.14458302754 -0.081275558179 0.98614909207 0.14411168937 -0.081322866181 0.98621418182 0.1437499975 -0.081357773356 0.98626408782
0.14350094391 -0.081381089676 0.98629843219 0.14350094391 -0.081381089676 0.98629843219
NormalArray 3 290 double
0.99083331171 0.024367558428 -0.13287426578 0.99083331171 0.024367558428 -0.13287426578 0.99017739292 0.049658784616 -0.13070093976
0.99053911798 0.037567152177 -0.13198850263 0.9900833176 0.050406321594 -0.13112675912 0.98969383308 0.058288962795 -0.13079951676
0.98876542782 0.074117805063 -0.1298055458 0.98764613606 0.089044339466 -0.12894268311 0.98511693532 0.11590569486 -0.12692711939
0.98148416664 0.14549888911 -0.12457489272 0.9752963275 0.1847662629 -0.12107229933 0.96482248389 0.23594504361 -0.11596340364
0.94627279254 0.30472874009 -0.10820442253 0.91768657217 0.38502358572 -0.098021394135 0.8641499421 0.49657588498 -0.081592083084
0.77269061261 0.6321590329 -0.057655652929 0.61869704445 0.78528668082 -0.023211982115 0.39271904008 0.91944020341 0.020036664225
0.1201398562 0.99064309069 0.06475092132 -0.14605926639 0.98399956554 0.10203698213 -0.34603238725 0.92975864385 0.1257396165
-0.49161422419 0.85946037772 0.14015460644 -0.58883897891 0.79460337108 0.14789908583 -0.65770572614 0.73776792454 0.15205810506
-0.7068639316 0.69038440252 0.15398947678 -0.74232888839 0.65197471207 0.15452118395 -0.76839850347 0.62112604672 0.15416281638
-0.78734820596 0.59717112587 0.15319741841 -0.8006808857 0.57953828029 0.15180744695 -0.81208022286 0.56388778875 0.15018746064
-0.81884525115 0.55452622081 0.14830079267 -0.82291105123 0.54902432678 0.14625214656 -0.82493490362 0.54655537344 0.14408202021
-0.82366313361 0.54907064727 0.1417761145 -0.82191911478 0.55227990584 0.13941260477 -0.81632955518 0.5611267729 0.13690435372
-0.80989117813 0.57099173845 0.13433061533 -0.80078389664 0.58431067836 0.13162895594 -0.79014495014 0.59922945526 0.12882165081
-0.77880795881 0.61449145217 0.12593021283 -0.76471105526 0.63255134631 0.12286495125 -0.7494359267 0.65117013832 0.11967975069
-0.73411484296 0.6689702016 0.11642279299 -0.71868242111 0.68607983572 0.11309304402 -0.70312749535 0.70255140772 0.10969614762
-0.68710550645 0.71875116353 0.10622046851 -0.67539760939 0.73023287043 0.10294670553 -0.66226783301 0.74262287567 0.099561950035
-0.65343821458 0.75081389393 0.096420933505 -0.64641061594 0.75725242092 0.093392112143 -0.64214965169 0.76121207767 0.09055383838
-0.63920592103 0.76400292404 0.087836908924 -0.64156484942 0.76228823196 0.085505528521 -0.64773314243 0.75727994984 0.08347966081
-0.65772014148 0.74881073537 0.081772232992 -0.66971255836 0.73826778778 0.080285507475 -0.68859393678 0.72079639482 0.079315493057
-0.71346131593 0.69625065963 0.07879066965 -0.74330844995 0.66431151213 0.078630547993 -0.7783948079 0.62280811693 0.078813530034
-0.82329654579 0.56201948049 0.079478935847 -0.87210550291 0.48270509538 0.080173453706 -0.92459028424 0.37233970791 0.080597445393
-0.97188079817 0.22152409274 0.079842285124 -0.99674408844 0.025560977015 0.076471292745 -0.97601036351 -0.20653146471 0.068909537895
-0.89616805903 -0.44005260323 0.056890389076 -0.77239238707 -0.63372493609 0.042458282598 -0.62653453379 -0.77891085486 0.027429147943
-0.49767999505 -0.86723338348 0.014862069466 -0.38359011342 -0.92349476998 0.0040043373415 -0.294716114 -0.95557387149 -0.0045812960978
-0.21631902097 -0.97624555508 -0.012275885111 -0.1577858095 -0.98730093527 -0.018452683571 -0.10401056497 -0.99427853433 -0.024331020353
-0.063684864465 -0.99753997626 -0.029295627745 -0.026657318207 -0.99906254889 -0.034108808148 0.0077402556953 -0.99921657556 -0.038811384443
0.035939798471 -0.99842206434 -0.043147564583 0.061963420055 -0.99695289593 -0.047386262456 0.086664771657 -0.9949021222 -0.051565342978
0.10985870702 -0.99238807527 -0.055650449795 0.13610142822 -0.98888166736 -0.059912012126 0.15876902821 -0.98524601713 -0.063895863782
0.1835416498 -0.98066150239 -0.067937327849 0.21079643645 -0.97487291859 -0.072025377371 0.24116481043 -0.96749111298 -0.076160885767
0.27519019613 -0.9580276388 -0.080333051976 0.31419419194 -0.94558488074 -0.084565022709 0.35954241532 -0.9288881001 -0.088860278412
0.41322886769 -0.90584374149 -0.093214907101 0.47834877043 -0.87272973698 -0.097597438604 0.55792721712 -0.82362032231 -0.10181741046
0.65239093454 -0.75052699902 -0.10533419323 0.75969600542 -0.64139589064 -0.10711344836 0.86822324981 -0.48484880902 -0.1054040838
0.95605346667 -0.27628656267 -0.098119845891 0.9957208819 -0.037094223226 -0.084640084807 0.97890558954 0.19292276387 -0.067265547922
0.92232149234 0.38321742473 -0.04967363641 0.85057925934 0.52470590185 -0.034621382823 0.78002080205 0.62533325646 -0.022931784352
0.71630752678 0.69764034022 -0.014194462873 0.6617959509 0.74964071326 -0.0080573193694 0.61677588643 0.78712783364 -0.0041568516937
0.5788693568 0.8154180231 -0.0019275241542 0.54750965025 0.83679854159 -0.0011762968524 0.51983904387 0.85426300507 -0.0014445224214
0.49813353199 0.86709515687 -0.0029955362411 0.47883851865 0.87788689083 -0.0053178915161 0.4626064457 0.88652337397 -0.0084607214073
0.4491847137 0.89335357293 -0.012348550699 0.43795105461 0.89884085979 -0.016851781756 0.42901652793 0.9030304293 -0.021928577759
0.4217145447 0.9063136049 -0.027431594209 0.41753933378 0.90804156566 -0.033487606346 0.4144522877 0.9092015883 -0.039771510621
0.41464789806 0.90879307754 -0.046500138178 0.41661929574 0.90750987159 -0.053424670124 0.42101771095 0.90502739896 -0.06057635021
0.42870507201 0.90087999698 -0.068023468499 0.43932092886 0.8951360489 -0.075687353171 0.45271462635 0.8877349869 -0.083522811917
0.46897664339 0.87845584498 -0.091521780831 0.48864288872 0.86676437126 -0.099737916634 0.51113489576 0.85267703413 -0.10808789846
0.53600611692 0.83613610738 -0.11650687777 0.56381276622 0.81638022497 -0.12505396008 0.59298684632 0.79406315234 -0.13353018458
0.62346526876 0.76886280585 -0.14191914751 0.65479802903 0.74073737572 -0.15015885381 0.68646142792 0.70975310933 -0.15818100955
0.71720053392 0.67684437104 -0.16584659037 0.74686986546 0.64203405667 -0.17314061957 0.77480569282 0.60603162945 -0.18000500685
0.80092096925 0.56900328661 -0.18644264759 0.82488053365 0.53154292474 -0.19244278206 0.8461797059 0.49474924475 -0.19799770237
0.86520289139 0.45842025369 -0.2031620726 0.8818745867 0.42313948644 -0.20796679627 0.89627564081 0.38929814989 -0.21245452734
0.90860200903 0.35706635575 -0.21667027204 0.91899416078 0.32674199761 -0.22065674577 0.92779084441 0.29804001016 -0.22444665598
0.93509256636 0.2712631938 -0.22807492635 0.94100523237 0.24674282077 -0.2315753291 0.94586232336 0.22392574604 -0.2349504746
0.94975530015 0.2030166265 -0.2382207363 0.95283648836 0.18393508604 -0.24139285525 0.95521056452 0.16674612805 -0.24447598291
0.957059205 0.15101638869 -0.2474504566 0.95840875605 0.13706015955 -0.25033411472 0.95937935607 0.12460746423 -0.25310912866
0.96009732641 0.11317441919 -0.25574337658 0.96054776858 0.10319362197 -0.25826161283 0.96088052185 0.093786683321 -0.26060061544
0.96111960107 0.084913040874 -0.26275252221 0.96135263232 0.075868016202 -0.26466046259 0.96163843617 0.065986045722 -0.26626558141
0.96204485862 0.054141398768 -0.26746663146 0.96263200396 0.038384603134 -0.26807880781 0.96333726753 0.016056993578 -0.26781240067
0.96378522019 -0.017057069754 -0.26613362381 0.96259008498 -0.070160000181 -0.26172103979 0.9548765501 -0.15757122772 -0.2517579835
0.92328194388 -0.30885965864 -0.22837723917 0.80538861716 -0.56797297932 -0.16957555873 0.47274722726 -0.88006223391 -0.044727212794
0.0072488217214 -0.99518153897 0.097781179549 -0.29688610908 -0.93830176593 0.17733706408 -0.4472644075 -0.86890397792 0.21203873922
-0.51919758039 -0.82400815384 0.22681365683 -0.55432958225 -0.79903560383 0.23293951586 -0.56880600931 -0.78836173519 0.23440456108
-0.57103727823 -0.78713426661 0.23310099357 -0.56395853285 -0.79322755778 0.22965368449 -0.5515183984 -0.80328480812 0.22485767336
-0.53426338366 -0.81650862108 0.21880655518 -0.51326320543 -0.83170987564 0.21170631714 -0.48891703926 -0.8482306225 0.20362941775
-0.46253761175 -0.86492137815 0.1948588395 -0.43393226095 -0.88167172444 0.18535847222 -0.40423338122 -0.8976815887 0.17539423826
-0.37444221882 -0.91241227681 0.16521761979 -0.34381379841 -0.92621048942 0.15468096626 -0.31465817664 -0.93816423061 0.14435410725
-0.28648744934 -0.94864472898 0.13415707043 -0.26159777915 -0.9570908015 0.12467477544 -0.23916704694 -0.964055167 0.11574436763
-0.22067258581 -0.96937723091 0.10775617879 -0.2077000193 -0.97295112187 0.10112772339 -0.19867056461 -0.97540294957 0.095493940768
-0.19679782384 -0.9761500866 0.09166037833 -0.20000418623 -0.97573312802 0.089124566647 -0.21057399709 -0.97356841776 0.08844844654
-0.22692439688 -0.96981570877 0.089234573603 -0.2501681541 -0.96384608376 0.091742146738 -0.27947502659 -0.95536704136 0.095747197362
-0.31377714179 -0.94411316649 0.10096650015 -0.35253690018 -0.92963205079 0.10724730373 -0.39505466067 -0.9115071571 0.1143963183
-0.43833617556 -0.89053730699 0.12167457436 -0.48353565886 -0.86571576136 0.12934251872 -0.52698128304 -0.83884155652 0.13651216205
-0.5690898224 -0.80969676572 0.14327568399 -0.60898301886 -0.77898243628 0.1494190306 -0.64605863116 -0.74742665452 0.15479548191
-0.67929931693 -0.71639323002 0.15916399716 -0.7105612907 -0.68450425532 0.16296188696 -0.73776039116 -0.65441113835 0.1656975173
-0.76292799164 -0.62431256013 0.16785323002 -0.78525094726 -0.59559943338 0.16924025757 -0.80559182832 -0.5675368917 0.17006964072
-0.82374625326 -0.54077716677 0.17030022353 -0.84042609094 -0.51453370939 0.17011480701 -0.85527855765 -0.48968112513 0.16944316015
-0.86914148992 -0.464971957 0.16850563702 -0.88140225688 -0.44179614724 0.16717124705 -0.89274541584 -0.41901308073 0.16563109817
-0.90313672536 -0.396838572 0.16389997886 -0.91238157732 -0.3759411265 0.16195100118 -0.92085021185 -0.3556203887 0.15990317843
-0.92843999693 -0.33632303618 0.15775293165 -0.93509129582 -0.31847009903 0.15550261895 -0.94097741283 -0.30180448417 0.15321736804
-0.94598234613 -0.28697223959 0.15087854225 -0.95003848036 -0.27455794511 0.14847498311 -0.95334233171 -0.26420065847 0.14606988271
-0.95564317807 -0.25715323041 0.14359085034 -0.95686190572 -0.25402846446 0.14101359018 -0.95661822596 -0.25646826406 0.13822300567
-0.95485063143 -0.26453330059 0.13521244223 -0.95073548152 -0.28060749106 0.13176296954 -0.94270738769 -0.30829937113 0.12749227019
-0.92875825888 -0.35003500973 0.1219983136 -0.90451656919 -0.41080013111 0.11442477153 -0.86212402603 -0.49603724753 0.10338864929
-0.78898217384 -0.60823265383 0.086949227573 -0.66310611677 -0.74595375285 0.061994165131 -0.47147317958 -0.88144028161 0.027858048961
-0.22926012357 -0.97329748486 -0.011480492721 0.013652357957 -0.99875777027 -0.047922118555 0.20816669613 -0.97519080867 -0.075296170674
0.34901719877 -0.93236594483 -0.094237677609 0.44558514229 -0.88882772594 -0.10695398344 0.51130336977 -0.85157763225 -0.11569096901
0.55749552792 -0.82115384818 -0.12208642008 0.58796332321 -0.79889640735 -0.12674249835 0.61060083368 -0.78109598409 -0.13059741787
0.62488678515 -0.76919275432 -0.13363761612 0.63467016565 -0.76067256952 -0.13627554002 0.63981515189 -0.75594643915 -0.13849748213
0.64183253542 -0.75387378067 -0.14044685579 0.64004738967 -0.75509159853 -0.1420423064 0.63632177892 -0.75796864012 -0.14345080783
0.62826147365 -0.7644824624 -0.14440943671 0.61734408744 -0.77320760964 -0.14503885721 0.6023320334 -0.78493210426 -0.145181656
0.58213836746 -0.80011386079 -0.14468148084 0.55582353507 -0.81884177425 -0.14338182102 0.52135073333 -0.84161621027 -0.14098073442
0.47646900331 -0.86843447301 -0.13710891648 0.41746097713 -0.89917982362 -0.13115630892 0.33990444096 -0.93247295632 -0.12230763158
0.23918267039 -0.96477375741 -0.10955933184 0.11149128042 -0.98951490602 -0.091814732737 -0.047188676704 -0.9965909945 -0.067672878449
-0.22139476411 -0.97441380361 -0.038756905844 -0.40128494637 -0.91593283789 -0.0061178668459 -0.56354183954 -0.82567380923 0.02614107592
-0.69152485036 -0.72032751218 0.054052349999 -0.78340955453 -0.61684107439 0.076003676353 -0.84863823728 -0.5207205455 0.093076612103
-0.89299606473 -0.43746069683 0.105764678 -0.92168970695 -0.37060715731 0.11462294295 -0.94139820424 -0.3147891637 0.12114950878
-0.9547751663 -0.26939253879 0.125825442 -0.9642522118 -0.23129992391 0.12929817184 -0.97057470908 -0.20165301114 0.13160849968
-0.97529293817 -0.17611747483 0.13336536213 -0.97840496567 -0.1570413916 0.13439391534 -0.98080342528 -0.14055601615 0.13516155992
-0.98257786918 -0.12702658563 0.13566494587 -0.98380673306 -0.11686276594 0.13589483406 -0.98479848277 -0.10795395446 0.13608046167
-0.98558744487 -0.10028612628 0.13623538964 -0.98591739753 -0.097249763418 0.13604914096 -0.98637536502 -0.092342531563 0.13614880149
-0.98640881115 -0.092356934506 0.13589648239 -0.98640881115 -0.092356934506 0.13589648239
BinormalArray 3 290 double
-0.012781403105 0.99609463722 0.08736194505 -0.012781403105 0.99609463722 0.08736194505 -0.037935180878 0.99515475477 0.09070797155
-0.025888410573 0.99568523648 0.089110605771 -0.038636627633 0.99511902764 0.09080380957 -0.046445935146 0.99469029161 0.091836805762
-0.062155145069 0.99363899598 0.093905716628 -0.076961494025 0.99241668689 0.095843873121 -0.10364359675 0.98964472376 0.099304207251
-0.13304779699 0.98573628651 0.10306433514 -0.17209287169 0.9791462877 0.10796569268 -0.22302266284 0.96810224532 0.11418815378
-0.29153986517 0.94871779029 0.12222545319 -0.37160992228 0.91908802479 0.13108496619 -0.48302962661 0.86396066076 0.14231780095
-0.61876880863 0.77035705818 0.15386735969 -0.77267199809 0.61357099808 0.16281466053 -0.90856902615 0.38451823529 0.16324230899
-0.98247162732 0.10927763238 0.15102284784 -0.97895577879 -0.15862413599 0.12838990088 -0.92736274345 -0.35927355826 0.10450288222
-0.85916132645 -0.50495345381 0.082848202237 -0.79577956582 -0.6019850678 0.065945892679 -0.74001597625 -0.67053530082 0.05252394931
-0.69339491614 -0.71932886909 0.04206504931 -0.65551435931 -0.75441699168 0.033998932276 -0.62502350523 -0.78011190848 0.027767393965
-0.60128927826 -0.7986980883 0.023077426163 -0.58376486233 -0.81168347386 0.019711006422 -0.56817946789 -0.82273332092 0.016792108682
-0.55878982146 -0.82917231489 0.015073408856 -0.55320527476 -0.83292611951 0.014071368346 -0.55061360019 -0.83464920971 0.013614698756
-0.55294721178 -0.83309833672 0.014019355871 -0.55596778168 -0.83107673786 0.014535526147 -0.56456596454 -0.82523313463 0.015985781025
-0.57417477672 -0.81854381194 0.017588453657 -0.587205062 -0.80919746961 0.019740069344 -0.60182289102 -0.79832282338 0.022133176664
-0.61678491199 -0.78674840445 0.024562582204 -0.63452126603 -0.77241881587 0.027421448805 -0.65281580376 -0.7569083734 0.030351946189
-0.6703046636 -0.74134587917 0.033135258953 -0.68711501643 -0.725666562 0.035790990413 -0.70329909457 -0.70986014858 0.038326923109
-0.7192200935 -0.69358334272 0.04079955645 -0.73047355113 -0.68161560497 0.042527146192 -0.74263404419 -0.66822612519 0.044368029366
-0.75064042322 -0.65913821686 0.045560576276 -0.75691695527 -0.651856278 0.04647704434 -0.76074288964 -0.64734772684 0.047023147672
-0.76341699059 -0.6441647125 0.047395375864 -0.76162717131 -0.64629763211 0.047153182908 -0.75657350509 -0.65225387805 0.046490966444
-0.7480872729 -0.66204435314 0.045417029874 -0.73754425223 -0.67385531772 0.044130338593 -0.72011678581 -0.69257548757 0.042083355641
-0.69565380499 -0.71729998224 0.039325806727 -0.66383215326 -0.7470200016 0.035888570744 -0.62248578965 -0.78199238355 0.031612556846
-0.56192887587 -0.82678837905 0.025630348043 -0.48290311969 -0.87548479872 0.018191872032 -0.3729152616 -0.92782779653 0.0083539004114
-0.22257200896 -0.97490649983 -0.0043608952159 -0.027154659212 -0.9994336758 -0.019873403127 0.20438570684 -0.97819339487 -0.036934605294
0.43746407906 -0.89769633709 -0.052597204368 0.63088289416 -0.77322422228 -0.064117672611 0.77598788793 -0.62669673539 -0.071372260957
0.86435256516 -0.49730697374 -0.074702188537 0.92072061977 -0.38276698979 -0.075914240127 0.95293051107 -0.2935370103 -0.075891136909
0.97375338108 -0.21482108821 -0.075208064053 0.9849557656 -0.15602251945 -0.07429073449 0.99209374867 -0.10199253028 -0.073126722959
0.99550785608 -0.06143956488 -0.072036715336 0.99719328382 -0.024188383488 -0.07085532303 0.99752091423 0.010430252831 -0.069593358167
0.99689959647 0.038842190244 -0.068428640243 0.99561237944 0.06507605152 -0.067239106316 0.99375364161 0.089985594897 -0.066002215837
0.99143972572 0.11338418127 -0.06474023243 0.98815658782 0.13983052248 -0.063197966171 0.98474162385 0.16269332242 -0.061764205597
0.98039526666 0.18765469473 -0.060090237551 0.97486312787 0.21508880828 -0.05812646955 0.96775811552 0.24562366295 -0.055796469845
0.95859368801 0.27979850796 -0.053018263372 0.94647830592 0.31892932553 -0.049627630828 0.93014437051 0.36437386308 -0.045421777872
0.90750965915 0.41811392969 -0.040086909822 0.87487092757 0.48322386154 -0.033099240519 0.82632337847 0.56269478961 -0.023753903944
0.75388757512 0.65690535771 -0.011352316452 0.64550741267 0.76373791364 0.0049577671856 0.48974795098 0.87149703222 0.025295599167
0.28188920136 0.95822098759 0.048487288134 0.043147030958 0.99655399302 0.070841179522 -0.18674289152 0.97841257478 0.088520765831
-0.37715122191 0.9207127899 0.10022432002 -0.51885218781 0.84814706854 0.10695306135 -0.61968731325 0.77703055929 0.11050404394
-0.69215466087 0.71295986123 0.11229497633 -0.74424874378 0.6582517749 0.11313005006 -0.78175861948 0.6131679992 0.11348332748
-0.81001204529 0.57530021308 0.11362284682 -0.83130146994 0.54407276487 0.11367802161 -0.8486369799 0.51660776742 0.11371759315
-0.86129920256 0.49519688145 0.11377052464 -0.87190017141 0.47626280751 0.11385881293 -0.8803308285 0.46046284462 0.11398070505
-0.88694980386 0.44754244453 0.11413065221 -0.89223103668 0.43687349077 0.11430367557 -0.89622866803 0.42856511292 0.11448195748
-0.89934301211 0.4219415849 0.11466231075 -0.90093328999 0.41850365372 0.11477760591 -0.90199220528 0.41619077927 0.11487078333
-0.90152815876 0.41720830431 0.11482251426 -0.90023646365 0.42003062878 0.11466725949 -0.89779789329 0.42530738094 0.11433535985
-0.89375432778 0.43390115125 0.1137233156 -0.88817620054 0.44544279014 0.11279963438 -0.88100527806 0.45977505098 0.11151951632
-0.87202468738 0.47698418808 0.1098136099 -0.86070959186 0.49760555224 0.10755330242 -0.84707650201 0.52105215575 0.104718913
-0.8310681388 0.54687029 0.10128491784 -0.81193708664 0.57561543799 0.09708261891 -0.79032249088 0.60570634454 0.09225066177
-0.7659070693 0.63707588183 0.086721865634 -0.73864799254 0.66926825339 0.080493155751 -0.70860825217 0.70175439827 0.07358742729
-0.67670043126 0.73327429546 0.066221854072 -0.64294586038 0.76368139629 0.058406725442 -0.60803787094 0.79231261037 0.050305814291
-0.57213893427 0.81908277055 0.041957774993 -0.53583015104 0.84366107778 0.033496791953 -0.50018648805 0.8655518377 0.025169295287
-0.46501121574 0.88514299881 0.016924564918 -0.43087543196 0.90236760353 0.0088921447375 -0.39816189697 0.91731442977 0.0011578996502
-0.36703681922 0.9301854712 -0.0062419959242 -0.33779062601 0.94112814867 -0.013240118983 -0.31014389726 0.95048125835 -0.019903279065
-0.28439079368 0.95835149022 -0.026159083733 -0.26085222822 0.96485067706 -0.031926259077 -0.23898582727 0.97030512003 -0.037332939901
-0.21898813508 0.9748091062 -0.042324970937 -0.2007773976 0.97851281219 -0.046916020604 -0.18441317756 0.981520379 -0.051083515436
-0.16946982273 0.98400349378 -0.05492816587 -0.15624938655 0.98599174901 -0.058364373443 -0.14448536971 0.98759682688 -0.061453116151
-0.13370429492 0.98893233629 -0.064311707787 -0.12432315603 0.98998912364 -0.066822810169 -0.11548658063 0.99089499348 -0.069209548394
-0.10715319503 0.99166976168 -0.071479203692 -0.098638258873 0.99238184712 -0.073815739485 -0.089295906318 0.99307096204 -0.076395716239
-0.078035309485 0.99377408884 -0.07952075717 -0.062968420784 0.99449832405 -0.083714165187 -0.041519023089 0.99510450987 -0.089683806531
-0.0095965835913 0.99508774038 -0.098530678134 0.04174354748 0.99276294082 -0.11260204077 0.12648919141 0.98269729006 -0.13530159114
0.27372345769 0.94613100254 -0.17294968849 0.52766267623 0.81732240748 -0.23142208697 0.83869664723 0.46493917171 -0.28358332204
0.96269888492 -0.019503868765 -0.26987118424 0.91583502765 -0.33236649388 -0.22534133193 0.85265055128 -0.48581787538 -0.19227071894
0.81102368999 -0.55873572074 -0.17336368894 0.7876597849 -0.59405988389 -0.16335518847 0.77756069651 -0.60833383288 -0.1591518489
0.77626461397 -0.61012531644 -0.15862013534 0.78180309847 -0.60241342633 -0.16087877116 0.7910374239 -0.58919669335 -0.16464218943
0.80321960347 -0.57102275915 -0.16962098085 0.81723378029 -0.54897198659 -0.17538160193 0.83246142132 -0.5234457508 -0.18169350009
0.84782651714 -0.49577960949 -0.18812967773 0.8632251343 -0.46577811953 -0.19466152901 0.87791145284 -0.43460001897 -0.20098334377
0.89138697865 -0.40327480286 -0.20687843696 0.90397680033 -0.37104660654 -0.21248614129 0.91483980933 -0.34028930022 -0.21741967579
0.92432678647 -0.31051254687 -0.22181512586 0.93192804552 -0.28408234935 -0.22540482862 0.93816237076 -0.26016487779 -0.22839790378
0.94289003768 -0.24028712002 -0.23069563669 0.94602155973 -0.22608826617 -0.23222253214 0.94813572173 -0.21595196026 -0.23324537302
0.94869554015 -0.2131894069 -0.23351027576 0.94819186762 -0.21566695816 -0.23328082933 0.94607086647 -0.22573670415 -0.23236362886
0.94246155113 -0.24176923205 -0.23089794948 0.93675257848 -0.26490752888 -0.22873261212 0.92864294278 -0.29429336065 -0.22586213208
0.91785836152 -0.32882334672 -0.22228638023 0.90394830771 -0.36793976437 -0.21793986964 0.88649714947 -0.41091776518 -0.21276605518
0.86626114196 -0.4546742097 -0.20703380631 0.84226342208 -0.50039225915 -0.20049916409 0.81623660443 -0.54429490343 -0.19365139735
0.78797012798 -0.58680910712 -0.18643537546 0.75814384022 -0.62703128324 -0.17902426474 0.72746644582 -0.66434202274 -0.17158743257
0.69726724371 -0.69769636848 -0.16443286853 0.66620841432 -0.72900202648 -0.1572335654 0.63687637929 -0.75611847014 -0.15057668021
0.60751823219 -0.78113443112 -0.14405067885 0.57949461154 -0.80321618956 -0.13794835274 0.55209047579 -0.82325266318 -0.13210283538
0.52594640052 -0.84103653777 -0.12664093302 0.50029458677 -0.8573033036 -0.12139345985 0.47599407327 -0.8716943509 -0.11652725351
0.45182296811 -0.8850756764 -0.11179021661 0.42914698347 -0.89682164562 -0.10744208916 0.40684693565 -0.90764151237 -0.10325916894
0.38513549366 -0.9175047688 -0.099275630184 0.36467134206 -0.9262153383 -0.095603134766 0.34476553573 -0.9341588089 -0.092108876504
0.32585860786 -0.94123310004 -0.088861797572 0.3083665378 -0.94737926896 -0.085922052491 0.29203640211 -0.9527783551 -0.083235484623
0.27750693561 -0.95731184176 -0.080894612454 0.26535705703 -0.96091013085 -0.078976912496 0.25523146141 -0.96377617464 -0.077410505172
0.24837089344 -0.96564980225 -0.076369880917 0.24538419039 -0.96644808683 -0.075925585732 0.24790007537 -0.96577688591 -0.076292589881
0.25598284707 -0.96357383316 -0.07744837025 0.27199985328 -0.9589918412 -0.079691457025 0.29953684056 -0.95042730111 -0.083460328566
0.34101380383 -0.93583696528 -0.088987414904 0.40140086546 -0.91077580695 -0.096771765967 0.4861442147 -0.86727655948 -0.1072155394
0.59779285584 -0.79260600032 -0.12008093005 0.73507263915 -0.66458283642 -0.13415613559 0.87056708259 -0.47023624031 -0.14488213488
0.96316659602 -0.22513932368 -0.14704554822 0.98999317454 0.020233542157 -0.13965714493 0.96794229035 0.21645717025 -0.12741277797
0.92647659782 0.35841591694 -0.1148004537 0.88402981513 0.45570114079 -0.10405650503 0.84762419516 0.52191579202 -0.095588335163
0.81786498103 0.56849035888 -0.088969571594 0.79610129474 0.59927109879 -0.084242973966 0.77871006994 0.62219675552 -0.080509778196
0.76711050785 0.63675181833 -0.07802942134 0.75883732804 0.64680043863 -0.076256817088 0.75429338589 0.65220765039 -0.075277279268
0.75235792872 0.65448767392 -0.074856073786 0.75365307174 0.65296309758 -0.075141470993 0.75657634908 0.64949772671 -0.075795323162
0.76306148725 0.64169016703 -0.077271574371 0.77170692475 0.63101743361 -0.07928064569 0.78327775848 0.6162356346 -0.082034113192
0.79821259873 0.59624993588 -0.085689329493 0.81658555873 0.5701110045 -0.090340842457 0.83886600707 0.53576567004 -0.0962235366
0.86502198942 0.49093964173 -0.10351437581 0.89489155041 0.4318766123 -0.11247979709 0.92705327331 0.35409432493 -0.12324543602
0.95794308272 0.25288978352 -0.13561639897 0.98100840269 0.12434562511 -0.14886463436 0.98619012117 -0.03571466924 -0.1617204604
0.96219408439 -0.21180770377 -0.17123095688 0.90215482505 -0.39407595366 -0.17555857822 0.81083707207 -0.55891363423 -0.17366286889
0.70497765252 -0.68931251201 -0.1668974842 0.60139013 -0.78322483302 -0.1577617586 0.50541727377 -0.8501196422 -0.14781736478
0.42243607059 -0.89577296528 -0.13834218783 0.35590004773 -0.92540114465 -0.1302608057 0.30040687002 -0.94581614684 -0.1232376924
0.25531729072 -0.95970757688 -0.11736459404 0.21751217252 -0.9695712957 -0.11233858354 0.18811577273 -0.9761492651 -0.10837466627
0.16281083195 -0.98106194154 -0.10492902297 0.14392710876 -0.98428210746 -0.10234119555 0.12761550289 -0.98675976139 -0.10009723635
0.11423721431 -0.98858301747 -0.098252106495 0.10419778959 -0.98982817863 -0.096865873433 0.095398397255 -0.99083305747 -0.095650394806
0.087824465042 -0.99163348901 -0.094603841474 0.084845189777 -0.99193199109 -0.094192456281 0.079997359325 -0.99239798951 -0.093523542073
0.080032095885 -0.99239473744 -0.093528331196 0.080032095885 -0.99239473744 -0.093528331196
