# vtk DataFile Version 4.1
vtk output
ASCII
DATASET POLYDATA
POINTS 285 float
-9.02628 -35.72489 275.086 -8.2883 -35.36523 272.004 -7.5513 -35.00583 268.922
-6.81823 -34.64749 265.841 -6.09195 -34.29099 262.76 -5.37522 -33.93712 259.679
-4.67057 -33.5867 256.6 -3.98023 -33.2405 253.522 -3.3061 -32.8994 250.445
-2.64966 -32.5642 247.37 -2.01198 -32.2358 244.295 -1.39364 -31.915 241.222
-0.794783 -31.6028 238.149 -0.215093 -31.2999 235.076 0.346162 -31.0073 232.004
0.890092 -30.7259 228.932 1.41813 -30.4565 225.86 1.93198 -30.2 222.786
2.4335 -29.957299999999996 219.712 2.92471 -29.7289 216.636 3.40764 -29.5158 213.558
3.88429 -29.318399999999997 210.478 4.35656 -29.1372 207.396 4.8262 -28.9727 204.311
5.29474 -28.8252 201.223 5.76345 -28.694699999999997 198.132 6.23333 -28.5811 195.037
6.70506 -28.484299999999998 191.937 7.17901 -28.403999999999996 188.834 7.65526 -28.3395 185.725
8.13355 -28.2902 182.61 8.61335 -28.2551 179.49 9.09389 -28.2334 176.362
9.57413 -28.2239 173.227 10.0529 -28.2254 170.084 10.5287 -28.2366 166.933
11.0002 -28.2562 163.771 11.4656 -28.282799999999998 160.6 11.9235 -28.3151 157.417
12.3721 -28.3519 154.223 12.8097 -28.391799999999996 151.018 13.2348 -28.433699999999998 147.799
13.6458 -28.4765 144.569 14.0413 -28.5195 141.325 14.42 -28.5617 138.068
14.7805 -28.6026 134.799 15.1218 -28.641799999999996 131.517 15.4429 -28.6788 128.224
15.7429 -28.7136 124.919 16.0212 -28.746299999999998 121.604 16.277 -28.776899999999998 118.281
16.51 -28.805699999999998 114.95 16.7198 -28.8333 111.615 16.906 -28.8601 108.276
17.0686 -28.8868 104.937 17.2075 -28.914 101.6 17.3228 -28.9425 98.2693
17.4145 -28.973 94.9471 17.4829 -29.0064 91.6375 17.5283 -29.0434 88.3443
17.5511 -29.084699999999998 85.0715 17.5518 -29.131 81.8233 17.531 -29.182899999999997 78.6038
17.4893 -29.241 75.4172 17.4275 -29.305799999999998 72.2678 17.3464 -29.3776 69.1598
17.2468 -29.456699999999998 66.097 17.1298 -29.5433 63.0833 16.9964 -29.637299999999996 60.1223
16.8476 -29.7389 57.2174 16.6846 -29.8477 54.3715 16.5086 -29.9637 51.5874
16.3208 -30.086399999999998 48.8674 16.1224 -30.2154 46.2136 15.9146 -30.350299999999997 43.6275
15.6988 -30.490499999999997 41.1102 15.476 -30.6355 38.6628 15.2475 -30.7845 36.2854
15.0145 -30.9371 33.9782 14.778 -31.0925 31.7409 14.5392 -31.250099999999996 29.5727
14.2991 -31.4092 27.4726 14.0586 -31.5692 25.4392 13.8186 -31.7294 23.471
13.5799 -31.8894 21.5658 13.3432 -32.0484 19.7217 13.1092 -32.206 17.936
12.8783 -32.3617 16.2061 12.6512 -32.5151 14.5291 12.4281 -32.6656 12.902
12.2093 -32.8129 11.3214 11.9952 -32.9568 9.78412 11.7858 -33.0967 8.28646
11.5812 -33.2326 6.82477 11.3815 -33.3642 5.39529 11.1866 -33.4912 3.99415
10.9965 -33.6135 2.61739 10.811 -33.730999999999995 1.261 10.63 -33.843599999999995 -0.0790652
10.4534 -33.95133 -1.40687 10.2809 -34.05405 -2.7265 10.1125 -34.15183 -4.04199
9.94787 -34.24473 -5.35734 9.78696 -34.33282 -6.67647 9.62961 -34.41623 -8.00322
9.47571 -34.49509 -9.34127 9.32518 -34.569559999999996 -10.6941 9.17799 -34.63982 -12.0652
9.03412 -34.70608 -13.4575 8.89359 -34.76855 -14.874 8.75646 -34.82746 -16.3171
8.62284 -34.88302 -17.7892 8.49285 -34.935469999999995 -19.292 8.36664 -34.98502 -20.8271
8.24439 -35.0319 -22.3955 8.12631 -35.076299999999996 -23.998 8.0126 -35.1184 -25.6346
7.9035 -35.15837 -27.3052 7.79922 -35.19636 -29.0091 7.7 -35.23249 -30.7451
7.60605 -35.26685 -32.5118 7.51758 -35.29953 -34.3071 7.43478 -35.33059 -36.1289
7.35782 -35.36005 -37.9745 7.28686 -35.38795 -39.8412 7.22203 -35.41429 -41.726
7.16342 -35.43909 -43.6257 7.11113 -35.46234 -45.5373 7.06522 -35.48404 -47.4577
7.02573 -35.5042 -49.3838 6.99269 -35.52284 -51.3129 6.96611 -35.53997 -53.2424
6.94598 -35.55562 -55.1703 6.93231 -35.56984 -57.0946 6.92506 -35.58267 -59.0141
6.92423 -35.59417 -60.9277 6.9298 -35.604389999999995 -62.8352 6.94173 -35.6134 -64.7366
6.96001 -35.621249999999996 -66.6324 6.98461 -35.62799 -68.5239 7.0155 -35.63363 -70.4126
7.05265 -35.63821 -72.3003 7.09602 -35.64169 -74.1894 7.14555 -35.64405 -76.0825
7.20119 -35.64521 -77.9825 7.26285 -35.64508 -79.8922 7.33043 -35.643519999999995 -81.8146
7.40381 -35.64038 -83.7526 7.48283 -35.63548 -85.7091 7.56732 -35.6286 -87.6865
7.65706 -35.61953 -89.6872 7.75181 -35.60803 -91.713 7.8513 -35.593849999999996 -93.7653
7.95521 -35.57675 -95.845 8.06321 -35.55648 -97.9525 8.17491 -35.53281 -100.088
8.28993 -35.50552 -102.25 8.40782 -35.47443 -104.437 8.52815 -35.43934 -106.648
8.65045 -35.40012 -108.881 8.77424 -35.35665 -111.131 8.89903 -35.30884 -113.397
9.02435 -35.25663 -115.674 9.14971 -35.19999 -117.958 9.27465 -35.13892 -120.245
9.39874 -35.07347 -122.531 9.52155 -35.003699999999995 -124.811 9.64272 -34.92968 -127.081
9.7619 -34.85156 -129.336 9.87879 -34.769459999999995 -131.572 9.99316 -34.68356 -133.786
10.1048 -34.59404 -135.973 10.2136 -34.50111 -138.13 10.3195 -34.40499 -140.255
10.4224 -34.30592 -142.344 10.5224 -34.20413 -144.396 10.6195 -34.09988 -146.409
10.7138 -33.9934 -148.382 10.8056 -33.8849 -150.314 10.8949 -33.774699999999996 -152.205
10.9819 -33.663 -154.055 11.067 -33.5499 -155.864 11.1502 -33.4357 -157.634
11.2319 -33.3204 -159.367 11.3121 -33.2042 -161.062 11.3912 -33.0871 -162.723
11.4693 -32.9693 -164.352 11.5466 -32.8506 -165.95 11.6232 -32.7312 -167.521
11.6993 -32.6108 -169.067 11.775 -32.4895 -170.589 11.8505 -32.367 -172.092
11.9258 -32.2433 -173.578 12.0012 -32.1183 -175.048 12.0767 -31.9916 -176.507
12.1525 -31.8633 -177.955 12.2288 -31.732999999999997 -179.396 12.3059 -31.600699999999996 -180.833
12.384 -31.466099999999997 -182.266 12.4635 -31.329299999999996 -183.698 12.5448 -31.189899999999998 -185.132
12.6283 -31.048099999999998 -186.569 12.7146 -30.9037 -188.011 12.8041 -30.7567 -189.459
12.8977 -30.6072 -190.916 12.996 -30.4553 -192.383 13.0997 -30.301099999999998 -193.86
13.2098 -30.1447 -195.35 13.327 -29.9865 -196.853 13.4524 -29.8266 -198.37
13.5867 -29.6653 -199.902 13.731 -29.503099999999996 -201.45 13.8862 -29.3403 -203.012
14.0531 -29.1773 -204.591 14.2327 -29.014599999999998 -206.185 14.4258 -28.8525 -207.794
14.6331 -28.6916 -209.418 14.8553 -28.5323 -211.056 15.0929 -28.375099999999996 -212.708
15.3465 -28.220299999999998 -214.371 15.6164 -28.068399999999997 -216.046 15.9029 -27.9198 -217.73
16.206 -27.7747 -219.423 16.5258 -27.633499999999998 -221.123 16.8621 -27.496299999999998 -222.828
17.2146 -27.3634 -224.538 17.583 -27.2347 -226.25 17.9666 -27.1105 -227.964
18.3648 -26.990499999999997 -229.677 18.7769 -26.8748 -231.389 19.202 -26.763199999999998 -233.099
19.6392 -26.6555 -234.804 20.0875 -26.551499999999997 -236.504 20.5456 -26.450899999999997 -238.197
21.0126 -26.3535 -239.882 21.4872 -26.258799999999997 -241.558 21.9682 -26.1667 -243.224
22.4545 -26.0768 -244.877 22.9447 -25.988799999999998 -246.518 23.4377 -25.9025 -248.143
23.9324 -25.8174 -249.752 24.4277 -25.7335 -251.343 24.9225 -25.650399999999998 -252.914
25.4159 -25.568099999999998 -254.464 25.907 -25.4863 -255.991 26.395 -25.404999999999998 -257.494
26.8793 -25.323999999999998 -258.97 27.3593 -25.243299999999998 -260.419 27.8346 -25.1629 -261.839
28.3049 -25.0827 -263.23 28.77 -25.0028 -264.589 29.2299 -24.923 -265.918
29.6847 -24.8435 -267.214 30.1344 -24.7642 -268.478 30.5795 -24.6851 -269.711
31.0204 -24.606199999999998 -270.912 31.4575 -24.5275 -272.082 31.8915 -24.4489 -273.221
32.323 -24.3704 -274.332 32.7528 -24.2919 -275.414 33.1818 -24.2133 -276.469
33.6107 -24.1346 -277.499 34.0406 -24.0555 -278.504 34.4724 -23.976 -279.488
34.907 -23.895899999999997 -280.45 35.3456 -23.814999999999998 -281.393 35.789 -23.7331 -282.319
36.2383 -23.6501 -283.229 36.6944 -23.5657 -284.124 37.1583 -23.479799999999997 -285.008
37.6306 -23.3921 -285.88 38.1122 -23.302599999999998 -286.742 38.6037 -23.211 -287.597
39.1055 -23.1173 -288.444 39.618 -23.0212 -289.287 40.1412 -22.9229 -290.124
40.6752 -22.8222 -290.959 41.2196 -22.719099999999997 -291.791 41.774 -22.613899999999997 -292.621
42.3377 -22.5065 -293.451 42.9097 -22.397299999999998 -294.279 43.489 -22.2864 -295.107
44.0742 -22.1742 -295.935 44.6638 -22.0609 -296.763 45.2564 -21.9469 -297.591

LINES 1 286
285 284 283 282 281 280 279 278 277 276 275 274 273 272 271 270 269 268 267 266 265 264 263 262 261 260 259 258 257 256 255 254 253 252 251 250 249 248 247 246 245 244 243 242 241 240 239 238 237 236 235 234 233 232 231 230 229 228 227 226 225 224 223 222 221 220 219 218 217 216 215 214 213 212 211 210 209 208 207 206 205 204 203 202 201 200 199 198 197 196 195 194 193 192 191 190 189 188 187 186 185 184 183 182 181 180 179 178 177 176 175 174 173 172 171 170 169 168 167 166 165 164 163 162 161 160 159 158 157 156 155 154 153 152 151 150 149 148 147 146 145 144 143 142 141 140 139 138 137 136 135 134 133 132 131 130 129 128 127 126 125 124 123 122 121 120 119 118 117 116 115 114 113 112 111 110 109 108 107 106 105 104 103 102 101 100 99 98 97 96 95 94 93 92 91 90 89 88 87 86 85 84 83 82 81 80 79 78 77 76 75 74 73 72 71 70 69 68 67 66 65 64 63 62 61 60 59 58 57 56 55 54 53 52 51 50 49 48 47 46 45 44 43 42 41 40 39 38 37 36 35 34 33 32 31 30 29 28 27 26 25 24 23 22 21 20 19 18 17 16 15 14 13 12 11 10 9 8 7 6 5 4 3 2 1 0 

CELL_DATA 1
FIELD FieldData 2
LengthArray 1 1 double
582.65668132 
TortuosityArray 1 1 double
0.012595314971 
POINT_DATA 285
FIELD FieldData 8
RadiusArray 1 285 double
86.349001824 87.766772677 88.886035949 90.989931879 90.987184588 90.938437787 90.719536027 90.555292914 90.084411123 
90.082633333 90.057674924 89.562912599 89.379643752 88.84434667 87.881634435 87.849602936 87.82530312 86.675884567 
85.207511119 84.842077869 84.127585684 83.33621385 83.195033704 82.577081397 82.139965783 81.554928397 81.445799511 
81.29189683 80.038295791 79.318878287 79.108957801 78.449289601 78.055440426 77.179759963 77.0785633 77.078256009 
75.884864328 75.221670833 75.198089617 75.078362893 74.469016709 74.247233662 74.147297081 73.145577253 72.875583271 
72.655306595 72.174161373 71.817780529 71.414372454 71.061967077 70.388245723 68.675760988 68.419937796 68.133973117 
67.547100177 67.202630331 66.852217069 66.690139089 64.768596802 64.768596745 64.768582488 63.591158205 63.020421473 
62.922616567 62.463676359 61.213262039 60.80326276 60.803229343 60.799085608 60.071911391 59.694358213 59.62841235 
59.033187296 58.811072619 58.712461593 58.619273754 58.292521382 58.245411504 58.241376648 58.163356018 58.160553845 
58.154600767 58.155034005 58.200795897 58.215466239 58.272534024 58.320521414 58.303654043 58.309152933 58.317442458 
58.349037157 58.358660799 58.369267232 58.37253926 58.386216752 58.419930058 58.429952361 58.4328234 58.405534439 
58.39519091 58.383978709 58.373745799 58.335068801 58.328673773 58.318322449 58.280075309 58.255600265 58.252983155 
58.218149748 58.189348433 58.187900818 58.043430665 58.033883163 57.95223322 57.865988577 57.772124265 57.688328627 
57.61169781 57.547079965 57.381022399 57.261320964 57.209458485 57.185404075 56.944994929 56.772632507 56.631642303 
56.631503423 56.554749514 56.471421205 56.439726111 56.187054434 56.119903398 55.995259571 55.903790147 55.672363429 
55.641698545 55.457577102 55.446168214 55.225380827 55.146346823 55.051878899 54.962887857 54.949979797 54.787251165 
54.696584826 54.44104553 54.365828031 54.058081647 53.851817878 53.846046184 53.430190291 53.413886777 53.115929442 
52.849594765 52.267933573 52.184027502 51.477760519 51.325806785 50.652619755 49.99938946 49.94824981 49.320385221 
49.180250062 48.211891113 47.806498465 47.486016615 46.717652167 46.423116553 45.886528249 45.436910943 45.316115681 
44.768230524 44.388778798 44.055378266 43.558456957 43.193868727 42.912709624 42.438309035 42.348119078 41.849388966 
41.715015406 41.223656668 41.155507313 40.869396578 40.805864783 40.396722233 40.272630021 40.090769914 39.67083053 
39.641530448 39.268039983 39.217479372 38.926424405 38.496790167 38.195606016 37.732688862 37.706487905 37.325146287 
37.211718083 37.168088336 36.829097688 36.816845466 36.779331523 36.729340022 36.377762552 35.916437068 35.442496264 
35.210612465 35.138394627 35.033650274 34.59099175 34.336557674 34.086797721 33.979583093 33.950656466 33.179602117 
33.136238361 33.045394985 32.26708348 32.237546494 31.522795716 31.497207178 30.429282312 29.651146401 29.037021888 
28.915589528 28.80415183 28.57747378 28.335045089 28.175636796 27.779590827 27.756967373 27.530184313 27.497207815 
27.197685648 27.043295875 26.778363561 26.578054908 26.206502053 26.05424774 25.855227057 25.654399219 25.565421775 
25.529265165 25.529953215 25.537261477 25.566287764 25.612780173 25.66541007 25.727758191 25.820124593 25.836046133 
25.953875972 25.994916177 26.151891943 26.228695041 26.288274172 26.304771933 26.78752795 26.849233842 26.881129362 
26.91418301 26.927056106 27.046529766 27.104570833 27.126886891 27.147539779 27.159054052 27.184182322 27.189896067 
27.199259135 27.219016167 27.2211931 27.2157964 27.179722033 27.165601714 27.052512495 26.987894044 26.863480199 
26.786505639 26.493031849 26.369630975 26.082490221 24.386251789 23.393483092 
EdgeArray 2 285 int
18284 18284 20133 21535 21535 23285 21562 24076 1692 
15445 21149 21470 25082 25082 20807 20134 25141 25136 
25141 25140 25140 25142 26318 26318 26319 26316 25952 
25952 26332 26332 26333 17868 26331 17868 17480 17480 
11055 11276 5400 17458 17459 17459 7322 14531 7322 
17468 13791 17470 17471 13939 7662 7825 10864 7662 
10864 7331 8083 8083 14671 14197 15759 14671 7317 
7317 19710 17743 10390 10390 19702 19701 19703 19702 
19697 19697 20050 20756 20763 20756 20767 20767 22170 
22170 22172 22172 20751 20751 22167 22167 24401 20744 
23258 20744 21493 23258 19114 21493 13494 13494 24990 
23257 24739 24739 27365 27365 27366 27366 25785 26685 
27779 22791 27779 27779 27778 27781 25802 25802 24745 
24745 24131 24745 24131 24131 22287 22287 25762 25762 
20634 26069 26973 26973 28401 28401 28685 28685 28686 
28685 28686 28686 29866 29866 29291 29291 28339 28339 
30101 30101 30099 30099 29099 29099 24801 24801 28654 
28654 30348 30348 30804 30804 30809 30809 30808 31130 
31128 31128 30807 30807 30196 30196 27005 27005 30603 
30603 31860 31860 31396 31396 31471 28532 31208 31471 
31208 31208 32303 32142 30569 30569 15945 15945 24718 
24718 31147 31147 29488 32564 33263 33263 33125 33125 
30474 32105 29319 29319 30735 32598 32909 33526 33120 
32909 33120 32894 33127 29014 33649 33127 33649 32569 
33240 33240 26371 32758 32758 33238 34148 34148 34147 
31703 31703 33824 32603 32603 33255 34135 33684 33552 
32311 32311 33549 33549 33163 9143 28648 31175 33247 
33236 33141 33141 34565 34565 35067 35067 35116 35116 
35115 34842 34552 35021 35729 35729 35928 32692 34345 
34345 36335 36335 36337 35527 36057 36331 37118 37088 
37117 37118 37117 37117 35261 35261 37407 37106 37411 
37106 37776 37657 37776 38047 38047 37602 37781 38051 
38050 38539 38539 36766 38964 37668 38965 38573 38555 
38555 38973 38750 38978 38978 38976 38976 38896 39693 
39694 38957 39477 40409 40410 40184 39472 39472 40005 
40005 37972 37972 40659 40659 40867 40655 38877 40664 
40449 40449 41217 41218 40418 40418 41604 41604 41341 
41341 41785 41785 41823 41823 41926 41926 39844 39844 
42333 42333 42083 42083 42091 42091 41359 41359 42400 
42400 42383 42383 42749 42749 42543 42748 42744 42744 
42966 42966 43174 43174 42977 42977 43487 43165 43165 
42988 43542 43542 43562 43355 43561 43561 43557 43557 
43556 43556 42529 42529 43348 43532 44180 43341 43730 
43730 43154 43154 43949 43949 44400 44396 43352 43352 
43963 43963 43537 44635 44627 44389 44627 44631 44630 
44631 44630 44628 44648 44648 44625 44625 44864 44864 
44775 44377 44775 45078 42879 45052 44853 44853 45522 
45522 45046 45046 45416 45416 45274 45285 45937 45937 
45946 45942 45941 45941 45930 45924 45930 45893 45377 
45377 45498 45839 46085 46085 45402 45402 43772 45805 
43772 46700 46700 46880 46706 47350 47350 47354 47142 
47354 45780 46444 45780 47135 45816 47353 45816 47360 
47360 47473 45697 44520 47259 47259 47358 47358 44558 
44558 45171 45171 43775 45169 48177 48177 48303 48175 
48291 48293 48290 48291 48290 48290 48438 48439 48436 
48437 44202 48184 48189 47535 46440 48405 46089 48405 
48171 48406 48171 46786 42124 46796 46796 47396 44516 
38460 47955 47955 48530 48530 47368 47720 47720 48520 
48520 48520 46018 46018 44368 47550 47550 46424 47660 
47660 46914 46914 42043 44327 47983 39945 47983 44144 
47524 47821 46612 36936 46612 48661 41686 45974 42558 
42558 41973 41973 46430 46430 44666 44666 50371 50009 
49519 49776 49905 49905 52795 49877 51428 47900 52883 
52883 52036 52036 
EdgePCoordArray 1 285 double
0 0.244 0.536 0.068 0.856 0.844 0 0.052 0.008 
0.084 0.056 0 0.232 0 0 0.236 0.392 0 
0.7 0.824 0 0.136 0.172 0.616 0.156 0.164 0.568 
0.044 0 0.18 0.676 0 0.58 0 0.116 0.904 
0 0.98 0.268 0 0 0 0 0 0.632 
0.436 0.368 0.704 0 0.384 0 0 0 0.928 
0.348 0 0.04 0 0 0.996 0 0 0 
0.328 0 0 0 0.992 0 0 0 0 
0 0 0 0 0 0 0 0 0.024 
0 0 0 0 0 0 0 0.716 0.916 
0 0.508 0 0 0 0 0.144 0 0 
0.916 0 0.904 0.176 0.536 0.032 0.224 0.164 0.032 
0 0.988 0.06 0 0.028 0.612 0 0.564 0.196 
0 0 0.152 0.668 0.384 0 0 0 0 
0.732 0.696 0 0.948 0 0 0.992 0.148 0.068 
0.856 0 0 0.544 0.3 0.172 0.892 0.004 0.884 
0.236 0.964 0.908 0.468 0 0.132 0 0 0.216 
0.152 0.452 0.5 0 0 0 0 0.988 0.176 
0 0.044 0 0 0 0 0 0 0 
0 0 0 0 0 0 0 0.956 0 
0 0 0 0.96 0.144 0 0.412 0 0 
0 0 0.924 0.9 0 0 0 0.976 0 
0 0.968 0.576 0.772 0.512 0.04 0 0 0 
0.04 0.488 0.876 0 0 0 0 0.016 0 
0.496 0 0.052 0.056 0 0.816 0 0 0.104 
0.18 0.664 0.88 0.668 0.988 0.056 0.064 0.08 0.128 
0.64 0.636 0 0 0 0 0.328 0 0.772 
0.064 0.872 0 0.156 0.612 0.696 0.476 0.924 0.9 
0.296 0.156 0.624 0.512 0.124 0 0 0.848 0.568 
0 0 0.588 0.972 0 0 0.152 0.216 0.28 
0.496 0.404 0.672 0.544 0 0 0 0 0.652 
0.072 0 0.804 0.452 0 0 
CurvatureArray 1 285 double
0 9.52053785e-05 0.00037726284977 0.00065754253968 0.00092707412529 0.001179919074 0.0014101791463 0.0016130267069 0.0017830821546 
0.0019185621943 0.0020157913151 0.0020757751273 0.0020998852716 0.0020921007846 0.0020583332409 0.0020053137332 0.0019422472508 0.0018783318208 
0.001821466359 0.001779007369 0.0017534140155 0.0017433196381 0.0017447730661 0.0017511983853 0.0017543686585 0.0017480897738 0.0017260954445 
0.0016856783669 0.0016247771332 0.001544237191 0.0014472268476 0.0013390137791 0.0012277971134 0.0011243068168 0.0010419355673 0.0009946362024 
0.00099305643381 0.0010378590731 0.0011205827187 0.0012295446474 0.0013513292607 0.0014759440486 0.0015967387347 0.0017078376599 0.00180630228 
0.0018907870598 0.0019599959651 0.0020149638827 0.002055491104 0.0020843643229 0.0021022138427 0.0021121953778 0.0021153737156 0.0021147577312 
0.0021117327375 0.0021086473839 0.0021065169394 0.0021068756345 0.0021108197429 0.0021183766657 0.0021305824707 0.0021468006672 0.0021675504774 
0.002191829501 0.0022192891523 0.0022494995188 0.0022821162574 0.0023153067164 0.0023488861212 0.0023820211065 0.0024136132484 0.0024426388386 
0.0024678185659 0.0024882020076 0.0025027410909 0.0025095904442 0.0025076089566 0.0024951756565 0.0024708269695 0.0024325232467 0.0023782887539 
0.0023066955622 0.0022152032988 0.0021017975088 0.001965394383 0.0018026772735 0.0016129663503 0.0013956495876 0.0011494038993 0.00087819671493 
0.00059018254834 0.00033536569448 0.00034447827095 0.00064828285043 0.0010260769172 0.001425085256 0.0018275714036 0.0022187219662 0.0025907919796 
0.0029291833637 0.0032261844148 0.0034755043046 0.0036703935279 0.0038091546297 0.0038947106315 0.003927200985 0.0039133767156 0.0038600270645 
0.0037756592842 0.0036669359445 0.0035409447317 0.0034058659978 0.0032642516535 0.0031236290034 0.0029847924044 0.0028502617974 0.0027227787752 
0.0026028250762 0.0024901908559 0.0023861748411 0.002290288846 0.0022025036097 0.0021236071177 0.0020526285202 0.0019902017947 0.0019358407244 
0.0018897171687 0.0018515717246 0.0018214219618 0.0017983832012 0.0017830807505 0.0017739468966 0.0017708203851 0.0017726353544 0.0017782899315 
0.0017857965431 0.0017939268544 0.0018001264802 0.0018022926906 0.0017978386208 0.0017845986545 0.0017607580768 0.0017246493257 0.0016760299716 
0.0016148345031 0.0015424544327 0.0014607185384 0.0013731750936 0.0012824314133 0.0011920875249 0.0011063095442 0.0010273832503 0.00095827465392 
0.00089999476007 0.00085432927538 0.00082038306436 0.00079777712794 0.00078456703296 0.00078034411632 0.00078242880481 0.00079006233917 0.00080198630965 
0.00081767747322 0.00083599879804 0.00085651700543 0.00087891597734 0.00090238145012 0.00092677238219 0.00095163616192 0.00097622444568 0.00099999833955 
0.0010229441778 0.0010445566521 0.0010635947973 0.0010806763321 0.0010952333332 0.0011071033066 0.0011159390878 0.0011234411453 0.0011285535654 
0.0011334246878 0.0011367894931 0.0011414902684 0.0011462977974 0.0011523692304 0.0011593196569 0.0011680312087 0.0011776275431 0.0011886384611 
0.0012000067727 0.001212521852 0.0012264931156 0.001240864207 0.0012541778955 0.0012689470062 0.0012822081501 0.0012983411992 0.0013137992576 
0.0013387430114 0.0013739600331 0.0014316272826 0.0015157570302 0.0016346605105 0.0017892041187 0.0019793908267 0.0022001780143 0.0024483594847 
0.0027120194106 0.0029882062572 0.0032672190307 0.0035429751029 0.00380957818 0.0040642899791 0.004298922719 0.0045139794576 0.0047046733923 
0.0048704651541 0.0050093141323 0.0051199129583 0.0052030011881 0.0052565483461 0.0052801300408 0.0052764385714 0.0052425762933 0.0051806432315 
0.0050896198573 0.0049724962596 0.0048292007078 0.0046619489533 0.0044729226981 0.0042631616708 0.0040376416954 0.0038024740025 0.0035600791647 
0.0033127788008 0.0030712808995 0.0028346959595 0.0026154942811 0.0024136551424 0.0022372439053 0.0020865651014 0.0019727812122 0.0018926242684 
0.0018516344091 0.0018505057683 0.0018925228363 0.0019712388215 0.0020972034391 0.0022512567002 0.0024616461896 0.0027070313419 0.0030088831629 
0.0033395679369 0.0037354777841 0.0041713450865 0.0046548453074 0.0051901169245 0.0057652109778 0.0063840835319 0.0070530212379 0.007748915103 
0.0084570327522 0.0091670091637 0.0098941565954 0.010593200961 0.011232071774 0.01181096794 0.012302320206 0.012686387988 0.01294059701 
0.013054624022 0.012989941882 0.012787293123 0.012406238886 0.011877170351 0.011162490807 0.010348007426 0.0094360573484 0.0083764291488 
0.0072595297568 0.0060611511867 0.0048415806551 0.0035596311986 0.0022363368345 0 
TorsionArray 1 285 double
-0.0 -0.0 -0.00080818153371 -0.0014593776461 -0.0023101544837 -0.0033152536576 -0.0044301886712 -0.005680695619 -0.0071360929997
-0.0088183023345 -0.010768632526 -0.013059447536 -0.01576105629 -0.018886241336 -0.022413650533 -0.026255531722 -0.030176611673 -0.033763056726
-0.036427327469 -0.037541083311 -0.03683592921 -0.03428867205 -0.030209988641 -0.02529468699 -0.019944179757 -0.014447937476 -0.0090496023291
-0.0035736990152 0.0021818837408 0.0083577697537 0.015508892509 0.024033023707 0.034107324823 0.045702395882 0.057109224862 0.06502788929
0.065739317791 0.059046102399 0.048505343636 0.037611584061 0.028235816381 0.020827103369 0.015063461847 0.010563271671 0.0070009344736
0.004095134479 0.0016935544079 -0.00035747225613 -0.0021474383388 -0.0037295088146 -0.0051688982612 -0.0064350265723 -0.0075628852412 -0.0085667634007
-0.0094148426454 -0.010114237863 -0.010641387762 -0.011002064826 -0.011210726636 -0.011236541211 -0.01113437933 -0.010915183569 -0.010574594846
-0.010159126293 -0.009669717598 -0.0091640476801 -0.0086284406443 -0.0080801137926 -0.0075384114154 -0.0070132330056 -0.0064940596195 -0.0060240870635
-0.0056015009653 -0.0051755641098 -0.0047808265279 -0.0044299182124 -0.0041375807562 -0.0038045373002 -0.0035009618523 -0.0032039204252 -0.0027924860331
-0.002359422454 -0.001662113354 -0.00062727911293 0.00078304784514 0.0032083436238 0.0074182443462 0.014695876791 0.029000028573 0.062484589018
0.16499847601 0.5820749645 0.60199484757 0.18118815894 0.075326488628 0.040690533781 0.026365522255 0.019703526008 0.016676806825
0.015511264938 0.015585752333 0.016433134431 0.017680983011 0.019138062114 0.020693235006 0.022306340774 0.023715162034 0.024951661623
0.025896517143 0.026360996434 0.026426588509 0.026115387155 0.025329386983 0.024028043093 0.022528229889 0.020678125396 0.018570898668
0.016449313601 0.014212204629 0.012056651114 0.010071747837 0.0081984706487 0.0065151543071 0.0051453394885 0.0040763498592 0.0032018190082
0.0026907282145 0.0024426359749 0.0024486950946 0.00271106758 0.0030407880217 0.0035004455212 0.0039723782712 0.0043240325908 0.004459379671
0.0043519960947 0.0039540633311 0.0031705142021 0.0020347658112 0.0003746765089 -0.0016461400585 -0.0039943911474 -0.0068521264859 -0.010024675883
-0.013479769932 -0.017409486395 -0.021778194838 -0.026349511699 -0.031080038276 -0.036142688674 -0.041030407047 -0.0454171156 -0.049018980496
-0.051504522703 -0.052394970816 -0.051448794073 -0.049102667788 -0.04581320168 -0.041503577378 -0.036909230231 -0.032422822698 -0.0281037537
-0.023916163328 -0.020073021393 -0.016695371282 -0.01346683725 -0.010488697659 -0.0076496584112 -0.0049164075483 -0.0024575874086 3.7809511429e-05
0.0026188287474 0.0050068054572 0.0075402435677 0.010179574848 0.012722451064 0.015236747049 0.017797794863 0.020373560282 0.022484738469
0.0241176818 0.025202558146 0.025370331208 0.024528727386 0.022925875334 0.020424232477 0.016774450993 0.01304868661 0.0094544610479
0.0062699158343 0.0042515948721 0.0041296963514 0.0058246155635 0.010132805894 0.017048455119 0.026318138693 0.037537464783 0.050361663659
0.063652884538 0.076046731505 0.084426242134 0.088138051323 0.08671647597 0.080575658531 0.071439449782 0.061586328208 0.052142634446
0.043610788768 0.036477910561 0.030439831203 0.025477118984 0.021348210542 0.017962123 0.015186045826 0.012846378131 0.010877223866
0.0091092766496 0.0077527737114 0.0064930431999 0.0052769697665 0.0043891351697 0.0034470316532 0.0026091081579 0.0018103826535 0.00095119187991
0.00024570086745 -0.00056344429871 -0.001341720476 -0.0022698101881 -0.0032805111285 -0.0042459974385 -0.005584259361 -0.0071641644291 -0.0088006489461
-0.010888062335 -0.013332003394 -0.016149259104 -0.019471937052 -0.023206271181 -0.026776413089 -0.030145836133 -0.032647911759 -0.033856134484
-0.032794801144 -0.029218783351 -0.024292640445 -0.018465839548 -0.011947078264 -0.0060217473273 -0.00075631726707 0.0033725264281 0.0056648480208
0.007943475522 0.0091001146957 0.0089677717092 0.0091100619878 0.0086384900281 0.0078556358502 0.0069116823086 0.0058099348 0.004820605392
0.0037289119545 0.0025494116418 0.0017519161875 0.00069187875041 -0.00036774431231 -0.00083128806482 -0.0016001393131 -0.0023602087257 -0.002703623435
-0.0030663491381 -0.0033263705777 -0.0035020222421 -0.0036977688147 -0.0036181430535 -0.0037216825748 -0.0034829774276 -0.0030156505059 -0.0033318268352
-0.0029508787696 -0.0022004062378 -0.0020420488941 -0.0016506194 -0.0 -0.0
TangentArray 3 285 double
0.23124180934 0.11273065118 -0.96634312017 0.23124180934 0.11273065118 -0.96634312017 0.23053448315 0.11255463836 -0.96653261997
0.22898624041 0.11216617315 -0.96694573338 0.22661864145 0.11156081925 -0.96757334345 0.22347763999 0.11073293528 -0.96839865834
0.21962930998 0.10967402292 -0.96939907927 0.2151581252 0.10837358411 -0.97054734425 0.21016629151 0.10682019731 -0.97181252068
0.2047695094 0.10500135319 -0.97316194122 0.19909475793 0.10290484789 -0.97456239905 0.19327635698 0.10052021779 -0.97598152423
0.1874493663 0.097838430979 -0.97738957253 0.181746042 0.09485281062 -0.97876009345 0.1762899316 0.091559742255 -0.98007074929
0.17119243119 0.08796015191 -0.98130329826 0.16654824332 0.084059813279 -0.98244370344 0.16243136679 0.079868985089 -0.98348207727
0.15889411469 0.075403779034 -0.9844119719 0.15596446639 0.070685661467 -0.98523023831 0.1536457275 0.065741518316 -0.98593663244
0.15191981472 0.060604816973 -0.98653303343 0.1507472488 0.055314393594 -0.98702359893 0.1500685283 0.049913415303 -0.9874148509
0.14981000589 0.044450100895 -0.98771511615 0.14988544641 0.038976186022 -0.98793482066 0.15019952518 0.033546192414 -0.988086411
0.15065365782 0.028215884231 -0.98818385904 0.1511476431 0.023040671602 -0.98824264097 0.15158258696 0.018075247539 -0.98827931515
0.15186641239 0.013371044925 -0.98831058273 0.15191339192 0.0089748791572 -0.98835306085 0.15164724013 0.0049276133334 -0.98842239614
0.15100400044 0.0012630681993 -0.9885323447 0.14993092776 -0.0019926301628 -0.98869446561 0.14838857709 -0.0048220364391 -0.98891737681
0.14634927315 -0.0072173223784 -0.98920665207 0.1437977462 -0.0091801437908 -0.98956451692 0.14073168531 -0.01072066972 -0.98998972721
0.13715827716 -0.01185772912 -0.99047816799 0.1330941552 -0.012618360664 -0.99102306877 0.12856550525 -0.013036888479 -0.9916153238
0.12360393218 -0.013153033228 -0.99224445862 0.11824662374 -0.013011083592 -0.99289901182 0.11253555746 -0.012658988816 -0.99356705778
0.10651391909 -0.012146594536 -0.99423701665 0.10022620417 -0.011524807868 -0.99489792783 0.093716264645 -0.010843626328 -0.99553989247
0.087027065818 -0.010151497648 -0.99615422346 0.080198682843 -0.009494237339 -0.99673368094 0.073267782836 -0.0089140911134 -0.99727246577
0.066267296705 -0.008449741938 -0.99776612853 0.059226072406 -0.0081347097027 -0.99821144997 0.052169045923 -0.0079976373901 -0.99860624294
0.045116565315 -0.0080625742239 -0.99894919312 0.038085240105 -0.008348368096 -0.99923962053 0.031088144405 -0.0088692284897 -0.99947729542
0.024135693616 -0.0096344966833 -0.99966226535 0.017235052029 -0.010649307485 -0.99979475155 0.010392116341 -0.01191510642 -0.99987500927
0.0036110420463 -0.013429174954 -0.99990330414 -0.0031049276028 -0.015185985654 -0.99987986542 -0.0097529728292 -0.017177324044 -0.9998048905
-0.016330516242 -0.019392130671 -0.9996785781 -0.022833978099 -0.021817022317 -0.99950118908 -0.029259935358 -0.024436558529 -0.9992730912
-0.035604851871 -0.027234442664 -0.9989947846 -0.041863468108 -0.03019248411 -0.99866704358 -0.048029067722 -0.033290844039 -0.99829100384
-0.054094932343 -0.036509255603 -0.99786813385 -0.060053157076 -0.039826669062 -0.99740034828 -0.065894721857 -0.04322110759 -0.99689007493
-0.071609108567 -0.046670364973 -0.99634030963 -0.077184633882 -0.050152251765 -0.99575463039 -0.082609418361 -0.05364412656 -0.9951371723
-0.087870336748 -0.057123092738 -0.99449271299 -0.092953080925 -0.060566281376 -0.99382667015 -0.097842607431 -0.063951414669 -0.99314502503
-0.10252385252 -0.067255622263 -0.99245430169 -0.10698108733 -0.070456248602 -0.99176154593 -0.1111977946 -0.073530586037 -0.99107431779
-0.11515827826 -0.076455398938 -0.99040049622 -0.11884655488 -0.079207920381 -0.9897482517 -0.12224718134 -0.081764061464 -0.98912601063
-0.12534624668 -0.084099745133 -0.98854213431 -0.12812973234 -0.086191112488 -0.9880049918 -0.13058491681 -0.088012872004 -0.98752281688
-0.13270186827 -0.08953974644 -0.98710326104 -0.13447106643 -0.090746936575 -0.98675352839 -0.13588476109 -0.091610696358 -0.98648001096
-0.13693759749 -0.092108585445 -0.98628804255 -0.13762670126 -0.092220298856 -0.98618168082 -0.13795013954 -0.091929683155 -0.98616362352
-0.1379087812 -0.091225006148 -0.98623484339 -0.13750590413 -0.090100789878 -0.98639443125 -0.13674634864 -0.088558685205 -0.9866396482
-0.13563773953 -0.086608274806 -0.98696575946 -0.13418956371 -0.084269413106 -0.98736610586 -0.13241344159 -0.081569942818 -0.98783248829
-0.13032301919 -0.078546851874 -0.98835535246 -0.12793548382 -0.075246293083 -0.98892391384 -0.12526875679 -0.071719939523 -0.98952715417
-0.12234257443 -0.068025047793 -0.99015397154 -0.11917912817 -0.064222109695 -0.99079354864 -0.11580111459 -0.060370242583 -0.99143609762
-0.11223264477 -0.05652680828 -0.9920728569 -0.10849891458 -0.052745945519 -0.99269625302 -0.10462517554 -0.049074502895 -0.99330018917
-0.10063580825 -0.045551690739 -0.99388001166 -0.096554587498 -0.042208555696 -0.99443232523 -0.092405529233 -0.039067543712 -0.9949547453
-0.088210362698 -0.036142120346 -0.99544596993 -0.083989637607 -0.033439036286 -0.99590540295 -0.079762062616 -0.030957569229 -0.99633309805
-0.075544257293 -0.028690402015 -0.9967296153 -0.071351722324 -0.026627356823 -0.99709574043 -0.067197145349 -0.024753694346 -0.99743260337
-0.063090714731 -0.023051818007 -0.99774153737 -0.059041157223 -0.02150387171 -0.99802391016 -0.05505519999 -0.020090815467 -0.99828116485
-0.051137183626 -0.018794166461 -0.99851478094 -0.047289973369 -0.017596863161 -0.99872619312 -0.043514131132 -0.016482680529 -0.99891683419
-0.039808660048 -0.015436993151 -0.9990880691 -0.036171021578 -0.014447680543 -0.99924117295 -0.032596915574 -0.013504765639 -0.99937733735
-0.029080979175 -0.012599811066 -0.99949764453 -0.025616399478 -0.011726887108 -0.99960306132 -0.022195324748 -0.010881837487 -0.9996944299
-0.018809541114 -0.010062323594 -0.99977244951 -0.015449965368 -0.009267631671 -0.99983769161 -0.012107643409 -0.0084976110369 -0.9998905918
-0.0087743902718 -0.0077532487886 -0.99993144625 -0.0054425337084 -0.007035821372 -0.99996043724 -0.0021059166461 -0.006346236849 -0.99997764495
0.0012391435131 -0.005684586465 -0.99998307486 0.0045938334294 -0.0050498992472 -0.99997669733 0.0079563214116 -0.0044398789885 -0.99995849135
0.01132097004 -0.0038503258014 -0.99992850276 0.014678332915 -0.0032753336122 -0.99988690297 0.01801491202 -0.002706264132 -0.99983405577
0.021313883466 -0.0021329282759 -0.99977055817 0.024555271545 -0.0015441648761 -0.99969728128 0.0277168145 -0.00092714851259 -0.99961538533
0.030775116991 -0.00026922957248 -0.99952629765 0.033706667836 0.00044123591053 -0.99943167143 0.036488843289 0.0012153525468 -0.99933332139
0.039101499651 0.002062964012 -0.9992331144 0.041527797604 0.0029910894487 -0.99913287175 0.04375424924 0.0040036881002 -0.99903430179
0.0457717648 0.005103483575 -0.99893888702 0.047575561544 0.0062904621204 -0.99884783427 0.049164672185 0.0075621111733 -0.99876205849
0.050541603216 0.008914303074 -0.99868217244 0.051711810396 0.010342182504 -0.99860849582 0.052683453718 0.01184027564 -0.99854106655
0.053466808345 0.013402167982 -0.99847968547 0.05407294388 0.0150217053 -0.99842399065 0.054513163279 0.016693868808 -0.99837349212
0.054799968386 0.018413971868 -0.998327546 0.054945742978 0.02017744364 -0.9982854482 0.054962377666 0.021981136825 -0.99824644586
0.05486160395 0.02382283434 -0.99820973597 0.054655512487 0.025700985092 -0.99817445085 0.05435602422 0.027614206668 -0.99813970877
0.053974258929 0.029561725194 -0.9981046457 0.053521983034 0.031542724934 -0.9980683613 0.053011117865 0.033556221032 -0.99802996018
0.052454011041 0.035601308221 -0.9979885388 0.051863640319 0.037676353134 -0.99794321243 0.051252687504 0.039778502172 -0.99789319709
0.050634471089 0.041904691989 -0.99783773587 0.050022983245 0.044051638648 -0.99777610428 0.049431633191 0.046214074709 -0.99770775929
0.048874130824 0.048386172913 -0.99763224567 0.048363881444 0.050562143951 -0.99754919907 0.047912949305 0.052735079137 -0.99745845062
0.04753207623 0.05489724369 -0.99736001242 0.047230482199 0.05704189756 -0.99725398143 0.047015961425 0.059162651808 -0.99714055178
0.046892969508 0.061253639365 -0.99702008058 0.046863017747 0.063309732343 -0.99689304108 0.046924858279 0.065327402131 -0.99675994513
0.047073906621 0.067305202307 -0.99662132079 0.04730251413 0.069242656919 -0.99647776022 0.04760137281 0.071141243227 -0.99632978116
0.047959583542 0.073004335895 -0.99617781811 0.048364065053 0.074837023821 -0.99602225732 0.04880280012 0.076645009096 -0.99586335874
0.049265218318 0.07843417143 -0.99570126997 0.049742662392 0.080210231374 -0.99553602964 0.050230432499 0.081979074665 -0.99536743716
0.050729049337 0.083744685758 -0.9951951523 0.051243439627 0.085507893453 -0.99501884909 0.051785483446 0.087268038851 -0.99483795319
0.052373711645 0.089021424356 -0.99465178848 0.053032676374 0.090761532086 -0.9944595917 0.053791831224 0.092477295853 -0.99426072468
0.054685490847 0.094154652889 -0.99405452488 0.055752452065 0.095777072322 -0.99384023691 0.057034283625 0.09732463309 -0.99361713264
0.058572836724 0.098777263444 -0.99338425346 0.060409304855 0.10011267134 -0.99314055849 0.062584238356 0.1013073233 -0.99288470597
0.065133721086 0.10233800258 -0.99261499667 0.068088815159 0.10318365066 -0.99232910241 0.071476474977 0.1038249845 -0.99202393425
0.075316055099 0.10424424563 -0.99169583497 0.079619465348 0.10442757633 -0.99134031596 0.084392752474 0.10436348788 -0.9909521309
0.089632951516 0.10404463479 -0.99052544035 0.095330199804 0.10346759205 -0.99005384217 0.1014694768 0.10263297496 -0.98953040263
0.10802811825 0.10154527175 -0.98894817026 0.11497748888 0.10021239419 -0.98830038607 0.12228532462 0.098645790547 -0.9875805321
0.12991430637 0.09686020608 -0.98678284008 0.13782436823 0.094874394318 -0.98590227347 0.14597100535 0.092707634227 -0.98493540913
0.1543083476 0.090382398594 -0.98388005157 0.16278865988 0.087924693965 -0.98273551905 0.17136045688 0.085359540479 -0.98150361317
0.17997370949 0.082714818163 -0.98018759569 0.18857757097 0.0800187705 -0.97879287701 0.1971200912 0.077300787128 -0.97732709875
0.20555057126 0.074591592367 -0.97579970127 0.21381931227 0.071919433999 -0.97422220089 0.22187977543 0.069312970385 -0.97260736034
0.22968736549 0.06679896528 -0.97096941886 0.2372020264 0.064403733224 -0.96932314417 0.24438700167 0.062151647839 -0.96768391848
0.25121043815 0.06006235587 -0.96606719703 0.25765090743 0.058154262121 -0.96448643935 0.26369437987 0.056442409632 -0.96295354427
0.26933031208 0.05493703313 -0.96147964377 0.27455909786 0.053645283865 -0.96007264584 0.27938889736 0.052570498972 -0.95873780914
0.2838364256 0.051711864093 -0.957477293 0.28792775935 0.0510659944 -0.95628963688 0.29169399563 0.050627366148 -0.95517091806
0.29517126239 0.050386341231 -0.95411484763 0.29840307998 0.050331705976 -0.95311191433 0.30143787414 0.050451236161 -0.95215013564
0.30432440309 0.050732624507 -0.95121651504 0.30711591525 0.051161954662 -0.95029588497 0.30986866373 0.051724002608 -0.94937139139
0.31263622474 0.052405748588 -0.94842618505 0.31547407325 0.053196171017 -0.94744196471 0.31843107016 0.054081841169 -0.94640203297
0.32155915954 0.055052136617 -0.94528777056 0.32491234346 0.056098030606 -0.94407890562 0.32853964411 0.057210815811 -0.94275586702
0.33248137783 0.05838540389 -0.94130084352 0.33677895011 0.059614535603 -0.93969465568 0.3414769845 0.06089425269 -0.93791543278
0.34660332414 0.062223846749 -0.93594568677 0.35219071607 0.063601140176 -0.93376474258 0.35826441 0.065025648891 -0.93135292855
0.36484260087 0.066498878692 -0.92869143192 0.3719477467 0.068025278647 -0.9257577627 0.37959264746 0.069610299203 -0.92253120719
0.38777148481 0.071256041735 -0.91899719917 0.39646770521 0.072965440522 -0.91514447122 0.40566975044 0.074745417736 -0.9109583833
0.41535610412 0.076598678321 -0.90642812691 0.42547240128 0.078525649231 -0.90155807254 0.43595519547 0.080527254193 -0.89635842657
0.44673618921 0.082596787695 -0.89084485064 0.45773125965 0.084728598237 -0.88504415629 0.4688434032 0.086914835924 -0.87899469542
0.4799678587 0.089140123441 -0.87274560613 0.4909839047 0.091385211003 -0.86636225018 0.50177549054 0.093629081938 -0.85991566569
0.51222980152 0.095848873073 -0.85348323005 0.52223047533 0.098019436118 -0.84715259593 0.53165968739 0.10011014713 -0.84102076981
0.54041768095 0.10209488949 -0.83517983911 0.54843991235 0.10394999384 -0.82970359848 0.55564009369 0.10564473707 -0.82468374291
0.56194461491 0.10715751039 -0.82020455848 0.56730589185 0.10846548952 -0.81633281366 0.5716887091 0.10954843328 -0.81312432054
0.5750630174 0.11039169475 -0.81062704109 0.57738955238 0.11097848075 -0.80889126687 0.57738955238 0.11097848075 -0.80889126687

NormalArray 3 285 double
-0.93898989889 -0.23407777878 -0.25200310171 -0.93898989889 -0.23407777878 -0.25200310171 -0.9392993795 -0.23364780793 -0.25124764181
-0.93890291387 -0.23676224358 -0.24980984437 -0.9380863611 -0.24221584574 -0.24763978517 -0.93656099249 -0.25083881943 -0.24481297761
-0.9341623598 -0.26282314312 -0.24138078003 -0.93063992142 -0.27847376991 -0.23740618386 -0.9256518767 -0.29816053781 -0.2329568562
-0.91867522585 -0.32249902887 -0.22810130599 -0.90907584197 -0.35199955315 -0.22288433802 -0.8959875589 -0.38726957081 -0.21732136072
-0.8781932332 -0.42906548992 -0.21137514168 -0.85412570028 -0.47799049057 -0.20492530112 -0.82185427611 -0.53427793352 -0.19774387119
-0.77910651561 -0.59756970428 -0.1894821518 -0.72360318864 -0.66641618565 -0.17968832152 -0.65357633609 -0.73800737395 -0.1678781966
-0.56886027553 -0.80794325114 -0.15370650557 -0.47193630885 -0.8708930403 -0.13719122693 -0.36804909457 -0.92217974497 -0.11884604307
-0.26383610602 -0.95941478457 -0.099567968261 -0.16669356298 -0.98271454358 -0.080531868896 -0.08200171443 -0.99465528849 -0.062742138264
-0.012444756586 -0.99882499259 -0.04683761542 0.040019741496 -0.99864294446 -0.033327012738 0.075594965183 -0.99688801258 -0.022353782991
0.094355460915 -0.99543959086 -0.01403808897 0.095708338816 -0.99537253887 -0.0085687073218 0.078408203654 -0.99690201662 -0.0062066789005
0.040892496257 -0.99913736534 -0.0072338736661 -0.021815950896 -0.99968471797 -0.012430967358 -0.11298884878 -0.99334626188 -0.022287306979
-0.2370803947 -0.9707677128 -0.037455763638 -0.39163958898 -0.9183178286 -0.057539534304 -0.56218984095 -0.82309624518 -0.080343972435
-0.72130614857 -0.68510679913 -0.10171584847 -0.84311414898 -0.52470687349 -0.11764875142 -0.92054690675 -0.36945926105 -0.1268591617
-0.96270686884 -0.23700569444 -0.13047522943 -0.98258220423 -0.13251828246 -0.13027323881 -0.990364447 -0.053584199152 -0.12769884777
-0.99231176027 0.0046896755266 -0.12367448153 -0.99184452307 0.046346681818 -0.11872837547 -0.99074190091 0.074985470796 -0.11317095456
-0.98987289658 0.093077087581 -0.10718350803 -0.98960709613 0.10247423587 -0.10088025709 -0.99002641541 0.10463383026 -0.094336940607
-0.99108213365 0.1004051374 -0.087607150115 -0.99260758057 0.090624887847 -0.080729924426 -0.99439410083 0.075787256707 -0.073733736836
-0.99618619879 0.056322777846 -0.066639343074 -0.99768748399 0.032921178484 -0.059463268426 -0.99861863157 0.0058530820842 -0.05221656929
-0.99869586178 -0.024284697792 -0.044909120712 -0.99767168061 -0.056931783419 -0.037549830137 -0.99534594599 -0.09152912448 -0.03014742398
-0.99160428214 -0.12729889899 -0.022714267717 -0.98638901584 -0.16371877893 -0.015260106504 -0.97974029447 -0.2001203266 -0.0077980948256
-0.97180886329 -0.23576983591 -0.00034308146552 -0.96271106571 -0.27043860355 0.0070968774956 -0.95272827502 -0.30347711767 0.014507688358
-0.94206109524 -0.33472683113 0.021882443962 -0.93099327646 -0.36386565953 0.029211316223 -0.91974891412 -0.39080754636 0.036488308925
-0.90848849103 -0.41561776648 0.043709653999 -0.89744232573 -0.43818915049 0.050867871801 -0.88671378963 -0.45867164936 0.057956650689
-0.8764370172 -0.47711347364 0.064968362763 -0.86664800171 -0.49371285231 0.071894788367 -0.8574730862 -0.50847061748 0.078724440893
-0.84878773184 -0.52178391674 0.085445482681 -0.84069166485 -0.53363447944 0.092042202291 -0.83317480542 -0.54416707184 0.098498434255
-0.8262166274 -0.55351957498 0.10479582397 -0.81975774369 -0.56186772135 0.11091395482 -0.81372088735 -0.56939340025 0.1168309601
-0.80831591755 -0.57585829675 0.12252591358 -0.80325222142 -0.58172900979 0.12797354395 -0.79881454821 -0.58665649221 0.13315208493
-0.7950015917 -0.59069285108 0.13803776615 -0.7918458667 -0.59383788029 0.14260678567 -0.78995750403 -0.59531875141 0.14684252124
-0.78943984603 -0.59503564523 0.15072262741 -0.79097188264 -0.592094996 0.15423033616 -0.7960144701 -0.58446685352 0.15735139186
-0.80657879764 -0.56904686378 0.16005096071 -0.82614621446 -0.53960241195 0.16220872156 -0.86264441799 -0.47873033027 0.16328465634
-0.93077964817 -0.32874171824 0.15993163929 -0.97776556169 0.17169500315 0.12039656249 -0.26583120637 0.9625864648 -0.052545861021
0.23607239339 0.96402361993 -0.12218136229 0.39726689428 0.90722987856 -0.13824963708 0.46692642842 0.87265032956 -0.14304234606
0.50661578146 0.85002496461 -0.14421515009 0.53300080962 0.83383923112 -0.14360457371 0.55360621324 0.82058841561 -0.14196764713
0.57156619855 0.80858925597 -0.1396262719 0.58861257627 0.79676123884 -0.13677267031 0.60600262538 0.7841712346 -0.13355258465
0.62426478081 0.77031107059 -0.13005513436 0.64367456489 0.75479706709 -0.126350473 0.66429682625 0.73736414853 -0.12249015918
0.68616571744 0.71772523563 -0.11852043849 0.70917808201 0.69567369916 -0.11447511646 0.7328555745 0.67137393484 -0.11036188901
0.75712576079 0.64457812614 -0.10620556315 0.78130353545 0.61576087745 -0.10199670233 0.80498614211 0.5851873025 -0.097740124831
0.82769332065 0.55334755789 -0.093435791451 0.84917707542 0.52053885303 -0.089093193149 0.8688193416 0.48782878431 -0.08471144465
0.8865322973 0.45564368247 -0.080307661338 0.90224675149 0.42448786364 -0.075900283617 0.91575435852 0.39532383499 -0.071505386801
0.9272381191 0.36840349685 -0.067144128528 0.93684497301 0.34405413801 -0.062835075144 0.94463076433 0.32286134929 -0.058594097031
0.95098673225 0.30440322537 -0.054432632424 0.95600276035 0.28900292305 -0.050359037656 0.9599528012 0.27629675976 -0.046375856036
0.96295479925 0.26629534052 -0.042483481592 0.9653461873 0.25809092828 -0.038675721237 0.96717225752 0.25170711722 -0.034947838766
0.96863379274 0.24651465554 -0.031290576232 0.96990850136 0.24188961825 -0.027693168363 0.97107808442 0.23753808721 -0.024145622482
0.97229924598 0.23282682987 -0.020635977272 0.97363732863 0.22745573719 -0.017153423146 0.97506921581 0.2214782761 -0.013689324331
0.97670063255 0.21436223336 -0.010232657742 0.97840126493 0.20660351313 -0.0067788754689 0.98016289803 0.19816573573 -0.0033218223166
0.98180326968 0.18990081844 0.00013708985088 0.98331419106 0.18187976897 0.0035987909555 0.98452274953 0.17511473025 0.0070559841052
0.98538101018 0.17004112191 0.010501506004 0.98576769286 0.16753574618 0.013922265478 0.98551869012 0.16868197116 0.01730040543
0.98457580614 0.1737392494 0.020619291565 0.98269560544 0.18368542866 0.023853937884 0.97953552554 0.19945551041 0.02697505458
0.97474925543 0.22128427125 0.029952634736 0.96769571297 0.24998531956 0.032746711355 0.95744590946 0.28644492009 0.035307764242
0.94283274348 0.33114091021 0.037578124093 0.9225428901 0.38386829917 0.039493604861 0.89482760715 0.44452768517 0.040971826774
0.85742521725 0.51289933134 0.041907907716 0.80903204647 0.5862457379 0.042226562523 0.7479729027 0.66240952777 0.041834846148
0.67450050735 0.7371508257 0.040715178467 0.58920843938 0.80704557409 0.038869735116 0.49594959523 0.86758579207 0.036453976392
0.39862467481 0.9164967114 0.033647386582 0.30139128774 0.95300743987 0.030661233489 0.20767235255 0.97780647236 0.027689286675
0.12171313765 0.99225085786 0.024982938293 0.043835491871 0.9987830996 0.022600212606 -0.024497356355 0.99948639747 0.020659642107
-0.083887273256 0.9962909048 0.019166596085 -0.1334978933 0.99088190312 0.018203476587 -0.17516886167 0.98437938927 0.017694289539
-0.2090604472 0.9777433653 0.017653357333 -0.23572922098 0.97165082622 0.018066717749 -0.25585865627 0.96652929324 0.018906964687
-0.26961647296 0.96275645276 0.020173501983 -0.27753050723 0.96046859071 0.021838127783 -0.28048948788 0.95956088761 0.023844290001
-0.2777299142 0.96030089688 0.026235133277 -0.26987176954 0.96246059487 0.028962585101 -0.25734306508 0.96579059402 0.031985549247
-0.23939898093 0.97027822195 0.035331288519 -0.21658256203 0.97548726577 0.038943396714 -0.18903048769 0.98103861144 0.042786885619
-0.15701090771 0.98648661576 0.046815935196 -0.12046859861 0.99140613167 0.051001949301 -0.079693869175 0.99528456278 0.055294903071
-0.036672620547 0.99755077898 0.059561415807 0.0085289546304 0.99792776788 0.063776383036 0.053479112008 0.99626374231 0.067812538219
0.097258820333 0.99267792802 0.071632765533 0.13714857789 0.98769621801 0.075142854057 0.17349315392 0.98171060418 0.07838632012
0.20333286402 0.97572889769 0.081294923654 0.22652054732 0.97038526281 0.083909971791 0.24359886769 0.96603012834 0.086286631664
0.25506494776 0.96286826838 0.088467904802 0.26212077526 0.96078153666 0.090507115667 0.26735054706 0.95915049954 0.092487859847
0.27384751699 0.95711929114 0.094499735305 0.28374063657 0.95402314948 0.096597522836 0.3020696355 0.94814215675 0.098895833603
0.33079428292 0.93824041278 0.10139068113 0.37347918578 0.92178511223 0.10404568541 0.43066905328 0.89618568702 0.10665543083
0.50286980335 0.85747686105 0.1088824763 0.5869203621 0.80210661353 0.1102246301 0.67689708139 0.72779065108 0.11014131562
0.7630580748 0.63718328602 0.10835051689 0.83879223392 0.5342552021 0.10487596175 0.89861457643 0.4271380378 0.10022444654
0.94140260432 0.32358991829 0.095135174129 0.96915781926 0.22928530844 0.090340293927 0.98550570154 0.14605494505 0.086292903898
0.99374431378 0.074395573219 0.083291881428 0.99657654057 0.013878829163 0.081502005446 0.9960086496 -0.037841500933 0.080838052521
0.99338316984 -0.081038863065 0.081379239043 0.98953397645 -0.11808268419 0.082939671758 0.98512201751 -0.14904470124 0.085558679536
0.9803762618 -0.1758855302 0.089031823331 0.97564450505 -0.19848994018 0.093378495448 0.97092873594 -0.2181952708 0.098428723041
0.96644319708 -0.23480253182 0.10418885676 0.96216402946 -0.24904053829 0.11054044827 0.95805651451 -0.2614379051 0.11737945641
0.95425972843 -0.27173170486 0.12470064661 0.95074742362 -0.28025978137 0.13241522358 0.94737650976 -0.28769908941 0.14038156114
0.94443399703 -0.29315792093 0.14867030182 0.94160875742 -0.29783133527 0.15706509378 0.9392501026 -0.30060720565 0.16566397522
0.93711704182 -0.30238305229 0.17428751996 0.93535438533 -0.30272914894 0.1829405265 0.93395514407 -0.30171584098 0.19156027815
0.93292436231 -0.29935753402 0.20009298098 0.93242488439 -0.29510033166 0.2085656473 0.93236286274 -0.28923745075 0.21688980906
0.93276677065 -0.2816055921 0.22504320044 0.93390509536 -0.2710493725 0.2331383935 0.93558810828 -0.25798391396 0.24107922305
0.93787683706 -0.24172801481 0.24890682066 0.94078258962 -0.22147210307 0.25666754107 0.94413563649 -0.19680194068 0.26434238413
0.94771825594 -0.16699484964 0.27192430481 0.95119459586 -0.1310191222 0.27939726274 0.95391902674 -0.088872208411 0.28660115316
0.95512632978 -0.04132453984 0.29330185232 0.95409566131 0.011089235666 0.29929667208 0.95029608457 0.06571721175 0.30433304083
0.94365234394 0.12025106923 0.3083179108 0.93507619422 0.16944738762 0.311319922 0.92585576522 0.21071320752 0.31367347065
0.91714862833 0.24317155403 0.31576255141 0.91017150906 0.26548588057 0.31797023653 0.90548213643 0.27811188995 0.32055557596
0.9029598438 0.28271896357 0.32362556779 0.90237305575 0.28044237027 0.32722308173 0.90298403094 0.2736246774 0.33128443334
0.90390095281 0.26506664976 0.3357122856 0.90556885013 0.25286963651 0.34059067018 0.90678097577 0.24118515336 0.34580049709
0.90760039096 0.22976595788 0.35138175099 0.90811985073 0.21817195867 0.3573784173 0.90794807816 0.20805967719 0.36378765521
0.90726125958 0.19872835105 0.37065354357 0.90588945214 0.19099852377 0.37799982067 0.90394246447 0.18439592499 0.38585769888
0.90141225161 0.17899332561 0.39423006233 0.89829384531 0.17484804229 0.40310833479 0.89457843175 0.17199728099 0.41248801774
0.89043152282 0.16955405722 0.42235426464 0.88562687414 0.16875153812 0.432652237 0.88039223401 0.16844700544 0.44332281765
0.87477572749 0.16846665387 0.45429771421 0.86866121922 0.16954912193 0.46548982962 0.86222066667 0.17098093953 0.47680293654
0.85552736303 0.1726305952 0.48813072912 0.84860688612 0.17469255295 0.49934844024 0.84160659307 0.17678068565 0.51034001576
0.83454677279 0.17917671514 0.52098693724 0.82756311455 0.18164724705 0.5311718828 0.82080756168 0.18394288986 0.54077718143
0.81423177951 0.18673035399 0.5496893524 0.80822144827 0.18858137896 0.55786660957 0.8026010479 0.19074613547 0.56519684156
0.79740972266 0.1934260638 0.57159784119 0.79312679353 0.19480440292 0.5770625044 0.78944885817 0.19649404984 0.58151576824
0.78662384962 0.19763119948 0.58494856885 0.78451282729 0.19905076683 0.58729755325 0.78451282729 0.19905076683 0.58729755325

BinormalArray 3 285 double
-0.25460792486 0.9656600819 0.051724373661 -0.25460792486 0.9656600819 0.051724373661 -0.25410731541 0.96578473545 0.051858625331
-0.25695645551 0.96507118371 0.051097850778 -0.26198849301 0.96378714853 0.049763057072 -0.2700208358 0.96167463506 0.047651280384
-0.28125371416 0.95859042564 0.044729678487 -0.29600053686 0.95430997361 0.040940889553 -0.31464064117 0.94851976212 0.036215021601
-0.33779472677 0.94072795866 0.030424173928 -0.36598140788 0.93032623679 0.023467045408 -0.39981313652 0.91647038432 0.015214812746
-0.44004474799 0.89795904516 0.0054929938484 -0.487275758 0.87322851261 -0.0058566564777 -0.54173555252 0.84033558972 -0.018939054663
-0.60306400061 0.7969777037 -0.033769083012 -0.66982095222 0.74082617077 -0.050164496118 -0.73922528635 0.6700492976 -0.067675067814
-0.80693906042 0.5844159247 -0.085483213091 -0.86772761026 0.48636287854 -0.10246923815 -0.91702391158 0.38113327162 -0.11749287151
-0.95252867624 0.27540938129 -0.12976437739 -0.97441701701 0.17667043812 -0.13892096045 -0.98526907779 0.090385330979 -0.14517346968
-0.98863648029 0.019308617638 -0.14908080733 -0.98789309809 -0.034541661956 -0.15124186043 -0.98576138283 -0.071336830246 -0.1522680294
-0.98407343343 -0.091125654036 -0.15262893827 -0.98386701534 -0.093287921599 -0.15265339766 -0.98532982951 -0.076548381365 -0.15253023432
-0.98755475622 -0.039315904364 -0.15228218256 -0.98815301732 0.02345029226 -0.15166970084 -0.9819555156 0.11506051724 -0.15008145375
-0.95968259248 0.2400176086 -0.14629035942 -0.9078210998 0.3958388499 -0.13846463688 -0.81358675808 0.56788143053 -0.12484898053
-0.67697808701 0.72840688084 -0.10547078109 -0.51815127133 0.85123347084 -0.083191574942 -0.36440085789 0.92918508472 -0.061863503811
-0.2332018261 0.97143589344 -0.043922809998 -0.12968484024 0.99110023801 -0.030035985488 -0.051470117356 0.99847822868 -0.019800350486
0.006279999119 0.99990249758 -0.01247224722 0.047562359397 0.99884067638 -0.007424633353 0.075935723443 0.99710427197 -0.004103258886
0.093842600488 0.99558481106 -0.002109579341 0.10311403051 0.99466889455 -0.0011344279609 0.10519010665 0.99445169683 -0.00092958477625
0.10090834546 0.99489484644 -0.0013230034473 0.091095347111 0.99583984112 -0.0021560553163 0.076237813618 0.9970841643 -0.0033113553514
0.056760045251 0.99837685598 -0.0046851580712 0.033346013735 0.99942484585 -0.0061661059557 0.0062625334967 0.99995088841 -0.0076812399982
-0.023897096146 0.99967257057 -0.0091477016668 -0.056575013856 0.99834316584 -0.01049719107 -0.091213897396 0.99576290158 -0.01167342126
-0.1270370652 0.99181760762 -0.012626055391 -0.16352266634 0.98644956976 -0.013326061603 -0.20000239828 0.97969887472 -0.013753383589
-0.23574243064 0.97171613228 -0.013901966038 -0.2705138876 0.96261744611 -0.013780024148 -0.30366710966 0.95268388177 -0.013405518223
-0.33504358981 0.94211564778 -0.012802309907 -0.36432146331 0.93119589741 -0.012003000589 -0.39141511361 0.92014798609 -0.011040494628
-0.41639038917 0.90913154016 -0.0099441687092 -0.43914089086 0.89837557975 -0.0087518956323 -0.45981720709 0.88798200307 -0.0074898787682
-0.47846827813 0.87808302997 -0.0061886420043 -0.49529270079 0.86871252777 -0.0048666876872 -0.51029186949 0.85999393429 -0.0035554066029
-0.52386212103 0.8518001064 -0.0022487520877 -0.53598512754 0.84422686169 -0.00097419810991 -0.5468047436 0.83726011825 0.00025839058745
-0.55645744539 0.83087485965 0.0014419024211 -0.56511677237 0.82500690256 0.0025776576072 -0.57296172792 0.8195738968 0.0036723330425
-0.57975360033 0.81477843819 0.0046754210696 -0.58595299789 0.81032541377 0.0056398637985 -0.59121093363 0.8064908016 0.0064976062584
-0.5955762253 0.8032661624 0.0072410078623 -0.59904559074 0.80067638736 0.0078551218679 -0.60085170257 0.79931859885 0.008185905446
-0.60089354128 0.79928706594 0.0081937949196 -0.59828609592 0.80124566011 0.0076902268435 -0.59102330148 0.80663017021 0.0062630357773
-0.57603893736 0.81741562294 0.0032927209322 -0.54717452849 0.83701507186 -0.0024093263408 -0.48721652252 0.87316937142 -0.013975299284
-0.33896510285 0.93991749168 -0.040715695662 0.15821945982 0.98082426681 -0.11379964922 0.95409828043 0.25490435686 -0.15722671571
0.96189967936 -0.24967270269 -0.11141161693 0.90734290157 -0.41087199358 -0.088955403743 0.87365905626 -0.4802486456 -0.077981355616
0.85143576011 -0.51957344647 -0.071418345925 0.83540606769 -0.54553716891 -0.066976857215 0.82218418931 -0.56566862791 -0.063499309083
0.81014072317 -0.58310702893 -0.060483067587 0.79822787914 -0.59959113041 -0.057643120156 0.78553711345 -0.61638601955 -0.05476968403
0.7715735726 -0.63402953196 -0.051776197937 0.75596255854 -0.65280694554 -0.048617917889 0.73844419457 -0.67279235004 -0.045283829707
0.71873530709 -0.69402824588 -0.041765443456 0.69663077274 -0.71641885062 -0.038073572784 0.67229181132 -0.73949221279 -0.034278092771
0.64547115849 -0.76318024265 -0.030379282197 0.61663765464 -0.78680174099 -0.026476843728 0.58605335011 -0.80995650995 -0.022625711094
0.55420456409 -0.83216598543 -0.018896397175 0.5213866467 -0.85318294248 -0.015324206589 0.4886624244 -0.87239022582 -0.012013695124
0.45645761143 -0.88969977827 -0.0089862955736 0.42527606464 -0.90504200869 -0.006263493982 0.3960789044 -0.91820821174 -0.0038963297137
0.36911926555 -0.92938015752 -0.0018683155547 0.34472545351 -0.93870353873 -0.00016756034363 0.32348360705 -0.9462330095 0.001203206216
0.30497413585 -0.95235784015 0.0023066793162 0.28952095023 -0.95716647501 0.0031557092206 0.27676188297 -0.96093101823 0.0037997819096
0.26670831479 -0.9637678615 0.0042642659578 0.25845385637 -0.96601259685 0.0046116007917 0.25202235097 -0.96770922722 0.0048565590211
0.2467850729 -0.96905715485 0.0050357152165 0.24211835756 -0.97023290642 0.0051776664096 0.23772825141 -0.97131727192 0.0052948789167
0.2329814959 -0.97246615208 0.005404223814 0.22757779082 -0.97374431892 0.0055091288807 0.22157037111 -0.9751282807 0.0056041789402
0.21442687436 -0.9767234614 0.0056917051011 0.20664303428 -0.97839945093 0.0057594099456 0.19818238679 -0.98014798192 0.00580302538
0.18989682504 -0.9817868224 0.0058164599454 0.18185735716 -0.98330780947 0.005801162956 0.17507613376 -0.984538023 0.0057644309471
0.16998853022 -0.98542944539 0.0057190683744 0.16747119832 -0.98586056111 0.0056878635157 0.1686071599 -0.98566681426 0.0057058647523
0.17365540688 -0.98478938044 0.0058030876918 0.18359298923 -0.982983865 0.0060278896172 0.19935378701 -0.97990644439 0.0064364462887
0.22117138424 -0.97520931026 0.0070724806613 0.24985769479 -0.96824952637 0.0079991900312 0.28629686477 -0.95809594022 0.0092884094755
0.33096448533 -0.94357905963 0.011003076166 0.38365356502 -0.92338300952 0.01318179673 0.444262444 -0.89575616526 0.015867364489
0.51256896352 -0.85843359112 0.019100452047 0.58583591025 -0.81010885989 0.022801784741 0.66190586327 -0.74910375249 0.02691089304
0.73654233546 -0.67566944238 0.031244082597 0.8063245647 -0.59039857774 0.035640086495 0.86675166726 -0.49714655915 0.039835236012
0.91555429606 -0.3998176583 0.043659719164 0.95196607525 -0.30257423541 0.047004506708 0.97667830375 -0.20884400243 0.049836468875
0.99105139907 -0.12287864225 0.052134093349 0.99752664876 -0.045002119123 0.053994391315 0.99818786637 0.023318895862 0.055472628592
0.99496388367 0.082685582684 0.056656549652 0.98954084678 0.13225926599 0.057588185594 0.98303677069 0.17388120534 0.058344099073
0.97641205891 0.20771137671 0.058953161054 0.97034382139 0.23430691073 0.059440221012 0.96525963833 0.25435232519 0.059822447907
0.96153810857 0.26801596879 0.060099136758 0.95931589186 0.27582708113 0.060269734922 0.95848777207 0.27867646786 0.060337526016
0.95932384787 0.27580098667 0.06026251451 0.9615960322 0.26782280796 0.060033443884 0.96505495206 0.25517207489 0.059633478018
0.96969038732 0.23710535694 0.059005105241 0.9750656023 0.21416830747 0.058129229151 0.98080162317 0.18650001149 0.056972990984
0.98645236914 0.15437114226 0.055509223083 0.99159295999 0.11772894295 0.053696347115 0.99570999121 0.076866245653 0.051509161244
0.99822651153 0.033770327437 0.049024449735 0.99886491304 -0.011491209289 0.046225940862 0.99746581007 -0.056487930496 0.043255883461
0.99414524552 -0.10030224809 0.040183203509 0.98942040597 -0.14021995363 0.037223982383 0.98368401169 -0.17658769253 0.034388253799
0.97793436628 -0.20645455951 0.031951370879 0.97280489249 -0.22967773421 0.02997965238 0.96864744792 -0.2468022158 0.028474337833
0.96566806444 -0.25832688305 0.027430107615 0.96375223305 -0.26545274079 0.026767063579 0.96228924375 -0.27075773405 0.026261393965
0.96043432935 -0.27732560312 0.025620477485 0.95753086689 -0.28727727097 0.024625363542 0.951878248 -0.30563170646 0.022738975276
0.94224844745 -0.33433533143 0.019691354597 0.92612139216 -0.37692777977 0.014987188439 0.90090543646 -0.43393451595 0.0083803597668
0.86263054547 -0.5058342951 -0.00045598874584 0.80772281919 -0.58945036512 -0.011494103446 0.73386472303 -0.67885836814 -0.024369741672
0.64367041045 -0.76435627311 -0.038051155902 0.54108992248 -0.8393740716 -0.051699745864 0.43425229548 -0.89849314016 -0.064304128651
0.33093614936 -0.94064685085 -0.075264646664 0.23684812565 -0.96787467245 -0.084389476873 0.15384936062 -0.98381315585 -0.091880621562
0.082460479447 -0.99176531293 -0.097988945244 0.022269699782 -0.9944356487 -0.1029650478 -0.029062574871 -0.99381903947 -0.10714048506
-0.071803982317 -0.99126556313 -0.1106199416 -0.10832664705 -0.98759857082 -0.11364154367 -0.13870312141 -0.98348978108 -0.11622949121
-0.16490091257 -0.97915925061 -0.11855315678 -0.18681000191 -0.97496626593 -0.12059354662 -0.20577582244 -0.97090670603 -0.12246011224
-0.22160735507 -0.96720518585 -0.12411409529 -0.23504217481 -0.96383487154 -0.12560858438 -0.24661747831 -0.96075778234 -0.12698150676
-0.25608066024 -0.95811946155 -0.12817875351 -0.26377867371 -0.95588895963 -0.12921729049 -0.27039479021 -0.95390931582 -0.13016787094
-0.27505252069 -0.95247923455 -0.13087940483 -0.27894703382 -0.95125889856 -0.13151068483 -0.28098561248 -0.95061027568 -0.13186049203
-0.28206490845 -0.95026342876 -0.13205606152 -0.28176847863 -0.95035922545 -0.13199949641 -0.28017343578 -0.95087499885 -0.13167984828
-0.27730100675 -0.95179985557 -0.13107702542 -0.27261517502 -0.95329321481 -0.13005004017 -0.26641037068 -0.95523759859 -0.12863376166
-0.25853330024 -0.95764858059 -0.1267664339 -0.24786545293 -0.96080711876 -0.1241466785 -0.23481943205 -0.96449912106 -0.12083575546
-0.21874236332 -0.96878763888 -0.11662885254 -0.19886030488 -0.9736900385 -0.1112757299 -0.17478485041 -0.97903285889 -0.10461795871
-0.14583206388 -0.98460073294 -0.096407498864 -0.11102452974 -0.99006376251 -0.086297740193 -0.070378287378 -0.99475554805 -0.074217897414
-0.024649949818 -0.99787449062 -0.060323137763 0.025633394733 -0.99867099098 -0.044712200221 0.077926630196 -0.99656205068 -0.02813395558
0.1300265798 -0.99144635819 -0.011278625167 0.17695289091 -0.98421036228 0.0041996636824 0.21626953842 -0.97617855525 0.017404454031
0.24717804218 -0.96856658668 0.027960376183 0.26844726337 -0.96264604846 0.035336272881 0.28054189378 -0.95902498983 0.039589325655
0.28506705774 -0.95762166323 0.041201003631 0.28311629647 -0.95823018525 0.040497836431 0.27691432268 -0.96013356283 0.038236101059
0.26910815839 -0.9624608126 0.035355102721 0.25792440064 -0.96566197713 0.03117610424 0.24726854034 -0.96856678231 0.027141429002
0.23691278147 -0.97125475417 0.02316325714 0.22645095764 -0.97383565935 0.019080680429 0.217432518 -0.97595227123 0.015500464552
0.20920536193 -0.97779596114 0.01217271202 0.20253190917 -0.97923037401 0.0094180881331 0.19697066515 -0.98038387843 0.0070716319353
0.19258563868 -0.98126651115 0.0051774386189 0.18942419643 -0.98188808252 0.0037771959446 0.18751395422 -0.98225763314 0.0029084554775
0.18604034495 -0.98253959928 0.0022194348586 0.18611360925 -0.98252564384 0.0022546968756 0.18668846198 -0.98241588327 0.0025397779636
0.18760118296 -0.98224068191 0.0030064859169 0.18949876033 -0.98187278193 0.0040074857065 0.19173258786 -0.9814333037 0.0052235177983
0.19417462689 -0.98094480782 0.0065953223757 0.19698009584 -0.98037301837 0.0082211124227 0.19979914814 -0.97978680548 0.0099053626003
0.20286033241 -0.97913671072 0.011789285535 0.20594810531 -0.97846638562 0.013744458328 0.20883707403 -0.97782563462 0.015623853556
0.21207390069 -0.97709181167 0.017783481324 0.21445687936 -0.97654055845 0.019410940383 0.21701530867 -0.97593806224 0.021195623908
0.21989994086 -0.97524541825 0.023246294298 0.22161659337 -0.97482638566 0.02448679962 0.2234782321 -0.97436606527 0.025850544132
0.22477865831 -0.9740408527 0.026813654016 0.22618781716 -0.97368504612 0.02786579146 0.22618781716 -0.97368504612 0.02786579146

