# vtk DataFile Version 4.1
vtk output
ASCII
DATASET POLYDATA
POINTS 202 float
6.94809 -20.246830000000003 236.153 7.46451 -19.891930000000002 234.402 7.97994 -19.537750000000003 232.649
8.49135 -19.186500000000002 230.887 8.9958 -18.84033 229.111 9.49042 -18.50132 227.313
9.97255 -18.171460000000003 225.488 10.4397 -17.85257 223.63 10.8898 -17.54627 221.734
11.3209 -17.25399 219.795 11.7316 -16.97691 217.808 12.1208 -16.71594 215.769
12.4878 -16.47175 213.674 12.8324 -16.2447 211.521 13.1548 -16.034910000000004 209.308
13.4554 -15.842260000000001 207.034 13.7351 -15.666360000000001 204.696 13.9953 -15.506630000000001 202.296
14.2374 -15.362290000000002 199.833 14.463 -15.23239 197.309 14.6743 -15.115860000000001 194.726
14.8731 -15.011540000000002 192.086 15.0615 -14.918180000000001 189.393 15.2418 -14.83449 186.649
15.416 -14.75919 183.859 15.586 -14.690970000000002 181.026 15.7538 -14.628570000000002 178.156
15.921 -14.57079 175.254 16.0892 -14.516470000000002 172.324 16.2595 -14.46452 169.371
16.4331 -14.413960000000001 166.401 16.6107 -14.36387 163.418 16.7928 -14.313440000000002 160.428
16.9797 -14.2619 157.434 17.1715 -14.2087 154.441 17.3679 -14.153300000000002 151.454
17.5686 -14.095300000000002 148.475 17.7728 -14.0342 145.507 17.9798 -13.97 142.553
18.1887 -13.902400000000002 139.615 18.3984 -13.8314 136.694 18.6078 -13.757000000000001 133.791
18.8158 -13.679400000000001 130.906 19.021 -13.598700000000001 128.039 19.2223 -13.515300000000002 125.188
19.4184 -13.4295 122.352 19.6083 -13.341800000000001 119.529 19.7908 -13.252600000000001 116.717
19.965 -13.162500000000001 113.914 20.1298 -13.0721 111.116 20.2845 -12.982000000000001 108.322
20.4284 -12.893 105.528 20.5609 -12.805600000000002 102.734 20.6816 -12.7208 99.9356
20.7902 -12.639100000000001 97.1328 20.8863 -12.561300000000001 94.3244 20.97 -12.4882 91.5102
21.0413 -12.4205 88.6905 21.1002 -12.358900000000002 85.8665 21.147 -12.304 83.04
21.182 -12.2567 80.2135 21.2055 -12.217300000000002 77.39 21.2178 -12.186700000000002 74.5734
21.2195 -12.165300000000002 71.7678 21.211 -12.1536 68.9777 21.1928 -12.1522 66.2079
21.1652 -12.1614 63.4632 21.1286 -12.181600000000001 60.7486 21.0836 -12.2133 58.0687
21.0303 -12.2566 55.4277 20.9689 -12.312000000000001 52.8295 20.8997 -12.379500000000002 50.2776
20.8227 -12.4594 47.7744 20.7378 -12.551900000000002 45.3219 20.6451 -12.657000000000002 42.9213
20.5441 -12.7748 40.573 20.4348 -12.9052 38.2764 20.3168 -13.048100000000002 36.0303
20.1896 -13.2034 33.8329 20.0529 -13.3709 31.6816 19.9062 -13.5502 29.5733
19.7492 -13.740800000000002 27.5045 19.5814 -13.942400000000001 25.4715 19.4025 -14.154100000000001 23.4704
19.2122 -14.375340000000001 21.4972 19.0104 -14.605210000000001 19.5479 18.7969 -14.84279 17.6189
18.5717 -15.08702 15.7067 18.335 -15.336780000000001 13.8083 18.0871 -15.590850000000001 11.9211
17.8283 -15.847980000000002 10.0428 17.5592 -16.106840000000002 8.17173 17.2804 -16.366100000000003 6.30668
16.9927 -16.62444 4.44685 16.697 -16.88053 2.59184 16.3942 -17.133110000000002 0.741646
16.0853 -17.38097 -1.10344 15.7714 -17.62299 -2.94288 15.4538 -17.85816 -4.77597
15.1336 -18.08559 -6.60187 14.8119 -18.30453 -8.41971 14.4901 -18.51436 -10.2286
14.1693 -18.71463 -12.0278 13.8507 -18.90503 -13.8165 13.5355 -19.08542 -15.5942
13.2247 -19.25581 -17.3605 12.9194 -19.41635 -19.1152 12.6206 -19.56731 -20.8582
12.3293 -19.709120000000002 -22.5898 12.0462 -19.842280000000002 -24.3105 11.7721 -19.9674 -26.0208
11.5077 -20.08517 -27.7218 11.2535 -20.196330000000003 -29.4143 11.0101 -20.30168 -31.0998
10.7779 -20.40202 -32.7798 10.5571 -20.498170000000002 -34.4557 10.348 -20.590960000000003 -36.1295
10.1506 -20.681160000000002 -37.8029 9.96513 -20.769550000000002 -39.4779 9.79147 -20.856840000000002 -41.1565
9.62955 -20.94367 -42.8406 9.47922 -21.030640000000002 -44.5321 9.34029 -21.118270000000003 -46.2328
9.2125 -21.207 -47.9445 9.09561 -21.29719 -49.6686 8.98931 -21.389120000000002 -51.4064
8.8933 -21.48298 -53.1589 8.80728 -21.57891 -54.9269 8.73096 -21.676930000000002 -56.7108
8.66403 -21.77704 -58.511 8.60625 -21.879150000000003 -60.3271 8.55735 -21.9831 -62.159
8.51712 -22.088720000000002 -64.0059 8.48538 -22.195770000000003 -65.8671 8.46198 -22.304000000000002 -67.7416
8.4468 -22.41312 -69.6281 8.43977 -22.52286 -71.5255 8.44085 -22.632910000000003 -73.4326
8.45006 -22.743000000000002 -75.3482 8.46743 -22.85285 -77.271 8.49306 -22.962220000000002 -79.2003
8.5271 -23.070880000000002 -81.1349 8.56971 -23.178630000000002 -83.0745 8.62115 -23.285320000000002 -85.0184
8.68168 -23.390818 -86.9666 8.75165 -23.495043000000003 -88.9191 8.83143 -23.597948000000002 -90.8763
8.92146 -23.699526000000002 -92.8386 9.02221 -23.799806 -94.8068 9.13421 -23.898851 -96.782
9.25803 -23.996756 -98.7652 9.39428 -24.093641 -100.758 9.54356 -24.189647 -102.761
9.70653 -24.2849317 -104.776 9.88384 -24.3796611 -106.804 10.0761 -24.474002000000002 -108.847
10.284 -24.568117 -110.906 10.5079 -24.662154 -112.983 10.7486 -24.756239 -115.077
11.0063 -24.850475 -117.19 11.2814 -24.944926000000002 -119.322 11.574 -25.039619000000002 -121.474
11.8844 -25.134539 -123.646 12.2123 -25.229624 -125.837 12.5576 -25.32477 -128.048
12.9199 -25.41982 -130.276 13.2986 -25.514590000000002 -132.523 13.6929 -25.60885 -134.785
14.1019 -25.702350000000003 -137.062 14.5246 -25.79483 -139.352 14.9597 -25.886000000000003 -141.654
15.4059 -25.97562 -143.965 15.8616 -26.06344 -146.285 16.3254 -26.149230000000003 -148.61
16.7955 -26.232850000000003 -150.94 17.2704 -26.31417 -153.274 17.7482 -26.39316 -155.608
18.2274 -26.46984 -157.942 18.7061 -26.544310000000003 -160.276 19.1829 -26.616770000000002 -162.607
19.6563 -26.68746 -164.936 20.1247 -26.75672 -167.261 20.5869 -26.824930000000002 -169.583
21.0417 -26.89254 -171.902 21.488 -26.96003 -174.217 21.925 -27.027910000000002 -176.529
22.352 -27.09668 -178.839 22.7684 -27.16685 -181.146 23.1737 -27.2389 -183.452
23.5678 -27.31326 -185.756 23.9506 -27.39031 -188.06 24.3222 -27.47036 -190.363
24.6829 -27.553620000000002 -192.667 25.0332 -27.640230000000003 -194.972 25.3735 -27.730220000000003 -197.277
25.7046 -27.82353 -199.583 26.0274 -27.919990000000002 -201.891 26.3428 -28.01934 -204.199
26.6521 -28.12122 -206.509 26.9563 -28.22519 -208.819 27.2568 -28.330750000000002 -211.13
27.555 -28.437330000000003 -213.442
LINES 1 203
202 201 200 199 198 197 196 195 194 193 192 191 190 189 188 187 186 185 184 183 182 181 180 179 178 177 176 175 174 173 172 171 170 169 168 167 166 165 164 163 162 161 160 159 158 157 156 155 154 153 152 151 150 149 148 147 146 145 144 143 142 141 140 139 138 137 136 135 134 133 132 131 130 129 128 127 126 125 124 123 122 121 120 119 118 117 116 115 114 113 112 111 110 109 108 107 106 105 104 103 102 101 100 99 98 97 96 95 94 93 92 91 90 89 88 87 86 85 84 83 82 81 80 79 78 77 76 75 74 73 72 71 70 69 68 67 66 65 64 63 62 61 60 59 58 57 56 55 54 53 52 51 50 49 48 47 46 45 44 43 42 41 40 39 38 37 36 35 34 33 32 31 30 29 28 27 26 25 24 23 22 21 20 19 18 17 16 15 14 13 12 11 10 9 8 7 6 5 4 3 2 1 0 

CELL_DATA 1
FIELD FieldData 2
LengthArray 1 1 double
454.00169339 
TortuosityArray 1 1 double
0.0085754547505 
POINT_DATA 202
FIELD FieldData 8
RadiusArray 1 202 double
71.209403403 72.915259315 73.923775818 75.039712678 75.778077098 77.015320458 77.42683808 78.175560767 78.983579846 
79.036004528 79.000403044 78.617719324 78.579010745 78.574449076 78.291310448 77.761533187 77.685695194 77.262201414 
76.606052395 76.515030689 75.882924404 75.796952538 74.967471299 74.711017546 74.278926371 74.269455679 73.683247027 
73.625462159 73.26841576 73.172027288 72.228502492 71.982044161 71.003680552 70.534069291 69.782352478 69.69723727 
68.855935339 68.823576535 67.697087775 67.476673407 67.185158132 67.150141418 66.841881647 66.356471038 66.204715109 
66.16290326 65.65716116 65.657142979 65.652615829 65.341824394 65.152859237 64.889179851 64.885046287 64.296080273 
63.885296263 63.747351653 63.738020979 63.551358243 63.104943728 62.611033943 62.573073885 61.841314422 60.979384253 
60.907593529 59.724219702 59.395995014 58.376858026 58.356171095 57.585922092 56.796421192 56.756265362 55.809530652 
55.565480728 55.409703406 55.259697776 55.243569509 55.20350419 55.143642048 54.95886179 54.932907423 54.914064288 
54.708779026 54.681554946 54.168641881 54.107270444 54.105667614 53.258424921 53.249986297 52.585050035 52.483259287 
52.131640882 51.963572475 51.870124198 51.86895896 51.719713458 51.708383742 51.714861235 51.74106666 51.792317617 
51.816421171 51.910596018 51.912497861 52.040131351 52.04768084 52.084638315 52.268159357 52.389037355 52.46476359 
52.59506687 52.669820229 52.713631125 52.900184871 53.012371281 53.077925717 53.105315495 53.114573238 53.12592226 
53.154506453 53.172079441 53.173537587 53.21670458 53.261503861 53.29714394 53.322166817 53.446720268 53.489511258 
53.518864651 53.51638128 53.528360667 53.597886102 53.64137737 53.666847861 53.730627381 53.878455015 54.101237135 
54.123597248 54.169717688 54.181541779 54.291064644 54.461251759 54.482781641 54.565863317 54.634123211 54.679739049 
54.678270713 54.713065874 54.812944818 54.782637782 54.734746102 54.681815729 54.646201957 54.62578641 54.493312291 
54.373980462 54.254121194 53.974669308 53.940134529 53.58185012 53.57052023 53.272482412 53.027412158 52.810894501 
52.387028606 52.354503964 51.653916954 51.260309768 51.187919463 49.577465423 49.087348514 48.039369924 47.56337764 
46.258637004 45.544642575 44.678436424 44.438779052 43.454164135 43.27378268 43.002181514 41.346789168 40.773528265 
39.538242281 39.493045913 38.730337228 38.232748426 37.452872554 37.242300779 36.378874111 34.992460528 34.890301822 
34.533609443 34.318375913 32.725178634 31.726946274 30.757747815 29.99667702 29.297646828 28.408804014 27.781151998 
27.626520968 26.881878207 26.835155415 26.057973261 
EdgeArray 2 202 int
19724 19724 19723 19712 19713 19378 15945 19713 10864 
15945 16589 20654 19395 20654 19395 20883 14798 19308 
16746 19308 20885 20886 20879 20879 20420 20409 20420 
17499 17499 20889 21796 21796 21795 21795 23058 23060 
23056 23056 22839 22839 18730 18730 21091 21094 21097 
21097 21694 21694 22746 22746 22753 22752 19151 19151 
21702 21702 21709 21709 22441 22441 14788 14788 23608 
23608 24569 15082 24562 24562 24235 24235 24965 24965 
25490 25490 25300 25300 25960 25960 26108 25955 26876 
26876 26875 26874 23036 23036 24600 24600 26448 26448 
26451 26450 26126 26126 26128 26126 26128 26128 25855 
25855 25292 25292 19519 19519 25314 25491 25847 25847 
25830 25830 24186 23893 24911 24186 24911 24911 22730 
22730 23965 23965 22217 23560 24533 24533 24897 24897 
25382 25382 25638 25638 25374 25374 27662 27662 24480 
24480 25909 25909 24535 24535 26385 27170 29325 29325 
29327 26205 29060 20201 29332 29058 29332 29330 29059 
27578 29053 29054 29051 29052 29056 29052 29056 29056 
28404 28404 27105 27105 27651 27651 29667 29667 29960 
29960 28703 28703 30186 30186 30183 30183 26959 26959 
30199 30199 30630 30630 30654 30654 30653 30653 30655 
30655 30656 30656 28142 28142 30827 30827 27845 27845 
30823 30822 30824 30824 29574 29574 30665 30625 30362 
30625 30606 27906 30826 30826 23872 23872 30339 30339 
22073 22073 29006 29006 20387 20387 31668 31668 33009 
31980 32635 32635 32861 32862 32861 32861 32864 32864 
33175 33016 33177 32055 33178 33177 30271 30271 31023 
31023 33484 33484 32717 33481 32717 31374 33181 31106 
32680 32172 33348 33348 33259 33259 33407 31774 33407 
33836 33837 33837 33826 33826 33449 33449 33527 25105 
33200 34107 34111 33811 34112 34111 34515 34515 33845 
34089 33845 33845 35105 35105 34755 34755 35218 35218 
35729 35729 34860 34860 35730 35403 36145 36014 36129 
35026 36572 36572 36710 36571 36710 35209 37177 37177 
36863 36863 37296 37296 38426 38426 38429 38429 38571 
38571 38856 38670 38993 38999 39069 39069 38243 38243 
37450 37450 39658 39658 39688 39688 39861 39861 39260 
39260 39691 39691 38383 38383 38712 38712 39080 39080 
38816 38816 40103 40103 39627 39627 40285 40285 40279 
40279 40577 40219 39616 39616 40613 40613 40621 40621 
40783 40783 40782 40782 39889 39889 40790 40790 40970 
40970 40007 40972 40001 40001 40867 40875 40226 40866 
41271 41267 41270 40769 41582 41582 41549 41549 41266 
41266 41481 41481 42317 42317 42316 42316 42405 42141 
42407 39916 42510 42510 42280 42280 43233 43233 
EdgePCoordArray 1 202 double
0 0.612 0.36 0.48 0.928 0.904 0.252 0.44 0.94 
0.88 0.788 0 0.164 0.184 0.404 0 0 0.988 
0 0 0 0.472 0 0 0 0.992 0 
0 0 0 0 0 0.144 0 0 0 
0 0 0 0.572 0 0.96 0 0 0 
0.972 0 0.996 0 0 0 0 0.936 0 
0 0.036 0.936 0 0 0 0.7 0 0 
0 0 0 0 0 0 0 0.976 0 
0.208 0.152 0.748 0.756 0.896 0.088 0.872 0.468 0 
0 0 0 0 0 0 0 0 0 
0 0 0 0 0 0 0 0 0 
0.964 0 0 0.876 0.872 0.384 0 0 0 
0 0 0 0 0.824 0 0.768 0 0 
0.676 0.004 0.968 0 0 0 0.928 0.732 0.208 
0.896 0 0 0.108 0.684 0 0 0 0.12 
0.848 0.052 0.94 0 0.12 0 0 0 0 
0 0 0.676 0.12 0.352 0 0.296 0.136 0 
0 0 0 0 0 0.368 0.024 0 0 
0 0 0 0 0 0 0 0 0 
0 0 0 0 0 0.32 0 0 0 
0 0 0 0 0 0.992 0 0.88 0.72 
0.468 0.384 0 0 0 0 0 0 0.844 
0.472 0 0 0 
CurvatureArray 1 202 double
0 0.00054699155374 0.0021657268372 0.0037161705096 0.0051377575367 0.0063764810494 0.007391253974 0.0081569728157 0.0086602880242 
0.0089062126808 0.0089144945325 0.008713874885 0.0083386962123 0.0078286386895 0.0072229278832 0.0065574372178 0.0058638371531 0.0051667127299 
0.0044876785008 0.0038405386046 0.0032356003355 0.0026796344833 0.0021756233979 0.0017250455486 0.0013280450912 0.00098455986023 0.0006973388918 
0.00047358799027 0.00033759692902 0.000316095776 0.00037558824643 0.00045480016913 0.00052457205814 0.0005761439557 0.0006074147433 0.00061743782938 
0.00060887611944 0.00058326693591 0.00054536505386 0.00050101917394 0.00046126546153 0.00044135766157 0.00045680556627 0.00051512501779 0.00060993820372 
0.00072929819346 0.00086240334809 0.0010000435404 0.0011351301579 0.0012618230499 0.0013767938964 0.0014762634552 0.0015595358381 0.0016250408461 
0.001674342428 0.0017082536182 0.0017300116025 0.0017417640864 0.0017471581373 0.0017498245277 0.0017526949733 0.001759477617 0.0017730506086 
0.0017968113828 0.0018325716619 0.0018836892505 0.0019516673743 0.0020383427962 0.0021449801944 0.0022728861845 0.0024227109133 0.0025937653387 
0.0027857846513 0.0029959415148 0.0032215029094 0.0034565047503 0.0036944096814 0.0039262285647 0.0041417894027 0.0043301610286 0.0044809538919 
0.0045821606525 0.0046270560607 0.0046106797374 0.0045319695626 0.004392846927 0.0042022717901 0.0039682466911 0.0037065981484 0.0034287631166 
0.0031518425249 0.002888934657 0.0026574215401 0.0024647227826 0.0023220773012 0.0022318554346 0.0021931503116 0.0021985917695 0.0022400674178 
0.0023068574093 0.0023906471099 0.0024842116762 0.0025834142079 0.0026852027506 0.002788432439 0.0028934612824 0.0030011229193 0.0031125485522 
0.0032291826839 0.0033515886902 0.0034793229613 0.0036110609508 0.003743325991 0.0038723799701 0.0039930603413 0.0040993696452 0.0041858430215 
0.0042473349821 0.0042782540965 0.0042785642499 0.0042443423614 0.0041780618397 0.0040811282157 0.0039580061157 0.0038128856729 0.003652642049 
0.0034822664987 0.0033071874615 0.0031349880637 0.0029679306699 0.0028125692991 0.002671070303 0.0025462417222 0.0024398093851 0.0023531400277 
0.0022864065803 0.0022401886473 0.0022125011923 0.002203636528 0.0022123277442 0.0022368534819 0.0022755323716 0.0023274793113 0.0023902572445 
0.0024628157074 0.0025427445845 0.0026288548592 0.0027182268234 0.0028097268103 0.0028999216046 0.0029874211284 0.0030685775128 0.003141989205 
0.0032044836356 0.0032533983481 0.0032873354689 0.0033044727352 0.0033029747615 0.0032815295497 0.0032407375523 0.0031792267961 0.0030984377593 
0.0029986412231 0.0028810677054 0.0027469812369 0.0025965365151 0.0024339185706 0.0022580624254 0.0020729931264 0.0018777709608 0.0016752001715 
0.0014672302974 0.0012552404969 0.0010411468498 0.00083008856463 0.0006308092225 0.0004642420048 0.00038192679094 0.00043561674928 0.0005875002239 
0.00077908863109 0.00097941451413 0.0011805410992 0.0013717527054 0.0015477132716 0.0017068413813 0.0018425722119 0.001952212364 0.0020319450193 
0.0020805714961 0.0020961547014 0.0020751861589 0.0020200703982 0.0019295836699 0.0018058992984 0.0016488322394 0.001462105408 0.0012485568253 
0.0010105607855 0.00075290422507 0.00047936138941 0 
TorsionArray 1 202 double
-0.0 -0.0 -9.6348807361e-05 -0.00015401994431 -0.0002576779553 -0.0003677142134 -0.00049053582564 -0.00062908719869 -0.0007856106033
-0.00096274920361 -0.0011735528681 -0.0014173145186 -0.0017002798573 -0.0020589078517 -0.0024906437403 -0.0029948137546 -0.0036299884278 -0.0044457441098
-0.0054477931339 -0.0067673138427 -0.0085348188245 -0.010908421912 -0.014330566471 -0.019468818344 -0.027744003775 -0.042027757648 -0.069238998687
-0.12360170488 -0.19971786949 -0.18857845129 -0.11260716454 -0.066716435254 -0.045421475334 -0.035835042602 -0.032228495128 -0.032459115575
-0.03589775616 -0.042927750424 -0.054341572481 -0.071498486292 -0.093459418488 -0.11299276446 -0.11628531813 -0.10030826261 -0.07798191266
-0.059162575932 -0.04566958006 -0.036493832627 -0.03027610384 -0.025945664457 -0.022952277136 -0.0208977375 -0.019459008572 -0.018535843507
-0.01793023972 -0.01756749082 -0.017415754864 -0.017415262577 -0.017481572479 -0.01750918796 -0.017523261249 -0.01741489758 -0.017040077277
-0.016478725121 -0.01560724009 -0.014339218558 -0.012783133505 -0.010969016974 -0.008903652827 -0.0066788717997 -0.0043980097638 -0.0020755521686
0.00013552465532 0.002322499951 0.0044167942811 0.0063297671651 0.008178099112 0.0099429273798 0.011704465025 0.013476195321 0.015263189714
0.017238453629 0.019448661599 0.02193691019 0.02483657532 0.028327624665 0.032405638904 0.037374978755 0.043404870341 0.050422548527
0.0586106916 0.067813710362 0.077151529108 0.085809242625 0.092201741492 0.095133695912 0.094208013822 0.09022102761 0.084369022601
0.07827131411 0.072789891122 0.068225132435 0.064887018348 0.062561441206 0.061059673161 0.060232390082 0.05949975293 0.05883774051
0.058015843333 0.056711805574 0.054955552791 0.052619809637 0.049817203731 0.046640751648 0.043171379844 0.03957271586 0.035923441291
0.032285573066 0.028743611071 0.025334025922 0.022027473688 0.018843037331 0.015797136643 0.012799744081 0.009886521089 0.0070140256635
0.0041806455011 0.0013986619976 -0.0013412506611 -0.0040056577134 -0.006518134062 -0.0088156089157 -0.010810546574 -0.012389041922 -0.013513163698
-0.014044661401 -0.014023635744 -0.013437987741 -0.012297950613 -0.010766921604 -0.008976576851 -0.0069880496356 -0.0049153979451 -0.0029165489035
-0.0010132594593 0.00071452907582 0.0021823704725 0.0034373443379 0.0044212614965 0.0051407502093 0.0055908360349 0.0057897582288 0.0057850303394
0.0055445787411 0.0051333189604 0.0045870296906 0.0038788985495 0.0030551427119 0.0021546613125 0.001150205107 7.6467239822e-05 -0.0010658666512
-0.0022743614113 -0.0035603705929 -0.0049786802497 -0.0064929138411 -0.0081518840271 -0.010047326075 -0.012276310721 -0.015048217426 -0.0185477638
-0.023355306637 -0.03056391723 -0.042236288288 -0.062969334159 -0.10415004874 -0.18620841872 -0.27119396988 -0.21013902181 -0.11913057407
-0.070884389122 -0.04743907941 -0.034689301235 -0.027172572083 -0.022274366078 -0.018841962543 -0.016314882449 -0.01433424535 -0.012709333545
-0.011251197955 -0.010061076263 -0.0090056201427 -0.0079861812057 -0.0070417461273 -0.0061645309389 -0.0054053920463 -0.0046123929369 -0.0038665197594
-0.0032058582362 -0.0024991961648 -0.0 -0.0
TangentArray 3 202 double
0.27730076128 0.190558592 -0.94169618817 0.27730076128 0.190558592 -0.94169618817 0.27536165031 0.1891706126 -0.94254466253
0.27113730097 0.18614595174 -0.94436976268 0.26472641096 0.18155347498 -0.9470788051 0.25629406939 0.17550745951 -0.95053168367
0.24606603669 0.16816396594 -0.95455350094 0.23431751825 0.15971301933 -0.95895101653 0.22136288601 0.15037150107 -0.96352835161
0.20754161864 0.14037355387 -0.96810213403 0.19319925809 0.12995745201 -0.97251483657 0.17867194463 0.1193545985 -0.97664262452
0.16427453168 0.10878184401 -0.98039807663 0.15028825959 0.098433109927 -0.9837298216 0.13695196588 0.088472189745 -0.98661888827
0.12445780141 0.079030941122 -0.98907247763 0.11294997492 0.070209402133 -0.99111701782 0.10252865933 0.062077288506 -0.99279115844
0.093252727694 0.054675954345 -0.99414006498 0.085144011283 0.048023440703 -0.99521065433 0.078195187475 0.042118196045 -0.99604797586
0.072373639098 0.036942740735 -0.9966931776 0.067627015161 0.032468487706 -0.99718222213 0.063888880997 0.028658562577 -0.9975454364
0.061082336737 0.025470718383 -0.99780769222 0.059123713491 0.022859963007 -0.997988882 0.057923541742 0.020780161503 -0.99810472807
0.057390755904 0.019185471272 -0.99816743026 0.057433840247 0.018031240265 -0.99818646974 0.057960459122 0.01727492593 -0.99816940552
0.058880338111 0.016876109401 -0.99812238865 0.06010557815 0.016796328709 -0.99805070153 0.061550055734 0.016999463469 -0.99795922205
0.063130266689 0.017451243798 -0.99785270632 0.064766787749 0.018119158679 -0.99773591661 0.066382561745 0.018971206936 -0.99761387761
0.06790473398 0.019975923244 -0.99749180929 0.069264942945 0.021102320061 -0.99737508479 0.070399129296 0.022319127775 -0.99726918088
0.071248948779 0.023594094599 -0.99717947532 0.071762167205 0.024894042717 -0.99711106603 0.07189471063 0.026185587895 -0.99706843575
0.071609987787 0.027434301942 -0.99705534888 0.070880398078 0.028605538679 -0.99707456708 0.069689106082 0.029664814962 -0.99712758825
0.068031008518 0.030578695027 -0.99721448309 0.065912202713 0.031316069392 -0.99733388859 0.063349806229 0.031848712998 -0.99748306328
0.06037252369 0.032151818059 -0.99765796693 0.057019674834 0.032204819629 -0.9978534994 0.053338415357 0.0319931352 -0.99806385204
0.049382264419 0.031507425478 -0.99828286277 0.045208533191 0.030743389395 -0.99850439785 0.040876086056 0.029701951436 -0.99872265403
0.036443025556 0.028387869034 -0.99893244756 0.031963830249 0.026809494426 -0.99912940331 0.027487470994 0.024977676247 -0.99931003929
0.023056153456 0.02290398156 -0.9994717712 0.018704991052 0.020599953256 -0.99961280766 0.014460150028 0.018075777828 -0.99973204926
0.010339474813 0.015340448553 -0.99982886831 0.0063530943844 0.012399997212 -0.99990293442 0.0025032129374 0.0092572064295 -0.99995401797
-0.0012161596079 0.0059120763452 -0.99998178399 -0.0048167601343 0.0023606961658 -0.99998561286 -0.0083168155532 -0.0014042365111 -0.99996442872
-0.011741311996 -0.0053927448785 -0.99991652646 -0.015119644658 -0.0096170767616 -0.9998394412 -0.01848543029 -0.014091185166 -0.99972982719
-0.021876616394 -0.018829443472 -0.99958334606 -0.02533476328 -0.02384574587 -0.99939458182 -0.028903028571 -0.029151276136 -0.99915705374
-0.032626194029 -0.034752769086 -0.99886324214 -0.036547814005 -0.040651108754 -0.99850475444 -0.040709939923 -0.046838117545 -0.99807258831
-0.045150742341 -0.053294465711 -0.99755757247 -0.049900210979 -0.05998833423 -0.99695103626 -0.054979778291 -0.066873383056 -0.99624553932
-0.060398995999 -0.073888036706 -0.9954358439 -0.066154457563 -0.080955768749 -0.99451985966 -0.072228624407 -0.08798755164 -0.99349947991
-0.078587270765 -0.094883822536 -0.99238153 -0.085182080771 -0.10153770949 -0.99117814073 -0.091953476991 -0.1078416149 -0.98990643203
-0.09883188664 -0.11369214563 -0.98858806093 -0.10574091947 -0.11899416009 -0.98724832125 -0.1126031485 -0.12366568207 -0.98591446385
-0.11934161391 -0.12764229998 -0.98461414902 -0.12588492966 -0.13087744959 -0.98337382397 -0.13216927526 -0.13334242833 -0.98221742984
-0.13813756806 -0.1350279579 -0.9811653596 -0.14374218999 -0.13594050379 -0.98023383039 -0.14894607252 -0.13610024737 -0.97943442361
-0.15371901977 -0.13553981831 -0.97877444828 -0.15803617527 -0.13430063467 -0.97825758716 -0.16187914241 -0.13243105022 -0.97788402185
-0.16523294041 -0.12998481366 -0.97765127915 -0.16808475725 -0.12701969114 -0.97755486416 -0.17042333707 -0.12359589065 -0.97758884097
-0.17223891968 -0.11977603782 -0.97774610984 -0.17352126928 -0.11562418191 -0.9780191295 -0.17426008766 -0.11120555616 -0.97840009512
-0.17444659486 -0.10658623225 -0.97888087152 -0.17407225575 -0.10183254069 -0.97945341055 -0.17313015416 -0.097010767462 -0.98010961668
-0.17161573685 -0.092186416389 -0.98084132432 -0.16952630268 -0.087423609211 -0.98164043583 -0.16686467845 -0.08278366837 -0.98249836811
-0.16363798464 -0.078324622826 -0.98340625554 -0.15985814921 -0.074100238865 -0.98435487845 -0.1555440984 -0.070158430074 -0.98533437377
-0.15072116951 -0.066540802116 -0.98633435037 -0.14542233507 -0.063281147281 -0.98734383112 -0.13968799037 -0.060404930522 -0.98835141003
-0.13356511241 -0.057928504174 -0.98934556609 -0.12710758025 -0.055858630644 -0.99031483702 -0.12037471014 -0.054192710545 -0.99124824302
-0.11342978591 -0.052918730606 -0.99213572238 -0.10633969102 -0.052015916035 -0.99296838549 -0.099170714244 -0.051455522909 -0.99373915018
-0.091987606453 -0.051202675156 -0.99444284216 -0.084852254753 -0.051217172107 -0.99507632679 -0.077820199591 -0.051455544825 -0.99563866108
-0.070939893604 -0.051873095003 -0.99613087168 -0.064251271472 -0.052424743854 -0.99655577884 -0.057784507557 -0.053067239517 -0.99691765898
-0.051559891552 -0.053760109648 -0.99722185505 -0.045589538992 -0.054466587755 -0.9974743028 -0.039875299166 -0.055154631812 -0.99768127531
-0.034411642848 -0.0557968517 -0.99784896161 -0.029186381503 -0.05637060348 -0.9979832214 -0.024180701289 -0.05685825821 -0.99808939087
-0.019372177654 -0.057246528057 -0.99817210628 -0.014734945959 -0.057526240744 -0.99823524932 -0.010240623052 -0.057691975752 -0.99828190686
-0.0058593896199 -0.057741205053 -0.99831438976 -0.0015603163951 -0.05767446165 -0.99833422354 0.0026869347589 -0.057494345286 -0.9983422162
0.006912167193 -0.057205550349 -0.99833849317 0.011145589429 -0.056814824393 -0.99832251881 0.015415997846 -0.056330292917 -0.99829316591
0.019750415275 -0.055761196938 -0.99824877161 0.024174881599 -0.05511810865 -0.99818714137 0.028713643001 -0.054412844442 -0.99810559014
0.033388764931 -0.053657802762 -0.99800101732 0.038220011465 -0.052866238967 -0.99786992715 0.043224550962 -0.052051853494 -0.99770849588
0.048416166732 -0.051228119948 -0.99751268389 0.053805240615 -0.050408587485 -0.99727828132 0.059398054236 -0.049606112397 -0.99700105555
0.065196297254 -0.048832476951 -0.99667689449 0.07119676751 -0.048097838547 -0.9963019714 0.077391095411 -0.047410287867 -0.9958729251
0.083766136037 -0.046775812444 -0.99538698898 0.090302391449 -0.046197439523 -0.99484233659 0.096975594421 -0.045675394589 -0.99423814673
0.10375732599 -0.0452072171 -0.9935747203 0.11061428732 -0.044787225184 -0.99285375756 0.11750849915 -0.044407084884 -0.99207850669
0.12439970252 -0.044056360764 -0.99125362602 0.13124499702 -0.043722466102 -0.99038532739 0.13799963204 -0.043391603553 -0.98948131377
0.14461870874 -0.04304928866 -0.98855054895 0.15105690729 -0.04268114992 -0.98760322509 0.15726973621 -0.042273488266 -0.98665048637
0.1632124124 -0.041813543431 -0.98570448717 0.16884342348 -0.041290897444 -0.98477761964 0.17412342103 -0.040697836103 -0.98388247285
0.17901535353 -0.040029696668 -0.98303159999 0.18348486964 -0.03928512074 -0.982237233 0.18749916134 -0.038466515757 -0.98151127944
0.1910304898 -0.037580598806 -0.98086444046 0.1940542588 -0.036638045672 -0.98030637979 0.19654794911 -0.035653263731 -0.97984577791
0.1984931742 -0.03464458058 -0.97948977168 0.19987691508 -0.033633806189 -0.97924357843 0.20069009363 -0.032645439898 -0.97911069935
0.20092825791 -0.031706063258 -0.97909272325 0.20059312905 -0.03084343823 -0.97918899039 0.19969208789 -0.030085669018 -0.97939671357
0.19823776293 -0.029459753712 -0.97971113715 0.19625276233 -0.028990838615 -0.98012467807 0.19376517011 -0.028700771337 -0.98062802559
0.19080935834 -0.028606874577 -0.98121018925 0.18743121236 -0.028721485341 -0.98185773761 0.18368033935 -0.029050284387 -0.98255667211
0.1796125847 -0.029592319505 -0.98329223227 0.1752914963 -0.030339656179 -0.98404898079 0.17078546078 -0.031277255964 -0.9848116874
0.16616592382 -0.032383469641 -0.9855659271 0.16150529981 -0.033630077414 -0.98629866472 0.15688022661 -0.034984012279 -0.98699782846
0.15236666796 -0.036408144919 -0.98765320102 0.14803764542 -0.037862207052 -0.98825670188 0.14396391773 -0.039304132657 -0.98880209119
0.14021332762 -0.040691403733 -0.98928480855 0.13684955913 -0.041982774517 -0.9897017959 0.13392878498 -0.043139110574 -0.99005156315
0.1315017278 -0.04412441249 -0.99033344476 0.12961183312 -0.044907315682 -0.99054737681 0.12829371122 -0.045461651089 -0.99069367715
0.12829371122 -0.045461651089 -0.99069367715
NormalArray 3 202 double
-0.76590323294 -0.54792319683 -0.33641107021 -0.76590323294 -0.54792319683 -0.33641107021 -0.76642194462 -0.54865744246 -0.33402457041
-0.76783175738 -0.54982401873 -0.3288281326 -0.76986359432 -0.55164075965 -0.32094005427 -0.77237516347 -0.55406555648 -0.31056072831
-0.77522693869 -0.55699224204 -0.29796448756 -0.77822828695 -0.56035425613 -0.28348516899 -0.78120125234 -0.56406216832 -0.26750415625
-0.78395738655 -0.56806176935 -0.25043290972 -0.78633613189 -0.57230305844 -0.23269013082 -0.78815900426 -0.57681628693 -0.21468198606
-0.78931478236 -0.58159800441 -0.19678906376 -0.78965492903 -0.586752706 -0.17934981201 -0.78901118339 -0.59245811204 -0.16264912529
-0.78727064444 -0.59884964953 -0.14691504233 -0.78426801993 -0.60614867469 -0.13231574767 -0.77969838766 -0.61475091515 -0.11896107181
-0.77321645835 -0.62506574462 -0.10690707849 -0.76440849337 -0.63752071412 -0.09616129327 -0.75230947968 -0.65308321117 -0.086676214014
-0.73592764179 -0.6725097715 -0.078365255662 -0.71316031054 -0.6973887694 -0.071072327852 -0.68070754853 -0.72970486339 -0.064560403669
-0.63206497106 -0.77271033435 -0.058417561996 -0.5544167049 -0.83062113428 -0.051871462449 -0.41967479993 -0.9066444316 -0.043231203393
-0.16116226165 -0.9865241568 -0.028227884456 0.3085457162 -0.95120934369 0.00057051580238 0.79467481944 -0.60598724231 0.035656605447
0.97708907276 -0.20582441879 0.05415951007 0.99680337549 0.051712008707 0.06090072878 0.97486043546 0.2134982761 0.063762194762
0.94217454885 0.32868784913 0.065356081025 0.90413241601 0.42206814745 0.066355506421 0.85925544784 0.50716377266 0.066820528662
0.80349603862 0.59157909142 0.066545431914 0.7290233479 0.68139126021 0.065045435812 0.62439487677 0.77868366645 0.061504353173
0.47092094126 0.88049152289 0.054480686428 0.24671644661 0.96818027327 0.041927955068 -0.053448093498 0.99832015365 0.022364527965
-0.38116795541 0.92450377708 -0.001938023669 -0.64862438933 0.76072113303 -0.024284961148 -0.81954718705 0.57159469773 -0.040272940383
-0.91405499285 0.40249460311 -0.050015642704 -0.96315309746 0.26318842794 -0.055389188879 -0.98692348367 0.15044080793 -0.0578757349
-0.99664937116 0.057197050158 -0.058468183039 -0.99809741349 -0.021645891442 -0.057732214232 -0.9943638693 -0.090008834683 -0.056025932389
-0.98706333141 -0.15110724596 -0.053596455189 -0.97706685846 -0.20683174601 -0.050606155081 -0.96478853754 -0.25876025121 -0.047182732375
-0.95037489162 -0.30806125906 -0.043426098777 -0.93392216358 -0.35529724944 -0.039411380548 -0.91538297001 -0.40104210556 -0.035202951364
-0.89464322264 -0.44571477433 -0.030851971302 -0.87164595388 -0.48942472057 -0.026396476648 -0.84638092721 -0.53212904654 -0.021863299897
-0.81908752515 -0.57340861015 -0.017268235262 -0.7897479373 -0.61330159189 -0.012623506523 -0.7590439244 -0.65099115747 -0.0079267725893
-0.72762413153 -0.68596870934 -0.0031706500581 -0.69603154097 -0.71800929396 0.0016576390402 -0.66557516658 -0.74630178395 0.0065836843007
-0.63720656707 -0.77060517848 0.011638289729 -0.61188297381 -0.79076861284 0.016859042454 -0.59035960561 -0.80683255249 0.022288299923
-0.57343652409 -0.81877227257 0.02797353237 -0.5613236132 -0.82689935744 0.033959592556 -0.55415885275 -0.8314353999 0.0402882329
-0.55191337803 -0.83257620212 0.046994582919 -0.55395313804 -0.83078830313 0.054099133408 -0.56040366461 -0.82592434036 0.061617503151
-0.57040018074 -0.81841779428 0.069540979469 -0.58357420484 -0.8083198008 0.077847588794 -0.59955179792 -0.79564825296 0.086495659875
-0.61789324348 -0.78045029293 0.095421590467 -0.63848853517 -0.76249832517 0.10454039684 -0.66096199672 -0.74174890653 0.11374444407
-0.68518748202 -0.71792274365 0.12290259813 -0.71125093266 -0.69046063063 0.13185684788 -0.73906013991 -0.65884017944 0.14042694742
-0.76860451366 -0.62227279562 0.14840373788 -0.7998617093 -0.5796796978 0.15554000756 -0.83275908621 -0.52954631746 0.16153328451
-0.86661417722 -0.47054321477 0.16603900409 -0.90091351499 -0.39992977883 0.16855566 -0.93382450121 -0.31556374184 0.16849725748
-0.96253200613 -0.21510157962 0.16511646682 -0.9828474752 -0.096033232566 0.15744350964 -0.9886222066 0.041535195437 0.14457164369
-0.97272736634 0.19488568833 0.12578171272 -0.92882493279 0.35645497153 0.10111427937 -0.8540684115 0.51520786715 0.071610069828
-0.75160176209 0.65843427735 0.039485359595 -0.62893525187 0.77742502391 0.0071260887496 -0.4960321782 0.86799237299 -0.023266255058
-0.36085331312 0.93125363014 -0.050512995868 -0.22844577834 0.97072259987 -0.074230455073 -0.10122682598 0.99036159888 -0.094535882914
0.019508057734 0.99355490766 -0.11166056215 0.13465958218 0.9828334074 -0.1261161775 0.24360245807 0.95999985627 -0.13805114411
0.34718540215 0.92607865463 -0.14778572995 0.44478311175 0.88205943616 -0.15536773987 0.53549397647 0.82908874882 -0.16080437724
0.61889846497 0.76812458933 -0.16416243575 0.69390475614 0.70080264666 -0.16544437085 0.75975584222 0.62899771893 -0.16472076311
0.81620250038 0.55455005127 -0.16213487909 0.86307642787 0.47976714718 -0.15786881943 0.90102735432 0.40619400629 -0.1521714034
0.93072493287 0.33561638207 -0.14530224847 0.95326177275 0.26903241731 -0.13752654673 0.96971220123 0.20734668193 -0.12909531468
0.98120600729 0.15092848789 -0.12023045702 0.9887473807 0.10013982196 -0.11113340278 0.99327274936 0.054883311768 -0.10196601138
0.99556406768 0.015088997775 -0.092868236156 0.99628265455 -0.019260181307 -0.083963787841 0.99597939278 -0.04846229293 -0.075342254556
0.99510283478 -0.072593110316 -0.067086425907 0.9940227132 -0.091687213425 -0.059264665131 0.99301687434 -0.10593327733 -0.051919437893
0.99231721542 -0.11520826893 -0.045095440512 0.99205286654 -0.1196878627 -0.038806256217 0.99231403436 -0.11924481296 -0.033068592193
0.99308576816 -0.11403451299 -0.027870897331 0.99430574249 -0.10400800595 -0.023203989979 0.99579452084 -0.089618748638 -0.019019783275
0.99735749712 -0.071024305815 -0.015283027453 0.99872418657 -0.04907188359 -0.011914251611 0.99966450458 -0.024343202438 -0.0088479815814
0.99997987001 0.0020922172731 -0.0059901759189 0.99957183868 0.029079673753 -0.0032422036431 0.99844792861 0.055690784259 -0.00052000278729
0.99674165503 0.080627971911 0.0022810674703 0.99466279235 0.10304595182 0.0052403560455 0.99246315807 0.12225324073 0.0084276336193
0.99037333453 0.13791033632 0.011891063179 0.98862618932 0.14957361249 0.015684139576 0.9873444775 0.15734613412 0.019826165009
0.98659209908 0.16138173585 0.024330338252 0.98637973907 0.16187071263 0.029204156141 0.98663684191 0.15925413157 0.034436372819
0.98725335767 0.15404624312 0.040007033891 0.98814222174 0.14651809334 0.045906404194 0.98914745614 0.13738066749 0.052094742654
0.99018240508 0.12692671511 0.058552657185 0.99112103616 0.11586078711 0.065233194773 0.99191127313 0.10446123726 0.072110166708
0.99249421312 0.093230082515 0.079141573368 0.99283954481 0.08261140851 0.086284375439 0.99294870729 0.072871252834 0.093502113349
0.99283031807 0.064317644319 0.10075316452 0.99249669718 0.057349899529 0.10798747665 0.99197883431 0.052107399103 0.11516427938
0.99129866845 0.048843374859 0.12223450683 0.99047186207 0.047822545011 0.12914524624 0.98950906559 0.049165870501 0.13584743756
0.98839826708 0.053148032928 0.14228194627 0.98711381079 0.059878738064 0.14839427645 0.98559145341 0.06970068794 0.15411457124
0.98372694834 0.08296962673 0.15936540448 0.98138382592 0.099824098159 0.16407600568 0.97831886186 0.12092222982 0.16813690512
0.97421427199 0.1466834567 0.17143662324 0.96849906483 0.17834853382 0.17378539037 0.96035331946 0.21705709051 0.17495062521
0.9483455705 0.26490329784 0.17454776339 0.92980507047 0.32544574052 0.1718941561 0.89914632786 0.40509978527 0.16562018316
0.84404126531 0.51403029631 0.15286332763 0.73212613658 0.66932975657 0.12644760614 0.47539189429 0.87712697996 0.068196831791
-0.054729358192 0.99755168967 -0.043535316484 -0.59825074846 0.78764172281 -0.14736539098 -0.84562328528 0.49966521521 -0.18776563077
-0.93348731298 0.29907491119 -0.19787782595 -0.96606299752 0.16548914395 -0.19833211556 -0.97822998942 0.070055066582 -0.19534168895
-0.98162250242 -0.0024970169643 -0.19081673837 -0.98077809967 -0.060684704289 -0.18544995518 -0.97772049779 -0.10872065127 -0.17956182274
-0.97341760733 -0.14974821342 -0.1733021475 -0.96845807312 -0.18510628312 -0.16680714778 -0.96312252215 -0.21620491776 -0.16015755011
-0.95769406113 -0.24345398854 -0.1534673931 -0.95234329039 -0.26736411815 -0.14682876275 -0.94705555127 -0.28879584709 -0.14029519422
-0.94205019919 -0.30754999105 -0.13399412377 -0.93731302638 -0.32413472719 -0.12798816042 -0.93300356323 -0.33841613827 -0.12238818718
-0.92902044547 -0.35096543621 -0.11723597778 -0.92545653745 -0.36172714112 -0.11262181256 -0.92239447496 -0.37066001883 -0.10862588553
-0.91975338596 -0.37811271336 -0.10528288086 -0.91758918002 -0.38404713696 -0.10265424152 -0.91605186311 -0.38818219992 -0.10081450176
-0.91605186311 -0.38818219992 -0.10081450176
BinormalArray 3 202 double
-0.58008320573 0.81453520083 -0.0059900779263 -0.58008320573 0.81453520083 -0.0059900779263 -0.58032177656 0.8143644701 -0.0060947100354
-0.58044720379 0.81427466685 -0.0061490271945 -0.58071505361 0.81408280169 -0.0062624676314 -0.58116259071 0.81376193741 -0.0064461134498
-0.58178578457 0.81331452887 -0.0066916369515 -0.5826285558 0.81270834812 -0.0070076292018 -0.58371489276 0.811925047 -0.0073920245208
-0.58509596871 0.81092607035 -0.0078495746713 -0.58681303185 0.80967911543 -0.00837828617 -0.58896665458 0.80810732638 -0.0089904861681
-0.59160464213 0.80617012577 -0.0096786222701 -0.59486009455 0.80376127356 -0.01045385256 -0.59892028812 0.80072845405 -0.011332756016
-0.60391654065 0.79695245002 -0.01231277081 -0.61005407636 0.79224644147 -0.013401488815 -0.61770405397 0.78627458472 -0.014628025393
-0.62724814652 0.77865483683 -0.016012737898 -0.63908540321 0.7689350351 -0.017571544922 -0.65415285633 0.75611399726 -0.019382045983
-0.67318092844 0.73916563851 -0.021484795422 -0.69773129376 0.71595719259 -0.024007084106 -0.72976396476 0.6831614005 -0.027111927305
-0.77250425274 0.63424757129 -0.031099803965 -0.83013643688 0.55636854097 -0.036435460599 -0.90582444525 0.42138350647 -0.043795146458
-0.98525784775 0.1624869402 -0.053525393136 -0.94947400965 -0.30801892612 -0.060195067429 -0.60426196019 -0.79528676532 -0.04885124743
-0.20452395871 -0.97844340948 -0.028608473456 0.052634115226 -0.99852078171 -0.013634456972 0.21414649662 -0.97679552842 -0.0034312735675
0.32912260469 -0.94427737023 0.0043080338209 0.42231485591 -0.90638301782 0.010953879409 0.50722128391 -0.86164087705 0.017365717542
0.59142460468 -0.80599946717 0.024120445637 0.68097527553 -0.73161509183 0.031812442742 0.77792994572 -0.62701962021 0.040882703079
0.87929349729 -0.47347438876 0.051623142179 0.9664270207 -0.24901254001 0.063336944894 0.99597914229 0.051683515712 0.073173508313
0.92172826767 0.38018433062 0.076660780965 0.75780100999 0.6484482099 0.072474466793 0.56875815308 0.81999969529 0.064145639183
0.39984403451 0.91491149183 0.055332722637 0.26075216659 0.96423604745 0.047509498249 0.14821889027 0.98810587631 0.040962638814
0.055183234391 0.99784505714 0.035497219515 -0.023458684069 0.99924686888 0.030909305482 -0.091627009491 0.99542696818 0.027011889099
-0.1525364604 0.98801512254 0.023637806381 -0.20807821274 0.97789338522 0.020687787041 -0.25983114407 0.96548481421 0.018078995992
-0.30896516191 0.950942895 0.015752433619 -0.35604452802 0.93436883272 0.013681320069 -0.40164469019 0.91571903183 0.011840506223
-0.44618596793 0.8948819741 0.010214423639 -0.48977898525 0.8718022051 0.0088011808865 -0.53238165831 0.84647028541 0.0076043277511
-0.57357538424 0.8191258978 0.0066364261574 -0.61339859286 0.78975147829 0.0058965093215 -0.65103460335 0.75902886442 0.0053970568097
-0.68597495885 0.72760702111 0.0051360168528 -0.71799505068 0.69602951152 0.0051015975332 -0.74628448209 0.66560624651 0.0052722293343
-0.77060361567 0.63729002597 0.005611623375 -0.79080378268 0.61203963335 0.0060716149044 -0.80692863683 0.59061211531 0.0065957803873
-0.81895785392 0.57380956574 0.0071144763058 -0.82720852935 0.56184413592 0.0075641192458 -0.83190899794 0.55485617857 0.0078765633783
-0.83326295647 0.55281924054 0.0079832745318 -0.83174526037 0.55510204714 0.0078446871217 -0.82721849199 0.56183198089 0.0073750775612
-0.82012501747 0.57214684648 0.0065529980826 -0.81052521021 0.58567951935 0.0053276841508 -0.79844528027 0.60205631647 0.0036505075015
-0.78393870994 0.62083645052 0.0014834954657 -0.76678287553 0.64190534164 -0.0012466671082 -0.746935248 0.66488100471 -0.0045809246445
-0.72411473908 0.68962598151 -0.0085936184042 -0.69775792644 0.7162082177 -0.013403917368 -0.66733400009 0.74451313222 -0.019118793711
-0.63204379577 0.77450026717 -0.025883901902 -0.59079616107 0.80610907316 -0.033883008044 -0.54206349746 0.83921838442 -0.043355137775
-0.48449710736 0.87309594335 -0.054461240111 -0.41534061082 0.90715338571 -0.067564131065 -0.33242004094 0.9394888619 -0.082810595566
-0.23334555805 0.9672118491 -0.10025512211 -0.11553797342 0.98605162019 -0.11980475376 0.021004763733 0.98982399961 -0.14073823111
0.17370070158 0.97141573291 -0.16180092748 0.33512506849 0.92460975162 -0.18107455833 0.49433014446 0.84677202987 -0.19650658439
0.63858661638 0.74132870619 -0.2064918467 0.75907046006 0.61601650161 -0.21056045787 0.8514152714 0.48095040934 -0.20923369561
0.91657986065 0.34412261929 -0.20361969929 0.95796810775 0.21054377849 -0.19485487388 0.97948279799 0.082566504924 -0.18383748451
0.98447337253 -0.038574869403 -0.17124298007 0.97548226365 -0.15384611454 -0.15737130087 0.95429753858 -0.26265792767 -0.14257286169
0.92196005087 -0.36589614657 -0.12692389265 0.87944801791 -0.46295600616 -0.11064773001 0.82789031897 -0.55295452871 -0.094015471716
0.76823648705 -0.63549183214 -0.077219370912 0.70209797147 -0.7094961628 -0.060610505874 0.63132962362 -0.7742348896 -0.044533605959
0.55776034947 -0.82948572157 -0.029271663218 0.48368525316 -0.8751108392 -0.015152392288 0.41065432192 -0.91178817366 -0.002313929702
0.34045772142 -0.94021589674 0.0090888633609 0.27410883908 -0.96150994369 0.019051837698 0.21252805918 -0.97676532679 0.027592035898
0.15610398753 -0.98712724585 0.0348043903 0.10521638309 -0.99361278199 0.040781763008 0.05978641003 -0.99716606002 0.045666551482
0.019760247961 -0.99857428777 0.049587542766 -0.014864962696 -0.99850180105 0.052661049996 -0.04437415569 -0.99749873838 0.055020007598
-0.068832257712 -0.99601175814 0.056768811408 -0.088264487495 -0.99440690923 0.058002406165 -0.10285153359 -0.99295619684 0.058817966579
-0.11246386783 -0.99188553038 0.059287208158 -0.11727192304 -0.99131640072 0.059490248996 -0.11714443104 -0.99133175132 0.059485637798
-0.11223411205 -0.99190868591 0.059335174265 -0.10249022191 -0.99297768845 0.059085232089 -0.08836609049 -0.99435185843 0.058786186181
-0.070019580673 -0.99583049914 0.058471149412 -0.048299901844 -0.99713724325 0.058175919547 -0.02379092101 -0.9980375967 0.057921909918
0.0024345705863 -0.99832939247 0.057727783607 0.029218225866 -0.99791183431 0.057604394185 0.055628358199 -0.99679132059 0.057554747462
0.080363518265 -0.99510132909 0.057576468955 0.10257536426 -0.99305267108 0.057660099748 0.12156984366 -0.9908991085 0.057790396099
0.13700576391 -0.98887381806 0.057948188962 0.14843797657 -0.98721311202 0.058107130089 0.15596925802 -0.98604332381 0.058242202188
0.15975362406 -0.98543227851 0.058326701102 0.15998200232 -0.98539486155 0.05833288749 0.15709672304 -0.98586445626 0.058239964673
0.15161359628 -0.98673473371 0.058033462017 0.14380523532 -0.98792278171 0.057694294899 0.13438445284 -0.98927538421 0.057227904225
0.12364565296 -0.99070934092 0.056628211321 0.11229475493 -0.99210023482 0.055919693101 0.10061135414 -0.99339826581 0.055111168577
0.089098099725 -0.99454521018 0.054234246939 0.078199209455 -0.99551049807 0.053326652577 0.068180633446 -0.99629490556 0.052420057072
0.059349615283 -0.99690498452 0.051556522521 0.052103603809 -0.99734903293 0.050794891335 0.04658052076 -0.99765366223 0.050173950561
0.043030964905 -0.99783433585 0.049749113065 0.041716198247 -0.99789846685 0.049582342192 0.042754071981 -0.9978476266 0.049721257124
0.04641438055 -0.99765828085 0.050236042205 0.052802796466 -0.99729276352 0.051176249531 0.062255257138 -0.99667184484 0.052626197546
0.075119901105 -0.99567447925 0.054674782414 0.091529692244 -0.99414798255 0.057376861388 0.11213045429 -0.99182735417 0.060870853031
0.1373319171 -0.98837320225 0.065256092655 0.16835339032 -0.98318283131 0.070771860177 0.20631424164 -0.9754007108 0.077639468528
0.25327461555 -0.96354239211 0.086244001151 0.31273866976 -0.9448506356 0.097220372593 0.39103041416 -0.91357704041 0.11167903314
0.4981915317 -0.85707211337 0.13127296078 0.6511839517 -0.74220377528 0.1584077555 0.85657809519 -0.47914771864 0.19155007325
0.97807593393 0.062332591652 0.19870107069 0.77579535868 0.61536103128 0.13954340774 0.49501952428 0.86569597737 0.074338047798
0.29883645335 0.95377477447 0.03178763501 0.1679498083 0.98578540997 0.0044707251834 0.074304418772 0.99713015869 -0.014501723348
0.0030085720136 0.99958762079 -0.028557606013 -0.054257348292 0.99774367597 -0.039543611509 -0.10160787929 0.9936477751 -0.048372904632
-0.14211784253 0.98828121868 -0.055702348515 -0.17709277773 0.98225005432 -0.061830242305 -0.2079118412 0.97584689721 -0.067048486153
-0.23497014925 0.96937168638 -0.071467213468 -0.25876301006 0.96300853902 -0.07520810064 -0.28013278514 0.95675131439 -0.078438160971
-0.29887425565 0.95083513292 -0.081158667541 -0.31548240222 0.94525294599 -0.083472881688 -0.32981622367 0.94017535732 -0.085390608907
-0.34243427786 0.93550386009 -0.087013177714 -0.35327382503 0.93133824254 -0.088355432926 -0.36228650695 0.92776622464 -0.08943332321
-0.36981212067 0.92470741979 -0.090306052901 -0.37580695766 0.92222075968 -0.090983520402 -0.37998645734 0.9204606553 -0.091446565236
-0.37998645734 0.9204606553 -0.091446565236
