# vtk DataFile Version 4.1
vtk output
ASCII
DATASET POLYDATA
POINTS 203 float
-3.10699 4.81764 197.8 -3.23178 4.6867 194.188 -3.35702 4.556039999999999 190.577
-3.4841 4.42655 186.966 -3.61437 4.2990699999999995 183.356 -3.74914 4.17442 179.747
-3.88967 4.05338 176.139 -4.03714 3.93665 172.534 -4.19258 3.82484 168.93
-4.35695 3.7184799999999996 165.329 -4.53101 3.61796 161.732 -4.71538 3.5235899999999996 158.139
-4.91051 3.43551 154.552 -5.11665 3.35377 150.97 -5.33386 3.27827 147.396
-5.56201 3.2088099999999997 143.831 -5.80077 3.1450499999999995 140.275 -6.04962 3.08655 136.732
-6.30788 3.0327899999999994 133.203 -6.57469 2.98315 129.689 -6.84906 2.9369300000000003 126.193
-7.12988 2.8934100000000003 122.718 -7.41594 2.8517900000000003 119.265 -7.706 2.8112699999999995 115.838
-7.99875 2.77102 112.439 -8.29292 2.7302099999999996 109.069 -8.58724 2.6880499999999996 105.733
-8.88054 2.64375 102.432 -9.17171 2.59654 99.168 -9.45978 2.5457099999999997 95.9435
-9.74391 2.4905999999999997 92.7602 -10.0234 2.43058 89.6194 -10.2979 2.36508 86.5226
-10.5668 2.2935999999999996 83.4704 -10.8302 2.2156700000000003 80.4635 -11.0881 2.13091 77.502
-11.3406 2.03895 74.5858 -11.5883 1.9394999999999998 71.7144 -11.8315 1.8323299999999998 68.8872
-12.0711 1.7172200000000002 66.1029 -12.3077 1.5940399999999997 63.3604 -12.5424 1.4626599999999996 60.658
-12.7762 1.3230000000000004 57.9942 -13.01 1.1750299999999996 55.367 -13.2449 1.0187299999999997 52.7744
-13.4822 0.8541299999999996 50.2146 -13.7228 0.68126 47.6853 -13.9679 0.5001899999999999 45.1846
-14.2185 0.3110199999999992 42.7105 -14.4754 0.11385999999999896 40.2611 -14.7395 -0.09116999999999997 37.8345
-15.0116 -0.30391999999999975 35.4291 -15.2923 -0.5242199999999997 33.0434 -15.5819 -0.7520199999999999 30.676
-15.8808 -0.9869199999999996 28.3258 -16.1891 -1.2289200000000005 25.9917 -16.5067 -1.477920000000001 23.673
-16.8336 -1.7335200000000004 21.3691 -17.1693 -1.9957200000000004 19.0794 -17.5133 -2.2644199999999994 16.8036
-17.8649 -2.53942 14.5414 -18.2236 -2.8207199999999997 12.2927 -18.5882 -3.108320000000001 10.0574
-18.9581 -3.4020200000000003 7.83513 -19.332 -3.702020000000001 5.62585 -19.7092 -4.008319999999999 3.42922
-20.0885 -4.3211200000000005 1.24483 -20.469 -4.64052 -0.927866 -20.8497 -4.9667200000000005 -3.08957
-21.2299 -5.29992 -5.24115 -21.6086 -5.640320000000001 -7.38359 -21.9853 -5.98812 -9.51802
-22.3593 -6.34352 -11.6456 -22.7303 -6.706819999999999 -13.7677 -23.0977 -7.077920000000001 -15.8853
-23.4614 -7.456919999999998 -17.9997 -23.8212 -7.843819999999999 -20.1117 -24.177 -8.23832 -22.222
-24.5288 -8.640220000000001 -24.3309 -24.8765 -9.04902 -26.4384 -25.2202 -9.46402 -28.5439
-25.56 -9.88462 -30.6466 -25.8959 -10.30992 -32.7448 -26.2279 -10.738719999999999 -34.8366
-26.556 -11.16992 -36.9194 -26.8801 -11.60222 -38.9903 -27.2003 -12.03422 -41.0458
-27.5162 -12.464419999999999 -43.0824 -27.8277 -12.891319999999999 -45.0962 -28.1345 -13.31332 -47.083
-28.4364 -13.72902 -49.0389 -28.7331 -14.136719999999999 -50.96 -29.0242 -14.53532 -52.8426
-29.3095 -14.923219999999999 -54.6833 -29.5885 -15.29952 -56.4792 -29.8611 -15.663020000000001 -58.2278
-30.1269 -16.013019999999997 -59.9273 -30.3858 -16.34872 -61.5763 -30.6376 -16.669620000000002 -63.1742
-30.8822 -16.975520000000003 -64.721 -31.1196 -17.266219999999997 -66.2171 -31.3498 -17.541719999999998 -67.6638
-31.5729 -17.80232 -69.0627 -31.789 -18.048119999999997 -70.416 -31.9984 -18.27982 -71.7262
-32.2012 -18.49772 -72.9961 -32.3978 -18.702620000000003 -74.2289 -32.5884 -18.89512 -75.4278
-32.7734 -19.075920000000004 -76.5961 -32.9531 -19.245820000000002 -77.7373 -33.1278 -19.40562 -78.8545
-33.2978 -19.555819999999997 -79.9509 -33.4635 -19.697319999999998 -81.0297 -33.6251 -19.830820000000003 -82.0935
-33.7829 -19.95682 -83.1449 -33.937 -20.07602 -84.1861 -34.0877 -20.18882 -85.2193
-34.2351 -20.295920000000002 -86.2459 -34.3793 -20.397620000000003 -87.2676 -34.5203 -20.494419999999998 -88.2852
-34.6583 -20.58652 -89.2998 -34.7932 -20.67432 -90.3119 -34.925 -20.758020000000002 -91.3219
-35.0536 -20.837919999999997 -92.33 -35.1791 -20.91422 -93.3362 -35.3012 -20.986919999999998 -94.3405
-35.42 -21.05632 -95.3428 -35.5353 -21.12252 -96.3428 -35.6471 -21.185720000000003 -97.3405
-35.7552 -21.245820000000002 -98.3358 -35.8596 -21.30312 -99.3287 -35.9602 -21.35772 -100.319
-36.057 -21.40952 -101.308 -36.1498 -21.45892 -102.294 -36.2388 -21.50582 -103.28
-36.3238 -21.550420000000003 -104.265 -36.4049 -21.592820000000003 -105.251 -36.4821 -21.633119999999998 -106.238
-36.5553 -21.67152 -107.229 -36.6247 -21.70812 -108.223 -36.6902 -21.74302 -109.224
-36.7519 -21.77642 -110.232 -36.8098 -21.808320000000002 -111.249 -36.864 -21.839019999999998 -112.278
-36.9144 -21.86842 -113.319 -36.961 -21.89692 -114.376 -37.0039 -21.924419999999998 -115.449
-37.0429 -21.951120000000003 -116.54 -37.0781 -21.977020000000003 -117.651 -37.1094 -22.00242 -118.783
-37.1365 -22.027120000000004 -119.939 -37.1595 -22.051520000000004 -121.119 -37.178 -22.07542 -122.324
-37.1919 -22.09912 -123.556 -37.2009 -22.122619999999998 -124.815 -37.2047 -22.145919999999997 -126.102
-37.2031 -22.16912 -127.417 -37.1955 -22.192320000000002 -128.761 -37.1817 -22.21562 -130.135
-37.1612 -22.23912 -131.536 -37.1335 -22.26292 -132.967 -37.0982 -22.28702 -134.426
-37.0548 -22.311619999999998 -135.913 -37.0028 -22.33672 -137.427 -36.9417 -22.36242 -138.968
-36.871 -22.38892 -140.534 -36.7903 -22.41632 -142.125 -36.6991 -22.44462 -143.739
-36.597 -22.474019999999996 -145.375 -36.4837 -22.50452 -147.033 -36.3588 -22.53622 -148.71
-36.2221 -22.56922 -150.405 -36.0735 -22.60362 -152.118 -35.9129 -22.639319999999998 -153.846
-35.7402 -22.676319999999997 -155.588 -35.5555 -22.71472 -157.343 -35.3589 -22.754419999999996 -159.11
-35.1508 -22.795319999999997 -160.887 -34.9314 -22.837219999999995 -162.673 -34.7011 -22.88022 -164.468
-34.4604 -22.923919999999995 -166.27 -34.2098 -22.96832 -168.078 -33.95 -23.01312 -169.891
-33.6815 -23.058119999999995 -171.71 -33.4051 -23.10302 -173.532 -33.1214 -23.14772 -175.358
-32.8312 -23.19182 -177.187 -32.5352 -23.235219999999998 -179.018 -32.234 -23.27762 -180.851
-31.9285 -23.31872 -182.686 -31.6193 -23.35852 -184.523 -31.3069 -23.396719999999995 -186.361
-30.992 -23.43322 -188.2 -30.6751 -23.468019999999996 -190.04 -30.3566 -23.50092 -191.88
-30.037 -23.532019999999996 -193.721 -29.7165 -23.56142 -195.562 -29.3955 -23.58912 -197.403
-29.0742 -23.615319999999997 -199.245 -28.7527 -23.64022 -201.087 -28.4311 -23.66402 -202.929
-28.1095 -23.687019999999997 -204.771 -27.7879 -23.70942 -206.613
LINES 1 204
203 202 201 200 199 198 197 196 195 194 193 192 191 190 189 188 187 186 185 184 183 182 181 180 179 178 177 176 175 174 173 172 171 170 169 168 167 166 165 164 163 162 161 160 159 158 157 156 155 154 153 152 151 150 149 148 147 146 145 144 143 142 141 140 139 138 137 136 135 134 133 132 131 130 129 128 127 126 125 124 123 122 121 120 119 118 117 116 115 114 113 112 111 110 109 108 107 106 105 104 103 102 101 100 99 98 97 96 95 94 93 92 91 90 89 88 87 86 85 84 83 82 81 80 79 78 77 76 75 74 73 72 71 70 69 68 67 66 65 64 63 62 61 60 59 58 57 56 55 54 53 52 51 50 49 48 47 46 45 44 43 42 41 40 39 38 37 36 35 34 33 32 31 30 29 28 27 26 25 24 23 22 21 20 19 18 17 16 15 14 13 12 11 10 9 8 7 6 5 4 3 2 1 0 

CELL_DATA 1
FIELD FieldData 2
LengthArray 1 1 double
409.10788829 
TortuosityArray 1 1 double
0.0072387564054 
POINT_DATA 203
FIELD FieldData 8
RadiusArray 1 203 double
69.240696235 69.046071175 68.722894572 68.295274874 67.981752159 67.552396115 66.537341404 65.421924317 65.195929868 
65.063953705 65.011425661 64.386808148 64.292501353 64.121444239 63.316666272 63.245103027 62.587523597 61.652195373 
61.603133115 61.084316152 60.237831834 59.623832123 59.496104449 59.06939294 58.469543354 57.997368772 57.883764213 
56.788212496 56.579688818 56.412268937 55.647561169 55.583002536 55.411227851 54.798101464 54.699869301 54.496724466 
54.486957711 54.296670903 53.984022574 53.955484935 53.695403877 53.588307228 53.518932906 53.52825842 53.516601645 
53.241610887 53.079324349 53.069457692 53.077841018 53.069116865 52.735798263 52.652824946 52.587696823 52.491840802 
52.482409588 52.250875122 51.99406998 51.983707515 51.516216689 51.362156786 51.228436273 51.188410418 51.020874476 
51.20017824 51.204562001 51.224614977 51.208301293 51.06845031 50.976566982 50.983881 50.980046647 50.957904762 
50.846787168 50.792388296 50.74456953 50.727687757 50.511139034 50.467448938 50.444173554 50.033869159 49.999328757 
49.642992628 49.224538991 48.878840335 48.821411851 48.694971489 48.514409473 48.360662195 48.36370849 48.367046313 
48.361496257 48.384011648 48.545385425 48.60481985 48.654179108 48.685803001 48.747010187 48.751697938 48.79168166 
48.898169855 48.916816235 48.942957344 49.091323352 49.099676031 49.251531591 49.308587493 49.379484273 49.384862117 
49.402914551 49.449917944 49.51864252 49.541570338 49.633978814 49.659114498 49.690517937 49.702603563 49.81754723 
49.879313515 49.989242112 50.113667985 50.123085927 50.254227143 50.276084272 50.277197 50.425382028 50.462602855 
50.51257686 50.573733679 50.768516805 50.890683831 50.962051187 50.975243175 51.028997211 51.048911241 51.071485808 
51.087712063 51.19368175 51.204546739 51.258462004 51.303036309 51.373100442 51.409151628 51.439127395 51.480666681 
51.520354364 51.641101398 51.683656448 51.864199 51.88467532 51.913919635 51.923269591 51.943966962 51.998270994 
52.114683864 52.255703 52.275939728 52.33345035 52.403037895 52.507873659 52.525129437 52.495797578 52.443476979 
52.443454052 52.428747069 52.441894878 52.457236935 52.503583437 52.547863418 52.548710449 52.336148303 52.276266743 
52.211395179 52.110531026 51.977186722 51.737314505 51.548410164 51.322273374 51.243761665 51.050480815 50.977641353 
50.76397324 50.715381732 50.296944346 50.01411421 49.96151118 49.618557872 49.422779044 49.302866646 48.921342647 
48.382477388 48.379328356 47.788129636 47.741699124 47.565212077 47.342255951 46.750592706 46.449799369 46.431011539 
46.020019273 45.893107923 45.643062157 45.237773116 44.968326494 
EdgeArray 2 203 int
39882 39882 33886 33886 33027 34305 33027 33230 32708 
33430 31074 32708 32531 29759 32399 32399 32353 32128 
31021 32353 31021 31703 31727 31727 31769 30307 30307 
31569 31576 31576 31577 31575 30886 30886 30269 30348 
30348 23111 30867 30867 27990 26959 27807 29670 29671 
29674 24627 24627 29068 28377 29227 29227 27798 27798 
23817 23817 28536 27433 27258 19529 27459 28515 28515 
25433 28312 28312 27623 27037 26620 27037 23392 25618 
25206 23392 26420 26420 27415 27415 20060 26820 26800 
26032 26154 26800 26964 26658 26797 26797 26647 26647 
25397 25397 26664 26664 22711 22711 26017 26017 23017 
26045 26043 20056 25355 25355 25394 25394 25643 25643 
21621 24974 25644 25644 21606 21606 25292 25292 24963 
24963 24968 24968 24965 24965 24966 24966 23552 23552 
22285 22285 23892 23889 23892 23891 21145 23199 23199 
23199 21364 21364 21930 21930 22551 22551 21910 20892 
21874 14778 20845 20847 20848 20846 19388 20848 20007 
20007 20603 20603 20607 20607 17188 17188 11300 11300 
20036 20036 18393 18393 18604 18604 19394 19394 19397 
19397 16653 16653 18708 18708 18709 17293 17293 18504 
18503 18503 18344 18344 17283 17283 18500 18500 12153 
17798 17798 17798 16901 16330 16901 17077 17077 17001 
17001 17001 17488 16542 17094 17488 17094 16912 16912 
16912 17264 17263 17264 17264 17277 17277 15858 15858 
17004 17004 17780 17780 18430 18430 18427 18427 18432 
17267 17267 18157 18011 18157 18011 18011 16406 16406 
17454 17454 17195 17195 18159 18159 17973 17969 17973 
17974 17974 17974 17582 17975 17582 17582 17243 17243 
16982 16982 16981 16981 16269 16497 16497 16497 16793 
16793 14728 14728 13744 13744 13671 16546 16806 16546 
16806 16806 16805 16805 16797 16803 16797 16797 16662 
16662 14898 14898 16292 16466 16292 16292 16387 16387 
16244 16244 15189 15189 16169 16169 16522 16522 15690 
16523 15461 15690 15991 14369 16166 14369 16166 16166 
16163 16163 15020 15194 15020 15020 15558 15558 15125 
15125 15573 15573 15568 15568 15348 15569 15349 15349 
14682 14682 14888 14888 13944 13944 14203 14203 12706 
12706 13594 13594 12338 12338 13274 13274 10136 10136 
12585 12585 12715 12715 12222 12222 11120 13040 12445 
12447 11728 11951 11123 11948 11123 11403 8883 11403 
9430 11425 10713 11424 10851 9431 10091 10091 9816 
9816 9809 9809 9806 9807 9083 9536 9336 9800 
9330 10323 9330 10325 7614 9541 9538 9541 9087 
9520 9089 9520 9343 9343 8822 8822 8439 8569 
8816 8816 8819 8819 8815 8815 7410 7410 7100 
7100 
EdgePCoordArray 1 203 double
0 0 0.62 0.836 0.68 0.6 0.38 0 0.064 
0.256 0.016 0 0.684 0.308 0 0.292 0 0.94 
0.092 0 0.272 0.908 0.188 0 0.176 0 0 
0 0.756 0.636 0.776 0.348 0 0.632 0.768 0.024 
0.928 0 0 0.024 0.508 0.276 0.688 0 0 
0 0 0 0 0.908 0.908 0 0 0 
0.956 0 0 0 0 0 0 0 0 
0 0.972 0.904 0.212 0 0 0 0 0.032 
0.18 0.74 0.064 0.824 0 0 0 0 0 
0 0 0 0 0 0 0 0.192 0.088 
0 0 0 0 0.412 0 0.24 0.128 0.152 
0 0.856 0.984 0.8 0 0.652 0 0 0 
0 0 0 0 0.104 0.26 0.848 0 0 
0 0 0 0.972 0.452 0 0.996 0 0 
0 0 0.456 0 0 0 0 0.384 0.848 
0 0 0.948 0 0 0 0.968 0 0 
0 0 0 0 0.932 0.816 0.296 0.904 0 
0 0.424 0 0 0 0 0 0.932 0 
0 0 0 0 0 0 0 0 0 
0 0 0 0.012 0.204 0.368 0.068 0.724 0.784 
0.124 0.044 0.18 0 0 0 0.656 0.944 0.84 
0.112 0.096 0.676 0.264 0.184 0.488 0 0 0.996 
0 0 0 0 0 
CurvatureArray 1 203 double
0 4.1605766917e-05 0.0001661552474 0.00028921999282 0.00040864147393 0.00052214997395 0.00062772208695 0.00072340172607 0.00080738202868 
0.00087840246725 0.00093494112959 0.00097642081797 0.001002166021 0.0010118864185 0.0010059437192 0.00098454621119 0.00094875056785 0.00089950317346 
0.00083840313448 0.00076683142876 0.00068729626977 0.00060211839043 0.00051494861191 0.0004306304002 0.00035766506183 0.00030892292604 0.00029975225925 
0.00033373267132 0.00039878885419 0.0004806364319 0.00056950589532 0.00066005987364 0.00074902153326 0.00083493059833 0.00091672193282 0.00099463835491 
0.0010688882717 0.0011407509571 0.0012118764503 0.0012839383643 0.0013591581758 0.001439435819 0.0015260381866 0.0016197210165 0.0017199287122 
0.0018260023297 0.0019347438133 0.0020439199524 0.0021498654694 0.0022488961438 0.0023372999385 0.0024119535281 0.0024697618222 0.0025084445991 
0.0025268036471 0.002523779673 0.0025000431412 0.0024568449396 0.002394753695 0.0023181360252 0.0022299715313 0.0021341756648 0.0020370191526 
0.0019437720372 0.0018614564532 0.0017952066044 0.0017510417101 0.0017310158617 0.0017336939002 0.0017558082044 0.0017905754323 0.0018295233371 
0.0018651911969 0.0018894935722 0.0018974351927 0.0018847830237 0.001848616916 0.0017891987756 0.0017071139538 0.0016048712732 0.0014850544874 
0.0013508308069 0.001204533555 0.0010517309228 0.00089231462521 0.00072895320259 0.00056381943851 0.00039706489965 0.0002278504526 5.9154090513e-05 
0.00011828703214 0.00029727324086 0.0004832123329 0.00067742307295 0.00088297448545 0.001101362983 0.0013361688137 0.0015857740061 0.0018542915016 
0.0021388463726 0.0024422988038 0.0027575914076 0.0030835052374 0.0034147296606 0.0037422329806 0.0040570792254 0.0043536109085 0.0046204908486 
0.0048483956208 0.0050340319036 0.0051715473424 0.0052594671816 0.0052970219907 0.0052953112805 0.0052518625234 0.0051780241576 0.0050834634633 
0.0049742358839 0.0048605354183 0.0047458802144 0.0046411388766 0.0045401786329 0.0044593569916 0.0043906022386 0.0043490638938 0.0043146139869 
0.004301773314 0.0043070132932 0.0043243644947 0.0043538681275 0.0043965159598 0.0044449670582 0.0044936572965 0.0045457090671 0.0045915944779 
0.0046312879867 0.0046550509798 0.004670045548 0.0046577468903 0.004629942835 0.0045895806822 0.0045214861031 0.0044370082594 0.004333082982 
0.0042286859123 0.0041067945995 0.0039821455876 0.0038683705999 0.0037494827046 0.0036429759418 0.0035484377933 0.0034629796721 0.0033954781831 
0.0033449128934 0.0033080506884 0.0032867053112 0.0032749680994 0.0032809282666 0.0032964033524 0.0033201472601 0.0033540302997 0.0033905728713 
0.0034302384954 0.003471569319 0.0035122399666 0.003549801717 0.0035839466496 0.0036060258408 0.0036245582896 0.0036307662771 0.0036232769488 
0.0036048284154 0.0035683308608 0.0035176567738 0.0034496343081 0.0033657774945 0.0032628820368 0.0031447426422 0.0030088880323 0.0028572941221 
0.0026949340404 0.0025183268079 0.0023334514748 0.0021445644289 0.0019500970984 0.0017600171565 0.0015723767346 0.0013935769532 0.0012273822193 
0.0010774025852 0.00094411860995 0.0008320789775 0.00073953533794 0.00066414120128 0.00060234801759 0.00054849378252 0.000495611015 0.0004402403837 
0.00038070735782 0.00031170548488 0.00023580208585 0.00015171336844 0 
TorsionArray 1 203 double
-0.0 -0.0 -0.00016406768537 -0.00040181192916 -0.00064052087589 -0.00092241576954 -0.0012345065787 -0.0014754867513 -0.0017668905126
-0.0020993082383 -0.0024571722464 -0.0028401999927 -0.0032667972295 -0.0037938048996 -0.004404109565 -0.0051835418618 -0.0062108080124 -0.0075906453227
-0.0094862890445 -0.012241418749 -0.016416039074 -0.022860801096 -0.033175481013 -0.049964221692 -0.075493752559 -0.10387484628 -0.11110497909
-0.087892393266 -0.058063290156 -0.035579298386 -0.02054047247 -0.010250195213 -0.0027106423991 0.0032770965503 0.0083244054104 0.012788084455
0.016824800483 0.02053529647 0.023832247862 0.026635252793 0.028825103837 0.030192632022 0.030788023073 0.030578079794 0.029577943917
0.027957279868 0.025913667241 0.023542530101 0.021017884184 0.018428217644 0.015775059752 0.013112942919 0.010463447174 0.0077703038487
0.004960783785 0.0020080700593 -0.0011580840535 -0.00465813468 -0.0085479080569 -0.012951014116 -0.018021676469 -0.023656025786 -0.029804148642
-0.036392607878 -0.042821787035 -0.04821789227 -0.051816192732 -0.053051840703 -0.051618231352 -0.047930744374 -0.042803874249 -0.037184101214
-0.031499348412 -0.026315346281 -0.02177228049 -0.017655437667 -0.014225481387 -0.011319929141 -0.0086599382173 -0.0063678803141 -0.0045012943936
-0.0027961491454 -0.0011888628518 1.1008570925e-05 0.0010613852032 0.0020831204488 0.0016894985281 -0.0013846355478 -0.015376249942 -0.3515075638
-0.079644557541 -0.002907625602 0.0070467061994 0.011320247089 0.014137350921 0.015634281596 0.017256133103 0.018526121319 0.019140987428
0.020407019046 0.021510021033 0.022235576027 0.023211610193 0.02391533187 0.024860920783 0.025771130468 0.026425994705 0.027357012096
0.028795676061 0.029493511073 0.030162270219 0.031970444572 0.03290201908 0.03359367703 0.034771024129 0.036346270385 0.037024893232
0.037566693067 0.037990782077 0.038426716335 0.038353792624 0.037462423192 0.037494921746 0.037182310495 0.035774605706 0.034394100164
0.033529985645 0.03209838898 0.03107687603 0.029907498223 0.028452806943 0.027522077473 0.026568825706 0.025720412223 0.024993995514
0.023839207799 0.023271530326 0.022823743968 0.022054070028 0.021177382938 0.020619778385 0.020291295373 0.019494545931 0.019348897917
0.018591772056 0.01800901194 0.018105611615 0.017404398782 0.017131223958 0.017230029009 0.016495204384 0.016253630904 0.016276996224
0.015261854547 0.015051957038 0.014444418558 0.013768786394 0.013287715793 0.012315936359 0.011588835232 0.010927362603 0.010010872742
0.0091578292974 0.0084239789421 0.0075311644894 0.0067369151044 0.0061774936446 0.0052797900686 0.0044989127152 0.0038266980051 0.0028285189737
0.0021256911455 0.0015281991467 0.0004591657066 -0.00064301215642 -0.001646179814 -0.0026565198654 -0.0039750940211 -0.005435609755 -0.0071946277508
-0.009186335252 -0.011490033269 -0.014416466593 -0.017370688146 -0.021718620714 -0.026412601676 -0.031793802636 -0.038755715674 -0.046780500321
-0.055070516726 -0.063151954429 -0.070098981018 -0.074309123606 -0.074821090501 -0.07122051319 -0.063991637427 -0.054873808127 -0.04579885161
-0.03779867822 -0.030612506897 -0.020787908026 -0.0 -0.0
TangentArray 3 203 double
-0.034574658989 -0.036174108032 -0.99874722871 -0.034574658989 -0.036174108032 -0.99874722871 -0.0348938576 -0.035976231289 -0.99874327506
-0.03559359781 -0.035542880869 -0.99873409845 -0.036666546618 -0.034880227342 -0.99871864612 -0.038099091207 -0.033999726259 -0.99869538793
-0.039871520037 -0.032917997289 -0.99866243914 -0.041958500652 -0.031656541412 -0.99861771845 -0.044328793476 -0.030240526699 -0.99855919635
-0.046946569288 -0.028698621386 -0.99848505685 -0.049771813509 -0.027062581441 -0.99839390186 -0.052760998375 -0.025366113203 -0.99828494797
-0.055868276926 -0.02364374112 -0.99815815838 -0.059045760952 -0.021930298356 -0.99801435868 -0.062245324763 -0.02026020376 -0.99785522181
-0.065419042631 -0.018666301733 -0.99768327541 -0.068520474958 -0.017179602674 -0.99750178234 -0.071505885109 -0.015828689944 -0.99731457473
-0.074334953363 -0.014639249807 -0.99712587323 -0.076971322662 -0.013633668637 -0.99694008775 -0.079383805325 -0.012831173523 -0.99676154242
-0.081547224419 -0.012248024842 -0.99659421836 -0.083442218249 -0.011897151431 -0.99644159588 -0.085055711186 -0.011788410921 -0.99630645856
-0.086381293391 -0.011929011704 -0.99619073015 -0.087419254091 -0.012323705846 -0.9960953771 -0.088176766728 -0.01297498352 -0.99602033494
-0.08866746117 -0.013883502472 -0.9959645223 -0.088910789823 -0.015047898445 -0.99592591703 -0.08893240242 -0.0164651591 -0.99590156458
-0.088763748698 -0.018131055762 -0.99588767526 -0.088441151209 -0.020039910676 -0.99587979433 -0.088005117514 -0.022184537781 -0.99587295654
-0.087499939669 -0.024556442266 -0.99586180854 -0.086973155618 -0.027145794987 -0.99584073828 -0.086474444903 -0.029941496825 -0.99580403551
-0.086054565038 -0.032931046861 -0.99574603087 -0.085764191204 -0.036100350735 -0.99566122159 -0.085653080452 -0.039434326456 -0.99554431529
-0.085768685754 -0.042916461927 -0.99539033039 -0.086154934516 -0.046528963638 -0.99519464569 -0.086851344988 -0.050253396012 -0.99495298385
-0.087890856723 -0.054070545843 -0.9946615371 -0.089299885834 -0.057960568875 -0.99431690262 -0.091097065825 -0.06190318464 -0.99391615357
-0.093291917295 -0.065878874972 -0.99345688985 -0.095884385187 -0.069868361913 -0.99293735788 -0.098864770153 -0.073852951224 -0.99235653815
-0.10221383949 -0.077816098481 -0.99171416539 -0.10590301431 -0.081742714097 -0.99101093851 -0.10989511416 -0.08561966991 -0.99024862333
-0.1141449264 -0.089436863973 -0.9894301305 -0.11860059598 -0.093187103455 -0.9885595897 -0.12320498587 -0.096865810261 -0.98764241822
-0.12789737885 -0.10047185757 -0.98668519109 -0.13261452355 -0.10400767113 -0.98569558815 -0.13729267244 -0.107478916 -0.98468218462
-0.14186970218 -0.1108946586 -0.98365408671 -0.14628452334 -0.11426618251 -0.98262102449 -0.15047995971 -0.11760702633 -0.98159277151
-0.1544041792 -0.1209332725 -0.98057865215 -0.15800912149 -0.12426190224 -0.97958771796 -0.16125385788 -0.12760980533 -0.9786280861
-0.16410475606 -0.13099319233 -0.97770671093 -0.16653459855 -0.1344275057 -0.97682929583 -0.16852367673 -0.1379253455 -0.97600018927
-0.17006172159 -0.14149539606 -0.97522205868 -0.17114722902 -0.14514282641 -0.97449586245 -0.17178623318 -0.14886696172 -0.97382139933
-0.17199420223 -0.15266125418 -0.97319706939 -0.17179580684 -0.15651387269 -0.97261997122 -0.1712243205 -0.16040648492 -0.97208641163
-0.17031994718 -0.16431541408 -0.97159228089 -0.1691302382 -0.16821232481 -0.97113314036 -0.16770714034 -0.17206500516 -0.97070487229
-0.16610493758 -0.17583939352 -0.97030389951 -0.16438097432 -0.17950019804 -0.96992709736 -0.16259080066 -0.18301244823 -0.96957241882
-0.16078682825 -0.18634346271 -0.96923872692 -0.1590182395 -0.1894643408 -0.96892541667 -0.15732802729 -0.1923501042 -0.96863271122
-0.15575174712 -0.19497931808 -0.96836173964 -0.15431890263 -0.19733439275 -0.96811404996 -0.15305132954 -0.19940369194 -0.96789124294
-0.15196298746 -0.20117862412 -0.96769541264 -0.15106320223 -0.20265221644 -0.96752880479 -0.15035552026 -0.2038216435 -0.96739338181
-0.14983650868 -0.20468480716 -0.96729165735 -0.14950007211 -0.2052394526 -0.96722618634 -0.14933694162 -0.20548532964 -0.96719918175
-0.14933416995 -0.20542096615 -0.96721328173 -0.14947667271 -0.20504229774 -0.96727161669 -0.14974769602 -0.20434565703 -0.96737711364
-0.15013008764 -0.20332729438 -0.96753241193 -0.15060456686 -0.20198160378 -0.96774051076 -0.15114975874 -0.20030162253 -0.96800465414
-0.15174491715 -0.19827981915 -0.96832773039 -0.15236706701 -0.19591010739 -0.96871229305 -0.15299216254 -0.19318769893 -0.96916041561
-0.15359836002 -0.19011023774 -0.96967295585 -0.15416035262 -0.18667748591 -0.97025053565 -0.15465205346 -0.18289389879 -0.97089266356
-0.15504950601 -0.17877119835 -0.97159688623 -0.15532822746 -0.17432515983 -0.97235995413 -0.15546620862 -0.16957974902 -0.9731767397
-0.15544262807 -0.16456805955 -0.97404052439 -0.15523947403 -0.15932846649 -0.97494366272 -0.15484454038 -0.15390491155 -0.97587727021
-0.1542483043 -0.14834850593 -0.97683170578 -0.15344279711 -0.14271276835 -0.97779771618 -0.15242922186 -0.13705035576 -0.97876582097
-0.15121425122 -0.13141322362 -0.97972690832 -0.14980132147 -0.12585238651 -0.98067361589 -0.14820192092 -0.12040919244 -0.98159962154
-0.14643110694 -0.11511838362 -0.98249971434 -0.14450272769 -0.1100099982 -0.98337010428 -0.14242765665 -0.1051046478 -0.98420901013
-0.14022039697 -0.10041359524 -0.98501540606 -0.1378940326 -0.095941276038 -0.9857892814 -0.13545947552 -0.091686200896 -0.98653148508
-0.13292419828 -0.087642114124 -0.98724364639 -0.13029590099 -0.08380025667 -0.98792737343 -0.12758189832 -0.080146764268 -0.98858452112
-0.12478186434 -0.076668149104 -0.98921761066 -0.12189330248 -0.073348580623 -0.98982928252 -0.11891700021 -0.070172252261 -0.9904214265
-0.11585426547 -0.067126335991 -0.99099538051 -0.11269913202 -0.064196510983 -0.99155318245 -0.10944927311 -0.061370815396 -0.99209600323
-0.10610218145 -0.058641029561 -0.99262457996 -0.10265407428 -0.05599834096 -0.99313963109 -0.099103261271 -0.053435122368 -0.99364139975
-0.095450757231 -0.050949119315 -0.99412943835 -0.091697745278 -0.048538226865 -0.9946032194 -0.087846830787 -0.046201974468 -0.99506196384
-0.083903475553 -0.043942099469 -0.99550454478 -0.079877461193 -0.041760210126 -0.99592955376 -0.075777737144 -0.039659789542 -0.99633570429
-0.071617435052 -0.037646609123 -0.99672146351 -0.067413187828 -0.035725386604 -0.99708533178 -0.063174977181 -0.033896504457 -0.99742666359
-0.058917882799 -0.032163760008 -0.99774454427 -0.054658831613 -0.030531834585 -0.99803818524 -0.050412444404 -0.029001458957 -0.99830731783
-0.046185389223 -0.027573231191 -0.9985522654 -0.041985242177 -0.026244802735 -0.9987734727 -0.037821333711 -0.025015227702 -0.9989713635
-0.033688427187 -0.023882178616 -0.99914700191 -0.029584298039 -0.022841055696 -0.99930128364 -0.025505634849 -0.021889226407 -0.99943500257
-0.021439852744 -0.021024345394 -0.99954905313 -0.017376982009 -0.020241170368 -0.99964410443 -0.013302838889 -0.019537224272 -0.99972062665
-0.0091979201888 -0.018911089278 -0.99977886003 -0.0050454284011 -0.018357839175 -0.99981875027 -0.00082807508302 -0.017877628075 -0.99983983953
0.0034690920609 -0.017469510103 -0.99984137823 0.007863177925 -0.017132800741 -0.999822303 0.012371787601 -0.016868620419 -0.99978117032
0.017006502287 -0.016675984846 -0.99971630496 0.021779818413 -0.01655556509 -0.99962570634 0.026700220504 -0.016508708804 -0.99950715893
0.031771252482 -0.01653474503 -0.99935838903 0.036995372334 -0.016632944718 -0.99917700513 0.042371976948 -0.016802828549 -0.99896060009
0.047896351134 -0.017041707338 -0.99870692386 0.053561156107 -0.017346679588 -0.99841388976 0.059351069056 -0.017715600716 -0.99807996077
0.065250366202 -0.018141984377 -0.99770399323 0.071242158096 -0.018619435336 -0.99728525084 0.077300646806 -0.01914081187 -0.99682407642
0.083400778468 -0.019694762597 -0.99632144736 0.089512907451 -0.020271823226 -0.9957793393 0.095604188583 -0.02086271586 -0.99520077683
0.10164232499 -0.021452797719 -0.99458967179 0.10759332755 -0.022027031306 -0.99395094736 0.11342134944 -0.022571577724 -0.99329055234
0.11909083323 -0.023073523529 -0.99261522553 0.12456742736 -0.023518061471 -0.99193238521 0.12981628538 -0.023891335834 -0.99125018846
0.13480855796 -0.024179578832 -0.9905766001 0.13951656545 -0.02437105808 -0.98991978437 0.14391439079 -0.024455585228 -0.98928791182
0.14798494217 -0.024424327044 -0.9886879736 0.15171282324 -0.024274258369 -0.98812649982 0.15508912118 -0.024000145107 -0.9876089092
0.15811132653 -0.023603112665 -0.98713915002 0.1607796937 -0.023088701078 -0.98672022477 0.16310198548 -0.022462625666 -0.98635347254
0.16509103678 -0.021733773293 -0.98603883933 0.16676336818 -0.020916737385 -0.98577506011 0.16814057686 -0.020029236937 -0.98555952437
0.16924899724 -0.019090084382 -0.98538842373 0.17011628076 -0.018121021024 -0.9852573672 0.17077235768 -0.017144869901 -0.98516133465
0.17124815895 -0.016185420576 -0.98509497015 0.17157508275 -0.015268623259 -0.98505271946 0.17178408611 -0.014420548793 -0.98502907344
0.17190456345 -0.013663248947 -0.98501885093 0.17196170006 -0.013018792985 -0.98501760631 0.17197887322 -0.012507331869 -0.98502123521
0.171977866 -0.012145086046 -0.98502594407 0.171977866 -0.012145086046 -0.98502594407
NormalArray 3 203 double
-0.84973235283 0.52711321136 0.010324290053 -0.84973235283 0.52711321136 0.010324290053 -0.84992090046 0.52680127555 0.010718164124
-0.85022107564 0.52629861931 0.011570905516 -0.85112027702 0.52481175936 0.012918641188 -0.85242950308 0.52263473918 0.014726563773
-0.85434214891 0.51943325123 0.016987940157 -0.85680683667 0.51526235018 0.019666090362 -0.8595931904 0.51047452245 0.022700417429
-0.86301619365 0.50450278433 0.026076619732 -0.8669238934 0.49755303976 0.029731055683 -0.87147898929 0.48927867106 0.033626674877
-0.876562584 0.4798093096 0.03769698596 -0.88235179498 0.46872106452 0.041903144988 -0.88890816431 0.45575016994 0.046195865952
-0.89629877625 0.44056257792 0.050528394215 -0.90478395099 0.42232026232 0.05487802901 -0.9145433782 0.40012911983 0.059220746843
-0.92590156622 0.37237971133 0.063558164348 -0.93906344648 0.33697206819 0.06789454136 -0.95437786892 0.28972170393 0.07227874916
-0.97148412268 0.22434410378 0.076735405651 -0.98815072066 0.13025317071 0.081192763063 -0.99631421956 -0.010146522163 0.085176428551
-0.97161533734 -0.22003320021 0.086885137072 -0.86020938571 -0.50335025146 0.081721093349 -0.62025790934 -0.78169234273 0.065093833904
-0.32789808595 -0.94376349382 0.042347526101 -0.095991500255 -0.99510222273 0.02360504621 0.05352939786 -0.99849740004 0.011727986998
0.14143553404 -0.98993265012 0.0054164500811 0.18890506505 -0.98199081982 0.0029843229162 0.20859613955 -0.9779961196 0.0033527008324
0.20805247235 -0.97810024214 0.0058382431156 0.19117792086 -0.98150386417 0.01005819026 0.16075659728 -0.98686899856 0.015712928362
0.11817676214 -0.9927349406 0.022618368829 0.065083850142 -0.99741181233 0.030557635292 0.0024003401976 -0.9992216811 0.039373473225
-0.067683996012 -0.9965127889 0.048796908174 -0.14343499533 -0.98792292478 0.058606286446 -0.22198483231 -0.97264070814 0.068503920329
-0.30045430485 -0.95058314818 0.078223328287 -0.37648994006 -0.92227229452 0.087573624951 -0.44764168405 -0.88900195228 0.096397362707
-0.51222696794 -0.85245300185 0.10462988552 -0.56943260028 -0.81433268985 0.11228884178 -0.61897638527 -0.77627493908 0.11943807363
-0.6609817175 -0.73971924584 0.12616896 -0.69606156728 -0.70563369484 0.13258726659 -0.72477328296 -0.67486492316 0.13878409057
-0.7476764505 -0.64807591055 0.14483625074 -0.76540540724 -0.62562999116 0.15080343737 -0.77842577397 -0.60785781442 0.15672329716
-0.78701497133 -0.595116675 0.16261481494 -0.79124678565 -0.58782919405 0.16847956203 -0.79112407516 -0.58629537737 0.17429982263
-0.78630571546 -0.5910244475 0.18003728587 -0.77618205622 -0.60256600526 0.18562226403 -0.75993360115 -0.62132301675 0.19094143266
-0.73612411035 -0.64790212165 0.19581658489 -0.70291193951 -0.68258887068 0.19996809472 -0.65855215004 -0.72463692678 0.20300342367
-0.60058809105 -0.7729978253 0.20437296046 -0.52715465268 -0.8250640588 0.20341403844 -0.43782724571 -0.87664899293 0.19948394948
-0.33512501417 -0.92234800513 0.19226383518 -0.22313988883 -0.95767815408 0.18182723453 -0.10886431591 -0.9795934316 0.16895345364
0.00074798477156 -0.98793903082 0.15484157032 0.10021584867 -0.98495326127 0.14079721866 0.18670889433 -0.97406128022 0.12784526252
0.25987856445 -0.9585808795 0.11655826524 0.31986912623 -0.94136082562 0.1073477437 0.36911122145 -0.92398822236 0.10001335483
0.40865532412 -0.90777799251 0.094551268517 0.43995367996 -0.89342034535 0.090779105555 0.46492969107 -0.88093176258 0.088315412241
0.4842165605 -0.87060663072 0.087054104353 0.49850399296 -0.86252631205 0.086845437577 0.50881300765 -0.85642636197 0.087425452632
0.51589867685 -0.85205717011 0.088584051013 0.51966032962 -0.84958341381 0.090339165358 0.52071160034 -0.84870569814 0.092509822242
0.52006985795 -0.8488463564 0.094800875945 0.51702791155 -0.8504094033 0.097396023804 0.51278649701 -0.85267778142 0.099953036756
0.51254039157 -0.85269742018 0.10104185583 0.52213310789 -0.84709343185 0.099044108112 0.65681433566 -0.75179453757 0.058308676578
-0.31611471609 0.9367642854 -0.15014712739 -0.36189812907 0.92172669254 -0.13946199641 -0.35713862485 0.92353025869 -0.13979937024
-0.34112583142 0.92917908396 -0.14233550883 -0.31922524081 0.93640208183 -0.14576140358 -0.29338704155 0.94422090831 -0.14956911497
-0.26658632429 0.95157772375 -0.15307373178 -0.23668867036 0.95886729453 -0.15669072978 -0.20654124095 0.96529813405 -0.15981310389
-0.17602431173 0.97088640112 -0.16246549724 -0.14372234718 0.97578167735 -0.16490604924 -0.11125703247 0.97968872035 -0.16682890623
-0.078619872848 0.98260408963 -0.16825016679 -0.045270677051 0.98452857781 -0.16927505803 -0.012431284117 0.98541287701 -0.16972602921
0.021404171151 0.98523316127 -0.16987489332 0.054767483395 0.98400218409 -0.16952942067 0.088306189219 0.98168110172 -0.16883196222
0.12205727761 0.97822983049 -0.16783450101 0.15704812701 0.97341709113 -0.1667184828 0.19065879939 0.96765816067 -0.16518748831
0.2252662223 0.96046390062 -0.16359775272 0.26103953755 0.95163758568 -0.16200081899 0.29581152269 0.94172088097 -0.16017904166
0.33130308781 0.93013986805 -0.15836063234 0.36667918582 0.91709381192 -0.15647784133 0.40348986362 0.90181218252 -0.15469556366
0.43832776729 0.8857505001 -0.15269191203 0.47433241985 0.86734020582 -0.15076379818 0.50805253056 0.84840901071 -0.14860947729
0.54292033461 0.82690564209 -0.14650791564 0.57458861667 0.80565329399 -0.14412040617 0.60594755928 0.78278931709 -0.14166312315
0.63577776178 0.7592455244 -0.13904269598 0.664560113 0.73470223992 -0.13628086755 0.69042938597 0.71101708426 -0.13327403679
0.71520478211 0.68669440236 -0.13012654388 0.73807088954 0.66270250266 -0.12679414411 0.75918259985 0.63909451464 -0.12328820477
0.77904271874 0.61545172192 -0.11963118476 0.79711706625 0.59261543804 -0.11580727652 0.81376982525 0.5703261117 -0.11183379557
0.82940290893 0.54816554845 -0.10772811216 0.84370456489 0.52673729182 -0.10349121986 0.85723471282 0.50529182645 -0.099140391666
0.86966484359 0.48447733175 -0.094682494961 0.88103049095 0.46439319718 -0.090134524082 0.89191870978 0.44403696589 -0.08551133297
0.90200320681 0.42409520296 -0.080829906214 0.91132632712 0.40458793065 -0.076111312324 0.91987572536 0.38566184975 -0.071369373976
0.92803182911 0.36649591882 -0.066615806319 0.93560199914 0.34759263367 -0.061872936161 0.94250791873 0.32925912537 -0.057159876568
0.94930104702 0.30995935449 -0.052466376676 0.95510846898 0.29236942895 -0.047832305994 0.9609189412 0.27343400131 -0.043227715354
0.96618228515 0.25494384486 -0.038670762089 0.97102196215 0.23653726712 -0.034153627722 0.97553619976 0.21782796129 -0.029666517162
0.97982428441 0.19826745116 -0.025187089785 0.98338682739 0.18033290975 -0.020745827705 0.98692697581 0.16034511534 -0.016266173369
0.98987408755 0.14145834378 -0.011782519809 0.99238580014 0.1229537973 -0.0072654944066 0.99460895487 0.10366223562 -0.0026772745803
0.9963118057 0.08578433465 0.0019579976555 0.99770173504 0.06742757188 0.0066910720887 0.99868470139 0.049962652102 0.011515233867
0.99930407107 0.033482349288 0.016440980045 0.99961840158 0.017353213258 0.021492259434 0.99964216398 0.0020667884394 0.026669690113
0.99941693256 -0.011984346008 0.031971399006 0.99898072614 -0.025260732428 0.037408611379 0.99836952727 -0.037564789638 0.042978757432
0.9976362895 -0.048505696584 0.048672695413 0.99678962453 -0.058659502913 0.054493184485 0.99584422531 -0.068138023668 0.06042754867
0.99492014816 -0.075625173237 0.066443449329 0.99392575458 -0.082755630243 0.072547226371 0.99299163773 -0.088172917433 0.078696531264
0.99212994046 -0.092061442757 0.084869735425 0.99128752932 -0.095181473293 0.091046808557 0.99052164003 -0.097062321918 0.0971894351
0.98996492534 -0.096481744634 0.10325076052 0.98951515888 -0.094516752385 0.10920775553 0.98924800304 -0.090335522391 0.11501252925
0.98907275851 -0.084747189783 0.12063578327 0.98913817902 -0.075676603003 0.12601077163 0.98924758368 -0.064791270862 0.13111563373
0.98951193401 -0.049069381087 0.13586143047 0.98963625957 -0.030881832569 0.14023689304 0.98954194458 -0.006310044654 0.1441073324
0.98881139661 0.022631657638 0.14744432847 0.98693893481 0.058511544284 0.15009309825 0.98295666153 0.10363787219 0.15184002435
0.97580787595 0.1566108629 0.15255171863 0.96335646908 0.22113708163 0.1517982365 0.94288830327 0.29786153643 0.1491313269
0.91046234414 0.38775480999 0.14389067808 0.86301988106 0.48661059356 0.13567171821 0.79639240501 0.59196571139 0.12383752973
0.7106267825 0.69513879614 0.10858927251 0.60770477576 0.78899927585 0.090415973277 0.49627200702 0.86526161647 0.070967810432
0.38354910114 0.92208198137 0.051525786145 0.28141895863 0.95897703934 0.034152712156 0.19112675013 0.98138214662 0.018964379302
0.11752637033 0.99304691671 0.0067359849412 0.052541133867 0.99861064529 -0.0040259610954 0.0084585823308 0.99990128325 -0.01121945328
-0.020229964781 0.99966958742 -0.015857632404 -0.020229964781 0.99966958742 -0.015857632404
BinormalArray 3 203 double
0.52607938708 0.84902479135 -0.048963069461 0.52607938708 0.84902479135 -0.048963069461 0.5257536321 0.84922678176 -0.048959079585
0.52522111376 0.84955662962 -0.048952167787 0.52368868463 0.8505033727 -0.048930303598 0.52145220445 0.85187848195 -0.048894278356
0.51817926868 0.85387674928 -0.048833825826 0.51392755214 0.85644764806 -0.048743176764 0.50905255632 0.85936096751 -0.048623270505
0.50299012826 0.86293298102 -0.048452049912 0.49594932164 0.8670112971 -0.048225315574 0.48758655464 0.87175853443 -0.047920865866
0.47803427906 0.8770541602 -0.047531338192 0.46687140414 0.88307396388 -0.047026230048 0.45383674925 0.88987713014 -0.046377777871
0.43859873751 0.89752781802 -0.045551765467 0.42032243164 0.90628387235 -0.044481413742 0.39811721614 0.91632207222 -0.043087610445
0.37037900099 0.92796500093 -0.0412353328 0.33501531155 0.94141592739 -0.038740065647 0.28785603131 0.95702491883 -0.035244999386
0.2226401796 0.97443301924 -0.030193400646 0.12882371469 0.99140938532 -0.022624792258 -0.011113140304 0.99987903341 -0.010881941768
-0.22023148819 0.97541944285 0.0074163416924 -0.50239196526 0.86399458947 0.033401536093 -0.77942606045 0.62352925442 0.060879267206
-0.94054288927 0.33032970817 0.079128739055 -0.99140330004 0.09769916622 0.08703085423 -0.9945982261 -0.052267013021 0.089680142648
-0.98595993155 -0.14037312078 0.090434508538 -0.97800462124 -0.18786280038 0.090634039211 -0.97403426524 -0.20744019939 0.090696272372
-0.97419604254 -0.20668066546 0.090692740702 -0.97769457029 -0.18950796931 0.090554164964 -0.98319859988 -0.15872330155 0.090152241989
-0.98925672337 -0.11572762795 0.089321058003 -0.99418740485 -0.062180714863 0.087891767199 -0.99632213073 0.00098281423134 0.08568107084
-0.99401338483 0.071557241835 0.082564834603 -0.98590249486 0.14779496012 0.07844055321 -0.97117432941 0.2268141289 0.073319662005
-0.94973807337 0.30572545602 0.067301839016 -0.92210674839 0.38217062578 0.060537239508 -0.88956070467 0.45369981769 0.053275023545
-0.85376820711 0.5186365331 0.045782038568 -0.81642678693 0.57617764817 0.038296466302 -0.77916236543 0.62605348058 0.031033010637
-0.74340803072 0.66840114614 0.024174525837 -0.7101287532 0.70384601824 0.017830773596 -0.68016670911 0.73295743916 0.012109508524
-0.65417953281 0.75630593117 0.0071047401133 -0.63252546288 0.77453423288 0.0028741769444 -0.61552729093 0.78811540542 -0.00051172988618
-0.60353102271 0.79733402598 -0.0029589932628 -0.59694381003 0.8022713026 -0.0043410469689 -0.59604816902 0.80293587109 -0.0045350988182
-0.60132878648 0.79899466654 -0.0033486415218 -0.61330437291 0.78984647169 -0.00054527963359 -0.63234223611 0.77467818881 0.0041231314886
-0.6589997296 0.752062487 0.011016897663 -0.69350408998 0.72016068573 0.020510093084 -0.73505527615 0.67721271542 0.032812788336
-0.78253662785 0.62073758195 0.048179668234 -0.83329118539 0.5488155834 0.066537626732 -0.88312347568 0.4609372433 0.087348637357
-0.92669856789 0.35951802504 0.10943744304 -0.95964431745 0.24856812576 0.13151680822 -0.97910063365 0.13503827784 0.15207436571
-0.98509767786 0.025903915773 0.17003397376 -0.98002193059 -0.073283564065 0.1848960108 -0.96737894377 -0.15960696091 0.19673229827
-0.95050210275 -0.23264380961 0.20596749869 -0.93224390833 -0.2924797596 0.21301851003 -0.91412866779 -0.34152510734 0.2184705467
-0.89744636373 -0.38081442199 0.22264411114 -0.88284746971 -0.41180063796 0.22583307953 -0.87028995967 -0.43642373156 0.22831932162
-0.86004762566 -0.45532428933 0.23021266939 -0.85217777987 -0.4692031805 0.23160614608 -0.84637888388 -0.4790984491 0.23261010509
-0.84237162137 -0.48577941948 0.2332989651 -0.84032066386 -0.48914942545 0.23365363569 -0.83990161316 -0.48983344678 0.23372735103
-0.84049663491 -0.48886299147 0.23362016668 -0.84253311366 -0.48552644207 0.2332424199 -0.84524743479 -0.48103777264 0.23272179802
-0.84548883356 -0.48063628591 0.23267443561 -0.83965870809 -0.4902137134 0.2338028424 -0.7391166392 -0.62656264858 0.24723640724
0.93689422666 0.28332825532 -0.2048275074 0.92015567623 0.32920747319 -0.21198106308 0.92196943018 0.32455309847 -0.21127625539
0.92795157413 0.30868145603 -0.20885792966 0.93563535102 0.28697486454 -0.20550405605 0.9439691702 0.26139268604 -0.20148466294
0.95179052938 0.2349147696 -0.19725577102 0.95956383332 0.20540871768 -0.19246950015 0.96640266659 0.17572144256 -0.1875842761
0.97232864068 0.14573158072 -0.18259058273 0.97753694181 0.11402470964 -0.17725657391 0.98168458024 0.082218203665 -0.17185910479
0.98477335782 0.050299718408 -0.16640724758 0.98682506431 0.017726198743 -0.16081689689 0.98776298835 -0.014288825718 -0.15530649795
0.98761300662 -0.047254329953 -0.14962478894 0.98635755609 -0.079712868957 -0.14402996236 0.98398434198 -0.11231871047 -0.13841720276
0.98046391142 -0.14511760588 -0.1327832778 0.97559786481 -0.17914305025 -0.12695106824 0.9697497381 -0.21178971662 -0.12136952417
0.96249123597 -0.2454376912 -0.11563286911 0.95363406185 -0.28026252394 -0.10970411912 0.94367988941 -0.31410732038 -0.10394641697
0.93209237468 -0.34869411182 -0.098062334528 0.9190567645 -0.38319282409 -0.092184180799 0.90383089822 -0.4191512859 -0.086034335889
0.88781023237 -0.4531701242 -0.080186219733 0.8694791494 -0.48838124341 -0.074092980989 0.85060763968 -0.52134037933 -0.068343633235
0.82919760478 -0.55546909807 -0.062333083599 0.80800426966 -0.58643012104 -0.056822648268 0.78520724311 -0.61710402789 -0.051305010863
0.7617191897 -0.64627256524 -0.045996167793 0.73722579921 -0.67441278485 -0.040810741333 0.71355869419 -0.69966460601 -0.036103033717
0.68924589866 -0.72384035034 -0.031547399083 0.66524451719 -0.74612612938 -0.027304420868 0.64160941132 -0.76667582743 -0.023356774892
0.6179278028 -0.78599008113 -0.019616903175 0.59503489287 -0.80353663788 -0.016197155933 0.5726754885 -0.8196784821 -0.013037287466
0.55043616124 -0.8348165779 -0.010065468921 0.52891788653 -0.84864118798 -0.0073486984363 0.50737715898 -0.86171082602 -0.0047823492612
0.48645993321 -0.87369949463 -0.0024344328991 0.4662669463 -0.88464402065 -0.00030253115629 0.44580124461 -0.89513031119 0.0017251918352
0.42574776325 -0.90483478694 0.0035847515007 0.40612779713 -0.91380101944 0.005282923197 0.38708858438 -0.92201733424 0.0068163930669
0.36781191831 -0.92986355667 0.0082558294399 0.34879981557 -0.93714842373 0.0095666382415 0.33035951413 -0.94379412148 0.01073534737
0.31095728315 -0.95034989108 0.011859703809 0.2932661793 -0.95594525332 0.012791432079 0.27423408826 -0.96156543475 0.013695967506
0.25564992029 -0.96666089065 0.014485880755 0.23715209958 -0.97135390432 0.015181377712 0.21835426616 -0.97574168767 0.015797892304
0.19870758515 -0.97992244321 0.016349339224 0.1806886499 -0.98339734425 0.016771258582 0.16061811507 -0.986867641 0.01714876843
0.14164988197 -0.9897635615 0.017418474687 0.12306489073 -0.99224258802 0.017597704338 0.10369349634 -0.99445187481 0.017695408861
0.085736522127 -0.99616056143 0.01770267291 0.067300953398 -0.99757705952 0.01762362002 0.049757472681 -0.99860862356 0.017464560466
0.033198680977 -0.99930017703 0.017233797196 0.01699090156 -0.99971234826 0.016927197346 0.0016254876932 -0.99986158588 0.016557985101
-0.01250529565 -0.99979146709 0.016144346475 -0.02586215834 -0.99954251563 0.015681460991 -0.038247909491 -0.99915291699 0.015183737594
-0.049272440856 -0.99867751432 0.0146781798 -0.059511738286 -0.99812732426 0.01414911944 -0.069077706314 -0.99751860495 0.013597914123
-0.076656953348 -0.99697126417 0.013115255536 -0.083881757856 -0.99639591644 0.012610646623 -0.089399202485 -0.99592126494 0.012190842578
-0.093394279185 -0.99555854026 0.01186176765 -0.096625429398 -0.99525350556 0.011575235151 -0.098624133743 -0.99505962271 0.011385407
-0.098174764409 -0.99510353754 0.011430888448 -0.096350538224 -0.99527955541 0.011626709484 -0.092325435175 -0.99565557161 0.012082911336
-0.086904843483 -0.9961352952 0.01272878012 -0.078029602395 -0.99685503086 0.01383577275 -0.067356887091 -0.99761279828 0.015223484136
-0.051892052855 -0.99850265088 0.01731100931 -0.033988258503 -0.99922588234 0.019809955545 -0.0097666800488 -0.99968100296 0.02329172113
0.01877441923 -0.99944547641 0.027500197482 0.054173408806 -0.99799156287 0.032834162273 0.098709503286 -0.99432549222 0.03966420903
0.15099601869 -0.98737831184 0.047794054519 0.21469560679 -0.97496938568 0.057797001796 0.29044687962 -0.95434476766 0.06976155499
0.37921401541 -0.9215062943 0.083802625776 0.47685077741 -0.87336854783 0.099200381784 0.58093707374 -0.80571423358 0.11548458837
0.68290874422 -0.71862203055 0.13121746943 0.7757289195 -0.61412683649 0.14523385335 0.85120555503 -0.50102733309 0.15627128525
0.9075043554 -0.38665598636 0.16411274523 0.94412147561 -0.28307226492 0.16883344493 0.96641646982 -0.19152318416 0.17134198781
0.97807789738 -0.11692363681 0.17231508876 0.98370148062 -0.0510616308 0.17240680641 0.98506432254 -0.0064023742824 0.17206769033
0.98489307142 0.022654201937 0.17167534768 0.98489307142 0.022654201937 0.17167534768
