# vtk DataFile Version 4.1
vtk output
ASCII
DATASET POLYDATA
POINTS 227 float
4.85928 -31.40254 -188.181 4.84108 -31.43804 -187.528 4.82285 -31.47364 -186.876
4.80449 -31.50914 -186.222 4.7859 -31.54484 -185.567 4.76698 -31.58044 -184.909
4.74766 -31.61614 -184.248 4.72783 -31.65194 -183.584 4.70743 -31.68774 -182.915
4.68637 -31.72364 -182.242 4.6646 -31.75964 -181.564 4.64205 -31.79564 -180.881
4.61869 -31.83174 -180.194 4.59446 -31.86794 -179.502 4.56934 -31.90404 -178.805
4.5433 -31.94024 -178.104 4.51633 -31.97644 -177.4 4.48841 -32.012640000000005 -176.692
4.45954 -32.04884 -175.981 4.4297 -32.08504 -175.268 4.39891 -32.121340000000004 -174.553
4.36716 -32.15754 -173.837 4.33444 -32.193740000000005 -173.119 4.30077 -32.23014 -172.4
4.26613 -32.266639999999995 -171.681 4.23052 -32.30324 -170.96 4.19395 -32.34004 -170.238
4.1564 -32.37724 -169.514 4.11787 -32.41484 -168.788 4.07836 -32.452839999999995 -168.059
4.03786 -32.49154 -167.326 3.99637 -32.53094 -166.588 3.95391 -32.57114 -165.844
3.91047 -32.61234 -165.093 3.86608 -32.654740000000004 -164.333 3.82076 -32.69834 -163.562
3.77456 -32.74344 -162.78 3.72752 -32.790040000000005 -161.984 3.67969 -32.83844 -161.173
3.63116 -32.88884 -160.345 3.582 -32.94124 -159.5 3.53231 -32.995940000000004 -158.634
3.48218 -33.053039999999996 -157.748 3.43173 -33.11264 -156.839 3.38108 -33.17494 -155.907
3.33035 -33.24004 -154.951 3.27966 -33.308040000000005 -153.969 3.22912 -33.37894 -152.962
3.17886 -33.45304 -151.928 3.12898 -33.53014 -150.867 3.07959 -33.61044 -149.779
3.03076 -33.693740000000005 -148.665 2.98257 -33.78024 -147.524 2.93508 -33.86974 -146.356
2.88833 -33.96224 -145.163 2.84233 -34.05744 -143.944 2.79709 -34.15544 -142.701
2.7526 -34.25604 -141.434 2.7088 -34.358940000000004 -140.145 2.66566 -34.46404 -138.834
2.6231 -34.571039999999996 -137.502 2.58102 -34.679739999999995 -136.15 2.53934 -34.790040000000005 -134.779
2.49794 -34.90144 -133.391 2.45669 -35.01384 -131.986 2.41547 -35.126940000000005 -130.565
2.37414 -35.240539999999996 -129.129 2.33256 -35.354240000000004 -127.68 2.2906 -35.467839999999995 -126.218
2.24811 -35.58104 -124.744 2.20497 -35.69364 -123.26 2.16105 -35.80524 -121.766
2.11623 -35.91574 -120.263 2.07041 -36.024640000000005 -118.753 2.0235 -36.13194 -117.237
1.97541 -36.23714 -115.716 1.9261 -36.340140000000005 -114.192 1.87552 -36.44064 -112.666
1.82365 -36.53824 -111.141 1.77048 -36.63284 -109.617 1.71605 -36.72414 -108.096
1.66037 -36.811840000000004 -106.582 1.60351 -36.89584 -105.074 1.54555 -36.975840000000005 -103.577
1.48657 -37.05164 -102.09 1.42667 -37.12304 -100.617 1.36599 -37.18994 -99.1592
1.30463 -37.25214 -97.7182 1.24274 -37.30964 -96.2957 1.18045 -37.36214 -94.8931
1.1179 -37.40984 -93.5116 1.05523 -37.45254 -92.1522 0.992572 -37.49034 -90.8159
0.930068 -37.52304 -89.5031 0.867845 -37.55084 -88.2142 0.806025 -37.57374 -86.9492
0.744729 -37.591840000000005 -85.7082 0.684068 -37.60504 -84.4905 0.624152 -37.61344 -83.2958
0.565084 -37.617239999999995 -82.123 0.506967 -37.61644 -80.9711 0.449899 -37.61104 -79.839
0.39398 -37.601240000000004 -78.7251 0.339309 -37.58694 -77.6279 0.285989 -37.56824 -76.5457
0.234123 -37.54524 -75.4766 0.183822 -37.517939999999996 -74.4187 0.135198 -37.48634 -73.3698
0.0883688 -37.45044 -72.3279 0.043459 -37.41014 -71.2909 0.000597093 -37.36544 -70.2566
-0.0400826 -37.31634 -69.2226 -0.0784408 -37.262640000000005 -68.187 -0.114333 -37.20434 -67.1474
-0.147612 -37.141239999999996 -66.1018 -0.178122 -37.07324 -65.048 -0.205708 -37.00004 -63.9841
-0.230207 -36.921440000000004 -62.9078 -0.251453 -36.83724 -61.8174 -0.269274 -36.747240000000005 -60.7109
-0.283493 -36.65094 -59.5865 -0.293926 -36.548140000000004 -58.4422 -0.300384 -36.43834 -57.2762
-0.302667 -36.32124 -56.0869 -0.300566 -36.196439999999996 -54.8724 -0.293864 -36.06334 -53.631
-0.28233 -35.92154 -52.3609 -0.265724 -35.77064 -51.0603 -0.243789 -35.60994 -49.7273
-0.216261 -35.43894 -48.3603 -0.182859 -35.257239999999996 -46.9573 -0.143294 -35.06414 -45.5164
-0.0972656 -34.85924 -44.0359 -0.0444648 -34.641940000000005 -42.5137 0.0154209 -34.41164 -40.9479
0.0827059 -34.168040000000005 -39.3369 0.157701 -33.91064 -37.6786 0.240707 -33.63904 -35.9715
0.332013 -33.35284 -34.2138 0.431882 -33.05184 -32.4041 0.54055 -32.735839999999996 -30.5412
0.658215 -32.404740000000004 -28.624 0.785027 -32.05854 -26.6517 0.921084 -31.69734 -24.6239
1.06642 -31.32124 -22.5406 1.22098 -30.93074 -20.402 1.38467 -30.526040000000002 -18.209
1.55727 -30.10784 -15.9627 1.73848 -29.67674 -13.6649 1.92791 -29.23344 -11.3176
2.12508 -28.77894 -8.92361 2.32938 -28.31394 -6.4859 2.54014 -27.83964 -4.00794
2.75658 -27.35704 -1.49356 2.97783 -26.86734 1.05313 3.20297 -26.37144 3.62777
3.43098 -25.870739999999998 6.22588 3.66081 -25.366239999999998 8.8429 3.89138 -24.85914 11.4743
4.12156 -24.350540000000002 14.1156 4.35023 -23.84144 16.7625 4.57629 -23.33284 19.411
4.79864 -22.82564 22.0574 5.01625 -22.32084 24.6983 5.22814 -21.81914 27.3307
5.43337 -21.32134 29.952 5.63113 -20.828 32.5601 5.82064 -20.339840000000002 35.1533
6.00127 -19.85738 37.7302 6.17244 -19.38113 40.2898 6.33368 -18.911540000000002 42.8314
6.48463 -18.44904 45.3546 6.62502 -17.99402 47.8592 6.75464 -17.54686 50.3452
6.87338 -17.10788 52.8127 6.9812 -16.6774 55.2618 7.07814 -16.25572 57.6927
7.16425 -15.8431 60.1057 7.23968 -15.439779999999999 62.5008 7.30459 -15.04598 64.8783
7.35918 -14.66186 67.2383 7.40369 -14.28758 69.581 7.43837 -13.92323 71.9063
7.46351 -13.56886 74.2145 7.47942 -13.2245 76.5057 7.48643 -12.89012 78.7802
7.48489 -12.56564 81.0384 7.4752 -12.250965 83.2808 7.45778 -11.945952 85.508
7.43309 -11.650431 87.7209 7.40162 -11.364211000000001 89.9206 7.36393 -11.087085 92.1082
7.32061 -10.818833 94.2854 7.27232 -10.559236 96.4537 7.21977 -10.308072 98.6151
7.16373 -10.06513 100.772 7.10503 -9.8302 102.926 7.04456 -9.60309 105.08
6.98325 -9.38363 107.236 6.9221 -9.17164 109.397 6.86214 -8.96697 111.566
6.80443 -8.76946 113.746 6.75007 -8.57898 115.938 6.70015 -8.3954 118.146
6.65578 -8.21856 120.373 6.61804 -8.04833 122.619 6.58797 -7.88457 124.889
6.56656 -7.72711 127.183 6.55475 -7.5758 129.503 6.55337 -7.43045 131.85
6.56318 -7.29087 134.227 6.58478 -7.15685 136.632 6.61867 -7.02817 139.067
6.66521 -6.90461 141.532 6.72457 -6.78589 144.027 6.79679 -6.67177 146.549
6.88173 -6.56195 149.1 6.97906 -6.45613 151.677 7.0883 -6.35401 154.279
7.2088 -6.25526 156.903 7.33971 -6.1595200000000006 159.548 7.48007 -6.06646 162.211
7.62875 -5.9756800000000005 164.89 7.78449 -5.88682 167.583 7.94592 -5.79948 170.286
8.11157 -5.71325 172.997 8.2799 -5.62772 175.712
LINES 1 228
227 226 225 224 223 222 221 220 219 218 217 216 215 214 213 212 211 210 209 208 207 206 205 204 203 202 201 200 199 198 197 196 195 194 193 192 191 190 189 188 187 186 185 184 183 182 181 180 179 178 177 176 175 174 173 172 171 170 169 168 167 166 165 164 163 162 161 160 159 158 157 156 155 154 153 152 151 150 149 148 147 146 145 144 143 142 141 140 139 138 137 136 135 134 133 132 131 130 129 128 127 126 125 124 123 122 121 120 119 118 117 116 115 114 113 112 111 110 109 108 107 106 105 104 103 102 101 100 99 98 97 96 95 94 93 92 91 90 89 88 87 86 85 84 83 82 81 80 79 78 77 76 75 74 73 72 71 70 69 68 67 66 65 64 63 62 61 60 59 58 57 56 55 54 53 52 51 50 49 48 47 46 45 44 43 42 41 40 39 38 37 36 35 34 33 32 31 30 29 28 27 26 25 24 23 22 21 20 19 18 17 16 15 14 13 12 11 10 9 8 7 6 5 4 3 2 1 0 

CELL_DATA 1
FIELD FieldData 2
LengthArray 1 1 double
366.95159751 
TortuosityArray 1 1 double
0.0058416826141 
POINT_DATA 227
FIELD FieldData 8
RadiusArray 1 227 double
46.582396365 46.588759254 46.649494203 46.764019118 46.780849335 46.906080207 47.243448883 47.302159874 47.321381986 
47.416730549 47.466447972 47.524184232 47.677200444 48.161853138 48.16194756 48.173655891 48.189884033 48.537711811 
48.569737293 48.817716272 48.975028841 49.0051865 49.076074679 49.141923948 49.224124434 49.501252819 49.583053273 
49.589433652 49.751176905 50.027526024 50.052376887 50.122085342 50.219017435 50.35155062 50.405146432 50.581361967 
50.620010351 50.7006674 50.727016395 50.789442664 50.859754173 50.944265367 51.224221012 51.373235508 51.449808089 
51.624628113 51.70346183 51.930818962 52.125512979 52.169240161 52.3419359 52.650973019 52.787401645 52.844735157 
52.920912439 53.503194623 53.955142324 54.262131188 54.327822665 54.498410497 54.770565687 54.888676045 54.924576871 
55.462155345 55.648181836 55.817972872 56.340213837 56.345832626 56.443552482 56.74117164 56.893130897 56.978552137 
56.990812631 57.514571896 57.54144415 58.168319957 58.373490728 58.724392193 58.775389529 59.052894269 59.389156691 
59.609207878 59.740074394 59.920170451 60.122215513 60.405701529 60.586736387 60.602540343 60.751327049 60.822038154 
61.272747669 61.39639063 61.575084369 61.611214413 61.778009155 61.801510342 61.915184726 62.05969678 62.167719824 
62.203120572 62.284429052 62.326446691 62.421417844 62.422283588 62.542621085 62.545211182 62.549490782 62.595492023 
62.647396951 62.652511033 62.718373355 62.722019867 62.762662207 62.799432664 62.855135047 62.856664238 62.8719237 
62.884269906 62.908929672 62.912452098 62.965067785 62.965116047 62.963237293 62.941650854 62.939768229 62.930827532 
62.918910863 62.91596812 62.926994762 62.881426082 62.878640336 62.667131677 62.646598483 62.631774403 62.549371314 
62.547016091 62.467818914 62.322132899 62.172080304 62.171866242 62.113247752 61.995378407 61.95480388 61.753299149 
61.532086682 61.48728134 61.364887258 61.067642718 60.932643456 60.282441801 59.793849898 59.769818624 59.528872929 
59.420818296 59.044563605 59.018019936 58.451600116 58.123950199 57.877301695 57.642493256 57.636670765 57.592875796 
57.572477232 57.609559274 57.635922641 57.650311892 57.800015777 57.825924642 57.8799228 57.940304814 57.999290941 
58.304992841 58.355854782 58.754213493 59.446125026 59.934832013 60.017821325 60.112967793 60.763811502 61.078651695 
61.24261055 61.459237383 61.838769739 62.457850527 62.9066033 63.169773056 63.506016453 63.689841898 64.068061593 
64.513913165 64.701658532 64.990537056 65.005010034 65.48907781 66.223929975 66.251880011 66.604660746 67.201356577 
67.273817273 67.615809967 67.772894844 67.784714773 68.21230574 68.324920303 68.773769476 68.944617854 68.979112734 
69.293583542 69.783386828 70.046830522 70.140279491 70.345106139 70.832117344 71.064442711 71.085209777 71.21359558 
71.383844722 72.053177343 72.118006136 72.171902358 72.258359315 72.010220976 72.226767359 72.539859117 72.548835047 
72.558429639 72.79248342 
EdgeArray 2 227 int
5069 5069 5577 6880 6880 6880 6879 6879 6639 
5281 5281 5281 5578 5578 5914 5914 5558 4875 
5558 5558 5303 5303 3569 3569 4662 4184 4871 
4871 4870 4871 4870 4870 4868 4868 4878 4878 
4877 4877 4874 4874 4188 4191 3969 4188 3970 
3969 3970 3970 4624 4624 4626 4632 4630 4631 
4630 4630 4628 4628 5275 4410 5277 5275 5277 
5277 5606 5606 5605 5605 5604 4851 5620 3235 
5620 5620 5617 5618 5617 5623 5623 5622 5621 
5622 5621 5592 5591 5589 5589 5589 5907 5906 
5907 5907 3436 4493 5896 5897 5134 5896 5891 
5599 5891 6151 6151 6151 5889 4844 4844 5890 
6144 6144 6919 6919 7142 7142 7140 6424 7141 
6423 7613 5027 7616 6906 7134 7605 7607 7605 
7607 7956 8092 8092 8105 8105 7964 7863 8093 
7863 8093 8396 8610 8396 8610 8607 8608 8607 
8608 8608 9121 9121 8957 8399 9637 8616 9638 
8732 8959 8730 8959 9254 9188 9987 9756 9518 
9183 9540 9710 10297 10293 9990 10301 10272 10302 
10285 10285 9269 11004 9269 10755 10270 10757 9192 
11012 11012 11664 11014 11251 11251 10740 11252 11488 
11487 11487 11485 11485 11485 11652 11652 11920 11920 
11483 12380 12394 12394 12872 12843 13379 13379 13378 
13378 13063 12359 13063 13280 12876 13280 13362 12876 
13362 13362 13390 13390 12095 12639 13568 12639 13404 
13568 13404 13404 13578 13578 13742 13742 14080 13100 
14080 14323 14336 14083 14336 13749 14548 13749 14548 
14886 14886 14904 14906 14906 14613 14613 15162 15162 
15148 15148 15581 15581 14810 14810 14874 14874 15698 
15583 16775 16775 16774 16774 15568 15568 16780 16780 
16720 16720 16795 16795 17693 17693 17326 17326 16764 
15403 16337 16337 16035 16035 18568 18568 18834 18834 
18598 18598 18599 18599 19646 19655 16492 16492 18557 
18557 19649 19649 19083 19083 18740 19966 21471 21471 
21472 21472 21806 21806 19954 19954 20941 20941 20953 
20953 21172 21172 22771 22771 20634 22466 22738 22738 
20420 20420 21199 21199 22462 22462 22458 22458 22036 
22036 22952 22716 22927 22952 22927 19666 19666 19666 
22453 22453 23614 22786 22786 22786 24496 24496 24492 
24492 17064 17064 23434 23434 22432 22432 23411 23411 
22929 22929 23851 22381 22381 22381 23632 23632 24673 
24673 25051 25051 23271 23271 25886 25886 22273 22273 
22429 22429 24870 24870 25913 25913 15209 24750 24750 
26355 24975 24451 18323 24376 14377 10368 26516 23254 
26516 26516 26438 25102 25102 25102 26461 26461 25727 
25727 26696 26696 25815 25815 22942 27341 27341 27341 
27260 26962 26047 27260 26032 27435 26423 27073 25861 
25882 27526 27299 27254 28272 28144 28272 27965 28144 
28231 27319 27716 27716 28773 28708 28638 28863 29105 
29105 29145 29145 29144 28705 29115 29115 28760 27109 
28062 28062 33112 33112 
EdgePCoordArray 1 227 double
0 0.04 0 0 0.052 0 0 0 0.924 
0 0 0 0.704 0 0.992 0 0 0 
0 0 0.28 0.824 0.516 0 0 0.94 0.092 
0 0 0.156 0.872 0 0 0 0.9 0.424 
0 0.628 0.112 0.3 0.836 0.232 0.56 0 0.752 
0 0.244 0.552 0.9 0.712 0.096 0 0.132 0.888 
0 0 0 0.092 0.24 0.456 0.372 0.928 0.932 
0.88 0 0 0.256 0.272 0.204 0.34 0.828 0.196 
0 0 0.052 0.22 0.12 0.096 0.216 0.436 0.352 
0.22 0.528 0.928 0.5 0.528 0.744 0.824 0.248 0.304 
0 0.964 0 0.944 0.944 0.152 0 0 0 
0.516 0 0.292 0 0 0.18 0.756 0.916 0.86 
0 0 0.844 0.98 0.924 0 0 0 0.644 
0.4 0.132 0.052 0.004 0.036 0.06 0 0 0 
0 0 0 0 0.004 0 0 0 0 
0 0 0 0 0.008 0 0 0 0 
0 0 0.028 0 0 0 0 0.944 0 
0 0 0 0 0 0 0 0.072 0 
0 0 0 0 0 0.708 0.644 0.248 0 
0 0.052 0 0 0 0 0 0 0 
0 0.148 0 0 0 0 0 0 0 
0 0 0 0.012 0.428 0.288 0.28 0.588 0.144 
0 0.22 0 0 0 0 0 0.508 0 
0.972 0.076 0.744 0.612 0.968 0.18 0.98 0.852 0.776 
0.552 0 0.672 0.5 0 0 0.404 0 0.344 
0 0 
CurvatureArray 1 227 double
0 6.4735459124e-05 0.00025346649809 0.00043934965552 0.0006194924891 0.00078365799203 0.00094059431796 0.0010753694524 0.0011974010348 
0.0013001058456 0.0013897067675 0.0014622296364 0.0015218499732 0.0015716269823 0.0016100261131 0.001640577896 0.0016693184582 0.0016895206351 
0.0017087238189 0.0017255907654 0.0017380411982 0.0017526118288 0.0017595344915 0.0017647761284 0.0017651846873 0.0017528643328 0.0017405002187 
0.0017070147315 0.0016693201091 0.001616365029 0.0015508215752 0.0014812544083 0.0014106314755 0.0013498365664 0.0013059423233 0.0012854109389 
0.0013012979158 0.0013473063649 0.0014204918527 0.001508037377 0.0016007857249 0.001688150819 0.0017667030334 0.0018300616831 0.0018713413065 
0.0018957798261 0.00189525675 0.0018780175235 0.0018386155026 0.0017851886483 0.0017138980908 0.0016310749829 0.0015361357172 0.0014322726256 
0.0013213088513 0.0012064012973 0.001086681776 0.0009669345626 0.00084689493986 0.00072955010784 0.00061894381708 0.00051853534766 0.00043634901037 
0.00038141182672 0.00036451427484 0.00038982012192 0.00044306239592 0.00051577289182 0.00059880020478 0.00068446188259 0.00076991346343 0.00085486063034 
0.00093801765077 0.0010189435585 0.0010963876558 0.0011705634582 0.0012436812427 0.0013160447598 0.0013849963164 0.0014537610262 0.0015233121249 
0.0015923286166 0.0016621856018 0.0017348224386 0.0018083078679 0.0018852631529 0.0019653962377 0.0020487127889 0.0021355768995 0.0022283593666 
0.0023231134725 0.0024249883665 0.0025313279534 0.0026408103283 0.0027569518307 0.0028746795689 0.0029996876194 0.003124726487 0.0032546299051 
0.003385186877 0.0035162558508 0.0036461491771 0.0037751139541 0.0039016870023 0.0040235209873 0.0041412842387 0.0042507544322 0.0043582528595 
0.0044545591881 0.0045463118175 0.004625639816 0.0046991105743 0.0047576878873 0.0048085951853 0.0048464993376 0.0048702568856 0.0048831600892 
0.0048840123697 0.0048730557567 0.0048512620849 0.0048184411451 0.0047760975229 0.0047239570301 0.0046626774617 0.00459303158 0.0045133655117 
0.0044221675909 0.0043237118104 0.0042115135848 0.004090369908 0.0039563198446 0.0038121444848 0.0036574833727 0.0034918884786 0.0033176912178 
0.0031376205898 0.0029501131693 0.0027599891403 0.0025675511954 0.0023762637691 0.0021866185146 0.0020002891343 0.0018208055156 0.0016470380393 
0.0014818366942 0.0013243901879 0.0011754855683 0.0010348443045 0.00090247444995 0.00077727243297 0.00065868343206 0.00054581712156 0.00043696818939 
0.00033207623904 0.00022918850483 0.00012772021661 2.7082821942e-05 7.5617221848e-05 0.00017828371589 0.00028276408255 0.00038907763077 0.00049742401978 
0.00060754634765 0.00071890451412 0.00083142659714 0.0009437521116 0.0010553553428 0.0011649004249 0.0012720245482 0.0013749707853 0.0014731323073 
0.0015660939052 0.0016523969106 0.0017325875922 0.0018055354534 0.001871829423 0.0019309194604 0.0019834402129 0.0020289470765 0.0020678908167 
0.0021000997126 0.0021258515736 0.0021449072199 0.0021568579366 0.0021616745919 0.0021588658639 0.0021479098808 0.0021283262485 0.0021000927265 
0.0020632283207 0.0020175332218 0.0019646901821 0.0019061118062 0.0018452084539 0.0017861377297 0.0017345454706 0.0016971223413 0.0016789490782 
0.0016858486231 0.0017188052063 0.0017768336563 0.0018545306806 0.001945623283 0.0020419300027 0.0021362270765 0.0022222912934 0.0022944237579 
0.002348677564 0.0023826825921 0.0023950687075 0.00238490804 0.0023528604003 0.0022996036985 0.0022265679269 0.0021350617334 0.0020269588277 
0.0019036778949 0.0017670808445 0.0016184240226 0.0014589971633 0.0012902666176 0.0011133058579 0.00092883121408 0.00073821007427 0.00054207549234 
0.00034163495869 0 
TorsionArray 1 227 double
-0.0 -0.0 0.0097137490602 -0.0049442660154 0.00034035294505 0.0035512993947 0.0075074711166 0.0098337094257 0.011790572393
0.014401716223 0.011489778777 0.01526617542 0.021620768131 0.027358981844 0.028976024993 0.032566116427 0.040015521783 0.039960967837
0.045922279688 0.052311850216 0.056711470709 0.061787549286 0.06514884057 0.07158583729 0.074093928432 0.082472729078 0.091070742491
0.098853008645 0.11027126762 0.12309046203 0.14462000691 0.16479148824 0.18859024691 0.21517504521 0.23389392452 0.24188906896
0.23184510275 0.2097302643 0.17952879717 0.14800043914 0.11949814663 0.095581092434 0.075758561724 0.061973582013 0.049672656723
0.040085993865 0.033854307241 0.028836346546 0.024870512122 0.021830230037 0.020472495628 0.019510940519 0.020246141254 0.021761022001
0.023331665259 0.026393912255 0.03209526465 0.039557015781 0.051390645629 0.067065863329 0.091284417553 0.12916035025 0.17639001288
0.22296931488 0.23623225574 0.19816541158 0.14540787133 0.10115165231 0.070302424622 0.049770087833 0.035873615477 0.025947993215
0.018528028905 0.013172682685 0.0091357796841 0.0056634607835 0.0024605231307 0.00019112846506 -0.0016821905571 -0.0037779551093 -0.0053559401757
-0.0066938641707 -0.0081032821544 -0.0091812289496 -0.010224992245 -0.011239759555 -0.012131767648 -0.01288246563 -0.01374811678 -0.014558075929
-0.015352308711 -0.016339255663 -0.017344604399 -0.018447581075 -0.019755613182 -0.02131557735 -0.022915119913 -0.024931914778 -0.027063914962
-0.029310375467 -0.031875526755 -0.034351569512 -0.036896326928 -0.039289780564 -0.041277833426 -0.043089462565 -0.044197841752 -0.04462110762
-0.044297421171 -0.043148174887 -0.041195646848 -0.038473978017 -0.035243016335 -0.031176949806 -0.027211932724 -0.022974728071 -0.018559101707
-0.014495655034 -0.010706222151 -0.0073809723258 -0.0045478032957 -0.0022077607055 -0.0004330445943 0.00091085571846 0.0017356866483 0.0019286443357
0.0020007086626 0.0016939504008 0.0010677593757 0.00036016792614 -0.00056499691972 -0.0014418192735 -0.0025145063825 -0.0035989497552 -0.0045009661681
-0.0055342192685 -0.0065699910838 -0.0074406314671 -0.0082947910494 -0.0090782081081 -0.0099755515249 -0.010627021924 -0.011187599977 -0.011748967832
-0.012099779768 -0.012497515262 -0.012714024143 -0.01270804208 -0.012561733413 -0.012320362344 -0.011707843494 -0.011134486946 -0.01011345667
-0.0081819569124 -0.0054130650646 0.0054113991192 0.30954400688 0.034235775158 0.0027028592723 -0.00068364888178 -0.00097179056281 -0.00037108964258
0.00047021189593 0.0015616760662 0.0025964520676 0.0036577817893 0.0046821182954 0.0057087834479 0.006688964839 0.0075163169635 0.008320389265
0.0089911000907 0.0095322935857 0.0099389428937 0.010177228746 0.010269332925 0.010220281626 0.010003105822 0.0097094977414 0.0093255012196
0.0089026148428 0.0085479130214 0.0082645623687 0.0081482862682 0.0083099656762 0.008798001778 0.0096658194028 0.011124771193 0.013228521853
0.015993266692 0.01961538134 0.024148300134 0.02958367147 0.035909549752 0.042900592491 0.050004897693 0.056283754944 0.060816202051
0.06264461805 0.061433933469 0.057547853793 0.052004938908 0.045773684582 0.03958650527 0.033954829083 0.029013012784 0.024795420406
0.021273654947 0.018291436812 0.015779036678 0.013704679961 0.011904184449 0.010363254289 0.0090729787875 0.0079038112259 0.0068978289623
0.0060426505895 0.0052382104467 0.0045062114059 0.0038934674859 0.0033436934413 0.0027549499629 0.002292991024 0.0019161097651 0.0014577260344
-0.0 -0.0
TangentArray 3 227 double
-0.027867895833 -0.054398587885 0.99813033919 -0.027867895833 -0.054398587885 0.99813033919 -0.027965841029 -0.054363286096 0.99812952309
-0.028180193239 -0.054288372269 0.99812757168 -0.028508347056 -0.054172710196 0.99812453713 -0.028944750116 -0.054018746289 0.99812032165
-0.029483942863 -0.053829938992 0.99811474029 -0.030118798356 -0.053611011257 0.99810756808 -0.030840487466 -0.053367412127 0.99809858414
-0.031640803763 -0.053104215488 0.99808757223 -0.03251137684 -0.052827226984 0.99807429306 -0.033443170103 -0.052538766616 0.99805873193
-0.034427957604 -0.052245037042 0.99804066643 -0.035460151472 -0.051953810935 0.99801972886 -0.036533952094 -0.051672691255 0.99799559284
-0.037643087928 -0.051406162066 0.99796813798 -0.038784236157 -0.051159330871 0.99793712522 -0.039954207165 -0.050940649706 0.99790215529
-0.041148382301 -0.050752245013 0.99786322723 -0.042364646929 -0.050600865824 0.99782001837 -0.043599420257 -0.050493825799 0.99777225062
-0.044849711768 -0.050436395071 0.9977197369 -0.04611116185 -0.050434476558 0.99766232981 -0.047377432763 -0.050491923722 0.99760009247
-0.04864267597 -0.05061498424 0.99753296359 -0.049897130012 -0.050805285534 0.99746132726 -0.051131184103 -0.051068686998 0.99738537748
-0.052331908859 -0.051409546829 0.99730558497 -0.05348399314 -0.051828447508 0.99722278078 -0.054572762269 -0.052327355044 0.99713773448
-0.055579196438 -0.052904398414 0.99705169252 -0.056483364268 -0.053561042089 0.99696581904 -0.057268228033 -0.054294431729 0.99688136944
-0.057916215037 -0.055101191758 0.99679966428 -0.058409905275 -0.05597867542 0.99672196267 -0.058734327776 -0.056919928548 0.99664958761
-0.058878464618 -0.057919502547 0.99658349255 -0.058835758433 -0.058971793502 0.99652430031 -0.058602055721 -0.060070318849 0.99647245615
-0.058177382525 -0.061207935191 0.99642811122 -0.057566541183 -0.062376630297 0.99639111263 -0.056778636276 -0.063567965581 0.99636102905
-0.055825915004 -0.064774493247 0.99633715791 -0.054723508718 -0.065989874317 0.99631856054 -0.053488281122 -0.067203941023 0.99630448864
-0.052140008676 -0.068409754363 0.99629389489 -0.050700047388 -0.069599618504 0.99628580151 -0.049188931009 -0.070764578942 0.99627949062
-0.047627579314 -0.071896077301 0.99627434362 -0.046037000832 -0.07298645721 0.99626982872 -0.04443745122 -0.074028226669 0.9962655944
-0.04284807613 -0.07501277499 0.99626157507 -0.041286594389 -0.075932699095 0.99625781921 -0.039769220097 -0.076779110424 0.99625467494
-0.038310415603 -0.077543983242 0.99625259986 -0.036923405429 -0.078221913231 0.99625197336 -0.035620198129 -0.078806709553 0.99625333325
-0.034410410743 -0.079291672504 0.99625737353 -0.033302188286 -0.079671572422 0.99626472627 -0.03230279009 -0.079940466696 0.99627609202
-0.031417594724 -0.080095736836 0.99629192895 -0.030650531029 -0.080133986865 0.99631274663 -0.030004084397 -0.080051300804 0.99633907088
-0.029479863206 -0.079847057589 0.9963711081 -0.02907848408 -0.079520992572 0.99640897904 -0.028798874938 -0.079071541516 0.99645286699
-0.028639344534 -0.078499924186 0.99650265923 -0.028597333469 -0.077808682542 0.9965580773 -0.028668957552 -0.076997905349 0.99661899111
-0.028849840078 -0.076069652279 0.99668505293 -0.029134646083 -0.075027625611 0.99675575132 -0.029517597437 -0.073874527492 0.9968306103
-0.029992425931 -0.072612270102 0.99690917972 -0.030551925616 -0.071242817777 0.99699099332 -0.031188745844 -0.069769008878 0.99707549741
-0.031895259283 -0.068194339419 0.99716208537 -0.03266368347 -0.066520398883 0.99725027968 -0.033485853071 -0.06474677601 0.99733973782
-0.034353739022 -0.062875550807 0.99742994026 -0.035259552247 -0.060908938923 0.99752035826 -0.036195143056 -0.058846059466 0.99761067201
-0.037152889044 -0.056687211711 0.99770046751 -0.038125325908 -0.05443336831 0.99778929035 -0.039105109567 -0.052083541171 0.99787679357
-0.040085482629 -0.049637635278 0.99796255403 -0.041059636684 -0.047095699326 0.99804614189 -0.042021074805 -0.044456681177 0.99812716263
-0.042963394619 -0.041720427022 0.99820516563 -0.043880589845 -0.03888721177 0.99827965951 -0.044766683072 -0.035955812757 0.99835020089
-0.045615308113 -0.032926474021 0.99841629142 -0.046420409607 -0.029799180295 0.99847741808 -0.047175342205 -0.026572288405 0.99853312443
-0.047872644298 -0.023247050399 0.99858288818 -0.048504741194 -0.019823506794 0.99862621569 -0.04906288376 -0.016302536807 0.99866263609
-0.049537238117 -0.012684768259 0.99869172355 -0.049917491131 -0.0089716774637 0.99871304842 -0.050191375857 -0.0051662305319 0.99872625671
-0.050345907226 -0.0012709650197 0.998731032 -0.050367488726 0.0027089371504 0.99872707871 -0.050241018747 0.0067671860783 0.99871419597
-0.049951799366 0.010896515568 0.99869218666 -0.049484859442 0.015088849545 0.99866089105 -0.048826004583 0.019333838486 0.99862016
-0.047963146648 0.023620392124 0.99856978406 -0.046885343075 0.027935654063 0.99850957123 -0.045584668681 0.032268655563 0.99843916783
-0.044056429779 0.036608136484 0.99835808973 -0.0422997192 0.040943298935 0.99826568609 -0.040317306482 0.045265102809 0.99816110186
-0.038115705465 0.049566799161 0.99804324827 -0.035705126857 0.053843680019 0.99791081868 -0.033098448632 0.058093403099 0.997762321
-0.030311628258 0.06231847588 0.99759591657 -0.027362110896 0.066520338964 0.99740982519 -0.024268368459 0.070704000232 0.99720208115
-0.021049488042 0.074877584691 0.99697054438 -0.017724051988 0.079049001582 0.99671315499 -0.01430996384 0.083226761724 0.99642788553
-0.010823813711 0.087418722318 0.99611285106 -0.0072806546886 0.09163183215 0.99576633775 -0.0036939474585 0.095871740989 0.9953868414
-7.5444877851e-05 0.1001418499 0.99497316758 0.0035646595156 0.10444404469 0.99452437614 0.0072175236713 0.10877702674 0.99403997194
0.010875465646 0.11313432801 0.99352018 0.014531756207 0.11750947238 0.99296543342 0.018180129915 0.12189172991 0.99237688861
0.021814642788 0.12626694992 0.99175641098 0.025429382826 0.13061931796 0.99110642227 0.029018228125 0.13492991633 0.99043013894
0.032574726885 0.13917967702 0.9897312285 0.036091935014 0.14334638579 0.9890142496 0.039562222549 0.14740730678 0.98828432976
0.042977489214 0.151342199 0.98754669471 0.046329171777 0.15512932531 0.98680722549 0.049608146467 0.15874814498 0.98607203503
0.052804923026 0.16218127389 0.98534708327 0.055909858412 0.16541360035 0.98463822217 0.058913264965 0.16843278495 0.98395102732
0.061805455513 0.17122767804 0.98329098844 0.064577042388 0.17379290374 0.9826626238 0.067218762219 0.17612587854 0.98206991244
0.069721658523 0.17822687194 0.981516211 0.072077116667 0.18009986439 0.98100404082 0.074276745279 0.18175041558 0.98053544125
0.076312377571 0.18318699884 0.98011170001 0.078175859361 0.18442067585 0.97973340728 0.079859156761 0.18546371792 0.97940069656
0.081354108459 0.18632920575 0.97911334182 0.082652416567 0.1870315857 0.97887065743 0.083745513917 0.18758411823 0.97867200199
0.08462457051 0.188000945 0.97851639064 0.085280608513 0.18829574877 0.97840274366 0.085704436218 0.188480137 0.97833020375
0.085886831203 0.1885653152 0.9782977942 0.085818753474 0.18856026079 0.97830474271 0.085491630605 0.18847242072 0.97835030931
0.08489769634 0.18830686141 0.97843390533 0.084030389632 0.18806627775 0.97855504127 0.082884632609 0.18775149474 0.97871319287
0.081457386595 0.18736072043 0.97890788873 0.079748342682 0.18689021544 0.97913852402 0.07775978012 0.18633347073 0.97940454067
0.07549719706 0.18568248379 0.97970515383 0.072969794053 0.18492790975 0.98003932439 0.070190207448 0.18405941759 0.98040576578
0.067174145731 0.18306593639 0.98080298586 0.063940645256 0.18193633656 0.98122921039 0.060511734487 0.18066116459 0.98168216527
0.056910904633 0.17923149444 0.98215946787 0.053163526073 0.17764067291 0.98265834898 0.049295341189 0.17588445841 0.98317578623
0.045331803521 0.1739611347 0.98370857026 0.041297533775 0.17187216718 0.98425325595 0.037215518816 0.16962173858 0.98480631139
0.033106865865 0.16721671728 0.98536414837 0.028990339896 0.16466673031 0.985923135 0.024882973943 0.1619832872 0.98647972725
0.020799665702 0.15917948412 0.98703052929 0.016753657114 0.15626947646 0.98757235973 0.012757413809 0.15326727197 0.98810241966
0.0088233464873 0.15018709235 0.98861822047 0.0049643440845 0.14704231297 0.98911774501 0.0011947038621 0.14384459366 0.98959956829
-0.0024690730236 0.14060406077 0.99006282719 -0.0060079843596 0.13732926854 0.99050723174 -0.0093994942991 0.1340257876 0.99093326605
-0.01261768906 0.13069644995 0.99134213665 -0.015633189543 0.12734276509 0.99173556131 -0.018413160118 0.12396404912 0.99211585516
-0.020922046177 0.12055799004 0.99248578782 -0.023122571444 0.11712171 0.99284835284 -0.024976609923 0.11365179287 0.99320664463
-0.026446253007 0.11014515424 0.99356360677 -0.027495697611 0.10659935028 0.99392181037 -0.028092972708 0.10301452387 0.99428305465
-0.028211066989 0.09939290453 0.99464827262 -0.027829406585 0.095739007256 0.99501737001 -0.026935269879 0.092060474186 0.99538904973
-0.025524977174 0.08836767863 0.99576082917 -0.023604004816 0.084673735635 0.99612911284 -0.021187276166 0.080993993295 0.99648937394
-0.01829966315 0.07734560568 0.99683638558 -0.014974344329 0.073746563755 0.99716458689 -0.011252638766 0.070215327692 0.99746838841
-0.0071831267129 0.066770432541 0.99774250788 -0.0028194626726 0.063429652079 0.99798232944 0.0017807243503 0.060208846554 0.99818421337
0.006556782384 0.057122336502 0.99834565521 0.011447027632 0.054183043327 0.99846540419 0.016389553525 0.051401210225 0.99854358849
0.02132332221 0.048785178027 0.99858165532 0.02618930509 0.046341896254 0.9985822695 0.030930626076 0.044076001386 0.9985492489
0.035493480692 0.041991031507 0.99848733898 0.039827573166 0.040089675906 0.99840201437 0.043885921203 0.038373172959 0.9982993166
0.047624808993 0.036842244109 0.99818561732 0.051004672954 0.035497641479 0.99806735283 0.053989960692 0.034339733427 0.99795083389
0.056548278127 0.033368292055 0.99784209639 0.058651617793 0.032583908787 0.9977465994 0.060276174632 0.031987097978 0.99766908759
0.061402204336 0.031578158793 0.99761344678 0.061402204336 0.031578158793 0.99761344678
NormalArray 3 227 double
-0.92759920377 0.3735358309 -0.0055407756312 -0.92759920377 0.3735358309 -0.0055407756312 -0.94387217701 0.33020254859 -0.0084611099467
-0.94403059942 0.32974266051 -0.0087180964187 -0.9424313033 0.33428467895 -0.008774507899 -0.94342875576 0.33144144007 -0.0094209669148
-0.9440386582 0.32967995517 -0.010106383142 -0.9464024062 0.32279496399 -0.011220372579 -0.94830286403 0.31712658338 -0.012345371205
-0.95126698391 0.30806107684 -0.013765836324 -0.95424568232 0.29863318966 -0.015277297278 -0.95598851358 0.29293337842 -0.016613178706
-0.9601161402 0.27898777339 -0.018515389037 -0.9642195352 0.26431125283 -0.020499989451 -0.96988907276 0.24246325702 -0.022951155361
-0.97404547396 0.22495049196 -0.025153346105 -0.97979342839 0.19805297873 -0.027925889456 -0.9850483142 0.16950515431 -0.030786707455
-0.98926276975 0.14224259742 -0.033559139747 -0.99380135052 0.1048764337 -0.036875593098 -0.99688377786 0.067917874364 -0.040123506579
-0.99875666941 0.024020719598 -0.043682036783 -0.99866796257 -0.020820648502 -0.047210180397 -0.99628315509 -0.069539392265 -0.050834514016
-0.99082403783 -0.12364361083 -0.054589225637 -0.98270238662 -0.17583703932 -0.058115014742 -0.96860533881 -0.240752602 -0.061982919113
-0.9502694612 -0.30445054862 -0.065557719276 -0.92344347365 -0.37745359418 -0.069144307102 -0.88818713667 -0.45373869177 -0.072421059382
-0.83932415076 -0.53838345761 -0.075353981499 -0.77036351363 -0.63285963781 -0.077644933436 -0.68208091412 -0.72702081794 -0.078780434563
-0.56137323381 -0.82386365565 -0.078158616009 -0.41223378387 -0.90797328153 -0.075152029041 -0.23608430884 -0.96926057577 -0.069268574185
-0.051635379026 -0.99680232695 -0.060982855131 0.12601741712 -0.99070655014 -0.051187323548 0.28126647559 -0.95874251976 -0.041254702955
0.40956001201 -0.91171854536 -0.03209190888 0.50980210206 -0.8599461519 -0.024380987728 0.58809708424 -0.80858835219 -0.018074739552
0.64751982162 -0.76193333824 -0.013254006681 0.69347467784 -0.72041668913 -0.0096262777521 0.73097094365 -0.68237485568 -0.0067849741794
0.75856905646 -0.65157315512 -0.0050408442049 0.78228674978 -0.62290746291 -0.0037059109853 0.80106613647 -0.59856850437 -0.0029648921687
0.81796449861 -0.57526365124 -0.002410511643 0.83137839173 -0.55570199876 -0.0022931061205 0.84434250047 -0.53579950657 -0.0021518946918
0.85578092083 -0.51733394413 -0.0021461117769 0.86737105745 -0.49765802302 -0.0019851486653 0.87928328364 -0.47629646643 -0.0016072281483
0.89208280298 -0.45187113297 -0.00086707390085 0.90489777093 -0.42562895819 0.00011884125192 0.91998952259 -0.39193839638 0.0018899145852
0.93659721943 -0.35037940598 0.0044632301134 0.95540283366 -0.29518813704 0.0083300169109 0.97548571711 -0.21961654006 0.014006821764
0.99269525801 -0.11866953466 0.021763875478 0.99898624293 0.030423511995 0.033179758323 0.97036685719 0.23677107399 0.048245424625
0.86631100474 0.49521600676 0.065317300346 0.65864405328 0.74830223623 0.078941588084 0.39291885466 0.91572656931 0.084021568077
0.15622282693 0.98430972349 0.082029242247 -0.020736895693 0.99679744803 0.077232303891 -0.1442112851 0.98691676885 0.072099907172
-0.23060376686 0.97070979482 0.067412142444 -0.29132739698 0.95452460427 0.063333463546 -0.33511743986 0.94027922289 0.05976022506
-0.36616367297 0.9288252857 0.056637030565 -0.38804605193 0.92006518849 0.053854531096 -0.40350229904 0.91353926912 0.05130203165
-0.41380756832 0.90904836208 0.048932318609 -0.41943948296 0.90657952994 0.046734099147 -0.42077036855 0.90606553592 0.044693864965
-0.41995115717 0.90654247487 0.042682160685 -0.41610664455 0.90840186803 0.040759127959 -0.40944713953 0.91150367248 0.038911373559
-0.40114930923 0.91526248335 0.037065054687 -0.39079433507 0.9198029439 0.035246731319 -0.37859947415 0.92495629586 0.033440827177
-0.36524720741 0.93037390943 0.031604843362 -0.35026582878 0.93617723588 0.029766293057 -0.33419444278 0.94209137073 0.027891281864
-0.31691604333 0.9480975452 0.025985885775 -0.29897691643 0.95395801819 0.024018804552 -0.27965869098 0.95984672673 0.022029020653
-0.25979509073 0.96545725232 0.019970096841 -0.23881403951 0.97090081651 0.017873416687 -0.21677811142 0.97609410702 0.015733551696
-0.19369073135 0.98096904203 0.013551353057 -0.16945034507 0.98547357506 0.011331964653 -0.14368602348 0.98958152971 0.0090952022386
-0.11635106533 0.99318457262 0.0068435589812 -0.08741576445 0.99616138842 0.0045795566999 -0.056187399525 0.99841749597 0.0023409137865
-0.023127173502 0.99973252549 0.00010640155763 0.012236086516 0.99992294141 -0.0020950943441 0.049997504616 0.99874029072 -0.0042522033246
0.089643534483 0.99595346032 -0.0063829141969 0.13160296519 0.99126643994 -0.0084560394951 0.17494587792 0.98452198502 -0.010507179033
0.21945865252 0.9755412764 -0.012534667229 0.26484707815 0.96418081061 -0.014539245167 0.3097164261 0.95068432062 -0.016584870422
0.35410806098 0.93501835072 -0.018659179173 0.3963892437 0.91784579409 -0.020848639106 0.43677182121 0.89927469102 -0.023138847948
0.47363712184 0.88034698819 -0.025633126987 0.50753164331 0.86116804115 -0.028306111341 0.53725127559 0.84284305708 -0.031251368247
0.56295263025 0.82576963751 -0.034479586184 0.58500928179 0.81013672827 -0.037981860587 0.60290105952 0.79671931456 -0.041816817607
0.617122505 0.78552328271 -0.045967229019 0.62796952839 0.77660257996 -0.050425233932 0.63571187031 0.76995162878 -0.055180678571
0.64089684618 0.76526318997 -0.060195370604 0.64378093747 0.76240561848 -0.065450572581 0.64488707217 0.76098201767 -0.070901572132
0.64458990141 0.7606902346 -0.076512913883 0.64318761369 0.76127784729 -0.082254074723 0.64125468831 0.76225732639 -0.088069251678
0.63936286131 0.76314996443 -0.093900284167 0.63713956623 0.76426392826 -0.099768838351 0.63575121681 0.76464119902 -0.10556622129
0.63469753295 0.76470056089 -0.11131978192 0.63475993386 0.76380795188 -0.11694972859 0.63569361268 0.76216648512 -0.12245766518
0.63776265505 0.75955606992 -0.12780208319 0.64127197943 0.75571087157 -0.13293354348 0.64605049109 0.75074565819 -0.13783947064
0.65194429035 0.74475535207 -0.14250651859 0.65958372346 0.7371464429 -0.14684833494 0.66836274928 0.72837136252 -0.15088536591
0.67860742255 0.71805646872 -0.15455378934 0.68994450075 0.70644074923 -0.15785453339 0.70264178056 0.69315384703 -0.16072421275
0.71671534539 0.67802030341 -0.16311830628 0.73136525736 0.6617022643 -0.16509080453 0.74722240735 0.64337175891 -0.1665276367
0.76339344629 0.62383675482 -0.16750567006 0.78020282821 0.60255930585 -0.16794591326 0.79721416018 0.57988538117 -0.1678765246
0.81422843052 0.55591626328 -0.16729964482 0.83062851927 0.53141099963 -0.16630878645 0.84663050228 0.50600439289 -0.16485250068
0.86153700268 0.48078956312 -0.16308092778 0.87511454662 0.45631978307 -0.16108006044 0.88784532821 0.43188854017 -0.15875440797
0.89771512807 0.41175034039 -0.15674567306 0.90546956809 0.39510920138 -0.15496315772 0.90664170371 0.39238958407 -0.15502011289
0.82902520523 0.53107546902 -0.17514581152 -0.96261511179 -0.23751715157 0.13022192314 -0.95476225125 -0.26520436692 0.13452021169
-0.95441441323 -0.26664901881 0.13413213111 -0.95543836547 -0.26367208638 0.13271985782 -0.95616458203 -0.26179525522 0.13119655637
-0.95634934985 -0.26186569582 0.12970072629 -0.955845589 -0.26437645945 0.12831327945 -0.95441293265 -0.27005178156 0.12715340837
-0.95225570892 -0.27805163332 0.12608074411 -0.9490957589 -0.28903449182 0.12520504375 -0.94508908346 -0.30221131738 0.12439832787
-0.93995192524 -0.31808368075 0.12374631421 -0.93381775327 -0.335891569 0.12313105843 -0.92664412617 -0.35541233485 0.12252646926
-0.91832849501 -0.37657067263 0.12193155362 -0.9090331479 -0.39869304142 0.12125425662 -0.89872551396 -0.42163357813 0.12048890548
-0.88759549309 -0.44483446196 0.11956814834 -0.87577311356 -0.46796169466 0.11846225517 -0.86344317628 -0.49065696131 0.11713935142
-0.85079705652 -0.51262653983 0.1155785416 -0.83812648832 -0.53348463281 0.113745928 -0.82544493818 -0.55332494013 0.11167884604
-0.81308791889 -0.57177929824 0.10934564578 -0.80094817484 -0.58912971267 0.10680918903 -0.78904625034 -0.60544953231 0.1041003297
-0.77724077474 -0.6209990542 0.10127661507 -0.76524744405 -0.63616907781 0.098413687101 -0.75254550899 -0.65156167546 0.095617153149
-0.73864856849 -0.66764818296 0.092974168815 -0.72279438822 -0.68509826207 0.090601565497 -0.70372791682 -0.70491513953 0.088666031542
-0.68034601036 -0.72767590719 0.08727588607 -0.65106932495 -0.7540661512 0.086561964641 -0.61382469435 -0.78467234906 0.086651885252
-0.56634900934 -0.81949618787 0.087605922621 -0.50607719107 -0.85784137448 0.089409467651 -0.43023646506 -0.89802200413 0.091940547256
-0.33689436174 -0.93674973358 0.094879532343 -0.22579209095 -0.96926312247 0.097708398227 -0.099967292447 -0.98997862054 0.099744028978
0.034803435028 -0.99434334462 0.10034955864 0.16980233862 -0.98048374995 0.099089766815 0.29673183192 -0.95013291519 0.095904449333
0.40941534009 -0.90779287738 0.09105586784 0.50551178714 -0.85862619271 0.084964076261 0.58501854552 -0.80725536147 0.078051795488
0.64972296055 -0.75688043999 0.070654611324 0.70211724099 -0.70926903611 0.062998526365 0.74441532346 -0.66542798172 0.05523972605
0.77876334899 -0.62551938458 0.047467312771 0.80681928119 -0.58945995951 0.039744227751 0.8298100731 -0.5571205211 0.032124251751
0.84882305256 -0.52810246526 0.024641664499 0.86469206693 -0.50200333887 0.017328506931 0.87786791225 -0.47879340016 0.010237607249
0.88898190366 -0.45792978721 0.0033889453145 0.898339915 -0.43928956687 -0.0031738862906 0.90617779127 -0.42279228151 -0.0094073008865
0.91284337515 -0.40802352238 -0.015289788394 0.91847231965 -0.39493892966 -0.020780757171 0.92317046716 -0.38352121261 -0.025841208268
0.92709812748 -0.37358023216 -0.030444575241 0.9304277103 -0.36484113574 -0.03457197667 0.93316586051 -0.35741191219 -0.038186408634
0.93528251901 -0.35148987005 -0.041249010763 0.93717196653 -0.34610885373 -0.043787743995 0.93848162847 -0.34228844492 -0.045725851457
0.93963498228 -0.33892058562 -0.047105591113 0.93963498228 -0.33892058562 -0.047105591113
BinormalArray 3 227 double
-0.37253603523 -0.92601931765 -0.060869744434 -0.37253603523 -0.92601931765 -0.060869744434 -0.3291249386 -0.94234330795 -0.060546385177
-0.32865194975 -0.94250864743 -0.060542096506 -0.33318240157 -0.94091395509 -0.060583961516 -0.33030952795 -0.94192810068 -0.06055632826
-0.32851439684 -0.94255687618 -0.060537808339 -0.32158256098 -0.94494934822 -0.060459786484 -0.31586475335 -0.94688048318 -0.060388808186
-0.30674090835 -0.94988331664 -0.06026358698 -0.2972510524 -0.95290477075 -0.060119129424 -0.29149188029 -0.95468828096 -0.060023078206
-0.2774738061 -0.95887239944 -0.059766282544 -0.26272279231 -0.96303705181 -0.059467396493 -0.24079131397 -0.96878351657 -0.058974919625
-0.22320038661 -0.97301319758 -0.058539770643 -0.19621575042 -0.97885532153 -0.057806909687 -0.16758126394 -0.98421189429 -0.056951445168
-0.14023545562 -0.98852984432 -0.05606035925 -0.10278186806 -0.99319710331 -0.054730261878 -0.06574058101 -0.99641233227 -0.053297655769
-0.021762781573 -0.99843836819 -0.051451008309 0.02315299743 -0.99851032252 -0.049407231655 0.071939236558 -0.99630057641 -0.047009655191
0.12610161033 -0.99103500487 -0.044136186963 0.17834319654 -0.9831073993 -0.041152711735 0.24328851112 -0.96924206153 -0.037155437256
0.30700052513 -0.95113980147 -0.032920444003 0.3799889649 -0.92457698234 -0.027672916159 0.45622957364 -0.88959712652 -0.021714709888
0.54078269469 -0.84103767882 -0.014481019321 0.6350981707 -0.77241173839 -0.0055154311246 0.72903084753 -0.68446537163 0.0046019983615
0.82553364825 -0.56410330221 0.016782730438 0.90920382225 -0.41527208904 0.029958332181 0.96995591542 -0.23936177219 0.043490966367
0.99692884101 -0.055049543247 0.055699495071 0.99028175996 0.12256777342 0.065720444363 0.95783869664 0.27785668536 0.073080049435
0.91042626759 0.40623008594 0.07810972124 0.85836350695 0.50655875456 0.081303862814 0.80679489709 0.58493075697 0.083294679155
0.7600010183 0.64440814171 0.084478394092 0.71839975556 0.6903949091 0.085186035801 0.68030910865 0.72790671562 0.085623186298
0.64950319944 0.75549489014 0.08586655278 0.62085179094 0.77919329166 0.086028297233 0.59655133398 0.79793992252 0.086130052717
0.57329372288 0.81480223713 0.086206853998 0.55379650081 0.82817164021 0.086262216793 0.53395791484 0.8410937584 0.086314742449
0.51556091582 0.85248969134 0.086361265877 0.49594643442 0.86404323811 0.08640843045 0.47463598288 0.87592616371 0.086452527333
0.45024502738 0.8887065938 0.086487024828 0.42402439353 0.901510578 0.086498505506 0.39032099587 0.91660994756 0.086462270432
0.34871416975 0.93324546746 0.086321059267 0.293421863 0.95211155034 0.085948856974 0.2176789964 0.97230555749 0.085075010475
0.11648630595 0.98969804207 0.083238969489 -0.032970159115 0.99631970475 0.079120253671 -0.23976638087 0.96826197269 0.070575029888
-0.49863431564 0.86509280083 0.054573484549 -0.75189258065 0.65857435039 0.030616534205 -0.91912208028 0.39394484585 0.0046968045817
-0.98730654626 0.1580257262 -0.015926505229 -0.99937589208 -0.018456882952 -0.030119259556 -0.98913153631 -0.14165667628 -0.039397841833
-0.97261996146 -0.22789449805 -0.045546770702 -0.95617964848 -0.28853706041 -0.049667339394 -0.94171387 -0.33229134383 -0.052511426104
-0.93006699704 -0.36333324492 -0.054445699108 -0.92113345473 -0.38523305914 -0.055755257367 -0.91444691306 -0.4007222095 -0.056644099567
-0.90980546758 -0.41107250878 -0.057213666978 -0.9071954607 -0.41675963387 -0.05751350852 -0.90654894771 -0.41815439686 -0.057583902213
-0.90689627092 -0.4174055658 -0.057547783913 -0.90863195208 -0.41363770054 -0.057374457325 -0.91161557224 -0.40706043329 -0.057086356542
-0.91525892213 -0.39884977949 -0.05674468131 -0.91968812496 -0.38858660915 -0.056340038982 -0.9247341394 -0.3764879221 -0.055889318593
-0.93004711255 -0.36323614056 -0.055424494852 -0.93574994279 -0.34835926587 -0.054935111333 -0.94156694063 -0.3323965293 -0.054444867756
-0.9474800094 -0.31523078966 -0.05395536163 -0.95325090993 -0.29740861503 -0.05348661919 -0.95905524379 -0.27821114413 -0.053024509742
-0.96458579426 -0.2584727089 -0.05259376634 -0.96995515366 -0.23762073425 -0.05218607621 -0.97508037489 -0.21571788922 -0.05180786402
-0.9798939282 -0.19276751082 -0.05146432021 -0.9843443862 -0.16866790283 -0.051159240779 -0.98840637396 -0.14304762613 -0.05089417025
-0.9919720216 -0.11585983496 -0.050675506968 -0.99492046326 -0.087074664613 -0.050510143315 -0.99715786209 -0.055998337519 -0.050402224861
-0.99846403214 -0.023092468976 -0.050361834807 -0.99865579369 0.0121149863 -0.050396754268 -0.99748488187 0.049719582596 -0.050516072087
-0.99472049062 0.089207459423 -0.050726469597 -0.99006661808 0.13100828856 -0.051038417792 -0.98336664631 0.17419145703 -0.0514526503
-0.97444211547 0.21854357718 -0.051973728729 -0.96314993111 0.26377066495 -0.052604624446 -0.94973563342 0.30847699491 -0.053330762452
-0.93416621227 0.35270459051 -0.054156806537 -0.91710757343 0.39481988874 -0.055054102658 -0.89866839879 0.4350357463 -0.056026854721
-0.87989491975 0.47173330687 -0.057031722602 -0.86089301017 0.50546064438 -0.058075485557 -0.8427725432 0.53501470789 -0.059107552548
-0.82593313367 0.56055411276 -0.060112772188 -0.81056489876 0.5824547416 -0.061082066721 -0.79744677485 0.60019936534 -0.061962594536
-0.78658548987 0.61428537312 -0.062743505579 -0.77803607204 0.62501175041 -0.063404908744 -0.77179378261 0.63265140123 -0.063926220322
-0.76755070035 0.6377540412 -0.064309449639 -0.76517520648 0.64057886341 -0.064541638845 -0.76426894409 0.64165019914 -0.06463747394
-0.76452851701 0.64134388348 -0.064607815335 -0.7657003244 0.63995896802 -0.064463419544 -0.76729416267 0.63806843428 -0.064252168081
-0.76882823558 0.63624111437 -0.064034276447 -0.77061144632 0.63410738196 -0.063763837176 -0.77167990333 0.63282402209 -0.063591539273
-0.77245269307 0.63189374861 -0.063459652032 -0.77229086027 0.63208860646 -0.063488744817 -0.77139586026 0.63316361759 -0.063657365035
-0.76954381486 0.63537673403 -0.064021268813 -0.76646436357 0.63902495434 -0.064648952891 -0.76226871476 0.6439348124 -0.065531396129
-0.7570479362 0.64995000143 -0.066658967415 -0.75020191921 0.65768534586 -0.068169393827 -0.74217940364 0.66653895965 -0.069968193387
-0.73260057751 0.67682504544 -0.072140499702 -0.72169985009 0.68817135122 -0.074629201647 -0.70910066664 0.70083388995 -0.077511955673
-0.69462162316 0.71482134162 -0.080816150707 -0.67892169351 0.72934637863 -0.084375316598 -0.66116587325 0.74501842578 -0.088358549681
-0.64215989948 0.76096181603 -0.092562292801 -0.62136015008 0.77748718432 -0.097083686172 -0.59910979621 0.79416606018 -0.10182200617
-0.5755071537 0.81080184489 -0.10673277077 -0.55131188813 0.82679584166 -0.11164156133 -0.52615521254 0.84235548536 -0.11661015653
-0.5011342156 0.85680967728 -0.12141529917 -0.47680510519 0.86993760783 -0.12595812853 -0.45245702788 0.8822043343 -0.13037695526
-0.43237279158 0.8916935022 -0.13392709671 -0.41575483049 0.89912926211 -0.13680091719 -0.41310479385 0.9002808741 -0.13725442445
-0.55257638505 0.82607624836 -0.11071300997 0.25691883564 -0.95290641238 0.16112753064 0.28481612434 -0.94559229607 0.15727359894
0.28615644145 -0.94521893057 0.15708489521 0.28297777901 -0.94610153051 0.15752926886 0.28085481968 -0.94668506937 0.15782252595
0.28064321694 -0.94674300515 0.15785140795 0.28284167273 -0.94613801058 0.15755460357 0.28818287697 -0.94464378099 0.15683990709
0.29581960392 -0.94244856858 0.15582508629 0.30641907512 -0.93928735259 0.15442350751 0.31918640182 -0.93530233104 0.15274027121
0.33463115872 -0.93022020779 0.15070617983 0.35198863272 -0.92416233602 0.14841825739 0.37103772507 -0.91708430138 0.14590199015
0.39170642602 -0.90888426101 0.14316241091 0.41331873357 -0.89971531612 0.14028533218 0.43573205056 -0.8895447055 0.13728727919
0.45838768333 -0.87855553329 0.13424197071 0.48095318616 -0.86687473748 0.13119535909 0.50307145267 -0.85468369127 0.12819867935
0.52445047816 -0.84217136031 0.12529603277 0.54470501171 -0.829625828 0.12254564758 0.56393394262 -0.8170635993 0.11993991442
0.58176920687 -0.80481695182 0.11753409722 0.59849923658 -0.79278372358 0.11529367475 0.61420132141 -0.78098656017 0.11321099603
0.62914142022 -0.76928799027 0.11125224219 0.64371709987 -0.75740838564 0.10936559197 0.65853916329 -0.744832945 0.1074711797
0.67408619326 -0.73107893 0.10550546033 0.69103702975 -0.7153887358 0.10337688429 0.71040739621 -0.69651398717 0.10094353414
0.7327824371 -0.67335444757 0.098100396626 0.75885725765 -0.64433536283 0.094697427173 0.78922759717 -0.60738967652 0.090540492162
0.82389991358 -0.56026044756 0.085423435312 0.86217818539 -0.50039052876 0.079108124482 0.90237062956 -0.42501735267 0.071326690912
0.94117096467 -0.33221676903 0.061880801895 0.97378740918 -0.22173312323 0.050719855916 0.99459405052 -0.096593678615 0.038109525402
0.99899592422 0.037448144653 0.02459227221 0.98508511811 0.17171388581 0.011029573598 0.95458090865 0.29794682843 -0.0017251866614
0.91199098397 0.41000395747 -0.013007690726 0.86249677334 0.50556050052 -0.022536554636 0.81074311636 0.58461846912 -0.030279445874
0.75995078582 0.64896044321 -0.03640255881 0.71190389023 0.70106981018 -0.041157895107 0.667622052 0.74315234568 -0.044781545173
0.62727669251 0.77734626059 -0.047505180658 0.59079158604 0.80530344304 -0.049514305943 0.55804307325 0.82824611062 -0.050953985439
0.52863639115 0.84725723654 -0.05194940898 0.50217187789 0.86316675421 -0.052598093818 0.47862230535 0.87642158551 -0.052970683167
0.45744561523 0.88764875733 -0.053133724835 0.43851968874 0.89714943298 -0.053135463631 0.42176427894 0.90515412654 -0.053017923551
0.40676428711 0.91200524037 -0.05281340994 0.39347472911 0.91783226121 -0.052550716741 0.38187735529 0.9227345117 -0.052256161723
0.37178076818 0.92686593377 -0.051948062726 0.36290880292 0.93039285418 -0.051636592091 0.35536820472 0.93331533135 -0.051341321983
0.34935497975 0.93559683002 -0.051084927179 0.34390215598 0.93762836468 -0.050836570079 0.34002796324 0.93905028941 -0.050651141881
0.33662422577 0.94028488052 -0.05048241373 0.33662422577 0.94028488052 -0.05048241373
