# vtk DataFile Version 4.1
vtk output
ASCII
DATASET POLYDATA
POINTS 153 float
-0.85688 0.21537 162.454 -0.463471 0.176816 159.276 -0.0696241 0.138512 156.097 
0.325967 0.101204 152.916 0.724591 0.0656263 149.734 1.12748 0.0324749 146.548 
1.5358 0.00239016 143.357 1.95059 -0.0240644 140.161 2.37276 -0.0464214 136.956 
2.80306 -0.0643266 133.742 3.24205 -0.0775546 130.515 3.69009 -0.0860217 127.274 
4.14732 -0.0897966 124.015 4.61365 -0.0891081 120.735 5.08873 -0.0843487 117.431 
5.57199 -0.0760766 114.1 6.06258 -0.0650122 110.738 6.55943 -0.0520324 107.342 
7.06124 -0.0381603 103.909 7.56646 -0.0245522 100.436 8.07337 -0.0124804 96.9201 
8.58003 -0.00331353 93.3605 9.08436 0.0015065 89.7556 9.58416 0.000489297 86.1049 
10.0771 -0.00787703 82.4086 10.5608 -0.0250978 78.6677 11.0329 -0.0526432 74.8842 
11.4909 -0.0919197 71.0608 11.9324 -0.144243 67.2011 12.3553 -0.21081 63.3094 
12.7571 -0.292677 59.3908 13.136 -0.390741 55.4512 13.49 -0.505714 51.4971 
13.8173 -0.638118 47.5353 14.1166 -0.788271 43.5732 14.3865 -0.956282 39.6185 
14.626 -1.14205 35.6789 14.8343 -1.34528 31.7625 15.0109 -1.56546 27.8771 
15.1556 -1.80192 24.0303 15.2683 -2.05378 20.2297 15.3493 -2.32006 16.4823 
15.399 -2.5996 12.7947 15.4181 -2.89118 9.1732 15.4075 -3.19347 5.62327 
15.3683 -3.50509 2.14989 15.3016 -3.82462 -1.24264 15.209 -4.15065 -4.55068 
15.0919 -4.48176 -7.77124 14.9521 -4.81659 -10.902 14.7911 -5.15383 -13.9413 
14.6108 -5.49222 -16.8879 14.4131 -5.83062 -19.7414 14.1998 -6.16796 -22.5018 
13.9728 -6.5033 -25.1694 13.734 -6.8358 -27.7452 13.4852 -7.16474 -30.2302 
13.2282 -7.48952 -32.6261 12.9647 -7.80966 -34.9347 12.6964 -8.12478 -37.158 
12.4247 -8.43465 -39.2982 12.1511 -8.73908 -41.3578 11.8769 -9.03803 -43.3395 
11.6033 -9.33151 -45.2459 11.3312 -9.61963 -47.0801 11.0616 -9.90252 -48.8449 
10.7953 -10.1804 -50.5436 10.5328 -10.4535 -52.1793 10.2747 -10.7222 -53.7553 
10.0215 -10.9866 -55.275 9.77334 -11.2471 -56.7416 9.53055 -11.504 -58.1585 
9.29324 -11.7576 -59.529 9.06149 -12.008 -60.8564 8.83534 -12.2556 -62.1437 
8.61477 -12.5005 -63.3939 8.39974 -12.7429 -64.6099 8.19019 -12.9829 -65.7945 
7.98604 -13.2205 -66.9501 7.7872 -13.456 -68.079 7.59359 -13.6891 -69.1836 
7.40512 -13.9201 -70.2656 7.22168 -14.1487 -71.3269 7.04319 -14.375 -72.369 
6.86955 -14.5989 -73.3936 6.70067 -14.8203 -74.4018 6.53646 -15.039 -75.3949 
6.37682 -15.2551 -76.3741 6.22165 -15.4682 -77.3402 6.07084 -15.6784 -78.2942 
5.92427 -15.8855 -79.237 5.78185 -16.0893 -80.1695 5.64344 -16.2898 -81.0924 
5.50893 -16.4869 -82.0067 5.37818 -16.6803 -82.9129 5.25108 -16.8701 -83.8121 
5.12747 -17.0562 -84.7051 5.00723 -17.2384 -85.5929 4.89023 -17.4167 -86.4763 
4.77633 -17.5911 -87.3566 4.6654 -17.7615 -88.2349 4.5573 -17.9279 -89.1126 
4.4519 -18.0903 -89.9913 4.34908 -18.2489 -90.8724 4.2487 -18.4036 -91.7579 
4.15065 -18.5545 -92.6499 4.05482 -18.7018 -93.5503 3.9611 -18.8456 -94.4617 
3.8694 -18.986 -95.3866 3.77964 -19.1233 -96.3277 3.69176 -19.2575 -97.2878 
3.60572 -19.389 -98.2698 3.52151 -19.5177 -99.2769 3.43913 -19.644 -100.312 
3.35864 -19.7679 -101.379 3.2801 -19.8895 -102.48 3.20364 -20.009 -103.618 
3.12941 -20.1262 -104.797 3.0576 -20.2412 -106.02 2.98846 -20.3538 -107.289 
2.92225 -20.4639 -108.606 2.8593 -20.5712 -109.976 2.79996 -20.6755 -111.398 
2.7446 -20.7761 -112.876 2.69363 -20.8728 -114.411 2.64748 -20.965 -116.005 
2.60657 -21.0519 -117.659 2.57133 -21.1329 -119.373 2.54221 -21.2073 -121.149 
2.5196 -21.2742 -122.985 2.50389 -21.3329 -124.883 2.49543 -21.3824 -126.842 
2.49453 -21.4219 -128.861 2.50144 -21.4505 -130.938 2.51635 -21.4674 -133.074 
2.53939 -21.4718 -135.264 2.57064 -21.4629 -137.508 2.61008 -21.4402 -139.804 
2.65763 -21.4031 -142.148 2.71313 -21.3512 -144.537 2.77636 -21.2842 -146.969 
2.84703 -21.2021 -149.441 2.92477 -21.1048 -151.948 3.00916 -20.9927 -154.487 
3.09974 -20.8662 -157.056 3.19598 -20.726 -159.65 3.29732 -20.5731 -162.267 
3.40315 -20.4085 -164.902 3.51285 -20.2335 -167.553 3.62576 -20.0497 -170.217 
3.74122 -19.8587 -172.89 3.85854 -19.6623 -175.57 3.97703 -19.4626 -178.255 

LINES 1 154
153 152 151 150 149 148 147 146 145 144 143 142 141 140 139 138 137 136 135 134 133 132 131 130 129 128 127 126 125 124 123 122 121 120 119 118 117 116 115 114 113 112 111 110 109 108 107 106 105 104 103 102 101 100 99 98 97 96 95 94 93 92 91 90 89 88 87 86 85 84 83 82 81 80 79 78 77 76 75 74 73 72 71 70 69 68 67 66 65 64 63 62 61 60 59 58 57 56 55 54 53 52 51 50 49 48 47 46 45 44 43 42 41 40 39 38 37 36 35 34 33 32 31 30 29 28 27 26 25 24 23 22 21 20 19 18 17 16 15 14 13 12 11 10 9 8 7 6 5 4 3 2 1 0 

CELL_DATA 1
FIELD FieldData 2
LengthArray 1 1 double
344.11572781 
TortuosityArray 1 1 double
0.0082165651522 
POINT_DATA 153
FIELD FieldData 8
RadiusArray 1 153 double
80.561251395 80.358997483 80.034220679 79.044108966 78.530017869 78.499199496 77.941793408 77.63423382 77.44669683 
77.149511234 77.08630995 76.259888506 76.058247464 75.714384603 75.686065183 75.368000477 75.048228124 75.003904435 
74.382777254 73.894298585 73.117420654 73.10145872 72.686720687 70.946728528 70.849487023 69.952370865 69.317409993 
69.157739538 68.242832656 67.523514701 66.740017426 66.286556735 65.856626368 65.053122563 64.885980173 64.715581926 
64.451215237 63.194733382 62.258588093 61.634059427 59.212638923 58.425272248 57.164087169 57.164074111 57.160822746 
57.146972301 56.579374924 56.56169447 56.330896126 56.141489638 56.026169756 55.71026391 55.655466193 55.448422861 
55.454783251 55.60894032 55.611764146 55.694145644 55.731610809 55.805464949 55.814073838 55.935829085 56.033575047 
56.064468862 56.118001639 56.18899156 56.224694834 56.289399634 56.30901459 56.378953991 56.4678568 56.479277692 
56.519797695 56.830031357 56.869860264 57.020218151 57.094819729 57.107038159 57.308884756 57.313951838 57.406670468 
57.435780305 57.565835241 57.674672088 57.691576743 57.850009382 57.896795865 58.00345088 58.088724454 58.096435995 
58.262700719 58.307505472 58.367196318 58.461363966 58.597041929 58.600749008 58.679848252 58.857562068 58.979346888 
59.093043416 59.155355125 59.232124625 59.297341857 59.350157282 59.380889502 59.405243711 59.441082926 59.468329655 
59.469239031 59.492976366 59.532078453 59.567728942 59.615521761 59.627513185 59.645497778 59.748544334 59.825039177 
59.863045154 59.978463296 60.011510022 60.02771248 60.061400384 60.09964459 60.061201648 60.050986951 60.068676866 
60.08750736 60.157790583 60.204806009 60.205213613 60.187662279 60.166323447 60.192786242 60.150339777 60.100763868 
60.04016137 59.854483426 59.820132936 59.753706383 59.724024049 59.393483641 59.148377537 58.895377331 58.855972552 
58.276840834 57.437395499 57.316874907 57.084102931 56.863731175 56.627199237 56.596975706 55.616196686 53.175168393 

EdgeArray 2 153 int
30553 30553 28919 29088 28440 28440 29048 29048 23827 
23827 28285 28664 27609 28658 27942 27942 28280 28280 
27835 27830 27835 11840 27506 26571 28256 28255 27391 
27391 27686 27686 26284 27467 27405 27405 25589 25589 
27904 27904 27896 27896 27299 27299 27300 26216 26318 
26318 26948 26948 23452 22085 23440 24255 21520 21520 
18831 18831 22532 22532 24638 24638 25599 25599 24445 
23806 23761 23761 24342 24342 22414 22414 22473 22473 
23164 23164 23161 23161 23170 23170 18288 18288 20534 
20534 15624 15624 19143 19143 12097 19143 12097 12097 
20263 20263 10524 10524 17819 17819 20505 20505 20509 
20509 16984 16984 18845 18845 17205 18440 19390 19390 
17449 17449 19320 19320 19323 19321 19294 18719 19294 
19294 18023 19296 19296 19296 18846 18846 18110 13961 
18610 18110 18610 18610 17805 15903 15903 18612 18612 
18612 18857 18857 18848 18855 18849 18848 18849 18849 
18108 18108 18328 18328 18109 18092 18109 18138 18138 
18138 17783 18137 17783 17783 17784 17784 18637 18637 
18636 18636 18635 18635 18634 18634 18633 16186 16186 
16186 8565 8565 18381 18381 18385 18385 18277 18383 
18277 18277 12573 12573 17790 17790 14167 14167 12582 
18390 18390 18563 18563 18563 18562 18562 17983 17983 
17490 17490 16821 17431 16821 16821 17426 17426 17424 
17424 17438 17438 17437 17437 17434 17434 16813 16812 
16813 16554 16554 16554 16553 16552 16038 16037 16038 
16038 11240 15734 11240 7832 15385 14805 15385 15385 
15386 15386 15082 15082 15088 15087 15088 11442 11442 
11442 14507 14507 8907 8907 13525 13525 13498 13498 
9860 13137 8892 8892 11590 8886 11831 8886 10089 
10089 12111 12111 12805 12805 8163 8163 6525 6525 
11394 11394 11552 12159 11552 8574 10911 10911 10368 
10368 11195 11195 10294 10294 10470 10470 8249 8249 
9590 9590 9125 9125 8008 8008 7554 7554 3044 
3044 8010 8010 2162 3262 2291 2291 2547 2547 

EdgePCoordArray 1 153 double
0 0.948 0 0 0 0.536 0.652 0 0 
0.184 0.092 0.268 0.2 0 0 0.492 0 0 
0 0 0 0.024 0 0 0.036 0.796 0 
0 0 0 0 0.032 0 0 0 0 
0 0 0 0 0 0 0 0.996 0 
0 0 0 0 0 0 0 0.868 0 
0 0 0.764 0.692 0 0.728 0 0 0.424 
0.86 0 0.248 0.088 0 0 0.816 0.6 0 
0 0 0.976 0.252 0 0.972 0 0 0 
0 0 0 0.036 0 0 0 0 0.996 
0 0 0 0 0.984 0.028 0 0 0 
0 0.888 0 0 0 0 0 0 0.092 
0.012 0 0.044 0.624 0 0.832 0.028 0.684 0 
0 0 0.52 0.108 0 0 0 0 0 
0.996 0 0.824 0.656 0 0 0 0 0 
0 0.68 0.664 0 0 0 0 0 0 
0 0 0 0 0 0 0.024 0 0 

CurvatureArray 1 153 double
0 4.5866794216e-05 0.00018247958101 0.00031583120155 0.00044116533904 0.00055392317582 0.0006500147338 0.00072493422281 0.00077576487041 
0.00079944711537 0.00079419786306 0.00075872376593 0.00069368416736 0.00060067084497 0.00048181623079 0.00034203433471 0.00018841328122 7.4363123818e-05 
0.00019833353392 0.00037777433714 0.00056139276976 0.00074155588165 0.00091465448722 0.001078197877 0.0012303159728 0.0013701828546 0.0014975188255 
0.0016127906447 0.0017164179626 0.0018095237672 0.001893227556 0.0019687898599 0.00203736704 0.0021001827862 0.0021586359157 0.002213557112 
0.0022661683047 0.0023171790347 0.0023673298739 0.0024173390964 0.0024676406998 0.0025185568213 0.0025701969637 0.0026226722719 0.0026755851482 
0.0027288201776 0.0027815749852 0.0028332864975 0.0028829795524 0.0029296063623 0.0029722432637 0.0030097258526 0.0030404938035 0.0030641033138 
0.0030796979802 0.0030862703083 0.0030837683869 0.0030724740842 0.0030523871089 0.0030251450624 0.0029915521006 0.002953076548 0.0029126136192 
0.0028721874894 0.0028335693012 0.0027992297544 0.0027706488638 0.0027480481418 0.0027324603547 0.002719595544 0.0027102091053 0.0026976931607 
0.0026798159764 0.0026532810695 0.0026141634753 0.0025613800539 0.0024967668926 0.002417112883 0.0023346129465 0.0022462878666 0.0021645544165 
0.0020959745238 0.0020493865309 0.0020285096429 0.0020427316346 0.0020925126564 0.0021771549931 0.0022949280968 0.0024435201954 0.0026158391387 
0.0028157679241 0.0030353416886 0.003274934086 0.0035298816237 0.003807657883 0.0041001101462 0.0044033584217 0.0047213522565 0.0050452777519 
0.0053738970333 0.0057016225998 0.0060153146263 0.0063142502643 0.0065820973452 0.0068164902519 0.0070078928583 0.0071406725435 0.0072181425183 
0.0072391396829 0.0072001490607 0.0071024656313 0.006959270333 0.0067739675119 0.0065593433248 0.0063199829335 0.0060760833644 0.0058251814823 
0.005579813243 0.0053449988801 0.0051252948215 0.0049187284209 0.0047287901297 0.0045545784061 0.0043962008541 0.0042501172158 0.0041162100816 
0.0039916301347 0.0038766620441 0.0037677301311 0.0036640159128 0.0035641742257 0.0034671093874 0.0033719697618 0.0032773579769 0.0031830248356 
0.0030869291673 0.0029884900967 0.0028875983217 0.0027809360055 0.0026697319285 0.0025502114721 0.0024229681974 0.0022851135544 0.002136148036 
0.0019744700947 0.0017987506383 0.0016092335819 0.0014043118025 0.0011849870023 0.00095085688994 0.00070430773548 0.00044704056537 0 

TorsionArray 1 153 double
0 0 -0.00023298520929 -0.00036914894479 -0.00061578308243 -0.00083657145574 -0.0011643341224 -0.0015106368671 -0.0018889708601 
-0.0023954153396 -0.0031085304806 -0.0041283741549 -0.0056419142337 -0.0084260883274 -0.014258285069 -0.030074888133 -0.10434508784 -0.69696776173 
-0.10156531155 -0.028900641771 -0.013492861115 -0.007940265194 -0.005301720198 -0.0038423783635 -0.0029365329167 -0.0023145276228 -0.0018432876448 
-0.001472916186 -0.0011636273078 -0.00088322588714 -0.00062356338197 -0.00037921972094 -0.0001455753133 9.6472350746e-05 0.00033808139854 0.00058030828773 
0.00083245045345 0.0010820116041 0.0013364415483 0.0015977538967 0.0018584838292 0.0021086205967 0.0023554363502 0.0025832693704 0.0027887585554 
0.0029685271964 0.0030998387043 0.0031771983887 0.0031881333423 0.0031174937289 0.0029446822648 0.0026458342787 0.0021843819187 0.0015535187848 
0.00068650555236 -0.00044541616716 -0.0018762247755 -0.0036764106222 -0.0059005612179 -0.0085792743038 -0.011762992161 -0.015434272552 -0.019569460344 
-0.024207161119 -0.029031151266 -0.034005156299 -0.038867357108 -0.043306718702 -0.047396750308 -0.050961890448 -0.054122651772 -0.056867492286 
-0.05976246507 -0.063022948891 -0.066840666705 -0.07196371452 -0.078481616039 -0.086452717354 -0.096168598448 -0.10831449885 -0.12034768269 
-0.1329326313 -0.14529620549 -0.15281984903 -0.15593253849 -0.15503984089 -0.14818192275 -0.13970181407 -0.12857772519 -0.11770190875 
-0.10755733243 -0.097070570066 -0.087849282998 -0.079481671194 -0.070770224927 -0.062898018113 -0.055354181737 -0.048169562974 -0.041234655476 
-0.034506870169 -0.02801563864 -0.022490549618 -0.016955289719 -0.01152115249 -0.0072940063001 -0.0029493137755 0.00075886842214 0.0037373648675 
0.0065795344854 0.0089318261501 0.010620630201 0.011702079117 0.012502943555 0.012823934453 0.012437051535 0.01165859492 0.010575416197 
0.0090005939036 0.007148927798 0.0051901180578 0.0032408949239 0.0012518998577 -0.00064585861813 -0.0023984674538 -0.0038894257031 -0.0051494664298 
-0.0062774404774 -0.0071927585714 -0.0078244943176 -0.0083296790832 -0.0086797761881 -0.0089017221432 -0.0089945010322 -0.0090050261672 -0.0089178884453 
-0.0087101169812 -0.0085001415187 -0.0081808587521 -0.007832340015 -0.0074458988605 -0.0069862771329 -0.0065440569298 -0.0060524372888 -0.0055712072147 
-0.0050501972533 -0.0045309931722 -0.0040399904946 -0.0035187860597 -0.0029903172786 -0.002472146653 -0.0020328491672 0 0 

TangentArray 3 153 double
-0.12287809897 0.011996390871 0.99234926281 -0.12287809897 0.011996390871 0.99234926281 -0.12318377584 0.011798467895 0.99231373745 
-0.12385077704 0.011365851073 0.99223575951 -0.12486402337 0.010707010845 0.99211608977 -0.12619566365 0.0098373289742 0.99195659252 
-0.127806239 0.008779038516 0.99176030055 -0.12964447173 0.0075608925999 0.99153171601 -0.13164904619 0.0062178019417 0.99127688744 
-0.13375068332 0.0047902123139 0.9910034352 -0.13587325438 0.0033231880115 0.99072065446 -0.13793589272 0.0018653137079 0.99043940254 
-0.13985614523 0.00046737702264 0.99017172258 -0.1415538173 -0.00081916772316 0.98993022268 -0.14295171358 -0.001943854601 0.989727755 
-0.14397950525 -0.0028588292464 0.98957654033 -0.14457593097 -0.003520409414 0.98948744656 -0.14468998216 -0.0038904148767 0.98946938999 
-0.14428287365 -0.0039372385538 0.98952865068 -0.14332801237 -0.0036365404839 0.98966855888 -0.14181078629 -0.0029715639557 0.98988932245 
-0.13972820775 -0.0019331115033 0.99018800793 -0.13708776938 -0.00051917583577 0.99055876855 -0.13390501591 0.0012656853174 0.99099336262 
-0.13020275329 0.0034111380497 0.99148152135 -0.12600938696 0.0059019843709 0.99201149236 -0.12135696219 0.008719108882 0.9925706347 
-0.11627932557 0.011840372116 0.99314597317 -0.11081137473 0.015241457834 0.99372457814 -0.10498797755 0.018896630374 0.99429394141 
-0.098842642419 0.022779346974 0.99484231584 -0.092407161371 0.026862787942 0.99535888359 -0.085711424229 0.031120250605 0.99583386253 
-0.078783255819 0.035525498731 0.99625856962 -0.071647537031 0.040052917138 0.99662550352 -0.064326810319 0.044677713881 0.9969282639 
-0.056841431465 0.049376066063 0.99716149934 -0.049209427587 0.054125039861 0.99732086727 -0.041447441783 0.058902724782 0.99740291687 
-0.033570460279 0.063688308708 0.99740504487 -0.025592201189 0.068461907231 0.99732542658 -0.017525811616 0.073204625202 0.99716293993 
-0.0093844711386 0.077898745918 0.99691710643 -0.0011814900898 0.08252754662 0.99658808348 0.0070688227844 0.08707547777 0.99617663741 
0.015350919515 0.091528320747 0.99568414458 0.023647694729 0.095873113214 0.99511262312 0.031939773288 0.10009865941 0.99446473505 
0.040205680105 0.10419569339 0.99374381043 0.048421483622 0.10815697318 0.99295389071 0.056561273175 0.11197771185 0.99209969984 
0.06459740824 0.11565591053 0.99118660464 0.07250009177 0.11919225492 0.99022065372 0.080238623482 0.12259091362 0.98920838614 
0.087782919804 0.12585937077 0.9881566565 0.095102770262 0.12900846986 0.9870725798 0.10216902857 0.13205222495 0.98596333577 
0.10895525196 0.13500753794 0.98483588367 0.11543734245 0.13789384855 0.98369685701 0.12159456717 0.14073270496 0.98255232277 
0.12740998326 0.1435468533 0.981407661 0.13286945154 0.14635899195 0.98026769524 0.13796309178 0.14919115452 0.97913644847 
0.14268498157 0.15206371294 0.97801718964 0.14703098417 0.15499473858 0.97691274979 0.15099996792 0.15799749661 0.97582570203 
0.15459286742 0.16108092299 0.97475842217 0.15781189282 0.16424818498 0.97371347953 0.1606615853 0.16749609355 0.97269363813 
0.16314604367 0.1708151735 0.97170239525 0.16527054186 0.17418974136 0.97074382924 0.16704084415 0.17759866829 0.96982269999 
0.16846374937 0.1810142713 0.96894468301 0.16954689481 0.18440617197 0.96811580619 0.17029855741 0.18774101598 0.96734260335 
0.17072899882 0.19098325218 0.96663178426 0.17084900674 0.19409915256 0.96598971831 0.17067062241 0.19705416078 0.96542280705 
0.17020854132 0.19981820543 0.96493613117 0.16947822347 0.20236435069 0.96453398143 0.1684950848 0.20466730681 0.96422025488 
0.1672781594 0.20670905603 0.96399656822 0.16584577668 0.20847471571 0.96386382403 0.16421534499 0.20994975009 0.96382281717 
0.16240705983 0.21112617067 0.96387223582 0.16043999119 0.2119983156 0.96401022993 0.15833221247 0.21255982669 0.96423504944 
0.15610281023 0.21280917479 0.96454350226 0.15376874173 0.21274304793 0.9649329353 0.15134681904 0.21236091561 0.96539990775 
0.14885131956 0.21166180862 0.96594128364 0.14629458168 0.21064263641 0.96655448636 0.14368784942 0.20930340859 0.96723620956 
0.14104126446 0.20764318231 0.96798330077 0.13836092775 0.20565913976 0.96879335872 0.13564855697 0.20334990252 0.96966400683 
0.13290711137 0.20071619374 0.97059193759 0.1301352969 0.19775833878 0.97157420918 0.12732933083 0.19447757224 0.97260768833 
0.12448371788 0.19087767419 0.97368861423 0.12158983111 0.1869641947 0.97481295789 0.11863892772 0.18274816195 0.97597536554 
0.11562339099 0.1782428096 0.97716975612 0.11253431228 0.17346682967 0.97838912891 0.10936199805 0.16844540284 0.97962548948 
0.10610030602 0.16320426219 0.98087057957 0.10274460016 0.15777901632 0.98211472301 0.09929333454 0.1522086003 0.98334804404 
0.095746474735 0.14652969209 0.98456165978 0.092105340561 0.14078199812 0.9857469428 0.088375020346 0.13500666346 0.98689566652 
0.084562282067 0.12923932285 0.98800122362 0.080675313907 0.12350992866 0.98905853783 0.076722114353 0.11784378759 0.99006391657 
0.072711562185 0.1122605624 0.9910149317 0.068651863301 0.10676893088 0.9919109421 0.064550252693 0.10137120241 0.99275230758 
0.06041439502 0.096065409537 0.99353990255 0.056250207166 0.090840827196 0.99427554446 0.052062775674 0.085681380213 0.99496139044 
0.04785750777 0.080569495401 0.99559942515 0.043639833899 0.075486332199 0.9961914367 0.039414967762 0.070410924561 0.99673906416 
0.035188579391 0.065322117899 0.99724359351 0.030967735401 0.060200576425 0.99770581333 0.026760235219 0.05502956108 0.99812606279 
0.02257466275 0.049794927534 0.99850430635 0.018420958676 0.044484253331 0.99884023722 0.014309980645 0.039088491303 0.99913328155 
0.010253354709 0.033603575079 0.99938264367 0.0062634509987 0.028028266587 0.99958750765 0.0023530016505 0.022364931618 0.99974710463 
-0.0014652063503 0.016619250549 0.99986081715 -0.0051785132733 0.010800816651 0.99992826011 -0.0087745809193 0.004922305718 0.99994938754 
-0.012241483161 -0.00099941884077 0.99992457078 -0.015568274807 -0.0069429219786 0.99985470177 -0.018744748148 -0.012884814725 0.99974127451 
-0.021761692038 -0.01879620024 0.99958648031 -0.024610762188 -0.024644910513 0.99939328533 -0.027284567489 -0.030394707065 0.99916550889 
-0.029776933482 -0.036004838251 0.99890789658 -0.032082175004 -0.041431538745 0.99862613707 -0.034195476603 -0.046626738945 0.99832690868 
-0.036112599602 -0.051540114816 0.99801778377 -0.037830006334 -0.056118089924 0.99770719683 -0.039344804855 -0.060306673482 0.99740417658 
-0.040654118744 -0.064051463508 0.99711817386 -0.041755595069 -0.067298726534 0.99685874209 -0.042647176819 -0.069997303072 0.99663513678 
-0.043326955361 -0.07210072565 0.99645584965 -0.043793339646 -0.073570192902 0.99632804343 -0.043793339646 -0.073570192902 0.99632804343 

NormalArray 3 153 double
0.83619941713 0.53977601113 0.097017486013 0.83619941713 0.53977601113 0.097017486013 0.83523053864 0.54123253244 0.09724861518 
0.83480372794 0.5417562451 0.097994421842 0.83387851783 0.54298066304 0.09908893516 0.83242495039 0.54494887338 0.10049590724 
0.83055435904 0.54748292472 0.10218563414 0.82786030174 0.5512012281 0.10404098682 0.82458266589 0.55571765889 0.10602504755 
0.82038851231 0.56151281612 0.10800947273 0.81507894053 0.56883515984 0.10987666559 0.80796921079 0.57859156677 0.11143407594 
0.79836436231 0.59157537363 0.11248520931 0.7844961052 0.60981020211 0.11268264432 0.76134775627 0.63873288199 0.11122004984 
0.71526824552 0.69075444752 0.10606427381 0.57117669625 0.81627149504 0.086359875266 -0.53302178245 0.84280374303 -0.074629954921 
-0.97425555534 -0.17449496082 -0.14275020676 -0.92362359704 -0.3587095287 -0.13508117931 -0.89667134155 -0.42326280021 -0.12972704883 
-0.880735698 -0.45676678481 -0.12517481601 -0.87018789756 -0.47771276071 -0.12067949781 -0.86268381912 -0.49227513914 -0.11593884424 
-0.85704699835 -0.50317982209 -0.11081745921 -0.85271025481 -0.51166719866 -0.10527059964 -0.8493297914 -0.51844046924 -0.099289401718 
-0.84675477307 -0.52381001746 -0.09289467098 -0.84480178403 -0.52810594972 -0.086104886989 -0.84343725349 -0.53139340723 -0.078959775741 
-0.84260081581 -0.53377184096 -0.071494664066 -0.84227729343 -0.53526155847 -0.06374970584 -0.84242235006 -0.53592487622 -0.055759404316 
-0.8430294366 -0.53576047156 -0.047561393456 -0.84412777018 -0.53470742683 -0.039195347977 -0.84566892646 -0.53282484001 -0.03068805448 
-0.84767382137 -0.5300583508 -0.022073452786 -0.85012728524 -0.52640727564 -0.013378304559 -0.85298831482 -0.52190952342 -0.0046243001927 
-0.85626194084 -0.51652508546 0.0041623026141 -0.85990860755 -0.51028340685 0.012962690841 -0.86389400692 -0.5032034674 0.021758106665 
-0.8681368519 -0.49538459754 0.030536975911 -0.87262505076 -0.48680873859 0.039278146777 -0.87722730772 -0.47767182391 0.047977903586 
-0.88191980457 -0.46798718612 0.056616710753 -0.88657902026 -0.45796055547 0.065190263593 -0.89112005105 -0.44774438503 0.073688671422 
-0.8954329203 -0.43755951426 0.082106983392 -0.899425732 -0.4276146301 0.090438270366 -0.90298361377 -0.41818963148 0.09868143385 
-0.9060007913 -0.40957122343 0.10683622565 -0.90834794727 -0.40211942176 0.11490856077 -0.90987691502 -0.39625363307 0.12291077169 
-0.91048955807 -0.39228510181 0.13084786414 -0.9099281517 -0.39086777304 0.13875569445 -0.90806166878 -0.39232665431 0.14664174716 
-0.90457297148 -0.39732133661 0.15454285731 -0.89917170944 -0.40631519932 0.16247521578 -0.8913830006 -0.41997360881 0.17046558055 
-0.88076387235 -0.43862589402 0.17850021358 -0.86659370612 -0.46282737412 0.1865641184 -0.84830112039 -0.49247256538 0.19456613654 
-0.82497739913 -0.52767950263 0.20240215765 -0.79577512271 -0.568054622 0.20989497491 -0.76031801989 -0.61230543985 0.21679150573 
-0.71773650564 -0.65969240162 0.22284578462 -0.668395344 -0.70807446314 0.2277679055 -0.61236896069 -0.75597212972 0.23132313994 
-0.55011273317 -0.80183498635 0.23331659921 -0.48271632479 -0.84403721976 0.23363672963 -0.41034403888 -0.88188105785 0.23217142279 
-0.33472431239 -0.91407702084 0.22896033427 -0.25447728203 -0.94083239287 0.22377605201 -0.17102392708 -0.96115265785 0.2166480664 
-0.082592977575 -0.9748087549 0.20718661014 0.010918494371 -0.98071714986 0.1951272878 0.11139984942 -0.97737505063 0.17980012225 
0.21734313666 -0.96272215116 0.16102180165 0.33157095695 -0.93334756844 0.13756095739 0.45058416928 -0.88601419161 0.10932867263 
0.57058612193 -0.81768339924 0.07632388927 0.68705570844 -0.72557247898 0.03871732475 0.79327558095 -0.60885749678 -0.002530074894 
0.87827722247 -0.47615167378 -0.043688717562 0.94038849786 -0.32955669715 -0.084034852651 0.97597381868 -0.18173526751 -0.12019732857 
0.98772210471 -0.039641873649 -0.15110779505 0.97986911774 0.093004594602 -0.17665406163 0.95774626702 0.21014268758 -0.19637244936 
0.92535611459 0.31459491515 -0.21153274107 0.88682528159 0.40501592629 -0.22249274007 0.84534314139 0.48221193328 -0.22992743356 
0.80233652955 0.54881985917 -0.2346334493 0.76001126099 0.60515320171 -0.23700735351 0.71975131084 0.65234611439 -0.23749231058 
0.68193924073 0.69211460765 -0.23650843924 0.64778459336 0.72489448033 -0.23431413314 0.61704642475 0.75220093661 -0.23118706858 
0.59072561164 0.77419708052 -0.2272930537 0.56839250814 0.79201617363 -0.22280111626 0.55066480197 0.80580489117 -0.2178227565 
0.53606866048 0.81700202116 -0.21245726316 0.52621134334 0.82483288418 -0.20676637862 0.5197173211 0.83040393959 -0.20080638253 
0.51623135649 0.83404452424 -0.19461479433 0.51639616494 0.83540607688 -0.18823306707 0.5187452472 0.83539971353 -0.18168843427 
0.52365976976 0.83375758039 -0.17501069307 0.53065182664 0.83072796024 -0.16822513177 0.5395191493 0.82636685608 -0.16135955728 
0.5494550229 0.82112610237 -0.15443801933 0.56036368441 0.81500999941 -0.14748302294 0.5719274211 0.80817984785 -0.14051462032 
0.58371679994 0.8008985527 -0.13355225852 0.59492650824 0.79374508767 -0.12661431827 0.60574301627 0.78660379296 -0.11970743978 
0.61533822502 0.78014354244 -0.11284911176 0.62359971577 0.77451815901 -0.10604251913 0.62997629944 0.77024060163 -0.099293895774 
0.63467718739 0.7672098715 -0.092595252982 0.63727069629 0.76583227329 -0.085947593576 0.63787814367 0.76603976325 -0.079338231332 
0.63626872134 0.76802878276 -0.07275921308 0.63269571932 0.77156627347 -0.066193748855 0.627184523 0.77658469075 -0.059630463779 
0.61996454733 0.7828339672 -0.053056006773 0.61083222863 0.79039539789 -0.046466154069 0.60028863227 0.7987901366 -0.03984815715 
0.58837473023 0.8079064386 -0.033201856853 0.57523275411 0.81755948333 -0.026528660187 0.56104421764 0.82754820375 -0.019833212685 
0.54592785686 0.83772938719 -0.013124364302 0.5301334521 0.84788996669 -0.0064130610245 0.51367192618 0.85798663836 0.00028399772003 
0.49690189453 0.86777888668 0.006950615023 0.47997265383 0.87717857699 0.013564499494 0.46282484301 0.88622185326 0.020099539766 
0.44607037568 0.89460449334 0.026533383412 0.42933667289 0.9025476442 0.032829426774 0.4133177422 0.90975296349 0.038961383586 
0.39777827252 0.91638284921 0.044887855604 0.3830424629 0.9223453224 0.050572500974 0.3691685651 0.92767542997 0.055972021432 
0.35619188361 0.93241694114 0.061040887315 0.34443637016 0.93650542547 0.06573564464 0.33366360666 0.94008942868 0.070003311947 
0.32413372851 0.9431283389 0.073798796772 0.31583234742 0.94567948936 0.077072898804 0.30893949069 0.94772947928 0.079782361411 
0.30326566185 0.94938161973 0.081880879644 0.29869153393 0.95070470866 0.083330213529 0.29869153393 0.95070470866 0.083330213529 

BinormalArray 3 153 double
-0.53448246705 0.8417231994 -0.076358025171 -0.53448246705 0.8417231994 -0.076358025171 -0.53592509243 0.84079018904 -0.07652550765 
-0.53643612932 0.84045879633 -0.076585186771 -0.53763890593 0.83967693757 -0.076727096533 -0.53957701623 0.83841156502 -0.076959022813 
-0.54207473835 0.83677080233 -0.077263202232 -0.54574685684 0.83433808438 -0.077719554861 -0.55021082846 0.83134783486 -0.078286791445 
-0.55594374138 0.82745417468 -0.079032558005 -0.56319160101 0.82244484153 -0.079998144939 -0.5728520262 0.81561530115 -0.081315660328 
-0.58570863374 0.80624956364 -0.083108588529 -0.60376185515 0.79254706256 -0.085678328048 -0.63238785694 0.7694261023 -0.089828010661 
-0.68385761604 0.72308375748 -0.097409653823 -0.80799441944 0.57765773007 -0.1160024355 -0.83363816401 -0.53820694478 -0.12401893441 
0.17322980475 -0.98465019515 0.02134075785 0.3554947705 -0.93344215118 0.048054329163 0.41936881874 -0.90600208155 0.057358714268 
0.45252696961 -0.88958437901 0.062120643891 0.47326521785 -0.87851593538 0.065036796244 0.48769465338 -0.87043873157 0.067009996583 
0.49851548186 -0.86417500009 0.068438903864 0.5069584359 -0.85916345616 0.069507552626 0.51372307051 -0.85506927029 0.070321759352 
0.51911990208 -0.85175282283 0.070934167162 0.52347949809 -0.84904169735 0.07139615706 0.52686917162 -0.84691437827 0.071728041132 
0.52939021263 -0.84532166845 0.071953315553 0.53106485244 -0.84425911582 0.072087917531 0.53195689287 -0.8436919207 0.072151279069 
0.53206631883 -0.84362234208 0.072157995469 0.53133317047 -0.84408751414 0.072120249798 0.52981707059 -0.84504531935 0.072057476751 
0.52746387956 -0.84652238532 0.071984074023 0.52427285942 -0.84850802012 0.071917373913 0.52028169712 -0.85096469867 0.071875150538 
0.51544981605 -0.85390024911 0.071873859688 0.50980606695 -0.85727697505 0.071930258928 0.50336864298 -0.86106175925 0.072060086165 
0.49623617168 -0.86517390501 0.072275694506 0.4883893169 -0.86960132019 0.072590764259 0.48002321021 -0.87421249694 0.073008409461 
0.47114945355 -0.87898268477 0.073536605117 0.46197232316 -0.88378757391 0.074169379369 0.45264213845 -0.88854106493 0.074899068332 
0.44337725305 -0.89313208931 0.075707876161 0.43438314027 -0.89746743522 0.076573429962 0.42593592903 -0.90143131972 0.077460700923 
0.41831775126 -0.9049171914 0.078327106936 0.41188316716 -0.90779577935 0.079114345107 0.40704516066 -0.90992006582 0.079747796225 
0.40410756445 -0.91119252504 0.08015771124 0.40371552092 -0.91136117906 0.080215830509 0.40618406578 -0.91029775689 0.079827930601 
0.41216076032 -0.90769417767 0.078833923426 0.42209531732 -0.90326809162 0.07708630072 0.43663612709 -0.8965581262 0.074380231645 
0.45609395668 -0.88713112109 0.070545564563 0.48100005962 -0.8742824871 0.065338161897 0.51122538518 -0.857445492 0.058615985796 
0.5468576478 -0.83572182555 0.050157186298 0.58747241958 -0.80826392808 0.039819326981 0.6317559009 -0.77467337594 0.027670241994 
0.67893692919 -0.73407007261 0.013629918816 0.72687211434 -0.68677004039 -0.0019598491906 0.77407500347 -0.63281213463 -0.01888627208 
0.81899899221 -0.57261054057 -0.036848603739 0.86004104424 -0.50720716247 -0.055410256894 0.89650160409 -0.43674307416 -0.074433601494 
0.92713515727 -0.36290085914 -0.093398964652 0.95210039565 -0.2843040138 -0.11258802932 0.97043764236 -0.20233358403 -0.13157470525 
0.98185029868 -0.1152097598 -0.1506542473 0.98523672454 -0.022790150006 -0.16967382145 0.97901052711 0.076861356557 -0.18876101205 
0.96114047538 0.18231495944 -0.20729264858 0.92808288007 0.29649786856 -0.22528022919 0.87668883465 0.41604103858 -0.24150888477 
0.80402082986 0.5372757437 -0.25472589265 0.70742464747 0.65580703767 -0.26356687481 0.58629955921 0.76499258235 -0.26653175386 
0.44972554676 0.85364238626 -0.26275770014 0.29988078018 0.92002668306 -0.25223485114 0.14968639132 0.96009927227 -0.23622737274 
0.0060791864767 0.97628928959 -0.21638453391 -0.12732511997 0.97267185676 -0.19415914319 -0.24457356435 0.95432850339 -0.17158344688 
-0.34865361873 0.92532660079 -0.14903468059 -0.43833641795 0.88971443687 -0.12755157984 -0.51453743812 0.85068427431 -0.10764520527 
-0.5799684949 0.80974136057 -0.089193463381 -0.63501113127 0.76908641952 -0.072573703723 -0.68085058533 0.73013242921 -0.057871549837 
-0.71923193179 0.69331838245 -0.044889295524 -0.75062635519 0.6598633433 -0.033770446651 -0.77655711395 0.6295809915 -0.024224448741 
-0.79721205192 0.60347708656 -0.016381399879 -0.81372346019 0.5811667322 -0.0099679347671 -0.82625243159 0.56327753965 -0.0050331521725 
-0.83621864528 0.54839511143 -0.0010858400486 -0.84287463522 0.53810777005 0.001541787904 -0.84730977779 0.53108892229 0.0032706405105 
-0.84985169979 0.52700483906 0.0042412216054 -0.85016383596 0.52650020771 0.0043569844043 -0.84914321655 0.52814757468 0.0039921352406 
-0.84653001017 0.53233198897 0.0030976442819 -0.84257061729 0.53858284885 0.001808257234 -0.83732248466 0.5467092646 0.00019150750097 
-0.83123305893 0.5559218663 -0.0015748980127 -0.82430821597 0.56613072552 -0.0034592911425 -0.81670848052 0.5770252813 -0.0053928268256 
-0.80869507615 0.58818285798 -0.0072937913276 -0.8008429131 0.59880642214 -0.0090275879841 -0.79303761772 0.60907992269 -0.010629424305 
-0.78594463527 0.61818079094 -0.011980818445 -0.77971745439 0.62599486059 -0.013081507122 -0.77486729801 0.63197161066 -0.01387637518 
-0.77129405985 0.63631562096 -0.014418868343 -0.7694034212 0.63859434921 -0.01468443428 -0.76912803495 0.6389251778 -0.014720157281 
-0.77066456914 0.63707519945 -0.014536578634 -0.77378105826 0.63329406774 -0.014194986803 -0.77841085805 0.62760494382 -0.013732100025 
-0.78430500742 0.62023499175 -0.01319887691 -0.79154573889 0.61097975925 -0.012612574639 -0.7996554148 0.6003385774 -0.012033705588 
-0.80852337353 0.58835192378 -0.011487743136 -0.81796579866 0.57516163596 -0.011002033219 -0.82778248908 0.56094899974 -0.010600493273 
-0.83783090673 0.54583264317 -0.010300358253 -0.84789840545 0.53006221027 -0.010116683664 -0.85794181562 0.51364841994 -0.010056923445 
-0.86772037737 0.49694949944 -0.010126287513 -0.87714530176 0.48011409051 -0.010323744454 -0.88625154392 0.46308185924 -0.01064859309 
-0.89473328356 0.44646332811 -0.011083679378 -0.90280913359 0.42988414525 -0.011631421551 -0.91017800257 0.41403587672 -0.012259544431 
-0.91699824435 0.3986804802 -0.012965128783 -0.92317344289 0.38413869089 -0.013720805405 -0.92873313709 0.37046490232 -0.014509177149 
-0.93371474348 0.3576901794 -0.01531382908 -0.93804716168 0.34613342521 -0.016098894984 -0.9418707894 0.3355517415 -0.016865492938 
-0.94513732794 0.3261998565 -0.017580811797 -0.94789577412 0.31805846132 -0.018232295043 -0.95012504935 0.31130244404 -0.018793055519 
-0.95192053937 0.30573849197 -0.019268140774 -0.95334438214 0.30124405993 -0.01965974044 -0.95334438214 0.30124405993 -0.01965974044 

