# vtk DataFile Version 4.1
vtk output
ASCII
DATASET POLYDATA
POINTS 280 float
-5.92786 -11.5811 183.468 -4.48853 -10.3233 182.05 -3.05097 -9.06745 180.633 
-1.62053 -7.81937 179.22 -0.202437 -6.58482 177.814 1.19821 -5.36934 176.417 
2.57659 -4.17822 175.032 3.92825 -3.01635 173.661 5.24917 -1.88816 172.306 
6.53585 -0.797518 170.968 7.78533 0.2523 169.649 8.99528 1.25867 168.35 
10.164 2.21963 167.07 11.2903 3.1339 165.81 12.3736 4.00084 164.568 
13.4142 4.82044 163.345 14.4124 5.59328 162.138 15.3694 6.32044 160.945 
16.2866 7.00347 159.766 17.1658 7.64428 158.598 18.0089 8.24509 157.44 
18.8181 8.80833 156.288 19.5959 9.33658 155.141 20.3445 9.83248 153.997 
21.0662 10.2987 152.853 21.7635 10.7378 151.709 22.4384 11.1524 150.563 
23.093 11.5448 149.413 23.7293 11.9172 148.258 24.3489 12.2717 147.097 
24.9534 12.6101 145.929 25.5441 12.9342 144.754 26.1223 13.2453 143.572 
26.6889 13.5447 142.381 27.2448 13.8337 141.182 27.7906 14.1131 139.976 
28.3269 14.3838 138.761 28.854 14.6465 137.54 29.3723 14.9018 136.311 
29.8819 15.1502 135.075 30.3829 15.392 133.833 30.8754 15.6278 132.585 
31.3594 15.8578 131.331 31.8348 16.0822 130.073 32.3017 16.3013 128.809 
32.7599 16.5154 127.542 33.2094 16.7245 126.271 33.6503 16.9289 124.996 
34.0826 17.1287 123.717 34.5065 17.3242 122.435 34.922 17.5155 121.149 
35.3293 17.7027 119.859 35.7288 17.8861 118.565 36.1208 18.0658 117.267 
36.5056 18.242 115.965 36.8837 18.4148 114.657 37.2555 18.5844 113.344 
37.6215 18.7509 112.024 37.9822 18.9146 110.699 38.3382 19.0755 109.366 
38.6898 19.2338 108.027 39.0377 19.3896 106.68 39.3822 19.5429 105.325 
39.7238 19.6938 103.963 40.0628 19.8424 102.592 40.3997 19.9887 101.214 
40.7346 20.1328 99.8286 41.0678 20.2746 98.4359 41.3995 20.414 97.0364 
41.7298 20.5512 95.6307 42.0589 20.6861 94.2193 42.3867 20.8185 92.8029 
42.7132 20.9484 91.3822 43.0385 21.0759 89.9578 43.3624 21.2007 88.5306 
43.6849 21.3229 87.101 44.006 21.4424 85.6699 44.3256 21.5591 84.2377 
44.6435 21.673 82.805 44.9597 21.784 81.3721 45.2742 21.8921 79.9395 
45.5869 21.9972 78.5073 45.8976 22.0994 77.0756 46.2065 22.1987 75.6445 
46.5135 22.2949 74.214 46.8185 22.3881 72.7839 47.1216 22.4784 71.354 
47.4227 22.5657 69.9242 47.7219 22.65 68.4941 48.019 22.7313 67.0634 
48.3141 22.8096 65.632 48.6072 22.885 64.1996 48.8981 22.9574 62.766 
49.1867 23.0268 61.331 49.4731 23.0933 59.8945 49.7571 23.1567 58.4565 
50.0385 23.2171 57.017 50.3172 23.2745 55.5762 50.593 23.3287 54.1343 
50.8658 23.3798 52.6915 51.1354 23.4276 51.2482 51.4016 23.4722 49.8049 
51.6642 23.5135 48.3618 51.9229 23.5514 46.9197 52.1776 23.5858 45.4789 
52.4281 23.6167 44.04 52.6741 23.6441 42.6036 52.9155 23.6678 41.1703 
53.1521 23.6877 39.7404 53.3837 23.7039 38.3144 53.6101 23.7163 36.8928 
53.8312 23.7248 35.4757 54.0468 23.7294 34.0634 54.2569 23.73 32.6559 
54.4612 23.7266 31.2531 54.6598 23.7192 29.8549 54.8526 23.7077 28.461 
55.0396 23.6922 27.0708 55.2207 23.6726 25.6836 55.396 23.6489 24.2988 
55.5656 23.621 22.9154 55.7293 23.5891 21.5324 55.8875 23.553 20.1485 
56.04 23.5128 18.7627 56.1871 23.4685 17.3737 56.3288 23.4201 15.98 
56.4653 23.3675 14.5805 56.5967 23.3109 13.1737 56.723 23.2501 11.7586 
56.8443 23.1853 10.3338 56.9608 23.1164 8.8983 57.0725 23.0434 7.45117 
57.1794 22.9663 5.99155 57.2815 22.8852 4.51874 57.3789 22.8001 3.03219 
57.4715 22.7109 1.53149 57.5593 22.6177 0.0163729 57.6422 22.5205 -1.51332 
57.7201 22.4193 -3.05762 57.7928 22.3141 -4.61647 57.8603 22.2049 -6.18973 
57.9225 22.0916 -7.7772 57.9791 21.9744 -9.37866 58.0301 21.8531 -10.9939 
58.0752 21.7278 -12.6225 58.1143 21.5985 -14.2644 58.1474 21.4651 -15.9192 
58.1741 21.3276 -17.5868 58.1945 21.186 -19.2668 58.2084 21.0404 -20.9591 
58.2156 20.8908 -22.6634 58.2162 20.7371 -24.3794 58.2099 20.5794 -26.1068 
58.1969 20.4178 -27.8451 58.177 20.2523 -29.5939 58.1502 20.083 -31.3525 
58.1165 19.9101 -33.1202 58.0761 19.7337 -34.8962 58.0288 19.554 -36.6794 
57.9749 19.3711 -38.4687 57.9144 19.1853 -40.2629 57.8474 18.9969 -42.0604 
57.7741 18.8061 -43.8597 57.6947 18.6133 -45.6594 57.6092 18.4186 -47.4577 
57.518 18.2225 -49.253 57.4213 18.0252 -51.0436 57.3192 17.8271 -52.828 
57.2121 17.6286 -54.6045 57.1002 17.4299 -56.3718 56.9838 17.2313 -58.1286 
56.8631 17.0332 -59.8739 56.7385 16.8357 -61.6066 56.6102 16.6392 -63.326 
56.4786 16.4438 -65.0316 56.344 16.2498 -66.723 56.2066 16.0573 -68.3999 
56.0669 15.8665 -70.0623 55.925 15.6774 -71.7103 55.7813 15.4902 -73.344 
55.6362 15.3049 -74.9638 55.4899 15.1216 -76.5698 55.3426 14.9403 -78.1626 
55.1948 14.761 -79.7425 55.0466 14.5837 -81.3098 54.8984 14.4084 -82.8649 
54.7503 14.2351 -84.4081 54.6026 14.0638 -85.9398 54.4554 13.8944 -87.4603 
54.309 13.7268 -88.9699 54.1634 13.5611 -90.4688 54.0187 13.3972 -91.9574 
53.8751 13.2349 -93.4359 53.7325 13.0742 -94.9046 53.5909 12.9151 -96.3641 
53.4503 12.7574 -97.8146 53.3106 12.601 -99.2566 53.1717 12.4457 -100.691 
53.0335 12.2916 -102.117 52.8957 12.1383 -103.537 52.7582 11.9858 -104.951 
52.6208 11.8339 -106.36 52.4834 11.6826 -107.763 52.3456 11.5315 -109.163 
52.2074 11.3807 -110.559 52.0686 11.23 -111.952 51.9289 11.0792 -113.343 
51.7883 10.9284 -114.731 51.6467 10.7774 -116.118 51.5039 10.6261 -117.503 
51.3599 10.4746 -118.887 51.2147 10.3228 -120.269 51.0683 10.1707 -121.65 
50.9208 10.0184 -123.03 50.7721 9.86588 -124.407 50.6225 9.71325 -125.782 
50.472 9.56058 -127.154 50.3208 9.40797 -128.523 50.169 9.25554 -129.888 
50.0168 9.10339 -131.249 49.8644 8.95166 -132.605 49.7118 8.80046 -133.954 
49.5594 8.64992 -135.298 49.4073 8.50014 -136.635 49.2556 8.35126 -137.966 
49.1046 8.20335 -139.288 48.9542 8.05651 -140.603 48.8048 7.91083 -141.91 
48.6564 7.76636 -143.208 48.509 7.62315 -144.498 48.363 7.48125 -145.78 
48.2182 7.34069 -147.054 48.0748 7.20148 -148.319 47.9329 7.06362 -149.576 
47.7925 6.92714 -150.825 47.6537 6.79202 -152.066 47.5166 6.65827 -153.299 
47.3812 6.52588 -154.525 47.2476 6.39485 -155.742 47.116 6.26518 -156.951 
46.9863 6.1369 -158.152 46.8586 6.01001 -159.345 46.7331 5.88453 -160.529 
46.6099 5.76051 -161.705 46.4891 5.63799 -162.87 46.3707 5.51701 -164.026 
46.255 5.39763 -165.171 46.142 5.27992 -166.306 46.0318 5.16395 -167.428 
45.9247 5.04979 -168.538 45.8206 4.93754 -169.636 45.7198 4.82727 -170.719 
45.6224 4.71907 -171.789 45.5283 4.61304 -172.845 45.4378 4.50927 -173.885 
45.3508 4.40784 -174.91 45.2675 4.30885 -175.919 45.1879 4.21238 -176.912 
45.1121 4.11853 -177.889 45.0399 4.02737 -178.849 44.9715 3.93899 -179.793 
44.9067 3.85344 -180.72 44.8456 3.7708 -181.631 44.7881 3.69111 -182.525 
44.7341 3.61441 -183.403 44.6835 3.54073 -184.264 44.6362 3.47005 -185.109 
44.5921 3.40238 -185.939 44.551 3.33765 -186.754 44.5128 3.27582 -187.554 
44.4772 3.21678 -188.34 44.4442 3.1604 -189.113 44.4134 3.10654 -189.873 
44.3847 3.055 -190.622 44.3578 3.00556 -191.361 44.3324 2.95797 -192.091 
44.3084 2.91196 -192.814 44.2855 2.86723 -193.53 44.2633 2.82343 -194.242 
44.2416 2.78024 -194.951 
LINES 1 281
280 279 278 277 276 275 274 273 272 271 270 269 268 267 266 265 264 263 262 261 260 259 258 257 256 255 254 253 252 251 250 249 248 247 246 245 244 243 242 241 240 239 238 237 236 235 234 233 232 231 230 229 228 227 226 225 224 223 222 221 220 219 218 217 216 215 214 213 212 211 210 209 208 207 206 205 204 203 202 201 200 199 198 197 196 195 194 193 192 191 190 189 188 187 186 185 184 183 182 181 180 179 178 177 176 175 174 173 172 171 170 169 168 167 166 165 164 163 162 161 160 159 158 157 156 155 154 153 152 151 150 149 148 147 146 145 144 143 142 141 140 139 138 137 136 135 134 133 132 131 130 129 128 127 126 125 124 123 122 121 120 119 118 117 116 115 114 113 112 111 110 109 108 107 106 105 104 103 102 101 100 99 98 97 96 95 94 93 92 91 90 89 88 87 86 85 84 83 82 81 80 79 78 77 76 75 74 73 72 71 70 69 68 67 66 65 64 63 62 61 60 59 58 57 56 55 54 53 52 51 50 49 48 47 46 45 44 43 42 41 40 39 38 37 36 35 34 33 32 31 30 29 28 27 26 25 24 23 22 21 20 19 18 17 16 15 14 13 12 11 10 9 8 7 6 5 4 3 2 1 0 

CELL_DATA 1
FIELD FieldData 2
LengthArray 1 1 double
402.39248401 
TortuosityArray 1 1 double
0.05338274436 
POINT_DATA 280
FIELD FieldData 8
RadiusArray 1 280 double
73.185748142 74.146407226 78.743863018 81.460701259 82.800893608 84.426045256 85.689169512 85.897093469 86.507862441 
88.59321311 88.681447747 89.019259142 89.226583396 89.306160684 90.098971719 90.28563614 90.305246894 90.68383416 
91.120857793 91.177657525 91.661747648 91.842999046 92.121107446 92.15945444 92.255703317 92.262812213 92.328119217 
92.34227245 92.343883641 92.346633506 92.345513157 92.329867531 92.327978285 92.321359716 92.323543222 92.373681814 
92.389985972 92.459579111 92.411126091 92.297685703 92.261983755 92.07149439 91.968563111 91.944449492 91.834304405 
91.689767926 91.662215737 91.558456952 91.444197389 91.285442991 91.265218227 91.051604073 90.955696399 90.777659243 
90.683343664 90.50219074 90.280159214 90.051824351 90.037077846 89.919493804 89.916492018 89.678809465 89.660874115 
89.246058261 89.185885784 88.92702443 88.729049372 88.349976608 88.253228038 87.860916845 87.838139225 87.417627964 
87.349566191 86.961837137 86.96062558 86.771715649 86.396081198 86.12733727 85.890149508 85.591281102 85.443852755 
85.429747585 85.009898782 84.936216637 84.663625972 84.472218667 84.308662282 84.112271075 83.812817711 83.517215375 
83.478332085 83.003186883 82.720969358 82.496979271 82.383880495 82.048441941 81.99646183 81.881154418 81.367209511 
81.026531304 80.885936111 80.502084504 80.416111704 79.928689642 79.59719245 79.582631284 79.432047117 79.041739401 
79.003559217 78.533432202 78.038676283 77.956782916 77.334084997 76.991284189 76.954597502 76.647455848 76.305278722 
76.178463012 76.144259368 75.728225436 75.567065638 75.180626436 74.785769925 74.750346092 74.568322115 74.324717811 
73.945866722 73.877758983 73.500990381 73.473198462 72.979253135 72.827512943 72.600990463 72.108245106 71.902092029 
71.502608898 71.085304084 71.06900471 70.332010548 70.131848878 69.876074289 69.763567514 69.29123319 68.974570625 
68.902684709 68.859535207 68.393366594 68.124830124 68.021357243 67.44644869 67.438972676 67.157190977 67.106823021 
66.642532831 66.596704374 66.383889953 66.382981799 65.923987392 65.832736796 65.637319892 65.305840185 65.037482964 
64.967267733 64.559762674 64.247909088 64.228572546 63.999527196 63.938568106 63.797696674 63.78065911 63.549976127 
63.463111481 63.450103804 63.308172701 63.24621075 63.215845541 63.176304235 63.075163716 63.073570483 63.032227206 
62.934363047 62.913677036 62.846072415 62.834155151 62.790194305 62.73796399 62.704023223 62.685356772 62.675939223 
62.672714089 62.664897828 62.6612753 62.649535625 62.646355191 62.623545029 62.606203666 62.583426171 62.53239844 
62.523138457 62.495232093 62.489993479 62.452995095 62.430527397 62.403399987 62.397991074 62.389876506 62.368460847 
62.315083657 62.311660209 62.280316616 62.28067275 62.269048926 62.252096891 62.262844933 62.262677075 62.254783568 
62.230211925 62.223175748 62.21791158 62.165058703 62.139446189 62.07981845 62.059482348 62.009872539 61.996413668 
61.933180756 61.924316133 61.84369952 61.817772247 61.764392365 61.671516697 61.624959968 61.608065 61.579030083 
61.441801581 61.42437347 61.350371042 61.26012671 61.209639876 61.175031442 60.966407759 60.918882342 60.666753542 
60.623514722 60.463019496 60.438228473 60.307939696 60.168752085 60.015566587 59.945405751 59.940729226 59.789305993 
59.583323668 59.552799384 59.348606145 59.196415854 59.008522475 58.996585747 58.810925401 58.740449447 58.709116017 
58.315987366 58.147497945 57.912048271 57.784774973 57.487930447 57.266832258 57.037315651 56.79131104 56.391536608 
56.338087529 56.130183396 56.070617867 55.73596845 55.647992167 55.597068918 55.104318264 54.965090256 54.732034116 
54.690337972 
EdgeArray 2 280 int
48503 48503 50587 58254 54423 51522 61204 61204 43779 
43779 54086 54086 50962 61784 52155 61784 61732 52155 
43328 43328 43237 43237 42871 42871 39076 42959 40336 
42590 42457 42590 43291 43293 43290 43292 43308 43308 
43301 43301 41844 41844 40553 40553 42755 42755 42441 
42441 39360 41795 42603 42604 42599 42599 42110 41627 
41808 40541 41089 41808 40148 40148 40606 41811 40949 
40535 40949 41601 41153 40164 41219 41219 41800 41800 
41304 41304 41419 41419 40584 39421 39804 40065 41133 
40690 40589 41050 40587 40812 40804 40585 38446 40443 
39302 40050 39864 39302 40576 40580 40576 40060 40047 
40404 40047 39981 39601 37850 39123 39741 40027 39294 
39403 39403 40032 40032 39587 39587 39839 39839 39387 
39265 38008 38008 38398 39391 39388 39388 40227 40227 
39390 39390 39884 39708 39573 39885 39573 39628 39832 
39832 38002 38002 38556 38556 38288 38288 37375 37375 
33949 36938 37405 37405 38183 38545 38177 38177 38335 
38335 38175 38175 36221 36221 36688 36688 37590 37590 
37589 37589 37453 37453 21790 36761 36863 36863 36612 
36612 35587 36800 37062 36805 36813 36812 36819 36814 
32403 35805 35340 35760 36428 36425 33004 35198 33305 
35913 17353 34968 34846 31967 35312 35312 34564 34564 
35043 35043 34450 34450 31807 31807 17972 17972 34677 
34677 33625 33625 33854 33854 29176 29176 33645 33650 
31953 33059 33329 33329 33380 33380 33384 33384 33056 
33056 33058 33058 32737 32737 32871 32894 18364 18364 
32211 32211 32182 32182 32145 32145 19189 19189 29402 
29402 29304 29304 27684 27684 31701 31701 19973 19973 
30552 30552 31398 31398 31396 31396 31224 31392 31239 
31239 28495 28495 31115 31115 31375 31375 26419 26419 
30489 30489 21723 21723 30854 30854 30689 30689 30163 
30163 30493 30493 29826 29826 20024 20024 30018 30018 
30015 30014 29816 29816 29548 29548 29546 29546 28272 
26427 27701 27808 27701 29299 29133 29133 29134 29134 
28363 28363 19454 19454 25462 25462 28556 28556 27499 
27499 27303 27303 27847 27847 27858 27858 27006 27006 
25797 25797 19519 19519 22327 22327 23726 23726 27192 
27192 26307 26307 25808 25808 20711 20711 25181 25181 
24378 24378 25817 25817 24961 24961 26624 26624 24891 
24891 25191 25191 26143 26143 22388 25832 25842 25842 
25835 25835 25505 25505 24774 24774 21399 21399 24778 
24778 22925 22925 24642 24642 24644 23842 22890 22890 
23058 23058 22821 22821 24001 21974 21187 22748 21187 
23613 23615 22214 23332 23332 23330 23081 21508 22777 
22475 22475 22773 22773 22486 22486 22009 22009 21964 
21964 20783 20783 20566 20566 19778 19778 20489 20489 
20495 20495 20140 20139 19890 19890 19727 19520 18816 
18816 19842 19842 19840 19429 19429 19429 19142 19142 
17610 17610 18458 18458 18021 17443 17521 17521 18062 
18062 18051 18051 17611 17611 16576 16576 17451 17451 
16932 16932 17138 17138 16369 16369 16558 16558 16091 
16091 15424 15424 16215 16215 16265 16265 15283 15283 
13493 13493 15288 15003 15290 15290 14730 14730 14459 
14459 14988 14993 14600 14600 13724 13724 14181 14181 
14180 14183 13932 13932 13931 13931 13928 13928 13239 
13239 12755 12755 13033 13033 12981 12981 13029 13029 
12389 12389 12388 12388 12391 12391 12136 12136 11855 
11855 11605 11605 11432 11432 11268 11271 11268 11269 
10835 10835 10554 10554 10667 10667 10358 10209 10237 
10237 9602 9602 9362 8842 9049 9049 8685 8685 
8670 8297 8682 8682 8487 8487 8192 8192 7932 
7783 7649 7660 7661 7661 7228 7228 6908 6908 
6066 6066 
EdgePCoordArray 1 280 double
0 0.208 0.82 0 0 0 0.76 0.704 0.116 
0 0 0 0.052 0.088 0.18 0.352 0.784 0 
0 0 0 0 0 0.432 0.988 0 0.864 
0.032 0.748 0 0.436 0.052 0.044 0.892 0 0 
0 0 0.108 0.424 0.424 0.488 0.564 0.652 0.716 
0.144 0.828 0.456 0.632 0.34 0.392 0.956 0.008 0.172 
0 0 0 0 0.92 0 0.996 0 0 
0 0.972 0.208 0.436 0 0 0 0 0 
0.176 0 0.004 0 0 0 0 0 0 
0 0 0.288 0 0 0.904 0.244 0.224 0.952 
0.576 0.596 0.44 0.18 0.828 0.864 0.592 0 0 
0 0 0 0 0 0 0 0 0.032 
0.068 0 0 0 0 0 0 0.888 0 
0 0 0 0 0 0 0 0 0 
0 0 0 0.984 0 0 0 0 0 
0 0 0 0 0 0 0 0 0 
0.212 0 0 0 0.048 0.128 0.144 0 0 
0 0 0 0 0 0 0 0 0 
0 0 0 0 0 0 0 0 0 
0 0 0 0 0 0 0 0.024 0 
0 0 0 0 0 0 0 0.48 0 
0 0 0.352 0.744 0.676 0.68 0 0.192 0.984 
0 0 0 0 0 0 0 0 0 
0 0.952 0 0.952 0 0 0.676 0 0 
0 0 0.232 0 0 0 0 0 0 
0 0 0 0 0 0 0 0 0 
0 0.884 0 0 0 0.784 0 0 0 
0.732 0 0 0 0 0 0 0 0 
0 0 0 0 0 0 0 0.268 0.076 
0 0 0 0.112 0 0 0.996 0 0 
0.036 0 0 0 0.928 0.96 0 0 0 
0 
CurvatureArray 1 280 double
0 0.00014672553011 0.0005982715994 0.0010617092711 0.0015474265754 0.0020667001821 0.0026274137912 0.0032357848937 0.0038992301137 
0.004630222369 0.0054249726048 0.0062854485882 0.0072179884919 0.0081985937275 0.0092271660857 0.010272104022 0.011309254785 0.012295545796 
0.013199256823 0.013981331287 0.014600815679 0.015033897438 0.015258480882 0.015275501204 0.015085870811 0.014731332294 0.014209693321 
0.013587529992 0.012881310476 0.01214281462 0.011390757043 0.010659088582 0.0099564974189 0.0093065560802 0.0087196397477 0.0081924334782 
0.0077269673307 0.0073305105443 0.0069853697005 0.0066983744522 0.0064565719616 0.0062576576028 0.0060952659116 0.0059645856999 0.0058454254014 
0.0057481314891 0.005662082274 0.0055722934952 0.0054809232065 0.0053778180024 0.0052644152478 0.0051354960788 0.0049873966002 0.0048215798116 
0.0046383091866 0.0044332871304 0.004222122745 0.0039940249155 0.0037589586138 0.0035264703116 0.00329227731 0.0030668683743 0.0028509654028 
0.0026486175293 0.0024616925918 0.0022941505127 0.0021423364696 0.0020127187033 0.0018985266938 0.0018057858064 0.0017280692995 0.0016658803408 
0.0016188768433 0.0015811626873 0.0015541227436 0.0015371745943 0.0015260634194 0.0015238500981 0.0015248015297 0.0015306403474 0.0015411344083 
0.0015520641955 0.0015683445264 0.001585067291 0.0016039268756 0.0016210133577 0.0016440015009 0.001665861958 0.0016902674714 0.001717970924 
0.0017447674704 0.0017755110939 0.0018090170629 0.0018434366885 0.0018842964544 0.001924216978 0.0019680515449 0.0020159390065 0.0020641409124 
0.0021168258083 0.002169845585 0.0022283765598 0.0022880415037 0.002350877652 0.0024149032822 0.0024873808001 0.0025573123204 0.0026339831126 
0.0027133481783 0.0027975864853 0.0028815923897 0.0029673743336 0.0030557548977 0.0031446507198 0.0032311372481 0.0033127538068 0.003389018053 
0.0034630964466 0.003519170733 0.0035689968527 0.003605476349 0.0036262726468 0.003628502995 0.0036188275141 0.0035939472482 0.0035521476433 
0.0034983406349 0.0034331926336 0.0033623336987 0.0032811359344 0.0032023349317 0.0031219503456 0.003043869605 0.0029692667163 0.002901723274 
0.0028424978748 0.0027878441677 0.0027448228632 0.0027077450315 0.0026767898428 0.0026552326862 0.0026363058188 0.0026217325376 0.0026107581891 
0.0025993556704 0.0025893727384 0.0025791627159 0.0025629571037 0.002545340894 0.0025247924543 0.0024970233083 0.0024675346342 0.0024327202894 
0.0023937731511 0.002350468768 0.0023052227914 0.0022583890262 0.0022096450262 0.0021609945573 0.0021107623448 0.0020627195973 0.0020164819262 
0.0019687467626 0.0019257460363 0.0018820796975 0.0018401348745 0.0018000880155 0.0017566577313 0.0017174715341 0.0016736308421 0.0016278560133 
0.0015803344032 0.0015272680465 0.0014727511178 0.0014086326198 0.0013411312394 0.0012665149962 0.0011882080264 0.0011029842564 0.0010131775595 
0.00092167076036 0.0008282335339 0.00073496068376 0.00064425699666 0.00055593106136 0.0004789832421 0.00041182834659 0.00035803722969 0.00031543458235 
0.00028869164743 0.00027144110314 0.00025907043942 0.0002477649959 0.00023099390882 0.00021090913692 0.00018194584998 0.00015211162125 0.00012542001896 
0.00012165904292 0.00015073988456 0.00020701713144 0.00027397189399 0.00034248473833 0.00041533218981 0.000484673208 0.00054620999713 0.000602823538 
0.00064610741266 0.00068451621673 0.00070518904414 0.00071981640444 0.00072094837851 0.00071217124161 0.00069226330392 0.00066469391488 0.00062906054276 
0.00058646667869 0.00053840576649 0.00048555837196 0.00042872181588 0.00037338109931 0.00031209706526 0.00025590090919 0.00020342413523 0.00016082818327 
0.00013696430238 0.00014312810107 0.00017452017184 0.00022148053481 0.00026993221415 0.00032515407513 0.00037830035133 0.00043160848843 0.0004863959229 
0.00053614775599 0.00058953071368 0.00063972161053 0.00069160719086 0.00074655578513 0.00080076101282 0.00085396785299 0.00091671619929 0.00097734493011 
0.0010455358225 0.0011159419588 0.0011928504691 0.0012769908989 0.0013679635169 0.0014661511543 0.0015682029807 0.001684433947 0.0018026170259 
0.0019289039591 0.0020626035966 0.0022102706797 0.0023546583446 0.0025085046799 0.0026724141666 0.0028330506454 0.002995312459 0.0031667875228 
0.0033347183776 0.0034923708216 0.0036551910945 0.0037959101427 0.003935797206 0.0040467859004 0.0041346078579 0.0041833976409 0.0041917757944 
0.0041512460356 0.0040420539005 0.0038724566179 0.0036146734262 0.0032721416643 0.002861619394 0.0023526170971 0.0017803953298 0.0011449081946 
0 
TorsionArray 1 280 double
0 0 0.00029171680463 0.00026384562158 0.00064713299533 0.00097652481718 0.0012107920019 0.0014291174157 0.0017992308027 
0.0021090307059 0.002339019411 0.0027412964683 0.0030664725801 0.0034395704141 0.0038691619535 0.0042679605087 0.0046815405902 0.005115914317 
0.0056302181078 0.0061302904746 0.0066672664204 0.0071963890324 0.0077383216063 0.0082851727444 0.0088973592126 0.0094057501683 0.0099132935342 
0.010473868699 0.010963665734 0.011506250293 0.011944700263 0.012333222449 0.01274431322 0.013193599429 0.013575911562 0.013923684977 
0.014340566937 0.014533823457 0.014703592257 0.01477720205 0.014608110164 0.014280186536 0.013785624387 0.013031189538 0.012042846222 
0.011032197674 0.0097332111479 0.0083368718646 0.0067722068023 0.0051465575389 0.0036396079093 0.0020517210374 9.126250874e-05 -0.0017366167151 
-0.0034708564388 -0.0055377617974 -0.0075909428911 -0.0097256918058 -0.011920521115 -0.014256063913 -0.016432938018 -0.018479396793 -0.020854107907 
-0.023293198472 -0.025022271306 -0.026294359683 -0.026962604744 -0.027420425271 -0.027094639942 -0.02585695479 -0.024468771088 -0.021774139411 
-0.019175460747 -0.016580088632 -0.013710827363 -0.011223181754 -0.0080293396326 -0.0053631177423 -0.003876843939 -0.0013739835739 0.00041924872536 
0.0024329249928 0.0040602945754 0.00542558755 0.0065896586299 0.007762015446 0.01002939129 0.01028136821 0.011555637577 0.012399914321 
0.01247796526 0.013493522675 0.013010247411 0.012826951854 0.0128621861 0.011457016708 0.010939436647 0.01006055001 0.0090535076164 
0.0078519627442 0.0067749624018 0.0064114325474 0.0053479291321 0.0045605325683 0.0043663562995 0.0039137076844 0.0038937061234 0.0036278003672 
0.0038223850833 0.0040073766423 0.0035803708887 0.0040429043695 0.004419397619 0.0048504529027 0.0048053047327 0.0046179307268 0.0051309076948 
0.005330654719 0.0050821235581 0.0053838755962 0.0054772288488 0.0051643462743 0.0056030882912 0.0055893202892 0.0053865041544 0.0057306859812 
0.0057563854968 0.0057896741806 0.0057971215009 0.005753239965 0.006041671423 0.0060266210539 0.0059071035439 0.0057761268172 0.0055459002029 
0.005492337079 0.0051752156413 0.0049407457734 0.0046460890207 0.0042397458341 0.0040457951341 0.0035954531492 0.0034129961793 0.0032568498006 
0.0028767339388 0.0028289010575 0.00272893258 0.0026070233559 0.0025602584391 0.002663896504 0.002691427155 0.0029195427832 0.003075783322 
0.0030842830981 0.0034027130897 0.0038735993734 0.0041390869747 0.0044585805005 0.0051745465986 0.0056037046626 0.0060379136075 0.0066063300882 
0.007373879258 0.0081498430838 0.0087103081816 0.009578592639 0.010259653455 0.011011397102 0.011868350559 0.012596434239 0.013585179479 
0.014435941647 0.015192382369 0.016215290398 0.017560770611 0.018921459679 0.020525935588 0.022377570821 0.025021555837 0.028272975289 
0.032184112005 0.037926020879 0.045095919502 0.055281561457 0.068279176907 0.082188857714 0.10032981896 0.11794927728 0.12860096716 
0.12451260989 0.112292957 0.088172835394 0.057729392207 0.028738355469 -0.0096964186288 -0.0641329769 -0.14426819731 -0.28431199738 
-0.34984461319 -0.25429126894 -0.13908974646 -0.078462854138 -0.050002686036 -0.031238445216 -0.021458324009 -0.014822882621 -0.010219900606 
-0.0075077610583 -0.0055412327552 -0.0036951028732 -0.0012584422103 6.8981310457e-05 0.0014979556211 0.0038311679153 0.0064592047878 0.0091472858724 
0.013177679117 0.017151057908 0.023167892886 0.033320509373 0.046051610371 0.067635584595 0.10256002256 0.16670046185 0.26595421562 
0.35877462341 0.32267572684 0.22712700739 0.14291226445 0.094592539002 0.071054260228 0.057195906732 0.045389262686 0.037645230044 
0.034832761695 0.03226233402 0.02845364991 0.026709264144 0.025734872061 0.022324142727 0.021970134871 0.019537137998 0.01647730739 
0.014423300727 0.011763567594 0.0097308418467 0.0067371993671 0.0039089159528 0.00086868974603 -0.0021518728762 -0.0046586216531 -0.0077481222958 
-0.010972572283 -0.012805823769 -0.015519576147 -0.017817053629 -0.020291463264 -0.022834227549 -0.024565869975 -0.026208056788 -0.027199940235 
-0.028698599102 -0.029701215672 -0.030115279201 -0.030437515236 -0.029926905841 -0.029376458099 -0.028790500074 -0.028096357258 -0.026122115237 
-0.024353208251 -0.022087558202 -0.020747876051 -0.020611876875 -0.015518353693 -0.013091557912 -0.012737092507 -0.0078526463268 0 
0 
TangentArray 3 280 double
-0.60473464501 -0.52837470624 0.59591625161 -0.60473464501 -0.52837470624 0.59591625161 -0.60456712246 -0.52781740172 0.59657973891 
-0.60419225994 -0.52658092394 0.59805036875 -0.60360185071 -0.52464956988 0.60033959943 -0.60277954797 -0.52199943936 0.60346781344 
-0.60170250292 -0.51859989926 0.60746048635 -0.60034341368 -0.5144170021 0.61234217036 -0.5986702163 -0.50941439253 0.61813505709 
-0.59664215242 -0.50355089296 0.62486369726 -0.59421380849 -0.49678675951 0.63254475366 -0.59133915765 -0.48908926416 0.64117836232 
-0.58796436264 -0.48042819048 0.65075852822 -0.58403731407 -0.47078791711 0.66125573939 -0.57950884723 -0.460170203 0.67261644364 
-0.57433300051 -0.44859598816 0.68476510128 -0.5684771452 -0.43611436385 0.69759443592 -0.56192490609 -0.42280550127 0.71096828903 
-0.55468026733 -0.40878109487 0.72472602928 -0.54676667062 -0.39417983089 0.73869375848 -0.53823426245 -0.37916829801 0.7526853795 
-0.52915738266 -0.36393255217 0.76651520653 -0.51963194473 -0.34866771999 0.78000863011 -0.50976982736 -0.33356726136 0.79301173085 
-0.4996926626 -0.31881387948 0.80539738837 -0.48951783172 -0.3045635752 0.81707608035 -0.4793622222 -0.29094715935 0.82798647959 
-0.46933050822 -0.27806295375 0.83809896063 -0.459505105 -0.26597182478 0.84741610021 -0.44995098447 -0.25470323851 0.85596166495 
-0.44071011152 -0.24425797587 0.86377811898 -0.43180792814 -0.23461409091 0.87091798784 -0.42325408441 -0.22573325514 0.87743972873 
-0.41504373437 -0.21756616548 0.88340458579 -0.40715510825 -0.21005240081 0.88887721691 -0.39956094563 -0.20313042502 0.89391782685 
-0.39223138022 -0.19674147113 0.89858073533 -0.38512788214 -0.19082621879 0.90291852823 -0.37821477115 -0.18532974366 0.90697655593 
-0.37145777568 -0.18020348743 0.91079406234 -0.36482275384 -0.17540266629 0.91440596178 -0.35828137945 -0.17088794648 0.91784081566 
-0.35180756597 -0.16662360237 0.9211232337 -0.34537911667 -0.1625780877 0.92427356944 -0.33898616226 -0.15872731649 0.92730470763 
-0.33262335517 -0.15504894899 0.93022659982 -0.32628376746 -0.15152144034 0.93304884985 -0.31997438197 -0.14812891064 0.93577466343 
-0.31370864071 -0.14485854632 0.93840443856 -0.30750414959 -0.14169836384 0.94093717733 -0.30138281228 -0.13863852477 0.94337042561 
-0.295367299 -0.13567155819 0.94570153166 -0.2894850649 -0.1327923318 0.94792647068 -0.28376575302 -0.12999398178 0.95004134758 
-0.27823679629 -0.12727187422 0.95204314777 -0.27292722131 -0.12462485669 0.95392839195 -0.26786010808 -0.12204831892 0.95569617052 
-0.26305536738 -0.11953886307 0.95734650671 -0.25853302302 -0.11709591271 0.95887914944 -0.25430153208 -0.11471543469 0.96029740176 
-0.25036625075 -0.11239392817 0.96160508807 -0.24672786146 -0.11012959282 0.96280674861 -0.24337973682 -0.10791970799 0.9639085228 
-0.2403133124 -0.10575983857 0.96491676762 -0.23751633743 -0.1036446992 0.96583837457 -0.23497113323 -0.10157009992 0.96668096151 
-0.2326587415 -0.099532888613 0.96745186655 -0.23055732043 -0.097529338995 0.96815874217 -0.22864559879 -0.095554338248 0.96880883491 
-0.22690112 -0.093603111439 0.96940927336 -0.22530065873 -0.091670446964 0.96996708312 -0.22382439915 -0.089751852465 0.97048814693 
-0.22245003909 -0.087842938251 0.97097868067 -0.22115950978 -0.085940128099 0.97144365025 -0.21993716066 -0.084040564629 0.9718872511 
-0.21876702766 -0.08213990264 0.97231374772 -0.21763647508 -0.080234821365 0.97272644569 -0.21653157774 -0.078323116592 0.9731287506 
-0.21544100021 -0.076402701692 0.97352339602 -0.21435808672 -0.074471650077 0.97391200013 -0.2132727353 -0.072528557291 0.97429684838 
-0.21217824224 -0.070573533535 0.97467931643 -0.21106692806 -0.068606561375 0.97506096815 -0.20993191646 -0.066627003014 0.9754431982 
-0.20876816649 -0.064635851714 0.9758268593 -0.20757174743 -0.062635198619 0.97621247767 -0.20633734778 -0.060624924417 0.97660100218 
-0.20505586755 -0.058606844772 0.97699402707 -0.20372526104 -0.056581227018 0.97739172432 -0.20233869038 -0.054547932528 0.97779526355 
-0.20089161798 -0.052508369793 0.97820520798 -0.19938160885 -0.050462152445 0.978621758 -0.19780165324 -0.048409204656 0.97904599222 
-0.19615034898 -0.046348011592 0.97947787235 -0.19442383374 -0.044275841715 0.97991786529 -0.19261816116 -0.042191881174 0.98036630356 
-0.19073503726 -0.040092835307 0.98082246616 -0.1887712336 -0.03797512823 0.98128655906 -0.18672625834 -0.03583614279 0.98175815521 
-0.18460017112 -0.033672487908 0.98223670283 -0.1823936279 -0.031480069044 0.9827215118 -0.18010680426 -0.029254394022 0.98321194027 
-0.17773718097 -0.02699301497 0.98370771657 -0.17528601977 -0.024692124533 0.98420785927 -0.17275389899 -0.022348705945 0.98471144287 
-0.17013679278 -0.019959309752 0.98521829951 -0.16743355068 -0.017521414907 0.98572765312 -0.16464269341 -0.015034947442 0.98623867997 
-0.16176064858 -0.012496457252 0.98675089619 -0.15878339514 -0.0099051985933 0.98726375426 -0.15570816464 -0.0072620272511 0.9877764071 
-0.1525362834 -0.0045662684267 0.98828732231 -0.14926394446 -0.0018198841829 0.98879571343 -0.14588802167 0.00097495032711 0.98930062903 
-0.14240758927 0.0038136584976 0.98980075496 -0.13882610766 0.0066918167052 0.99029416409 -0.13514898296 0.0096050165126 0.99077873214 
-0.13137687099 0.012546800918 0.99125309359 -0.12751808912 0.015507296919 0.99171500981 -0.12358478454 0.018478038333 0.99216196416 
-0.11958388338 0.021450122127 0.99259235696 -0.1155280853 0.024412384346 0.99300417773 -0.11143458899 0.02735445239 0.99339522161 
-0.1073154198 0.030263705233 0.99376431251 -0.10318263355 0.033131825754 0.99411046984 -0.099052197014 0.035949778993 0.99443264008 
-0.094936556964 0.038706828249 0.99473053215 -0.090846791841 0.041396282097 0.99500412474 -0.086790864572 0.044013724619 0.99525380576 
-0.082776969332 0.046555075032 0.99548008435 -0.078809240441 0.049019423977 0.99568378499 -0.074885933225 0.051406888384 0.99586617014 
-0.071006940867 0.053719066182 0.99602825074 -0.067169714661 0.055959567096 0.9961710477 -0.06336898475 0.058133613479 0.99629556596 
-0.059596722551 0.06024832145 0.99640271498 -0.055845982408 0.062308620518 0.9964932825 -0.052108311111 0.064321950141 0.99656781538 
-0.048373915397 0.066295443977 0.9966267498 -0.044636719657 0.068234506835 0.9966702641 -0.040888357334 0.070146310065 0.99669836832 
-0.03712206927 0.072035414169 0.99671101683 -0.033335228315 0.073906170414 0.99670790131 -0.029523566824 0.07576160523 0.99668878702 
-0.02568612088 0.077602983732 0.99665340019 -0.02182409828 0.079432222012 0.99660133998 -0.01793754577 0.08124929037 0.99653238646 
-0.014032273664 0.083051915885 0.99644642333 -0.010115150415 0.084837654312 0.99634344287 -0.0061906425087 0.086604660774 0.99622352345 
-0.0022674575041 0.088348076573 0.99608708254 0.001646184768 0.090064070602 0.99593461295 0.0055438143305 0.091748044678 0.99576682131 
0.0094165197537 0.093395190659 0.99558458582 0.013255359435 0.095001975189 0.99538882863 0.017053685996 0.096563630627 0.99518070572 
0.020807140952 0.098075353732 0.99496145045 0.024510457749 0.099533887787 0.99473224671 0.028159599475 0.10093620368 0.99449430352 
0.031751475142 0.10227702743 0.99424909026 0.035283722411 0.10355388768 0.99399781251 0.038756660592 0.10476544849 0.99374147647 
0.042167612496 0.10590867888 0.99348137587 0.045516640235 0.10698053199 0.99321870766 0.048804387273 0.10797846834 0.99295457205 
0.052028416643 0.10890083644 0.99269010859 0.055188984767 0.10974522621 0.99242640094 0.058281664286 0.11050961605 0.99216474054 
0.061304126577 0.11119274059 0.99190623473 0.06425328116 0.1117930236 0.99165207393 0.067120577189 0.11230931086 0.99140377587 
0.069900451301 0.11274054173 0.99116269964 0.072584360308 0.11308682099 0.99093031115 0.075164205475 0.11334988167 0.99070790173 
0.077629012339 0.11353094283 0.99049707797 0.079966521186 0.11363152936 0.9902995663 0.082167016531 0.11365489081 0.99011673412 
0.084220832717 0.11360526668 0.98994984455 0.086118888106 0.11348795398 0.98979999061 0.087851511541 0.11330830562 0.98966829786 
0.089413522536 0.1130725496 0.98955536506 0.090801889758 0.11278790234 0.98946142214 0.092014605911 0.11246087518 0.9893866099 
0.093052983281 0.11209900319 0.98933055941 0.093918736187 0.11170934228 0.98929282512 0.094619908616 0.11129912634 0.98927224634 
0.095169133456 0.11087571607 0.98926710833 0.095578665999 0.11044513966 0.98927579053 0.095861064187 0.11001454529 0.98929644505 
0.096033908499 0.10959036387 0.98932676127 0.09611720372 0.10917772554 0.98936429458 0.096129139629 0.10878211267 0.98940671136 
0.096090799186 0.108408548 0.98945143642 0.096024694987 0.10806226423 0.98949573269 0.095950683947 0.10774750577 0.98953723591 
0.095889954918 0.10746837073 0.98957347673 0.095861611585 0.10722873858 0.98960221758 0.095881231689 0.10703192296 0.98962162309 
0.095964888746 0.10688053845 0.98962987557 0.096124064042 0.10677580073 0.98962573364 0.096370187343 0.10671992734 0.98960782338 
0.096709848135 0.10671267191 0.98957547005 0.097142245356 0.10675257984 0.98952881255 0.097667319295 0.10683928446 0.98946776705 
0.098284014366 0.10696986481 0.98939259172 0.098983852806 0.1071405404 0.9893043523 0.099758210788 0.10734687116 0.98920419966 
0.10059521045 0.10758291497 0.98909378728 0.101483031 0.10784349803 0.98897470865 0.1024070347 0.10812253699 0.98884898556 
0.10335199223 0.1084132472 0.98871883442 0.10430590346 0.10870850068 0.98858623315 0.10525376127 0.10900170109 0.98845347634 
0.1061821433 0.1092866444 0.98832271137 0.10707938001 0.10955664269 0.98819600709 0.10793575163 0.1098057965 0.98807517962 
0.10874175698 0.11002901795 0.98796196561 0.10948968657 0.11022125807 0.98785792643 0.11017277591 0.11037945182 0.987764312 
0.11078515481 0.11050044119 0.98768228797 0.11132496306 0.11058136701 0.98761253226 0.11178808482 0.11062069752 0.9875558138 
0.11217161964 0.11061758352 0.98751267231 0.1124766753 0.1105718409 0.98748309632 0.11270223474 0.11048308023 0.98746731352 
0.11284765975 0.11035321673 0.98746522635 0.112914303 0.11018491563 0.98747640202 0.11290485623 0.10997979253 0.9875003487 
0.11281780195 0.109739534 0.98753702626 0.11265493398 0.10946850747 0.98758569842 0.11241956653 0.10916920933 0.98764564738 
0.11211139285 0.10884494624 0.98771646401 0.11173199069 0.10850128198 0.98779726365 0.1112825408 0.10813996125 0.98788761754 
0.11076617184 0.10776457084 0.98798666613 0.11018362015 0.10737928827 0.98809374975 0.10953479326 0.10698733875 0.98820839827 
0.10882175978 0.10659072076 0.98833002729 0.10804263448 0.10619060711 0.98845856974 0.10719647205 0.10578961516 0.98859368484 
0.10628607848 0.10538845322 0.98873481958 0.10530756606 0.10498798695 0.98888211589 0.10425841524 0.10458743604 0.98903571779 
0.1031382032 0.10418480263 0.989195652 0.10194355824 0.10377843661 0.98936219204 0.10067246988 0.10336555319 0.98953555581 
0.099320115198 0.10294312796 0.98971623566 0.097882389632 0.10250626369 0.98990479527 0.096355656322 0.10204970722 0.99010173455 
0.094738485959 0.10156779925 0.99030732676 0.093026467561 0.10105303198 0.99052226682 0.091216529676 0.10049853105 0.99074698585 
0.089309938686 0.099896671613 0.99098152851 0.087306074179 0.099237877252 0.99122625728 0.085201385733 0.098513873336 0.99148158865 
0.082998987468 0.097715982336 0.99174732411 0.080704908472 0.096836629381 0.99202287522 0.078319601768 0.095865563731 0.99230833599 
0.075850556241 0.094793894034 0.99260304794 0.073308704347 0.093616857419 0.99290569435 0.070699815649 0.092327511731 0.99321556907 
0.068031377224 0.090921773397 0.99353156107 0.065319521375 0.089399030785 0.99385168583 0.062575804155 0.087758674676 0.99417437291 
0.059814711014 0.086004644844 0.9944975623 0.057051680061 0.084143390404 0.99481907684 0.054301645676 0.08218525634 0.99513663128 
0.051585085963 0.080146785589 0.99544737262 0.048923108903 0.078047367809 0.9957485314 0.046339180167 0.075911161762 0.9960372362 
0.043854351378 0.073767263774 0.99631078819 0.04149508086 0.071650978795 0.99656625244 0.039286955617 0.06960071969 0.99680102073 
0.03725941478 0.067657128016 0.99701266243 0.035447023602 0.065864961886 0.99719873411 0.033870091317 0.064269677047 0.99735762168 
0.032556327009 0.06291440771 0.9974877758 0.031533010053 0.061839965834 0.99758783468 0.030817511775 0.061080047172 0.9976570096 
0.030817511775 0.061080047172 0.9976570096 
NormalArray 3 280 double
-0.18641264034 -0.63354714667 -0.75091167288 -0.18641264034 -0.63354714667 -0.75091167288 -0.19086060584 -0.63114616351 -0.75181563526 
-0.19210618361 -0.63213230116 -0.75066901365 -0.19458555025 -0.63326925836 -0.74907043063 -0.19853036431 -0.63440942102 -0.74706785567 
-0.20365296837 -0.63579178226 -0.74450942109 -0.20983421097 -0.63753014464 -0.74129947969 -0.21710107038 -0.6396266546 -0.73739058033 
-0.22586259913 -0.64179752147 -0.73285880479 -0.23565173133 -0.64440217679 -0.72747102765 -0.24654447755 -0.64737378662 -0.72119553589 
-0.25890983477 -0.65040883321 -0.71409666512 -0.27220198628 -0.65387073327 -0.70594556648 -0.28684413472 -0.65734700425 -0.69686107538 
-0.3025243572 -0.66096125754 -0.68673810826 -0.31922408627 -0.66456863606 -0.67560677225 -0.33678043771 -0.66809994393 -0.66349182489 
-0.35510868192 -0.67139131181 -0.65048561126 -0.37417375462 -0.67421716668 -0.6367300947 -0.39364857329 -0.67657765595 -0.62232103951 
-0.41356506838 -0.67817369713 -0.60749022275 -0.43354213401 -0.67907282783 -0.59236923666 -0.45364717404 -0.67898491457 -0.577220692 
-0.47354877868 -0.67800684461 -0.5621906019 -0.49346562997 -0.67579016568 -0.54753933558 -0.51280722526 -0.67277341331 -0.53329605668 
-0.53203015984 -0.66846134812 -0.519714667 -0.55072622217 -0.66322421922 -0.50678818382 -0.56915277103 -0.65681561602 -0.4946295278 
-0.58718156931 -0.64939515512 -0.48322224406 -0.60478447167 -0.64104318529 -0.47254563527 -0.62199268112 -0.63178723849 -0.46256890288 
-0.63887631221 -0.62161185659 -0.45325021504 -0.65552097288 -0.61048041225 -0.44452887463 -0.67180056575 -0.59860116274 -0.43630338966 
-0.68785263744 -0.58585772891 -0.42852009362 -0.70369053719 -0.57227394693 -0.42109637558 -0.71900440678 -0.55830883278 -0.41391292595 
-0.73409567006 -0.54359791488 -0.40694576314 -0.7485608271 -0.52876284461 -0.40008316921 -0.76247458809 -0.51376652708 -0.3932892805 
-0.77558753129 -0.49907934754 -0.38650198726 -0.78798384722 -0.48467155779 -0.37970374978 -0.79931817888 -0.47123759049 -0.3728613445 
-0.80967639001 -0.45877878296 -0.3659865732 -0.81908835046 -0.44738405858 -0.35908463942 -0.82726300691 -0.43774106648 -0.35216285455 
-0.83446583801 -0.42948995578 -0.34526097821 -0.84033522071 -0.42346625152 -0.33839776987 -0.84524956837 -0.41902720649 -0.33161629541 
-0.84904304221 -0.41658008991 -0.32494144266 -0.85183123295 -0.41593423741 -0.31840581137 -0.85305186119 -0.41826052668 -0.31202668788 
-0.85346060583 -0.42198151678 -0.30583752841 -0.85231112336 -0.42855640582 -0.29984188505 -0.84992574895 -0.43721900314 -0.29405061564 
-0.84580853592 -0.44878446384 -0.28844483976 -0.84024965016 -0.46246954555 -0.28302375315 -0.83260058473 -0.47920952815 -0.27773097495 
-0.82307865344 -0.49826220872 -0.27253678946 -0.81135370055 -0.51982233943 -0.26737596758 -0.79761181769 -0.54319659908 -0.26220763345 
-0.78066323276 -0.56972194431 -0.25686927257 -0.76129136476 -0.59770897465 -0.25135520596 -0.73935999438 -0.6269238167 -0.24558771705 
-0.71546722674 -0.6562837543 -0.23957938414 -0.68999994793 -0.68516667244 -0.23333817267 -0.66268317451 -0.71373352244 -0.22679389137 
-0.6357556586 -0.73980374591 -0.22023887054 -0.60873353279 -0.76407831042 -0.21360669838 -0.58301449591 -0.78561890311 -0.20711599803 
-0.56055306248 -0.80333045644 -0.20109809023 -0.53946400036 -0.81905244466 -0.19527336024 -0.52232848426 -0.83128849688 -0.19008521636 
-0.50743901918 -0.84153605817 -0.1852638783 -0.49591716124 -0.84929485247 -0.18100945488 -0.48865545779 -0.85423356608 -0.17748481106 
-0.48356906675 -0.85776990964 -0.17433226837 -0.47995879797 -0.8603787594 -0.17142911836 -0.48108143013 -0.86016532573 -0.1693406921 
-0.48197506384 -0.86008434416 -0.16719736472 -0.48806049962 -0.85689020867 -0.16594010666 -0.49305634592 -0.85431023967 -0.16446718254 
-0.50239689059 -0.84899582269 -0.16371761474 -0.51027917171 -0.84448161356 -0.162683654 -0.52224762584 -0.83720489054 -0.16231262599 
-0.53554872754 -0.82879705633 -0.16212032518 -0.54790492056 -0.82076033722 -0.16171786194 -0.56387125037 -0.80984550985 -0.16186248233 
-0.5780371039 -0.79984016378 -0.16164411195 -0.59370688803 -0.78828615958 -0.16160774026 -0.60983542433 -0.77588353734 -0.16157193977 
-0.62406088177 -0.76457670522 -0.16115358417 -0.63924694869 -0.75199972761 -0.16080966473 -0.65325022124 -0.74000113005 -0.16019511846 
-0.66500894472 -0.72968154409 -0.15914756565 -0.67749116892 -0.71833211029 -0.15812873037 -0.68723381003 -0.70935572327 -0.15660187809 
-0.69726393212 -0.69984804379 -0.1550345915 -0.70446073295 -0.69306671564 -0.15294967603 -0.71204357692 -0.68574201195 -0.15083712278 
-0.71844966337 -0.67955174834 -0.14845707306 -0.72381256655 -0.67441013905 -0.14582980784 -0.72858846268 -0.66985307286 -0.14302346952 
-0.73347676933 -0.6651113907 -0.14013802773 -0.73737677764 -0.66144140555 -0.1370064043 -0.74210245021 -0.65677623246 -0.13389896888 
-0.74552143012 -0.65358207696 -0.13049239788 -0.75046279497 -0.64855564556 -0.12720521992 -0.75425937333 -0.64483047201 -0.12363842491 
-0.75830367063 -0.64076164534 -0.12000023738 -0.76286814784 -0.63600284969 -0.11632954999 -0.76752727063 -0.63105598447 -0.11256213085 
-0.7727524137 -0.62531807873 -0.10877043505 -0.77726870479 -0.62038414435 -0.10477057795 -0.78203555438 -0.61504258509 -0.10071251268 
-0.78731287749 -0.60893281538 -0.096639843191 -0.7923350709 -0.60304051128 -0.092451485572 -0.79705530389 -0.59743741738 -0.088155401692 
-0.80244482839 -0.59079749968 -0.083908353389 -0.80721042351 -0.5848809695 -0.079533538136 -0.81196129902 -0.57885441544 -0.075142628498 
-0.81729625191 -0.57184609322 -0.070844070254 -0.82190365964 -0.5657369392 -0.066453667314 -0.82679966194 -0.55905311388 -0.062144467735 
-0.83181985847 -0.55201660726 -0.057908448075 -0.8366311801 -0.54512731653 -0.053707329612 -0.84158333385 -0.5378446548 -0.049604631848 
-0.84629459416 -0.53076423611 -0.045549814147 -0.85106179244 -0.52341551702 -0.041593532916 -0.85611175052 -0.51540857411 -0.037771316538 
-0.86073244766 -0.50792307138 -0.033967736258 -0.86551267216 -0.49997129968 -0.030273979357 -0.86982926295 -0.49263633708 -0.026579930493 
-0.87418959615 -0.48504170794 -0.022958474257 -0.87834646229 -0.47763239638 -0.019359393271 -0.88215671453 -0.47069267962 -0.015745868185 
-0.88591356126 -0.46369106704 -0.012155506068 -0.8892313512 -0.45737856838 -0.0085117112336 -0.89234512808 -0.4513277218 -0.0048435437457 
-0.89534022623 -0.44538134176 -0.0011574593466 -0.89776248528 -0.44047199227 0.002635155897 -0.90045480303 -0.43490271777 0.0063854339999 
-0.90261667254 -0.43032337162 0.010243939012 -0.90472900307 -0.42575346175 0.014121643482 -0.90678492148 -0.42120825108 0.018019861381 
-0.90872019949 -0.41682852217 0.021944980007 -0.9105606264 -0.41256430174 0.025885180557 -0.91239046232 -0.40823333683 0.029819238126 
-0.91433635626 -0.40354994587 0.033711553211 -0.91615353982 -0.3990598733 0.037601981213 -0.91837338928 -0.39354612142 0.041373520191 
-0.92034551688 -0.3884915612 0.045149046909 -0.92252347244 -0.38284024147 0.048824095609 -0.92486352976 -0.37667218354 0.052397685692 
-0.92760241757 -0.36937669662 0.055808699328 -0.93019722738 -0.36225988067 0.059168378573 -0.93325243163 -0.35377205969 0.062331602242 
-0.93663775337 -0.34415654523 0.065314556882 -0.94005276243 -0.33414417561 0.068179716593 -0.94376898191 -0.32292428345 0.070852070847 
-0.94762106997 -0.31085795072 0.073359677113 -0.95190536301 -0.29691769511 0.07560464412 -0.95624438916 -0.28206997771 0.077673649757 
-0.96065340714 -0.26611640027 0.079543025171 -0.96531314639 -0.24817192724 0.081124743102 -0.9697319744 -0.22979115816 0.082558594044 
-0.9742760368 -0.20924938672 0.083671370691 -0.97855190179 -0.18783609501 0.084580003089 -0.98263530022 -0.16483000751 0.085199386087 
-0.98644061748 -0.14008698079 0.085501730925 -0.98976241703 -0.11425272698 0.08553754853 -0.99253604912 -0.087177927989 0.085277195441 
-0.99473010184 -0.057921558289 0.084599749294 -0.9961486462 -0.026731886253 0.083506173033 -0.99661526263 0.0068094520881 0.081924658407 
-0.99589117703 0.042778421277 0.079817104576 -0.99365098647 0.081977449095 0.077054623028 -0.98932609974 0.12587665927 0.073409365994 
-0.98225806941 0.17445008385 0.068820442667 -0.97124848959 0.22959196881 0.062959505374 -0.95411316235 0.294299135 0.055281937105 
-0.92872892296 0.3679368047 0.045662844907 -0.88803721605 0.45862009682 0.032519374272 -0.83006536956 0.55741660459 0.016679663639 
-0.74251125201 0.66982368995 -0.003642119303 -0.62155833551 0.78289022339 -0.027352032438 -0.45755118877 0.88752004619 -0.054360622349 
-0.28318584756 0.95585573181 -0.078393849956 -0.10246288215 0.98977126586 -0.099268318484 0.047182463591 0.99239473293 -0.11369480719 
0.15849040295 0.97970280206 -0.12273227696 0.21582549135 0.9681796352 -0.12667892988 0.23942200409 0.96243955434 -0.1280125314 
0.17719711941 0.97643231308 -0.12321168309 0.042770414094 0.99281883776 -0.11172039681 -0.26944761664 0.95987464391 -0.077708750274 
-0.67791671591 0.73501209088 -0.013643773444 -0.92608156288 0.37404999723 0.049593734097 -0.99084918817 0.10468287457 0.085202007434 
-0.99391437246 -0.042327963032 0.10169839603 -0.98520970411 -0.13069516664 0.11081792427 -0.97531530082 -0.18756956634 0.1165234816 
-0.96780346789 -0.22122956738 0.1200580112 -0.96103964685 -0.24755257657 0.12296551965 -0.9567553437 -0.26267197216 0.12499058905 
-0.95291685255 -0.2754139868 0.12687240832 -0.95048211935 -0.28301676021 0.12839491515 -0.94809903779 -0.29022220154 0.12992031509 
-0.94713938762 -0.29280811588 0.1311121188 -0.94680885082 -0.29340460295 0.13216179094 -0.94699160421 -0.29239676046 0.1330828164 
-0.94788991774 -0.28913583636 0.13381020883 -0.950037138 -0.2818205782 0.13418866618 -0.95301589142 -0.27153120927 0.13428146967 
-0.95711170915 -0.25689094383 0.13395603449 -0.96272436759 -0.23553559274 0.1329841216 -0.96874196641 -0.21031586256 0.13155318493 
-0.97675249282 -0.17141039408 0.12873633743 -0.98510385681 -0.11878310234 0.12434213246 -0.99224678612 -0.041888910999 0.11701125833 
-0.99204876773 0.069539968731 0.1048972602 -0.96587698322 0.24550174954 0.082526021691 -0.85910198139 0.51016182207 0.040971952291 
-0.57436378333 0.8181935619 -0.025798055453 -0.14740873664 0.98469193656 -0.093018570376 0.20474548645 0.9699506315 -0.13143461579 
0.43828799019 0.8864693293 -0.1485791569 0.5653946812 0.81025794721 -0.15430785286 0.64717836389 0.74617638605 -0.15614405594 
0.70825787078 0.68844361441 -0.15625677025 0.75251287405 0.63997709548 -0.15541457988 0.78520410063 0.59975545077 -0.15410360032 
0.81184438172 0.56360830565 -0.15249386114 0.83570480732 0.52813055832 -0.15058415717 0.85592831054 0.49531334204 -0.14849720677 
0.87202774263 0.46705282049 -0.14638742758 0.88750116173 0.43771741558 -0.14403177439 0.90072575753 0.41065659225 -0.14161311012 
0.91093268216 0.38832127947 -0.13931343249 0.92186125437 0.3626201303 -0.13666919472 0.92909736222 0.3445593501 -0.13437613545 
0.93599654358 0.32633792747 -0.13196222002 0.9410110445 0.31251418814 -0.12974242306 0.94521148549 0.30050837563 -0.12755376858 
0.94838836008 0.29123539987 -0.12546497646 0.95027868865 0.28583666847 -0.12356299147 0.95138522269 0.2829196131 -0.1217483083 
0.9512580791 0.28403502143 -0.12013398163 0.95036273694 0.28765330553 -0.11860119751 0.9486037376 0.29398156395 -0.11715711274 
0.94567374948 0.30377647121 -0.11584910482 0.94166184569 0.31644099802 -0.11462139046 0.93728972583 0.32962399962 -0.11329602255 
0.93115232706 0.34696652388 -0.11211411651 0.92474073072 0.36412016046 -0.11077495067 0.91637769871 0.38504053186 -0.10952489275 
0.90734991042 0.40623122788 -0.10813107576 0.89698171145 0.42900370922 -0.10667533359 0.88589300222 0.45183574204 -0.10506212847 
0.87389884424 0.47500323769 -0.10330892615 0.86072106996 0.49886710511 -0.10144383257 0.84710463787 0.52204700709 -0.099401483353 
0.83272035457 0.54509105141 -0.097224260083 0.81820295175 0.56704571595 -0.094884591861 0.80362505119 0.58791831764 -0.092405783827 
0.78918569303 0.60755219184 -0.089812449686 0.77473850376 0.62624685191 -0.087150050283 0.76067468295 0.64361764452 -0.084441425733 
0.74800670955 0.65864445845 -0.081691124435 0.73553415605 0.67286544383 -0.07900379602 0.72523987701 0.68424858637 -0.076360937976 
0.7138519018 0.69638297607 -0.073933841604 0.70382676472 0.70674403221 -0.071699080875 0.6982094015 0.71249986452 -0.069624526716 
0.68959100105 0.72100111258 -0.067982695862 0.68610114791 0.7244516883 -0.066595541503 0.6806942841 0.72961585839 -0.06569620073 
0.6806942841 0.72961585839 -0.06569620073 
BinormalArray 3 280 double
0.77430377543 -0.56518862582 0.28463218476 0.77430377543 -0.56518862582 0.28463218476 0.77335038862 -0.56838658563 0.28083067086 
0.77333493859 -0.56843758178 0.28076999196 0.77317609214 -0.56895770953 0.2801532711 0.77281466795 -0.57012390919 0.27877628516 
0.77232089604 -0.57168431332 0.27694309784 0.77172364843 -0.57352459636 0.27479473761 0.7710130332 -0.57565156075 0.27233101777 
0.77006767772 -0.57838779348 0.26919014115 0.76901119064 -0.58133359625 0.26584401169 0.76781105828 -0.58455014505 0.26223521256 
0.7663312637 -0.58835117359 0.25802963166 0.76472641803 -0.59229367823 0.25373550066 0.76281710676 -0.59677324025 0.24894128096 
0.76067116274 -0.60157448038 0.2439006493 0.75824120049 -0.60675595556 0.23857387171 0.75552586765 -0.61227279297 0.23302937647 
0.75248097986 -0.61816803776 0.22724579652 0.74902617394 -0.62454261109 0.22114772818 0.74521451909 -0.63124803149 0.21489821609 
0.74091591871 -0.63846185007 0.20835082774 0.73622269732 -0.64598058449 0.20170578675 0.73098492775 -0.65399722319 0.19480417721 
0.72529910875 -0.66231746837 0.18782112219 0.71893251732 -0.67122923106 0.1805196801 0.71220826283 -0.68023943198 0.17330235296 
0.70475015649 -0.68981187278 0.16579142651 0.69681825944 -0.69956602509 0.15827725623 0.68819273085 -0.70973199649 0.15056977906 
0.6789642128 -0.72015552051 0.14277122965 0.66916190569 -0.73076662686 0.13491657067 0.65877240733 -0.74154526686 0.12700209658 
0.64774667599 -0.75250492582 0.11899823683 0.63601648716 -0.76366986007 0.1108664642 0.62372674353 -0.77486429676 0.10271451219 
0.61074814247 -0.78617015653 0.094462645816 0.59707297901 -0.79755117947 0.086116048775 0.58308339876 -0.80866812312 0.07790774502 
0.56843879889 -0.81977314549 0.069637072474 0.5536795521 -0.83044792662 0.061605152144 0.53876428579 -0.8407385238 0.053775263436 
0.52411393592 -0.85038601822 0.046348702066 0.50970062026 -0.85945438882 0.039286527485 0.49616411671 -0.8676063464 0.032869392756 
0.48351406087 -0.87491819716 0.027061064776 0.47184020307 -0.88141293231 0.021864709509 0.46179249916 -0.88681485359 0.017524359179 
0.45304928423 -0.89137779838 0.013855201982 0.44640554972 -0.89476136903 0.011143503704 0.44127266811 -0.89732689677 0.0091034446983 
0.43804574093 -0.89891838172 0.0078531434691 0.43655692386 -0.89964710124 0.007290093987 0.43792638598 -0.89897702781 0.0077964052066 
0.44066912699 -0.89762657577 0.0087892544488 0.44617987501 -0.89487879186 0.010745557412 0.4537369103 -0.89103521319 0.013381520565 
0.46412260693 -0.8856088105 0.016948171251 0.47659332917 -0.87886885635 0.021173849977 0.4920436943 -0.87017159065 0.026351579191 
0.50976295543 -0.8597106352 0.032238998039 0.52993446292 -0.84714591908 0.038900601466 0.55188920264 -0.83264085378 0.046125010868 
0.57690070975 -0.8150041489 0.054348950116 0.60334189925 -0.79498538223 0.063061832001 0.63097968688 -0.77243125445 0.072212131149 
0.65876897124 -0.74792034196 0.081477632558 0.68610742151 -0.72182730553 0.090674953214 0.71314248252 -0.69386873931 0.099869776405 
0.73778765529 -0.66627987743 0.10835359077 0.76071223155 -0.63857721905 0.11634447163 0.78102287796 -0.61216627158 0.12351404792 
0.79768179386 -0.58901935108 0.12946026338 0.81244511418 -0.56724543831 0.13477963185 0.82389356102 -0.54945119751 0.13893445095 
0.83345463549 -0.53391956247 0.14241935048 0.84065482447 -0.52178599733 0.14504771315 0.84518040643 -0.51395574128 0.14669552343 
0.84837853173 -0.50832411834 0.14785282413 0.85069980775 -0.50418485073 0.14868582107 0.85033840203 -0.50483187379 0.14855766976 
0.85010612947 -0.50524676871 0.14847650099 0.84690477658 -0.51091321183 0.14737703141 0.84428906791 -0.51547536979 0.14649611922 
0.83905495469 -0.52443140612 0.14477045034 0.8345832113 -0.53190942486 0.14332908693 0.82745532581 -0.54351871154 0.14108541382 
0.81923113442 -0.55647163194 0.13856287826 0.81135455631 -0.56846374871 0.13620848126 0.80069236751 -0.58410168056 0.13310506896 
0.79089548257 -0.59791185263 0.13032939862 0.77958906172 -0.61323608976 0.12721003524 0.76744723676 -0.62901612491 0.12394939855 
0.75635511266 -0.64286415646 0.12104800657 0.74401795104 -0.65767473687 0.1179034733 0.7322311059 -0.67128099384 0.11497580121 
0.72206872872 -0.68261073004 0.1125137424 0.71089460358 -0.69466313344 0.10987262458 0.70202777353 -0.70393908027 0.10782753109 
0.69263683542 -0.71349763781 0.10571345732 0.68590643694 -0.72018576279 0.10423448013 0.67864238272 -0.72725653897 0.10267639896 
0.67248760264 -0.73313081948 0.10138848955 0.667360607 -0.73794394322 0.10034219894 0.66280837535 -0.74215725835 0.099436720778 
0.65807697164 -0.74647737 0.09852022882 0.65440163042 -0.74979214923 0.097827598632 0.6497512885 -0.75393562778 0.096975936543 
0.64655339285 -0.75675247421 0.096407483989 0.64155547444 -0.76110279309 0.095546384319 0.63784619245 -0.76429112603 0.094927917175 
0.63380456401 -0.76772629436 0.094276781817 0.62908859781 -0.77168456199 0.093543962355 0.62419433991 -0.77573667822 0.092811810104 
0.61852549312 -0.78036065792 0.091997053925 0.61366169213 -0.78426955381 0.091326855717 0.60840376732 -0.78843538872 0.090633844266 
0.60239401616 -0.79312256565 0.089877945863 0.59661065392 -0.79755981939 0.089185548865 0.5911257426 -0.80170262218 0.08856219296 
0.58462123826 -0.80653469029 0.087862398874 0.57884764289 -0.81075168024 0.087276109642 0.57297572485 -0.8149719625 0.086715160569 
0.56613623563 -0.81980250903 0.08610231641 0.56020328311 -0.82391989765 0.085605396122 0.5537065841 -0.8283521167 0.085098704296 
0.54686632115 -0.83293423915 0.084603664477 0.54018064469 -0.83733061368 0.084156488194 0.53310865499 -0.84189424476 0.083721219696 
0.52624465152 -0.84623988954 0.083334363225 0.51911745209 -0.8506663815 0.082968538166 0.5113362569 -0.85540127049 0.082606893268 
0.50408101323 -0.85972577924 0.082303806815 0.49636281464 -0.86423215998 0.082016643988 0.48926621086 -0.86829138103 0.081784182697 
0.48191366513 -0.87241313683 0.081575351891 0.47475121741 -0.87634749371 0.081402406808 0.46806437049 -0.87994948041 0.081269040795 
0.46132106638 -0.88351316258 0.081162585316 0.45527482612 -0.88665038051 0.081092141645 0.44949784718 -0.88959697769 0.081048767203 
0.44383311196 -0.89243843458 0.081029681039 0.43921666928 -0.89471911905 0.081033421657 0.43394643298 -0.89728468462 0.081059780765 
0.42967821174 -0.8993328487 0.081099085097 0.425428184 -0.90134594464 0.081156320425 0.4212117646 -0.90331730972 0.08123107367 
0.41716986269 -0.90518305462 0.081320005465 0.4132517748 -0.90696927696 0.081422977621 0.40927413821 -0.9087602409 0.081544493132 
0.40494923912 -0.91068219405 0.081694890769 0.40082412795 -0.91249092089 0.081855590808 0.39567610994 -0.91471511774 0.082077216123 
0.39099291389 -0.91670695712 0.082297606561 0.38571328503 -0.91891673955 0.082566867033 0.37991660021 -0.92129991392 0.082884531127 
0.37298903175 -0.92408986629 0.083289262235 0.36624084374 -0.92674742192 0.083706990951 0.35811581341 -0.92986945996 0.084236878022 
0.34885751073 -0.93332506772 0.084869047204 0.33919885433 -0.9368160237 0.085556267836 0.32832610321 -0.94060837119 0.086358913812 
0.31660101107 -0.94453728683 0.087253157993 0.30299243446 -0.94889148384 0.088320646231 0.28846975574 -0.9532980531 0.089487552068 
0.27283342025 -0.95776963271 0.090770344614 0.25519542585 -0.96247944386 0.0922421529 0.23711420334 -0.96694552504 0.093772097024 
0.21685942031 -0.97151987556 0.095504571735 0.19572350745 -0.97581756558 0.097326190424 0.17298177615 -0.97990697891 0.099295608151 
0.14848850153 -0.98369975504 0.10141970642 0.12288965973 -0.98699426812 0.10363612418 0.096034022128 -0.98972309925 0.10595118403 
0.066975823537 -0.99184465422 0.10843625296 0.035961509516 -0.99316327046 0.11105623819 0.0025689856434 -0.99349695377 0.11382971122 
-0.033280848042 -0.9926045789 0.11674131701 -0.072396506832 -0.99015159554 0.11982722419 -0.11625824824 -0.98555380093 0.12315731885 
-0.16484631349 -0.97815222066 0.12666462077 -0.22007132543 -0.96672975383 0.13039246443 -0.28495856845 -0.94907353282 0.13438022019 
-0.35889236543 -0.92306896884 0.13834720383 -0.45007685333 -0.88158302481 0.14227507321 -0.54958034458 -0.822738861 0.14512825862 
-0.66303836743 -0.73419534184 0.1460730069 -0.77751524369 -0.61227834295 0.14347570035 -0.88400088576 -0.44744269737 0.13541590209 
-0.95424486593 -0.27263486959 0.12282900196 -0.99008223948 -0.091831723925 0.10632071082 -0.9942499704 0.057612030131 0.090265443779 
-0.9826735727 0.16861199944 0.076958710758 -0.97169882949 0.2257227083 0.069646562889 -0.9661628073 0.24919987809 0.066549609729 
-0.97949287768 0.18716433226 0.07458696476 -0.99447536073 0.05303539392 0.090586996248 -0.95823002004 -0.25920037702 0.12087345967 
-0.72884817789 -0.66957731202 0.14299145715 -0.36487409226 -0.92124129735 0.13483830631 -0.094502239606 -0.98876304183 0.1158316616 
0.052739221483 -0.99338851876 0.10196972746 0.14115673236 -0.98565849061 0.092477655656 0.19804332537 -0.97642358896 0.085882572134 
0.23172548426 -0.96933736467 0.081782476146 0.25807943365 -0.96293230626 0.078462599307 0.27325356665 -0.95889524156 0.076501006648 
0.28605956679 -0.95528689527 0.074812244762 0.29374297475 -0.95303268222 0.073781917917 0.30103324366 -0.95083152594 0.072790078222 
0.30371918959 -0.95000525004 0.072420154445 0.30442286136 -0.94978745035 0.072322338415 0.30352684772 -0.95006461024 0.07244783696 
0.30038318245 -0.95102938834 0.072890645557 0.29319522984 -0.95319174553 0.073905706487 0.2830381321 -0.95614511945 0.075338743866 
0.26853753274 -0.96015658004 0.077375288838 0.24733337943 -0.96559528728 0.08032397275 0.22226327173 -0.97138232152 0.083758124813 
0.1835244323 -0.97898321196 0.088941854349 0.13106160347 -0.98674329786 0.09571060665 0.054311504604 -0.99297954683 0.10508035046 
-0.057068118912 -0.99142722525 0.11753844834 -0.23330377365 -0.9630694466 0.13441201669 -0.49924141641 -0.85295275619 0.15241261056 
-0.8107845892 -0.56425301313 0.15571411975 -0.98260929394 -0.13505952184 0.1274280229 -0.9722817386 0.21702584566 0.086994270477 
-0.89172629277 0.44958799237 0.051912001427 -0.81709101104 0.57575924209 0.02938664367 -0.754003983 0.65673654126 0.013232875593 
-0.69699485225 0.71707612389 9.2082635194e-05 -0.64903030487 0.76069493824 -0.010142696669 -0.60915574074 0.79284244844 -0.018169630591 
-0.5732709264 0.81898258533 -0.025059326949 -0.53801212335 0.84234660433 -0.031546050588 -0.50536012534 0.86210115563 -0.037319447589 
-0.47720586824 0.87778134015 -0.042124555771 -0.44796035212 0.89281970132 -0.046952144437 -0.42095371015 0.90563222147 -0.051266493341 
-0.39862879736 0.91547793957 -0.054728640372 -0.37293718535 0.92600440803 -0.058597714016 -0.35483555962 0.93292031947 -0.061248699148 
-0.33656051678 0.93949405746 -0.063858707683 -0.32265418804 0.94422715398 -0.065797846693 -0.31054838836 0.94816152558 -0.067449387685 
-0.30115616078 0.9510965536 -0.068704530839 -0.29561706937 0.95278007161 -0.069431141685 -0.29254357889 0.95369929736 -0.069827678422 
-0.29348370691 0.95341915691 -0.06970814172 -0.29691201486 0.95238850295 -0.06927766515 -0.30303546611 0.95051295905 -0.06851730413 
-0.31260981174 0.94749169418 -0.067339401987 -0.32503940959 0.94340709055 -0.065821301409 -0.33797735681 0.93895848451 -0.064251619791 
-0.35505846265 0.93277318685 -0.062190594175 -0.37194260135 0.92630404077 -0.060162491191 -0.39257859505 0.91790717532 -0.057692843557 
-0.4134765207 0.90884008887 -0.055198366664 -0.43594683527 0.89843847952 -0.052522902905 -0.45847041855 0.88731059545 -0.04984759289 
-0.48132373902 0.87527433146 -0.047141308242 -0.50486889372 0.862055349 -0.044361868896 -0.52772909834 0.8483898499 -0.041673269056 
-0.55045345982 0.83395380372 -0.039013354632 -0.57209180693 0.81937723051 -0.036495459633 -0.59265344712 0.80473451239 -0.034121198662 
-0.61198441224 0.79022580757 -0.031910064486 -0.63038621511 0.77570837875 -0.029828358023 -0.64747718654 0.7615732553 -0.027918984918 
-0.66224071026 0.74882966564 -0.026293982734 -0.67621569307 0.73628678634 -0.024781136218 -0.68737446556 0.72591983846 -0.023595173544 
-0.69930479642 0.71447411687 -0.022350347354 -0.70948671149 0.70439667783 -0.021305550642 -0.71509191617 0.69872265719 -0.020741257271 
-0.72346688718 0.69007186073 -0.019912061398 -0.72682245708 0.6865461164 -0.019584329176 -0.73191910247 0.68112401736 -0.019091893675 
-0.73191910247 0.68112401736 -0.019091893675 
