# vtk DataFile Version 4.1
vtk output
ASCII
DATASET POLYDATA
POINTS 217 float
13.6502 12.0582 -214.07 13.6064 12.0675 -213.369 13.5627 12.0769 -212.667 
13.519 12.0862 -211.965 13.4754 12.0954 -211.261 13.4319 12.1046 -210.554 
13.3886 12.1138 -209.845 13.3455 12.1229 -209.133 13.3026 12.1319 -208.417 
13.2601 12.1409 -207.696 13.2179 12.1498 -206.971 13.1762 12.1588 -206.24 
13.1348 12.1678 -205.504 13.0941 12.1768 -204.761 13.0538 12.186 -204.013 
13.0143 12.1954 -203.258 12.9754 12.2051 -202.496 12.9374 12.2151 -201.727 
12.9002 12.2256 -200.952 12.8641 12.2366 -200.17 12.829 12.2483 -199.38 
12.795 12.2607 -198.583 12.7624 12.274 -197.779 12.7312 12.2883 -196.967 
12.7014 12.3036 -196.148 12.6734 12.3203 -195.32 12.6471 12.3382 -194.484 
12.6228 12.3576 -193.639 12.6005 12.3786 -192.784 12.5804 12.4012 -191.919 
12.5628 12.4257 -191.042 12.5476 12.4521 -190.154 12.5351 12.4804 -189.252 
12.5255 12.5109 -188.336 12.5189 12.5435 -187.404 12.5154 12.5784 -186.454 
12.5153 12.6156 -185.485 12.5186 12.6551 -184.495 12.5256 12.6972 -183.483 
12.5364 12.7417 -182.445 12.5512 12.7887 -181.381 12.5702 12.8382 -180.289 
12.5935 12.8902 -179.166 12.6214 12.9447 -178.01 12.6541 13.0017 -176.82 
12.6917 13.061 -175.595 12.7344 13.1227 -174.333 12.7825 13.1866 -173.032 
12.8363 13.2526 -171.691 12.8958 13.3205 -170.311 12.9614 13.3901 -168.89 
13.0332 13.4613 -167.427 13.1116 13.5337 -165.924 13.1966 13.6071 -164.38 
13.2886 13.6812 -162.796 13.3876 13.7556 -161.172 13.4939 13.8299 -159.51 
13.6077 13.9037 -157.811 13.729 13.9766 -156.076 13.8579 14.048 -154.307 
13.9946 14.1175 -152.506 14.1391 14.1846 -150.674 14.2914 14.2485 -148.813 
14.4515 14.3088 -146.927 14.6193 14.3649 -145.016 14.7947 14.4162 -143.083 
14.9777 14.462 -141.13 15.1681 14.5018 -139.16 15.3658 14.5349 -137.175 
15.5705 14.5607 -135.177 15.782 14.5788 -133.168 16.0003 14.5886 -131.15 
16.2249 14.5895 -129.126 16.4557 14.5811 -127.096 16.6926 14.563 -125.062 
16.9352 14.5348 -123.027 17.1835 14.4962 -120.991 17.4372 14.4469 -118.955 
17.6962 14.3867 -116.92 17.9604 14.3153 -114.887 18.2298 14.2327 -112.856 
18.5042 14.1387 -110.826 18.7836 14.0334 -108.799 19.0682 13.9166 -106.772 
19.3578 13.7884 -104.746 19.6525 13.6488 -102.719 19.9525 13.498 -100.69 
20.2577 13.336 -98.6566 20.5683 13.163 -96.6175 20.8844 12.9791 -94.5704 
21.2059 12.7844 -92.5132 21.5329 12.5793 -90.4433 21.8655 12.3637 -88.3584 
22.2035 12.138 -86.256 22.5469 11.9025 -84.1334 22.8955 11.6573 -81.9885 
23.249 11.4027 -79.8189 23.6072 11.1392 -77.6225 23.9696 10.8671 -75.3976 
24.3358 10.5867 -73.1428 24.7052 10.2985 -70.857 25.0773 10.0031 -68.5396 
25.4512 9.70087 -66.1904 25.8262 9.39248 -63.81 26.2015 9.07855 -61.3992 
26.5762 8.75974 -58.9596 26.9492 8.43676 -56.4934 27.3198 8.11037 -54.0032 
27.6867 7.78133 -51.4922 28.049 7.45046 -48.9644 28.4057 7.11858 -46.4239 
28.7558 6.78651 -43.8754 29.0982 6.45509 -41.3239 29.432 6.12515 -38.7748 
29.7563 5.79751 -36.2335 30.0702 5.47296 -33.7055 30.373 5.15229 -31.1966 
30.6638 4.83622 -28.7122 30.9421 4.52546 -26.2577 31.2072 4.22067 -23.8381 
31.4586 3.92246 -21.4581 31.6959 3.63139 -19.1221 31.9188 3.34796 -16.8337 
32.1269 3.07262 -14.5963 32.3202 2.80577 -12.4125 32.4984 2.54773 -10.2842 
32.6615 2.29879 -8.21274 32.8095 2.05916 -6.19878 32.9426 1.829 -4.24228 
33.0607 1.60842 -2.34256 33.1642 1.39745 -0.498325 33.2531 1.1961 1.29232 
33.3278 1.00431 3.03179 33.3885 0.82198 4.72297 33.4354 0.64895 6.36914 
33.469 0.485033 7.97391 33.4895 0.329999 9.54114 33.4972 0.183582 11.0748 
33.4923 0.0454881 12.5791 33.4754 -0.0846059 14.0582 33.4465 -0.207044 15.516 
33.4061 -0.322187 16.9565 33.3544 -0.430409 18.3834 33.2917 -0.532095 19.8003 
33.2183 -0.62763 21.2104 33.1344 -0.717402 22.6165 33.0405 -0.801789 24.0212 
32.9368 -0.881164 25.4268 32.8236 -0.955883 26.8349 32.7012 -1.02629 28.2473 
32.57 -1.09269 29.6651 32.4302 -1.15539 31.0893 32.2823 -1.21464 32.5205 
32.1266 -1.27068 33.9591 31.9634 -1.32371 35.4057 31.7931 -1.37389 36.8604 
31.6159 -1.42135 38.3234 31.4323 -1.46619 39.795 31.2425 -1.50845 41.2754 
31.0469 -1.54816 42.765 30.8455 -1.5853 44.2645 30.6388 -1.61983 45.7744 
30.4269 -1.65166 47.2958 30.2099 -1.68069 48.8296 29.9879 -1.70678 50.3772 
29.7612 -1.72978 51.9402 29.5298 -1.74949 53.5201 29.2938 -1.76573 55.1188 
29.0533 -1.77826 56.7381 28.8083 -1.78685 58.3801 28.5592 -1.79126 60.0466 
28.3059 -1.79119 61.7397 28.0489 -1.78637 63.4612 27.7882 -1.77647 65.2129 
27.5244 -1.76117 66.9963 27.2579 -1.74008 68.8129 26.9892 -1.71282 70.6639 
26.719 -1.67893 72.5502 26.4481 -1.63794 74.4725 26.1775 -1.58929 76.4315 
25.9081 -1.53239 78.4274 25.6412 -1.46655 80.4602 25.3781 -1.39101 82.53 
25.1202 -1.30494 84.6366 24.8691 -1.20739 86.7795 24.6266 -1.09734 88.9586 
24.3946 -0.973631 91.1734 24.1751 -0.835026 93.4235 23.9701 -0.68017 95.7088 
23.7819 -0.507607 98.029 23.6129 -0.315785 100.384 23.4655 -0.103066 102.774 
23.3422 0.132261 105.2 23.2455 0.39196 107.661 23.178 0.677827 110.159 
23.1424 0.991663 112.694 23.141 1.33524 115.267 23.1765 1.71028 117.88 
23.2511 2.1184 120.533 23.367 2.56107 123.227 23.5261 3.0396 125.965 
23.7303 3.55506 128.746 23.9807 4.10826 131.571 24.2785 4.69972 134.441 
24.6242 5.32959 137.356 25.0178 5.99765 140.316 25.4589 6.70327 143.321 
25.9464 7.4454 146.368 26.4788 8.22252 149.457 27.0537 9.03267 152.585 
27.6683 9.87344 155.749 28.319 10.742 158.947 29.0018 11.6349 162.174 
29.7118 12.5487 165.425 30.4441 13.4793 168.697 31.1928 14.4224 171.984 
31.952 15.3733 175.28 
LINES 1 218
217 216 215 214 213 212 211 210 209 208 207 206 205 204 203 202 201 200 199 198 197 196 195 194 193 192 191 190 189 188 187 186 185 184 183 182 181 180 179 178 177 176 175 174 173 172 171 170 169 168 167 166 165 164 163 162 161 160 159 158 157 156 155 154 153 152 151 150 149 148 147 146 145 144 143 142 141 140 139 138 137 136 135 134 133 132 131 130 129 128 127 126 125 124 123 122 121 120 119 118 117 116 115 114 113 112 111 110 109 108 107 106 105 104 103 102 101 100 99 98 97 96 95 94 93 92 91 90 89 88 87 86 85 84 83 82 81 80 79 78 77 76 75 74 73 72 71 70 69 68 67 66 65 64 63 62 61 60 59 58 57 56 55 54 53 52 51 50 49 48 47 46 45 44 43 42 41 40 39 38 37 36 35 34 33 32 31 30 29 28 27 26 25 24 23 22 21 20 19 18 17 16 15 14 13 12 11 10 9 8 7 6 5 4 3 2 1 0 

CELL_DATA 1
FIELD FieldData 2
LengthArray 1 1 double
394.80382117 
TortuosityArray 1 1 double
0.01285082509 
POINT_DATA 217
FIELD FieldData 8
RadiusArray 1 217 double
75.475982713 75.609824771 75.68318024 75.688512098 75.796314817 75.879514345 76.041489956 76.041531355 76.044939875 
76.196129554 76.498864566 76.5698409 76.616633028 76.692094188 76.810542255 76.880212831 77.003451108 77.004615449 
77.037481125 77.204053927 77.316008609 77.354504346 77.435032709 77.530469461 77.646879061 77.803007608 77.878724967 
77.903186826 77.927065227 78.158006608 78.197068955 78.288119149 78.291633655 78.39682831 78.452752381 78.546766425 
78.555275983 78.596772807 78.63011858 78.753462776 78.763345356 78.884475318 78.922545169 79.012863805 79.053976002 
79.078752156 79.153513114 79.199741784 79.299703968 79.421357293 79.425320333 79.479333456 79.600068655 79.679677957 
79.722885297 79.745791963 79.733773546 79.731793501 79.735364414 79.753322077 79.763101575 79.764665883 79.75907748 
79.76305717 79.761145698 79.654912893 79.535952797 79.517501073 79.293679714 79.195539996 79.026409616 78.662498294 
78.489853476 78.188158207 78.137709332 77.696312751 77.696293909 77.691602186 77.304248872 77.134584614 76.697238339 
76.635015551 76.272099524 76.218528845 76.116898933 76.046618118 75.798275562 75.630660703 75.546754876 75.190904504 
74.893047081 74.885046951 74.688891909 74.63721505 74.514005713 73.880760299 73.776479223 73.475670059 73.065242266 
72.769985361 72.44000879 71.784459901 71.276946483 71.019581716 70.131069061 69.86713937 69.253397507 68.577005425 
68.457381204 67.765935811 67.677583721 67.317349241 67.211115064 67.070514195 66.57802673 66.06521096 65.925568411 
65.830259866 65.785453117 65.573662397 65.616120794 65.63709483 65.647432954 65.696379931 65.88051383 65.919992834 
65.937077432 65.971772656 66.086041525 66.464173919 66.511063808 66.530010913 66.892057692 66.906971731 67.012250819 
67.093513608 67.153309839 67.375199261 67.463564491 67.470541638 67.66141931 67.769095433 67.886403584 68.016696942 
68.049881822 68.24493977 68.311382403 68.415494205 68.461021811 68.515174927 68.679029917 68.947573689 69.103158008 
69.171540601 69.372213907 69.374940445 69.572749367 69.655289428 69.760098824 70.110232601 70.130985886 70.250654076 
70.462679663 70.558665026 70.636966188 70.659976214 71.00531851 71.064609431 71.074852509 71.246799339 71.461983107 
71.841398696 71.871430518 71.878156724 72.310431677 72.348027139 72.720314664 72.938478693 73.310033882 73.381697923 
73.78146115 73.926563935 74.354787805 74.361205211 75.055672143 75.91446363 75.947828684 76.734581614 77.477325309 
77.931674475 78.19054373 78.540246095 79.514154882 80.152283726 81.407505225 81.892375673 82.149123413 82.509315156 
82.638941759 82.713793092 82.725009064 82.711907369 82.70946042 82.902469241 83.387869511 83.719735047 83.338539941 
83.503247482 83.468113097 83.219757102 83.015273577 79.872100315 78.705671574 77.778022692 75.345077027 70.592653501 
70.561947989 
EdgeArray 2 217 int
7932 7932 7440 8162 8370 7440 8370 8375 8375 
8375 8381 8381 8382 8382 8333 8382 8333 8333 
8581 8581 8584 8584 8383 8385 8385 8385 8387 
8387 8980 8980 8982 8982 8814 8814 8648 8813 
8648 8648 7077 7077 8414 8414 8354 6819 8357 
8354 8828 8357 8828 8828 8935 8935 7955 7955 
8948 9148 9148 9148 9150 9150 8788 8788 8518 
9001 9001 8783 8783 8783 9448 9448 9452 9452 
9453 9453 8950 9449 8950 8950 9015 9015 9432 
7597 7506 9325 9325 9325 9819 9819 9903 9902 
9903 9903 10171 9630 10428 10171 10428 10428 11037 
11037 11036 11036 9908 9908 9885 9524 10879 10879 
11062 11062 11895 11895 10727 10727 12418 12418 12619 
12619 11458 11458 12416 12416 12272 12272 12844 12844 
12837 12837 12587 12587 13354 13354 13046 13046 13158 
13158 14478 14478 15122 15122 14753 14869 15460 15460 
15317 15317 15134 15134 16162 16162 16786 16786 16542 
16786 16542 16542 16820 16820 16406 16406 17674 17674 
17676 17335 17723 17723 16600 16789 18488 18488 19114 
19114 19122 19122 19123 19123 17635 17635 18817 18817 
21376 21376 16330 16330 22238 22238 22234 22234 22547 
22547 23405 23405 23407 23406 23402 23402 23111 23111 
23112 23112 22122 22122 24114 24114 22072 22072 23868 
23868 23479 23479 24612 24612 23059 23059 24624 24624 
22766 22766 24223 24223 24640 24640 22604 22604 24098 
24098 18977 18977 23062 23062 25506 25506 25051 25051 
25507 25507 25079 25556 23683 23683 26046 26046 25081 
25081 24078 23653 24815 26104 26104 26104 24751 24751 
26426 26426 26503 26503 24910 24910 26683 26683 24170 
26196 27153 26196 27153 27153 28629 28629 28631 28631 
28632 28632 28626 28626 27855 27855 26418 26248 26418 
26418 27828 27828 27802 27802 25519 25519 27197 27197 
26213 28760 28760 28760 28436 28436 27661 27661 29617 
29617 29619 29619 27391 27391 23788 23788 28382 28382 
26291 26291 28034 29144 29144 28933 28933 28933 27266 
28945 28945 28945 29494 29494 29493 28944 28944 28944 
28995 28995 26993 26993 25989 21306 21306 27797 28997 
22843 25247 26211 29426 25247 29426 29426 28566 28566 
29871 18976 29317 28036 28036 18745 28749 29560 28219 
29978 20682 20682 28695 28695 28433 28433 30156 30156 
29865 29865 20460 20460 29758 29758 17721 30789 30577 
30577 30975 30975 30966 18035 30350 30350 28797 30424 
31677 29968 31393 31393 32246 32246 31497 31497 32547 
32911 33114 33114 33174 33174 33933 33922 33921 33925 
33175 33295 33930 33929 33666 33651 33970 33970 34186 
34186 33649 33649 31680 31680 19142 19142 35139 35139 
35819 35819 35910 34088 36834 36834 40429 36987 38554 
39132 39132 39708 42526 41999 41573 41573 41806 41806 
41800 41800 
EdgePCoordArray 1 217 double
0 0.912 0.036 0.04 0 0 0 0.988 0 
0 0 0.304 0 0 0 0 0 0.984 
0 0 0 0.904 0.916 0.976 0 0 0 
0.164 0 0 0 0.816 0.004 0 0 0 
0 0.96 0 0 0.928 0.724 0 0 0.676 
0 0.896 0.992 0 0 0 0 0.1 0 
0 0 0 0 0 0 0 0 0 
0 0 0 0 0 0 0 0.636 0 
0 0 0 0 0.996 0 0 0 0 
0.292 0 0.376 0 0 0 0 0 0 
0 0 0 0 0 0 0.844 0 0 
0 0 0 0 0 0 0 0 0 
0 0 0 0 0 0 0 0 0 
0 0.056 0 0 0 0.58 0.076 0 0 
0 0 0 0 0.616 0.992 0 0 0 
0 0 0 0.296 0 0 0 0 0 
0.04 0 0 0 0 0 0 0 0 
0 0.964 0.004 0 0.084 0 0 0.004 0 
0 0 0.104 0.832 0.104 0.112 0.84 0 0 
0.068 0.984 0.032 0.6 0.388 0 0 0 0 
0 0 0 0.996 0 0 0.172 0 0.82 
0.032 0 0 0 0.072 0 0 0.96 0.824 
0.784 0.776 0.756 0 0 0 0 0 0 
0 0.94 0 0.244 0.644 0.52 0.472 0 0 
0 
CurvatureArray 1 217 double
0 5.8533658126e-05 0.00022236094904 0.00039044277686 0.00055016073691 0.00070559227329 0.00084831526547 0.0009820698898 0.0011092006294 
0.0012272702196 0.0013359945084 0.0014443995205 0.0015475138554 0.0016496430986 0.0017586588096 0.0018750765348 0.0019955966942 0.0021275894157 
0.0022681478478 0.0024183315689 0.002579475182 0.0027435000454 0.0029118305774 0.0030837086821 0.003257655167 0.0034215212642 0.0035798416032 
0.0037250763013 0.0038569980609 0.0039652795897 0.0040524179211 0.0041097523764 0.0041390389066 0.0041367290227 0.004102341144 0.0040388507866 
0.0039454307756 0.0038275476462 0.0036864918844 0.0035335913732 0.0033681706424 0.0031980513119 0.0030303387051 0.0028669135266 0.0027129119563 
0.002569672879 0.0024413147491 0.0023277377339 0.0022301744142 0.0021455626825 0.0020773149921 0.0020217472826 0.0019783649996 0.0019464226704 
0.0019246314904 0.0019120862764 0.0019077298037 0.0019116737874 0.001922299851 0.0019389096803 0.0019629142566 0.00199255633 0.0020274449651 
0.0020682155443 0.0021138314169 0.0021639418167 0.0022188415064 0.0022773590811 0.0023388867836 0.0024035259676 0.0024699238014 0.0025373407835 
0.0026047314268 0.0026706422434 0.0027350689616 0.002794565556 0.0028501317937 0.0028993465945 0.0029392259502 0.0029702800973 0.002988502832 
0.0029942438168 0.0029843109721 0.0029576963651 0.0029138437751 0.0028495253262 0.0027664157555 0.0026629913131 0.0025409432291 0.0024000355569 
0.0022431769842 0.0020727485718 0.0018928961041 0.0017063720546 0.0015196462889 0.0013378861393 0.0011671200402 0.0010150588565 0.00088971746729 
0.00079881715255 0.0007468464751 0.00073413846368 0.0007526907634 0.00079262073976 0.00084466304897 0.00090052691954 0.00095694062403 0.0010102461644 
0.0010602003332 0.0011066981817 0.0011501415889 0.001191173 0.0012304202097 0.0012707864655 0.001312745607 0.001356923781 0.001406684132 
0.0014625688775 0.0015257944639 0.0015999259213 0.0016858494937 0.0017849915485 0.0019005390561 0.0020346462598 0.0021885054226 0.002363548643 
0.0025659137708 0.0027906598129 0.0030430128819 0.0033211004562 0.0036211597101 0.0039430384921 0.0042794086257 0.0046242620365 0.0049661445055 
0.0052916459793 0.0055936476476 0.0058570978485 0.0060724925594 0.0062234205927 0.0063107554097 0.006330261279 0.0062766332553 0.0061616546408 
0.0059904765258 0.005768569741 0.0055127321781 0.0052331028182 0.0049336796815 0.0046323078717 0.004328117521 0.0040379229463 0.0037553628771 
0.003488829814 0.0032419351308 0.0030109347723 0.0027977756266 0.0026032428739 0.0024259435135 0.0022641128359 0.0021210331771 0.0019931766061 
0.0018811876388 0.0017851899404 0.0017067365747 0.0016439036035 0.0015965200342 0.0015649169028 0.0015489564717 0.0015472589726 0.0015606786515 
0.0015889507186 0.0016323863 0.0016919424804 0.0017678843751 0.0018607539218 0.0019712721015 0.0020994417558 0.002246006952 0.0024105672138 
0.0025939726447 0.0027958870394 0.0030160892957 0.0032529867922 0.0035074882636 0.0037775795412 0.0040598936659 0.0043524294589 0.0046521132325 
0.004951718922 0.0052481775432 0.0055328084818 0.0057989688719 0.0060383137764 0.0062438209322 0.0064065430728 0.0065210482454 0.0065806867269 
0.0065823210135 0.006523508474 0.0064054237574 0.0062298174608 0.0059995560761 0.0057219176549 0.0054029465759 0.0050485056128 0.0046663837549 
0.0042628597272 0.0038435977738 0.0034144879771 0.0029772095382 0.002536968993 0.0020935880766 0.001648281302 0.0012025861322 0.00075426655959 
0 
TorsionArray 1 217 double
0 0 0.0057104958807 0.0089281610629 0.017273172614 0.030492020047 0.036561422882 0.040611453276 0.052672159749 
0.059543228564 0.063088699008 0.07002431185 0.073860169722 0.075826102622 0.07537402455 0.072532959377 0.069769484755 0.064213911566 
0.057318922553 0.050290310247 0.042248495563 0.03576819624 0.028834246364 0.0217321038 0.015849901736 0.01059478724 0.0057107762163 
0.0018280917407 -0.0022118502403 -0.0058141733261 -0.0085247423285 -0.011104994495 -0.013451038236 -0.01579338832 -0.017710732431 -0.019995924744 
-0.021889710187 -0.023706672274 -0.025682262221 -0.027420197342 -0.029322948521 -0.031101089065 -0.032583282158 -0.033708482728 -0.034870461993 
-0.035659289016 -0.035969358737 -0.036011654279 -0.035776461814 -0.035155298277 -0.034182801583 -0.033285755418 -0.032310619345 -0.031218765687 
-0.030105570433 -0.029141443332 -0.028188580718 -0.027207309076 -0.026537521506 -0.02574871419 -0.024856103901 -0.023938134715 -0.023041896296 
-0.022229792384 -0.021182472535 -0.02006591414 -0.018828887752 -0.017725662751 -0.016514853849 -0.015145162892 -0.013830997059 -0.012543666672 
-0.011288856712 -0.0099666341688 -0.0087781639636 -0.0075848724597 -0.0063553437371 -0.0054462382928 -0.004463774571 -0.0036368880458 -0.0030378103835 
-0.0023983191408 -0.0021380205054 -0.0019440457008 -0.0019850863923 -0.00235009962 -0.0029400115406 -0.0038564628097 -0.0052057227538 -0.0070770772555 
-0.0093550360402 -0.012468755797 -0.016490746295 -0.021691135081 -0.028393824033 -0.037213231851 -0.048419961402 -0.061860537441 -0.076523633334 
-0.088678726 -0.092999228289 -0.086777963476 -0.073624130621 -0.058487647679 -0.044775199446 -0.033913105948 -0.025570884076 -0.019260441491 
-0.014553814223 -0.010897452699 -0.0081228209889 -0.005972513652 -0.0042588294839 -0.0029739684726 -0.001988555021 -0.0012603236064 -0.00084753527186 
-0.00066827443955 -0.0006861789335 -0.00092884611634 -0.0014388660064 -0.0021284921021 -0.00295270258 -0.0039472000368 -0.0050529080911 -0.0061207992354 
-0.0072192181325 -0.0082928755318 -0.0091907370587 -0.010012387217 -0.0106289328 -0.011021762318 -0.011202941512 -0.011183032672 -0.011052536432 
-0.010648398232 -0.010003082872 -0.009202379296 -0.0083806373096 -0.007413882024 -0.0061862935925 -0.0050753572271 -0.0039074476627 -0.0025690972078 
-0.0014361220021 -0.00035863615284 0.00078842660515 0.0015169812842 0.0020396489967 0.002252019848 0.0021218209777 0.0015629044791 0.00015070422264 
-0.0015676073749 -0.004034204136 -0.0074212540477 -0.011424853506 -0.016113207531 -0.021630712181 -0.027547206387 -0.033719194594 -0.040385033762 
-0.046907825826 -0.05264530874 -0.05758301316 -0.061938208637 -0.064966614997 -0.066195854307 -0.0665912443 -0.065951622179 -0.063869341307 
-0.060891899929 -0.057159765299 -0.05293553373 -0.047987027555 -0.042800862451 -0.037525205276 -0.032401094314 -0.027543953018 -0.023116691684 
-0.019192294023 -0.015727109895 -0.012695320777 -0.010209300065 -0.0082431488072 -0.0065189837517 -0.0051424660878 -0.0041566518497 -0.003310716967 
-0.0026836625528 -0.0022475591541 -0.0019010749735 -0.0016564258909 -0.0015129969405 -0.001404956849 -0.0013342904306 -0.0013215057424 -0.0013023973055 
-0.0013014127104 -0.0013121641505 -0.0013112472667 -0.0013299266981 -0.0013228917191 -0.0012966475887 -0.0012935803064 -0.0012594510507 -0.0012152437854 
-0.0011717021006 -0.0010930759447 -0.0010167578134 -0.00093973254999 -0.00083728565333 -0.00075369176078 -0.00062332885293 -0.00049445219866 0 
0 
TangentArray 3 217 double
0.062254569998 -0.013248597311 -0.99797236594 0.062254569998 -0.013248597311 -0.99797236594 0.062160165003 -0.013220015029 -0.99797862958 
0.061953648881 -0.013158578541 -0.99799228314 0.061635473305 -0.013065826789 -0.99801320262 0.06120800398 -0.012946566566 -0.99804106462 
0.06067404816 -0.012809575873 -0.99807543535 0.060038144632 -0.01266394736 -0.99811574761 0.059303172327 -0.012517828756 -0.99816152887 
0.058471513578 -0.012384835986 -0.99821225095 0.057547536442 -0.0122777753 -0.99826726746 0.056533766377 -0.01220731182 -0.99832605636 
0.055432094402 -0.012187540536 -0.99838807423 0.054245962312 -0.012231206383 -0.9984526895 0.052975604375 -0.012350144783 -0.99851943359 
0.051618925738 -0.012555310048 -0.99858792837 0.050175383011 -0.01285568353 -0.99865768026 0.048643269587 -0.013260849735 -0.99872818233 
0.047018656981 -0.013777904089 -0.99879898641 0.045297275714 -0.014411667698 -0.99886959141 0.043472988931 -0.015166420712 -0.9989394771 
0.041540236468 -0.016043023207 -0.99900802307 0.039495301788 -0.017041952093 -0.99907441815 0.037332164873 -0.018161735794 -0.99913785877 
0.035043547755 -0.01939825978 -0.99919750664 0.032626295015 -0.020745215212 -0.99925230093 0.030078781756 -0.022194096578 -0.99930110025 
0.027399319053 -0.023734827602 -0.99934275165 0.024588873078 -0.025356322976 -0.99937602743 0.021650910398 -0.027043524472 -0.99939976279 
0.01859160025 -0.028779362952 -0.99941287798 0.015420313871 -0.030546724929 -0.99941438429 0.012149344477 -0.032326599136 -0.99940351431 
0.0087925057985 -0.034099577379 -0.99937976299 0.0053662550818 -0.035844922818 -0.99934295655 0.0018881000374 -0.037543436156 -0.99929321297 
-0.0016240365349 -0.039174894473 -0.99923104943 -0.0051512027349 -0.040721387791 -0.99915726174 -0.0086748191414 -0.042166574269 -0.99907293404 
-0.012179490182 -0.043496430484 -0.9989793394 -0.015651857796 -0.044699780025 -0.99887784489 -0.019079642058 -0.045766638526 -0.9987699345 
-0.022455705457 -0.046690213073 -0.9986569808 -0.025775449562 -0.047466409267 -0.99854021761 -0.029036520118 -0.048093375114 -0.9984207068 
-0.032239447943 -0.048569642149 -0.99829935784 -0.035387423787 -0.048895278849 -0.998176829 -0.038486051571 -0.049071454521 -0.99805351369 
-0.041542157888 -0.049099188698 -0.99792961615 -0.044562004017 -0.04897901007 -0.99780523369 -0.047553082594 -0.048711618129 -0.99768025068 
-0.050523640883 -0.048297209065 -0.99755438013 -0.053479854051 -0.047734383877 -0.99742735766 -0.056427712292 -0.047020661164 -0.99729883721 
-0.059372316058 -0.046152972114 -0.99716840667 -0.062317620173 -0.045127480618 -0.99703561858 -0.065265998021 -0.043939089192 -0.99690004812 
-0.068219223726 -0.042582000218 -0.99676121051 -0.071177857635 -0.041050283912 -0.99661857637 -0.074139682325 -0.039336778064 -0.99647173838 
-0.077103135861 -0.037434284672 -0.99632011963 -0.080066309814 -0.035335911157 -0.99616301849 -0.083025660418 -0.03303591464 -0.99599968276 
-0.085977603539 -0.03052835744 -0.99582923791 -0.088917750152 -0.027807161807 -0.9956507397 -0.091841986691 -0.024868689299 -0.99546300673 
-0.094746938911 -0.021710107791 -0.99526463254 -0.097629969542 -0.018330302587 -0.99505396289 -0.1004872989 -0.014729206916 -0.99482930859 
-0.10331657833 -0.010908268869 -0.99458870611 -0.1061171961 -0.0068713685533 -0.9943298874 -0.10888848156 -0.002624268052 -0.99405050767 
-0.1116302489 0.0018254367526 -0.99374813475 -0.11434247744 0.0064677989027 -0.99342033673 -0.11702694273 0.011290897377 -0.99306455496 
-0.11968433552 0.016280324766 -0.99267850327 -0.12231611173 0.021419355584 -0.99226003649 -0.12492530464 0.026689876344 -0.99180709756 
-0.12751077939 0.032070821166 -0.99131854798 -0.13007261518 0.037538803394 -0.99079359759 -0.132609095 0.043068592883 -0.99023225772 
-0.13511552831 0.04863336381 -0.98963558441 -0.13758753297 0.05420418802 -0.98900534719 -0.14001551651 0.059750875778 -0.98834482241 
-0.14238927723 0.065242773889 -0.98765817679 -0.14469507629 0.070647391533 -0.98695100231 -0.14691578032 0.075932531703 -0.98623019834 
-0.1490327377 0.081066994666 -0.98550362022 -0.15102522478 0.086020381812 -0.98478011525 -0.15287027698 0.090763997349 -0.98406939552 
-0.15454359828 0.095271208668 -0.98338175346 -0.15602259038 0.099518398081 -0.98272734761 -0.15728454894 0.10348627149 -0.98211616537 
-0.15830844772 0.10715871482 -0.98155766271 -0.15907621532 0.11052395408 -0.98106024957 -0.15957389284 0.11357577535 -0.98063077454 
-0.15979042822 0.11631172198 -0.98027475862 -0.15971974859 0.11873382516 -0.97999585748 -0.15936075669 0.12084874417 -0.97979575946 
-0.1587158235 0.1226671282 -0.97967446789 -0.15779128424 0.12420185555 -0.97963044547 -0.15659758423 0.12546946488 -0.97966045648 
-0.15514875859 0.1264889208 -0.97975987651 -0.15346066804 0.12727975667 -0.97992330664 -0.15155005198 0.12786285251 -0.98014472028 
-0.14943535755 0.12825968804 -0.98041752654 -0.14713505591 0.1284912536 -0.98073506773 -0.14466712805 0.12857812931 -0.98109076376 
-0.14204916033 0.12854029781 -0.98147818513 -0.13929629254 0.12839606777 -0.98189153814 -0.13642194482 0.12816279828 -0.98232548074 
-0.13343785536 0.12785587642 -0.98277526099 -0.13035433846 0.12748894835 -0.98323665234 -0.12717768675 0.12707393006 -0.98370628355 
-0.12391070009 0.12662014499 -0.9841816282 -0.1205556561 0.12613521022 -0.98466047068 -0.11711082214 0.12562454846 -0.98514137471 
-0.11357084523 0.12509057512 -0.98562366608 -0.10992956619 0.12453359626 -0.98610692822 -0.10617653673 0.12395148131 -0.98659139127 
-0.10229779143 0.12333931392 -0.98707779608 -0.098278907136 0.12268926745 -0.98756701042 -0.094102617435 0.1219907158 -0.98806020194 
-0.089748403315 0.12123039211 -0.98855875705 -0.08519536196 0.12039209507 -0.98906394826 -0.080423316855 0.1194571504 -0.98957671725 
-0.075407852205 0.11840465524 -0.99009797164 -0.070127033443 0.11721191348 -0.9906278648 -0.064562634743 0.11585507033 -0.99116561122 
-0.058695937907 0.1143100713 -0.99170963214 -0.052515944271 0.11255379839 -0.99225688109 -0.046016163624 0.11056533393 -0.99280301149 
-0.039195830446 0.10832741288 -0.99334226654 -0.03206311463 0.10582814448 -0.99386737572 -0.024635971543 0.103062439 -0.99436975144 
-0.016945967106 0.10003327972 -0.99483977461 -0.009032058506 0.096752732903 -0.99526746686 -0.00094013857795 0.093242232826 -0.99564300939 
0.0072755249369 0.089532313546 -0.99595734425 0.015551138596 0.085661527872 -0.99620292347 0.023820390743 0.08167486329 -0.9963743301 
0.032022090934 0.077621367889 -0.99646851879 0.040091908203 0.073551643336 -0.99648522049 0.04797177533 0.06951498895 -0.99642680368 
0.05561513736 0.06555724146 -0.99629774896 0.062979108831 0.0617186471 -0.99610463328 0.070031481958 0.058031974444 -0.99585535168 
0.076753546258 0.054522053709 -0.99555825485 0.083129466024 0.051205255444 -0.99522234385 0.089152736656 0.048089591714 -0.99485636185 
0.09482316725 0.045175358177 -0.99446857867 0.10014730622 0.042455952606 -0.99406640077 0.10513526825 0.039919042463 -0.99365640209 
0.10979519703 0.037547313573 -0.99324479055 0.11414231278 0.03531969884 -0.99283636683 0.11819016697 0.033212742574 -0.9924353874 
0.12194965732 0.031201192382 -0.99204574828 0.12543300661 0.029258899345 -0.99167054895 0.12865122504 0.027359902736 -0.99131241192 
0.13161174749 0.025479169651 -0.99097384417 0.13432223796 0.023593235211 -0.99065680013 0.13678873485 0.021680925363 -0.99036295341 
0.1390129029 0.019723723127 -0.99009413066 0.14099508132 0.017706179161 -0.98985194765 0.14273591284 0.015616386463 -0.98963760421 
0.14423409458 0.013445703854 -0.9894522419 0.14548467812 0.011188714568 -0.98929723597 0.14648216091 0.0088428599537 -0.98917378673 
0.14722203153 0.0064078868332 -0.98908271263 0.1476964728 0.0038851438033 -0.98902510463 0.14789613166 0.00127655549 -0.98900207515 
0.14781187802 -0.00141602777 -0.98901448098 0.14743311622 -0.0041917522124 -0.98906314533 0.14674750382 -0.0070518303162 -0.98914884715 
0.14574000084 -0.01000000609 -0.98927238516 0.144394925 -0.013043153465 -0.98943417254 0.14269421341 -0.016191854677 -0.9896343695 
0.14061758826 -0.019460533981 -0.98987270974 0.13814217943 -0.022867475988 -0.99014838121 0.1352426992 -0.026434760548 -0.99045980017 
0.13189110409 -0.030188006682 -0.99080443121 0.12805630068 -0.034155975061 -0.99117856778 0.12370550983 -0.038369983254 -0.99157687106 
0.11880565139 -0.042862998345 -0.99199192566 0.11332151146 -0.047668898015 -0.99241418329 0.1072156127 -0.05282101699 -0.9928316839 
0.10045440889 -0.058351524985 -0.99322908297 0.093007040302 -0.064289573177 -0.9935877119 0.084843891965 -0.070659118735 -0.99388570919 
0.075944178943 -0.077478272091 -0.99409737905 0.066294822435 -0.084757138718 -0.99419375574 0.055891995132 -0.09249580147 -0.99414315448 
0.044746389652 -0.1006831803 -0.99391179579 0.032883158389 -0.10929603928 -0.99346518494 0.020342797829 -0.11829773217 -0.99276977046 
0.0071841273993 -0.12763871814 -0.99179470958 -0.0065163382718 -0.13725711451 -0.99051401901 -0.020665968767 -0.14707886474 -0.9889088559 
-0.035155518554 -0.15702116102 -0.98696932298 -0.049863128707 -0.16699434507 -0.98469617503 -0.064657664436 -0.17690501899 -0.98210182806 
-0.079402203125 -0.18666008321 -0.97921055115 -0.093956482758 -0.19616673466 -0.97605880538 -0.10818198655 -0.20533887242 -0.9726934796 
-0.12194696599 -0.21409944708 -0.96916993569 -0.13512671318 -0.22237809508 -0.96555101068 -0.14760577362 -0.23011530316 -0.96190409233 
-0.15928094675 -0.23726220016 -0.95829861128 -0.17006059752 -0.24377912583 -0.95480423699 -0.17986542439 -0.24963696567 -0.95148821037 
-0.18862601358 -0.25481282205 -0.94841481047 -0.19628346057 -0.25929025516 -0.94564336126 -0.20278815016 -0.26305836351 -0.94322704771 
-0.20809624494 -0.26610778008 -0.941213367 -0.21217236036 -0.26843361348 -0.93964157244 -0.21498681413 -0.27003089267 -0.93854354548 
-0.21498681413 -0.27003089267 -0.93854354548 
NormalArray 3 217 double
0.95119691423 -0.30201276329 0.063346042957 0.95119691423 -0.30201276329 0.063346042957 0.95618998677 -0.28581169069 0.063343402679 
0.95678345544 -0.28386437228 0.063138241603 0.95907624353 -0.27608555151 0.062845265009 0.96302172731 -0.26208374888 0.062460077675 
0.96967741262 -0.23639793658 0.061981699126 0.97552597753 -0.21114975048 0.061358373719 0.98177604024 -0.18012448303 0.060588591511 
0.98870978137 -0.13747131978 0.059620503654 0.99381716235 -0.094397096491 0.058451997384 0.99730029225 -0.046243231468 0.057041130915 
0.99843474513 0.0081267652442 0.055335480452 0.99657845032 0.063110429957 0.053371021906 0.99137634805 0.12067023033 0.051104129442 
0.98324962192 0.17566024717 0.048617471702 0.9723341402 0.22903952971 0.045904396567 0.95917063055 0.27953939776 0.043004960081 
0.945045959 0.32447982931 0.040012195 0.93057930366 0.36422135377 0.036945433608 0.91660672076 0.39835517462 0.033841901767 
0.90414720884 0.42611276262 0.030752858043 0.89243647446 0.45032819453 0.027598120688 0.88334786182 0.46807738335 0.024497310392 
0.87600524224 0.4818279647 0.021368855877 0.8708800655 0.49115708732 0.018238067046 0.86747531144 0.49725201598 0.015067071678 
0.86620688277 0.4995441825 0.011884694892 0.86605523275 0.49987391454 0.0086257399976 0.8681968868 0.49619069181 0.0053817382069 
0.87120998277 0.49090618168 0.002070436154 0.87569305037 0.4828665715 -0.0012472610614 0.88093126667 0.4732218982 -0.004597659624 
0.88736854528 0.46099273397 -0.0079223780754 0.894494795 0.44693735568 -0.011227724883 0.90235087909 0.43075893372 -0.014478675138 
0.91109099301 0.4118282506 -0.017626527246 0.92006591555 0.39121698179 -0.020687778869 0.92969304129 0.3675792885 -0.023586344456 
0.9394158318 0.34176660099 -0.026334111291 0.9493612113 0.31285691531 -0.028876305663 0.95914542654 0.28118702181 -0.031207523503 
0.96863891556 0.24623208555 -0.033292811607 0.97732562621 0.20880338563 -0.03515347076 0.98500770768 0.16854711966 -0.036765259094 
0.99136683611 0.125454065 -0.038119205676 0.99599578807 0.080325797079 -0.039244827321 0.99863622629 0.033372404792 -0.040149347906 
0.99905472652 -0.014839303466 -0.040858885003 0.99708484769 -0.064103327605 -0.04138320793 0.99269865453 -0.11314982997 -0.041791114711 
0.98586937347 -0.16214414725 -0.042081515795 0.97664279037 -0.21066792573 -0.042283390292 0.96507106691 -0.25853202056 -0.04241497572 
0.95134272296 -0.30518715369 -0.042518521797 0.93551267529 -0.3507155828 -0.042598290481 0.91764235193 -0.39511067157 -0.042662291938 
0.8979436948 -0.43802983194 -0.042743271869 0.87653264483 -0.4794309862 -0.042853844709 0.85310639173 -0.51996640285 -0.042946761291 
0.82850201368 -0.55832202754 -0.043138461984 0.80235850895 -0.59526423545 -0.043374106464 0.77554166758 -0.6297779111 -0.04375962219 
0.74756397129 -0.66271571364 -0.044226595162 0.71912091216 -0.69343573808 -0.044855220857 0.69056333454 -0.72182803115 -0.04567903703 
0.66223833114 -0.74783462593 -0.046730771742 0.63463593628 -0.77131549044 -0.048058741117 0.6073816007 -0.7928595042 -0.049612475566 
0.58161790419 -0.81182937504 -0.051513875379 0.5571542734 -0.82866865936 -0.053734240715 0.53441515051 -0.84334407759 -0.056313530258 
0.51325204879 -0.85619181178 -0.059227661314 0.49399655908 -0.86721423082 -0.062505019646 0.47682730073 -0.87650383839 -0.066156984236 
0.46130119702 -0.88446815626 -0.070123364051 0.44805636151 -0.89089882074 -0.074463334093 0.43672416121 -0.89610910498 -0.07912318865 
0.42661209977 -0.90052476555 -0.084007517282 0.41874360423 -0.90371173233 -0.08921266039 0.41158811121 -0.90645284624 -0.094543451615 
0.40586341004 -0.90844025342 -0.10005597613 0.40102461785 -0.9099533035 -0.1056609735 0.39622352525 -0.91139164934 -0.11123029966 
0.39208356694 -0.91248425801 -0.11680306258 0.38707603469 -0.91391853669 -0.12216812869 0.38155242298 -0.9155355024 -0.12732828576 
0.37424683209 -0.91787206704 -0.13209911892 0.36519855649 -0.92087609406 -0.13644498423 0.35253943655 -0.92524958163 -0.1401040948 
0.33607409651 -0.93091570294 -0.14300404076 0.31406150709 -0.93828315385 -0.14487958093 0.28454331543 -0.94757029934 -0.14541536868 
0.24515781522 -0.95869868372 -0.14420291074 0.19252593925 -0.97116319082 -0.14062652496 0.12247698416 -0.9834071338 -0.13382749171 
0.028598468836 -0.99207203628 -0.12237320955 -0.093358101286 -0.99010760929 -0.10474343389 -0.24690519407 -0.96581683746 -0.078966205557 
-0.42440591039 -0.9043787917 -0.044481730456 -0.60495539413 -0.79625162212 -0.0035107528746 -0.75734144282 -0.65193781654 0.037563577428 
-0.86534508263 -0.49582882277 0.073018261251 -0.93055958028 -0.35222547846 0.099980397435 -0.96538517842 -0.23210572359 0.11898903463 
-0.98171748443 -0.13747498102 0.13164881453 -0.98811031101 -0.063804265398 0.13988219686 -0.98941948711 -0.0077977113055 0.14487330403 
-0.9884192538 0.035050884448 0.147644215 -0.98655821419 0.067555717032 0.14879218769 -0.98460270449 0.091863174452 0.14872347321 
-0.98286739942 0.11014833621 0.14778030716 -0.98153857898 0.1234021321 0.14612984558 -0.98063236507 0.13282304735 0.14393819043 
-0.98009088665 0.1394484294 0.14133644063 -0.97988145774 0.14380533045 0.13839203632 -0.97990030903 0.14669037326 0.13519363427 
-0.98002100057 0.14893122151 0.13182689297 -0.98018526542 0.15089519551 0.12832570054 -0.98029474822 0.15317132646 0.12474274075 
-0.98026628532 0.15623505985 0.12111406169 -0.97996905936 0.16079386582 0.11749883154 -0.97937769611 0.166885113 0.11388014499 
-0.97839180855 0.17489763991 0.11027368006 -0.97693139369 0.1850044324 0.10666963961 -0.97491973305 0.19726440214 0.10304498901 
-0.97238479256 0.21119712883 0.099315597818 -0.96917439696 0.2271216859 0.095481558822 -0.96536202804 0.24436440196 0.091445031949 
-0.9609412347 0.26267182779 0.087151903751 -0.95591150752 0.28181065975 0.082558717606 -0.95042148532 0.30112979682 0.077587664654 
-0.94452383221 0.3204064722 0.072210961518 -0.93838984118 0.33914223625 0.066385612643 -0.93208854513 0.3572072336 0.060116023753 
-0.92570094142 0.37446483057 0.053421509875 -0.9195044725 0.3903442983 0.046290969372 -0.91355849809 0.40485452523 0.038777364101 
-0.90804621768 0.41772731345 0.030918573051 -0.90285413287 0.42934073748 0.022824239181 -0.89832515376 0.43909130911 0.014516899954 
-0.89448939919 0.44704783465 0.0060785096997 -0.89120454963 0.45359542162 -0.0023757525707 -0.88873250671 0.45829857826 -0.010814096427 
-0.88705684127 0.4612622222 -0.0191656653 -0.88594850888 0.46297775477 -0.027328340807 -0.88560234026 0.46310149686 -0.035291621442 
-0.88591785522 0.4618440138 -0.04300768212 -0.88644729897 0.46008025971 -0.050372023608 -0.88741534961 0.45738107794 -0.05741556255 
-0.88816066821 0.45505240181 -0.064015147095 -0.88897007409 0.45254808439 -0.070231322732 -0.88894945257 0.45167062761 -0.07591123052 
-0.88795233101 0.45273941881 -0.081041202511 -0.88571101156 0.4562779372 -0.085594672822 -0.88140490299 0.46381560241 -0.089445424434 
-0.87447639059 0.47616265249 -0.092521190479 -0.86426379791 0.4940365957 -0.094741383367 -0.84978499173 0.51831803136 -0.095978571577 
-0.82972493259 0.54984470875 -0.096059005251 -0.80336365524 0.58787393532 -0.094926674933 -0.76883200482 0.63274867391 -0.092338854324 
-0.72471966991 0.68338335312 -0.088139620619 -0.66982568815 0.73795328611 -0.082210066333 -0.60427866653 0.79326950561 -0.074637689186 
-0.527083119 0.84729965788 -0.065319793541 -0.43897467572 0.89685036954 -0.05441184373 -0.34184731759 0.93880617762 -0.042229993142 
-0.23923543184 0.97051874596 -0.029321867246 -0.13124879215 0.99122503322 -0.015706306939 -0.023266508762 0.99972690187 -0.0021888930594 
0.083059994993 0.99648398142 0.010986901675 0.18389265359 0.98267139416 0.023247001049 0.27824860471 0.95989156086 0.03443697667 
0.36391743451 0.93038152158 0.044207750045 0.43966138346 0.89663709723 0.052342943742 0.50555852275 0.86078551726 0.058812187133 
0.561529867 0.82501253659 0.063549374085 0.60863503594 0.79064564525 0.066654757294 0.64749476218 0.75901611602 0.068154739916 
0.67950878736 0.7304909898 0.068196200172 0.70555858248 0.70549199205 0.066844115935 0.72667320893 0.68397784968 0.064189941301 
0.74355501232 0.66595246463 0.060276517021 0.75731107533 0.65071555062 0.055219628459 0.7685439432 0.63791354033 0.049056319004 
0.7774662754 0.62753635389 0.041764999239 0.78483327933 0.61880480097 0.033426665315 0.79101441623 0.61132405874 0.024064258294 
0.79603287522 0.60509938707 0.013652594255 0.80039687986 0.59946617807 0.0022662896482 0.80411806045 0.59438394048 -0.010093371553 
0.80736471078 0.58958945073 -0.023377411487 0.81019970828 0.58495082551 -0.03753617503 0.81278131652 0.58020015196 -0.052481569976 
0.81500035604 0.5754386763 -0.068152398847 0.81700636281 0.57041577224 -0.084418303217 0.81877704717 0.56512877775 -0.10116131467 
0.82027457555 0.55961304741 -0.11824913477 0.82156642516 0.55377237774 -0.13551665105 0.82261277995 0.54768326386 -0.15281118006 
0.82342741133 0.54136722717 -0.1699671251 0.8240907481 0.53476942722 -0.18680497476 0.82447937187 0.52815380927 -0.20319281266 
0.82472763269 0.52142205552 -0.21895974951 0.82485092237 0.51466421215 -0.23396945227 0.82481347791 0.50805856517 -0.24811130772 
0.82472205301 0.50157329251 -0.26126187536 0.82456059949 0.49536438874 -0.27333850834 0.82431924986 0.48957754434 -0.28427381589 
0.82412741717 0.4841373392 -0.29398135496 0.8239146067 0.4792710036 -0.30243020016 0.82376493029 0.4749534179 -0.3095651635 
0.82372954144 0.47119912492 -0.31534271392 0.82357244081 0.46846610386 -0.31979359637 0.82380885805 0.46599685306 -0.32277840439 
0.82380885805 0.46599685306 -0.32277840439 
BinormalArray 3 217 double
-0.30223963814 -0.95321181564 -0.0061996498326 -0.30223963814 -0.95321181564 -0.0061996498326 -0.28607136013 -0.95819460897 -0.005125255857 
-0.2841252625 -0.95877414961 -0.0049965234047 -0.27635815081 -0.96104425102 -0.0044855395644 -0.26237898731 -0.96495828666 -0.0035737982475 
-0.23673693274 -0.97157188635 -0.0019220634 -0.21152893028 -0.9773716833 -0.00032302963065 -0.18055176698 -0.98356416902 0.0016077510914 
-0.13796394572 -0.99042831748 0.0042068523388 -0.09495119206 -0.99545891146 0.0067695434586 -0.046862141777 -0.99885561774 0.0095600516015 
0.0074392620907 -0.99989270401 0.012618947547 0.062359986542 -0.99793159646 0.015612842708 0.11986042664 -0.99261582167 0.018636219814 
0.17480179489 -0.98437078469 0.021412397112 0.22814195303 -0.97333222757 0.023992166119 0.2786135923 -0.96004264226 0.026317127887 
0.32353884044 -0.94579226563 0.028277358374 0.36327718951 -0.93120089631 0.029909434774 0.39741944931 -0.91710584697 0.031219333251 
0.42519669977 -0.90452779667 0.032206079575 0.44944105308 -0.89270044756 0.03299470759 0.46722892085 -0.88350082884 0.033517472529 
0.48102678234 -0.87605109437 0.033877938548 0.49041149699 -0.87082394985 0.034091230412 0.49657008663 -0.86732223232 0.034209565707 
0.49893377673 -0.86596320227 0.034246441467 0.49934328988 -0.86572693527 0.034251312436 0.49574731852 -0.86779228226 0.034222083964 
0.49055837401 -0.87073696893 0.034199599792 0.48262189699 -0.8751609976 0.034195508822 0.47308825481 -0.88034994522 0.034226847779 
0.46097695896 -0.88674850891 0.03431217366 0.44704615536 -0.89384682223 0.034461476744 0.43099805811 -0.901685772 0.034690668578 
0.41220209238 -0.9104190352 0.035023069381 0.39172972334 -0.91939710775 0.035451122954 0.3682330736 -0.92903576179 0.036013286825 
0.34256321313 -0.93877774312 0.036698692462 0.31379660583 -0.94874784859 0.037539445361 0.2822694068 -0.95856104321 0.038531914303 
0.2474558396 -0.96808562847 0.039696642172 0.21016718715 -0.97680503999 0.041008137026 0.17004909973 -0.98451962689 0.042478323345 
0.12709214871 -0.99090981801 0.04410576267 0.08209823619 -0.99556869076 0.045856968768 0.035277632763 -0.99823758442 0.04772016007 
-0.012802442307 -0.998683666 0.049669233225 -0.061935727223 -0.99674059813 0.051692801538 -0.11085163791 -0.99238313883 0.053736580987 
-0.15971518454 -0.98558442313 0.055806851908 -0.20810758092 -0.97639154731 0.057885931788 -0.25583930329 -0.9648576329 0.05996665011 
-0.30236063163 -0.95117333036 0.062026962309 -0.34775357452 -0.93539408298 0.0640730906 -0.39201130525 -0.91758210186 0.066107661456 
-0.43479105151 -0.89795135703 0.068118293712 -0.47605066445 -0.8766189615 0.070106784411 -0.51644243813 -0.85328046843 0.072108600723 
-0.5546526118 -0.82877933607 0.074062759374 -0.59144755402 -0.80275267883 0.076012679685 -0.62581296052 -0.77607242641 0.077908455316 
-0.65860151877 -0.74824855648 0.079800609011 -0.68917250917 -0.71998169345 0.081655457269 -0.71741712446 -0.69162550686 0.083467525438 
-0.74327882409 -0.66352998687 0.085232307171 -0.76661960413 -0.63618897681 0.086936576583 -0.78802911995 -0.60922644154 0.088618559258 
-0.80687440049 -0.58379283611 0.090219877698 -0.82360078698 -0.5596972729 0.091764406978 -0.83817882667 -0.53736754648 0.093232904647 
-0.85094713229 -0.51665486471 0.094639995903 -0.8619125231 -0.49789320686 0.095964353224 -0.87117186591 -0.4812624408 0.097190756383 
-0.87913415669 -0.46631645004 0.098346850272 -0.88559825301 -0.45369648711 0.099374201166 -0.89087915863 -0.44303061121 0.10029058907 
-0.89540109307 -0.43362035129 0.10114481436 -0.89874073497 -0.42649260614 0.10182901456 -0.90167070188 -0.42010514617 0.10247737081 
-0.90389085978 -0.41517598906 0.1030058819 -0.90567595013 -0.41115312409 0.10346101636 -0.90741532562 -0.40717943755 0.10393426989 
-0.90884309442 -0.40387604453 0.10434735447 -0.91062367544 -0.3997022071 0.10489360021 -0.91259711922 -0.39500505626 0.10553437129 
-0.91527512353 -0.38850870123 0.10645392107 -0.91859751568 -0.38024691096 0.10766099983 -0.92322620419 -0.368341022 0.10944527133 
-0.92906968408 -0.35258949335 0.11184887705 -0.93649469889 -0.33124131936 0.11513847009 -0.94567260313 -0.3023261805 0.11959184033 
-0.95647063782 -0.26346507105 0.12549930405 -0.96831220194 -0.21124988137 0.13321023679 -0.97955886044 -0.14146007366 0.14301568615 
-0.98673661462 -0.047588424691 0.15519727834 -0.98273794413 0.074760957595 0.16922450291 -0.95584620854 0.22933254787 0.18375148467 
-0.89145325766 0.40871967995 0.1955998789 -0.7804683733 0.59207875604 0.20077814851 -0.63396461699 0.74781982907 0.1971151127 
-0.4765571851 0.85915908389 0.18638379195 -0.33242847488 0.92722007952 0.17249415417 -0.21228292213 0.96424998005 0.15861253716 
-0.11789764497 0.98216601551 0.14645840124 -0.044601441715 0.98965600764 0.13635137671 0.010977275879 0.99166872511 0.12834577925 
0.053379909822 0.99108467213 0.12207275654 0.085436718721 0.98941936249 0.11725993441 0.1093003535 0.98748947048 0.11365728488 
0.12714564055 0.98565725224 0.110967415 0.13996343959 0.98413336588 0.1090493179 0.14894965782 0.98295994547 0.10772068067 
0.1551386229 0.98210054191 0.10682009766 0.15905553296 0.98153448013 0.1062610077 0.16149439523 0.98117297518 0.10592050365 
0.16328043839 0.98090358307 0.10567714588 0.16477965871 0.98067426976 0.10547815273 0.16657955958 0.98039511169 0.10524578519 
0.16915428382 0.97998878551 0.10492286952 0.17321056293 0.97933277101 0.10442904061 0.17878485885 0.97840054391 0.10377066024 
0.18626511499 0.97709467688 0.10291403867 0.19582339574 0.97533537998 0.10185329765 0.20751772025 0.97304508881 0.10059647566 
0.22086527799 0.97024538669 0.099208964248 0.23618464697 0.96678700195 0.097671415498 0.25279996244 0.96273757678 0.096065276021 
0.27045652205 0.9580901411 0.094427491764 0.28892086356 0.95284542006 0.092791918193 0.30754107519 0.94715159948 0.091226830896 
0.32609571795 0.94106581289 0.089759225391 0.34408787054 0.93476357836 0.088434099296 0.36139177212 0.92832167158 0.087263171585 
0.37787643648 0.92182939507 0.086255232506 0.39297575877 0.91557098985 0.085438958091 0.40670626588 0.90961458839 0.084801614821 
0.4188067971 0.90415035057 0.084338664161 0.42966565705 0.89907098373 0.084016601781 0.43868497479 0.89472232506 0.083829910678 
0.44594091586 0.89113588009 0.08374689714 0.45182639322 0.8881674106 0.083735065179 0.45590924567 0.88607566239 0.083765626814 
0.45829806551 0.88483863527 0.083806161378 0.45948761841 0.88421852909 0.083837469772 0.45913406154 0.88440335456 0.083824936499 
0.45744775324 0.885283826 0.083750226761 0.45530284209 0.88639955801 0.0836369867 0.45226738422 0.88796956069 0.083452216636 
0.44964340805 0.88931799635 0.083272486308 0.44688110771 0.89072875973 0.083063542921 0.44577510713 0.89129126227 0.082972523541 
0.44663818977 0.89085196183 0.083048838303 0.44998615137 0.8891360767 0.083363665211 0.4573362892 0.885308986 0.08409231764 
0.46948836342 0.87880351272 0.085352578395 0.48714951346 0.86894865148 0.087255903046 0.51118913342 0.85475017057 0.089932284414 
0.54243422104 0.8348781996 0.09350672529 0.58014168427 0.80860843146 0.097918490308 0.62464885366 0.77405365004 0.1032218799 
0.67487540544 0.72979323608 0.10929327382 0.72900887137 0.67461947699 0.11590783723 0.78388376202 0.60867037052 0.1226646962 
0.83748427545 0.53094491504 0.12929650251 0.88664279308 0.44219252292 0.13538954969 0.92826902781 0.34433234627 0.14054126553 
0.9597354227 0.24094045474 0.14441473499 0.98028542093 0.13212811652 0.14691036159 0.98872918628 0.023334354263 0.14788544249 
0.98552152993 -0.083771532408 0.14740978397 0.97182661427 -0.18530882417 0.1456491383 0.9492327871 -0.28028282693 0.14282385244 
0.91995866919 -0.36645630597 0.1392329803 0.88648066732 -0.44257405258 0.1352044173 0.85091065426 -0.50871024869 0.13101504243 
0.81542069041 -0.56477925076 0.12693894423 0.78133227969 -0.61184682902 0.12313945966 0.74997329637 -0.65053496374 0.11976775726 
0.72171500231 -0.6822547897 0.11685827899 0.69698541631 -0.70789435548 0.11444173601 0.67575364909 -0.72849299621 0.11249426746 
0.65803583553 -0.74476175938 0.11098991361 0.64314708289 -0.75782382408 0.10984025414 0.63074956977 -0.76829438058 0.10898956376 
0.62085030591 -0.77639759407 0.10840513628 0.61268786026 -0.78290961744 0.10800979961 0.60588588638 -0.78821962938 0.10775949395 
0.60046993534 -0.79237102996 0.10762902783 0.59579344678 -0.79589982334 0.10758085321 0.59183632005 -0.79884432652 0.10759884879 
0.5883536219 -0.80140325479 0.10767004604 0.58523083531 -0.80367089504 0.10778664979 0.58221362239 -0.80583709906 0.10795308088 
0.57941591966 -0.80782342591 0.10815962549 0.57659183178 -0.8098063542 0.10842291377 0.57373954436 -0.81178646952 0.1087458649 
0.57088852696 -0.81374295214 0.10912697934 0.56792805658 -0.81575060059 0.10958412376 0.56491379934 -0.81776992898 0.11011240877 
0.5618385786 -0.81980457347 0.11071527858 0.55861133021 -0.82191256951 0.11141413665 0.55545514954 -0.82394751121 0.11216093626 
0.55222574132 -0.82600270386 0.11298789248 0.5489642313 -0.82805116482 0.11388389346 0.54579782177 -0.83001412133 0.11480982597 
0.54264455703 -0.83194403695 0.11578429992 0.53961023984 -0.8337780641 0.11676869819 0.53679251432 -0.83546107836 0.1177224835 
0.53407324149 -0.83706717921 0.11867733657 0.53163664656 -0.83849142434 0.11956005747 0.52942261548 -0.83977351007 0.12038332945 
0.52741406446 -0.84092688984 0.12114607114 0.5260335771 -0.84171426547 0.12167896724 0.52451847932 -0.84257358726 0.1222706625 
0.52451847932 -0.84257358726 0.1222706625 
