# vtk DataFile Version 4.1
vtk output
ASCII
DATASET POLYDATA
POINTS 216 float
2.9863 1.7274 219.235 3.60548 1.1996 216.169 4.2249 0.671347 213.102 
4.8453 0.141247 210.03 5.46737 -0.392059 206.949 6.0918 -0.929892 203.857 
6.71917 -1.4735 200.75 7.35 -2.02404 197.625 7.98465 -2.58254 194.48 
8.6234 -3.14989 191.312 9.26631 -3.72683 188.121 9.91332 -4.3139 184.904 
10.5641 -4.91145 181.662 11.2183 -5.51964 178.395 11.8752 -6.1384 175.103 
12.5339 -6.76746 171.789 13.1935 -7.40633 168.454 13.8526 -8.0543 165.1 
14.5099 -8.71051 161.73 15.1638 -9.3739 158.348 15.8127 -10.0433 154.957 
16.455 -10.7173 151.561 17.0887 -11.3945 148.164 17.7121 -12.0736 144.77 
18.3235 -12.7529 141.383 18.921 -13.4311 138.006 19.5032 -14.1068 134.642 
20.0685 -14.7787 131.295 20.6155 -15.4456 127.967 21.1431 -16.1066 124.661 
21.6503 -16.7608 121.378 22.1363 -17.4076 118.12 22.6006 -18.0467 114.887 
23.0429 -18.6778 111.68 23.4628 -19.3009 108.499 23.8604 -19.9162 105.345 
24.2358 -20.5242 102.217 24.5892 -21.1252 99.1161 24.9209 -21.72 96.0411 
25.2313 -22.3092 92.9925 25.5207 -22.8935 89.9705 25.7894 -23.4738 86.9755 
26.0377 -24.0507 84.0083 26.2659 -24.625 81.0696 26.474 -25.1973 78.1606 
26.6621 -25.7682 75.2826 26.8302 -26.3379 72.437 26.9781 -26.907 69.6253 
27.1056 -27.4757 66.849 27.2125 -28.0439 64.1094 27.2983 -28.6118 61.4078 
27.363 -29.1792 58.7453 27.406 -29.746 56.1227 27.4273 -30.3119 53.5404 
27.4266 -30.8768 50.9986 27.4038 -31.4402 48.4972 27.3592 -32.0018 46.0356 
27.2927 -32.5614 43.6132 27.205 -33.1185 41.2289 27.0965 -33.6728 38.8816 
26.9679 -34.2241 36.57 26.8203 -34.772 34.2928 26.6548 -35.3162 32.0487 
26.4726 -35.8565 29.8363 26.2751 -36.3926 27.6547 26.064 -36.9242 25.5028 
25.8409 -37.4511 23.38 25.6077 -37.9729 21.2857 25.366 -38.4893 19.2197 
25.1178 -39 17.182 24.8649 -39.5047 15.1727 24.6091 -40.0029 13.1922 
24.3521 -40.4942 11.241 24.0957 -40.9782 9.31954 23.8413 -41.4544 7.42842 
23.5904 -41.9223 5.56818 23.3443 -42.3816 3.73925 23.104 -42.8316 1.9419 
22.8705 -43.2721 0.176229 22.6445 -43.7024 -1.55793 22.4267 -44.1224 -3.26099 
22.2174 -44.5316 -4.93366 22.017 -44.9297 -6.57695 21.8255 -45.3165 -8.19215 
21.6429 -45.6919 -9.78086 21.4691 -46.0557 -11.3449 21.304 -46.408 -12.8864 
21.1471 -46.7486 -14.4075 20.9982 -47.0778 -15.9107 20.8569 -47.3956 -17.3984 
20.7228 -47.7021 -18.8731 20.5956 -47.9977 -20.3374 20.4749 -48.2824 -21.7937 
20.3605 -48.5567 -23.2443 20.252 -48.8207 -24.6915 20.1494 -49.0747 -26.1371 
20.0526 -49.319 -27.5831 19.9614 -49.554 -29.031 19.876 -49.7799 -30.4822 
19.7965 -49.9969 -31.9381 19.723 -50.2055 -33.3994 19.6559 -50.4058 -34.8672 
19.5954 -50.5983 -36.3422 19.5419 -50.7831 -37.825 19.4959 -50.9605 -39.3162 
19.4576 -51.131 -40.8166 19.4277 -51.2948 -42.3266 19.4066 -51.4524 -43.8472 
19.3946 -51.604 -45.3792 19.3924 -51.7501 -46.9237 19.4004 -51.8912 -48.4818 
19.4189 -52.0276 -50.055 19.4485 -52.1599 -51.6449 19.4893 -52.2886 -53.2533 
19.5419 -52.4142 -54.8821 19.6063 -52.5373 -56.5334 19.683 -52.6583 -58.2093 
19.7719 -52.7779 -59.9123 19.8734 -52.8967 -61.6444 19.9873 -53.015 -63.4079 
20.1137 -53.1335 -65.205 20.2525 -53.2527 -67.0377 20.4036 -53.373 -68.9078 
20.5668 -53.4948 -70.8169 20.7419 -53.6184 -72.7664 20.9285 -53.7442 -74.7574 
21.1262 -53.8724 -76.7907 21.3345 -54.0031 -78.8667 21.553 -54.1364 -80.9857 
21.7811 -54.2724 -83.1474 22.0181 -54.411 -85.3515 22.2633 -54.5519 -87.5972 
22.516 -54.695 -89.8833 22.7753 -54.84 -92.2087 23.0403 -54.9864 -94.5716 
23.3101 -55.1338 -96.9704 23.5837 -55.2816 -99.403 23.8602 -55.4293 -101.867 
24.1384 -55.5762 -104.36 24.4174 -55.7216 -106.88 24.6959 -55.8649 -109.424 
24.9731 -56.0053 -111.989 25.2477 -56.142 -114.572 25.5188 -56.2745 -117.17 
25.7854 -56.402 -119.781 26.0465 -56.524 -122.401 26.3011 -56.6397 -125.026 
26.5486 -56.7487 -127.654 26.7881 -56.8506 -130.282 27.019 -56.9449 -132.907 
27.2407 -57.0314 -135.525 27.4528 -57.11 -138.133 27.6549 -57.1804 -140.728 
27.8468 -57.2426 -143.307 28.0284 -57.2968 -145.868 28.1995 -57.3429 -148.407 
28.3602 -57.3813 -150.921 28.5108 -57.4122 -153.408 28.6515 -57.436 -155.865 
28.7825 -57.4528 -158.29 28.9044 -57.4633 -160.681 29.0174 -57.4677 -163.035 
29.1222 -57.4665 -165.352 29.2192 -57.4602 -167.629 29.3091 -57.4493 -169.865 
29.3925 -57.4341 -172.06 29.4698 -57.4151 -174.213 29.5419 -57.3928 -176.323 
29.6092 -57.3675 -178.392 29.6724 -57.3396 -180.419 29.732 -57.3096 -182.406 
29.7887 -57.2778 -184.353 29.843 -57.2444 -186.263 29.8954 -57.2098 -188.137 
29.9464 -57.1742 -189.976 29.9965 -57.1379 -191.785 30.0461 -57.1011 -193.564 
30.0957 -57.0638 -195.316 30.1456 -57.0263 -197.044 30.1962 -56.9886 -198.751 
30.2478 -56.9508 -200.439 30.3008 -56.9128 -202.111 30.3556 -56.8747 -203.77 
30.4123 -56.8364 -205.417 30.4714 -56.7977 -207.054 30.5331 -56.7585 -208.685 
30.5978 -56.7186 -210.311 30.6658 -56.6777 -211.934 30.7373 -56.6357 -213.555 
30.8129 -56.5921 -215.177 30.8927 -56.5467 -216.8 30.9773 -56.499 -218.426 
31.0669 -56.4487 -220.057 31.162 -56.3952 -221.693 31.2629 -56.3383 -223.336 
31.37 -56.2773 -224.987 31.4838 -56.2118 -226.647 31.6045 -56.1415 -228.316 
31.7325 -56.0657 -229.997 31.868 -55.984 -231.69 32.0114 -55.8961 -233.395 
32.1626 -55.8017 -235.114 32.322 -55.7003 -236.845 32.4895 -55.5918 -238.591 
32.665 -55.476 -240.351 32.8484 -55.3528 -242.124 33.0395 -55.2223 -243.911 
33.238 -55.0847 -245.711 33.4435 -54.9402 -247.524 33.6553 -54.7892 -249.348 
33.873 -54.6322 -251.182 34.0958 -54.4699 -253.025 34.3229 -54.303 -254.876 
34.5535 -54.1324 -256.733 34.7868 -53.9589 -258.595 35.0216 -53.7837 -260.46 

LINES 1 217
216 215 214 213 212 211 210 209 208 207 206 205 204 203 202 201 200 199 198 197 196 195 194 193 192 191 190 189 188 187 186 185 184 183 182 181 180 179 178 177 176 175 174 173 172 171 170 169 168 167 166 165 164 163 162 161 160 159 158 157 156 155 154 153 152 151 150 149 148 147 146 145 144 143 142 141 140 139 138 137 136 135 134 133 132 131 130 129 128 127 126 125 124 123 122 121 120 119 118 117 116 115 114 113 112 111 110 109 108 107 106 105 104 103 102 101 100 99 98 97 96 95 94 93 92 91 90 89 88 87 86 85 84 83 82 81 80 79 78 77 76 75 74 73 72 71 70 69 68 67 66 65 64 63 62 61 60 59 58 57 56 55 54 53 52 51 50 49 48 47 46 45 44 43 42 41 40 39 38 37 36 35 34 33 32 31 30 29 28 27 26 25 24 23 22 21 20 19 18 17 16 15 14 13 12 11 10 9 8 7 6 5 4 3 2 1 0 

CELL_DATA 1
FIELD FieldData 2
LengthArray 1 1 double
488.5391724 
TortuosityArray 1 1 double
0.0094680657315 
POINT_DATA 216
FIELD FieldData 8
RadiusArray 1 216 double
69.824262534 69.750076178 68.886085425 68.882634781 68.815629955 68.511739417 67.731151695 67.034491605 66.989223745 
66.333197749 66.312818919 65.626228647 64.900711911 64.736947721 64.333714938 64.197917692 63.996399851 63.636729653 
62.962907985 62.70902078 61.346437518 61.170355811 59.684389605 59.067918839 58.964360728 58.889600001 57.898796606 
57.758499206 57.729087211 57.307063005 57.192912826 57.141132707 56.762322865 56.446116217 56.237548525 55.974408404 
55.767314409 55.539868054 55.382807545 55.201753341 55.20857272 55.133843907 55.254477004 55.345278559 55.485221511 
55.49538136 55.477721357 55.498900906 55.482860951 55.254383712 55.175594688 55.053026698 54.811422082 54.706276643 
54.281773384 54.2478066 53.976834846 53.67896688 53.168373985 53.019259226 52.923923285 52.722180667 52.343451524 
52.201502907 51.595390649 51.536435926 51.346436359 51.159449377 51.005947901 50.795708799 50.665927245 50.539767781 
50.537137131 50.53109221 50.565126111 50.56818143 50.639887358 50.673588891 50.726302463 50.745925702 50.785617354 
50.820179414 50.847492185 50.970042654 51.229383186 51.276180704 51.284688182 51.34096412 51.438477054 51.67533931 
51.67787983 51.750978472 51.793506204 51.795639124 51.874840536 51.893467162 52.05820018 52.155558393 52.255165467 
52.567969964 52.713588828 53.011961502 53.030204436 53.159401885 53.282020856 53.48273721 53.62254611 53.801837367 
53.995196777 53.996769123 54.012159512 54.05320593 54.095342635 54.111543281 54.182546722 54.187138667 54.187158924 
54.18967086 54.286507601 54.290362116 54.354148625 54.472529483 54.435720409 54.438331882 54.449555129 54.462804999 
54.446825687 54.180685157 54.168089752 54.119465788 54.063445949 53.852897042 53.673438699 53.49740628 53.475507936 
53.124154193 52.83906118 52.590088732 52.552252174 52.16356836 51.712346748 51.257424646 50.862017917 50.656599887 
50.432485189 50.013218232 49.844932826 49.769811447 49.636838393 49.549637006 49.066206762 47.913414143 47.7868657 
46.97362412 46.449142608 46.39847789 45.954575416 45.489520126 44.902113592 44.849948641 44.523782884 43.851077486 
43.754599382 43.296732307 42.769954215 42.593166814 42.112856595 42.092128012 41.730252603 40.858227357 40.848585768 
40.643839147 40.521875252 40.455431875 40.081798757 39.724216241 39.598234968 39.415023817 38.973744202 38.884077825 
38.825711675 38.73753756 38.43678653 38.200925384 37.993061683 37.298149222 37.109076204 36.87664554 36.558567503 
36.122979894 36.010558091 35.712815965 35.661571832 35.412563147 35.356257942 35.295142066 34.974458598 34.642847673 
34.581646891 34.540335448 34.129218054 34.038736262 33.784954149 33.502628855 33.017474561 32.570082443 32.285758827 
31.548903133 31.127349757 30.935922988 30.453471232 30.335646853 29.646435058 29.326975807 29.325487158 27.470664225 

EdgeArray 2 216 int
34820 34820 34433 34432 33821 34265 33821 34266 33970 
33969 28060 33974 32095 32095 32260 32260 32159 32159 
31181 31181 33070 33070 32834 33076 32845 32845 32579 
32579 29207 29207 32859 32859 32856 32856 31990 31990 
31773 31773 31940 31940 31739 31739 30933 30933 29668 
29668 28023 28023 29258 30915 29258 29672 28993 29760 
28698 29408 27994 29759 27994 27493 26112 25313 26514 
26112 28589 27959 27960 27269 27737 27960 27738 27737 
27739 27735 27490 27490 27259 27259 27001 27001 26935 
26935 24540 25844 24808 26058 25481 25401 22182 23483 
22182 24911 24911 13769 24670 24670 22876 22876 22530 
22530 22795 22795 22936 22936 22733 22733 22376 22376 
22732 22732 22729 22729 21727 21727 18750 18750 20940 
20940 18730 22142 22144 22144 21822 21822 21340 21340 
21567 21567 21568 21568 19861 19861 21329 21329 20867 
20867 21571 21571 20912 20912 18000 18000 20655 20655 
18862 18862 20645 20645 19958 19958 20624 20624 18894 
18894 19413 19413 18406 18729 18729 17811 17811 17811 
19129 19129 14196 18099 14196 14196 17847 17266 18880 
17847 18090 18880 18753 18090 18753 18753 17909 17909 
17899 15120 18034 15120 18034 18034 18307 17968 18307 
18307 18011 17772 17772 17772 18120 18295 18295 18295 
17263 17263 16038 16038 16994 16994 15933 15933 17802 
17802 17313 17252 17252 17252 14891 14891 15291 15338 
16305 16340 16305 16525 15132 16525 15132 15132 16013 
16013 16326 16335 13543 15512 13543 13543 15201 13543 
15201 15201 15991 15991 14659 15597 15725 15725 15780 
15780 14969 14969 15567 15567 15295 15295 15187 15187 
14691 14691 14701 14701 13887 13887 13403 13403 13404 
13404 13613 13613 12698 12698 11642 11642 11094 12239 
12932 12932 12073 12073 12316 12316 11998 11998 9133 
9133 11255 11255 10989 10989 10985 10985 10270 10270 
10394 10394 10746 10746 9083 7557 9685 10095 10095 
10094 10096 10094 10097 10097 8946 8946 9367 9690 
9635 9635 9162 9162 7854 7854 8204 8587 7653 
7653 8032 8032 8639 8639 9428 9428 6420 6420 
9276 9276 7486 7486 4955 4955 8035 8035 7361 
7361 7457 7340 5814 5814 8010 8010 8603 8601 
6949 8602 8209 7981 8221 6753 8214 8008 4882 
6512 4882 8230 5581 4994 5445 4993 7975 7976 
7978 7977 7978 7974 7175 7175 6812 6063 6551 
7171 5888 6793 6975 6975 6974 6973 6347 6345 
6571 5889 6571 6572 6573 6573 6361 6362 4371 
829 4555 829 2560 4555 4760 4467 2635 2635 
5413 5413 1589 1589 5186 5186 3212 5397 4448 
2898 4755 5099 4434 4434 4752 4752 2326 2326 
3648 4140 4143 4140 4141 4139 3841 3841 3842 
3822 2608 2608 1055 1308 1308 2983 3531 3531 

EdgePCoordArray 1 216 double
0 0.2 0.028 0.06 0.904 0.96 0 0 0 
0 0 0.348 0 0 0 0 0 0 
0 0 0 0 0 0 0.764 0.648 0.756 
0.776 0.752 0.896 0.052 0.908 0.272 0.672 0.484 0.468 
0.308 0 0 0 0 0.108 0.904 0.096 0.324 
0.38 0.592 0 0 0 0 0 0 0 
0 0 0 0 0 0.888 0 0 0 
0 0 0 0 0 0 0 0 0 
0 0 0 0 0 0 0.764 0.236 0 
0 0.912 0 0.68 0.064 0.86 0.796 0 0 
0.016 0.776 0 0.996 0 0.044 0 0.216 0 
0 0 0 0 0 0.152 0 0 0.168 
0.012 0.088 0.932 0 0 0.896 0.06 0 0.992 
0 0 0.96 0 0 0 0 0 0 
0 0 0 0 0 0 0 0 0.852 
0 0 0 0 0 0 0 0 0 
0 0 0.852 0.464 0.9 0.824 0 0 0.98 
0 0 0 0.624 0 0 0 0 0 
0 0 0 0 0 0.984 0 0 0.02 
0.56 0.752 0.756 0.732 0.276 0.172 0.268 0.236 0.276 
0.224 0.32 0 0.94 0.964 0.332 0 0.976 0.192 
0.348 0.28 0 0.792 0.924 0.552 0.972 0.9 0 
0 0 0 0.14 0.64 0.048 0 0 0 
0.088 0.128 0.156 0 0.08 0 0.996 0.004 0 

CurvatureArray 1 216 double
0 2.4877108319e-05 9.892065718e-05 0.00017071367386 0.00023977563132 0.00030290279941 0.00035996607252 0.00040935780214 0.00045087602468 
0.00048430353793 0.0005101816026 0.00052861932038 0.00054167974061 0.00055009089278 0.00055652421935 0.00056273004631 0.00057180666845 0.00058609687448 
0.00060843287483 0.00064055942405 0.00068412610581 0.00073879724704 0.00080486956412 0.00088110980518 0.00096544653149 0.0010561970137 0.0011510818149 
0.0012484928291 0.0013447030131 0.0014380023839 0.0015258093214 0.0016055100904 0.0016756587393 0.0017348164283 0.0017820517668 0.0018189544515 
0.0018453027618 0.0018651946024 0.0018807159553 0.0018963096296 0.0019165306009 0.0019449878723 0.0019854502003 0.0020410308774 0.0021131769252 
0.0022027289529 0.0023091269359 0.0024313944702 0.0025683405442 0.0027163416952 0.0028732423451 0.0030355788157 0.0031981086643 0.0033570716621 
0.0035062163547 0.0036393665429 0.003750129709 0.0038335447352 0.0038822533723 0.003892198122 0.0038609594826 0.0037848611918 0.0036648213862 
0.0035013825319 0.0032991825548 0.0030602384668 0.0027918630459 0.0024967765747 0.0021837310252 0.0018566708613 0.0015199834346 0.0011796037549 
0.00083949388745 0.00050810556539 0.00021899071082 0.00026187078491 0.00055756320865 0.00087642634006 0.0011947586263 0.0015110106412 0.0018251112694 
0.0021367982013 0.0024453128729 0.0027530993039 0.0030544221985 0.0033495498526 0.0036362035981 0.0039078228321 0.004162241043 0.0043942437024 
0.0046005798268 0.0047722171201 0.0049141041378 0.0050244527275 0.0050991975327 0.0051434893527 0.0051629609256 0.0051640470288 0.0051475484483 
0.0051234664767 0.0050926919606 0.0050655712095 0.0050391015383 0.0050206589146 0.0050057550543 0.0049959355533 0.0049869354712 0.0049724691526 
0.0049539950178 0.0049175762654 0.0048665066291 0.0047918856395 0.0046908697048 0.0045607416151 0.0044010169464 0.0042141020057 0.0040027732956 
0.0037696127512 0.0035189859303 0.0032585531656 0.0029914646241 0.0027246375711 0.0024603525201 0.0022042772147 0.0019575457221 0.0017218418633 
0.0014997208801 0.0012894742909 0.0010928808743 0.00090677602334 0.00073506183741 0.00057501305549 0.00043214329743 0.00031538813935 0.00025345100083 
0.00027286257957 0.00035565030431 0.0004663832286 0.00058579430315 0.00070690197997 0.00082639480302 0.00094407658963 0.0010564453059 0.0011638298684 
0.0012647399915 0.0013585364249 0.0014442323853 0.0015220748392 0.0015895332369 0.0016472935691 0.0016955873851 0.0017332360537 0.0017593508464 
0.0017761091202 0.0017814070928 0.0017767375757 0.0017628141066 0.0017396046983 0.0017068735091 0.0016670958153 0.0016180293034 0.0015626641169 
0.0014998344863 0.0014303170151 0.0013548246395 0.001272424497 0.0011847757754 0.0010917985214 0.00099420413917 0.00089196316832 0.00078551983205 
0.0006798462103 0.00057837107658 0.00048370731303 0.00040928419849 0.00037019872124 0.00037583796482 0.00042296695572 0.00049970223622 0.00059194465978 
0.00069022446179 0.00079117210379 0.00089598023419 0.0010019095131 0.0011095690566 0.0012235185187 0.0013440570646 0.0014699045795 0.0016044627207 
0.0017465247552 0.0018949398552 0.0020477351637 0.0022003674425 0.0023528836975 0.0024974098292 0.0026345860284 0.002757240323 0.0028630153825 
0.0029447216156 0.0030046631597 0.0030347316118 0.0030384284357 0.003013734637 0.0029528885517 0.0028667555147 0.0027462616347 0.0025982343619 
0.0024223361562 0.0022198859679 0.0019919841816 0.0017414744577 0.0014688514502 0.0011783444985 0.00087295650845 0.00055350511516 0 

TorsionArray 1 216 double
0 0 0.0019358910266 0.0015728247529 0.0029617674073 0.0044273163622 0.0057838913898 0.0073782642974 0.0091597595914 
0.011104902781 0.013517298897 0.016066196946 0.019000855261 0.022245721846 0.025521233083 0.028995998712 0.031792534293 0.033800063672 
0.034595767827 0.034031852987 0.032040487007 0.029155468377 0.025859063571 0.022232236048 0.018767455889 0.015556673422 0.012683979089 
0.010130028089 0.0077263720651 0.0055157713779 0.0034794096359 0.0014609055787 -0.0004670764181 -0.0024325633694 -0.0044624543202 -0.0065063938904 
-0.0086138138678 -0.010656298517 -0.01257014682 -0.014202077406 -0.015453942935 -0.016053556504 -0.01593763375 -0.015118297238 -0.013519049565 
-0.011423031274 -0.0089971405609 -0.0064173071855 -0.0038696310501 -0.0014761401529 0.00059790013836 0.0024303108903 0.003920226163 0.0050783678071 
0.0059302918373 0.0065495916969 0.0069128175494 0.0070121127362 0.0070811515955 0.006911095536 0.0065706548743 0.0062594759466 0.0058079306975 
0.005256110088 0.0047520168941 0.0042592805977 0.0037649798381 0.0034665412419 0.0036364120945 0.0046464756637 0.0071411339302 0.013975352141 
0.033213073003 0.10352610684 0.60485881495 0.41615978366 0.0771173485 0.018320917464 -0.0014580471862 -0.011141105898 -0.017204799384 
-0.02090392107 -0.02394989869 -0.025788589004 -0.026162977449 -0.02646248975 -0.025791325033 -0.02432590692 -0.022349524623 -0.019907624413 
-0.016861574784 -0.013360596769 -0.0098450988779 -0.0057532947739 -0.0014070950446 0.0028072892555 0.006875482989 0.01108694506 0.015319076009 
0.018952961557 0.022084564591 0.02503080477 0.027262235466 0.028700017108 0.029594343033 0.029870559748 0.029903917563 0.0291831933 
0.028281584285 0.027178407118 0.025912545107 0.024715439837 0.023470269733 0.022432827047 0.021382658811 0.020371366382 0.019544421724 
0.018879234094 0.017880024284 0.017181601923 0.016549926965 0.015451076667 0.01441289595 0.013408235181 0.011659677366 0.0094859620372 
0.0068968834055 0.0032296893831 -0.0016175935661 -0.009693223446 -0.021509081834 -0.041525142142 -0.07998399393 -0.15384388124 -0.23472199857 
-0.19272208207 -0.10503542205 -0.056045322367 -0.032148803895 -0.019623868787 -0.012826070281 -0.0086840124949 -0.0063069204747 -0.0047913052972 
-0.0036170720424 -0.0030316011731 -0.0025607999441 -0.0022291669518 -0.0021113650328 -0.0018241372136 -0.0016521736004 -0.0015709450068 -0.0014024093258 
-0.0013018652888 -0.0011583496435 -0.00084520088001 -0.00047970875527 -0.00015395782053 0.00035760044549 0.00087700372656 0.0015871200585 0.0024246053521 
0.0034736374072 0.0048761409387 0.0063754481695 0.0083061667473 0.010979788763 0.014692632785 0.019085692707 0.025191415067 0.034983262205 
0.049890972427 0.071940083127 0.10704997096 0.15387687107 0.19126045133 0.18483889436 0.13861390893 0.092061366747 0.057188153859 
0.032095077767 0.014372749913 0.0015870718903 -0.0077959307982 -0.014404955262 -0.019500837288 -0.022360072312 -0.023762789692 -0.024775832893 
-0.023843747429 -0.022906389425 -0.021565737215 -0.020209144988 -0.018520721808 -0.016834870129 -0.015714949902 -0.014564594366 -0.013339392679 
-0.012372761988 -0.011390576194 -0.010761178303 -0.010135059008 -0.0093186639167 -0.0088288515129 -0.0080076143984 -0.0073980047415 -0.0069444278414 
-0.0062921801653 -0.0057790176753 -0.005151168381 -0.004233844359 -0.0037736740552 -0.0031851479416 -0.0026640340594 0 0 

TangentArray 3 216 double
-0.19520288404 0.16643289254 0.96653811427 -0.19520288404 0.16643289254 0.96653811427 -0.19519609168 0.16662680576 0.9665060752 
-0.19517920973 0.1670497979 0.96643646512 -0.19515015594 0.16769545646 0.96633050791 -0.1951039572 0.16855209696 0.9661907868 
-0.19503242956 0.16960300699 0.96602131003 -0.19492616248 0.17082851694 0.96582680072 -0.19477353564 0.17220537822 0.96561305787 
-0.19456130748 0.1737083722 0.96538660601 -0.19427508375 0.17531095723 0.96515452655 -0.19389839448 0.17698483362 0.96492475421 
-0.19341456398 0.17870210389 0.96470532522 -0.19280569921 0.18043495818 0.96450463359 -0.19205316329 0.18215617302 0.96433122479 
-0.19113858121 0.18383981772 0.96419342675 -0.19004194079 0.18546051219 0.96409981805 -0.18874454245 0.18699531251 0.96405821961 
-0.18722774986 0.18842281162 0.96407604147 -0.18547327406 0.18972354657 0.96416006995 -0.18346351111 0.19088001763 0.96431631686 
-0.18118304604 0.19187761107 0.96454947317 -0.17861833373 0.19270435554 0.96486295515 -0.17575692413 0.19335050768 0.96525907652 
-0.17259093546 0.19381111682 0.96573786298 -0.16911663442 0.19408509574 0.96629733497 -0.16533427165 0.1941758023 0.96693347052 
-0.16124794274 0.1940911256 0.96764029263 -0.15686791001 0.19384330681 0.96840964019 -0.15221058726 0.19345146027 0.96923086499 
-0.14729657596 0.19294009508 0.97009166496 -0.14215234218 0.19233832382 0.9709782082 -0.13680832881 0.19168099329 0.97187544366 
-0.13129766584 0.19100588596 0.97276804762 -0.12565583456 0.19035411021 0.97364055173 -0.1199165689 0.18976875512 0.97447823787 
-0.11411202282 0.18929239706 0.9752675708 -0.10826978105 0.18896665933 0.97599654516 -0.10241051553 0.18882929367 0.97665530468 
-0.096548241258 0.18891333743 0.97723599404 -0.090686911704 0.18924560033 0.97773308566 -0.084821581832 0.18984700352 0.97814283952 
-0.078938589511 0.19072994319 0.97846348315 -0.073015053492 0.19189902505 0.9786948279 -0.067020783373 0.19335208872 0.97883767009 
-0.060919741729 0.19507789832 0.97889396701 -0.054672562667 0.197058908 0.97886602641 -0.048238795348 0.1992715421 0.97875628792 
-0.041578239859 0.20168669385 0.97856718088 -0.034655415768 0.20427027913 0.97830090219 -0.027441821815 0.20698382012 0.97795942893 
-0.019917271526 0.20978771044 0.97754407514 -0.01207358348 0.21263914594 0.97705620217 -0.0039158139228 0.21549516776 0.97649705533 
0.0045366513419 0.21831435094 0.97586795365 0.013247803591 0.22105719283 0.97517086359 0.022165912815 0.22368701102 0.97440894567 
0.03122582885 0.22617255672 0.97358662799 0.040348521142 0.22848961179 0.97270987152 0.049444436236 0.23061710361 0.97178752783 
0.058418730332 0.23254342917 0.97082995705 0.067172487606 0.23426478185 0.96984940527 0.075607709442 0.23578110868 0.9688605385 
0.083631256801 0.2370994047 0.96787896205 0.091158907438 0.23823201606 0.96692065865 0.098117146446 0.23919279049 0.96600198476 
0.10444529078 0.23999713375 0.96513862063 0.11009584542 0.24066112836 0.96434492072 0.11503573372 0.24119877097 0.96363371301 
0.11924739615 0.2416201494 0.96301597179 0.12272362165 0.24193090208 0.96250109159 0.12546894005 0.24213353349 0.96209609553 
0.12749850543 0.2422232385 0.96180665097 0.12883626011 0.24219021225 0.96163668772 0.1295126005 0.24202080218 0.96158848663 
0.12956286767 0.24169516454 0.96166361622 0.12902778733 0.24118921708 0.96186256381 0.12795077492 0.24047299764 0.96218570796 
0.1263788989 0.23951434138 0.96263246059 0.12436205044 0.23828122483 0.96320098541 0.12195014479 0.23674078349 0.96388897889 
0.1191946914 0.23486025308 0.96469336427 0.116146956 0.23261156381 0.96560951994 0.11285812364 0.22996770464 0.96663224587 
0.10937875904 0.22690843758 0.96775453914 0.10575435041 0.22342661183 0.96896675201 0.10202823865 0.21951848749 0.97025866251 
0.098238847059 0.21519183969 0.97161803249 0.094417365408 0.21046612291 0.97303102325 0.090587854504 0.20536860898 0.97448323488 
0.086766928706 0.19993496006 0.97595979007 0.082964008666 0.19421144873 0.97744508104 0.079178783077 0.18824961057 0.97892430986 
0.075403790936 0.18209864831 0.98038479721 0.071624164101 0.17581453572 0.98181425338 0.067819252345 0.16945441755 0.98320178467 
0.063964612932 0.16306878456 0.98453902909 0.060033146363 0.15670115013 0.98581984708 0.055995191969 0.15039337802 0.98703919391 
0.051819126254 0.1441833057 0.9881932769 0.047477231186 0.13810152683 0.98927947558 0.042944278749 0.13217179147 0.99029612059 
0.038195535422 0.12641588261 0.99124170902 0.033212173114 0.12085113055 0.99211489042 0.027981642883 0.11549066848 0.99291436345 
0.02249773138 0.11034691518 0.99363847067 0.01676073451 0.10543024509 0.99428544252 0.010778740987 0.10075449894 0.99485292867 
0.0045683348695 0.096328120103 0.99533915004 -0.0018450033614 0.092162019271 0.99574231514 -0.0084272940468 0.088266349354 0.9960612593 
-0.015139265242 0.084648918698 0.99629582114 -0.021933227346 0.081318559064 0.99644680013 -0.028755863546 0.078281710085 0.9965164696 
-0.035550807964 0.075543800959 0.99650854196 -0.042260887704 0.073105749381 0.99642840524 -0.048830804788 0.070963739502 0.99628294183 
-0.055207687453 0.069111792514 0.99608015309 -0.061342155581 0.06754081371 0.99582899056 -0.067191578981 0.066233261053 0.99553927439 
-0.072721372753 0.065171386356 0.99522072544 -0.077904433333 0.064334512666 0.99488289248 -0.082720321529 0.063695882344 0.99453515925 
-0.087156083299 0.063228715877 0.99418607244 -0.091205702661 0.062906655374 0.99384318306 -0.094866636166 0.062698509935 0.99351357222 
-0.098142105933 0.062573884715 0.99320321989 -0.10103811295 0.062503247147 0.99291723916 -0.10356263518 0.062457449299 0.99265998591 
-0.10572372865 0.062408746245 0.99243520776 -0.10753111287 0.062327248768 0.99224612563 -0.1089947958 0.062187896186 0.99209515676 
-0.11012283402 0.06196783971 0.9919843488 -0.11092353202 0.061645034113 0.9919152483 -0.11140494492 0.061198244201 0.99188896211 
-0.11157435814 0.06060926021 0.99190608436 -0.11143788515 0.059864546584 0.99196664955 -0.11100291707 0.058950499011 0.99207015431 
-0.11027579181 0.057857096385 0.99221560466 -0.10926366487 0.056578643774 0.99240128406 -0.10797572145 0.055111889786 0.99262476454 
-0.10642018646 0.053455826551 0.99288328545 -0.10460773684 0.051612708395 0.99317337345 -0.10255058076 0.049589493519 0.99349094637 
-0.10026191569 0.047395487608 0.99383158333 -0.097758406013 0.045041786536 0.99419038998 -0.095057241285 0.042543489827 0.9945623019 
-0.092177269944 0.039916683342 0.99494221405 -0.08914017153 0.03718002005 0.99532490973 -0.085968919849 0.034355253019 0.99570530852 
-0.082687729909 0.031461655109 0.99607876374 -0.079321526997 0.028519836932 0.99644102397 -0.075896942759 0.025552623513 0.99678820093 
-0.072440192462 0.022580414386 0.99711711619 -0.068976831981 0.019623562102 0.99742524154 -0.065533048687 0.016701873725 0.99771061283 
-0.062133659394 0.013831161913 0.99797199727 -0.058802381104 0.011025590862 0.99820875388 -0.05556190635 0.0082993186662 0.99842075092 
-0.052432818011 0.0056627475092 0.99860839817 -0.049434003923 0.0031256803656 0.99877250131 -0.046583189077 0.00069586810063 0.99891417162 
-0.043895152074 -0.0016211525238 0.99903482797 -0.041384079346 -0.003820419646 0.99913600794 -0.039062113972 -0.0058993168382 0.99921936996 
-0.036939368661 -0.0078543286131 0.99928664184 -0.035024292758 -0.0096828712349 0.99933955237 -0.033323787869 -0.011384327629 0.99937976878 
-0.031844000385 -0.012958761023 0.99940884034 -0.030588142769 -0.014404309628 0.99942827726 -0.029558689046 -0.015718180936 0.99943945424 
-0.028757068013 -0.0169011532 0.9994435362 -0.028181598355 -0.017957014164 0.99944151563 -0.027829253153 -0.018886849443 0.99943424976 
-0.027696530112 -0.019693731051 0.99942236276 -0.027777403065 -0.020386285294 0.99940623134 -0.028065399703 -0.020973750257 0.99938602909 
-0.028552708557 -0.021465871421 0.99936177593 -0.029230040026 -0.021878835601 0.99933323837 -0.03009073814 -0.022230094195 0.99929994015 
-0.031127652502 -0.022537740889 0.99926128689 -0.032332609437 -0.022824028348 0.99921652613 -0.033701688701 -0.023113584377 0.99916463028 
-0.035232436138 -0.023432209709 0.99910440245 -0.03692158827 -0.023805636356 0.99903457798 -0.038769982354 -0.024259613815 0.99895363236 
-0.040781108084 -0.024821243328 0.99885975347 -0.042957217688 -0.025514894926 0.99875105386 -0.045301662236 -0.026362777367 0.99862543697 
-0.047818118207 -0.027388869503 0.99848048424 -0.050510252156 -0.028610345744 0.9983136594 -0.053379142546 -0.030043231618 0.99812227276 
-0.056422152298 -0.031699697615 0.99790363758 -0.059634170108 -0.033588722174 0.99765503231 -0.063006674889 -0.035713562017 0.99737390201 
-0.066527855062 -0.038071879413 0.99705796045 -0.070180855704 -0.040659897528 0.99670528253 -0.073943936031 -0.043466809736 0.99631467458 
-0.077790917516 -0.046474104892 0.99588590246 -0.081692743848 -0.049659452383 0.99541962729 -0.08561793642 -0.052994532143 0.99491765917 
-0.089531203382 -0.056447767417 0.99438313198 -0.093399158702 -0.05998547177 0.99382007443 -0.097183942305 -0.063563925383 0.99323456884 
-0.10084869244 -0.067140291891 0.99263373025 -0.1043601562 -0.070667818448 0.992025714 -0.10768293447 -0.074097254116 0.99142018466 
-0.11078514839 -0.077382091599 0.99082726184 -0.11363720183 -0.080473539256 0.99025784311 -0.11621036543 -0.083323969405 0.98972332856 
-0.11847950151 -0.085886864003 0.98923508546 -0.12042256487 -0.088117110051 0.98880421762 -0.12201822902 -0.089975225264 0.98844120241 
-0.12325028035 -0.091427179591 0.98815506841 -0.12410402811 -0.092443671149 0.98795362132 -0.12410402811 -0.092443671149 0.98795362132 

NormalArray 3 216 double
-0.032137320993 -0.98605244674 0.16330267874 -0.032137320993 -0.98605244674 0.16330267874 -0.035155713706 -0.98601761841 0.16289055217 
-0.041787916211 -0.98590944585 0.16197633975 -0.046199153294 -0.98575206063 0.16173593663 -0.058622424811 -0.98536511465 0.16005937068 
-0.0740659008 -0.98466966022 0.15792372394 -0.095114303731 -0.98336690327 0.1547346205 -0.1212150428 -0.98114679006 0.15052537911 
-0.15391628116 -0.97740869376 0.14485173028 -0.19282410124 -0.97152962766 0.13765554316 -0.24101835133 -0.96203953172 0.12802380139 
-0.29596836551 -0.94809299009 0.11628589239 -0.36167974326 -0.92680641398 0.10108231455 -0.43451577966 -0.89684356014 0.082871381402 
-0.51564555625 -0.85464680648 0.060732993472 -0.60114150903 -0.79837209672 0.035083917953 -0.6861369406 -0.72744093316 0.0067666470622 
-0.76580532157 -0.64265675517 -0.023119353154 -0.8347357082 -0.54812133237 -0.052719090154 -0.88997475746 -0.44885312956 -0.080472350372 
-0.93018554908 -0.35183048832 -0.1047384923 -0.95725575599 -0.2607769299 -0.1251271771 -0.97364104175 -0.17893466056 -0.14144083238 
-0.98212546934 -0.10862715053 -0.15371956493 -0.98547044975 -0.04894975568 -0.16264044417 -0.98569911094 -0.0001402298464 -0.16851481544 
-0.98430501241 0.039616795456 -0.17197136991 -0.98232887027 0.070735498344 -0.17328150482 -0.98049421199 0.093827092295 -0.17270662117 
-0.97922034327 0.10977981826 -0.17051659985 -0.97875380573 0.11912064154 -0.16688696931 -0.97928099029 0.12170429535 -0.16185427563 
-0.98068930033 0.11844666331 -0.15562417606 -0.98301173899 0.10845862179 -0.14806974159 -0.98593029395 0.092373719412 -0.13931457727 
-0.98916066372 0.069665327025 -0.12925913334 -0.99218633974 0.040688619731 -0.11794364527 -0.99441619083 0.0057013385701 -0.10537520658 
-0.99519422001 -0.034437835427 -0.091665151277 -0.99393598464 -0.078505319318 -0.076994631458 -0.99023661952 -0.12504753142 -0.061599937027 
-0.98415204145 -0.1712522047 -0.046015667951 -0.97603760139 -0.21544341754 -0.030573428044 -0.96675611784 -0.25521280444 -0.015780781649 
-0.95741249009 -0.28871635969 -0.0020463308941 -0.94889595122 -0.31541441751 0.010498522829 -0.94210792952 -0.33460736523 0.021692401184 
-0.93744153088 -0.34670328174 0.031626106435 -0.93512128835 -0.35201978792 0.040376292416 -0.93497238685 -0.35143793144 0.048145780438 
-0.93660085993 -0.34602654413 0.055176624948 -0.93977646577 -0.33620103212 0.061555344094 -0.94385675048 -0.32336945578 0.067576842508 
-0.94858429762 -0.30792134183 0.073295822288 -0.95345604205 -0.29102019329 0.07892289263 -0.95837578956 -0.27274577948 0.084413184772 
-0.96293665392 -0.25428482725 0.089956807277 -0.96710442012 -0.23577310753 0.095499122269 -0.97087362082 -0.2172813697 0.1009614717 
-0.97401304291 -0.19989544282 0.10649133382 -0.97665897625 -0.18332926891 0.11192686573 -0.97883138981 -0.16777808169 0.11721614919 
-0.98051074367 -0.15369868994 0.12237399337 -0.98177792689 -0.14107522811 0.12731803594 -0.98274001956 -0.1296809317 0.13192766925 
-0.98342058844 -0.11972734889 0.1361958449 -0.98391495982 -0.11093704123 0.14001544462 -0.98434664765 -0.10271459395 0.14321797878 
-0.98493712361 -0.093536028334 0.14542996234 -0.98591131068 -0.081347351288 0.14615572489 -0.98761192514 -0.061629414056 0.1443069667 
-0.99057344601 -0.017869358934 0.13581212787 -0.98943265336 0.09643713344 0.1082723592 -0.82200662665 0.56855627477 -0.032386234119 
0.50901742776 0.81608651563 -0.27368605598 0.77978319838 0.57454399195 -0.24867119824 0.8254171076 0.51202603221 -0.23773081589 
0.83290859145 0.50145126946 -0.23411514824 0.82673324566 0.5119043945 -0.23337958652 0.81305560336 0.53316925617 -0.2338185838 
0.79381906545 0.56105229011 -0.23467343071 0.77127401888 0.59143527881 -0.23524603884 0.74442542394 0.62477651461 -0.23555274354 
0.7159978098 0.65734185398 -0.23505068254 0.68666397762 0.68839555452 -0.23367529256 0.65605545504 0.71832816737 -0.23150784841 
0.62673192065 0.74501869364 -0.22837304081 0.59851386951 0.76903669202 -0.22441861405 0.57302645801 0.7895497559 -0.21966306329 
0.5501915589 0.80708407658 -0.21425345235 0.53177791743 0.82088264586 -0.20824007363 0.51753217081 0.83153525873 -0.20176611626 
0.50786438828 0.83909556253 -0.19491639247 0.50392823011 0.84309636146 -0.18773615576 0.50530411286 0.84389555171 -0.18029989275 
0.51202667881 0.84144296692 -0.17263375569 0.52357673948 0.83589679708 -0.1647541881 0.5406464061 0.82654384982 -0.15661011428 
0.56227345434 0.81356540862 -0.14818869199 0.58757983685 0.79705647304 -0.13946653404 0.61572751778 0.7770913767 -0.13041708522 
0.64665736286 0.7531277682 -0.12096619286 0.67817439887 0.72644058237 -0.1111915689 0.71022977984 0.69667975242 -0.10104940575 
0.74126640855 0.66506263889 -0.090641038771 0.77125000831 0.63148993264 -0.079961801307 0.79955413341 0.59660749039 -0.069084659338 
0.82526108511 0.56174934515 -0.058153371519 0.84909357028 0.52613634361 -0.047123845832 0.87010651834 0.49153282279 -0.036195729968 
0.88922908803 0.45676224527 -0.025295855512 0.90591152699 0.42321533095 -0.014597565478 0.9208779133 0.38983004764 -0.0040500315624 
0.93394538213 0.35736149423 0.0062278114809 0.9454904433 0.32524475244 0.016237999645 0.95540741687 0.29415496611 0.025875156138 
0.96418956723 0.26286753105 0.035201414163 0.97163699995 0.23232997646 0.044094470814 0.97780748157 0.20282050525 0.052501158418 
0.98306246746 0.17299535804 0.060504472304 0.98719089171 0.14434149093 0.067968208163 0.99030049982 0.11704318932 0.074871969932 
0.99254297719 0.090883452935 0.081231991288 0.99400676141 0.066148992159 0.087033723977 0.99468698498 0.046048041314 0.092072687566 
0.99491611924 0.028818110603 0.096495762518 0.99480033576 0.019177861044 0.10002250558 0.99457049604 0.016751009818 0.10270799422 
0.99414687403 0.028951899888 0.10408544736 0.99258686097 0.063591127318 0.1035736065 0.98619014478 0.13196270932 0.10007418089 
0.9600638407 0.26489955915 0.090031357519 0.85885280896 0.50814992237 0.064463237024 0.53486171255 0.844902266 0.0079441396433 
0.023730930264 0.99801623655 -0.058313244948 -0.32670234253 0.94049496819 -0.093460120865 -0.49914175863 0.8598954361 -0.10694551775 
-0.58889638324 0.80039343379 -0.11212225899 -0.63879208495 0.76092968041 -0.11371320799 -0.66938467853 0.73418279903 -0.11357715334 
-0.68951617109 0.71549137408 -0.11242572407 -0.70314124195 0.70240196226 -0.11056164471 -0.71364437163 0.69209994504 -0.10820987438 
-0.72148561186 0.6843569602 -0.10542325598 -0.7275400057 0.67839932408 -0.10227363877 -0.73311152607 0.67288614945 -0.098852011673 
-0.73747417708 0.66863922856 -0.095149462267 -0.74175992877 0.66442871737 -0.09125068551 -0.74566511343 0.66059394342 -0.087173278777 
-0.74889245029 0.6574814854 -0.082934879652 -0.75211550962 0.65432736518 -0.078599995958 -0.75500057721 0.65151378318 -0.074188400242 
-0.75756643422 0.64902249454 -0.069734491608 -0.76003058559 0.64660024421 -0.065281185334 -0.76203269959 0.64467361141 -0.060844880744 
-0.76338253064 0.64347566696 -0.056446239411 -0.76412535266 0.64295917347 -0.052114745321 -0.76437251104 0.64299453788 -0.047882028094 
-0.76343741316 0.64439910482 -0.043739111801 -0.76205110959 0.64629623867 -0.039740133967 -0.75887490721 0.65024934487 -0.035842219564 
-0.75497938015 0.65496193719 -0.032109132344 -0.74857413996 0.66243947157 -0.028472855154 -0.74054439803 0.67154280565 -0.024985090008 
-0.72958894714 0.68354482677 -0.02159717592 -0.71579750434 0.69806747281 -0.018323105346 -0.69651293732 0.71738632592 -0.015052824633 
-0.67118767584 0.74119393276 -0.011775306647 -0.63759700755 0.77032415174 -0.008411729878 -0.59151362688 0.80628063138 -0.0048138008699 
-0.52320319074 0.85220772582 -0.00064285413375 -0.42228434744 0.9064528418 0.0043789842422 -0.26732099975 0.96354740167 0.010765121301 
-0.031107009509 0.99933867333 0.018830027761 0.2810119236 0.95931365867 0.027378880121 0.58841565939 0.80786520691 0.033478638674 
0.79417971996 0.60663218366 0.035720668331 0.89702061641 0.44052977756 0.035882151945 0.94613968584 0.3217901255 0.03564842236 
0.96731591889 0.25103519304 0.03579448177 0.97634238704 0.21313411328 0.036460842238 0.97885227669 0.20107050906 0.037667901514 
0.97777331781 0.20594668503 0.039310328124 0.97358689743 0.22454452458 0.041331702406 0.96704916385 0.25082453201 0.043623031027 
0.95742534322 0.28496487344 0.046170694842 0.94611584035 0.32011936433 0.048871353745 0.9324970142 0.35745275784 0.051738229705 
0.91711349214 0.39484811027 0.054752281697 0.90162663629 0.42862193247 0.057902053014 0.88481235185 0.46190787427 0.06122268942 
0.86868430699 0.49112042784 0.064717077772 0.8518430488 0.51931159848 0.068402367622 0.83645992861 0.5432388533 0.072293402817 
0.82100239065 0.56579183815 0.076385014419 0.80619161356 0.58612823999 0.080676939199 0.7916754726 0.60497887515 0.085149907282 
0.77815262412 0.62162358931 0.089792019617 0.76468221349 0.63743247028 0.094556640251 0.75235053257 0.65121591455 0.099430924628 
0.73949384256 0.66502890236 0.10433319622 0.7278713636 0.67695229541 0.10926512616 0.71623354547 0.68846318867 0.11414002882 
0.70527148505 0.69889116289 0.11892550108 0.69513673934 0.70817657374 0.123575297 0.68529114969 0.71692969838 0.12801502932 
0.67598093489 0.72496399795 0.13220051943 0.66760063163 0.731975146 0.13609475481 0.65937664501 0.73873536471 0.1396155469 
0.65273386072 0.74401227233 0.14277340681 0.64688566217 0.74857949257 0.14549117973 0.64147746571 0.75278681005 0.14771147417 
0.63763742551 0.75570032386 0.14945077489 0.63312407147 0.75926326738 0.15057622965 0.63312407147 0.75926326738 0.15057622965 

BinormalArray 3 216 double
0.98023620963 0.00081520823025 0.19782898871 0.98023620963 0.00081520823025 0.19782898871 0.98013395084 -0.0021826117212 0.19832466972 
0.9798769546 -0.0087709520406 0.19940968947 0.97968467114 -0.013080858013 0.20011705645 0.97902903797 -0.025412230147 0.20212956579 
0.97799621357 -0.040748990954 0.20460431564 0.97619519585 -0.061702117899 0.20793217221 0.97332943201 -0.08772846784 0.21197531158 
0.96873921982 -0.12040617424 0.21690246006 0.96180874285 -0.15936201197 0.22254817754 0.95095402988 -0.20774096387 0.22919451343 
0.93541088996 -0.26303087313 0.23626516189 0.91214786393 -0.32935254192 0.24395322803 0.87994978248 -0.40310142305 0.25139137425 
0.83520997545 -0.48557363766 0.25815216309 0.77621707457 -0.57289300362 0.2632121949 0.70256074217 -0.66019878966 0.26560489772 
0.61521376703 -0.74262314742 0.26461837005 0.5184746494 -0.81459682106 0.26003087711 0.41747583305 -0.87298092016 0.25222656851 
0.31926094046 -0.91618682039 0.24222750057 0.2275014472 -0.94597062544 0.23104689424 0.14537064847 -0.96467505847 0.21970299528 
0.075112791657 -0.97500635545 0.2090948956 0.015733932282 -0.97976267383 0.19954334453 -0.032585906555 -0.98096673651 0.19142210049 
-0.071712924305 -0.98018321985 0.18465674103 -0.1020903984 -0.97847905531 0.1793217468 -0.12435046189 -0.97661302944 0.17539656028 
-0.13939597566 -0.97505000447 0.1727606748 -0.14776230703 -0.97407199013 0.17131858823 -0.14930580436 -0.97388215987 0.17105939167 
-0.14494626304 -0.97441630707 0.17176565824 -0.13378539626 -0.97570591885 0.17349186626 -0.11645373322 -0.97747374161 0.17602162503 
-0.092410105449 -0.97944633882 0.17929094173 -0.061999368921 -0.98114017239 0.18308479011 -0.025466168388 -0.98199337706 0.18719102991 
0.016337122682 -0.98138972199 0.19133037394 0.062186352845 -0.97878650256 0.19521741706 0.110619784 -0.97381786292 0.19860018441 
0.15878746297 -0.96658924635 0.20122567045 0.20498634742 -0.9574752728 0.20303127677 0.24676065978 -0.94735494628 0.20402887675 
0.28222350875 -0.93732997244 0.20435854246 0.31081728499 -0.92826802811 0.20423291446 0.33182174094 -0.92104764461 0.20387635615 
0.34565101786 -0.91603455828 0.20348479525 0.35262895263 -0.91343074285 0.2032168787 0.3536574363 -0.91304385358 0.20316825343 
0.34983157587 -0.91446965358 0.20337925463 0.34157637941 -0.91747123094 0.20389241628 0.33033180437 -0.92140871916 0.2046628234 
0.31649209961 -0.92602553497 0.20569263348 0.3012408863 -0.9308281069 0.20691293778 0.28464806041 -0.93572103796 0.20833055663 
0.26791406861 -0.94031122572 0.20984959048 0.2511593865 -0.94456526459 0.2114602173 0.23443476729 -0.94847485887 0.21315670758 
0.21882834411 -0.95182212912 0.21482269508 0.20402230521 -0.95473053326 0.21648211897 0.19019091619 -0.95721355198 0.21810463384 
0.17777652947 -0.95925001173 0.21962449901 0.16673978487 -0.96090753277 0.22103067119 0.15682818476 -0.96227317583 0.22234040464 
0.14824010077 -0.96336220484 0.22351316472 0.14067784712 -0.96424851267 0.22457637709 0.13352324602 -0.96502480024 0.22560735295 
0.12521549845 -0.96585232557 0.22682672713 0.11365650078 -0.96687747262 0.2285391712 0.094234974388 -0.96828361924 0.2314013879 
0.050083721712 -0.97005597196 0.23766159151 -0.06651497992 -0.96542414533 0.25205550393 -0.55455531018 -0.78623768272 0.27257790486 
-0.8509493061 0.52496309055 -0.017292541723 -0.61260916873 0.78212976089 -0.1139431591 -0.54983197222 0.82462238615 -0.13297639856 
-0.53878720493 0.83137206149 -0.13612069342 -0.54867679095 0.82533384081 -0.13333353026 -0.56927036462 0.81220954545 -0.12746335257 
-0.59635888261 0.79376381203 -0.11956209203 -0.62581648462 0.77207264643 -0.11071384835 -0.65809864924 0.74616966008 -0.10068270088 
-0.68948054608 0.71861968242 -0.090566708081 -0.71924168345 0.69006674289 -0.080618181291 -0.74778437963 0.66016382635 -0.070726543507 
-0.77301761207 0.63137913987 -0.061677817495 -0.79552907496 0.60356157717 -0.053356475261 -0.81451489798 0.57830348209 -0.046158028179 
-0.83051836138 0.55555495235 -0.039974320822 -0.84281031069 0.53706014087 -0.035173644805 -0.85199247209 0.52260041869 -0.031585279738 
-0.85813054451 0.51259996022 -0.029210432259 -0.86077076972 0.50821036424 -0.028211835665 -0.86027222583 0.50904370949 -0.028393648757 
-0.8565846184 0.51515270059 -0.029672994493 -0.84986082344 0.52604305354 -0.031863562492 -0.83938429938 0.54240860628 -0.035027157789 
-0.8253262026 0.5633138559 -0.038912196726 -0.80777215095 0.58790215774 -0.043303638167 -0.78678803548 0.61535323986 -0.048010180386 
-0.7618237041 0.64561411802 -0.052981642924 -0.73415014559 0.67651983306 -0.057831472438 -0.70341359632 0.70802487814 -0.062530668015 
-0.67083378243 0.73859003829 -0.066834060909 -0.63631163943 0.76818287432 -0.070728842291 -0.60049729932 0.79618341691 -0.07412799848 
-0.56473292069 0.82168033109 -0.076929589802 -0.52823924965 0.84539145379 -0.079224901309 -0.49279166741 0.86637436232 -0.080943417554 
-0.45721158303 0.88555226377 -0.08218732556 -0.42289861529 0.90237247054 -0.082949898084 -0.38878910621 0.91755354494 -0.083297797488 
-0.35564330902 0.93090595474 -0.08325827391 -0.32289601885 0.94279976687 -0.08286591935 -0.29122537715 0.95311961662 -0.082163106777 
-0.25940429774 0.96235348041 -0.08114917781 -0.2283827495 0.97028914274 -0.07987677517 -0.19843845569 0.97697338642 -0.078391208184 
-0.16822540539 0.9827641103 -0.076648003795 -0.13923017845 0.98743435451 -0.074755286984 -0.11163453074 0.99108209872 -0.072759914375 
-0.085218868626 0.99385226642 -0.070678263695 -0.060266724443 0.99582481569 -0.068562806089 -0.039976533703 0.99696964585 -0.066733814592 
-0.022584125523 0.99762419049 -0.06508403661 -0.012790297454 0.99786048812 -0.064115946138 -0.010213177829 0.99790704512 -0.063853115049 
-0.022237042509 0.99763066106 -0.065104362799 -0.056642591767 0.99602785232 -0.068703232897 -0.12469616201 0.98930203119 -0.075712338898 
-0.25719716795 0.96228281207 -0.088664572377 -0.50006781798 0.85905968719 -0.10930979489 -0.83756306431 0.53140844538 -0.1268588881 
-0.99347269995 0.01703259124 -0.11279133514 -0.93853459027 -0.33449282633 -0.085248882647 -0.85938108962 -0.50705490594 -0.066026246035 
-0.80064992322 -0.59667655187 -0.054192184868 -0.76158133101 -0.6463628072 -0.046999975773 -0.73502747958 -0.67671138398 -0.042382862773 
-0.71640923621 -0.69657344784 -0.039284068591 -0.70331331231 -0.70990676271 -0.037185655742 -0.69296110225 -0.7200962076 -0.035585988363 
-0.68513214794 -0.72760512558 -0.034419777468 -0.67906467597 -0.73331138989 -0.033549534929 -0.67343270727 -0.73852168644 -0.032773578315 
-0.66905544542 -0.74251480822 -0.032195815467 -0.66471515545 -0.7464262359 -0.031648640812 -0.66075175629 -0.74995690443 -0.031173034136 
-0.65751261374 -0.75281356299 -0.0308042555 -0.65424028884 -0.75567342025 -0.030452034073 -0.65131696008 -0.75820633983 -0.030155658808 
-0.64872607182 -0.76043403821 -0.029909150407 -0.64621645415 -0.76257657976 -0.029685929008 -0.64421392743 -0.76427546223 -0.029520053241 
-0.64295141363 -0.7653416002 -0.029423030536 -0.6423820712 -0.7658210872 -0.029382596847 -0.64237647756 -0.76582579322 -0.029382231249 
-0.64375004139 -0.76466837714 -0.02946450768 -0.64562712584 -0.7630802068 -0.029567082607 -0.64956822713 -0.75972054419 -0.029762611339 
-0.65427773244 -0.75566013042 -0.029973590563 -0.66175835087 -0.74910570075 -0.030274315004 -0.6708711842 -0.74094227727 -0.030600587648 
-0.68288758317 -0.72986627496 -0.030980145696 -0.69742901553 -0.71596651137 -0.031380294597 -0.71677001424 -0.69658255539 -0.031835361222 
-0.74060317542 -0.67116586963 -0.032300340572 -0.76976257475 -0.63748977804 -0.032746929846 -0.80575301 -0.59132434607 -0.03313011668 
-0.85172263809 -0.5229305337 -0.033349732814 -0.90602523553 -0.42192510145 -0.033128255923 -0.96320559371 -0.26687017754 -0.031863656041 
-0.9991322516 -0.030567514511 -0.028290826738 -0.95930220195 0.28160558172 -0.020918452917 -0.80807137378 0.58899398067 -0.010331776851 
-0.60701179168 0.79469277718 -0.00027323218768 -0.44102110891 0.89747135422 0.0067490635667 -0.32235732094 0.94655001878 0.011349871935 
-0.25165647681 0.96771554813 0.013986979283 -0.21379931157 0.97675632247 0.015392884277 -0.20177318107 0.97930404503 0.015848368987 
-0.20668336754 0.97828262505 0.015655386003 -0.22531167183 0.9741730073 0.014886315156 -0.25162035522 0.96772853904 0.013735776575 
-0.28578595728 0.95821653439 0.012143304109 -0.32096649994 0.94703357001 0.010388609035 -0.35832537993 0.93355906609 0.0083900070801 
-0.39574773544 0.91833807481 0.0062378081449 -0.42955572766 0.90303083398 0.0041460479078 -0.46287986471 0.88641893026 0.0019263761618 
-0.49214237323 0.87051470667 -0.00017304172213 -0.52039137768 0.8539246228 -0.0023563967009 -0.54439410977 0.8388182698 -0.0043547102821 
-0.56703537724 0.82366870032 -0.0063838133894 -0.58747742912 0.80919741659 -0.0083553130396 -0.60645052594 0.79505421015 -0.010322912104 
-0.62323917298 0.78193623192 -0.012192722688 -0.63920842296 0.76890427533 -0.014099907546 -0.65317550865 0.75703990133 -0.015885298286 
-0.66718289879 0.74468127986 -0.017798061481 -0.67932310074 0.7335784436 -0.019565067739 -0.69106062664 0.72248049471 -0.021380951166 
-0.70172763492 0.71206974633 -0.023130126564 -0.71126216785 0.70248985747 -0.02478162096 -0.72026413612 0.69319651219 -0.026422901271 
-0.72854404572 0.68442619293 -0.028006425469 -0.73579615588 0.67656218866 -0.02945542176 -0.74277694565 0.6688252216 -0.030906827291 
-0.74826540398 0.66262295856 -0.03208893882 -0.75301882178 0.6571636921 -0.033144167423 -0.75737587285 0.65208625001 -0.034136633917 
-0.76041296805 0.64850450373 -0.034842885359 -0.764036714 0.64418433578 -0.035699316415 -0.764036714 0.64418433578 -0.035699316415 

