# vtk DataFile Version 4.1
vtk output
ASCII
DATASET POLYDATA
POINTS 278 float
1.42725 1.22495 145.789 1.51455 1.1798 144.699 1.60196 1.13456 143.608 
1.6898 1.089 142.511 1.77841 1.04288 141.406 1.8681 0.995954 140.288 
1.95919 0.947985 139.153 2.05199 0.898736 137.999 2.14679 0.847975 136.822 
2.24389 0.795471 135.619 2.34353 0.741002 134.388 2.44598 0.684348 133.126 
2.55146 0.625301 131.831 2.66017 0.563658 130.503 2.77228 0.499232 129.139 
2.88793 0.431845 127.74 3.00722 0.361335 126.304 3.13024 0.287558 124.834 
3.25699 0.210386 123.328 3.38748 0.129712 121.788 3.52165 0.0454526 120.216 
3.65939 -0.0424558 118.614 3.80056 -0.134051 116.983 3.94497 -0.229347 115.326 
4.09237 -0.328333 113.646 4.2425 -0.43097 111.945 4.39503 -0.537199 110.227 
4.5496 -0.646934 108.495 4.70582 -0.760067 106.751 4.86326 -0.876469 104.999 
5.02147 -0.995992 103.243 5.17998 -1.11847 101.485 5.33828 -1.24372 99.7284 
5.49588 -1.37156 97.9757 5.65226 -1.50179 96.2297 5.80692 -1.63419 94.4929 
5.95935 -1.76858 92.7675 6.10905 -1.90474 91.0556 6.25557 -2.04248 89.3588 
6.39845 -2.18162 87.6787 6.53727 -2.32197 86.0164 6.67165 -2.46338 84.3729 
6.80125 -2.60572 82.7489 6.92579 -2.74885 81.1448 7.04501 -2.89269 79.5609 
7.15872 -3.03715 77.9969 7.26678 -3.18219 76.4527 7.36909 -3.32778 74.9278 
7.46562 -3.47391 73.4215 7.55638 -3.62059 71.9331 7.64144 -3.76786 70.4617 
7.72089 -3.91577 69.0064 7.79487 -4.06437 67.5661 7.86356 -4.21375 66.1397 
7.92715 -4.36398 64.7263 7.98587 -4.51514 63.3249 8.03993 -4.66733 61.9343 
8.08956 -4.82063 60.5538 8.135 -4.97511 59.1824 8.17646 -5.13086 57.8193 
8.21412 -5.28796 56.4638 8.24817 -5.44648 55.115 8.27873 -5.60648 53.7724 
8.30593 -5.76804 52.4352 8.32981 -5.93122 51.1026 8.35042 -6.0961 49.774 
8.36773 -6.26276 48.4484 8.38168 -6.43129 47.1249 8.39218 -6.60179 45.8023 
8.39907 -6.77438 44.4795 8.40218 -6.94921 43.1551 8.40129 -7.12642 41.8275 
8.39614 -7.30618 40.4951 8.38646 -7.48869 39.1559 8.37194 -7.67414 37.808 
8.35228 -7.86275 36.4495 8.32713 -8.05473 35.0781 8.29617 -8.25029 33.6919 
8.25905 -8.44965 32.2887 8.21546 -8.65298 30.8669 8.16509 -8.86044 29.4245 
8.10764 -9.07216 27.9603 8.04285 -9.28823 26.473 7.97049 -9.50868 24.9618 
7.89039 -9.73348 23.4264 7.80239 -9.96256 21.8667 7.70642 -10.1958 20.2834 
7.60243 -10.4329 18.6772 7.49045 -10.6736 17.0498 7.37059 -10.9176 15.4028 
7.24299 -11.1645 13.7387 7.10787 -11.4138 12.0601 6.96551 -11.6651 10.3701 
6.81627 -11.9177 8.6718 6.66053 -12.1711 6.96882 6.49875 -12.4247 5.26473 
6.33141 -12.678 3.5632 6.15905 -12.9304 1.86785 5.9822 -13.1813 0.182233 
5.80144 -13.4302 -1.49031 5.61733 -13.6766 -3.14666 5.43042 -13.9201 -4.78401 
5.24126 -14.1603 -6.3999 5.05035 -14.3968 -7.99225 4.85816 -14.6295 -9.55943 
4.66513 -14.8581 -11.1002 4.47162 -15.0825 -12.6138 4.27796 -15.3026 -14.0999 
4.08442 -15.5185 -15.5585 3.89119 -15.7301 -16.9901 3.69842 -15.9376 -18.3955 
3.50623 -16.1411 -19.7757 3.31465 -16.3408 -21.1321 3.1237 -16.5368 -22.4661 
2.93335 -16.7294 -23.7793 2.74354 -16.9187 -25.0735 2.55421 -17.1049 -26.3503 
2.36527 -17.2884 -27.6114 2.17663 -17.4691 -28.8582 1.9882 -17.6473 -30.0923 
1.7999 -17.8231 -31.3148 1.61166 -17.9965 -32.5269 1.42342 -18.1678 -33.7293 
1.23516 -18.3368 -34.9227 1.04683 -18.5036 -36.1075 0.858452 -18.6682 -37.2841 
0.670022 -18.8305 -38.4525 0.481567 -18.9905 -39.6126 0.293119 -19.1481 -40.7644 
0.104717 -19.3032 -41.9074 -0.0835983 -19.4557 -43.0416 -0.271792 -19.6056 -44.1666 
-0.459836 -19.7527 -45.2822 -0.647715 -19.897 -46.3883 -0.835432 -20.0384 -47.4849 
-1.02301 -20.1771 -48.5721 -1.21049 -20.3128 -49.6502 -1.39795 -20.4458 -50.7196 
-1.58547 -20.576 -51.7809 -1.7732 -20.7036 -52.8351 -1.96126 -20.8287 -53.8831 
-2.14982 -20.9513 -54.926 -2.33908 -21.0718 -55.9651 -2.5292 -21.1902 -57.0017 
-2.7204 -21.3069 -58.0372 -2.91285 -21.4219 -59.073 -3.10674 -21.5355 -60.1105 
-3.30221 -21.6479 -61.1509 -3.4994 -21.7592 -62.1954 -3.69837 -21.8698 -63.2448 
-3.89919 -21.9797 -64.3 -4.10182 -22.0892 -65.3614 -4.3062 -22.1982 -66.4292 
-4.51222 -22.3069 -67.5035 -4.71967 -22.4155 -68.5837 -4.92832 -22.5238 -69.6694 
-5.13787 -22.632 -70.7596 -5.34799 -22.7399 -71.8532 -5.5583 -22.8477 -72.9491 
-5.76839 -22.9551 -74.0456 -5.97785 -23.0622 -75.1414 -6.18625 -23.1688 -76.2349 
-6.39319 -23.2748 -77.3246 -6.59828 -23.3802 -78.4091 -6.80118 -23.4848 -79.4872 
-7.00158 -23.5885 -80.5579 -7.19923 -23.6913 -81.6203 -7.39397 -23.7931 -82.674 
-7.58569 -23.8937 -83.7188 -7.77435 -23.9933 -84.7548 -7.96001 -24.0916 -85.7827 
-8.14278 -24.1888 -86.8031 -8.32286 -24.2848 -87.8172 -8.5005 -24.3797 -88.8264 
-8.67601 -24.4734 -89.8325 -8.84976 -24.5661 -90.8373 -9.02212 -24.6577 -91.8428 
-9.19353 -24.7484 -92.8512 -9.36442 -24.8382 -93.8646 -9.53521 -24.9272 -94.8853 
-9.70632 -25.0153 -95.9154 -9.87815 -25.1028 -96.957 -10.0511 -25.1895 -98.0118 
-10.2254 -25.2756 -99.0816 -10.4014 -25.361 -100.168 -10.5794 -25.4458 -101.272 
-10.7595 -25.53 -102.394 -10.9417 -25.6135 -103.536 -11.1263 -25.6962 -104.697 
-11.3131 -25.7782 -105.878 -11.5022 -25.8594 -107.078 -11.6934 -25.9397 -108.298 
-11.8866 -26.019 -109.535 -12.0815 -26.0973 -110.79 -12.2781 -26.1745 -112.061 
-12.476 -26.2504 -113.346 -12.6749 -26.3251 -114.644 -12.8746 -26.3983 -115.954 
-13.0747 -26.47 -117.273 -13.2751 -26.5402 -118.599 -13.4752 -26.6088 -119.932 
-13.675 -26.6756 -121.268 -13.874 -26.7407 -122.605 -14.0721 -26.8039 -123.943 
-14.269 -26.8653 -125.279 -14.4644 -26.9247 -126.612 -14.6583 -26.9823 -127.939 
-14.8504 -27.0379 -129.261 -15.0406 -27.0915 -130.575 -15.2288 -27.1433 -131.88 
-15.415 -27.1932 -133.177 -15.5991 -27.2412 -134.463 -15.7811 -27.2874 -135.739 
-15.9611 -27.3318 -137.005 -16.1389 -27.3746 -138.26 -16.3148 -27.4158 -139.504 
-16.4887 -27.4555 -140.738 -16.6608 -27.4938 -141.963 -16.8311 -27.5307 -143.177 
-16.9997 -27.5665 -144.383 -17.1667 -27.6011 -145.58 -17.3322 -27.6348 -146.769 
-17.4962 -27.6675 -147.95 -17.6589 -27.6995 -149.125 -17.8202 -27.7307 -150.292 
-17.9803 -27.7614 -151.454 -18.1392 -27.7916 -152.609 -18.2969 -27.8213 -153.759 
-18.4534 -27.8507 -154.903 -18.6086 -27.8799 -156.041 -18.7627 -27.9089 -157.174 
-18.9155 -27.9378 -158.3 -19.067 -27.9665 -159.421 -19.2171 -27.9953 -160.535 
-19.3658 -28.0241 -161.643 -19.5129 -28.0529 -162.743 -19.6584 -28.0818 -163.835 
-19.8022 -28.1108 -164.919 -19.9441 -28.1399 -165.994 -20.0841 -28.1691 -167.059 
-20.222 -28.1985 -168.114 -20.3577 -28.2279 -169.158 -20.4911 -28.2575 -170.191 
-20.622 -28.2871 -171.212 -20.7504 -28.3168 -172.221 -20.8761 -28.3465 -173.217 
-20.9991 -28.3763 -174.199 -21.1191 -28.406 -175.169 -21.236 -28.4357 -176.125 
-21.3499 -28.4652 -177.067 -21.4604 -28.4946 -177.996 -21.5677 -28.5237 -178.911 
-21.6714 -28.5524 -179.813 -21.7716 -28.5808 -180.701 -21.8681 -28.6087 -181.577 
-21.9608 -28.636 -182.44 -22.0496 -28.6626 -183.291 -22.1345 -28.6885 -184.13 
-22.2152 -28.7134 -184.958 -22.2918 -28.7374 -185.775 -22.3641 -28.7602 -186.582 
-22.4321 -28.7817 -187.379 -22.4957 -28.802 -188.166 -22.5549 -28.8208 -188.945 
-22.6097 -28.838 -189.715 -22.6601 -28.8537 -190.478 -22.7061 -28.8677 -191.233 
-22.7478 -28.8799 -191.981 -22.7853 -28.8905 -192.723 -22.8189 -28.8994 -193.459 
-22.8488 -28.9066 -194.191 -22.8751 -28.9123 -194.917 -22.8983 -28.9165 -195.639 
-22.9187 -28.9194 -196.358 -22.9367 -28.9212 -197.074 -22.9527 -28.9221 -197.787 
-22.9673 -28.9222 -198.499 -22.9811 -28.9219 -199.21 
LINES 1 279
278 277 276 275 274 273 272 271 270 269 268 267 266 265 264 263 262 261 260 259 258 257 256 255 254 253 252 251 250 249 248 247 246 245 244 243 242 241 240 239 238 237 236 235 234 233 232 231 230 229 228 227 226 225 224 223 222 221 220 219 218 217 216 215 214 213 212 211 210 209 208 207 206 205 204 203 202 201 200 199 198 197 196 195 194 193 192 191 190 189 188 187 186 185 184 183 182 181 180 179 178 177 176 175 174 173 172 171 170 169 168 167 166 165 164 163 162 161 160 159 158 157 156 155 154 153 152 151 150 149 148 147 146 145 144 143 142 141 140 139 138 137 136 135 134 133 132 131 130 129 128 127 126 125 124 123 122 121 120 119 118 117 116 115 114 113 112 111 110 109 108 107 106 105 104 103 102 101 100 99 98 97 96 95 94 93 92 91 90 89 88 87 86 85 84 83 82 81 80 79 78 77 76 75 74 73 72 71 70 69 68 67 66 65 64 63 62 61 60 59 58 57 56 55 54 53 52 51 50 49 48 47 46 45 44 43 42 41 40 39 38 37 36 35 34 33 32 31 30 29 28 27 26 25 24 23 22 21 20 19 18 17 16 15 14 13 12 11 10 9 8 7 6 5 4 3 2 1 0 

CELL_DATA 1
FIELD FieldData 2
LengthArray 1 1 double
349.21194087 
TortuosityArray 1 1 double
0.0058736700621 
POINT_DATA 278
FIELD FieldData 8
RadiusArray 1 278 double
74.800314662 74.712875321 74.495920162 74.450291197 74.439046297 74.375100331 74.192473972 74.179448547 74.119010686 
74.041059298 73.931032362 73.842253542 73.630418748 73.37921878 73.366723112 73.22976829 73.028431432 72.687382914 
72.300064979 72.062199987 71.709297968 71.433108292 71.430548145 71.039916103 71.012194777 70.60425766 70.451129238 
69.913407514 69.67696793 69.672142227 69.237476309 69.149523126 68.842960935 68.436779851 68.40517116 67.915962339 
67.482976834 67.440358574 67.319055875 66.847856578 66.791244579 66.661572194 66.402213503 66.388461691 66.001436651 
65.83214825 65.713186792 65.256546582 65.254290717 65.002412625 64.949450276 64.79842544 64.760263123 64.437870126 
64.338232363 64.084471555 64.077289794 63.868728812 63.839054868 63.607492082 63.447653366 63.008496428 62.989929698 
62.983649438 62.479067242 62.070348462 62.017607464 61.86499008 61.846491115 61.796416492 61.641344035 61.511602404 
61.509479173 61.281079978 61.097595066 61.093499257 61.051436414 61.032284064 60.918832412 60.898685512 60.505349314 
60.438015268 60.184430428 60.060958871 59.947619237 59.806992182 59.781586905 59.503230454 59.374562519 58.903225314 
58.740311994 58.409879071 58.40810271 57.985573329 57.822133534 57.504121584 57.348113784 57.201257847 57.196266677 
56.779731522 56.619834276 56.48412399 56.235159258 56.154116352 56.124908101 56.068414096 55.932365123 55.868541539 
55.761934492 55.745872488 55.618448918 55.59080329 55.562312101 55.559097069 55.479400222 55.447742282 55.364130759 
55.322074418 55.261388837 55.199322757 55.158087939 55.133967463 55.075262405 55.058439193 54.984876629 54.97050137 
54.967906288 54.908653728 54.883664557 54.844101627 54.813101691 54.812454985 54.79217949 54.77085733 54.737938814 
54.713530166 54.696725184 54.688572716 54.685401069 54.682461113 54.657071662 54.654462792 54.654414116 54.646819154 
54.645749809 54.640472473 54.632463483 54.622934567 54.607983604 54.602301361 54.599296445 54.583789754 54.582751797 
54.574436601 54.591069181 54.591499453 54.574896724 54.537118018 54.481127325 54.477231957 54.467134275 54.453545829 
54.440285646 54.442891512 54.444551144 54.453424622 54.465689993 54.469693414 54.470258146 54.471645628 54.471724945 
54.472899455 54.470627128 54.478858147 54.498205475 54.503861212 54.504651244 54.506840081 54.554245194 54.556599937 
54.558787658 54.558171938 54.552222248 54.519697866 54.519365454 54.519365524 54.519367195 54.527501788 54.518465744 
54.519418608 54.448377626 54.426111115 54.316091636 54.301985368 54.296177037 54.241582725 54.184448879 54.138999033 
54.089803358 54.01582502 53.959539878 53.913146834 53.820429349 53.789218268 53.634180762 53.565152707 53.561871936 
53.494985417 53.458520377 53.392073566 53.323050582 53.192949867 53.089905275 53.066564251 52.963424736 52.876080634 
52.77452468 52.669303573 52.538468034 52.509168795 52.372590084 52.314242654 52.148764235 52.109860379 51.861191871 
51.817966936 51.68197801 51.673679016 51.475131211 51.267825074 51.05494394 50.991320082 50.874984705 50.748705358 
50.577699641 50.486383383 50.098705593 50.054866281 49.838568176 49.759064847 49.481008383 49.384065595 49.074245741 
48.91175965 48.79854937 48.490205203 48.485299948 48.344133844 48.095943141 47.877810362 47.860333574 47.581146717 
47.354224085 47.305656257 47.032117046 46.692879637 46.691321641 46.625406698 46.514753115 46.047385948 46.005275595 
45.677712037 45.651402546 45.317435056 45.144692602 44.945042518 44.688658336 44.425135958 44.413265269 44.177489387 
43.999812265 43.325340415 43.12735703 42.903303171 42.812560398 42.561877735 41.8787111 40.756237958 
EdgeArray 2 278 int
7685 7685 10570 10570 10104 10102 7323 10102 7323 
9371 9371 1489 11465 9368 11465 11462 11463 11463 
10950 10952 10951 10953 6552 6552 10504 10504 10511 
10511 10510 10510 10513 10513 10515 10515 7606 7606 
10080 10080 10084 10084 7897 6669 8971 8971 8643 
8972 8649 8644 8649 8636 8638 8638 8633 6399 
5117 5117 7911 7911 8198 8198 8203 8203 8220 
8206 2756 2756 6183 6183 6189 6189 8207 8207 
8209 8209 5542 5881 9364 5499 8248 5499 8248 
8250 8250 8250 8251 8251 8663 8661 7309 7309 
9359 9359 9357 9357 9736 8230 10089 8230 8656 
8231 8656 8658 8653 8659 8653 7921 8241 8241 
8240 8240 6714 7924 7930 7924 7925 7928 7929 
7928 6710 7037 7042 7042 7318 7048 7047 7048 
5941 7047 6497 6497 7936 6498 6407 6498 7234 
7239 6679 7239 7241 6679 8670 8670 7542 7286 
7587 7542 7843 7843 8672 7867 7867 8954 7866 
7868 7868 7868 8961 8961 8607 8963 9331 9331 
9329 9329 7541 7541 7559 9324 6678 6678 8614 
8614 10048 10048 10899 10899 5849 10897 11855 11855 
9964 9964 10904 10470 10904 10902 10907 10907 11356 
12241 11357 11357 4340 4340 11353 11353 6001 6001 
8597 8597 11281 9284 11280 11280 11810 11810 12232 
11816 12232 12231 12230 12231 9320 9320 13021 13021 
12185 12185 13917 12184 13901 11808 13901 13904 13905 
13905 12176 13908 13471 13909 11823 11823 8167 8167 
819 819 14392 14392 7841 15723 15276 14785 14784 
15279 15280 15280 15278 15278 16204 16204 10866 10866 
14787 15303 13034 13034 15754 15754 15760 15760 16583 
16583 16587 16582 16586 16586 15659 15659 15653 15653 
10793 10793 13928 1925 12205 15291 13922 13932 16960 
16156 16474 16152 16474 16476 16473 16475 1206 13934 
16146 17418 17420 17418 17420 17419 17423 17416 16145 
16144 18343 15184 17413 12190 19202 15665 19202 19201 
19210 19212 19207 19207 17927 17931 20499 20499 21917 
15171 20353 20353 19217 19785 21387 21387 20352 20352 
20834 20834 14407 14407 20952 20952 23050 23050 23051 
23051 19807 20479 19807 19807 24324 24323 24323 24323 
24328 24322 17065 20502 17065 23719 23719 23719 23084 
23718 14415 23718 14415 14415 22644 19232 23872 22644 
23077 23872 23077 23077 20539 20539 19980 19980 25528 
25528 25529 25528 25529 25529 25511 25511 25676 19969 
25676 19191 26163 26163 22090 24335 25469 25469 22193 
22193 29362 29361 29355 29355 19966 19966 29343 29343 
21597 21597 25074 25074 32360 32360 32357 32357 30920 
30920 30921 30921 27519 27519 33017 33017 33013 33013 
35040 35040 35046 35046 35049 35049 31215 31215 34544 
34544 31227 31227 30131 26126 36003 36003 36002 29661 
36015 36015 32948 32948 25426 25426 35404 35404 32008 
32008 35943 35943 32603 32603 31198 31198 32987 32987 
34978 34978 34700 24846 35423 37796 36879 36879 37108 
37108 36873 35648 37328 36873 37348 37348 37349 37349 
22411 22411 40000 40000 39993 39993 37320 40381 40383 
40383 40384 40384 37093 37093 39545 39545 39973 39973 
39975 39975 40352 40352 39809 39809 41470 39990 35655 
39986 38292 38292 39769 40822 41482 39748 40575 40575 
40573 40573 40132 40132 40786 40786 41713 41714 41713 
41715 41323 41323 42329 42329 41150 41150 40790 40790 
39790 39790 42557 42557 42957 42957 43573 43573 43872 
43872 41313 41313 39199 39199 43903 43903 44211 44211 
43616 43616 44597 44597 44919 44919 45572 45573 49635 
49635 47789 47789 50487 50487 50683 50683 
EdgePCoordArray 1 278 double
0 0 0.176 0.016 0.156 0.092 0.056 0.168 0 
0.924 0.304 0 0 0 0 0 0 0 
0 0 0.136 0 0.996 0.98 0.816 0 0.128 
0 0 0 0 0.376 0 0 0 0 
0 0.576 0.028 0.06 0.272 0 0 0.984 0 
0 0 0.98 0.988 0.036 0.256 0.796 0.66 0 
0 0.976 0.948 0.812 0.644 0.472 0 0.936 0.276 
0.996 0 0.808 0.848 0.508 0.308 0.456 0 0.012 
0.972 0 0.948 0.076 0.692 0 0 0.976 0 
0 0 0.956 0 0 0 0 0.82 0 
0 0.232 0.368 0 0.356 0 0 0 0 
0 0.488 0 0 0.176 0.416 0.288 0 0 
0 0.952 0.364 0.648 0 0.976 0.256 0 0 
0 0 0.004 0.972 0.388 0 0 0 0 
0.924 0 0 0 0 0.972 0 0 0 
0 0.496 0.704 0.572 0.62 0.584 0.912 0.908 0.552 
0.688 0.636 0.488 0.524 0.7 0.672 0.7 0.116 0.576 
0.348 0 0.024 0 0.136 0 0.704 0 0 
0 0 0 0 0 0.548 0 0.772 0 
0.044 0.124 0.368 0 0.88 0.944 0 0.728 0.756 
0.38 0 0 0 0 0.96 0 0 0.036 
0.06 0 0.284 0 0 0.12 0 0 0 
0 0 0 0 0 0 0 0 0 
0 0 0 0 0 0 0.032 0 0.444 
0 0 0 0 0 0 0 0 0 
0 0.444 0.392 0 0 0.132 0.456 0 0 
0 0 0 0.1 0 0 0 0 0 
0 0 0 0.972 0.04 0 0.784 0.14 0 
0 0 0 0.016 0.092 0 0 0 0 
0 0 0 0 0 0 0 0 0 
0 0 0 0.508 0 0 0 0 
CurvatureArray 1 278 double
0 2.2878112674e-05 9.2334081693e-05 0.00015996180537 0.00022496386752 0.00028729888778 0.00034699398204 0.00040374803271 0.00045864953876 
0.00050944862226 0.00055784662958 0.0006033858552 0.00064630690391 0.0006856481338 0.00072118178537 0.00075437894781 0.00078320719563 0.0008091640767 
0.00083061210659 0.00084962586371 0.00086484750187 0.00087709371182 0.00088648499868 0.00089299393988 0.0008970514357 0.0008994670459 0.00090027158171 
0.00090049836128 0.00090062326152 0.00090175311547 0.00090586850614 0.00091349468403 0.0009273292706 0.00094882226969 0.00097974031952 0.0010217844784 
0.0010760539105 0.0011433166926 0.0012231243197 0.0013146425426 0.0014166088474 0.0015269014388 0.0016423579031 0.0017614231615 0.0018796035584 
0.0019944834155 0.0021019907619 0.0021993432932 0.0022836374527 0.0023526105793 0.0024038996263 0.0024379552333 0.002453646954 0.0024526664322 
0.0024363864224 0.0024080523069 0.0023702215796 0.0023278674809 0.0022823517284 0.0022404554673 0.0022030824274 0.0021734536224 0.002155642035 
0.0021494715128 0.002156638944 0.0021783199635 0.0022155167797 0.0022657115652 0.0023299754977 0.0024053202329 0.0024890236309 0.002577860958 
0.0026667223788 0.0027529026867 0.0028291681432 0.0028930732372 0.0029410814013 0.0029705202671 0.002979546926 0.0029686558664 0.0029404801499 
0.0028949602385 0.002836215218 0.0027669122816 0.0026900117802 0.0026092761561 0.0025262216085 0.002443831596 0.0023638502174 0.0022873933602 
0.0022150330249 0.0021479500736 0.0020860012745 0.0020291726042 0.0019774968644 0.0019304011785 0.0018874777085 0.0018486025539 0.0018125906288 
0.0017795706815 0.0017484965031 0.0017193809625 0.0016907349862 0.0016630744206 0.0016347840672 0.001606257608 0.0015761619115 0.0015444924244 
0.0015113223539 0.0014755386664 0.0014382773297 0.0013990195868 0.0013588393748 0.0013181996286 0.0012780653263 0.0012405808274 0.0012063056891 
0.0011773290012 0.001154175392 0.0011387875374 0.0011324274703 0.0011342545652 0.0011463995761 0.0011657560395 0.0011952711489 0.0012316363236 
0.0012744487819 0.0013255497169 0.0013819616561 0.0014430440812 0.0015057467194 0.0015739786055 0.0016416879341 0.0017080362657 0.0017743625814 
0.0018334456548 0.0018876499703 0.0019317796845 0.0019654570839 0.0019830881006 0.0019864104516 0.0019737723301 0.001939103005 0.00188793668 
0.0018184087583 0.0017310914217 0.0016287789255 0.0015135209424 0.0013866403044 0.0012555080238 0.0011205189839 0.00098325845194 0.00085035043815 
0.00072256633424 0.00060671171022 0.00050486689932 0.00043056590005 0.00039396100059 0.00039971176829 0.00044300577849 0.00051715108623 0.00060334996734 
0.00069830013757 0.00080110938266 0.00090212155739 0.0010029052762 0.0011016516421 0.001199528126 0.0012902658419 0.0013765381594 0.0014545963068 
0.0015260345119 0.0015881687652 0.0016469163336 0.0016948905665 0.0017345348807 0.0017685181955 0.0017961746932 0.0018163888627 0.001829797399 
0.0018362215237 0.0018307389018 0.0018212718855 0.0018010071352 0.0017739468136 0.0017413775375 0.0017014301007 0.0016600987382 0.0016164858806 
0.0015684890445 0.0015229581147 0.0014799627276 0.0014341134518 0.0013932029174 0.0013531427295 0.0013176480415 0.0012830246381 0.0012502400693 
0.0012205921452 0.0011923722363 0.0011669255415 0.001142246579 0.0011182656375 0.0010975650811 0.0010752615335 0.0010538462771 0.0010358466069 
0.0010129836173 0.00099435992951 0.00097289136793 0.00094790267692 0.00092640746054 0.00089741584924 0.00087205691411 0.00083798577336 0.00080699661357 
0.00076776670314 0.00072905306247 0.00068399929222 0.00063995129967 0.0005955646039 0.00054744298253 0.00049883591395 0.00045820119479 0.00041459753614 
0.0003853845201 0.00035564323331 0.00033760838277 0.00033478957934 0.00034037418352 0.00035491830957 0.00037895568576 0.00040705224987 0.00044085697683 
0.00048228317455 0.00052424504155 0.00056828283627 0.0006193916656 0.00067072006303 0.00072822772096 0.00078738702616 0.00085977520715 0.00093213661845 
0.0010157273219 0.0011151574085 0.0012221154352 0.0013430567761 0.0014874685637 0.0016470590832 0.0018310935969 0.0020379414729 0.0022701429827 
0.0025347490495 0.0028266753009 0.0031455894949 0.0034965202905 0.0038673742394 0.0042685199556 0.0046779996738 0.0051030760325 0.0055275402187 
0.005931991599 0.006329494412 0.0066858539982 0.0069855516179 0.0072243372951 0.0073726987051 0.0074235894748 0.0073602704649 0.0071649242085 
0.0068390521622 0.0063640296199 0.0057444193273 0.0049792881048 0.004092050056 0.00307432975 0.0019794311668 0 
TorsionArray 1 278 double
0 0 -0.0082121324675 -0.0076892255987 -0.011616973833 -0.01581780002 -0.018378525223 -0.020851164334 -0.020611424627 
-0.019605104319 -0.018747478196 -0.016849725721 -0.01431090703 -0.011371840303 -0.0088175517182 -0.0059861779782 -0.0031828652757 -0.00038729358531 
0.0022760871341 0.004786878632 0.0075211120495 0.010094476712 0.01285680973 0.015823847819 0.018847126031 0.022053539997 0.025685675214 
0.029614566402 0.033778433343 0.038030913745 0.042481281435 0.046913444782 0.050365253765 0.053384575486 0.055247453505 0.055435219317 
0.05411298551 0.051660701861 0.04805386073 0.043730742855 0.039125548208 0.034387874804 0.029865196107 0.025581936184 0.021365331572 
0.017549828142 0.013993633452 0.010439581625 0.0074118786427 0.0043279682274 0.001385511974 -0.001258225631 -0.0040292754591 -0.0064299937857 
-0.0086466145776 -0.010709394528 -0.01223400003 -0.013254211814 -0.0134802259 -0.012810858772 -0.011199996497 -0.0083761661703 -0.0047771883201 
-0.00040901622386 0.0046971589318 0.009865874293 0.014540382693 0.01858530371 0.021905524381 0.024047661373 0.025084339516 0.025289880154 
0.024764280357 0.023719100806 0.022230308082 0.020648936158 0.018994626731 0.017254984859 0.015722149052 0.014162825568 0.012859305673 
0.011708346883 0.010498315739 0.0095632816026 0.0088016204725 0.0080242599156 0.0072508516899 0.0066769885827 0.0062002815231 0.005739708627 
0.0052165369742 0.0048193459109 0.0044859374504 0.0041071945769 0.0037568686552 0.0034843749787 0.0032078817585 0.0028923622337 0.002795735596 
0.0026957220344 0.002485750049 0.0024301561411 0.0027254670179 0.0030619247603 0.0033452410692 0.0039495548283 0.005104944199 0.0063580120227 
0.0079739791956 0.0099389682972 0.012191044439 0.015269865657 0.018432262371 0.021855169714 0.025998818544 0.029772005081 0.033327051245 
0.036335055867 0.03855167477 0.039998668292 0.03972709992 0.039032173941 0.036645835753 0.033290218425 0.029805356367 0.025513591207 
0.02186905503 0.019057926879 0.016425997501 0.013157403086 0.011309110742 0.010781453291 0.0091305366034 0.0083958960286 0.0082180798196 
0.0082286638819 0.0082053309082 0.0083800006184 0.0085301563474 0.0084137591975 0.0096001431515 0.0098155275395 0.0097516531564 0.011199249041 
0.011938123983 0.013173424643 0.01479220367 0.016821034856 0.021075038727 0.025519757582 0.032589175006 0.04365232163 0.059194392491 
0.08370175996 0.11952163305 0.17201445126 0.23564993198 0.27530138722 0.25817495284 0.19494808867 0.130457124 0.083973661857 
0.048679600259 0.023772286706 0.0073663971342 -0.0060653572345 -0.019479283883 -0.02899275903 -0.036300033354 -0.044859392184 -0.052599777965 
-0.058062725956 -0.064110944679 -0.069648777709 -0.071888167263 -0.072711428872 -0.07250908511 -0.07005049544 -0.066196779385 -0.061108746597 
-0.054362003696 -0.046927422028 -0.039932266117 -0.032180986832 -0.02507118183 -0.019038869328 -0.012900477202 -0.0071112262882 -0.0024871992494 
0.0008748710386 0.0044395830442 0.0066582159378 0.0080768435846 0.0098293389158 0.0099110245689 0.0095436249299 0.0097342023761 0.0083167440134 
0.0072119115635 0.0056248141843 0.0036945356397 0.0025191837767 0.00034555378356 -0.0014939619669 -0.0031523117108 -0.0050363559252 -0.0064155750558 
-0.0073165577544 -0.007954064908 -0.0087830616333 -0.0082973021206 -0.0075208164783 -0.0066745097399 -0.0051359348047 -0.002321488362 0.00094963322182 
0.0042381740957 0.0091690307974 0.014058135134 0.024209852445 0.032451615687 0.039725327178 0.056902923459 0.071227060182 0.091314475099 
0.10735137202 0.12708581765 0.14354829401 0.138808438 0.1340227598 0.12062201165 0.098757034958 0.077157036633 0.06125254466 
0.04314762234 0.03254019934 0.019759716534 0.0092451631335 0.0025257153919 -0.0090943689428 -0.014811483489 -0.019339011804 -0.027669984643 
-0.035249288289 -0.037927249167 -0.041634357372 -0.046037592534 -0.048089305743 -0.051740695961 -0.051729553455 -0.050789204733 -0.051216685973 
-0.049817406343 -0.048404717728 -0.046239395887 -0.043634934823 -0.041582326926 -0.038950474724 -0.036606442581 -0.034144528472 -0.031182852819 
-0.029174396482 -0.027022191787 -0.024580266777 -0.022391019758 -0.020345851804 -0.018753898648 -0.016624010696 -0.014908901233 -0.013678800948 
-0.011514568468 -0.010201697525 -0.0086088205561 -0.0073140796488 -0.0068704551335 -0.0042976100717 0 0 
TangentArray 3 278 double
-0.079763076925 0.041268788193 0.99595920533 -0.079763076925 0.041268788193 0.99595920533 -0.079776462617 0.041330596369 0.9959555702 
-0.079807212844 0.041466287531 0.99594746637 -0.079856148143 0.041674589611 0.99593484937 -0.079925474202 0.04195408312 0.99591755356 
-0.080018674147 0.04230352444 0.99589528747 -0.080139646538 0.042721731156 0.99586770745 -0.080293136248 0.043207922824 0.99583436759 
-0.08048283712 0.043760957158 0.99579490436 -0.080711695445 0.044379535039 0.99574900406 -0.08098291179 0.045062892157 0.99569629092 
-0.081298444338 0.045810356976 0.99563646686 -0.081658804589 0.046621024483 0.9955693445 -0.082062786762 0.047493473605 0.99549488647 
-0.082508889679 0.048426852488 0.99541304145 -0.082993961495 0.049420041027 0.99532389799 -0.083513487271 0.050471523837 0.99522767381 
-0.084061617987 0.05157951844 0.99512471463 -0.084631658139 0.052742237937 0.9950154465 -0.085216244509 0.053957913311 0.99490036449 
-0.085806374973 0.055224205656 0.99478015316 -0.086392725539 0.056538765006 0.99465555094 -0.086964793095 0.057898837312 0.9945274503 
-0.087511097554 0.059301366669 0.99439688038 -0.088019913609 0.060743337075 0.99426492536 -0.088478966228 0.062221428479 0.994132771 
-0.088875000277 0.063732155425 0.99400173375 -0.08919424388 0.065271869804 0.9938732162 -0.089422599638 0.06683644238 0.99374870498 
-0.089546166741 0.068422239556 0.9936296499 -0.089550435084 0.070025288001 0.99351757841 -0.089420593517 0.07164153331 0.99341403662 
-0.089143401746 0.073267533565 0.99332035238 -0.088705013922 0.074899390876 0.99323788779 -0.088092185256 0.076533460321 0.9931678591 
-0.087293532397 0.078166539343 0.9931111878 -0.086299067859 0.079796079475 0.99306850549 -0.085100190906 0.081419514892 0.99304019058 
-0.083690869914 0.083034739546 0.99302621835 -0.082067926727 0.084640414113 0.99302611028 -0.080230835384 0.086235630651 0.99303898668 
-0.078183200089 0.087819823433 0.99306347523 -0.075931616899 0.089392974528 0.99309782281 -0.073486504391 0.090955399534 0.99313989396 
-0.07086298767 0.092508367802 0.99318711171 -0.068079676487 0.094053248791 0.99323670091 -0.065158869395 0.09559145695 0.99328575702 
-0.062126222279 0.097125890593 0.99333121056 -0.059008903377 0.098658113459 0.99337028643 -0.055836378736 0.10019045649 0.99340030765 
-0.052638103898 0.1017254927 0.99341892178 -0.049442283843 0.10326481313 0.99342429955 -0.046276115772 0.1048108141 0.99341492558 
-0.043163121141 0.10636467617 0.99338990363 -0.040122811313 0.10792729685 0.99334881014 -0.0371701523 0.10949972579 0.99329159356 
-0.034313972396 0.11108216221 0.99321865898 -0.031557993698 0.11267419131 0.99313071629 -0.028899405609 0.11427478195 0.99302875012 
-0.026329177454 0.11588262592 0.99291388923 -0.023834245389 0.11749529087 0.99278738175 -0.021395206143 0.11910996619 0.99265052315 
-0.018989291026 0.12072386551 0.9925044862 -0.016591592344 0.12233307675 0.99235041059 -0.014174215764 0.12393259064 0.99218939955 
-0.01170789091 0.12551734718 0.99202233888 -0.0091649154513 0.12708178721 0.99184989978 -0.006519222238 0.12861976799 0.99167255434 
-0.0037466027366 0.13012434587 0.99149060388 -0.00082774437715 0.13158836307 0.99130409943 0.0022517344764 0.1330049489 0.99111281561 
0.005500335522 0.13436682985 0.99091639473 0.0089209856002 0.13566730115 0.99071428748 0.012509870787 0.13689987678 0.99050589441 
0.016256383622 0.13805921727 0.99029055459 0.020145710307 0.13914088827 0.99006765606 0.024158314213 0.14014157361 0.98983671138 
0.028270602303 0.14105969533 0.98959736024 0.032457028811 0.14189429381 0.98934955939 0.036692654075 0.14264681425 0.9890932896 
0.040952819187 0.14331889218 0.98882888396 0.045214074955 0.14391302897 0.98855689139 0.049455962825 0.1444337473 0.98827779515 
0.053660722287 0.14488509178 0.98799232642 0.057814271205 0.14527113093 0.98770127496 0.061905292168 0.14559681624 0.9874053382 
0.065925029508 0.14586761765 0.98710512541 0.069867922068 0.14608810048 0.9868012669 0.073730337005 0.1462624628 0.98649436358 
0.077509828174 0.14639487021 0.98618495654 0.081205401377 0.14648996457 0.98587340621 0.084817120608 0.14655148616 0.98556010367 
0.088345214074 0.14658279335 0.98524545563 0.09179028484 0.14658738525 0.98492978536 0.095152925989 0.14656852635 0.98461342046 
0.098433391252 0.1465288988 0.98429677908 0.10163203545 0.14647115531 0.9839802488 0.10474869129 0.14639803986 0.98366423418 
0.10778292867 0.14631107003 0.98334933318 0.11073423186 0.14621175578 0.98303613991 0.11360195457 0.14610210687 0.98272517536 
0.11638499659 0.14598335647 0.98241711722 0.11908221189 0.14585518469 0.98211287127 0.1216924104 0.14571727127 0.98181333975 
0.1242142598 0.14556970535 0.98151937248 0.12664650526 0.1454115328 0.98123195465 0.12898756079 0.14524016723 0.98095234491 
0.13123661745 0.14505324633 0.98068165373 0.13339267031 0.14484790085 0.98042107338 0.13545515458 0.14462095729 0.98017176036 
0.13742424808 0.14436923718 0.97993474242 0.13930040772 0.14408826613 0.97971116558 0.14108509187 0.14377436855 0.97950187739 
0.14278032949 0.14342416258 0.97930755491 0.14438942596 0.1430332577 0.97912878666 0.1459168982 0.1425984856 0.97896574543 
0.14736817195 0.14211710321 0.97881834416 0.14874966169 0.14158684759 0.9786862126 0.15006870048 0.14100586527 0.97856871557 
0.15133391708 0.14037185739 0.97846501583 0.1525543818 0.13968379371 0.9783739563 0.15373918318 0.13893957161 0.97829446436 
0.15489755343 0.1381382952 0.97822520891 0.15603894049 0.13727946918 0.97816470821 0.15717236763 0.13636176007 0.97811160777 
0.15830581255 0.13538579571 0.97806439258 0.15944724014 0.13435049957 0.97802173845 0.160603118 0.13325396959 0.97798262667 
0.16177816152 0.1320955505 0.97794610894 0.1629766332 0.13087711137 0.977910936 0.16420160075 0.12959858423 0.9778762914 
0.16545349413 0.12825891507 0.97784190542 0.16673189289 0.12686155043 0.9778070479 0.16803567943 0.12540857092 0.97777129267 
0.16936090836 0.12390342605 0.97773453643 0.17070205042 0.12235125454 0.97769677329 0.17205307388 0.120758022 0.97765803832 
0.17340630546 0.11913152187 0.97761850112 0.17475265348 0.11748166243 0.97757842094 0.17608294005 0.11582014163 0.97753797523 
0.17738642262 0.11415656544 0.97749799777 0.1786521589 0.11250508065 0.97745895717 0.17987011781 0.11088059293 0.97742121669 
0.1810293993 0.10929482596 0.97738579773 0.18212041076 0.10776163073 0.97735335827 0.18313411074 0.10629362623 0.97732469656 
0.18406295487 0.10490210966 0.97730055563 0.1849001162 0.10359770043 0.9772816705 0.18563932355 0.10238691063 0.97726913493 
0.18627750073 0.10127452276 0.97726361017 0.18681073045 0.10026479498 0.97726594225 0.18723603834 0.099358800633 0.97727708184 
0.18755203115 0.098555700114 0.97729781008 0.18775708292 0.09785271049 0.97732907706 0.18785064944 0.097246414076 0.97737161226 
0.18783219633 0.096731709443 0.97742623374 0.18770071982 0.096300251806 0.97749409271 0.1874560951 0.095944528518 0.97757601232 
0.18709871328 0.095657637846 0.97767258722 0.18662801398 0.095428352118 0.97778495285 0.18604452262 0.095245930807 0.97791392682 
0.18535041659 0.095100688114 0.97805985614 0.18454567146 0.094978752683 0.97822386583 0.18363295913 0.094865934037 0.97840655705 
0.18261785864 0.094749288687 0.97860783259 0.1815058578 0.094614356767 0.97882774127 0.18030352703 0.094442681202 0.97906650342 
0.17902039425 0.094218000192 0.97932357619 0.17766833914 0.093926282999 0.97959778207 0.17626131045 0.093551121564 0.97988781914 
0.17481540028 0.093077375757 0.98019190873 0.17334740684 0.092494159347 0.9805077802 0.17187408077 0.091790318574 0.98083323648 
0.17041389939 0.090956592372 0.98116563393 0.16898543914 0.089991716708 0.98150161094 0.16760369143 0.088896969295 0.98183824099 
0.16628134329 0.087675474176 0.98217285958 0.16502825737 0.08633501627 0.98250289528 0.1638511227 0.084886004872 0.98282611675 
0.1627529388 0.083340475399 0.98314080684 0.1617335451 0.081714582707 0.98344546741 0.16078827889 0.080023879311 0.98373945133 
0.15991122524 0.078282666124 0.9840224714 0.15909377511 0.076507173955 0.98429458144 0.15832613811 0.0747104456 0.98455633831 
0.15759974231 0.072904969627 0.98480819789 0.15690439183 0.071101458246 0.98505106185 0.15622926674 0.069307921755 0.98528616564 
0.15556670722 0.067533433814 0.98551419824 0.15491071622 0.065783789897 0.98573584848 0.15425367658 0.06406145632 0.98595229757 
0.15359225817 0.062371099944 0.98616391342 0.1529244255 0.060715489816 0.98637099987 0.15224680616 0.059095739217 0.98657417543 
0.1515597593 0.057511597113 0.9867735584 0.15086439601 0.055962459512 0.98696916727 0.15016151774 0.054449662488 0.9871609559 
0.14945447274 0.052971520892 0.98734866109 0.14874584788 0.051526765431 0.98753210843 0.14803916503 0.050113623317 0.9877110055 
0.14733844196 0.048730277202 0.98788498501 0.1466467278 0.047376694463 0.98805373642 0.14596785138 0.046050254468 0.9882169602 
0.14530540671 0.044749948219 0.98837431215 0.1446631043 0.043476291619 0.98852536554 0.14404318721 0.042226538418 0.98867005602 
0.14344847819 0.041001739723 0.98880806603 0.14288044665 0.039802808765 0.98893928751 0.14233936576 0.038629460084 0.98906383503 
0.14182768864 0.037485792364 0.98918133934 0.14134390961 0.036372853345 0.98929212812 0.14088716092 0.035293900799 0.98939635559 
0.14045633145 0.034251907557 0.98949422726 0.14004978916 0.033250545202 0.98958600324 0.13966458894 0.03229419969 0.98967211099 
0.13929766296 0.031386664169 0.98975301889 0.13894709315 0.03053292298 0.98982899832 0.13860963459 0.029737113901 0.98990053705 
0.13828313139 0.029002747343 0.98996798747 0.13796073123 0.028331843452 0.99003239507 0.1376407145 0.02772764298 0.99009404176 
0.13732391625 0.027192997585 0.99015285835 0.1370039533 0.026728033271 0.9902098409 0.13667953418 0.026332873337 0.99026525978 
0.13634750555 0.026007060442 0.99031964059 0.13600652541 0.025748151806 0.99037329211 0.13565777817 0.025557267491 0.99042606655 
0.13529555966 0.025431446388 0.99047885039 0.13491819269 0.025365428831 0.9905320168 0.1345255403 0.025358164689 0.99058560584 
0.13411559965 0.025407598181 0.99063992444 0.13368707662 0.02550933524 0.99069523031 0.13323827771 0.025658468712 0.99075183792 
0.13276458984 0.025853003541 0.99081036828 0.13226204327 0.026088629848 0.990871402 0.13172977968 0.026361937079 0.99093507023 
0.13116214993 0.026669537916 0.99100213227 0.1305539848 0.027006996423 0.99107329658 0.12990151072 0.02737162001 0.9911490261 
0.12919779097 0.027756134696 0.99123031017 0.12843461506 0.028157771814 0.99131815758 0.12760502153 0.028573249391 0.99141339909 
0.12670158937 0.028994042459 0.99151704612 0.12570992687 0.029413341118 0.99163091403 0.12461963686 0.029825766299 0.99175620481 
0.12342174665 0.030223083618 0.99189396493 0.12210014199 0.030596041665 0.99204608641 0.12064001915 0.030935408901 0.99221418366 
0.11902703675 0.031227221712 0.99239983129 0.11724551112 0.031460144678 0.99260452821 0.11528126188 0.031623112058 0.99282939594 
0.11311690278 0.031700662878 0.99307584518 0.11073593774 0.031678573148 0.99334486464 0.1081258739 0.031541617927 0.99363671517 
0.10527325986 0.031275275201 0.99395140622 0.10216850574 0.030866441769 0.9942881168 0.098803584509 0.03030113155 0.99464551128 
0.095175178725 0.02956823704 0.99502130867 0.091285880495 0.028658677628 0.99541226043 0.087140996294 0.027565963893 0.99581452309 
0.082757908523 0.026291065661 0.99622282068 0.078155442769 0.02483519979 0.99663179741 0.073358173067 0.023204121621 0.99703568 
0.06840597375 0.021413558289 0.99742773286 0.06334322686 0.019483374888 0.99780160038 0.058223042188 0.017439562439 0.99815126059 
0.053108952043 0.015313624209 0.9984712976 0.048068235868 0.013144191773 0.99875756564 0.043177427167 0.010974847059 0.99900713837 
0.038516383876 0.0088510796597 0.99921876812 0.034166501003 0.0068248792969 0.9993928513 0.030213377167 0.0049478076278 0.99953122565 
0.026739443993 0.003272156226 0.99963708171 0.023820197771 0.0018450480828 0.99971455625 0.021526701089 0.00071046542844 0.99976802128 
0.019915539864 -9.250570519e-05 0.99980166169 0.019915539864 -9.250570519e-05 0.99980166169 
NormalArray 3 278 double
0.18953993863 -0.98028622599 0.055798985577 0.18953993863 -0.98028622599 0.055798985577 0.21665773296 -0.97453529524 0.057796064595 
0.22290695012 -0.97309026539 0.058376596271 0.23205700706 -0.97089696345 0.059233705174 0.24659825266 -0.96722527623 0.060535665529 
0.265706773 -0.96204430078 0.062214741908 0.28689917207 -0.95581442926 0.064090887622 0.31177148862 -0.94784370429 0.066263497611 
0.33396531123 -0.94010717611 0.068305697596 0.35670615081 -0.93155787463 0.070431869135 0.37779068187 -0.9230480406 0.072501830561 
0.39673152621 -0.91490720741 0.074490925292 0.41244261688 -0.90777936881 0.076339408856 0.4247615527 -0.90193494323 0.078044740561 
0.43451145482 -0.89713642675 0.079661957186 0.44010378035 -0.8942770198 0.081100396938 0.44275486388 -0.89284544334 0.082432668348 
0.44106742595 -0.89357419532 0.083574417286 0.43637632281 -0.89577833982 0.084598290815 0.42747295006 -0.89998307477 0.085424481884 
0.414546116 -0.90595080804 0.086050282505 0.39747319929 -0.91353232702 0.086450814552 0.3754045809 -0.92281116254 0.086550326035 
0.3481247368 -0.93346705819 0.086304222978 0.3152303658 -0.94514236514 0.085648853401 0.27607065366 -0.95741618906 0.084493994589 
0.22951906776 -0.96978427505 0.082701012047 0.17532577313 -0.98124032508 0.080176665609 0.11276049856 -0.99065164563 0.076774911169 
0.042379277393 -0.99647220091 0.072437211882 -0.036720659039 -0.99707927404 0.06696651753 -0.12243749098 -0.99063538637 0.06042012968 
-0.21201686953 -0.97583046378 0.052950476807 -0.30458920082 -0.9514416216 0.044545027084 -0.39495824844 -0.91800480741 0.03570932042 
-0.48065854546 -0.87650008531 0.026738794627 -0.55815882985 -0.82953557189 0.01815091264 -0.62706009847 -0.77890506797 0.010125611016 
-0.68531903087 -0.72823622027 0.0031358275923 -0.73428882164 -0.67883131005 -0.0028246971417 -0.77409655992 -0.6330222828 -0.0075700329981 
-0.80635137161 -0.5913309103 -0.011190175425 -0.83201037995 -0.55459102552 -0.013693869522 -0.85241842855 -0.52263899272 -0.015208745807 
-0.86798920581 -0.49633481031 -0.015700148562 -0.88018699244 -0.47437683151 -0.015410388606 -0.88905122382 -0.45758483451 -0.014284279693 
-0.89527777246 -0.44533438427 -0.012449751983 -0.89947646199 -0.43685375292 -0.010044544971 -0.90138267126 -0.43296688363 -0.0069969723697 
-0.90166595499 -0.4324190987 -0.0034969540791 -0.90018720849 -0.43550289408 0.00046789020781 -0.89695202829 -0.44210114723 0.0048615388454 
-0.89237631521 -0.45119128404 0.0095361023782 -0.88616637228 -0.46313943996 0.014526520318 -0.87867973365 -0.47700492724 0.019703427815 
-0.87011282322 -0.49221866831 0.024989146484 -0.86081148297 -0.50802214399 0.030283527026 -0.85148763274 -0.52317669488 0.035425375401 
-0.84268070853 -0.53690206386 0.040316216285 -0.83533561087 -0.54791260078 0.044790614069 -0.83045665313 -0.55495135154 0.048690293616 
-0.82834291008 -0.55780283127 0.052000237896 -0.82995473696 -0.55515603838 0.054561045185 -0.83537734571 -0.54677955148 0.056363218156 
-0.84436422127 -0.53268233876 0.057433333535 -0.85603351859 -0.51366693784 0.057904162397 -0.86979302269 -0.49001529481 0.057836913265 
-0.88468269038 -0.46264951415 0.05737564288 -0.89960672974 -0.43300096122 0.056726531559 -0.91392081618 -0.40200741923 0.056024785866 
-0.9271433756 -0.37058906781 0.055397688599 -0.93895133194 -0.33963126823 0.054963605096 -0.94929737617 -0.30957082962 0.054775843588 
-0.95805716993 -0.28126178678 0.054938751828 -0.96555238497 -0.25424764941 0.055378015916 -0.97172966179 -0.229314104 0.056182791814 
-0.97685768981 -0.20607738763 0.057281447027 -0.9810773821 -0.18451931679 0.058649740587 -0.98446720574 -0.16488811414 0.060301166174 
-0.98728687477 -0.14631721791 0.062095882758 -0.9895186748 -0.12940049829 0.06409604722 -0.99129129823 -0.11381462359 0.066240421972 
-0.99271172709 -0.099179048046 0.068461254171 -0.99382704692 -0.085459564871 0.070742233335 -0.99466195657 -0.072829241685 0.073099204508 
-0.99526491879 -0.061199871968 0.075513688204 -0.9957008134 -0.050093042872 0.077913909206 -0.99597424112 -0.039768925317 0.080335195345 
-0.99612076354 -0.029962579252 0.08273855384 -0.99613679305 -0.021242216178 0.085207146346 -0.99607579585 -0.012624218813 0.087599303804 
-0.99592529943 -0.004983179627 0.090044243962 -0.99571556237 0.0024032975297 0.092437779162 -0.99544904815 0.0088360408351 0.094884755965 
-0.99514331866 0.015290609151 0.097241825383 -0.99480529213 0.020706000492 0.099667910027 -0.99444138328 0.026040303699 0.10202077148 
-0.99405743269 0.03103591803 0.10433883415 -0.99365390852 0.035937998546 0.1065850381 -0.99324809458 0.040108968853 0.10885537762 
-0.99281667204 0.044727763935 0.11097063963 -0.99235717131 0.049714604207 0.112941147 -0.99185816591 0.055251833363 0.11473715016 
-0.99132937377 0.06093208321 0.11641887281 -0.99069977364 0.068149602986 0.117769224 -0.98992738986 0.077076933845 0.11875566966 
-0.98896893253 0.087693138199 0.11937488853 -0.98769155445 0.10096210024 0.11946567529 -0.98600782992 0.11669211054 0.11904415431 
-0.9837024126 0.1357015966 0.11796033287 -0.98041180692 0.15918334351 0.11598858568 -0.97603777051 0.18576632699 0.11331876408 
-0.96994870468 0.21722540529 0.10960216049 -0.96173440741 0.25312860118 0.10484674944 -0.95112081294 0.29246436301 0.099165495865 
-0.93761562173 0.33514148336 0.092504767533 -0.92130641079 0.37940164742 0.085140398034 -0.90208509898 0.42460492955 0.077156516288 
-0.88038007627 0.46924543131 0.068845090635 -0.85748193722 0.51091380795 0.060760251745 -0.83285427053 0.55098432014 0.052631198205 
-0.80965705186 0.5851308944 0.045577349495 -0.7868595066 0.61589325951 0.039084648695 -0.76643398659 0.6414366821 0.033733174311 
-0.74841711201 0.66257546045 0.029420837045 -0.73251202201 0.68025836616 0.02597485102 -0.71813267859 0.69552060346 0.023163464628 
-0.70588379832 0.70801219618 0.021137486139 -0.69639285745 0.71738064369 0.020049941336 -0.68708058708 0.72632983412 0.019111225233 
-0.67829303454 0.73456058759 0.018420164336 -0.67153983507 0.74073985813 0.018404143256 -0.66401764497 0.74749434667 0.018241953385 
-0.65744696045 0.7532755823 0.018422576214 -0.64995265469 0.759751874 0.018402081709 -0.64334046342 0.76535218479 0.018683719248 
-0.63558057347 0.77180839524 0.018685172517 -0.62865544899 0.77745309596 0.018947559872 -0.62107475731 0.783519998 0.019040970875 
-0.61214934512 0.79051945338 0.018766275499 -0.60415042229 0.796650199 0.018727724802 -0.59523857039 0.80333818581 0.018406616423 
-0.5846824158 0.81107140721 0.017596734331 -0.57445834757 0.81836111558 0.016813429597 -0.56144147898 0.82737647856 0.015219343048 
-0.54834772781 0.8361410504 0.013524542517 -0.53109359856 0.84724598783 0.010668911903 -0.51001901953 0.86013650764 0.0067666785038 
-0.48377123681 0.87519317528 0.0015153800399 -0.4478641871 0.89408066704 -0.0061180673336 -0.39836362189 0.91707158469 -0.01691547533 
-0.32785863138 0.94417459089 -0.032296435401 -0.22214347235 0.97347332714 -0.05479013625 -0.067773115358 0.99399815592 -0.085874739427 
0.15549817207 0.97965975477 -0.12683486657 0.42631081295 0.88857319639 -0.16940119665 0.67211661594 0.71323540952 -0.19888314455 
0.83305086052 0.51198564053 -0.20951603202 0.91207001647 0.35304250396 -0.20854082441 0.94954693257 0.23833068329 -0.20386051173 
0.96552511559 0.16749942484 -0.19926162161 0.97215482579 0.12861815458 -0.19588865461 0.97451899048 0.1128562607 -0.19384581917 
0.97493223955 0.11123471343 -0.1927017561 0.97334082624 0.12464806148 -0.19253700096 0.96935335558 0.15180274981 -0.19315795913 
0.96328629457 0.18564296595 -0.19394897238 0.95419876238 0.2270368962 -0.19483061781 0.94069166472 0.27715014394 -0.19567061516 
0.92256329984 0.33230222017 -0.19609230544 0.89947382011 0.39061757983 -0.1958692249 0.86970329745 0.45349043351 -0.19483993716 
0.83341361575 0.51794111194 -0.19276604899 0.79265575093 0.57943851577 -0.18959922719 0.74655840154 0.63899602854 -0.18529605662 
0.69740743623 0.69370347624 -0.17999543034 0.64655331207 0.74279056079 -0.17387063423 0.59592337519 0.78544494006 -0.16718725141 
0.546917705 0.82171675602 -0.16019549566 0.50241726055 0.85092138732 -0.15332869564 0.46269671698 0.87428673855 -0.14674619893 
0.42781600257 0.8928705821 -0.14055458573 0.40073470753 0.90616283344 -0.13520581895 0.37817394166 0.91650995409 -0.13036093699 
0.36220909906 0.92349613985 -0.12633070985 0.35169684893 0.92799755262 -0.12300353162 0.34765095376 0.92984448725 -0.12053233537 
0.34692091336 0.93037597034 -0.11851765137 0.35031551729 0.92928669658 -0.11706952594 0.35766536265 0.92659691441 -0.11616215634 
0.36621233715 0.92334359852 -0.1154344974 0.37698252844 0.91905115171 -0.11501805856 0.38979017765 0.91370974571 -0.11488306232 
0.40075811553 0.90899695544 -0.1145315146 0.41290876288 0.90356552051 -0.11434904323 0.42434136076 0.89828532316 -0.11409595848 
0.43310765627 0.89416350794 -0.11353140159 0.44200009716 0.889868197 -0.1130066639 0.44689201173 0.8875476225 -0.11201226562 
0.45125944642 0.88546487858 -0.1109813535 0.45330138675 0.88458184646 -0.10969416434 0.45246851456 0.88520631802 -0.1080833839 
0.45014510472 0.88660331573 -0.10632001328 0.44533893106 0.88926842485 -0.10428281276 0.43855595823 0.89289326841 -0.10203079307 
0.43042173812 0.89711129131 -0.099641649747 0.42158604534 0.90156424898 -0.097196251645 0.4118845187 0.90630469725 -0.094672799638 
0.40108719513 0.91140366363 -0.092045770275 0.39273984022 0.91525843383 -0.08976311722 0.38362829155 0.9193403381 -0.08742240362 
0.37755094648 0.92203225137 -0.085509123738 0.37192211336 0.9244828018 -0.083698809883 0.37273428653 0.92424018252 -0.082760115213 
0.37443575868 0.9236210839 -0.081987535621 0.3829808904 0.92009684146 -0.082142802023 0.39562782959 0.91466413133 -0.082874286131 
0.41477727997 0.90599274554 -0.084480489124 0.44958663701 0.88888274563 -0.088087004447 0.48424176181 0.87011700911 -0.091685912685 
0.53290555344 0.84059729087 -0.096994152853 0.59737001516 0.79517868991 -0.10411491775 0.66685604939 0.73677738281 -0.1116337654 
0.75187111242 0.64819739153 -0.12054033316 0.82880894419 0.54469876136 -0.12798044145 0.90682854365 0.39945917735 -0.13451527071 
0.95918774372 0.24716201684 -0.137367426 0.9861698678 0.093679362206 -0.13672296417 0.98960222042 -0.054783352965 -0.13298958447 
0.97559909915 -0.17874973897 -0.12749481779 0.95340375566 -0.27613065901 -0.12154479773 0.93055741354 -0.34723472375 -0.11615053477 
0.90752859125 -0.40504663938 -0.11103637235 0.89268719177 -0.43763515192 -0.10763387689 0.87672368596 -0.46960441452 -0.1040541798 
0.87240947625 -0.47788476076 -0.10260536629 0.86745568481 -0.48715572326 -0.10099473345 0.86946783146 -0.4836380984 -0.10059761343 
0.87643034017 -0.47080621843 -0.10105129156 0.8840199399 -0.45628030832 -0.1015727626 0.89447564546 -0.43518903667 -0.10258568142 
0.90812721152 -0.40552434943 -0.10418718593 0.92292013203 -0.37010521835 -0.10602149427 0.93623926832 -0.33448712469 -0.10758436631 
0.94994554097 -0.29267804879 -0.10928416603 0.96222844186 -0.24869381309 -0.11076015985 0.97279552826 -0.20281722233 -0.11195550243 
0.98178589756 -0.15277260181 -0.11294681706 0.9878298311 -0.10655688709 -0.11330425679 0.99178011827 -0.05952820844 -0.11326336306 
0.993533473 -0.013455050991 -0.11273952114 0.99328498683 0.030166076541 -0.11169128333 0.99127730902 0.072338631389 -0.11016541671 
0.98792424613 0.11096988339 -0.10812663361 0.98343685721 0.1472925563 -0.10562599465 0.97810326685 0.18102978823 -0.10267528989 
0.9722363926 0.21189013405 -0.099292336031 0.96594574338 0.24047293566 -0.095507005303 0.9595269618 0.26639266004 -0.091339806521 
0.95325985113 0.28940767091 -0.086826587227 0.94681831717 0.31114411291 -0.082002532148 0.94074140673 0.33029004639 -0.076903126811 
0.93488337577 0.34766264728 -0.071580426003 0.92944153453 0.36300183375 -0.066091622586 0.92426386728 0.37692996635 -0.060498794326 
0.91936733969 0.38955399933 -0.054876008595 0.91512774351 0.40013723144 -0.049309320324 0.91098626351 0.41009598655 -0.043878348904 
0.90729870649 0.41870366023 -0.038682064382 0.90432267381 0.42550742212 -0.03382211339 0.9012481347 0.43230598995 -0.029382490448 
0.89930059525 0.43658787546 -0.025484630473 0.89669295475 0.44209696819 -0.022181425235 0.89535120851 0.44492950528 -0.019594610399 
0.89405471485 0.44760526771 -0.017767700289 0.89405471485 0.44760526771 -0.017767700289 
BinormalArray 3 278 double
0.97862784715 0.19322474543 0.070368562071 0.97862784715 0.19322474543 0.070368562071 0.97298260147 0.22039224155 0.068790385239 
0.97156744509 0.22666248565 0.06841649824 0.9694186614 0.23584383591 0.06786121121 0.96581634919 0.25042987028 0.066960135273 
0.96072728834 0.26959446424 0.065741176453 0.95460279809 0.29084984184 0.064341801219 0.94675844393 0.31579326725 0.062634345271 
0.93914305823 0.33805839149 0.061047851053 0.93072355949 0.36087446998 0.059357162348 0.92234265254 0.38203619003 0.057726777295 
0.91432743537 0.40105637139 0.056206119837 0.90731633261 0.4168490106 0.054899680748 0.90157823974 0.42925252259 0.053841893328 
0.896879077 0.43909118842 0.052979708335 0.89410327417 0.4447766534 0.052469645666 0.89274499604 0.44752613285 0.052218123901 
0.89352849431 0.44594249712 0.05236524722 0.89577518794 0.44136087531 0.052795742376 0.90000281591 0.43257254736 0.053627629371 
0.90597394208 0.41976591157 0.054843374778 0.91353782233 0.40281764552 0.056449903789 0.92277219583 0.38087699187 0.05851659306 
0.93335468898 0.35372672953 0.06104445413 0.94492450031 0.3209613008 0.064043204962 0.95705614607 0.2819268252 0.067533684226 
0.96923796452 0.23549240375 0.071561832814 0.98046175863 0.18140288709 0.076077147823 0.98959015185 0.11892101156 0.081050134923 
0.99508064039 0.048595781212 0.086330580785 0.99530513551 -0.030485739465 0.091860257528 0.98843968873 -0.11622831829 0.097354813797 
0.97319181098 -0.20588048593 0.10252280017 0.94834426199 -0.29857816722 0.1072111879 0.91446582707 -0.38911412597 0.111096571 
0.87255211986 -0.47501325517 0.1140842037 0.82523402229 -0.55272354814 0.11612703296 0.77430845948 -0.62183418825 0.11733989901 
0.7234180425 -0.68027732545 0.11785201001 0.67385813182 -0.72939978941 0.11786078816 0.62796299968 -0.76931541353 0.11754261159 
0.58624640956 -0.80163297907 0.11704577796 0.54953900427 -0.82730749453 0.11648687599 0.51767031626 -0.84768838531 0.11593897137 
0.49150094158 -0.86318825175 0.11546803224 0.469719082 -0.87528315882 0.1150798674 0.45314704364 -0.8840126654 0.11480141226 
0.44115534979 -0.89008080957 0.11462159392 0.43296656181 -0.89410590827 0.11451891174 0.42940840555 -0.89582450854 0.1144852442 
0.42921758541 -0.89591609385 0.11448413497 0.4326874741 -0.8942447135 0.11448992157 0.43969942011 -0.8908205593 0.11446899616 
0.44922317062 -0.88606601383 0.11439214184 0.46162681968 -0.87968946666 0.11422399748 0.47596250425 -0.87205281345 0.11394553569 
0.49165661408 -0.86335481455 0.11354399157 0.50794456767 -0.85394263732 0.11302339733 0.52357772646 -0.84452792739 0.11242305907 
0.53776946537 -0.83564788687 0.11178824303 0.54922340259 -0.82824310352 0.11120708395 0.55667224865 -0.82331149232 0.11078896244 
0.55989948218 -0.82114660671 0.11059303837 0.55758394316 -0.82270066937 0.11074183921 0.54949411451 -0.82805364262 0.11128064995 
0.53564165925 -0.83695574645 0.11221894382 0.51683906526 -0.84852607286 0.11349398351 0.49337368943 -0.86217281686 0.11506709538 
0.46617861417 -0.87693961119 0.11685212032 0.43670017934 -0.891736884 0.11873619108 0.40588627895 -0.90592478631 0.12065077749 
0.37466639479 -0.91902627702 0.12253895199 0.34393431388 -0.93072282933 0.12435514747 0.31413053771 -0.94096988538 0.12608600275 
0.28611569189 -0.94964807156 0.12769632347 0.25942772064 -0.95707781605 0.12922581703 0.23485706343 -0.96321097432 0.13063988175 
0.21201374227 -0.96831517217 0.13196931624 0.19087616829 -0.97253207202 0.13322033353 0.17169149648 -0.97594251685 0.13438092809 
0.15358220441 -0.97880077998 0.13550475858 0.13714401063 -0.98109354862 0.13655390588 0.12204781762 -0.98294716241 0.13754710507 
0.10790715351 -0.98446524906 0.13850711034 0.094685325421 -0.985694152 0.13943359659 0.082554993463 -0.98665975324 0.14031109863 
0.071425709092 -0.98740934459 0.14114231927 0.060814173166 -0.98800250706 0.14196014366 0.050981844192 -0.98844611616 0.14274146913 
0.041661144768 -0.98877236299 0.14350457552 0.033424127869 -0.98898405373 0.14419906083 0.025279734561 -0.98912248534 0.14490563832 
0.018108591887 -0.98918585342 0.14554527229 0.011183133025 -0.98919480521 0.1461799401 0.0052070344653 -0.98916105436 0.14674227519 
-0.00080175974708 -0.98908820592 0.14732236114 -0.0057758215872 -0.98899821143 0.14781467342 -0.010679274427 -0.98888296401 0.148311957 
-0.015253222829 -0.9887516587 0.14878674879 -0.019744365807 -0.98860031496 0.14926344926 -0.023512093434 -0.98845609158 0.14967209652 
-0.027741454463 -0.98827541038 0.15014035079 -0.032352300828 -0.98805603243 0.15066056353 -0.037527802608 -0.98778221879 0.1512545942 
-0.042858959063 -0.98746986897 0.15187615846 -0.049745564768 -0.98702133601 0.15269008168 -0.058360705673 -0.98638959853 0.15371918534 
-0.068683336679 -0.98553004482 0.15496170502 -0.081681018401 -0.98428945942 0.1565326525 -0.097162031849 -0.98258217471 0.15840394413 
-0.11594886583 -0.98017478035 0.16066505679 -0.13924110481 -0.97667765138 0.16344014201 -0.16566613229 -0.97201841686 0.16653807344 
-0.19701088243 -0.96552712696 0.17012959565 -0.23284892801 -0.95680060538 0.17410909875 -0.27217174361 -0.94558461719 0.17830388023 
-0.31489612221 -0.93138762881 0.18264040383 -0.35926040081 -0.91433448722 0.18688073707 -0.4046255792 -0.89433103477 0.19091919992 
-0.44947632513 -0.8718397025 0.19459333571 -0.49137754114 -0.84820723801 0.19771847016 -0.53171235421 -0.8228681999 0.20042429488 
-0.56609381405 -0.79908675863 0.20247998882 -0.59707953065 -0.77577692685 0.20412298706 -0.62279674939 -0.75495990175 0.20532840939 
-0.64405830183 -0.73665761757 0.20621459287 -0.66181773566 -0.7205542995 0.20687867516 -0.67712044307 -0.70604140795 0.20739680767 
-0.68960560447 -0.69373589758 0.20778502036 -0.69891029834 -0.68427786299 0.20805816759 -0.70778393679 -0.67501791016 0.20830919278 
-0.71592157432 -0.66631103388 0.20853274457 -0.72196587579 -0.65970494132 0.20869754334 -0.7285908163 -0.65232269011 0.20887922433 
-0.73422093195 -0.64592866334 0.20903536771 -0.74055543792 -0.63859788636 0.2092137254 -0.74599650663 -0.63218156676 0.20936971783 
-0.75230817346 -0.6245954543 0.20955412333 -0.75779537908 -0.61787113751 0.20971747872 -0.76371522445 -0.61047695086 0.20989747119 
-0.77058888932 -0.60170364166 0.21010828462 -0.77658590855 -0.59387799021 0.21029326992 -0.78315885045 -0.58510960796 0.21049693974 
-0.79080644234 -0.57464581563 0.21073053251 -0.798016142 -0.56451086389 0.21094483084 -0.80699774669 -0.55149780394 0.21119850636 
-0.8157423601 -0.53838990632 0.21142542589 -0.82689269957 -0.52100072224 0.21167595713 -0.83989204143 -0.49968200764 0.21189443121 
-0.85514097268 -0.47305430658 0.21202249848 -0.87436801228 -0.43653949618 0.21192887339 -0.89791374346 -0.38614445133 0.21128978208 
-0.92592275782 -0.31435826041 0.20939419923 -0.9567651517 -0.20682003865 0.20451385309 -0.9798565907 -0.050107893454 0.19331389157 
-0.96981409791 0.17581166424 0.1689700394 -0.8848884283 0.44851302787 0.12573198994 -0.71632357702 0.69432693888 0.069214412932 
-0.52059613452 0.8536511701 0.01610417704 -0.36510035531 0.93072789794 -0.021149717323 -0.25248377857 0.96650230112 -0.046100363239 
-0.18277438069 0.98127458023 -0.060776014712 -0.14442260847 0.98713545517 -0.068598129068 -0.12880867017 0.98907225165 -0.071724525159 
-0.12711351614 0.98926710792 -0.072060691043 -0.14022574497 0.98767959595 -0.069467662869 -0.16686734302 0.98388846173 -0.06417775873 
-0.20007801762 0.97808980039 -0.057525031333 -0.24070455571 0.96934622356 -0.049287074721 -0.28988125562 0.95626146287 -0.039151912718 
-0.34397170466 0.93856903667 -0.027778225288 -0.4011203354 0.91589450092 -0.015483530316 -0.46268290952 0.88652183511 -0.0018870913386 
-0.52571936237 0.8505668127 0.012459902016 -0.58578219662 0.81003240513 0.026584220261 -0.64386299452 0.76405589086 0.040731313895 
-0.69711791167 0.71490453788 0.054204418209 -0.7448050006 0.66393406884 0.066761241121 -0.7861476582 0.61308287556 0.078110480716 
-0.82121404327 0.56376940147 0.088156435362 -0.84936397186 0.51889837115 0.096567715779 -0.8718135566 0.47876808325 0.10354827371 
-0.88960770455 0.44345681617 0.10928945147 -0.90227538196 0.41595140537 0.11350578606 -0.91209500812 0.39297309497 0.11685393788 
-0.9186767058 0.37661617742 0.1191359103 -0.92287070507 0.36573914881 0.1206007328 -0.92451675515 0.36136635359 0.12117395732 
-0.92490263243 0.36033288655 0.12130676564 -0.92373248744 0.36345388778 0.12091138535 -0.92102187359 0.37055942576 0.12001841675 
-0.91776791312 0.37887523668 0.11897736208 -0.9135087812 0.38943370404 0.11765669052 -0.90823153844 0.40204750243 0.11607445186 
-0.90356105062 0.41281588051 0.11471912049 -0.89819056305 0.4247794172 0.11320847658 -0.89296468471 0.4360260456 0.11178264361 
-0.88886507337 0.44459604029 0.11069436436 -0.88459628467 0.45329855991 0.10958936413 -0.88225389513 0.45798236052 0.10899643102 
-0.88014561042 0.46214425117 0.10847301771 -0.87921134547 0.46397241916 0.10824511196 -0.87975316407 0.46291375936 0.10837537403 
-0.88105375743 0.46036073102 0.10868428526 -0.88359822472 0.45531470504 0.10928264566 -0.8870852449 0.44828398442 0.1100964922 
-0.89115636196 0.43989792947 0.11104120943 -0.89546098985 0.43081044715 0.11203559384 -0.90005035871 0.42085574791 0.11309195922 
-0.90499390531 0.40980260772 0.11422720371 -0.90872290448 0.40122190225 0.11508113673 -0.91267745771 0.39187712781 0.11598351129 
-0.91527444068 0.38559477986 0.11657342739 -0.91763827195 0.37977091836 0.11710700843 -0.91736740417 0.38044338566 0.11704646969 
-0.91673007135 0.38201959464 0.11690596904 -0.91324659479 0.39049909469 0.1161512555 -0.90789095692 0.40311937551 0.11501643118 
-0.89935398125 0.42229845568 0.11325383322 -0.88251838081 0.45725788257 0.10989329534 -0.8640399006 0.49206459767 0.10633664414 
-0.83495737205 0.5409775739 0.10094281254 -0.79017655101 0.605785823 0.092976098454 -0.73254468419 0.67562243003 0.083142153596 
-0.64505750754 0.76102810357 0.068826139971 -0.54275036533 0.83823641775 0.052742287415 -0.39907262452 0.91639467028 0.03101368481 
-0.24830220263 0.96864037649 0.0090463917153 -0.096260444195 0.99527924329 -0.012375571356 0.050895229101 0.99817621076 -0.032464256239 
0.17383729081 0.9835664618 -0.048760758327 0.27046079983 0.96078152198 -0.061235796591 0.34104319588 0.93742716496 -0.070141634834 
0.39845378621 0.91393043616 -0.077238190826 0.43083213617 0.89877408574 -0.081171505116 0.46260441374 0.88248328151 -0.084973020706 
0.47084837918 0.87801759161 -0.085947150246 0.48007946419 0.87289743008 -0.087027493468 0.47660391056 0.87483997633 -0.086624062717 
0.46387260066 0.88179992157 -0.085153441968 0.44945889191 0.88939047675 -0.083494217507 0.42852103583 0.89988558816 -0.081090382085 
0.39906349739 0.91362429232 -0.077710858528 0.36388932958 0.92852408839 -0.073672064601 0.32852089517 0.9419282282 -0.069607717631 
0.28700268578 0.95573329176 -0.064833119506 0.24332690152 0.96809879122 -0.059805931389 0.19777473544 0.9787278349 -0.054561701029 
0.14808448897 0.98776788405 -0.048842515986 0.10220428033 0.99380877895 -0.043570586094 0.055519615205 0.99772559914 -0.038225660803 
0.0097879685825 0.99940683887 -0.03301766338 -0.033503537707 0.99904277978 -0.028125382338 -0.075353115556 0.99688126111 -0.023444812405 
-0.11368036186 0.99333153687 -0.019215441306 -0.14971153704 0.98861123078 -0.015306536102 -0.18317164373 0.98301071062 -0.011751243778 
-0.2137710978 0.97684609353 -0.008580634737 -0.24210681294 0.97023267694 -0.0057309439984 -0.26779554952 0.9634703256 -0.0032365637822 
-0.29059728974 0.95684480449 -0.0011114437833 -0.31213266578 0.95003818547 0.00080318383771 -0.33109543051 0.94359422105 0.0024003963699 
-0.3483011577 0.93737513473 0.003763022263 -0.36349149851 0.93158470726 0.0048850496519 -0.37728819356 0.9260775681 0.0058272519093 
-0.38979883777 0.92087630794 0.0066099587191 -0.40028821836 0.9163609694 0.007205276263 -0.41017037615 0.91197633442 0.0077089546756 
-0.41871893362 0.90807978906 0.0080963777814 -0.42547990768 0.90492919875 0.0083662066702 -0.4322487149 0.90171339696 0.0086022215305 
-0.43651281942 0.89965566746 0.008731465002 -0.44201170017 0.89696536528 0.0088763955993 -0.44484021239 0.8955653134 0.0089417483858 
-0.44751484683 0.89423124289 0.0089970057142 -0.44751484683 0.89423124289 0.0089970057142 
