# vtk DataFile Version 4.1
vtk output
ASCII
DATASET POLYDATA
POINTS 429 float
13.9228 -8.81202 242.872 14.24 -8.4959 241.455 14.5569 -8.18035 240.037 
14.8728 -7.86707 238.616 15.1869 -7.55776 237.187 15.4984 -7.25404 235.75 
15.8066 -6.95742 234.3 16.1108 -6.6693 232.837 16.4104 -6.39093 231.357 
16.7049 -6.12335 229.86 16.9937 -5.86744 228.343 17.2764 -5.62382 226.807 
17.5527 -5.39294 225.249 17.8224 -5.175 223.67 18.0853 -4.97003 222.07 
18.3412 -4.77783 220.45 18.5902 -4.59806 218.81 18.8323 -4.43022 217.152 
19.0677 -4.27367 215.476 19.2965 -4.1277 213.786 19.519 -3.99151 212.082 
19.7354 -3.86428 210.366 19.9461 -3.74515 208.641 20.1514 -3.63327 206.909 
20.3516 -3.52782 205.171 20.5471 -3.42802 203.43 20.7383 -3.33315 201.689 
20.9254 -3.24252 199.948 21.1088 -3.15554 198.21 21.2888 -3.07166 196.477 
21.4658 -2.9904 194.75 21.6398 -2.91136 193.03 21.8113 -2.83418 191.32 
21.9802 -2.75854 189.62 22.1469 -2.6842 187.931 22.3114 -2.61091 186.254 
22.4737 -2.5385 184.591 22.6341 -2.46679 182.942 22.7924 -2.39563 181.308 
22.9487 -2.32491 179.689 23.103 -2.2545 178.086 23.2552 -2.18431 176.499 
23.4054 -2.11422 174.928 23.5536 -2.04417 173.374 23.6997 -1.97406 171.837 
23.8437 -1.90382 170.316 23.9856 -1.83338 168.811 24.1255 -1.76268 167.321 
24.2633 -1.69166 165.847 24.3993 -1.62027 164.387 24.5334 -1.54846 162.941 
24.6658 -1.47621 161.508 24.7965 -1.40347 160.085 24.9259 -1.33022 158.674 
25.0539 -1.25646 157.271 25.1809 -1.18217 155.876 25.307 -1.10735 154.487 
25.4323 -1.03202 153.104 25.5571 -0.956172 151.724 25.6816 -0.879847 150.347 
25.8058 -0.803071 148.971 25.9301 -0.725883 147.596 26.0544 -0.648328 146.219 
26.179 -0.570462 144.841 26.304 -0.492345 143.46 26.4293 -0.414046 142.076 
26.5552 -0.335643 140.689 26.6815 -0.257218 139.297 26.8083 -0.178862 137.9 
26.9357 -0.100671 136.498 27.0636 -0.0227481 135.092 27.1919 0.0547993 133.681 
27.3207 0.131858 132.264 27.4498 0.208312 130.843 27.5793 0.284041 129.416 
27.709 0.358923 127.986 27.8389 0.432836 126.551 27.9688 0.505659 125.111 
28.0988 0.577273 123.668 28.2287 0.647561 122.221 28.3584 0.716416 120.771 
28.4878 0.783734 119.318 28.6168 0.849424 117.863 28.7453 0.913402 116.405 
28.8732 0.975601 114.945 29.0003 1.03597 113.483 29.1263 1.09445 112.02 
29.2512 1.15104 110.557 29.3747 1.20571 109.093 29.4966 1.25847 107.63 
29.6166 1.30935 106.168 29.7344 1.35837 104.708 29.8499 1.40557 103.25 
29.9626 1.451 101.796 30.0723 1.49473 100.346 30.1786 1.53681 98.9024 
30.2814 1.57731 97.4656 30.3802 1.61629 96.0371 30.4747 1.65379 94.6181 
30.5648 1.68987 93.2103 30.6502 1.72456 91.8149 30.7306 1.75788 90.4333 
30.806 1.78985 89.067 30.876 1.82046 87.7171 30.9408 1.84969 86.3847 
31.0002 1.87751 85.071 31.0542 1.90385 83.7765 31.1029 1.92866 82.5019 
31.1464 1.95187 81.2476 31.1848 1.97337 80.0135 31.2182 1.99309 78.7994 
31.2469 2.0109 77.6048 31.2711 2.02672 76.429 31.291 2.04042 75.271 
31.3067 2.0519 74.1294 31.3187 2.06105 73.0028 31.327 2.06777 71.8896 
31.332 2.07197 70.7878 31.3337 2.07354 69.6957 31.3325 2.0724 68.6111 
31.3285 2.06849 67.5322 31.3218 2.06172 66.4568 31.3125 2.05205 65.3832 
31.3007 2.03942 64.3093 31.2864 2.02378 63.2336 31.2698 2.0051 62.1544 
31.2507 1.98336 61.0705 31.2292 1.95853 59.9806 31.2053 1.9306 58.8839 
31.1788 1.89955 57.7797 31.1498 1.86538 56.6674 31.1182 1.82808 55.5467 
31.0839 1.78767 54.4178 31.0468 1.74415 53.2805 31.0068 1.69754 52.1353 
30.9639 1.64784 50.9826 30.9179 1.59507 49.8229 30.8688 1.53927 48.6569 
30.8166 1.48047 47.4851 30.761 1.41869 46.3084 30.7021 1.35399 45.1274 
30.6398 1.28641 43.9428 30.5739 1.21602 42.7553 30.5044 1.14287 41.5654 
30.4313 1.06705 40.3736 30.3543 0.988637 39.1805 30.2734 0.90773 37.9862 
30.1885 0.824433 36.791 30.0996 0.738861 35.5951 30.0063 0.65114 34.3984 
29.9088 0.561405 33.2009 29.8067 0.4698 32.0023 29.7 0.376478 30.8025 
29.5885 0.281599 29.6011 29.472 0.185329 28.3976 29.3505 0.0878396 27.1915 
29.2237 -0.0106944 25.9822 29.0915 -0.110096 24.7692 28.9537 -0.210189 23.5518 
28.8101 -0.310798 22.3292 28.6606 -0.411751 21.1008 28.5051 -0.512882 19.8657 
28.3434 -0.614031 18.6233 28.1753 -0.715049 17.3729 28.0008 -0.815794 16.1136 
27.8198 -0.916139 14.845 27.6323 -1.01597 13.5664 27.4382 -1.11517 12.2773 
27.2375 -1.21367 10.9774 27.0303 -1.31139 9.66621 26.8167 -1.40825 8.34373 
26.5968 -1.50423 7.00987 26.3709 -1.59926 5.66476 26.1391 -1.69334 4.30866 
25.9017 -1.78644 2.94198 25.659 -1.87854 1.5653 25.4115 -1.96964 0.179317 
25.1595 -2.05972 -1.21513 24.9034 -2.14878 -2.61709 24.6437 -2.2368 -4.0255 
24.3808 -2.32376 -5.43925 24.1153 -2.40963 -6.85715 23.8475 -2.49439 -8.27801 
23.578 -2.57799 -9.70061 23.3071 -2.66038 -11.1238 23.0355 -2.74149 -12.5463 
22.7633 -2.82127 -13.9672 22.4911 -2.89964 -15.3855 22.2191 -2.97654 -16.8003 
21.9478 -3.05188 -18.2107 21.6772 -3.12561 -19.6162 21.4078 -3.19766 -21.0162 
21.1397 -3.26799 -22.4102 20.8731 -3.33656 -23.7981 20.608 -3.40335 -25.1797 
20.3448 -3.46836 -26.5548 20.0834 -3.53162 -27.9236 19.8239 -3.59315 -29.2861 
19.5664 -3.65301 -30.6427 19.3109 -3.71127 -31.9935 19.0575 -3.76803 -33.3389 
18.8061 -3.82337 -34.6794 18.5568 -3.87741 -36.0152 18.3097 -3.93024 -37.3469 
18.0646 -3.98199 -38.6749 17.8215 -4.03274 -39.9995 17.5806 -4.08258 -41.3212 
17.3416 -4.13158 -42.6403 17.1047 -4.17978 -43.9572 16.8697 -4.22723 -45.2719 
16.6366 -4.2739 -46.5848 16.4054 -4.31977 -47.896 16.1761 -4.36478 -49.2054 
15.9485 -4.40883 -50.5129 15.7227 -4.45181 -51.8186 15.4986 -4.49358 -53.1221 
15.2761 -4.53395 -54.4231 15.0553 -4.57276 -55.7215 14.8359 -4.60979 -57.0166 
14.6181 -4.64485 -58.3082 14.4017 -4.67773 -59.5958 14.1868 -4.70822 -60.8789 
13.9732 -4.73615 -62.157 13.7609 -4.76132 -63.4297 13.55 -4.78361 -64.6966 
13.3404 -4.80289 -65.9571 13.1321 -4.81908 -67.211 12.9251 -4.83213 -68.4577 
12.7195 -4.84204 -69.6971 12.5154 -4.84885 -70.9286 12.3127 -4.85264 -72.152 
12.1117 -4.85352 -73.367 11.9123 -4.85166 -74.5733 11.7149 -4.84724 -75.7707 
11.5194 -4.84048 -76.9588 11.3261 -4.83162 -78.1375 11.1351 -4.82093 -79.3065 
10.9467 -4.80866 -80.4657 10.7609 -4.79507 -81.6149 10.578 -4.78041 -82.754 
10.398 -4.76493 -83.8829 10.2211 -4.74884 -85.0019 10.0474 -4.73231 -86.1109 
9.87694 -4.71549 -87.2103 9.70971 -4.69849 -88.3005 9.54567 -4.68139 -89.3818 
9.38477 -4.66419 -90.455 9.22689 -4.64687 -91.5208 9.07186 -4.62937 -92.5799 
8.9195 -4.61159 -93.6335 8.76956 -4.59338 -94.6826 8.62179 -4.57456 -95.7283 
8.47591 -4.55493 -96.7718 8.33161 -4.53427 -97.8144 8.18859 -4.51232 -98.8573 
8.04653 -4.48885 -99.9018 7.90513 -4.46359 -100.949 7.76408 -4.43628 -102 
7.62312 -4.40668 -103.056 7.48198 -4.37454 -104.118 7.34045 -4.33965 -105.187 
7.19831 -4.3018 -106.263 7.05542 -4.26082 -107.347 6.91165 -4.21657 -108.44 
6.76689 -4.16892 -109.542 6.62112 -4.11779 -110.652 6.4743 -4.06314 -111.772 
6.32645 -4.00495 -112.901 6.17765 -3.94324 -114.039 6.02796 -3.87806 -115.185 
5.87749 -3.80949 -116.34 5.7264 -3.73765 -117.502 5.57483 -3.66267 -118.673 
5.42294 -3.58471 -119.85 5.27093 -3.50393 -121.034 5.11898 -3.4205 -122.224 
4.96726 -3.33461 -123.42 4.81595 -3.24643 -124.622 4.66522 -3.15612 -125.829 
4.51519 -3.06382 -127.041 4.366 -2.96964 -128.258 4.21772 -2.87368 -129.48 
4.07043 -2.77598 -130.708 3.92414 -2.67654 -131.942 3.77884 -2.57535 -133.182 
3.63449 -2.47233 -134.429 3.491 -2.36737 -135.684 3.34827 -2.26029 -136.947 
3.20614 -2.15093 -138.22 3.06447 -2.03904 -139.503 2.92305 -1.92438 -140.797 
2.7817 -1.80666 -142.103 2.6402 -1.68562 -143.422 2.49835 -1.56094 -144.754 
2.35596 -1.43235 -146.1 2.21283 -1.29957 -147.46 2.06881 -1.16234 -148.835 
1.92375 -1.02043 -150.224 1.77753 -0.873648 -151.627 1.63009 -0.721846 -153.043 
1.48137 -0.564914 -154.472 1.33138 -0.402797 -155.912 1.18015 -0.235491 -157.362 
1.02776 -0.0630483 -158.82 0.874303 0.114427 -160.286 0.71994 0.296775 -161.756 
0.564847 0.483786 -163.229 0.40923 0.675204 -164.704 0.253321 0.870732 -166.178 
0.097373 1.07003 -167.648 -0.0583493 1.27275 -169.114 -0.213571 1.47849 -170.573 
-0.368013 1.68686 -172.024 -0.521402 1.89746 -173.465 -0.673469 2.10987 -174.895 
-0.823961 2.32373 -176.312 -0.972644 2.53864 -177.716 -1.1193 2.75428 -179.106 
-1.26376 2.97032 -180.482 -1.40586 3.18651 -181.843 -1.54549 3.40262 -183.19 
-1.68256 3.61847 -184.523 -1.81703 3.83394 -185.842 -1.9489 4.04896 -187.148 
-2.0782 4.26351 -188.442 -2.205 4.47763 -189.725 -2.32939 4.69141 -190.998 
-2.45151 4.90497 -192.262 -2.57152 5.11849 -193.519 -2.6896 5.33216 -194.769 
-2.80594 5.54621 -196.014 -2.92074 5.76088 -197.255 -3.03421 5.97645 -198.494 
-3.14657 6.19315 -199.731 -3.258 6.41124 -200.968 -3.3687 6.63096 -202.205 
-3.47882 6.85251 -203.443 -3.58851 7.07607 -204.684 -3.69788 7.30178 -205.927 
-3.80702 7.52976 -207.173 -3.91599 7.76004 -208.422 -4.0248 7.99265 -209.674 
-4.13343 8.22754 -210.929 -4.24184 8.46462 -212.187 -4.34995 8.70376 -213.446 
-4.45764 8.94476 -214.707 -4.56479 9.18742 -215.968 -4.67121 9.43145 -217.229 
-4.77673 9.67657 -218.488 -4.88114 9.92245 -219.744 -4.98422 10.1687 -220.996 
-5.08572 10.4151 -222.243 -5.18541 10.6611 -223.482 -5.28303 10.9065 -224.714 
-5.37832 11.1508 -225.936 -5.47105 11.3936 -227.148 -5.56095 11.6348 -228.347 
-5.64778 11.8739 -229.533 -5.73132 12.1107 -230.705 -5.81134 12.345 -231.862 
-5.88763 12.5765 -233.003 -5.96001 12.805 -234.128 -6.02831 13.0306 -235.236 
-6.09238 13.253 -236.327 -6.15209 13.4723 -237.4 -6.20733 13.6885 -238.456 
-6.25801 13.9018 -239.496 -6.30408 14.1121 -240.519 -6.34548 14.3197 -241.527 
-6.38221 14.5248 -242.519 -6.41425 14.7276 -243.497 -6.44163 14.9284 -244.462 
-6.46437 15.1274 -245.414 -6.48253 15.325 -246.355 -6.49617 15.5214 -247.285 
-6.50538 15.7171 -248.206 -6.51025 15.9122 -249.119 -6.51088 16.1072 -250.024 
-6.50739 16.3023 -250.923 -6.49993 16.4977 -251.816 -6.48863 16.6939 -252.704 
-6.47365 16.8909 -253.587 -6.45516 17.0889 -254.466 -6.43335 17.2883 -255.34 
-6.4084 17.489 -256.211 -6.38052 17.6912 -257.077 -6.34991 17.8949 -257.938 
-6.3168 18.1002 -258.794 -6.2814 18.307 -259.645 -6.24395 18.5152 -260.489 
-6.20466 18.7248 -261.325 -6.16375 18.9357 -262.153 -6.12145 19.1476 -262.971 
-6.07796 19.3603 -263.779 -6.03348 19.5737 -264.574 -5.98819 19.7875 -265.356 
-5.94226 20.0014 -266.124 -5.89583 20.2153 -266.876 -5.84903 20.4287 -267.611 
-5.80198 20.6415 -268.329 -5.75475 20.8534 -269.027 -5.70742 21.0642 -269.706 
-5.66004 21.2736 -270.365 -5.61262 21.4815 -271.002 -5.5652 21.6876 -271.619 
-5.51776 21.8918 -272.214 -5.4703 22.094 -272.788 -5.42279 22.2941 -273.34 
-5.37522 22.492 -273.871 -5.32754 22.6877 -274.381 -5.27974 22.8812 -274.872 
-5.23178 23.0725 -275.342 -5.18364 23.2617 -275.794 -5.1353 23.4488 -276.229 
-5.08674 23.6339 -276.646 -5.03796 23.8172 -277.048 -4.98896 23.9987 -277.435 
-4.93974 24.1786 -277.809 -4.8903 24.3571 -278.17 -4.84067 24.5342 -278.52 
-4.79085 24.7101 -278.86 -4.74088 24.8849 -279.19 -4.69077 25.0588 -279.513 
-4.64055 25.2319 -279.829 -4.59023 25.4043 -280.14 -4.53984 25.5762 -280.445 
-4.48939 25.7477 -280.748 -4.4389 25.9189 -281.047 -4.38839 26.0898 -281.345 

LINES 1 430
429 428 427 426 425 424 423 422 421 420 419 418 417 416 415 414 413 412 411 410 409 408 407 406 405 404 403 402 401 400 399 398 397 396 395 394 393 392 391 390 389 388 387 386 385 384 383 382 381 380 379 378 377 376 375 374 373 372 371 370 369 368 367 366 365 364 363 362 361 360 359 358 357 356 355 354 353 352 351 350 349 348 347 346 345 344 343 342 341 340 339 338 337 336 335 334 333 332 331 330 329 328 327 326 325 324 323 322 321 320 319 318 317 316 315 314 313 312 311 310 309 308 307 306 305 304 303 302 301 300 299 298 297 296 295 294 293 292 291 290 289 288 287 286 285 284 283 282 281 280 279 278 277 276 275 274 273 272 271 270 269 268 267 266 265 264 263 262 261 260 259 258 257 256 255 254 253 252 251 250 249 248 247 246 245 244 243 242 241 240 239 238 237 236 235 234 233 232 231 230 229 228 227 226 225 224 223 222 221 220 219 218 217 216 215 214 213 212 211 210 209 208 207 206 205 204 203 202 201 200 199 198 197 196 195 194 193 192 191 190 189 188 187 186 185 184 183 182 181 180 179 178 177 176 175 174 173 172 171 170 169 168 167 166 165 164 163 162 161 160 159 158 157 156 155 154 153 152 151 150 149 148 147 146 145 144 143 142 141 140 139 138 137 136 135 134 133 132 131 130 129 128 127 126 125 124 123 122 121 120 119 118 117 116 115 114 113 112 111 110 109 108 107 106 105 104 103 102 101 100 99 98 97 96 95 94 93 92 91 90 89 88 87 86 85 84 83 82 81 80 79 78 77 76 75 74 73 72 71 70 69 68 67 66 65 64 63 62 61 60 59 58 57 56 55 54 53 52 51 50 49 48 47 46 45 44 43 42 41 40 39 38 37 36 35 34 33 32 31 30 29 28 27 26 25 24 23 22 21 20 19 18 17 16 15 14 13 12 11 10 9 8 7 6 5 4 3 2 1 0 

CELL_DATA 1
FIELD FieldData 2
LengthArray 1 1 double
532.06193244 
TortuosityArray 1 1 double
0.012107855389 
POINT_DATA 429
FIELD FieldData 8
RadiusArray 1 429 double
67.305530526 68.192669715 68.950814083 69.46742917 70.161984215 70.175968919 70.178065029 70.180787953 69.558618833 
68.813602254 68.677032323 68.63855692 68.465877076 67.661188843 67.616093797 66.640436204 66.266905272 66.14293739 
65.317572047 65.220404362 65.06461889 64.35307366 64.279882501 63.606462276 63.176143382 63.136126317 62.643221421 
62.491717215 62.010554114 61.799972282 61.687283971 61.069007795 60.857107167 60.47435682 60.32287854 60.230941068 
60.082989553 59.553265934 58.951928187 58.587275313 58.207053173 58.18700703 57.799054193 57.457684785 57.362842591 
57.287411274 56.843982616 56.630295806 56.353511862 56.312858629 56.110105997 55.90814821 55.89607123 55.683450963 
55.342668294 55.303552738 55.00761662 54.982686968 54.678578965 54.517824919 54.27132499 54.032165684 53.778482339 
53.571774611 53.494260111 53.296220265 53.231389236 52.95272807 52.937532272 52.720261499 52.559285134 52.126130304 
52.0738108 52.073794043 52.069621452 51.945054938 51.484135751 51.405554889 51.065951731 51.047051765 50.720054072 
50.63068031 50.617894336 50.336663629 50.29826304 50.176158152 50.065174558 50.059869441 50.048187347 49.876435806 
49.809721923 49.702636515 49.562551128 49.374880914 49.319936069 49.3167553 49.188116536 48.951874896 48.830245901 
48.725306165 48.596404594 48.55445196 48.466631799 48.330689593 48.31328601 48.199322098 48.126773977 48.12302056 
48.073516287 47.978467934 47.852403654 47.816833182 47.741311638 47.71415453 47.669754421 47.610104186 47.555764969 
47.492745588 47.475467137 47.465869422 47.450275695 47.449083895 47.297453709 47.284298353 47.257560232 47.225835845 
47.089909834 47.046211404 46.921792599 46.870741821 46.680410734 46.668075355 46.626400154 46.54884231 46.501707095 
46.395993532 46.33567639 46.278398249 46.066804779 46.019681485 45.893319323 45.773000052 45.656669734 45.495066111 
45.494271505 45.239849762 45.239846727 45.239090939 45.04900045 44.889793127 44.756759832 44.742419114 44.556439488 
44.339990512 44.042908879 43.997891661 43.997885298 43.997361394 43.747453278 43.468804989 43.370198021 43.275906174 
43.023508209 42.946985926 42.80751437 42.667708899 42.634838488 42.441154991 42.283641561 41.893357374 41.850425978 
41.724660221 41.628910022 41.587202101 41.203235035 40.862511422 40.845949952 40.20356489 40.000765355 39.99550874 
39.4846337 39.446079485 39.079013233 39.030780514 38.932517491 38.753550803 38.703334957 38.4318363 38.333537766 
38.10983393 37.961238512 37.88653295 37.777255766 37.649816229 37.349696326 37.299500085 37.295395072 37.173284386 
36.851978261 36.657010851 36.617448029 36.586397509 36.565819582 36.465419706 36.463459719 36.409194623 36.270774596 
36.155178462 35.937202246 35.881014921 35.827886065 35.827856808 35.826841185 35.577044213 35.5034252 35.359441329 
35.33057399 35.313034537 35.255365384 35.193632692 35.162816694 35.065242039 35.017046601 34.950679688 34.878120674 
34.851019152 34.808801977 34.788579733 34.78247633 34.742004384 34.682096518 34.585796962 34.579590766 34.525152597 
34.479260872 34.475316058 34.436073305 34.27448224 34.190923879 34.174982215 34.143316148 34.106550516 34.037224588 
34.033949697 33.984362049 33.96608298 33.914789056 33.903401944 33.886947126 33.833853733 33.786719154 33.765545571 
33.70483196 33.647458815 33.624472739 33.607042677 33.488736086 33.456836865 33.401706384 33.371556039 33.262538963 
33.223065241 33.157602525 33.12203414 33.119620348 33.059412624 33.0591787 32.94724851 32.851635255 32.795728432 
32.766716664 32.750854699 32.542900718 32.354979552 32.330806523 32.154889172 32.034467166 31.943488872 31.926606831 
31.897626733 31.743507599 31.612055789 31.585760154 31.423697985 31.362249207 31.354635994 31.223279898 31.212534514 
31.110807477 31.086029853 31.021149017 30.807352529 30.773711196 30.63147321 30.587282098 30.296144352 30.200945115 
30.156112306 29.984462801 29.822233594 29.623129329 29.612021625 29.393942141 29.059937353 28.965433679 28.513197095 
28.455192682 28.113549846 28.004094088 27.911630224 27.659205247 27.643782859 27.562269452 27.376441405 27.375982739 
26.90095182 26.770900746 26.767586304 26.72970416 26.347473762 26.223132799 25.996664714 25.968746568 25.807939402 
25.690343414 25.682802293 25.50052528 25.497463174 25.188193291 25.160185637 25.011835977 24.822200734 24.767152905 
24.759202097 24.573445455 24.392257183 24.35256125 24.286888028 23.952008682 23.768051129 23.692734226 23.611647679 
23.55427638 23.462510835 23.401924514 23.102230077 22.80827596 22.782184866 22.690718421 22.161314299 22.069009988 
21.801847489 21.791037562 21.787377953 21.762022617 21.493527737 21.426363399 20.806117736 20.764665811 20.557709477 
20.515633396 20.30637672 20.185203589 20.174240555 19.891912456 19.81249103 19.563121129 19.549679734 19.355847418 
19.299681801 19.199814834 19.154079982 18.872110625 18.832679534 18.635863974 18.627035776 18.38697776 18.365855128 
18.128985555 18.097998534 18.014484102 17.731011079 17.575486458 17.513893857 17.23157287 17.134628243 17.007268514 
16.765150154 16.659149464 16.211114089 15.817136436 15.767060286 15.696858155 15.468995096 15.093384677 15.082374327 
14.60981434 14.356817957 14.045409847 14.01130149 13.691306494 13.547040562 13.214228363 12.735887792 12.731135879 
12.497549152 12.289935156 12.079223391 11.987526777 11.971214627 11.597261684 11.560204168 11.326434247 11.036417853 
10.618204938 10.592343101 10.491969194 10.446835596 10.107544998 9.9454875244 9.4622556642 9.3785797321 8.9704811281 
8.9409846629 8.641444821 8.3605548851 8.3446907723 7.8971229143 7.7106432838 
EdgeArray 2 429 int
51571 51571 53668 53668 53021 53021 46007 46007 34729 
35978 35985 36681 35985 36951 36538 36951 35747 36791 
37080 36025 34121 37079 37063 37079 37063 37062 36096 
25926 35657 36096 36114 36114 36111 36111 35901 34266 
35665 35665 35916 35916 35921 35921 35002 35011 35331 
35210 35119 35119 32372 34915 32372 34890 32554 34890 
32554 33920 33920 34034 34034 34041 34564 30300 33184 
33786 32759 29656 34216 33843 34216 34106 31492 31492 
33348 33348 32992 33752 33518 33518 33750 31961 33490 
33490 31933 33457 28188 28607 31440 32570 33176 33086 
33293 31956 24381 27332 22565 31653 32815 32815 32354 
32162 29112 31133 32418 32204 32599 32596 30767 30117 
30707 32087 31605 30001 32138 31762 31762 31213 31285 
31665 26691 24743 31692 29358 28757 28757 28436 28436 
24007 24007 30841 31626 31630 31630 31635 31635 30106 
29136 29136 31482 30329 30329 29928 29928 31099 31099 
30974 30974 30774 30974 30774 30774 30649 30649 30383 
30383 29368 29368 26623 26623 29039 21286 27439 28154 
27373 27439 29581 27373 28928 28928 29733 29845 29724 
29724 28373 29541 28373 29351 28996 29351 28140 27402 
29013 29013 28516 28516 29177 29177 28651 28651 28984 
25472 25472 26638 28184 28184 28088 25230 28364 28364 
24906 24906 27711 27711 27239 25958 24274 27013 18496 
25934 27676 24679 27683 27694 27687 27501 27471 27501 
24709 23798 26811 22647 26146 27250 27251 26279 27006 
26500 26578 27006 26578 26582 26582 26583 26585 26583 
25720 25720 26273 26273 26272 26272 24732 26275 25909 
26275 23254 23254 25844 25844 17856 25848 17856 25550 
25089 25089 25581 25462 25575 25245 24414 23987 24738 
24738 24968 22644 24667 22545 22545 22545 24872 24872 
24575 24575 24220 24220 23091 23091 23699 23699 22895 
22895 23288 23288 23689 23689 22820 22820 23300 23089 
23300 23296 23292 23292 22825 23292 22825 22825 22792 
22811 22345 22345 22838 22838 22829 22829 22787 22787 
22785 22785 22097 22097 22810 22810 22406 22810 22406 
22406 22799 22799 21742 21742 21729 21729 21571 21571 
21749 21749 19730 21574 21461 19730 21660 21660 21741 
21287 21715 21715 21472 21472 21289 21289 20988 20792 
20418 21359 21272 21272 21023 20915 20801 20801 17724 
19926 20197 21136 20417 20417 20918 20918 20096 17809 
18864 18864 20815 20814 20812 20812 20813 20684 20683 
20762 20270 20270 20599 20599 20278 20278 20437 20437 
20534 20534 20386 20386 20221 20221 20222 20222 19425 
18327 19837 18815 19837 20037 19845 20037 19419 19419 
19166 19166 19346 19346 19277 19045 19260 19045 19260 
18937 18762 18974 19219 19076 19218 18935 18967 18967 
18057 18057 18755 18755 18582 18582 18521 18521 17648 
18521 17648 17648 15319 15319 18035 18035 18028 16939 
17995 17672 17831 17845 17841 17841 17470 17650 17651 
17260 17020 17020 17262 17045 17339 16683 17183 16633 
17193 16633 17193 17194 17194 17194 16814 16837 16814 
16486 16819 16728 16875 15301 16724 16774 16776 16647 
16236 16236 16286 16384 16233 16383 16229 16229 16028 
16118 16024 16028 14811 14811 15716 15716 15691 15691 
15515 15519 15516 15522 15504 15522 15504 14359 14359 
14767 14767 14407 14407 14618 14618 15093 14573 15043 
15043 14798 14814 14778 14778 14100 14059 13301 14786 
14522 14612 14786 14412 14412 14304 14397 14187 14175 
14393 14212 14391 13899 13899 14055 14068 14055 14066 
14066 14065 14057 13873 14046 13432 13432 13877 13098 
13459 13498 13498 13505 13500 13500 13496 13496 13343 
13343 12559 12559 11888 13133 12957 12798 12978 12982 
12985 12990 12989 12989 12778 12774 12604 12633 12566 
12619 12257 12619 12625 12257 12623 12625 12623 12624 
12252 12251 12251 12004 12053 12053 12061 12052 11803 
12040 11887 11887 11520 11520 11519 11519 9859 9859 
10910 10910 11408 11408 11402 11409 11293 9461 11067 
9461 11072 11072 11073 11073 10923 11074 7683 7683 
10783 10783 10495 10495 10028 10028 10325 10325 10117 
10510 10509 10510 10511 10509 10034 9505 10034 9867 
10049 10049 9589 9589 8675 9872 9876 9145 9294 
9116 9689 9689 9206 9206 9635 9635 7945 9490 
9074 7945 9074 9186 9109 9355 9109 9177 9011 
9059 9011 9069 8235 9068 8923 9061 9012 9061 
9012 9064 8486 8486 7889 7792 8670 8621 8670 
8652 8779 8779 8528 8674 7954 7930 8559 8507 
8065 7951 8405 8416 8027 8405 8397 8397 7405 
7405 7893 7893 7964 7964 7935 7935 7848 7848 
7722 7722 7527 7725 6828 7364 7346 7038 7141 
7233 7411 7411 7638 7638 7634 7634 7464 7464 
7460 7460 6706 6706 7320 7320 7321 7321 6789 
5666 6974 7151 7027 7027 7021 7030 6917 6962 
6661 6917 6901 6661 6899 6903 6622 6622 5441 
6542 6613 6615 6615 6614 6457 6457 6426 6426 
6152 6389 6389 6401 6401 6400 6404 6404 5728 
5728 6390 6391 5823 5823 4998 6179 5493 6008 
5629 5629 5701 5608 5063 5063 5835 5831 5837 
5832 4545 5254 5491 5158 5377 5377 4343 5378 
4844 4844 5317 5311 5308 5308 4862 4742 4869 
4869 5100 5100 4743 4743 4879 4879 4880 4487 
3992 4485 4479 4501 4499 4495 4481 4493 4483 
4170 4176 4177 4178 4171 3975 4168 4008 4008 
4163 4160 4164 4163 4009 2607 4009 4014 4158 
4158 2753 2753 3550 3551 3550 3555 3714 3053 
3053 3711 1942 1062 2821 2821 340 2817 250 
250 325 325 
EdgePCoordArray 1 429 double
0 0 0 0 0.924 0.844 0.948 0.908 0.372 
0.156 0.66 0.532 0.168 0.988 0.008 0 0 0.948 
0 0 0 0.764 0.396 0 0.164 0.14 0.42 
0.46 0.668 0.252 0.3 0.632 0.464 0.12 0.612 0 
0 0.852 0 0.604 0 0.796 0.732 0.3 0.012 
0.128 0.156 0.476 0 0.368 0.06 0.24 0.708 0.448 
0.492 0.508 0.62 0.224 0.8 0.876 0.188 0 0 
0 0.228 0 0 0.888 0.16 0 0 0 
0 0.996 0 0 0 0 0 0.008 0.484 
0.124 0.916 0 0.996 0 0.048 0.472 0.928 0.532 
0 0 0 0 0.952 0.12 0 0.416 0 
0 0 0.468 0.024 0.776 0.98 0.652 0.932 0.952 
0.472 0.12 0.884 0.364 0.328 0.456 0.508 0.444 0.5 
0 0 0 0.996 0.984 0 0 0.128 0.268 
0 0.096 0.484 0.612 0 0.992 0.328 0 0 
0 0 0 0 0 0 0 0 0.14 
0.132 0 0.996 0 0.788 0 0 0 0 
0 0 0 0.988 0 0 0 0 0 
0 0.788 0.256 0 0.784 0 0 0 0.04 
0.312 0 0.96 0 0.404 0.4 0 0 0.996 
0 0.392 0 0.352 0.36 0 0 0 0 
0 0 0 0 0.016 0.472 0.988 0.972 0 
0 0 0.404 0.36 0.684 0.82 0.172 0.36 0 
0 0 0 0 0.972 0 0 0 0.76 
0.196 0.852 0 0.996 0.144 0 0.428 0.464 0.24 
0.208 0.676 0 0.964 0.796 0.848 0.196 0.796 0.22 
0 0.224 0.916 0 0.144 0.572 0 0 0 
0.064 0.78 0.752 0.688 0.512 0.296 0.488 0.352 0.4 
0.52 0.624 0.568 0.656 0.932 0.176 0 0.052 0.176 
0.652 0.768 0.964 0.98 0 0.004 0.94 0 0.26 
0.868 0.124 0 0 0 0 0.112 0.02 0.024 
0.084 0 0.58 0.532 0.388 0.084 0.96 0.148 0.224 
0.812 0.444 0 0.2 0.22 0 0 0 0 
0 0 0.844 0.656 0.576 0 0 0.876 0 
0 0 0 0 0.96 0.864 0.812 0.032 0.048 
0 0 0.008 0.96 0.86 0 0 0 0.428 
0.124 0.128 0.08 0.092 0.176 0.24 0.42 0.76 0.208 
0.156 0 0.032 0.332 0.276 0 0.044 0.072 0.888 
0.204 0.688 0.264 0 0 0 0 0 0 
0 0.016 0.024 0.94 0.188 0 0 0 0 
0 0 0 0 0.276 0.632 0 0.052 0.06 
0.656 0.804 0.32 0 0.068 0.176 0.6 0 0 
0.948 0.252 0.344 0 0 0.068 0 0.492 0.7 
0 0.904 0 0.856 0.412 0.192 0.744 0 0.924 
0 0.508 0 0.276 0 0 0 0 0.016 
0.424 0.464 0.636 0.548 0.524 0.116 0.708 0.492 0 
0.04 0.756 0.064 0.14 0 0 0.288 0.224 0.388 
0.708 0.28 0 0.9 0 0 
CurvatureArray 1 429 double
0 0.00039354916075 0.0015740094716 0.0027136502778 0.0037793133308 0.0047403453552 0.0055603646416 0.006232595617 0.0067363720291 
0.0070786880157 0.007259149937 0.0072915872197 0.0071959551875 0.0069909912657 0.0066947128187 0.0063318881576 0.0059191364206 0.0054773716827 
0.0050180160647 0.0045588181848 0.004104741 0.0036670096494 0.0032495601193 0.0028586518945 0.0024935072407 0.002160276563 0.0018552627893 
0.0015793013445 0.0013340465795 0.0011152265756 0.0009217250459 0.00075326710854 0.00060833072126 0.00048540016498 0.00038154028629 0.00030294165172 
0.00024354255499 0.00021635520935 0.00021285444466 0.00023372625688 0.00026711481233 0.00030733191676 0.00034950702206 0.00039356135921 0.00043485378461 
0.00047419860429 0.0005087075522 0.00053837528601 0.00056040527004 0.0005754619719 0.00058193249178 0.00057791174855 0.00056506986856 0.00054349060208 
0.00051335402897 0.00047542485816 0.00043087804846 0.00038206669556 0.00032974448215 0.00027559361566 0.0002209873034 0.00016763259076 0.00011814699193 
7.7195469606e-05 6.1685534311e-05 8.6081175512e-05 0.00012842265598 0.00017453096376 0.0002239679734 0.00027342903474 0.00032475407123 0.00037663543783 
0.00042857583778 0.00048142497504 0.00053290351317 0.00058563120305 0.00063632234131 0.00068610945785 0.0007347210648 0.0007812801584 0.00082649012469 
0.00086827203604 0.00090898119753 0.00094736690917 0.00098482515709 0.0010207316744 0.0010585622746 0.0010972802763 0.0011408608626 0.0011883677796 
0.0012421420282 0.0013041997802 0.0013753132519 0.0014533991474 0.0015414401951 0.0016342115238 0.001737285841 0.0018426979433 0.0019542650909 
0.0020667121752 0.0021813350876 0.0022974382498 0.0024080410496 0.0025189510794 0.002623505555 0.0027232387481 0.002819182691 0.002904829696 
0.0029848158724 0.003057924606 0.0031219184964 0.0031783301929 0.003228813455 0.0032735518879 0.0033095981955 0.0033432534106 0.0033686676795 
0.0033898576601 0.0033998890864 0.0034061321206 0.0033985186594 0.0033839064277 0.0033562348552 0.0033207144583 0.0032790866307 0.0032282544333 
0.0031767503328 0.0031220922363 0.0030727667259 0.0030252424406 0.0029859271445 0.0029516934844 0.0029269105022 0.0029113958538 0.0029022638995 
0.0029020282233 0.0029079267823 0.0029219095682 0.0029391512702 0.002962895023 0.0029872428343 0.0030167359591 0.0030445973554 0.0030758737817 
0.0031047060047 0.0031337882769 0.0031631249539 0.0031869868168 0.0032123395611 0.0032355432754 0.003257252628 0.0032785743749 0.0032972169438 
0.0033171741669 0.00333226467 0.0033500265593 0.0033625964805 0.0033716449876 0.0033774678473 0.0033753075087 0.0033663727353 0.0033469753151 
0.0033157799272 0.0032746773377 0.0032153585737 0.0031432955817 0.0030598603071 0.002957527963 0.0028446300302 0.0027186204686 0.0025835425536 
0.0024380927627 0.0022871838276 0.0021318917667 0.0019759782292 0.0018185582368 0.0016648860067 0.0015160685187 0.0013721088152 0.0012384059272 
0.0011139690105 0.0010001149348 0.00090037204341 0.00081559966606 0.0007471511134 0.00069550399486 0.0006623624482 0.00064638998858 0.00064616482357 
0.00065785213022 0.0006784894175 0.0007044053845 0.00073245790616 0.00076065472316 0.0007864060096 0.00080982011189 0.00082798400328 0.00084304330048 
0.00085537092092 0.00086588014439 0.00087448584586 0.00088247930762 0.00089356316685 0.00090402845542 0.00091671641777 0.00092946137237 0.00094036940384 
0.00095065240678 0.00095576612172 0.00096068864265 0.00096234601392 0.00096277090341 0.00096330531157 0.00097240395274 0.00098865024618 0.0010181019278 
0.0010636638426 0.001124407184 0.0012011866506 0.0012904604604 0.0013888186491 0.0014908249068 0.0015930344857 0.0016892417785 0.0017755521628 
0.0018479599559 0.0019023701915 0.0019361511056 0.0019463254339 0.0019332644245 0.0018958491149 0.0018355150821 0.0017566548247 0.0016623808803 
0.0015594863427 0.0014580009863 0.0013659378719 0.0012951326635 0.0012562665947 0.0012519083994 0.0012812443652 0.0013369909497 0.0014055973162 
0.0014775447892 0.0015439999899 0.0015954257206 0.0016284306268 0.0016414334642 0.001638403385 0.0016246252697 0.0016092055567 0.0016007779608 
0.0016089067099 0.0016473607233 0.0017111022536 0.0018000838662 0.0019067179163 0.0020219613009 0.002136186288 0.0022409216724 0.0023301409421 
0.0023991501909 0.0024449772032 0.0024673575884 0.0024656266383 0.0024409733298 0.0023957018485 0.0023304593599 0.0022509852621 0.0021579177459 
0.0020571560279 0.0019506780817 0.0018444986172 0.0017411914554 0.0016460142358 0.0015625193003 0.0014931627825 0.0014401585953 0.0014035154585 
0.001380676926 0.0013697096044 0.0013667950675 0.0013669937095 0.0013692247981 0.0013687097553 0.001367874406 0.0013658038964 0.001363974375 
0.0013668089357 0.0013761179783 0.0013942661792 0.0014220239043 0.0014604692781 0.001506929728 0.0015594701185 0.0016147950541 0.001670368347 
0.0017250779019 0.001773222241 0.0018157890648 0.0018532254644 0.0018808742245 0.0019020036088 0.0019129476075 0.0019182391192 0.0019149383745 
0.0019017728022 0.0018832749289 0.001856678423 0.0018207709813 0.0017803413526 0.0017322911491 0.0016783236882 0.00161925192 0.0015578606159 
0.0014937765836 0.001429989458 0.0013718505054 0.0013151424191 0.0012688365144 0.0012300659257 0.0012011610195 0.001180133243 0.0011663908979 
0.001155566686 0.0011467352773 0.0011377663607 0.0011259164992 0.0011127535612 0.0010987817655 0.0010854494357 0.0010760992933 0.0010698836193 
0.001068471569 0.0010735362224 0.001081947916 0.0010911458197 0.0010996054339 0.0011038900132 0.0011039066265 0.0010975086647 0.0010835941983 
0.0010674526261 0.0010442962778 0.0010192886781 0.00099327044164 0.0009724554706 0.00095631762283 0.00094758672669 0.00095335166187 0.00097122078929 
0.0010075238262 0.0010617551254 0.0011350053678 0.0012262372216 0.0013355484989 0.0014629718815 0.0016072434782 0.0017667400666 0.001943137588 
0.002133341142 0.0023374764472 0.0025529196518 0.0027784524638 0.00301159168 0.003250372961 0.0034903436777 0.003728693161 0.003960115565 
0.0041823073907 0.0043894867625 0.0045772320795 0.0047424180606 0.0048813631069 0.0049921882265 0.0050752907604 0.0051259423374 0.0051508816098 
0.005150801857 0.0051257947047 0.0050870336419 0.0050373042025 0.0049848209191 0.0049337177902 0.0048942735064 0.0048632654223 0.0048593681796 
0.0048922952992 0.0049510180546 0.0050498967102 0.0051806790329 0.0053647060226 0.0055708108374 0.0058530747629 0.006185291182 0.0065533508285 
0.0069826181004 0.0074575843449 0.0080322859985 0.0086402953491 0.009330656885 0.010092752812 0.010954033734 0.01188443062 0.012931489476 
0.014024045581 0.015271441613 0.016461241473 0.017799180237 0.019157080514 0.020521620258 0.021788928818 0.023078913071 0.0241819428 
0.02501830091 0.025720455539 0.026067022824 0.026107566572 0.02570530129 0.024984495835 0.023808619976 0.022188450758 0.020287371028 
0.017725005551 0.015184734222 0.012212167401 0.0089099763756 0.0057891762177 0 
TorsionArray 1 429 double
0 0 0.0002179380579 0.00037855968223 0.00091893092952 0.0011506423879 0.0015350891434 0.0019004128527 0.0022501570137 
0.0026951619651 0.0030878599091 0.0035038410946 0.0039763985627 0.0044717619719 0.004895580213 0.0053567205889 0.0059426311678 0.0063959335592 
0.006915998439 0.0074726374766 0.0079116973814 0.0084379664648 0.0089367832013 0.0093016702868 0.0097149449733 0.010403612388 0.010796007103 
0.01154872764 0.013003047399 0.014649973833 0.017370405796 0.022707806958 0.03176799776 0.045564658509 0.069551218124 0.10540653515 
0.15173856994 0.17857824841 0.16514069955 0.1188740101 0.077200519481 0.047475977218 0.02779568657 0.017406960901 0.011266476298 
0.0072241329888 0.0052472099386 0.0049942184515 0.0066287096908 0.0066134894051 0.009685646161 0.013691214787 0.014509582402 0.017468807725 
0.023327257364 0.028964802743 0.033051465432 0.039764438824 0.050748279636 0.06340028402 0.08532028634 0.12466624934 0.20986996982 
0.44400831722 0.64937181569 0.3406599073 0.17924066804 0.10631410343 0.073998872099 0.056688338028 0.045997492351 0.036874383686 
0.029429859152 0.02438497281 0.022187299054 0.01945463165 0.016807111044 0.016393544652 0.016922204216 0.018696987879 0.019782917167 
0.022112402642 0.02539881993 0.028901780856 0.032221925418 0.036347428735 0.040235341592 0.043516516478 0.046147791882 0.047510752379 
0.048210552539 0.047744977842 0.045736802912 0.042955819949 0.039251313596 0.035296921959 0.030854157419 0.026301865874 0.021748317994 
0.017186478039 0.012809707192 0.0082974286724 0.0039207232037 -0.00038551204911 -0.0048178951237 -0.0091403514476 -0.013607528507 -0.018221722141 
-0.022694976485 -0.027216060275 -0.031702086397 -0.035744560992 -0.03920608241 -0.042228336139 -0.044185100494 -0.044923277645 -0.044552655306 
-0.042959103118 -0.039964096637 -0.036028210761 -0.03135759257 -0.025854853737 -0.020383265479 -0.014166608204 -0.0087710839271 -0.0037063892583 
0.00097282897222 0.0052118643381 0.0087795959449 0.011410890141 0.013304124851 0.014500013733 0.015727054569 0.015962743008 0.016002474833 
0.016066124274 0.016134934298 0.016141871725 0.016444925626 0.016865314328 0.017558880516 0.018492607031 0.01971902088 0.021295236009 
0.022852642514 0.024890814713 0.026726260498 0.028661383608 0.03092032194 0.032842124827 0.034679314565 0.036283025289 0.037600558121 
0.038511243545 0.039080772096 0.039150607197 0.038773260952 0.038018010761 0.03682747642 0.03535406188 0.033563926285 0.031615794892 
0.029514859526 0.027366458358 0.025336013278 0.02310938506 0.021133371621 0.019360610778 0.017586375444 0.016080161319 0.01482524154 
0.013916864151 0.013217613953 0.01285997788 0.013081818786 0.013956706195 0.015254466028 0.017682872606 0.021155246283 0.025587331087 
0.032110894316 0.040138459989 0.049302081238 0.059746686848 0.070728830526 0.079875124799 0.084789710161 0.084689156641 0.080197915909 
0.074700531482 0.066122182293 0.058188825791 0.053480281205 0.049137441224 0.047863760993 0.047216866209 0.04697882674 0.049675662484 
0.052319315694 0.05375426559 0.054203660135 0.054599045065 0.052554143936 0.048352038019 0.042621772756 0.034166506357 0.024610567857 
0.013459528815 0.0013308276614 -0.011328971522 -0.025215960574 -0.039672282043 -0.053101207478 -0.065037724052 -0.074788784248 -0.079700913356 
-0.080887550185 -0.07721650697 -0.070121725631 -0.061940810866 -0.052856504215 -0.043924192466 -0.035594270224 -0.028461835546 -0.021529437053 
-0.014709556353 -0.008624976889 -0.0026587303248 0.0038594844066 0.011173030691 0.019144036373 0.028411555145 0.040215370235 0.053761528036 
0.070401627346 0.090122945249 0.10993453372 0.12813198435 0.13760279822 0.13507730327 0.12146933982 0.099359759238 0.0745229489 
0.050288273588 0.027060001722 0.0049520784767 -0.016282619161 -0.037514513597 -0.05955147326 -0.08147406913 -0.1021921958 -0.120115983 
-0.13091057475 -0.13221040478 -0.12617880179 -0.11303984577 -0.095675544131 -0.079293645413 -0.064119940205 -0.050157966897 -0.038692165589 
-0.028732233463 -0.019969713997 -0.01224752105 -0.005831807617 0.00044348065373 0.0068786232771 0.01257384288 0.018721844182 0.025222663831 
0.032128474463 0.039387754604 0.046669884963 0.054239009361 0.061372249808 0.066862175355 0.069780666778 0.070110007716 0.066078709611 
0.058257773028 0.047872185629 0.035077500276 0.021274698315 0.0061093398075 -0.0083814550869 -0.021811371782 -0.036133907409 -0.047374069405 
-0.055784286521 -0.063748792288 -0.066398658476 -0.066153684747 -0.064238570096 -0.058857449147 -0.052594174132 -0.046039227665 -0.040032185019 
-0.033627951938 -0.027705696976 -0.023246448949 -0.018714228264 -0.014638797816 -0.011022042757 -0.0078069069885 -0.0049736142647 -0.001731960838 
0.0011016365207 0.0038136600719 0.0071652823073 0.010391989945 0.013779159477 0.017893261981 0.022381167442 0.027220056016 0.032649856672 
0.038820182719 0.044344795339 0.050488424315 0.055941807103 0.058725295864 0.060228965626 0.058375652528 0.052802018409 0.045241440063 
0.034962948743 0.021607849207 0.0090284592776 -0.0045734516006 -0.018276317269 -0.030846820541 -0.042052179008 -0.049614234517 -0.053537054281 
-0.055282093842 -0.053586296827 -0.047915800725 -0.040872656529 -0.032329150245 -0.023179595983 -0.013920832589 -0.0040055146823 0.0045743708058 
0.013850166698 0.024399167177 0.034637613286 0.043877349757 0.05348126348 0.064040587279 0.071134479275 0.076809458492 0.080121191286 
0.077648171701 0.072974865791 0.066506632505 0.059845592385 0.050993259834 0.041892479168 0.033851085735 0.027952989544 0.02130357416 
0.016044946956 0.011379054622 0.0059537987984 0.0021688391311 -0.00044171230238 -0.0046514565595 -0.0070183867236 -0.0097835423392 -0.013004614397 
-0.014462991836 -0.0173885309 -0.020032628033 -0.02209620166 -0.024819817942 -0.028180415335 -0.03047653461 -0.03330605536 -0.037397133331 
-0.040351440442 -0.044222237084 -0.048797783996 -0.053083521583 -0.057423587855 -0.06126196378 -0.063951274944 -0.066721773886 -0.06950805283 
-0.069786604384 -0.06842460796 -0.065693303256 -0.062230528349 -0.056616092903 -0.051232129715 -0.045633512403 -0.038186916987 -0.030954695615 
-0.024337432789 -0.018127634514 -0.011830059184 -0.006131678361 -0.001236717189 0.0032149320217 0.0071448561666 0.010242183846 0.012854370604 
0.014448761952 0.016270265045 0.017089123591 0.016665254636 0.016556456204 0.016199048254 0.014783445367 0.012929870645 0.012022074716 
0.01005018163 0.0076949326686 0.0057693819941 0.0038128792964 0.0018553817172 -0.00038266532307 -0.002061180995 -0.0039891192278 -0.0033155231726 
-0.0035696684411 -0.0066077488199 -0.0034604907929 -0.0049619776632 0 0 
TangentArray 3 429 double
-0.21330480964 -0.21247365779 0.95360159549 -0.21330480964 -0.21247365779 0.95360159549 -0.21260648239 -0.21125842215 0.95402744338 
-0.2110787823 -0.20860442145 0.95495023065 -0.20875152543 -0.20456907997 0.95633377654 -0.20566882189 -0.19924620125 0.95812383698 
-0.20189654942 -0.19276807908 0.96024905677 -0.19751394063 -0.18529444652 0.96262880247 -0.19261138773 -0.17700568434 0.96517865757 
-0.18728836223 -0.16809546675 0.96781557305 -0.18164638691 -0.15876130751 0.97046351676 -0.17578997413 -0.14919930561 0.97305572924 
-0.16981841552 -0.13959162265 0.97553876634 -0.16382316575 -0.13010268477 0.97787282495 -0.1578886721 -0.12087868918 0.98003036163 
-0.15209001818 -0.11204047595 0.98199570168 -0.14649038363 -0.10368413696 0.98376326789 -0.14113978762 -0.095881972281 0.98533558128 
-0.13607947739 -0.088682248518 0.98672074805 -0.13133844376 -0.082111991292 0.98793108772 -0.12693611876 -0.076180053364 0.98898120368 
-0.12288525078 -0.070880177858 0.98988646598 -0.11918958192 -0.066193070644 0.99066256665 -0.11584639016 -0.062089184241 0.99132464263 
-0.11284918905 -0.058531684584 0.99188663789 -0.11018544263 -0.055478446465 0.99236148162 -0.1078375843 -0.052885160129 0.99276090538 
-0.10578871518 -0.050706750771 0.9930949467 -0.10401644746 -0.048897479017 0.99337284803 -0.10249625109 -0.047414545051 0.99360272716 
-0.10120554073 -0.046218113528 0.99379138883 -0.10011987742 -0.045270940697 0.99394494419 -0.09921265728 -0.044540184105 0.99406892147 
-0.098457691088 -0.04399728931 0.99416815559 -0.097832164808 -0.043617614979 0.99424663499 -0.097311126538 -0.043380192493 0.99430815322 
-0.096872940302 -0.04326819838 0.99435581984 -0.096496873939 -0.043267711841 0.99439240666 -0.096163588669 -0.043367189874 0.99442035933 
-0.095857614197 -0.043557474547 0.99444158411 -0.095563276752 -0.043831001274 0.99445789426 -0.095269587879 -0.044181504161 0.99447056282 
-0.094968014886 -0.044602631479 0.99448060887 -0.094651431217 -0.045088700067 0.99448887158 -0.094316797567 -0.045634213052 0.99449578194 
-0.093963842549 -0.046232814094 0.99450154509 -0.093593209128 -0.046877375197 0.9945063212 -0.093207798995 -0.047560018889 0.99451010594 
-0.092812587869 -0.048272099586 0.99451275906 -0.092415029304 -0.049004978378 0.99451393879 -0.092020748822 -0.049748723507 0.99451357271 
-0.091639331446 -0.050492978045 0.99451128304 -0.091280735746 -0.051227737898 0.99450668482 -0.090950068865 -0.051942187904 0.99449992161 
-0.090653641736 -0.05262644043 0.99449101304 -0.090398895593 -0.053271720822 0.99447984567 -0.09019050665 -0.05386929175 0.99446657657 
-0.090029014902 -0.05441121466 0.99445170632 -0.089914427232 -0.054891293859 0.99443569004 -0.089846087905 -0.055304390526 0.99441897854 
-0.089819954462 -0.055646239042 0.99440226863 -0.089831360096 -0.055913679419 0.99438623643 -0.089873325144 -0.056105310142 0.99437165064 
-0.089938272371 -0.056219830742 0.99435931021 -0.090018590629 -0.056256345541 0.99434997708 -0.090106129142 -0.056215319093 0.99434436861 
-0.090195038779 -0.05609724821 0.9943429759 -0.090275883911 -0.055902317661 0.99434661747 -0.090342740033 -0.055631025638 0.99435576043 
-0.090390951125 -0.055284441033 0.99437070881 -0.090415351214 -0.054862741072 0.99439184626 -0.090411889693 -0.054365865123 0.99441945019 
-0.090377715004 -0.053794463964 0.99445363103 -0.090311865531 -0.053148796944 0.99449432996 -0.090212944216 -0.052429824969 0.99454147131 
-0.090078343381 -0.051638477791 0.99459507322 -0.089906457536 -0.050775933336 0.9946550324 -0.089697240677 -0.049844731698 0.99472102005 
-0.089448058259 -0.048847341027 0.99479293431 -0.089155410907 -0.047787556048 0.99487067611 -0.088813817487 -0.046670145156 0.994954272 
-0.088419057796 -0.045500992135 0.99504358193 -0.087964914702 -0.044287004404 0.99513860091 -0.087442946522 -0.043035839958 0.99523949258 
-0.086844253787 -0.041756407962 0.99534641104 -0.086160040833 -0.040458291141 0.99545947885 -0.085379432147 -0.03915169464 0.99557897596 
-0.084491108717 -0.037847111523 0.9957052017 -0.083484290216 -0.036554837813 0.9958383991 -0.082348205374 -0.035284979653 0.99597878656 
-0.081074293197 -0.034047201729 0.99612637102 -0.079653265786 -0.032849939196 0.99628120465 -0.078076469631 -0.031700127204 0.99644325821 
-0.076338728532 -0.030603312564 0.99661217923 -0.074435899598 -0.029563076785 0.99678750059 -0.072366685632 -0.028581073171 0.99696849753 
-0.070130297218 -0.02765662539 0.99715437746 -0.067728108327 -0.026786690644 0.99734416153 -0.065164721427 -0.02596621413 0.99753662329 
-0.06244572691 -0.02518785294 0.99773047626 -0.059579573776 -0.024442085927 0.9979242751 -0.056574187575 -0.023717330413 0.99811665127 
-0.053442773736 -0.023000259283 0.99830599418 -0.050199321017 -0.022275948701 0.99849076625 -0.046858255226 -0.021528259941 0.9986695339 
-0.043437517314 -0.02073997556 0.99884084593 -0.039953345851 -0.019893323988 0.9990034964 -0.036425563626 -0.018970548758 0.99915629238 
-0.032875399851 -0.017954009001 0.99929818455 -0.029321852149 -0.016826992447 0.99942837728 -0.025786109325 -0.015574474033 0.99954615317 
-0.022289720709 -0.014183403367 0.99965093879 -0.018851732292 -0.012643704796 0.99974234127 -0.01548903981 -0.010948805686 0.99982009047 
-0.012218890784 -0.0090959560379 0.99988397441 -0.0090540033056 -0.0070866117287 0.99993390029 -0.0060034562591 -0.0049267821886 0.99996984221 
-0.0030732786121 -0.0026266316851 0.99999182785 -0.00026638344418 -0.0002005543118 0.99999994441 0.0024199981002 0.0023340418835 0.99999434791 
0.0049915894108 0.0049576141991 0.99997525274 0.0074566709317 0.007648922936 0.99994294439 0.0098272974842 0.010386332706 0.99989776893 
0.0121160107 0.013149225093 0.9998401373 0.014340182511 0.015918996341 0.99977044601 0.016513981724 0.018679050763 0.99968914242 
0.018651966445 0.021415971935 0.9995966488 0.020768685651 0.024119642591 0.99949332391 0.022878625017 0.026783026017 0.99937942646 
0.0249951352 0.029402162579 0.99925510059 0.027129286801 0.031975676831 0.99912039209 0.029290746587 0.034504576979 0.99897521808 
0.031487474009 0.036991277414 0.99881939527 0.033729002714 0.039439173656 0.99865254516 0.036021022772 0.041852227818 0.99847427455 
0.038368623662 0.044234264984 0.99828411713 0.040777009932 0.046588550321 0.99808153096 0.043251179757 0.048917639131 0.99786592287 
0.045794893588 0.051222807893 0.99763673332 0.048412064484 0.05350360165 0.99739342118 0.05110584054 0.05575792442 0.99713552084 
0.053879418364 0.057982104144 0.99686262036 0.056735644504 0.060170587173 0.99657441623 0.059677115474 0.062315989727 0.99627072591 
0.062706857402 0.064409095964 0.99595146387 0.065825941461 0.066439420694 0.99561676804 0.069037602564 0.068395258474 0.99526674718 
0.072341235379 0.070263500166 0.99490189778 0.075736324744 0.072030930071 0.99452277713 0.079224183966 0.073683543873 0.994129903 
0.082802954421 0.075207606108 0.99372404958 0.086470705683 0.076589927338 0.99330599519 0.090223588815 0.077817815779 0.9928766749 
0.094057395462 0.078880125397 0.99243696635 0.097965446918 0.07976704201 0.99198789822 0.101940824 0.080470843764 0.9915303887 
0.10597566753 0.080986119648 0.99106528862 0.11005793901 0.081309747755 0.99059374871 0.11417674442 0.081441356637 0.99011664791 
0.1183187404 0.081383440163 0.98963498894 0.12246902485 0.081141202349 0.98914985883 0.12661199806 0.08072284832 0.98866234059 
0.13072995293 0.080139230929 0.98817376158 0.13480661021 0.079403572388 0.98768529934 0.13882263316 0.078531468052 0.98719860466 
0.14275778221 0.077540158525 0.98671563251 0.14659699978 0.076448262299 0.98623779224 0.15032160804 0.075275273249 0.98576723794 
0.15391372482 0.074040966872 0.98530629783 0.15735918092 0.072764774974 0.98485703313 0.1606445287 0.071465293436 0.98442168162 
0.16375755997 0.070159836907 0.98400257054 0.16668779917 0.068863868939 0.9836020258 0.16942808564 0.067590709511 0.98322206026 
0.1719738105 0.066351274181 0.98286444483 0.1743213127 0.065153804853 0.98253094692 0.17646908722 0.064003717053 0.98222308335 
0.17841942708 0.062903781799 0.98194176114 0.18017437953 0.06185426378 0.98168795603 0.18173896393 0.06085263731 0.98146212638 
0.18312060713 0.059894398693 0.98126423773 0.18432543652 0.058973190494 0.98109443799 0.18536193798 0.058081183742 0.98095235768 
0.18624029602 0.05720955404 0.98083720314 0.18697043223 0.05634899034 0.98074810668 0.18756117354 0.055490149983 0.98068427612 
0.18802192937 0.054624222757 0.98064465958 0.1883623406 0.05374356111 0.98062799179 0.18859180463 0.052841816734 0.98063289443 
0.18871862926 0.051914727353 0.98065801381 0.18874782659 0.050960099617 0.98070246569 0.18868616238 0.049978138965 0.98076486364 
0.1885395217 0.048971665686 0.98084383299 0.18831023972 0.04794577285 0.98093855897 0.18800166315 0.04690750645 0.98104793996 
0.18761457476 0.045866014323 0.98117127968 0.1871504431 0.044831845335 0.98130770775 0.18661205512 0.043815792206 0.98145612089 
0.1859984918 0.042828950411 0.98161613783 0.18530972319 0.04188180875 0.98178725831 0.18454814751 0.040983319491 0.98196860885 
0.1837177921 0.040140472516 0.98215910897 0.18282096767 0.039357530663 0.98235812134 0.18186224115 0.038635676339 0.98256471021 
0.18084841509 0.037972906024 0.98277764991 0.17978611248 0.037363925883 0.98299587527 0.17868528207 0.036799602528 0.98321785949 
0.17755581384 0.036267823184 0.98344220876 0.17640953185 0.035753736775 0.98366729506 0.17525806393 0.035239940984 0.98389163915 
0.17411227327 0.034707537207 0.98411396858 0.17298547533 0.034136562764 0.98433262691 0.1718915009 0.033506625961 0.98454589428 
0.17084086927 0.032797618819 0.98475261542 0.16984368034 0.03199032497 0.98495164519 0.16891080782 0.031067572535 0.98514158624 
0.16804949628 0.030014390219 0.98532152274 0.16726729079 0.028818269731 0.9854903149 0.16656891253 0.027470657965 0.98564707696 
0.16595618292 0.025966659913 0.98579119388 0.16543005017 0.024305002429 0.98592198746 0.16498859922 0.022489400036 0.98603904031 
0.16462716189 0.020527793305 0.98614223481 0.16433862555 0.01843259759 0.98623174533 0.16411482337 0.016220895652 0.98630786639 
0.16394418895 0.013913390825 0.98637149212 0.16381188692 0.011534676038 0.98642415672 0.16370262464 0.0091122917843 0.98646764611 
0.16359998319 0.0066763536408 0.98650416715 0.16348559692 0.0042580282536 0.98653653191 0.16333990819 0.0018887397137 0.98656804482 
0.16314435048 -0.00040005218397 0.98660212896 0.16288121011 -0.0025795099943 0.98664231488 0.16253232021 -0.0046232518257 0.98669238896 
0.16208336955 -0.0065082401617 0.98675560506 0.1615213201 -0.0082167703044 0.98683501551 0.16083497779 -0.0097359731607 0.98693329093 
0.16001834971 -0.011058704126 0.98705209225 0.15906656989 -0.012184224173 0.98719267168 0.15797964252 -0.013118368729 0.98735522531 
0.15676214287 -0.013872765275 0.98753894958 0.15542102062 -0.014464691413 0.98774241534 0.15396842197 -0.014917606722 0.98796315217 
0.15242018592 -0.015259924098 0.98819796683 0.15079353788 -0.015523706874 0.98844338404 0.14910928932 -0.015744315055 0.98869537087 
0.14739132444 -0.015959247184 0.9889494931 0.14566480556 -0.016206214058 0.98920125508 0.14395497222 -0.016522153996 0.98944630193 
0.14228626019 -0.016942741426 0.98968053617 0.14068166184 -0.017499806547 0.98990021052 0.13916263198 -0.018220315241 0.99010190484 
0.13774918808 -0.019126147636 0.99028246054 0.13645449042 -0.020233403848 0.99043969095 0.1352878189 -0.021551183185 0.99057193205 
0.13425717663 -0.023081920542 0.99067766477 0.13336423819 -0.024821904933 0.99075620261 0.13260412987 -0.026760602334 0.9908077588 
0.1319703801 -0.028883480474 0.99083276254 0.13145333637 -0.031171615577 0.99083215064 0.13103886337 -0.033602035532 0.99080760973 
0.13071203528 -0.036149726074 0.99076110195 0.13045593185 -0.038787697223 0.99069509153 0.13025209246 -0.041488484841 0.99061248631 
0.1300815961 -0.044224702458 0.99051650872 0.12992731538 -0.04696928498 0.99041040937 0.12977148835 -0.049696582288 0.99029773832 
0.12959600554 -0.052381643954 0.990182326 0.12938595043 -0.05500221045 0.99006769096 0.1291266618 -0.057538295161 0.98995739797 
0.12880494668 -0.059972276479 0.98985484378 0.12840912487 -0.062289480298 0.98976316222 0.12792971324 -0.064478371014 0.98968506513 
0.12735972144 -0.066530884583 0.98962272748 0.12669375016 -0.068442064158 0.98957787845 0.12592818306 -0.070210831364 0.98955168226 
0.12506257635 -0.071839775411 0.98954454102 0.12409927464 -0.073335325672 0.98955611263 0.12304176908 -0.074707129051 0.98958555362 
0.12189749826 -0.075968490215 0.98963113755 0.12067657496 -0.077136182124 0.98969044335 0.11939037974 -0.07822945263 0.98976062256 
0.11805350754 -0.079269696813 0.98983821129 0.11668188673 -0.080279927705 0.98991942627 0.11529446219 -0.081285288196 0.98999994389 
0.11391027044 -0.082310132828 0.99007549829 0.11254745216 -0.083377688039 0.99014202625 0.11122744968 -0.08451206053 0.99019501416 
0.10996791834 -0.085732954588 0.99023073949 0.10878365408 -0.08705657043 0.99024606546 0.10769169821 -0.088498966401 0.99023756295 
0.10670278293 -0.09006954943 0.99020300564 0.10582524815 -0.091774406931 0.99014063399 0.10506678648 -0.093617776437 0.99004882825 
0.10442906439 -0.095597997766 0.98992706465 0.10391132715 -0.09771072866 0.98977525206 0.10351044905 -0.099948887314 0.9895937585 
0.10322221744 -0.10230446234 0.9893831264 0.10303820713 -0.10476585258 0.98914470327 0.10294773088 -0.10731928516 0.9888803445 
0.10294184837 -0.10995306925 0.98859157311 0.10300855219 -0.11265307984 0.98828058859 0.10313487182 -0.11540450009 0.9879498973 
0.10330761887 -0.11819248705 0.98760218301 0.10351371028 -0.12100278728 0.98724021254 0.10374075413 -0.12382226869 0.98686670919 
0.10397380123 -0.12663485111 0.98648520675 0.10419969942 -0.12942663747 0.98609896469 0.10440620572 -0.13218495748 0.98571115507 
0.10457897035 -0.13489433898 0.98532571075 0.10470569452 -0.13754172031 0.98494618772 0.10477510922 -0.14011516293 0.98457600905 
0.10477534802 -0.14260150884 0.98421894725 0.10469597612 -0.14498902822 0.98387851602 0.10452844297 -0.14726802067 0.98355779428 
0.10426544218 -0.14942972476 0.98325961725 0.10390091085 -0.15146617868 0.98298657033 0.10343314893 -0.15337471738 0.98273993496 
0.10286080697 -0.15515204993 0.98252099 0.10218567289 -0.15679804109 0.98233011894 0.10141400556 -0.15831783281 0.98216631142 
0.10055327137 -0.15971739826 0.98202820342 0.09961438219 -0.16100648401 0.98191338058 0.098611632791 -0.16219851077 0.98181840937 
0.097560186073 -0.16330767079 0.98173958602 0.096477389107 -0.16435053666 0.98167255971 0.095382638657 -0.16534738522 0.98161214053 
0.094293749789 -0.1663156869 0.98155375861 0.093228701014 -0.16727333768 0.98149276096 0.09220381551 -0.16823786053 0.98142471881 
0.091233359175 -0.16922404808 0.98134585938 0.090328756228 -0.17024486588 0.98125297525 0.089497363019 -0.1713084678 0.98114404186 
0.088742962494 -0.17241849668 0.98101811839 0.08806658593 -0.17357794444 0.98087459629 0.087465976655 -0.17478670633 0.98071367392 
0.086934722323 -0.17603952656 0.98053681172 0.08646448147 -0.17732924847 0.98034597519 0.086044317204 -0.17864638397 0.98014378791 
0.085661554587 -0.17998015935 0.9799332836 0.085302613161 -0.18131934765 0.97971769319 0.084952713126 -0.18265092744 0.97950072753 
0.084598806967 -0.18396506091 0.97928540182 0.084227218352 -0.18525154098 0.97907489103 0.083823580461 -0.18649910406 0.9788726636 
0.083374868843 -0.18769902667 0.97868161658 0.082870214647 -0.18884590804 0.97850383267 0.082298306158 -0.18993529069 0.97834123605 
0.081647397603 -0.19096087761 0.97819611821 0.080908054693 -0.19192131963 0.97806957511 0.080070168274 -0.1928148926 0.97796277299 
0.079123486084 -0.19364012647 0.97787676901 0.078059181233 -0.19440014847 0.97781150868 0.076867972386 -0.19509777507 0.97776693183 
0.07554016216 -0.19573593613 0.97774287377 0.074065709404 -0.19631638522 0.97773930451 0.072435004889 -0.19684443189 0.97775530666 
0.070639104879 -0.19732757248 0.97778931575 0.06866966459 -0.19777281427 0.97783965511 0.066517560851 -0.19818525099 0.97790491378 
0.064174807131 -0.19857329713 0.97798274003 0.061635175217 -0.19894528375 0.97807048787 0.058893690164 -0.19930921789 0.97816530756 
0.055948241596 -0.19967849702 0.97826289518 0.052798314708 -0.20006355273 0.97835929639 0.049445359067 -0.20047255518 0.97845077091 
0.045894811082 -0.20092002854 0.97853196598 0.042154762059 -0.20141614526 0.97859823854 0.038237232431 -0.2019717047 0.97864464672 
0.034157548586 -0.20260098348 0.97866547061 0.029933227965 -0.20331043931 0.97865666458 0.025586718873 -0.20411192481 0.9786131217 
0.021142918673 -0.20501566877 0.97853030232 0.016628532933 -0.20602816129 0.97840476729 0.012072576575 -0.20715726167 0.97823316333 
0.0075049243743 -0.20841219744 0.97801228626 0.0029556861241 -0.20979576018 0.97774076469 -0.0015453762435 -0.21131095513 0.9774176651 
-0.0059698933578 -0.21296494002 0.97704160336 -0.010291171166 -0.21475785034 0.97661310534 -0.014484965481 -0.21669228696 0.97613249026 
-0.018530716809 -0.21877335748 0.97559972868 -0.022411206829 -0.22100426215 0.97501530958 -0.026112425911 -0.22338852993 0.97437965183 
-0.029624967743 -0.2259291158 0.9736931734 -0.032942849094 -0.22862598318 0.97295679684 -0.036063077181 -0.23148226673 0.97217046584 
-0.038988765103 -0.23450951851 0.97133164363 -0.041725438286 -0.23771352298 0.97043869914 -0.04428134777 -0.2410981288 0.96948999713 
-0.046667689529 -0.24466808912 0.96848317121 -0.048898673214 -0.24843234179 0.96741422943 -0.050991136987 -0.25239440863 0.96627996277 
-0.052964977129 -0.25656607339 0.96507438117 -0.05484315809 -0.26097029312 0.96378770179 -0.05664826718 -0.26561150186 0.96241441381 
-0.058405351889 -0.27049687369 0.96094758244 -0.060139280914 -0.27563660212 0.95937882532 -0.061878810824 -0.28105124606 0.95769578148 
-0.063652498068 -0.28675431064 0.95588719252 -0.065485926348 -0.29274849016 0.95394439825 -0.067406277944 -0.29904683071 0.95185470884 
-0.069440962783 -0.30566248839 0.94960433649 -0.071615432113 -0.31260360988 0.94718013755 -0.073952737627 -0.31987836771 0.94456806132 
-0.076471540257 -0.3274851954 0.94175663009 -0.079187988652 -0.33542829951 0.93873165407 -0.08211006485 -0.34368441242 0.93548862201 
-0.085238710707 -0.35222521682 0.93202562134 -0.088575334556 -0.3610483005 0.92833104807 -0.092109741633 -0.37011579891 0.92440796778 
-0.095820558522 -0.37937018175 0.92026989832 -0.099683087385 -0.3887647798 0.91592861516 -0.1036652208 -0.39824650902 0.91140179946 
-0.10771808615 -0.40771258932 0.90673439243 -0.11179594322 -0.41708599737 0.90196504249 -0.11584994174 -0.42628972402 0.89713759379 
-0.1198244471 -0.43522658527 0.8923115607 -0.12366385012 -0.44379990547 0.88755219344 -0.12731697934 -0.45192152356 0.88292543474 
-0.13073698587 -0.45951275681 0.87849636701 -0.13387495856 -0.46648135244 0.87434126249 -0.13669707127 -0.47276628891 0.87052050336 
-0.13916594715 -0.47827598081 0.86711298303 -0.1412596119 -0.48296154948 0.86417235768 -0.14296791057 -0.48680789542 0.86172980075 
-0.14426660185 -0.48973957973 0.8598501565 -0.14515808636 -0.49176357225 0.85854395285 -0.14515808636 -0.49176357225 0.85854395285 

NormalArray 3 429 double
-0.47477312702 -0.83052074337 -0.2912486441 -0.47477312702 -0.83052074337 -0.2912486441 -0.47732284531 -0.82947791702 -0.29005048962 
-0.47799690282 -0.83015145169 -0.28699743577 -0.47970995961 -0.83073475024 -0.28241481794 -0.48251118495 -0.8311312614 -0.27641234182 
-0.48561357668 -0.8317332311 -0.26907115495 -0.48978807555 -0.83197025318 -0.26063986432 -0.4943307682 -0.83216867668 -0.25126158713 
-0.4996731327 -0.83195690728 -0.24119383261 -0.5055942104 -0.83137179009 -0.23064136891 -0.51206938107 -0.83033827768 -0.21982559814 
-0.51910520344 -0.8287747724 -0.20895493389 -0.52678814981 -0.82656005396 -0.1982239199 -0.53504215562 -0.82368890773 -0.18779370327 
-0.54369474835 -0.82023553643 -0.17779112857 -0.55301798995 -0.81598372243 -0.16834983674 -0.56303922237 -0.81088145532 -0.15955594467 
-0.57331600681 -0.80521791071 -0.15143603471 -0.58452670122 -0.79848048323 -0.14407447192 -0.59596436631 -0.79116256987 -0.13743457395 
-0.60806879576 -0.78290997029 -0.13154587811 -0.62053741611 -0.77392757089 -0.12637021099 -0.63359337848 -0.76400356436 -0.12189333201 
-0.64650721153 -0.75372200174 -0.11803206993 -0.66026219773 -0.74220865474 -0.11480480424 -0.67437540547 -0.72982484579 -0.1121316501 
-0.68845099938 -0.7169017657 -0.10994125608 -0.70396564939 -0.70193390598 -0.10826428831 -0.72080855957 -0.68482001772 -0.10703533896 
-0.73928493103 -0.6649636751 -0.10621253013 -0.76140245047 -0.63958344714 -0.10582685181 -0.79022128574 -0.60359990466 -0.10591258031 
-0.82800641064 -0.55053759431 -0.10636607159 -0.8762109696 -0.46993709665 -0.10683380521 -0.93583554575 -0.33604000703 -0.10624944697 
-0.98633345559 -0.12960375063 -0.10173093045 -0.98528679643 0.14574111462 -0.089271811252 -0.90339386835 0.4232397063 -0.068903335509 
-0.78538584559 0.61708964637 -0.048676913345 -0.67993814293 0.7325241421 -0.033053033729 -0.60695442092 0.7944080144 -0.022852518111 
-0.55932072073 0.82879223235 -0.016240903921 -0.5332319799 0.84587818071 -0.012399960258 -0.51319639391 0.8582209263 -0.009289937643 
-0.50291630461 0.86430397299 -0.007337086195 -0.49422923362 0.86931399394 -0.0055357534122 -0.48912719151 0.87220268513 -0.0041311724681 
-0.48149081132 0.87644787036 -0.0023935634124 -0.47217550497 0.8815044518 -0.00044042271318 -0.46455335157 0.88554415963 0.0013133498703 
-0.44735164088 0.89434835743 0.0041862840129 -0.42944573472 0.90306474789 0.0071008487809 -0.41000480087 0.91202701417 0.010138476082 
-0.38398659209 0.92323474206 0.013853091707 -0.34865545373 0.93706830165 0.018503314146 -0.30739793678 0.9512870794 0.023651660208 
-0.26043289402 0.96504953154 0.029225150037 -0.19873714272 0.9793880546 0.03609136469 -0.12001708827 0.99178231128 0.044314168724 
-0.021136435055 0.99831957309 0.05395628878 0.12616249034 0.98974105124 0.067049813749 0.33389488221 0.93893523018 0.083155523945 
0.70239225555 0.7042473995 0.10334756716 0.99570009896 -0.027000048869 0.088613262483 0.74737356714 -0.6637172209 0.030202679017 
0.49099793875 -0.87114853862 -0.0046095339184 0.30057615406 -0.95339483405 -0.026310948737 0.19092650472 -0.9808865957 -0.037530736239 
0.094014293027 -0.9944728824 -0.046743971487 0.027263625931 -0.99824361958 -0.052596299045 -0.036250805455 -0.99766752487 -0.057839337221 
-0.07994620533 -0.99492569932 -0.061085653614 -0.12007390588 -0.99070951877 -0.06385065814 -0.15029919395 -0.98645928607 -0.065637102515 
-0.18265430821 -0.98085956141 -0.067467951511 -0.20623883889 -0.9761031202 -0.068470724174 -0.23014203149 -0.97067981238 -0.069392702687 
-0.25259155383 -0.96503045405 -0.070098000607 -0.27756974559 -0.95808607332 -0.070895080481 -0.30475400084 -0.94972449817 -0.071752188423 
-0.33257883176 -0.94028074331 -0.072549599801 -0.36539202341 -0.9279398827 -0.073595131147 -0.40158824618 -0.91276436935 -0.074753505471 
-0.44259806525 -0.89348516916 -0.076099967907 -0.48610462757 -0.87046165959 -0.077451857608 -0.53516789949 -0.84104642077 -0.078969851619 
-0.58548408265 -0.80669274828 -0.080344252045 -0.63797184047 -0.76572502783 -0.081591130202 -0.68924904602 -0.71981342179 -0.082488728722 
-0.73832236208 -0.66932520783 -0.082969005174 -0.78391211666 -0.61530401988 -0.082962379933 -0.82459029378 -0.55969486877 -0.082416632247 
-0.85927833373 -0.5050017346 -0.081326460854 -0.88836447517 -0.4521598765 -0.079749641704 -0.91164663436 -0.40355484086 -0.077742552572 
-0.93023958486 -0.35912596767 -0.075384707348 -0.94436668579 -0.3207486616 -0.072745163772 -0.95507442581 -0.28800787757 -0.069887793082 
-0.9628594848 -0.2615920404 -0.066867158888 -0.96835985184 -0.24128493018 -0.06372424824 -0.97204243972 -0.22688051075 -0.060487430279 
-0.97407743559 -0.21886674337 -0.057188269099 -0.97482422213 -0.21637776315 -0.053836786309 -0.97424487759 -0.21977652675 -0.050449943263 
-0.97234519274 -0.22876298811 -0.047035321111 -0.96905472612 -0.24296608073 -0.043593822985 -0.96404237098 -0.26270064973 -0.040133222913 
-0.95709088978 -0.2874607681 -0.036651541531 -0.94789603512 -0.31685097119 -0.033144662535 -0.93600407757 -0.35074135612 -0.029611954908 
-0.92110573397 -0.38844000928 -0.026049683823 -0.9030764776 -0.42889244867 -0.022453130751 -0.88183645194 -0.47117962656 -0.018821040169 
-0.85725865523 -0.51466283851 -0.015157859135 -0.83030140102 -0.5571966373 -0.011466945816 -0.80118060893 -0.59837232823 -0.0077581368385 
-0.77132892363 -0.63642387781 -0.0040421928399 -0.74119886925 -0.67128542808 -0.00033207231312 -0.71305954861 -0.70109541222 0.0033620078117 
-0.68652927422 -0.72706816232 0.0070315697127 -0.66402395135 -0.74763515827 0.010670620625 -0.64497281169 -0.764072167 0.014275706848 
-0.63060063466 -0.77590229376 0.017845730814 -0.62135617665 -0.7832363903 0.021383606901 -0.61574838234 -0.78754972738 0.024886875142 
-0.61501528661 -0.78800506872 0.028358577391 -0.61733672988 -0.78605618558 0.031796777403 -0.62388407891 -0.78072352474 0.035205596032 
-0.63229762891 -0.77376419287 0.038583446104 -0.64330003141 -0.76446494765 0.041933440151 -0.65484692353 -0.75440522347 0.04525776774 
-0.66771860021 -0.74282822467 0.04856026748 -0.68112795616 -0.73032635578 0.051847096274 -0.69414982445 -0.71771660889 0.055126133002 
-0.70731729188 -0.70447963458 0.058401139328 -0.72013461702 -0.69108733739 0.061680024843 -0.73303853542 -0.67707763552 0.06496446007 
-0.74549950915 -0.66300132456 0.068262181913 -0.75841273507 -0.64783383146 0.071564307497 -0.77106907044 -0.63233356679 0.074878227306 
-0.78443078699 -0.6152686552 0.078184540377 -0.79786157929 -0.59730797557 0.081486702064 -0.81218033587 -0.57721726735 0.084754517819 
-0.82693400275 -0.55537318357 0.087981714417 -0.84223293408 -0.53135357337 0.091143100766 -0.85828978644 -0.50444490807 0.094201789921 
-0.87431089858 -0.47554274536 0.09715734636 -0.89068900402 -0.44348969396 0.099949934856 -0.90698688847 -0.40848147881 0.10255567081 
-0.92271517384 -0.37091844945 0.10495814323 -0.93772043298 -0.33046522652 0.10711266797 -0.95144889167 -0.28785357053 0.10901985356 
-0.96368211182 -0.24305008236 0.1106501009 -0.97399796477 -0.19692299313 0.11202365551 -0.98224128126 -0.14967609992 0.11313324222 
-0.98820624195 -0.1022121776 0.11402234049 -0.9918742992 -0.055007057508 0.11471529196 -0.99329792505 -0.0086685239999 0.11525662145 
-0.99262365173 0.036229196977 0.11569672127 -0.99006859036 0.079311927399 0.11607671843 -0.98590933801 0.12008807262 0.11645442048 
-0.9804184535 0.15851177777 0.11684892961 -0.97393511526 0.19412791701 0.11732324195 -0.96665958735 0.22733370611 0.11785002436 
-0.95889714486 0.25783889173 0.11847097318 -0.95094126556 0.28547661174 0.1192216994 -0.94275894047 0.31113428726 0.12000431429 
-0.9346971827 0.33425540125 0.1208904603 -0.92669667038 0.35552539859 0.1217989001 -0.91892436566 0.37484933048 0.122743593 
-0.91117916961 0.39302902643 0.12361514975 -0.9035429191 0.41003857677 0.12441285664 -0.89581084148 0.42648104856 0.12504739699 
-0.88792099571 0.44254902113 0.12548573333 -0.87921563316 0.45959330803 0.12551438813 -0.86957003496 0.47770027712 0.12510155692 
-0.85833949218 0.4978558826 0.12406786986 -0.84428874532 0.52179800819 0.12207929053 -0.82676797182 0.54981145244 0.11900456937 
-0.80394145992 0.58360010308 0.11440738047 -0.7728752745 0.62536610462 0.10761526499 -0.73210574317 0.67404203718 0.098430244027 
-0.67769385108 0.73028801047 0.086084063454 -0.60773696645 0.791010724 0.070411747097 -0.51860073544 0.85350063469 0.050891490285 
-0.41579489603 0.90899310313 0.02908853533 -0.30215827063 0.95324014501 0.0057970190021 -0.18986124246 0.98167421121 -0.016384494653 
-0.081305319831 0.99599924107 -0.037080409299 0.019138771204 0.99827209569 -0.055556551366 0.10459314509 0.99200080423 -0.070673038742 
0.1815089433 0.97981139668 -0.083810085504 0.25167041991 0.96310089305 -0.095386946406 0.31416867433 0.94350739514 -0.10531780181 
0.3773146353 0.91890416392 -0.11510344701 0.4349372291 0.89192406548 -0.12369748647 0.49301141619 0.85993094863 -0.13213064402 
0.55231085156 0.82171226366 -0.14050508531 0.61071184054 0.77781322884 -0.1484507624 0.6664775085 0.72908843928 -0.15568486876 
0.71830169231 0.67660474036 -0.16201451832 0.76654526425 0.61996254319 -0.16749568024 0.80701859721 0.56504711006 -0.17158889002 
0.84077999821 0.51247625388 -0.17451958005 0.86671249174 0.46663005613 -0.17625506344 0.88466997007 0.43134485842 -0.17691991739 
0.8960772653 0.40717059403 -0.1767983087 0.90017328107 0.39842327444 -0.17591747621 0.89800437129 0.40393491096 -0.17442688108 
0.88816785323 0.42604900892 -0.172163023 0.86928949464 0.46455970577 -0.16887881539 0.83881047512 0.51909885624 -0.16411387594 
0.7962810832 0.58403780038 -0.15759531801 0.73848070353 0.65767287645 -0.14870318793 0.6677988181 0.73151863129 -0.13756900313 
0.58722504372 0.79978908127 -0.12451575607 0.50052225098 0.85869863553 -0.11006420678 0.41632925379 0.90417848484 -0.09555741721 
0.33718692095 0.93790596426 -0.081470132858 0.26676858357 0.96132601252 -0.068460356997 0.20650596325 0.97679342972 -0.05683205787 
0.15675168922 0.98653313699 -0.046704149176 0.11679678466 0.99242818682 -0.038010591975 0.085053300892 0.99590852476 -0.030531071219 
0.062708894472 0.99773118591 -0.024496432597 0.048458517557 0.99863041548 -0.019724739495 0.041666246759 0.99900117279 -0.016142510295 
0.04252378806 0.9989999644 -0.013812985809 0.052050574897 0.99856066842 -0.012935576568 0.070989254015 0.9973835053 -0.013662692746 
0.099899635402 0.99486699511 -0.016115982268 0.14093260074 0.98980321823 -0.020678279201 0.19735758258 0.97993396124 -0.027918026571 
0.26827734758 0.96260304254 -0.037717996731 0.35915536223 0.93188184805 -0.051025944906 0.46575901108 0.88235650388 -0.067197795 
0.58339814958 0.80767023481 -0.085530058264 0.70105787158 0.70544226632 -0.10425483005 0.80241038858 0.58445508237 -0.12062265536 
0.87901750611 0.45783357819 -0.13310386408 0.92907820341 0.34187842616 -0.14118368768 0.95775102545 0.24806964616 -0.14551434261 
0.9726058976 0.17988581797 -0.14723742883 0.979524075 0.13726638134 -0.14727704185 0.98197558598 0.11980401581 -0.14618805129 
0.98150840985 0.12582794217 -0.14425176032 0.97781033302 0.15452245256 -0.141455874 0.9689320937 0.20555761178 -0.13753787128 
0.95114802827 0.27910894801 -0.13196826685 0.9201140547 0.37143655393 -0.12419747481 0.87062239998 0.47866543967 -0.11356070409 
0.7998932662 0.59177991483 -0.099836341538 0.71094566961 0.69825015386 -0.083683794653 0.60995589047 0.78967166566 -0.066124671215 
0.50579847162 0.86128840124 -0.048478820113 0.40831906794 0.91227443395 -0.032107568016 0.32356392703 0.94603976328 -0.017752504406 
0.25047852528 0.96810850805 -0.0051405274347 0.19189646327 0.98140023117 0.0054160539654 0.1454329859 0.98926453106 0.014315522624 
0.10975226885 0.99372036259 0.021777981011 0.08387921516 0.99608377511 0.02795335814 0.066784448655 0.99722208628 0.032984057521 
0.057593667992 0.99765498174 0.03697981623 0.054581947024 0.99770156374 0.040154710463 0.05941187505 0.99733843264 0.042264404347 
0.070962437079 0.99653307517 0.043429973666 0.088846476536 0.9950875392 0.043670275107 0.11471211297 0.99247969318 0.042722239763 
0.14764300486 0.98820457829 0.040660233235 0.18960950739 0.98115657733 0.037148424781 0.2389530943 0.97049241782 0.032340155954 
0.29705364098 0.95450835967 0.025940811413 0.36196466955 0.93201570291 0.018119258237 0.43327096833 0.90122068031 0.0088064398748 
0.5057204989 0.86269642852 -0.0012842179219 0.5772355005 0.81649128613 -0.011880935685 0.64314382552 0.76542405341 -0.022181933078 
0.69939848791 0.71404473043 -0.031334933464 0.74429488311 0.66672365762 -0.038790351098 0.77764284884 0.62714823173 -0.044234546352 
0.79881321209 0.59972122344 -0.047243055957 0.80958956573 0.58503203558 -0.047981792482 0.8081418731 0.58719642217 -0.045902883637 
0.79768746268 0.60162351509 -0.041759525642 0.77545657708 0.63042688159 -0.035057724275 0.74033312741 0.6717438253 -0.025828155551 
0.69504657861 0.7188091911 -0.014953272073 0.6381470883 0.76991067538 -0.0024177719605 0.56892378645 0.8223081759 0.011618479588 
0.49695275936 0.86740727393 0.025349084765 0.4188045819 0.9072243714 0.039327625285 0.34272547438 0.93797737518 0.052322966805 
0.27086324555 0.96047593503 0.064180062601 0.2055752997 0.97578259247 0.074747096121 0.147367251 0.98549814246 0.084120773547 
0.095877764658 0.99108794031 0.092477828814 0.053507868321 0.99358160607 0.099661929056 0.017691838672 0.99420285373 0.10605510111 
-0.01267529608 0.99364593641 0.11183510145 -0.03603394536 0.99249108381 0.11688885037 -0.054797798168 0.99107883695 0.12149049455 
-0.067824198151 0.98976664945 0.12554623759 -0.077201561518 0.98860036645 0.12926420369 -0.081938854666 0.9877835304 0.13255082481 
-0.08172413049 0.98741915325 0.13536832083 -0.078051723865 0.98737410182 0.13784161728 -0.069751874546 0.98771402321 0.13984164024 
-0.056093046948 0.98838122231 0.1412661653 -0.03830498294 0.9890974402 0.14219346708 -0.014637602969 0.98970064819 0.14240213323 
0.015088665422 0.98978018248 0.14180099627 0.051590629833 0.98877526958 0.14022080152 0.094749699644 0.98595162617 0.13755684381 
0.14600016501 0.98023710855 0.1334884371 0.20505227776 0.97036517723 0.12784751153 0.26902566404 0.95552578092 0.12081255762 
0.34167149004 0.93317116571 0.11158928433 0.41444062828 0.90442639312 0.10125149413 0.48799801911 0.86823733138 0.08956489122 
0.55670412549 0.82708644032 0.077514752747 0.61802119022 0.78340637831 0.065759066691 0.66714945824 0.74283769502 0.055711392208 
0.70698654473 0.70565515263 0.047125695206 0.73217133597 0.67983296836 0.041860123226 0.74546505115 0.66536490873 0.039640834364 
0.74790674133 0.66257213064 0.040418782511 0.73779335054 0.67354435039 0.044709953679 0.71654976793 0.69560082721 0.051922242603 
0.68326489691 0.72753901891 0.06193590729 0.6392266338 0.76545355863 0.07396053156 0.58759087291 0.80448212708 0.086864683746 
0.5309490401 0.84149841602 0.099867575589 0.47065470702 0.87510266681 0.11260314958 0.41285454288 0.9023173932 0.12399374317 
0.36141936904 0.92277842955 0.13362638078 0.31722153228 0.93771462432 0.14163962298 0.28425269765 0.94730306372 0.14770683583 
0.2612125113 0.95320099617 0.15223627964 0.25040989459 0.95564170266 0.15506070044 0.25168396696 0.95510924169 0.15627385326 
0.26205696683 0.95231762272 0.15626033272 0.28637795092 0.94561311077 0.15428387463 0.322360935 0.93458350909 0.15045627978 
0.37084999514 0.91740516616 0.14435387837 0.42688465549 0.89396354939 0.13637691622 0.4946850682 0.85998569139 0.12534470036 
0.5688920279 0.81480770755 0.11158073447 0.64313140611 0.75973001359 0.095876487908 0.71752834409 0.69217935735 0.077722665208 
0.78374327556 0.61827469626 0.059015912894 0.83888471291 0.54276732792 0.040939787408 0.88319715443 0.46838611545 0.024025679078 
0.91678248705 0.39928312162 0.0091027591136 0.94220695673 0.33500621294 -0.0041094981919 0.95910987683 0.2826803852 -0.014143690854 
0.9709583226 0.23822868912 -0.022068698765 0.97863254435 0.20376804995 -0.027512269255 0.98432479243 0.17347518432 -0.031797223731 
0.98753479935 0.15377755223 -0.033578036062 0.99004609725 0.13641341123 -0.034642554184 0.9913410065 0.12687885723 -0.033834367285 
0.99203110088 0.1219000326 -0.031853994013 0.99227142022 0.12068091164 -0.02887119987 0.99228542073 0.12137011627 -0.025277236554 
0.99150663453 0.12849027771 -0.020120691096 0.99082009992 0.13434897498 -0.015029388279 0.98921057449 0.14625582853 -0.0084659285428 
0.98736423345 0.15845858578 -0.0016574370957 0.98496988216 0.1726308798 0.0057367738777 0.98170901066 0.18987685879 0.013935454524 
0.97775881628 0.2085155023 0.022560640141 0.9729299383 0.22892002731 0.031669484682 0.96689260247 0.2518044185 0.041391183973 
0.95934458088 0.27745023911 0.051762341022 0.95077080729 0.30357534685 0.062264603031 0.94002483391 0.33309344623 0.073498759929 
0.92705344157 0.36510937845 0.085247042478 0.91209628736 0.39828817053 0.0971951429 0.89367864958 0.43505596685 0.10983977879 
0.87208196343 0.4737041277 0.12279026208 0.84642512141 0.5148094453 0.13614605716 0.81679336345 0.55718846983 0.1496315826 
0.78288200028 0.60040274481 0.16313282213 0.74565944287 0.64259618318 0.17624454778 0.70383911926 0.68471480807 0.18914577924 
0.65849958147 0.72510561671 0.20149477866 0.61162576378 0.76195138786 0.21294132436 0.56418169843 0.79484327557 0.2234349535 
0.51770747195 0.8232413302 0.23292205938 0.47288278194 0.84738113587 0.24151001038 0.43262301287 0.86646439425 0.24915212668 
0.39525889488 0.88211667298 0.25620417888 0.36270325855 0.89409967091 0.26273965197 0.33642684039 0.90250776896 0.26888047164 
0.31519254679 0.90835627577 0.27485002223 0.29913484662 0.9119694285 0.28076699419 0.28761039202 0.91381144899 0.28675581616 
0.28092232764 0.91394959273 0.29288015943 0.2778692752 0.91283282376 0.29920712186 0.278079823 0.91058955773 0.30577486717 
0.28099805518 0.90736546412 0.31261479094 0.28615814107 0.90325916784 0.31974426346 0.29264829119 0.89850083559 0.32718989305 
0.30050209947 0.89303479611 0.33494378804 0.30826928108 0.88729104114 0.34305197661 0.31746176385 0.88074422984 0.35143652355 
0.32540544845 0.87429425517 0.3601678074 0.33329217923 0.8675289569 0.36920161457 0.34037878705 0.86072822997 0.37853559338 
0.34714284882 0.85374322241 0.38809065011 0.35220850656 0.84712970138 0.39789500745 0.35664438912 0.84051889241 0.4078391487 
0.36038934852 0.83399464505 0.41781868017 0.3626941341 0.82791401395 0.42779825923 0.36416923031 0.82209299649 0.43765725952 
0.36469437622 0.81665356468 0.44729740359 0.3645212825 0.81156925419 0.45659564196 0.36351480068 0.8069704926 0.46546279525 
0.36173539885 0.80290427012 0.4738061146 0.35965959196 0.79925659601 0.48149129966 0.35666674526 0.79634556888 0.48849008972 
0.35554958981 0.79311454054 0.49452382629 0.3521514895 0.79131627839 0.49980783907 0.34976990476 0.7896400747 0.50411265224 
0.34901986854 0.78791247016 0.50732540911 0.34415281328 0.78845333529 0.5098040596 0.34415281328 0.78845333529 0.5098040596 

BinormalArray 3 429 double
0.85386857071 -0.51486914801 0.076277286151 0.85386857071 -0.51486914801 0.076277286151 0.85262030529 -0.51704570809 0.075513911006 
0.85262225431 -0.51704232187 0.075515090184 0.85223304048 -0.51771736137 0.07528332125 0.8514007823 -0.51915486861 0.074799266703 
0.85053938032 -0.52063451669 0.074313273044 0.84917364791 -0.52296411532 0.07357071282 0.84766617541 -0.52551335023 0.072785807722 
0.84572444084 -0.52876423715 0.071823058145 0.84343291644 -0.53255590681 0.070746883932 0.8407632449 -0.53691518122 0.069564748272 
0.83767027732 -0.54189164555 0.068278481 0.83406007912 -0.54760548629 0.066873132132 0.82994039481 -0.5540080557 0.065375953436 
0.8253875738 -0.56094616188 0.063833819274 0.82019002085 -0.56870041716 0.062194575524 0.8142888888 -0.57730227161 0.060462325276 
0.80795490726 -0.58631013557 0.058730679877 0.80067393411 -0.59639461666 0.056874532638 0.79291468383 -0.60684296775 0.055026508697 
0.78431597891 -0.61808411953 0.053108063642 0.77506590608 -0.62980520196 0.051168826588 0.76494381796 -0.64221763199 0.049167758991 
0.7545153981 -0.65458168779 0.04721576048 0.74290847248 -0.66786859097 0.04515026816 0.73047167495 -0.68158554437 0.043038097029 
0.71752628467 -0.69532775276 0.040931003461 0.70257593408 -0.7105616287 0.038590525682 0.68551406912 -0.72716807153 0.036014674569 
0.66574411697 -0.74544429489 0.033129653436 0.64050161481 -0.76738748756 0.029565611145 0.60473727205 -0.79604228977 0.024688148925 
0.55200676355 -0.83365016391 0.017774622793 0.47189321279 -0.88162159051 0.0077567307766 0.33873644026 -0.94084816659 -0.0078962944706 
0.13327395779 -0.99062138622 -0.030121775227 -0.14106127071 -0.98837615948 -0.056694667154 -0.41789003679 -0.90497924719 -0.079877902444 
-0.61153936206 -0.78568639721 -0.093362165226 -0.72701566828 -0.67932851005 -0.099804776928 -0.78900572657 -0.60577545456 -0.10249908341 
-0.8234934168 -0.55777597731 -0.10365592904 -0.84065733934 -0.53146694396 -0.10410631725 -0.85307315218 -0.51124784622 -0.10436396295 
-0.85921242243 -0.5008404628 -0.10446455845 -0.86427876049 -0.49203220588 -0.10453005565 -0.86721790614 -0.48682699254 -0.10455899103 
-0.8715230474 -0.47907090804 -0.10458796737 -0.87664688151 -0.46962582292 -0.10460321016 -0.88075102346 -0.46188375794 -0.10459937293 
-0.88965091038 -0.44451262607 -0.10454560214 -0.89846768902 -0.42643848325 -0.10443194815 -0.90753740873 -0.40682764723 -0.10424546615 
-0.91887769281 -0.38061538174 -0.10390243906 -0.93288124338 -0.34505814265 -0.10328341556 -0.94729730337 -0.30356381861 -0.1023563728 
-0.96128532923 -0.25635682437 -0.10105292876 -0.97591953761 -0.19438617327 -0.098970054869 -0.98869792101 -0.11536581563 -0.095745232642 
-0.99573371284 -0.016171767569 -0.090845181711 -0.98793388077 0.13147741991 -0.081855575736 -0.93831604114 0.33948906861 -0.06565195531 
-0.70608514112 0.70772518036 -0.023850420712 0.02186243966 0.99805121159 0.058444955169 0.65826562771 0.74586814423 0.10181883318 
0.86647901251 0.48780459448 0.10611690946 0.94947577136 0.29650163793 0.10287146501 0.97743811012 0.18645824024 0.099237419997 
0.9914589193 0.089259827153 0.095088877347 0.99553089302 0.022355214475 0.091752304711 0.99524447715 -0.041277869806 0.088230199808 
0.99269354429 -0.085023575971 0.085618448042 0.98864858472 -0.12517929062 0.083091041198 0.98451601155 -0.15540009776 0.081111236114 
0.97904202961 -0.18774447635 0.078922213943 0.97436254558 -0.21129245924 0.077286004192 0.96901447376 -0.23515145028 0.075595932939 
0.96342957802 -0.25754642306 0.073981674505 0.95655964218 -0.2824666805 0.072154177776 0.94828113173 -0.30958888081 0.070125744787 
0.93892139761 -0.33734519929 0.068006070579 0.92668810449 -0.3700894964 0.06544403448 0.91163622769 -0.40621314914 0.062532118444 
0.89250491776 -0.44714724071 0.05911274741 0.86964287982 -0.49057071444 0.055332049586 0.84041993784 -0.53954431043 0.050855335632 
0.8062689635 -0.58975792155 0.045999483325 0.76552093639 -0.64212843387 0.040605053291 0.7198295115 -0.69327022727 0.034955204924 
0.66955735276 -0.74218902863 0.029127257741 0.61574113929 -0.78760513242 0.023259509267 0.56031679636 -0.82809223871 0.01755938222 
0.50577973834 -0.86257561136 0.012254426899 0.45306495794 -0.89144684114 0.0073941399765 0.40455342894 -0.9145089462 0.0031480871412 
0.36018891733 -0.93287922606 -0.00054167686969 0.32184540716 -0.94678549275 -0.0035727581683 0.28911312707 -0.95727593628 -0.0060317139396 
0.26268259122 -0.96484982068 -0.0079170579886 0.24234164259 -0.97014646673 -0.0092930814082 0.227887816 -0.97363377205 -0.010218671147 
0.21981132685 -0.97548364247 -0.010707187736 0.21725046402 -0.97605555463 -0.010853117572 0.22057022102 -0.97531267413 -0.010675452388 
0.22947332797 -0.97326119243 -0.010229519276 0.2435911902 -0.96983077868 -0.0095704117747 0.26324035645 -0.96469087635 -0.0087193935723 
0.2879170658 -0.95762412269 -0.0077332307573 0.31722757697 -0.94832605911 -0.0066595820926 0.35104336389 -0.9363428522 -0.0055335162468 
0.38867389312 -0.92136485187 -0.0044061948493 0.42906583154 -0.90326707247 -0.0033328667665 0.47130092476 -0.88196932099 -0.0023569359661 
0.51474099967 -0.85734440352 -0.0015089780266 0.55724106856 -0.83035034011 -0.00083916345079 0.59839250529 -0.80120302273 -0.0003549402547 
0.63642929421 -0.771335043 -7.0089098545e-05 0.67128545736 -0.7411989165 3.0168695231e-05 0.70109929663 -0.71306365439 -3.2338713716e-05 
0.72708502919 -0.68654738321 -0.00022567846203 0.74767412025 -0.66406563237 -0.00049580132061 0.76414232732 -0.64504716705 -0.00080986227585 
0.77601291346 -0.6307160442 -0.0011089308047 0.78339700083 -0.62152018669 -0.0013403860834 0.78776977478 -0.61596795369 -0.0015039865142 
0.78829455242 -0.61529616269 -0.0015266939824 0.78642483661 -0.6176843174 -0.0014354125395 0.78118194078 -0.62430236859 -0.0011523772471 
0.77432225313 -0.63279102923 -0.00074942293026 0.76513336837 -0.64387180394 -0.00016943490477 0.75519372277 -0.65550148204 0.00049812385794 
0.74374754448 -0.66845932863 0.0013099795567 0.73138708063 -0.68195891785 0.0022299441091 0.71892872188 -0.69507644209 0.0031988302796 
0.70585416151 -0.70834438959 0.0042577465404 0.69263509067 -0.72126818804 0.0053695526223 0.67881060764 -0.73428396419 0.0065741080214 
0.66493105626 -0.74686375436 0.0078245030344 0.64997414972 -0.75990044837 0.0092148396395 0.63469731501 -0.7726870739 0.01067727252 
0.61787162801 -0.78618226737 0.012332630305 0.60016494977 -0.79975163817 0.014119146748 0.58034622762 -0.81420939794 0.01616515995 
0.55879155786 -0.82910318738 0.018436364512 0.53508002222 -0.84454081219 0.020980619015 0.50850019855 -0.86073074962 0.02387728471 
0.47994499506 -0.87688205471 0.027030794293 0.44826008883 -0.89338034256 0.030568877881 0.41364031818 -0.90978767679 0.034468396365 
0.37648423435 -0.92561510351 0.03868205588 0.33645684216 -0.94070543588 0.043244378484 0.29428678285 -0.95450757434 0.048068492388 
0.24993998024 -0.96680121187 0.05315470811 0.2042810217 -0.97716864143 0.058401287543 0.15751232899 -0.98545497534 0.063783679723 
0.1105331682 -0.99146049804 0.069198985197 0.063817118755 -0.9951698089 0.074595085692 0.017969505537 -0.99664043773 0.079905786711 
-0.026437883757 -0.99602418693 0.085069720517 -0.069032777293 -0.9935420089 0.090048610237 -0.10932602243 -0.98947596058 0.094790000767 
-0.14727299634 -0.98409944618 0.099292218099 -0.18242140528 -0.9777573444 0.10350365386 -0.21516858204 -0.97064524652 0.10747226019 
-0.2452274071 -0.96307145619 0.11116154497 -0.27243353155 -0.95533175774 0.11454782209 -0.29767262943 -0.94738011829 0.11773664323 
-0.32039310537 -0.93956972171 0.12065237699 -0.3412790197 -0.93182990856 0.12337606021 -0.36023790138 -0.92432715597 0.12588869347 
-0.37806875356 -0.91684556043 0.1282896563 -0.39474722411 -0.90946475089 0.1305698891 -0.41087353295 -0.90196752226 0.13280635798 
-0.42663955967 -0.89428623623 0.13502153094 -0.44338690818 -0.88573640149 0.13740115255 -0.46120127446 -0.87618831848 0.13995504634 
-0.48106114394 -0.86497551086 0.14281996147 -0.50469169548 -0.85082365312 0.14623749113 -0.53237737533 -0.83306921879 0.15023317525 
-0.56581354902 -0.80982935282 0.15502079552 -0.60719679142 -0.77809986377 0.16084980101 -0.65548618046 -0.73640607562 0.16746330648 
-0.71136881879 -0.68073966294 0.17477961824 -0.77181463907 -0.60920179399 0.18214098142 -0.83419067567 -0.51812885447 0.18886081325 
-0.88981029355 -0.41321632681 0.19362311006 -0.93446241665 -0.2973967982 0.19579360635 -0.96352780958 -0.18309419832 0.19516832403 
-0.97865965685 -0.072734949442 0.19218455503 -0.98183907306 0.029255618433 0.18744637472 -0.97645164045 0.11591630614 0.18194945408 
-0.96514628542 0.1938334411 0.1758443768 -0.94931620304 0.26483555778 0.16929522726 -0.93056618181 0.32801445265 0.16264409037 
-0.90688171077 0.39180536783 0.15509389549 -0.88079754677 0.44995729471 0.14742494548 -0.84977390192 0.50852624312 0.13887179582 
-0.81262370399 0.56829097895 0.12918234766 -0.76986450387 0.62709847323 0.11855863763 -0.72232244317 0.68319134598 0.10723746018 
-0.67103684824 0.73525149969 0.095471359684 -0.6156174556 0.78364368805 0.083172823321 -0.56182480277 0.8241535342 0.071581024469 
-0.51027722404 0.85786138019 0.060753658427 -0.46528100158 0.88366301708 0.051509822452 -0.43061655104 0.90143629967 0.044519474429 
-0.40684083814 0.9126317726 0.039796734379 -0.39820565179 0.9165045361 0.038101104777 -0.40357497465 0.91410871031 0.039147229402 
-0.4252561355 0.90403408612 0.043354242657 -0.46304621782 0.88488359396 0.050687526127 -0.51657554989 0.85405718981 0.061122972673 
-0.5803015026 0.81106360042 0.073661402066 -0.65253304496 0.7526240806 0.088077344108 -0.72492335978 0.6811132784 0.10281451473 
-0.79178665992 0.59953028436 0.11677895063 -0.84941104873 0.51166997241 0.12920800913 -0.89382590577 0.42627060712 0.13917118842 
-0.92669494748 0.34591636964 0.14689567566 -0.949456382 0.2743384124 0.15254839941 -0.9644345749 0.21299958344 0.15651558448 
-0.97382072554 0.16226823264 0.15919238418 -0.97946481675 0.12143530523 0.16094141605 -0.9827676535 0.088899341092 0.16206371092 
-0.98447442702 0.065870313584 0.16269973671 -0.98530068394 0.051031799113 0.16302857939 -0.98562943065 0.043744975666 0.16315943901 
-0.98560984824 0.04420969837 0.16315247354 -0.98517165878 0.053464574099 0.16302865412 -0.98401250003 0.072267392516 0.16277844996 
-0.98153144817 0.10119042443 0.16234689479 -0.97652839869 0.14241817058 0.16158388301 -0.96676430917 0.19926880627 0.16018337418 
-0.94960846989 0.27083763644 0.15776795808 -0.91919436951 0.36266886544 0.15346988339 -0.87017277222 0.47048082945 0.14644840594 
-0.79626674351 0.58953074293 0.13569368561 -0.69513717139 0.70866265146 0.12075412782 -0.57548240707 0.81132001399 0.10285832033 
-0.45028197223 0.88892967161 0.083965376332 -0.33564564393 0.93963286151 0.066573923432 -0.24291294384 0.9686273358 0.052482245093 
-0.17551596759 0.98356912681 0.042260121994 -0.13339376086 0.99041251763 0.035904727889 -0.11614804511 0.9926727126 0.033324424657 
-0.12213533013 0.99192370241 0.034210082374 -0.15056133983 0.98785635104 0.038355086573 -0.20111579692 0.97850553737 0.045599885557 
-0.2739927891 0.96010996175 0.055828423499 -0.36551169115 0.9282934036 0.068356129633 -0.47185845177 0.87780830309 0.082475357005 
-0.58411978555 0.80587264681 0.096816079491 -0.68988145859 0.71556783885 0.10966421978 -0.78080152263 0.61315104743 0.11997822842 
-0.85214019776 0.50759187822 0.12730894914 -0.90304458291 0.40882665055 0.13180004199 -0.93686846989 0.32294370477 0.13410754521 
-0.95908515115 0.24886072652 0.13499633938 -0.97257172884 0.18942522704 0.13499005749 -0.98065185611 0.14222021933 0.13451894408 
-0.98532674952 0.10589163461 0.13385872555 -0.98789955315 0.079452045357 0.13319851868 -0.98922910887 0.061861266219 0.13266104897 
-0.98982915079 0.052237085425 0.13232361522 -0.99002005221 0.048841334766 0.13219236075 -0.98976239063 0.053350730835 0.13237865993 
-0.98902437173 0.064637399897 0.13286383504 -0.9876059839 0.082313705823 0.13363709963 -0.98497077944 0.10804352467 0.1347559291 
-0.98061757522 0.14090790434 0.13614012513 -0.97342659269 0.1828983089 0.13780013513 -0.96256709231 0.23235104181 0.13956212298 
-0.94632903143 0.29066721988 0.1413291603 -0.92354224141 0.35589663299 0.14285417374 -0.89242274776 0.42763503662 0.1439093977 
-0.85358428347 0.50059356657 0.14422188502 -0.80709265082 0.57268133344 0.14365772978 -0.75579543711 0.63917514292 0.1422265584 
-0.70426043125 0.69596617119 0.14017251347 -0.65685789272 0.74130261956 0.13786999311 -0.61726617992 0.77496144948 0.13571003994 
-0.58988204036 0.79627304947 0.13412087511 -0.57528260218 0.8070270445 0.13325643352 -0.57759319588 0.80535275731 0.13339054075 
-0.59221546939 0.79452765095 0.13418885831 -0.62128911795 0.77175780404 0.13560871587 -0.66297459596 0.73594697145 0.1372834306 
-0.71050496866 0.68990086772 0.13863434719 -0.76219053412 0.63218565744 0.13930859352 -0.81530866753 0.56211849 0.13890493098 
-0.8611924704 0.48937929809 0.13731508119 -0.90188898376 0.41051357854 0.13444278636 -0.93354176103 0.33381754834 0.13063546544 
-0.95693660852 0.2614325937 0.12619558721 -0.97310905465 0.19570627412 0.12148177652 -0.98365058851 0.13712633275 0.11673854803 
-0.99002657948 0.085314075996 0.11211101804 -0.99323714988 0.042658038043 0.10798266478 -0.99452941814 0.006576979513 0.10424960331 
-0.99460661204 -0.024043202947 0.10089406161 -0.99402756147 -0.047652199973 0.098175734679 -0.99315678497 -0.066667385655 0.095890876304 
-0.99233432573 -0.079953209019 0.094234125133 -0.99162736483 -0.08959710333 0.092992087786 -0.99122342589 -0.094613650385 0.092327553482 
-0.9912167347 -0.094694404645 0.092316599673 -0.99148895659 -0.091329779183 0.092782112457 -0.99208569197 -0.083355535886 0.093903324933 
-0.99293343636 -0.070043391466 0.095797256054 -0.99376528709 -0.052616812644 0.098295601174 -0.99438821245 -0.029332031777 0.10164504339 
-0.99438144523 -6.698336617e-06 0.10585622953 -0.99316522266 0.036078358632 0.1110008673 -0.98999813082 0.078813202887 0.11701358906 
-0.98377470459 0.12963783545 0.12402162004 -0.97322051156 0.18828016235 0.13188031071 -0.95756293568 0.25188624032 0.1400947756 
-0.93417356379 0.32422124681 0.14899777123 -0.90432132226 0.39677105961 0.15740289822 -0.86693317668 0.47021208003 0.16531021435 
-0.8246026657 0.53890479022 0.1720815818 -0.77982484142 0.60029272736 0.17754396126 -0.738368029 0.64952582855 0.18146308659 
-0.70046558493 0.68947908615 0.18430017389 -0.67425310394 0.71471395413 0.18592126181 -0.6596847806 0.72797649717 0.18672495765 
-0.65707244275 0.73029943448 0.18686503412 -0.66855768727 0.71997058173 0.18620682113 -0.69141513325 0.69845222562 0.18468785026 
-0.7244484487 0.66486855657 0.18200068039 -0.7636949826 0.62056227345 0.17796752044 -0.80419350164 0.56873712387 0.1726583211 
-0.84274420996 0.51200808377 0.16622249768 -0.87791139826 0.45173667079 0.15876258079 -0.90658746371 0.3940468617 0.15108355779 
-0.92834174405 0.3427682235 0.14384558115 -0.94440160573 0.29874005586 0.13733166468 -0.95488050528 0.26589918196 0.13229076187 
-0.96147289198 0.24293003753 0.12866574857 -0.9643745895 0.23210392133 0.12692289322 -0.96407376134 0.23324874092 0.1271094314 
-0.96133718746 0.24340912434 0.1287742606 -0.95440737891 0.2673905595 0.13269831867 -0.94289821028 0.30293852301 0.13846016153 
-0.92494265355 0.35090858708 0.14609671853 -0.90050098192 0.40640668718 0.15469837162 -0.8651668464 0.47365514455 0.16473351795 
-0.81834929159 0.54737769679 0.17516304978 -0.76146955367 0.62127008098 0.18489890565 -0.69191173106 0.6954927422 0.19377306822 
-0.61602431118 0.76173479727 0.20068419633 -0.53868284052 0.81707540045 0.20544728595 -0.46265981155 0.86171416666 0.20831369076 
-0.39217796385 0.89568991961 0.20960919009 -0.32674197982 0.92153714748 0.20978313669 -0.27360813992 0.93879927006 0.20927139391 
-0.22858270417 0.950951587 0.20842511013 -0.19381130077 0.95883496794 0.20753959608 -0.1633404944 0.96469112503 0.20661780217 
-0.14372409055 0.96794685293 0.20596668589 -0.12652995891 0.97047006925 0.20537286624 -0.11736499513 0.97168801127 0.20505576478 
-0.11288972117 0.97224939181 0.2049073717 -0.11229321698 0.97232231921 0.20488909435 -0.11368729163 0.97215227691 0.20492718274 
-0.12168919423 0.97114437169 0.20511057832 -0.12844650881 0.97024836478 0.20523061424 -0.14142260562 0.96840934688 0.20538496415 
-0.15474214804 0.96635589618 0.2054535216 -0.17011270705 0.96377561943 0.20542205892 -0.18866037797 0.96035675696 0.20523684157 
-0.20866402223 0.95628963231 0.20486450392 -0.23050125175 0.9513926728 0.20425757047 -0.25489791718 0.94534671087 0.20333875198 
-0.28213764591 0.9378623144 0.20202135527 -0.30988084149 0.92942334154 0.20036495771 -0.34110251164 0.91891046154 0.1981227908 
-0.37488168381 0.9062786967 0.19525021652 -0.40984686699 0.89176543942 0.19178098624 -0.44847369719 0.87393979111 0.18735149972 
-0.48900885636 0.85307831848 0.1820102221 -0.53203594959 0.82832864924 0.17552605847 -0.57633908651 0.79977407671 0.16791272608 
-0.62146450818 0.76711966384 0.15908892615 -0.66551240706 0.73130042061 0.14930817415 -0.70944340765 0.69107278329 0.13823335177 
-0.75157047401 0.64747751339 0.12615344722 -0.79004614604 0.60243038066 0.11359895944 -0.82446235414 0.55686251407 0.10082642029 
-0.85428396933 0.51226090854 0.088247727081 -0.87976746604 0.46928305117 0.076043563656 -0.90013178629 0.43073949899 0.065009624869 
-0.91704150245 0.39502408185 0.054688733222 -0.93028951099 0.36397841225 0.045619526097 -0.94000423132 0.33901365318 0.038233337114 
-0.94722883894 0.31893622811 0.03220573059 -0.9523138193 0.30386876289 0.027607327051 -0.95574644921 0.29318736804 0.024287693277 
-0.95761735851 0.28717260886 0.022380513719 -0.95838419194 0.28466569406 0.02156810771 -0.95818996328 0.28530273464 0.021779436932 
-0.95719279441 0.28854524381 0.022882233354 -0.95550235383 0.29394193102 0.024766772281 -0.95335616129 0.30062281737 0.027165261147 
-0.95071057202 0.30861351191 0.030118242402 -0.94799752784 0.31654772816 0.033139447846 -0.94470946102 0.32583834375 0.036788693946 
-0.94172483046 0.33398645482 0.040092289546 -0.93865368128 0.34210763458 0.043492907284 -0.93576603744 0.34951567851 0.04669811182 
-0.93290420895 0.35665217704 0.049889493244 -0.9305978992 0.36226125246 0.052481758448 -0.92847094823 0.36732507341 0.054899806364 
-0.92656156373 0.37178404556 0.057098967427 -0.92517816239 0.37496353998 0.058717216567 -0.92409932512 0.37741247503 0.060002174938 
-0.92338513841 0.37901817209 0.060869626171 -0.92294717443 0.37999603887 0.061412732102 -0.92284742859 0.38021778051 0.061539117027 
-0.92306843828 0.37972721702 0.061252746144 -0.92342973386 0.37892484949 0.060774049207 -0.92417679236 0.37726087922 0.059761906551 
-0.92423878318 0.37712254211 0.05967629256 -0.92522162236 0.37492224431 0.05829459865 -0.92586240353 0.37347908292 0.057377559636 
-0.92594399342 0.37329490139 0.05725938911 -0.92762490861 0.3694724984 0.054791439522 -0.92762490861 0.3694724984 0.054791439522 

