# vtk DataFile Version 4.1
vtk output
ASCII
DATASET POLYDATA
POINTS 384 float
-3.79426 -1.39037 217.858 -3.64432 -1.58937 216.775 -3.49446 -1.78837 215.691 
-3.34486 -1.98737 214.603 -3.19574 -2.18635 213.506 -3.04728 -2.38531 212.399 
-2.8997 -2.58422 211.278 -2.75319 -2.78307 210.139 -2.60794 -2.98181 208.981 
-2.46415 -3.18041 207.8 -2.32202 -3.37878 206.595 -2.18174 -3.57686 205.363 
-2.04349 -3.77454 204.102 -1.90748 -3.97171 202.812 -1.77388 -4.16822 201.49 
-1.6429 -4.36391 200.138 -1.51472 -4.5586 198.754 -1.38954 -4.75209 197.338 
-1.26755 -4.94416 195.891 -1.14894 -5.13456 194.415 -1.0339 -5.32304 192.909 
-0.922622 -5.50933 191.377 -0.815288 -5.69315 189.819 -0.712075 -5.87423 188.239 
-0.613151 -6.05228 186.638 -0.518673 -6.22704 185.019 -0.428781 -6.39823 183.385 
-0.343599 -6.56562 181.738 -0.263228 -6.72898 180.081 -0.187747 -6.88811 178.417 
-0.11721 -7.04284 176.749 -0.0516403 -7.19305 175.079 0.00896338 -7.33862 173.409 
0.0646332 -7.47952 171.741 0.115429 -7.61571 170.078 0.161437 -7.7472 168.42 
0.202767 -7.87407 166.769 0.239551 -7.99638 165.126 0.271937 -8.11427 163.492 
0.300083 -8.22788 161.866 0.324157 -8.33738 160.25 0.344324 -8.44296 158.642 
0.360746 -8.54482 157.043 0.37357 -8.64318 155.451 0.382929 -8.73825 153.867 
0.38893 -8.83025 152.288 0.391655 -8.91941 150.714 0.39115 -9.00594 149.144 
0.387431 -9.09004 147.576 0.380475 -9.17192 146.009 0.370222 -9.25178 144.44 
0.356577 -9.32981 142.869 0.33941 -9.40618 141.293 0.318562 -9.48107 139.712 
0.293845 -9.55465 138.122 0.265054 -9.62708 136.523 0.231966 -9.69853 134.912 
0.194353 -9.76916 133.289 0.151988 -9.83912 131.651 0.104649 -9.90857 129.996 
0.0521325 -9.97767 128.325 -0.0057434 -10.0466 126.635 -0.0691296 -10.1154 124.926 
-0.13814 -10.1844 123.197 -0.212847 -10.2537 121.448 -0.293272 -10.3234 119.678 
-0.379389 -10.3936 117.888 -0.471115 -10.4646 116.079 -0.568312 -10.5365 114.251 
-0.670785 -10.6095 112.406 -0.778283 -10.6835 110.544 -0.890506 -10.7589 108.668 
-1.0071 -10.8358 106.779 -1.12767 -10.9142 104.878 -1.25178 -10.9943 102.969 
-1.37896 -11.0763 101.052 -1.50873 -11.1602 99.1308 -1.64058 -11.2462 97.2065 
-1.77401 -11.3343 95.2813 -1.90851 -11.4247 93.357 -2.04359 -11.5175 91.4354 
-2.17879 -11.6126 89.5183 -2.31367 -11.7103 87.6071 -2.44784 -11.8105 85.7032 
-2.58094 -11.9133 83.8077 -2.71269 -12.0187 81.922 -2.84282 -12.1268 80.0468 
-2.97117 -12.2375 78.1831 -3.09759 -12.3508 76.3318 -3.22202 -12.4668 74.4935 
-3.34442 -12.5852 72.669 -3.46485 -12.7062 70.8588 -3.58336 -12.8297 69.0637 
-3.70008 -12.9555 67.2842 -3.81515 -13.0836 65.5209 -3.92875 -13.2139 63.7744 
-4.04107 -13.3463 62.0451 -4.15232 -13.4808 60.3337 -4.26271 -13.6172 58.6407 
-4.37245 -13.7554 56.9663 -4.48175 -13.8955 55.3112 -4.5908 -14.0372 53.6755 
-4.6998 -14.1805 52.0596 -4.8089 -14.3254 50.4636 -4.91827 -14.4718 48.8877 
-5.02804 -14.6197 47.3317 -5.13833 -14.769 45.7955 -5.24924 -14.9197 44.279 
-5.36085 -15.0718 42.7816 -5.47326 -15.2254 41.303 -5.58651 -15.3804 39.8424 
-5.70068 -15.537 38.3991 -5.81583 -15.6951 36.9722 -5.93202 -15.8549 35.5605 
-6.04931 -16.0165 34.1627 -6.16777 -16.1801 32.7776 -6.28749 -16.3458 31.4036 
-6.40857 -16.5138 30.0389 -6.53111 -16.6843 28.6817 -6.65525 -16.8575 27.3301 
-6.78114 -17.0338 25.9819 -6.90893 -17.2134 24.635 -7.03883 -17.3965 23.287 
-7.17104 -17.5836 21.9356 -7.30578 -17.7748 20.5785 -7.44329 -17.9706 19.2131 
-7.58384 -18.1712 17.8371 -7.72769 -18.3769 16.4482 -7.87511 -18.5881 15.044 
-8.02638 -18.8051 13.6226 -8.18177 -19.0281 12.1818 -8.34156 -19.2573 10.7198 
-8.50598 -19.4929 9.23525 -8.67529 -19.735 7.72667 -8.84967 -19.9838 6.19307 
-9.0293 -20.2393 4.63373 -9.21432 -20.5015 3.04824 -9.40483 -20.7703 1.43654 
-9.60085 -21.0455 -0.201078 -9.8024 -21.3269 -1.864 -10.0094 -21.6144 -3.55126 
-10.2217 -21.9074 -5.26156 -10.4392 -22.2058 -6.99332 -10.6616 -22.5089 -8.74465 
-10.8886 -22.8164 -10.5134 -11.1199 -23.1277 -12.2973 -11.3551 -23.4423 -14.0937 
-11.5937 -23.7594 -15.9 -11.8353 -24.0786 -17.7134 -12.0794 -24.3992 -19.5311 
-12.3254 -24.7205 -21.3502 -12.5728 -25.042 -23.1678 -12.8211 -25.363 -24.9812 
-13.0695 -25.6828 -26.7876 -13.3177 -26.0009 -28.5845 -13.5651 -26.3168 -30.3693 
-13.8111 -26.6298 -32.1399 -14.0552 -26.9396 -33.894 -14.297 -27.2456 -35.6299 
-14.536 -27.5474 -37.3458 -14.7719 -27.8446 -39.0402 -15.0043 -28.1369 -40.712 
-15.2328 -28.424 -42.3601 -15.4572 -28.7056 -43.9839 -15.6774 -28.9816 -45.5829 
-15.8931 -29.2519 -47.1568 -16.1042 -29.5162 -48.7057 -16.3107 -29.7746 -50.2298 
-16.5125 -30.0271 -51.7295 -16.7095 -30.2736 -53.2055 -16.902 -30.5141 -54.6587 
-17.0898 -30.7489 -56.09 -17.2732 -30.978 -57.5006 -17.4522 -31.2016 -58.8916 
-17.6269 -31.4197 -60.2645 -17.7976 -31.6326 -61.6206 -17.9644 -31.8404 -62.9612 
-18.1275 -32.0434 -64.2877 -18.2872 -32.2416 -65.6015 -18.4435 -32.4354 -66.9038 
-18.5967 -32.6247 -68.1959 -18.747 -32.8099 -69.4787 -18.8946 -32.9909 -70.7533 
-19.0397 -33.168 -72.0204 -19.1826 -33.3413 -73.2806 -19.3233 -33.5108 -74.5344 
-19.462 -33.6765 -75.782 -19.5989 -33.8386 -77.0237 -19.7342 -33.997 -78.2592 
-19.8679 -34.1518 -79.4883 -20.0001 -34.3029 -80.7105 -20.131 -34.4503 -81.9254 
-20.2604 -34.5939 -83.1321 -20.3886 -34.7337 -84.3299 -20.5153 -34.8696 -85.5178 
-20.6408 -35.0015 -86.6949 -20.7649 -35.1294 -87.8602 -20.8875 -35.2532 -89.0127 
-21.0086 -35.3728 -90.1516 -21.1283 -35.4882 -91.276 -21.2463 -35.5993 -92.3853 
-21.3626 -35.7061 -93.479 -21.4772 -35.8086 -94.5568 -21.5901 -35.9068 -95.6187 
-21.7011 -36.0008 -96.6649 -21.8104 -36.0905 -97.6958 -21.9178 -36.1762 -98.7123 
-22.0235 -36.2579 -99.7153 -22.1274 -36.3357 -100.706 -22.2295 -36.4099 -101.687 
-22.33 -36.4807 -102.658 -22.4289 -36.5482 -103.623 -22.5262 -36.6126 -104.584 
-22.6221 -36.6743 -105.542 -22.7167 -36.7334 -106.5 -22.8099 -36.7902 -107.46 
-22.9019 -36.845 -108.425 -22.9927 -36.898 -109.397 -23.0823 -36.9495 -110.378 
-23.1709 -36.9996 -111.369 -23.2583 -37.0486 -112.373 -23.3445 -37.0968 -113.39 
-23.4296 -37.1442 -114.422 -23.5135 -37.191 -115.471 -23.596 -37.2374 -116.535 
-23.6771 -37.2836 -117.616 -23.7567 -37.3295 -118.713 -23.8345 -37.3753 -119.826 
-23.9106 -37.4211 -120.955 -23.9847 -37.4668 -122.099 -24.0566 -37.5126 -123.256 
-24.1262 -37.5584 -124.425 -24.1934 -37.6042 -125.605 -24.2578 -37.6501 -126.794 
-24.3195 -37.696 -127.991 -24.3781 -37.7418 -129.194 -24.4336 -37.7876 -130.401 
-24.4859 -37.8333 -131.609 -24.5347 -37.8789 -132.818 -24.5799 -37.9242 -134.026 
-24.6215 -37.9693 -135.23 -24.6594 -38.0142 -136.429 -24.6934 -38.0587 -137.622 
-24.7235 -38.1028 -138.807 -24.7496 -38.1466 -139.982 -24.7717 -38.1899 -141.147 
-24.7896 -38.2327 -142.301 -24.8035 -38.275 -143.443 -24.8132 -38.3168 -144.573 
-24.8188 -38.3581 -145.689 -24.8202 -38.3988 -146.793 -24.8175 -38.4389 -147.883 
-24.8107 -38.4784 -148.962 -24.7998 -38.5174 -150.028 -24.785 -38.5557 -151.083 
-24.7662 -38.5934 -152.128 -24.7436 -38.6305 -153.164 -24.7173 -38.6669 -154.193 
-24.6874 -38.7027 -155.215 -24.6541 -38.7378 -156.233 -24.6176 -38.7722 -157.248 
-24.5779 -38.8058 -158.262 -24.5354 -38.8387 -159.277 -24.4903 -38.8707 -160.294 
-24.4427 -38.9019 -161.314 -24.393 -38.9321 -162.34 -24.3413 -38.9614 -163.373 
-24.2879 -38.9896 -164.413 -24.233 -39.0168 -165.462 -24.1769 -39.0429 -166.52 
-24.1198 -39.0679 -167.589 -24.062 -39.0916 -168.667 -24.0036 -39.1142 -169.755 
-23.9448 -39.1354 -170.854 -23.8859 -39.1554 -171.962 -23.827 -39.1741 -173.079 
-23.7681 -39.1914 -174.204 -23.7096 -39.2075 -175.336 -23.6513 -39.2223 -176.475 
-23.5934 -39.2358 -177.619 -23.536 -39.248 -178.767 -23.479 -39.2591 -179.919 
-23.4224 -39.2689 -181.072 -23.3663 -39.2776 -182.227 -23.3106 -39.2852 -183.382 
-23.2552 -39.2918 -184.537 -23.2001 -39.2974 -185.69 -23.1451 -39.302 -186.841 
-23.0903 -39.3058 -187.99 -23.0354 -39.3086 -189.137 -22.9805 -39.3107 -190.28 
-22.9255 -39.3119 -191.42 -22.8702 -39.3124 -192.557 -22.8146 -39.3121 -193.691 
-22.7587 -39.3111 -194.821 -22.7024 -39.3093 -195.948 -22.6457 -39.3068 -197.072 
-22.5885 -39.3035 -198.193 -22.531 -39.2995 -199.31 -22.473 -39.2947 -200.424 
-22.4147 -39.2892 -201.534 -22.3561 -39.2828 -202.64 -22.2973 -39.2755 -203.743 
-22.2383 -39.2674 -204.841 -22.1793 -39.2584 -205.935 -22.1203 -39.2484 -207.024 
-22.0614 -39.2375 -208.108 -22.0028 -39.2256 -209.186 -21.9445 -39.2127 -210.257 
-21.8866 -39.1988 -211.323 -21.8293 -39.1837 -212.381 -21.7725 -39.1676 -213.433 
-21.7165 -39.1504 -214.477 -21.6611 -39.132 -215.514 -21.6065 -39.1125 -216.543 
-21.5527 -39.0917 -217.565 -21.4996 -39.0697 -218.58 -21.4473 -39.0464 -219.588 
-21.3958 -39.0218 -220.589 -21.3451 -38.996 -221.584 -21.295 -38.9687 -222.573 
-21.2456 -38.9401 -223.556 -21.1968 -38.9102 -224.535 -21.1485 -38.8788 -225.51 
-21.1009 -38.8459 -226.481 -21.0537 -38.8117 -227.449 -21.007 -38.776 -228.413 
-20.9608 -38.7389 -229.376 -20.9151 -38.7003 -230.335 -20.8699 -38.6604 -231.293 
-20.8253 -38.6191 -232.248 -20.7814 -38.5764 -233.201 -20.7382 -38.5324 -234.152 
-20.6958 -38.4872 -235.1 -20.6543 -38.4408 -236.044 -20.6139 -38.3933 -236.984 
-20.5746 -38.3448 -237.919 -20.5365 -38.2953 -238.849 -20.4999 -38.245 -239.773 
-20.4647 -38.1939 -240.689 -20.4311 -38.1423 -241.598 -20.3991 -38.0901 -242.496 
-20.3687 -38.0375 -243.385 -20.3401 -37.9847 -244.262 -20.3131 -37.9317 -245.126 
-20.2878 -37.8787 -245.977 -20.2642 -37.8258 -246.813 -20.2421 -37.7731 -247.633 
-20.2214 -37.7206 -248.437 -20.2022 -37.6686 -249.224 -20.1842 -37.617 -249.992 
-20.1674 -37.5659 -250.741 -20.1515 -37.5154 -251.471 -20.1365 -37.4656 -252.182 
-20.1222 -37.4165 -252.872 -20.1085 -37.3681 -253.541 -20.0953 -37.3204 -254.19 
-20.0824 -37.2734 -254.817 -20.0697 -37.2272 -255.424 -20.0572 -37.1817 -256.011 
-20.0447 -37.137 -256.576 -20.0321 -37.0929 -257.122 -20.0195 -37.0495 -257.648 
-20.0066 -37.0067 -258.154 -19.9936 -36.9646 -258.641 -19.9803 -36.9231 -259.11 
-19.9667 -36.8822 -259.561 -19.9527 -36.8419 -259.994 -19.9385 -36.8021 -260.41 
-19.924 -36.7629 -260.81 -19.9091 -36.7243 -261.195 -19.894 -36.6862 -261.565 
-19.8785 -36.6486 -261.92 -19.8628 -36.6115 -262.263 -19.8469 -36.575 -262.592 
-19.8307 -36.539 -262.911 -19.8143 -36.5034 -263.218 -19.7978 -36.4683 -263.516 
-19.7811 -36.4337 -263.806 -19.7643 -36.3994 -264.088 -19.7474 -36.3654 -264.364 
-19.7304 -36.3317 -264.635 -19.7134 -36.2982 -264.902 -19.6964 -36.2648 -265.167 

LINES 1 385
384 383 382 381 380 379 378 377 376 375 374 373 372 371 370 369 368 367 366 365 364 363 362 361 360 359 358 357 356 355 354 353 352 351 350 349 348 347 346 345 344 343 342 341 340 339 338 337 336 335 334 333 332 331 330 329 328 327 326 325 324 323 322 321 320 319 318 317 316 315 314 313 312 311 310 309 308 307 306 305 304 303 302 301 300 299 298 297 296 295 294 293 292 291 290 289 288 287 286 285 284 283 282 281 280 279 278 277 276 275 274 273 272 271 270 269 268 267 266 265 264 263 262 261 260 259 258 257 256 255 254 253 252 251 250 249 248 247 246 245 244 243 242 241 240 239 238 237 236 235 234 233 232 231 230 229 228 227 226 225 224 223 222 221 220 219 218 217 216 215 214 213 212 211 210 209 208 207 206 205 204 203 202 201 200 199 198 197 196 195 194 193 192 191 190 189 188 187 186 185 184 183 182 181 180 179 178 177 176 175 174 173 172 171 170 169 168 167 166 165 164 163 162 161 160 159 158 157 156 155 154 153 152 151 150 149 148 147 146 145 144 143 142 141 140 139 138 137 136 135 134 133 132 131 130 129 128 127 126 125 124 123 122 121 120 119 118 117 116 115 114 113 112 111 110 109 108 107 106 105 104 103 102 101 100 99 98 97 96 95 94 93 92 91 90 89 88 87 86 85 84 83 82 81 80 79 78 77 76 75 74 73 72 71 70 69 68 67 66 65 64 63 62 61 60 59 58 57 56 55 54 53 52 51 50 49 48 47 46 45 44 43 42 41 40 39 38 37 36 35 34 33 32 31 30 29 28 27 26 25 24 23 22 21 20 19 18 17 16 15 14 13 12 11 10 9 8 7 6 5 4 3 2 1 0 

CELL_DATA 1
FIELD FieldData 2
LengthArray 1 1 double
487.04596765 
TortuosityArray 1 1 double
0.0051647960841 
POINT_DATA 384
FIELD FieldData 8
RadiusArray 1 384 double
67.375793697 67.53066409 67.594053756 67.5973464 67.614430233 67.620135238 67.628268001 67.631912821 67.633129405 
67.586449698 67.583260824 67.52167399 67.521222736 67.403897968 67.371220675 67.125509655 66.907589981 66.90659463 
66.803448048 66.788217023 66.722124482 66.468721787 66.069196097 65.877710306 65.275039554 65.115849926 64.972008543 
64.525789293 64.337345396 64.132987646 63.786004621 63.375002717 63.189016596 63.055027851 62.923381885 62.634320383 
62.460858745 62.404086804 62.277948535 61.7704519 61.395910412 61.275429867 61.154316306 60.792056978 60.723919919 
60.409738978 60.002841156 59.54478264 59.224709068 59.050101627 58.965864508 58.888735332 58.645255829 58.576153814 
58.189840995 58.09628416 58.035378729 57.938790294 57.657688548 57.640318219 57.109734099 56.790363668 56.752358222 
56.442183052 55.966193523 55.957996806 55.838242863 55.485026273 55.251535511 54.729816328 54.21863854 53.584754978 
53.487516931 52.941183302 52.686114554 52.579649152 52.300968512 51.897473692 51.550634987 51.306757547 51.291276345 
50.985441766 50.518964282 50.196983495 50.087602504 50.039257067 49.601199716 49.530063971 48.789129235 48.686379675 
48.240674375 47.724737559 47.675676653 47.222091868 47.202734641 47.024942206 46.635982708 46.48555731 46.084719645 
45.97932171 45.918977297 45.342319349 45.31814303 45.109436681 44.866653612 44.764015222 44.506627528 43.903302179 
43.852479473 43.832299889 43.703353096 43.567927708 43.247239461 43.238153974 42.920033243 42.870002894 42.690326126 
42.486698803 42.432359694 42.144504835 42.099268353 41.866170464 41.848286371 41.771125341 41.572281388 41.492396002 
41.413203431 41.131381422 40.901883922 40.881003414 40.756164442 40.656854998 40.616351833 40.529838333 40.4763554 
40.447620983 40.131020376 39.90673409 39.844442682 39.41293997 39.234907514 38.853826178 38.726355716 38.643968942 
38.373074682 38.358223751 38.258877744 38.229975099 38.042953615 37.882475992 37.747132953 37.759397554 37.740785418 
37.401021525 37.391094059 37.386483378 37.335673058 37.243559921 37.093676454 37.079742744 37.075774699 37.073238923 
37.060202584 37.092684926 37.098353361 37.114679952 37.10982476 37.102059753 37.097506163 37.144915371 37.161023363 
37.151489201 37.17108442 37.178682838 37.275632841 37.281829399 37.29194374 37.297303375 37.297308794 37.436910522 
37.445715762 37.495921198 37.498562777 37.537863671 37.590097511 37.590603063 37.622228904 37.64205206 37.681558065 
37.722377553 37.741296752 37.813461391 37.916091807 37.942089775 37.996853923 38.071417607 38.111930653 38.254031861 
38.262675595 38.290930563 38.373580047 38.378040361 38.387701547 38.406977325 38.422538246 38.438419256 38.443915096 
38.459896702 38.46828584 38.489366935 38.497225618 38.521643553 38.530238964 38.534832824 38.536983248 38.537928701 
38.553597638 38.556596604 38.559791283 38.555768295 38.554554689 38.547680766 38.543629962 38.518161756 38.491881723 
38.489917487 38.447263427 38.41743363 38.42035094 38.411510882 38.394705597 38.226117813 38.222619031 38.203658894 
38.187798189 38.092639438 38.059588373 37.885523177 37.88242049 37.791787771 37.778021429 37.744618307 37.625514722 
37.500187735 37.4575144 37.320774639 37.299572845 37.13323779 36.928071308 36.90727925 36.825941762 36.780386008 
36.766538301 36.757978401 36.630493394 36.531567655 36.479102108 36.292370324 36.263815792 36.230337744 36.138939805 
36.128533852 35.991539706 35.920180024 35.845282491 35.777370368 35.694405736 35.546779915 35.451036173 35.262150497 
35.054497904 34.837957786 34.803232324 34.780823542 34.412611071 34.142565784 34.062707255 33.704011465 33.476650597 
33.366861452 33.078497207 33.016790198 32.639979217 32.612289471 32.509168853 32.30931809 32.111758041 32.105018958 
31.751096952 31.735551588 31.346364629 31.061245108 31.050478988 30.729935535 30.724347646 30.47879908 30.275387353 
30.113609371 29.812971502 29.772838647 29.761730069 29.591797643 29.148009124 29.068895076 28.682413058 28.597619822 
28.21106566 28.198321851 27.50532039 27.322209465 27.258319526 27.056670313 26.827357217 26.738099168 26.469086349 
26.458204155 26.035799255 26.011939756 25.979141439 25.550437347 25.238981702 25.238877647 25.212967915 25.193297666 
24.768191142 24.451317012 24.294743138 23.732701485 23.663146117 23.4935541 23.2679604 23.028214638 22.883697 
22.657327301 22.625815982 22.028809913 21.930995509 21.85076157 21.00303926 20.987313823 20.744751964 20.477142697 
20.338038225 19.840772438 19.694703836 19.102161553 18.977195642 18.962874575 18.126789711 18.090718205 17.672465359 
17.537511421 17.26299094 17.072538059 16.913631888 16.494748279 16.277862885 15.923166364 15.876069135 15.568396989 
15.40139806 15.141011225 14.978482046 14.951480528 14.747675814 14.552749911 14.472334863 13.816987893 13.324637866 
13.155641904 13.078613888 12.694039912 12.499119272 12.436075292 12.145748172 12.029004323 11.868656278 11.731523429 
11.731193652 11.70404203 11.544429257 11.255567562 11.045491116 11.00902414 
EdgeArray 2 384 int
23802 23802 26428 26426 26428 29003 29004 29003 29002 
29001 28999 29002 28999 28010 28015 28010 28016 28015 
26434 26434 22604 25375 28007 28005 28007 28006 26435 
5982 29483 29072 29482 29482 26437 28558 26437 13821 
26483 21951 22469 26483 22469 22242 15421 15421 20491 
20491 29086 29086 29080 29080 28579 28310 28080 28080 
5702 28078 28076 13600 21240 21240 25693 25693 22239 
25674 15026 21242 24665 26246 19327 26247 26264 23410 
27770 26809 20385 25171 19809 26808 19809 20236 27062 
24654 26779 24654 28107 26779 25672 25672 27068 27068 
26526 26526 27058 27058 27055 27048 23943 25480 27759 
27760 27761 27760 27761 27532 27764 27535 27535 27533 
27533 24643 27534 26237 26237 27245 27245 25478 26231 
25451 25137 26231 26227 24461 25129 24461 25471 25129 
14790 14790 23646 25969 25969 27540 27538 27540 27539 
27542 27749 24726 27752 27752 25472 25472 25784 25784 
26757 24727 5567 26254 28304 28304 7655 7655 27728 
27728 27732 28823 27203 27724 23595 23595 27196 27197 
27198 27198 26225 26225 25118 25118 25116 25116 26192 
26192 24607 24607 25217 25217 16058 16058 19355 19355 
25102 25102 9675 26745 26200 23097 19716 19716 10541 
10019 18822 18822 18412 18412 20719 25617 11131 11131 
20717 20717 20718 20718 21179 21179 15544 15544 29297 
29297 29786 29786 29785 29294 24065 24065 26173 26173 
20256 30202 27169 30202 31150 31145 16425 16425 24580 
27702 31144 27702 31157 31157 31158 16428 30180 16428 
30854 30854 29863 29863 30195 30195 30569 30569 31111 
10655 10655 31108 29707 29707 31110 31110 29682 31122 
26128 26128 30535 30535 30184 30184 32018 32018 32019 
29736 32015 32014 30539 32014 31676 32242 31676 24992 
28255 24992 32258 32258 32414 32414 32008 32008 31264 
31264 32659 32659 32656 32656 32970 32970 28236 32971 
30177 32706 33246 32706 33247 33247 32977 32977 32974 
32974 19312 19312 31370 31370 33638 33638 33456 33456 
33644 33644 33646 33645 33217 33645 33217 33865 33471 
33471 33473 33475 31991 32186 33667 33877 33667 33666 
33669 33467 33663 33664 33663 33665 29622 33829 34040 
33285 34040 34040 33648 33648 33651 34469 25297 25297 
31731 29175 29915 31069 29915 31820 34457 34424 34428 
34424 23223 34428 23223 29314 15273 29314 33361 33361 
33830 31821 34955 33835 33842 34955 34949 31879 34953 
34951 34953 34952 18765 34952 18765 34819 34819 30511 
34480 34222 10490 31227 34096 34096 32643 34465 35596 
35596 34973 35602 34223 34223 32099 32099 28681 33898 
33898 35600 35600 28872 33900 33873 33900 32547 35090 
35592 35790 22726 30244 27170 35603 27170 35603 31722 
23515 35794 36387 23515 31777 31777 32714 30812 33724 
5262 36014 33724 27159 35545 35545 35703 35703 35703 
36544 34551 36544 36543 37004 34483 32738 33393 32738 
36727 36396 36396 36820 36820 36005 36005 23545 23545 
37355 37355 37303 37303 36802 36802 36471 35983 36471 
36805 36805 35183 37274 37175 19907 37274 37514 37514 
37454 38113 16123 16123 37905 38017 38023 38023 38575 
38577 38224 38222 37912 38222 37912 37268 38519 38519 
38740 38740 38305 37705 39159 39159 39158 39158 38342 
38342 39352 39352 39594 39594 38126 39423 39423 39426 
39425 39654 39405 39654 39805 39805 39863 39404 39869 
39874 39861 37934 39032 38265 39715 36968 40246 36968 
39644 39786 39786 39234 38375 39520 40165 40164 40164 
40166 40163 40163 40346 40346 39011 40347 40341 40341 
38883 38883 40343 40343 40825 40825 40826 40828 39564 
39564 40550 40550 40041 40041 40318 40318 41182 41187 
41306 41306 41313 41313 41482 41482 41384 40423 41479 
41384 41478 41478 41794 41795 41186 41186 41788 41722 
41161 41161 40810 40810 41229 41229 41777 41777 42046 
41932 42053 42049 42054 42050 41705 41705 42193 42193 
42195 42195 42103 42103 41516 42205 41516 40831 42396 
42396 42402 42402 41208 41208 42385 40048 42387 42387 
42403 42403 42407 41366 42641 42641 42647 43164 43164 
43162 43162 43162 42189 43171 42799 43170 38877 38877 
42624 42624 43200 43200 43352 43354 43353 43353 43243 
43243 42584 42584 43728 42584 43728 43728 42996 43726 
43716 43716 43711 43711 43668 43668 43616 43616 43702 
43973 43333 44236 43885 44095 42294 44108 43101 43871 
43886 43886 43598 44091 44111 44111 44316 44316 44695 
44695 44694 44694 44580 44897 44899 44897 44826 44826 
44211 44794 44812 44812 43909 43909 44868 44868 44998 
44998 44630 44630 44651 44651 44250 45359 45025 45335 
44956 45471 45484 45551 45484 45371 45560 45560 45656 
45656 45820 45820 45400 45400 46063 46063 46049 46049 
46303 46303 46578 46576 46577 45320 45754 46577 45590 
45754 46836 46836 46837 46838 46362 46362 46719 46886 
47109 47124 47109 46546 47370 47370 47973 47973 48335 
47893 48340 48363 48166 48325 48707 48707 48101 48101 
48588 48101 48588 48588 48526 48526 47604 48097 48367 
48378 48790 48790 
EdgePCoordArray 1 384 double
0 0.328 0.968 0.972 0.244 0.672 0.604 0.092 0.972 
0 0.804 0.02 0.024 0.628 0.32 0 0.004 0.016 
0.06 0.848 0.464 0 0 0 0 0.684 0 
0.572 0.588 0 0 0.212 0.108 0.04 0.82 0.116 
0.96 0.96 0.848 0.656 0.868 0.448 0.912 0 0 
0 0 0.38 0.488 0.54 0.268 0.18 0.868 0.22 
0.8 0.9 0.304 0.872 0.044 0.14 0.704 0.116 0.944 
0 0.972 0.06 0.156 0.4 0.336 0 0 0 
0.408 0.856 0 0 0 0.248 0.492 0 0.02 
0 0 0 0 0 0 0 0 0 
0 0.044 0.452 0 0.04 0 0 0.824 0 
0 0 0 0 0 0 0.188 0 0 
0.52 0.508 0.004 0 0.9 0.916 0 0.096 0.288 
0 0 0 0 0.764 0.388 0 0 0.276 
0 0 0 0 0.628 0.944 0.72 0.276 0.704 
0.932 0 0 0 0 0 0 0 0.996 
0.912 0.856 0 0 0 0 0 0 0 
0 0.952 0.908 0.028 0 0.38 0.848 0.592 0.572 
0.096 0.588 0.468 0.764 0.38 0 0 0.112 0 
0.696 0.844 0.78 0.916 0.772 0.38 0.952 0.98 0 
0.928 0.028 0.952 0.256 0.044 0.052 0.392 0.228 0.776 
0.88 0.972 0 0.664 0 0.232 0 0 0.964 
0.228 0.076 0.06 0.212 0.124 0.54 0.664 0.208 0.056 
0.748 0.52 0 0.608 0.38 0.712 0.888 0.616 0 
0.472 0.34 0.536 0.084 0.128 0 0 0 0 
0 0 0 0.98 0.868 0.116 0.084 0.828 0 
0.628 0 0.92 0 0.976 0.848 0.86 0.784 0 
0 0.008 0 0 0 0 0 0.624 0.512 
0.8 0.96 0 0.22 0.484 0.692 0.128 0.32 0.788 
0.248 0.364 0.452 0.584 0.668 0 0 0.884 0 
0 0 0 0.128 0 0 0 0 0.944 
0 0 0 0.12 0.928 0 0.956 0 0.008 
0 0 0 0 0.14 0.724 0.724 0 0 
0 0 0.16 0.064 0 0 0 0.964 0 
0 0.928 0 0.864 0.276 0 0.976 0.8 0 
0 0 0.112 0 0 0 0.996 0 0.98 
0 0 0 0 0.96 0.96 0.372 0.592 0.232 
0 0.984 0 0 0 0 0.076 0.156 0 
0.488 0 0 0 0 0 0 0.948 0.148 
0.196 0.156 0.588 0 0 0 0 0 0 
0 0.496 0.092 0.84 0.428 0 0.008 0 0.816 
0.864 0.912 0 0 0.984 0.272 0.808 0 0 
0.988 0 0 0.264 0.104 0 
CurvatureArray 1 384 double
0 0.0002359308233 0.00094548988236 0.0016258667136 0.0022522687051 0.0028147952332 0.0032905435084 0.0036797630518 0.0039750438395 
0.004187614035 0.004310579478 0.0043690547831 0.0043617673629 0.0043069827536 0.0042139695409 0.0040929962442 0.0039565788297 0.0038079127905 
0.0036570304473 0.0035079308549 0.0033638522886 0.0032275692312 0.003101302053 0.0029848866726 0.0028801812627 0.0027859350003 0.0027018681758 
0.0026269038741 0.0025591839813 0.00249887535 0.0024439869675 0.0023925957904 0.0023444065525 0.0022966539961 0.002249542088 0.0022007853957 
0.0021504077005 0.002098032552 0.0020435866977 0.0019863094523 0.0019287034952 0.0018705470497 0.0018135948075 0.0017590351264 0.0017093363689 
0.0016656227231 0.001629371534 0.0016025849905 0.0015849914636 0.0015778688331 0.0015801246387 0.0015911993467 0.0016092373392 0.0016321038272 
0.0016573514786 0.0016817334826 0.0017030113109 0.0017184859591 0.0017259952529 0.0017239805516 0.001711558577 0.0016881303311 0.001654151038 
0.0016098717394 0.0015566524527 0.0014951354255 0.0014270598894 0.0013535661998 0.0012763438768 0.0011967036177 0.001116099839 0.0010361178269 
0.00095879682416 0.00088618923692 0.00082073576 0.00076514601525 0.00072297126748 0.00069631718434 0.0006878509294 0.00069573386944 0.00072007170047 
0.00075554590476 0.00079924924887 0.00084680479248 0.00089448327068 0.00093987724019 0.00098039182549 0.0010155688904 0.0010437918593 0.0010653040633 
0.0010808179053 0.0010909558598 0.0010985548795 0.001104888402 0.0011122131049 0.0011228705682 0.001139192648 0.0011625883802 0.0011938391921 
0.0012322807597 0.0012786277847 0.0013317151383 0.0013897956151 0.001450634118 0.0015149446367 0.0015795090712 0.0016436111848 0.0017061318997 
0.0017664051147 0.0018234729292 0.0018783518505 0.001927753738 0.001972385848 0.002013946793 0.0020486914814 0.0020789933174 0.002101672533 
0.0021185541388 0.0021270889094 0.0021292151729 0.0021219271161 0.002105958828 0.0020806762266 0.0020473967133 0.0020060159329 0.0019540786961 
0.0018987011012 0.0018348405393 0.0017681356878 0.0016973680897 0.0016242805092 0.0015515560481 0.0014796260363 0.0014092938169 0.0013396835821 
0.0012742826527 0.0012104191884 0.0011494323627 0.0010925787589 0.0010358396668 0.000981909513 0.00092954382675 0.00087776481043 0.00082678317427 
0.0007765733578 0.00072578228295 0.0006743319949 0.00062254665587 0.00056991562748 0.00051662044479 0.00046169488845 0.00040689517754 0.00035157540884 
0.00029773427848 0.00024651091 0.00020448850319 0.00017921948401 0.00018150735061 0.00021285588475 0.00026552895525 0.00033185774294 0.00040564104774 
0.00048710125088 0.00057256917575 0.00066169983176 0.00075515554054 0.00085245564509 0.00095010052264 0.0010522464108 0.0011526827465 0.0012538777343 
0.0013536704714 0.0014508664439 0.0015426262527 0.0016300517799 0.0017078356198 0.0017767155435 0.0018364113737 0.0018839074499 0.0019219865651 
0.0019454628964 0.0019586865381 0.0019626177173 0.001960409117 0.0019493114395 0.0019359519145 0.0019154705961 0.0019009177988 0.0018859001856 
0.0018708284835 0.0018624747858 0.001864639217 0.0018656282802 0.0018823532057 0.001902672821 0.0019312735258 0.0019698584751 0.0020170278628 
0.0020777025326 0.0021418121532 0.0022138222983 0.0022997070711 0.002388979557 0.002480955283 0.002577100572 0.002678034447 0.0027661702791 
0.0028601271225 0.0029402026116 0.0030020174442 0.003053688835 0.0030830481183 0.0030938963832 0.0030872542496 0.0030653053007 0.0030227122819 
0.0029702104348 0.0029059676162 0.0028449308533 0.002772271576 0.0027035910504 0.0026367896569 0.0025734802364 0.0025159104692 0.002460193666 
0.002415591224 0.002375705183 0.0023381342513 0.0023129324029 0.0022857987879 0.0022732223588 0.0022608535165 0.0022590606923 0.0022611178353 
0.0022706787222 0.002286982159 0.0023088995167 0.0023409035228 0.002377600031 0.002426924469 0.0024794838106 0.0025454303822 0.0026165449938 
0.0026988081053 0.0027885445109 0.0028897666666 0.0029924614938 0.003106525981 0.0032162254995 0.0033299724751 0.0034336539762 0.0035323967596 
0.0036104885867 0.0036687003097 0.0037007567152 0.0036981048734 0.0036535833186 0.003574629121 0.0034489229374 0.0032883558538 0.0030878160204 
0.0028614633767 0.0026152875236 0.0023602588017 0.0021104405975 0.0018755766634 0.0016662542106 0.0014989713702 0.0013743660622 0.0012905731146 
0.0012468498764 0.0012298316675 0.0012240426483 0.0012291682703 0.0012266661303 0.0012230160054 0.0012022157407 0.0011791098345 0.001146007975 
0.0010975131925 0.0010485909413 0.00099374194863 0.00093118560575 0.00086979976742 0.00080893273989 0.00075936072211 0.00070836841672 0.00067547468604 
0.00065555363905 0.00064585225246 0.00064693898014 0.00066416662082 0.00068224918221 0.00070121911784 0.00072520006428 0.00074369571412 0.00075962122546 
0.00077115772002 0.00077722464846 0.00078286806028 0.00079305766053 0.00079316639644 0.00080384308609 0.00081629967162 0.0008338006062 0.00086141558572 
0.00089668774819 0.00093617781423 0.0009825074743 0.0010316055497 0.0010907291246 0.0011532350854 0.0012100026124 0.001273159788 0.0013344301765 
0.0013898633983 0.0014450186064 0.0014890750421 0.0015329067758 0.0015748042684 0.0016065043337 0.0016353320042 0.0016532484116 0.001670436554 
0.0016821638234 0.0016885029634 0.0016852218115 0.0016871119185 0.0016842822616 0.0016867208018 0.0016859206323 0.0016957069341 0.0017072179559 
0.0017254207815 0.0017575837488 0.0017921228452 0.0018327903515 0.0018826742749 0.0019296574384 0.001975166886 0.0020145258164 0.0020496302082 
0.0020674542801 0.0020771424844 0.0020748000796 0.0020516636763 0.0020115869468 0.0019641922213 0.0018973521502 0.0018243378031 0.001757549588 
0.0016836949512 0.0016384720821 0.0016366860896 0.0016727131488 0.0017918664497 0.0019729405156 0.0022186587506 0.0025573270925 0.0029241262966 
0.0033609565568 0.003833829775 0.0043734286852 0.0049050300541 0.005483362456 0.0060878699963 0.0067364999672 0.0073433550398 0.007932691578 
0.0085801177904 0.0091062607073 0.0096202264351 0.010027719045 0.010358947995 0.010448501628 0.010512990543 0.010286235717 0.0097176686639 
0.0090712457778 0.007953777535 0.0065815096952 0.0050958664376 0.0033273624496 0 
TorsionArray 1 384 double
0 0 0.00036091648563 7.702791629e-05 0.00034846043473 0.00039362235893 0.0004720283485 0.00056886194362 0.0007299014785 
0.00078179770031 0.00081835513437 0.00090336164559 0.00087890905747 0.00088227247005 0.00081370072806 0.00078529804212 0.00070289505791 0.00057160920142 
0.00046993763407 0.00027760420033 9.3976742742e-05 -6.3708873454e-05 -0.00027958541547 -0.00049659513424 -0.0006484592401 -0.0008139710567 -0.00098831135851 
-0.0011559887212 -0.0012627861755 -0.0013082967725 -0.001380186044 -0.0014180553531 -0.001431304096 -0.0014278089909 -0.0014424229264 -0.0015284596873 
-0.0016154606957 -0.0017604659254 -0.0021416488742 -0.0026568517455 -0.0032974416971 -0.0043646057045 -0.005775573784 -0.0074693120696 -0.0094772844083 
-0.011869537485 -0.014267739767 -0.016747638609 -0.019004284693 -0.020810340059 -0.022164039796 -0.022813757423 -0.022929637369 -0.022499626531 
-0.021778949306 -0.020888857208 -0.019818454111 -0.018901827792 -0.018206576316 -0.017641481242 -0.017260052375 -0.017038941221 -0.01725447218 
-0.017647463104 -0.018362118514 -0.019559260556 -0.020998050583 -0.023088578582 -0.025659923256 -0.028930192611 -0.033222102402 -0.03831888371 
-0.044603394033 -0.052327362679 -0.060789535 -0.069555725334 -0.07744200487 -0.082328565237 -0.082532581318 -0.078061337286 -0.069612003774 
-0.059203318328 -0.048281622424 -0.038083894752 -0.028736564599 -0.020320288605 -0.012733330177 -0.0056884782459 0.0008207404483 0.0072296578868 
0.013340944747 0.019216023975 0.025062339125 0.030389209333 0.035061601132 0.038743811695 0.041250756129 0.042243264444 0.041777033539 
0.040178552957 0.037212357334 0.033665743862 0.029727715302 0.025475893113 0.021475678336 0.017525740767 0.013749525992 0.010324466313 
0.0071958337451 0.0042872400889 0.0017485680166 -0.00035924173205 -0.0024058087852 -0.0038689422836 -0.0051068623583 -0.0060452874138 -0.0063962881633 
-0.0063948699344 -0.0061412756534 -0.0054493429897 -0.0042828725003 -0.002746821297 -0.0009129009769 0.0010553826318 0.0035110794547 0.0059786277535 
0.0084382654125 0.01107190438 0.013487730028 0.015996015443 0.017996463978 0.01974861789 0.021088453885 0.022206893256 0.023288370946 
0.023326203866 0.023353739647 0.022968885802 0.022476395256 0.021858866413 0.021007887328 0.020301291537 0.019422081813 0.019004434207 
0.018472719572 0.018318429962 0.018718501344 0.019874947268 0.021477470595 0.024068182772 0.029512694074 0.036935069693 0.0497819877 
0.069805290844 0.10580035703 0.16180792548 0.21929280275 0.22236725831 0.16719916803 0.1097982177 0.071316637441 0.047399739702 
0.031964041087 0.022758847096 0.015860290376 0.01050938848 0.0071944571971 0.0050274983604 0.0028475835808 0.00086084226271 -1.233362008e-06 
-0.0013456038828 -0.0027033512235 -0.0035894181681 -0.0052458760947 -0.0066607622572 -0.0082122977777 -0.0098921419084 -0.012405333324 -0.01431598204 
-0.016786686012 -0.019590168829 -0.021592643024 -0.024685829708 -0.027386158225 -0.029039342305 -0.03149154542 -0.032693692054 -0.032954691333 
-0.033781435335 -0.033249833003 -0.031220800059 -0.029278204796 -0.026763147361 -0.023199573414 -0.019606671593 -0.014455791674 -0.0098673224736 
-0.0055944069087 6.5757701563e-06 0.0052213030949 0.010064671149 0.015368617942 0.02120847405 0.026097349751 0.030776495271 0.03659444771 
0.041737964235 0.045649538485 0.050653435043 0.056166110169 0.059838087038 0.063837098495 0.066882584128 0.069468673612 0.072007646413 
0.072700746795 0.071511931156 0.070216118863 0.069018632 0.065119509684 0.060889790904 0.055137960045 0.051745416941 0.047284785462 
0.040150035478 0.035749316078 0.032178946621 0.027316255734 0.02422807247 0.020449104103 0.016693138507 0.014932268512 0.013015964503 
0.010903442166 0.0083156734817 0.0070601941411 0.0070378554495 0.0053720661937 0.0040564802574 0.0036735291502 0.0033266005911 0.0029745892305 
0.0016145201032 0.0010524731416 0.00019047957651 -0.00014917453132 -0.0010110582324 -0.0020778516163 -0.0031894494661 -0.0050497129974 -0.0070383206652 
-0.0082759805886 -0.010613506312 -0.013884648588 -0.016480414956 -0.02045295843 -0.025458946099 -0.030884803281 -0.036124067334 -0.044422021423 
-0.055178714522 -0.06658575297 -0.081540296596 -0.099547564037 -0.11831505626 -0.13795009424 -0.15557949093 -0.16436679055 -0.1612689993 
-0.14886325304 -0.1269412294 -0.10413050204 -0.083342482655 -0.063529400979 -0.046536660896 -0.033545475357 -0.020723031623 -0.0090840401419 
0.00073982016702 0.012162494035 0.023907267051 0.035323345424 0.048999542781 0.063882782135 0.077881931118 0.093020226757 0.10174547131 
0.10549418746 0.10439614995 0.093062112519 0.076444641063 0.061056988615 0.041990597665 0.024820426951 0.010753592254 -0.0038256550666 
-0.01776381987 -0.030090892082 -0.042666389219 -0.053051984159 -0.062600136583 -0.068929787164 -0.072906281782 -0.076060085684 -0.074985943646 
-0.071202786065 -0.063635124964 -0.057985140905 -0.050033756503 -0.039515343885 -0.032982071247 -0.024117986991 -0.015452482354 -0.0097328635158 
-0.002983404322 0.0017431213494 0.005174539088 0.0095040070618 0.012080424291 0.011096204717 0.010544004897 0.0087252071594 0.0048522504425 
-6.6278530274e-05 -0.007184626007 -0.014309270487 -0.022836658228 -0.031623672219 -0.040261986855 -0.049120191848 -0.054507212959 -0.061427538364 
-0.065161376631 -0.064233180271 -0.06413281623 -0.059874454387 -0.055847659712 -0.051220402714 -0.042918277565 -0.03653880782 -0.030501898824 
-0.022110914185 -0.011664420717 -0.002199800115 0.0062707627482 0.020500184062 0.038295650462 0.054876535632 0.083875983481 0.11802519892 
0.15127623141 0.19412716844 0.22616213954 0.24979227268 0.24735192443 0.22396713589 0.19609445027 0.1602955242 0.13330870188 
0.10514366343 0.084069108166 0.071052340638 0.06173033744 0.048355355085 0.039431615013 0.037329258899 0.038536177936 0.0315655552 
0.029102532764 0.032212915249 0.028704321538 0.028087627176 0.029169649348 0.027409479565 0.025021227094 0.027327366441 0.02185341455 
0.026126830624 0.029308702596 0.010597630878 -0.0094930899098 0 0 
TangentArray 3 384 double
-0.13482475559 0.1789909664 0.97456888891 -0.13482475559 0.1789909664 0.97456888891 -0.13435022252 0.17855735958 0.9747139514 
-0.13331379633 0.17760922085 0.97502943359 -0.13173999872 0.17616899236 0.97550451504 -0.12966437997 0.17426772785 0.97612392021 
-0.12713363937 0.17194676492 0.97686813223 -0.12420304103 0.1692552624 0.97771481565 -0.12093213287 0.16624599553 0.978640735 
-0.11738130717 0.16297207196 0.97962326049 -0.11361254831 0.1594889465 0.98064033407 -0.10968363975 0.15584862825 0.98167240169 
-0.1056468682 0.1520978986 0.98270288922 -0.10155049086 0.14828116886 0.98371753708 -0.097434415424 0.14443516514 0.98470554876 
-0.093332474156 0.14059202507 0.98565862841 -0.089270552312 0.1367762227 0.98657135241 -0.085268769638 0.13300770333 0.98744021985 
-0.081341806855 0.12930184828 0.98826339732 -0.077498255894 0.12566813253 0.98904071746 -0.073742868888 0.12211335852 0.9897728613 
-0.070077298778 0.11864125559 0.99046121815 -0.066500387609 0.11525252886 0.99110774038 -0.063009097754 0.11194667747 0.99171457335 
-0.059598854685 0.10872157693 0.99228402951 -0.056264434961 0.10557374797 0.9928184613 -0.053000724271 0.10249986158 0.99332003987 
-0.049802675551 0.099496673668 0.99379077548 -0.046666404096 0.09656187082 0.99423239327 -0.043588665636 0.093693072107 0.99464648819 
-0.040567018915 0.090888017006 0.99503451465 -0.037600633254 0.088146172863 0.9953976314 -0.034689586782 0.085467465314 0.9957368854 
-0.031835352802 0.082852863846 0.99605316789 -0.029040419037 0.080304064519 0.99634728448 -0.026307878855 0.077823448751 0.99661999094 
-0.023641321487 0.07541435449 0.9968719893 -0.021043969416 0.073079692612 0.99710406171 -0.018518586548 0.070822282511 0.99731703397 
-0.016067116468 0.068645771954 0.99751170708 -0.013689689788 0.066552752539 0.99768899138 -0.011384477847 0.064544530336 0.99784988714 
-0.0091473183949 0.06262258379 0.99799535999 -0.0069714713903 0.0607875486 0.99812638104 -0.0048475033022 0.059038639986 0.99824392846 
-0.0027633819754 0.057374038814 0.99834892868 -0.0007049427813 0.055791824002 0.9984421743 0.0013437575437 0.054288658157 0.99852437923 
0.0033997261524 0.052861416143 0.99859607076 0.0054801693805 0.051506857796 0.99865760466 0.007601680325 0.050221763526 0.99870916133 
0.009779380514 0.049003742124 0.99875071813 0.012025939431 0.047850676315 0.99878210314 0.014350939435 0.046761445439 0.99880299247 
0.016760260714 0.045735534135 0.99881297277 0.019255575984 0.044773625972 0.99881156642 0.021834326276 0.043877349243 0.99879829817 
0.024489895408 0.043048486711 0.99877278338 0.02721172797 0.042289936971 0.99873474111 0.029986010899 0.041605439421 0.99868404741 
0.032796203306 0.040998730735 0.99862080547 0.035623672655 0.040473444241 0.99854536915 0.038448560169 0.040032674828 0.99845835825 
0.041250583601 0.039680150628 0.99836059367 0.044009537923 0.039418669538 0.99825313877 0.046705671916 0.039250818177 0.99813724181 
0.049320134933 0.039179306683 0.99801428157 0.05183535894 0.03920572785 0.99788576825 0.054235121729 0.039332083895 0.99775324542 
0.056504749081 0.039559560716 0.99761829097 0.058630800918 0.039889068949 0.99748247672 0.060601112045 0.040321789719 0.99734731087 
0.06240531328 0.040857735932 0.99721423089 0.064034599943 0.04149685249 0.99708454067 0.065481355684 0.042239358281 0.99695939169 
0.066739792444 0.04308413129 0.99683978539 0.067806229613 0.044029742366 0.99672649057 0.068678668081 0.045074505689 0.99662005272 
0.06935793859 0.046216057083 0.99652072353 0.069847290203 0.047450624397 0.99642851941 0.070152826974 0.048774210855 0.99634314231 
0.070283750117 0.050182239464 0.99626398977 0.070252289399 0.051668822487 0.99619021709 0.070074036645 0.053228123819 0.99612067352 
0.069767031441 0.054853214077 0.99605405789 0.069352230579 0.056537010667 0.9959888727 0.068852887008 0.05827226038 0.9959235029 
0.068293746161 0.060052178748 0.99585626476 0.067700756745 0.061870331257 0.99578545362 0.067100021432 0.063720061152 0.99570946612 
0.066517714644 0.065595816758 0.99562672848 0.065978689917 0.067492316865 0.99553583544 0.065505627493 0.069405492036 0.99543552802 
0.065119623148 0.071332725832 0.99532460881 0.06483879569 0.073271475473 0.99520210081 0.064678131819 0.075220152654 0.99506716753 
0.064649154154 0.077178371043 0.99491908511 0.064760264747 0.079146666593 0.99475721323 0.065016292932 0.081126078618 0.99458103794 
0.065418714822 0.083117354228 0.99439021374 0.065966569836 0.085121825756 0.99418443281 0.066655437384 0.087142153386 0.99396342879 
0.067478868613 0.089180481118 0.99372704707 0.068428216219 0.091238119451 0.99347530658 0.069493001038 0.093317634762 0.9932082067 
0.0706624868 0.095421382531 0.99292576395 0.071924260646 0.097550816555 0.99262819773 0.073265322037 0.099707656183 0.9923157642 
0.074672862614 0.10189333039 0.99198876647 0.076134195107 0.10410895371 0.99164757353 0.077637332466 0.10635626973 0.99129248383 
0.079170625526 0.10863576453 0.99092395405 0.080722980474 0.11094611561 0.99054265928 0.082284704277 0.11328790689 0.99014901787 
0.083847524867 0.1156597819 0.98974360691 0.08540378547 0.11805945634 0.98932712396 0.086946896391 0.12048403114 0.98890031623 
0.088472200805 0.12292889069 0.98846403957 0.089976394843 0.12538869062 0.98801919244 0.091457209754 0.12785754169 0.98756672069 
0.092913820936 0.13032839558 0.98710765937 0.094346498692 0.13279217274 0.98664328764 0.09575693502 0.13523930224 0.98617490362 
0.097148000112 0.13766010008 0.98570379066 0.098523188567 0.14004525284 0.98523119544 0.099886284608 0.14238274801 0.98475879444 
0.10124195574 0.14466298734 0.98428790833 0.10259470379 0.14687698655 0.98381984 0.10394867697 0.14901524644 0.98335605397 
0.10530775872 0.1510705389 0.98289774047 0.10667501905 0.15303502885 0.98244629383 0.10805241957 0.15490392022 0.98200277501 
0.10944151871 0.15667394371 0.98156804621 0.11084222895 0.15834305351 0.98114294457 0.11225311597 0.15990895026 0.98072848719 
0.11367307664 0.16137093233 0.98032538162 0.11509856957 0.16273068417 0.97993420377 0.11652507746 0.16398927014 0.97955572869 
0.11794869158 0.16515023691 0.97919022943 0.11936373209 0.16621590562 0.97883837899 0.12076345911 0.16718880164 0.97850094101 
0.12214195697 0.16807287459 0.97817833301 0.12349226382 0.16887115596 0.97787125608 0.12480688524 0.1695871843 0.97758039481 
0.12607942405 0.17022393414 0.9773063957 0.12730255074 0.17078469544 0.9770499723 0.12846849907 0.17127185307 0.97681205822 
0.12957043378 0.17168763678 0.97659349684 0.13060207925 0.17203344785 0.97639520161 0.13155716772 0.17231131537 0.9762179686 
0.1324291543 0.17252259114 0.97606274114 0.1332129306 0.17266708067 0.97593052743 0.13390384996 0.17274554049 0.97582208276 
0.13449775465 0.17275764034 0.97573825983 0.1349909599 0.17270392585 0.97567965785 0.13538075093 0.17258274358 0.97564709239 
0.13566569777 0.1723919539 0.97564124179 0.13584408553 0.17213045923 0.97566258995 0.13591557047 0.17179647449 0.97571149889 
0.13588044812 0.1713882777 0.9757881748 0.13573965464 0.17090282697 0.97589290903 0.13549482343 0.17033798362 0.97602567802 
0.13514753191 0.16969055205 0.97618659137 0.13470008173 0.16895700115 0.97637565504 0.13415458112 0.16813609535 0.97659244406 
0.13351356779 0.16722517983 0.97683666314 0.13278011877 0.16622054565 0.97710806478 0.13195785409 0.16512148664 0.97740575985 
0.1310492928 0.16392723999 0.97772897208 0.13005857826 0.16263722866 0.97807663201 0.12899192995 0.16125236708 0.97844711463 
0.12785342353 0.15977424154 0.97883895194 0.1266494771 0.15820501236 0.97925026628 0.12538852635 0.15654805177 0.97967873558 
0.1240783408 0.15480798172 0.98012195881 0.12273010089 0.1529895528 0.98057713571 0.12135608138 0.15109982004 0.9810410521 
0.11996828847 0.14914497329 0.98151076749 0.11858005744 0.14713237177 0.98198311348 0.11720663998 0.14506806358 0.98245501702 
0.11586220479 0.14296054915 0.98292330875 0.11456208102 0.14081861102 0.98338479162 0.11332025038 0.13864814033 0.9838369855 
0.11214656688 0.13645526565 0.98427796278 0.11105342498 0.13424518189 0.98470572657 0.11005037192 0.13202288902 0.98511870981 
0.10914305515 0.12979488419 0.98551564247 0.10833689765 0.12756323727 0.98589590582 0.1076324865 0.12532800734 0.98625967089 
0.10702897683 0.12309437753 0.98660659451 0.10652578407 0.12086300095 0.98693687353 0.10611767978 0.11862928299 0.98725180742 
0.10579719538 0.11639375724 0.98755225012 0.10555686148 0.11415352032 0.98783942156 0.10538847175 0.11190233486 0.98811494143 
0.10528183729 0.10963829936 0.98838007773 0.10522696032 0.10735522282 0.98863650699 0.10521021246 0.10504640671 0.98888627437 
0.10521945822 0.1027029004 0.98913142699 0.10524373056 0.10031845643 0.98937352121 0.10526802062 0.097890065652 0.98961415657 
0.10527803125 0.095409003754 0.98985537233 0.10525982513 0.092869203684 0.99009882346 0.10519768337 0.09027108193 0.99034568671 
0.10507374803 0.08761497401 0.99059735705 0.10487206053 0.084900473889 0.99085506531 0.10457742637 0.082136151581 0.9911191727 
0.10417166309 0.079330954176 0.99139036929 0.10363811452 0.076494501843 0.9916691648 0.10296653253 0.073647902476 0.99195457539 
0.10214504101 0.070811337061 0.99224601039 0.10116212913 0.068007757443 0.99254277921 0.10001514847 0.065262633344 0.99284326999 
0.098702483362 0.06260001659 0.99314604047 0.097226763808 0.060041395909 0.99344953932 0.095595314456 0.057609599839 0.99375181502 
0.093817227449 0.055324694702 0.99405105804 0.091905689156 0.053200581041 0.99434553475 0.089874987764 0.051241961916 0.99463397685 
0.087739902151 0.049454108488 0.99491507212 0.085515395061 0.047840609691 0.99518761712 0.083215469032 0.04639539135 0.9954509799 
0.080853461544 0.045110911057 0.99570463666 0.078441582035 0.043974553774 0.99594837056 0.075988551455 0.042979897813 0.99618194545 
0.073500347749 0.042115627709 0.99640552627 0.070982577462 0.041363149976 0.9966195681 0.068441370571 0.040712240703 0.99682410296 
0.065877134016 0.040153267233 0.99701951753 0.063292705848 0.039673482546 0.99720612121 0.060687745964 0.039264597114 0.99738422331 
0.058060471248 0.03891591884 0.99755427569 0.055410762996 0.038616872642 0.99771658525 0.052735232541 0.038362612522 0.99787138711 
0.050032150571 0.03814783898 0.99801880057 0.047297895178 0.037966329825 0.99815903889 0.044529961922 0.037810183651 0.99829227809 
0.041723388326 0.037675579287 0.99841860439 0.038873661276 0.037562923482 0.9985378637 0.035974903221 0.0374669135 0.99865010726 
0.033022243863 0.037383253554 0.99875523716 0.03001025679 0.037310910056 0.99885298241 0.026932507351 0.037248874987 0.99894302208 
0.023784077605 0.03719622428 0.99902490387 0.020558790317 0.037148123851 0.99909826996 0.017250430724 0.037102436434 0.99916256528 
0.013856156102 0.037056003377 0.99921712333 0.010373307412 0.037007248299 0.99926115609 0.0068021030366 0.036952859691 0.99929385946 
0.0031467047745 0.036888137498 0.99931444679 -0.00058637102443 0.036808463773 0.99932216685 -0.0043863128289 0.036705818796 0.99931648797 
-0.0082377034624 0.036571919148 0.99929707043 -0.012118386531 0.03640187935 0.99926375291 -0.016004574242 0.036187253485 0.99921686149 
-0.019865859446 0.035916785249 0.99915731102 -0.023665060803 0.035584350787 0.99908644214 -0.027365757261 0.035180828896 0.9990062185 
-0.030929091587 0.03469683257 0.99891917646 -0.03431588546 0.03412660555 0.99882821085 -0.037490068184 0.033470324796 0.99873631763 
-0.04041724432 0.03272475744 0.9986468528 -0.043069960361 0.031887146099 0.99856306182 -0.04542710117 0.03096206233 0.99848772109 
-0.047474975533 0.029953440847 0.99842321592 -0.04920738413 0.028867271293 0.99837133072 -0.050625837211 0.0277151426 0.99833305839 
-0.05174134106 0.026507286527 0.99830866839 -0.052569675229 0.025252022138 0.9982979338 -0.05313139418 0.023961778823 0.99829999905 
-0.05345256772 0.022647814354 0.99831352766 -0.053559428916 0.021318663472 0.99833706841 -0.053482919608 0.019986322976 0.99836873158 
-0.053253397302 0.018659145238 0.99840668666 -0.052899065221 0.017345695847 0.99844920539 -0.052450183017 0.016053179345 0.99849450361 
-0.05193562852 0.014789336711 0.99854091855 -0.05138015589 0.013560376065 0.99858709975 -0.050806504027 0.012366840239 0.99863194442 
-0.050238491509 0.011215625656 0.99867427308 -0.049694144128 0.01010978238 0.99871331439 -0.049189711131 0.0090472575341 0.99874847657 
-0.048741383452 0.0080311381511 0.99877914393 -0.048360851991 0.0070631569905 0.99880495584 -0.048057901916 0.0061421067227 0.99882566676 
-0.047839207666 0.0052637327963 0.99884118023 -0.047709535499 0.0044277147237 0.99885143819 -0.047672061089 0.0036324883157 0.99885643594 
-0.047725178189 0.0028702006327 0.99885638073 -0.047866236829 0.0021384085499 0.99885146572 -0.048091325422 0.0014349642587 0.99884191206 
-0.048393002426 0.00075127785386 0.99882808976 -0.048761873196 8.0545439051e-05 0.99881042908 -0.04918671425 -0.00057891471053 0.99878943326 
-0.049655414652 -0.0012354360329 0.99876564493 -0.050155501075 -0.0018957582709 0.99873962163 -0.050674038958 -0.0025633244724 0.99871195604 
-0.051197610812 -0.0032433183777 0.99868327589 -0.051711853662 -0.0039394140836 0.99865427712 -0.052204587496 -0.0046555570842 0.99862555887 
-0.052665937512 -0.0053992552748 0.99859759016 -0.053083871756 -0.0061713201674 0.99857098765 -0.053448675852 -0.0069728079722 0.99854625281 
-0.053754828612 -0.0078084589829 0.99852363336 -0.053996691412 -0.0086780708526 0.9985034043 -0.054169559458 -0.0095849105595 0.99848574768 
-0.054271261482 -0.010532309362 0.99847068091 -0.054300814536 -0.01152015323 0.99845816518 -0.0542611112 -0.012548321941 0.99844793126 
-0.054153289575 -0.013616555269 0.99843978819 -0.053980932564 -0.014727651857 0.9984333504 -0.053751259195 -0.01588611373 0.99842798114 
-0.053469051059 -0.017088792543 0.99842327384 -0.053142923546 -0.01833582478 0.99841856313 -0.052781947549 -0.0196304248 0.99841309709 
-0.052393873326 -0.020969516952 0.99840631078 -0.05198841528 -0.022351902109 0.99839751459 -0.051573983133 -0.023773626985 0.99838616723 
-0.0511573128 -0.025230433298 0.99837185186 -0.050745446451 -0.026723183659 0.99835403095 -0.050344391687 -0.028247296148 0.99833237576 
-0.049954732855 -0.029796470683 0.99830691423 -0.049577455871 -0.031364294964 0.99827769527 -0.049211185205 -0.032945111381 0.99824489925 
-0.04885054184 -0.034535192064 0.99820886846 -0.048488988637 -0.036128316266 0.99817010712 -0.048117024783 -0.037715479941 0.99812939767 
-0.047724323384 -0.039292362631 0.99808742062 -0.047298124569 -0.040855826332 0.99804493329 -0.046825782545 -0.042401722253 0.99800272547 
-0.046295089538 -0.043925278853 0.99796158972 -0.045693442052 -0.045422463152 0.99792229617 -0.045012375526 -0.046891567999 0.99788529747 
-0.04424259109 -0.048326290402 0.99785127288 -0.043376343245 -0.049726194689 0.99782052415 -0.042412797541 -0.051090978861 0.99779299781 
-0.041351990985 -0.052416321314 0.99776878188 -0.04019714634 -0.053704331998 0.99774748015 -0.038953741264 -0.054954095203 0.99772874744 
-0.037631469809 -0.05616297911 0.99771217907 -0.036245439281 -0.05733340763 0.99769692217 -0.034809631051 -0.058466465442 0.99768229512 
-0.033341182391 -0.059561156503 0.99766769728 -0.031860754199 -0.060620019052 0.99765229696 -0.030388074969 -0.061650435348 0.99763509798 
-0.028945276467 -0.06265554174 0.99761538383 -0.027553927114 -0.063635466155 0.99759275686 -0.026233992725 -0.06459868864 0.9975664324 
-0.025006820752 -0.065553927663 0.99753563419 -0.023890078704 -0.066504086128 0.99750011061 -0.022900944456 -0.067463216813 0.99745890197 
-0.022058519586 -0.068441070036 0.99741127006 -0.021374388176 -0.06944199671 0.99735697953 -0.020858721058 -0.07048190784 0.99729494856 
-0.020520129952 -0.071568571077 0.99722458047 -0.020366654844 -0.072712695455 0.99714495601 -0.020403216502 -0.073927763721 0.99705486033 
-0.020629473879 -0.075218425063 0.9969536666 -0.021049244118 -0.076600065115 0.99683968588 -0.021661045522 -0.078080743159 0.99671169184 
-0.022462883383 -0.079662431195 0.9965687713 -0.023450686418 -0.081353659645 0.9964093774 -0.024620048617 -0.083161707743 0.99623189247 
-0.025965993225 -0.085082178551 0.99603553656 -0.027480186185 -0.087106030513 0.99581995301 -0.029153937719 -0.089236041462 0.99558373672 
-0.030979352601 -0.091473282536 0.99532553383 -0.032945983106 -0.093802673625 0.99504553696 -0.035037307154 -0.096198066161 0.99474535393 
-0.037243052082 -0.098657347727 0.99442429717 -0.039544041434 -0.10116396945 0.99408355789 -0.041918320621 -0.1036864987 0.99372630255 
-0.04434270446 -0.10620746945 0.99335476945 -0.046790054213 -0.10870149068 0.99297264653 -0.049223219384 -0.11113129951 0.99258597056 
-0.05161055014 -0.11347184817 0.99219982402 -0.053919949405 -0.11569938509 0.99181968691 -0.056091050651 -0.11775772686 0.99145696417 
-0.058084739798 -0.11962280923 0.99111883572 -0.059859569745 -0.12125704027 0.99081459522 -0.061353477088 -0.12261020393 0.990556656 
-0.062535663696 -0.12367447061 0.99035040066 -0.063374474552 -0.12443526091 0.99020176824 -0.063374474552 -0.12443526091 0.99020176824 

NormalArray 3 384 double
-0.72121290567 0.65671961104 -0.2203889679 -0.72121290567 0.65671961104 -0.2203889679 -0.71987509792 0.65837228121 -0.21983125966 
-0.71995641775 0.65874821391 -0.21843430867 -0.72020795484 0.65917572932 -0.21630501532 -0.72017755267 0.66011741949 -0.21351647504 
-0.72038343178 0.66098849074 -0.21009980087 -0.72041637047 0.66219455314 -0.2061519511 -0.72052468761 0.66343527045 -0.20173699827 
-0.72037479841 0.6650333817 -0.19695367741 -0.72039434316 0.66649974973 -0.19185951618 -0.72019030183 0.6682241647 -0.18655399982 
-0.72002327658 0.66990468808 -0.18109166206 -0.71980960702 0.6716092868 -0.17554228981 -0.71956594018 0.67330444853 -0.1699587518 
-0.71940098136 0.67486368255 -0.16438137973 -0.71911875955 0.67648563898 -0.15885650731 -0.71903385254 0.67783500049 -0.15339501627 
-0.7189161857 0.67915122867 -0.14803082968 -0.71896221056 0.68022878915 -0.14276601206 -0.7191659354 0.6810756789 -0.13760914566 
-0.71953253013 0.68168891089 -0.13256382178 -0.72001460595 0.68212092043 -0.12763235145 -0.72080926348 0.68216845301 -0.12280149592 
-0.72172090271 0.682038656 -0.11807713712 -0.72282219067 0.68165782044 -0.11344909212 -0.72407379213 0.68106901513 -0.10891345271 
-0.72554334902 0.68020207331 -0.10446046219 -0.7271466676 0.67914627904 -0.10009023661 -0.72882893301 0.6779604781 -0.095801756462 
-0.73050345245 0.67673833464 -0.091596574087 -0.73231930384 0.67532087321 -0.087465166935 -0.73403726265 0.67396601691 -0.083421250849 
-0.73584745044 0.67246958193 -0.079455591786 -0.73750889722 0.67109425251 -0.075585255005 -0.73931368347 0.66952256689 -0.071797004519 
-0.74111705415 0.66791266443 -0.068104219708 -0.74306837764 0.66609972514 -0.064502265957 -0.74513782196 0.66411522192 -0.060996707206 
-0.74787863426 0.66133554158 -0.057557361468 -0.75098224996 0.65809390898 -0.054203940885 -0.75502354434 0.65371916062 -0.050898983567 
-0.76027279721 0.64785613883 -0.047620344328 -0.76709589106 0.63999868672 -0.044334804862 -0.77556472927 0.62993376188 -0.041022022775 
-0.78606536328 0.61699670349 -0.03763392797 -0.79869481009 0.60076739453 -0.034134117889 -0.81300351209 0.58145839982 -0.030519151392 
-0.82919315143 0.55832258228 -0.026732222871 -0.84617618952 0.53241456244 -0.022816440996 -0.86380805868 0.50347227847 -0.018743067263 
-0.88109715385 0.47271093786 -0.014566217872 -0.89764149703 0.44060598628 -0.01030085754 -0.91292768454 0.40807742599 -0.0059880881674 
-0.92671399165 0.37576380367 -0.0016557555891 -0.93898584746 0.34394530555 0.0026842248909 -0.94973214475 0.31298511441 0.0070122309618 
-0.95899442953 0.28319923651 0.011308252382 -0.96709184094 0.25394905172 0.015596484297 -0.97408954548 0.22528883701 0.019861956059 
-0.98014037195 0.19683405861 0.024108186217 -0.98530598526 0.16843351048 0.028324335041 -0.98965156288 0.13976107588 0.032505780225 
-0.9932923711 0.10965690045 0.036682825724 -0.99606096479 0.078724635723 0.040804241751 -0.99797079666 0.045123995424 0.044923424348 
-0.99875768127 0.0090524804021 0.049001496875 -0.99812110608 -0.030655241775 0.05305199107 -0.99553494214 -0.075181467835 0.057078243377 
-0.99027642607 -0.12500403174 0.061045818938 -0.9811355017 -0.18208360718 0.064951422553 -0.9664009577 -0.24767883365 0.068734156917 
-0.94384149623 -0.32239669964 0.072274463445 -0.90981856229 -0.40809660977 0.075414460266 -0.85998365882 -0.50434811752 0.077852957028 
-0.7899565019 -0.60803052805 0.079168188541 -0.69554801882 -0.71413824097 0.078863973394 -0.57653436284 -0.8134817653 0.07652153937 
-0.43924194599 -0.89547081046 0.07210090499 -0.29441112836 -0.95339444064 0.066038837453 -0.15554662382 -0.98605169422 0.059222496879 
-0.031626061085 -0.99811964397 0.052506843265 0.071291788675 -0.99636400632 0.046650271011 0.15340885329 -0.98727138896 0.041963415918 
0.21595208524 -0.97564056112 0.038603009883 0.26110009168 -0.96461856503 0.036575485266 0.29109924326 -0.95602232816 0.035812548482 
0.30770055015 -0.95079309963 0.036233315171 0.31199276764 -0.94933331477 0.037772614626 0.30532732588 -0.95139395655 0.040308355345 
0.28707364514 -0.95690363366 0.043865227148 0.25897718461 -0.96467820329 0.048236728303 0.22018509707 -0.97399420805 0.053421023065 
0.17155648976 -0.98339077649 0.059253282961 0.1141294621 -0.99130108977 0.065548572051 0.049416430957 -0.99617307566 0.072091744886 
-0.020120889963 -0.99670126261 0.078624060542 -0.092165218892 -0.99211459095 0.084936510743 -0.16305387605 -0.98243060793 0.090793910059 
-0.23082790996 -0.96823552402 0.096116835143 -0.29318469567 -0.95072140713 0.10085405419 -0.34808720284 -0.93156177036 0.1050141287 
-0.39604955376 -0.91177020926 0.10871907135 -0.43612846891 -0.89288248035 0.11203943453 -0.46903430411 -0.87564899849 0.11508976067 
-0.49575765834 -0.86041151564 0.1179676564 -0.51626479523 -0.84787628933 0.12073300792 -0.5317435386 -0.83786000905 0.12344802303 
-0.54256747327 -0.83048633537 0.12614667542 -0.54957702143 -0.82544635868 0.1288542062 -0.55286334148 -0.82281755539 0.13158037919 
-0.55348422721 -0.8219549628 0.1343326072 -0.55161736552 -0.82275162704 0.13710595267 -0.54734659629 -0.82513117065 0.13989372665 
-0.54200515732 -0.82817172477 0.14269549304 -0.53486387812 -0.83231712148 0.14549515856 -0.5273142038 -0.83662917616 0.1482948147 
-0.51936609915 -0.84108958744 0.15108660082 -0.51180139609 -0.84521137617 0.1538735213 -0.50443496853 -0.84912109851 0.15664840434 
-0.49845811189 -0.85212851265 0.15942555824 -0.49380924376 -0.85430862064 0.16220114514 -0.49144309872 -0.85513887287 0.16498845058 
-0.49112720004 -0.85477725798 0.16777935698 -0.49345825062 -0.85287872811 0.1705779295 -0.49905532756 -0.84904815184 0.17338112896 
-0.50731492046 -0.84356303908 0.17616177391 -0.51893008214 -0.83588517783 0.17890651004 -0.53355815101 -0.82604191678 0.18157767267 
-0.55105103311 -0.81390220035 0.1841357303 -0.571717781 -0.79896471858 0.18653192046 -0.59383755422 -0.78213956255 0.18871847787 
-0.61852286693 -0.76229063189 0.19063697335 -0.64337248508 -0.7410147807 0.19227308763 -0.67023937052 -0.71646577612 0.19353546922 
-0.6967018733 -0.69050415297 0.19444925935 -0.72275222948 -0.66302788915 0.19499546914 -0.74811349559 -0.63422008465 0.19516936731 
-0.77198806536 -0.60497880725 0.1950258181 -0.79499852666 -0.57457938146 0.19451446477 -0.81599779639 -0.544613621 0.1937617096 
-0.83578938792 -0.51412327753 0.19270016749 -0.85382634842 -0.48408381421 0.19142473081 -0.87037187477 -0.45429066016 0.18992839626 
-0.88603501143 -0.42374093896 0.18811053977 -0.89998797845 -0.39416483404 0.18616047447 -0.91369365158 -0.36250252612 0.18372759623 
-0.92629455348 -0.33048240595 0.18099662853 -0.9394534502 -0.29322843695 0.17732540336 -0.95133201528 -0.25489414222 0.17319461007 
-0.96408344448 -0.2063101812 0.16726990529 -0.97615357628 -0.14743949014 0.15932919463 -0.98659468119 -0.069446231954 0.14767584745 
-0.99079655755 0.038599057068 0.12973933226 -0.97634581519 0.1910327499 0.10126864091 -0.90633910623 0.41939148533 0.051577190175 
-0.71639560547 0.69729529735 -0.023592472384 -0.38328703122 0.91723939256 -0.10845712719 -0.047785245814 0.98484102286 -0.16674750365 
0.1916081346 0.96178120752 -0.1956098965 0.33796741205 0.91793940056 -0.2077625695 0.43058453794 0.87709351393 -0.21284718346 
0.48804078673 0.84602013234 -0.21463020795 0.52636512655 0.82263462566 -0.21496982629 0.55306843447 0.80503002405 -0.21457392008 
0.57029735677 0.79314666052 -0.21372716199 0.58137907608 0.78536422436 -0.21260622051 0.58920354731 0.77986715358 -0.21129695362 
0.59442197345 0.77629560949 -0.20982765346 0.59678883443 0.77491344922 -0.20821199126 0.59709465646 0.77514543877 -0.20646433099 
0.5972734869 0.77550237062 -0.20459827714 0.59469774669 0.77800094467 -0.20260582463 0.59167459168 0.78084538699 -0.20050351412 
0.58724326427 0.7847459045 -0.19829073083 0.5806183271 0.79024073978 -0.19596410752 0.57306915492 0.79632547225 -0.1935393653 
0.56312774872 0.80399373658 -0.19100055015 0.55185593821 0.81238844977 -0.18836143486 0.5364198184 0.82329856783 -0.18556197521 
0.52073361997 0.83394640956 -0.18267425382 0.49969557471 0.84738627942 -0.17955730583 0.47746129242 0.86078362164 -0.17630164766 
0.45154071813 0.87535719796 -0.17280265003 0.42172406575 0.89083376688 -0.16900891147 0.38908514342 0.90631755831 -0.16492796811 
0.35466852192 0.92109786348 -0.16058943131 0.31576786496 0.93595771778 -0.15580053268 0.27777494877 0.94872471753 -0.15087242353 
0.23762753839 0.96038199471 -0.14560074596 0.19738872612 0.97025894934 -0.14012587922 0.15834354063 0.97817246985 -0.1345583233 
0.12269311775 0.98400931121 -0.12912038692 0.088774265131 0.98834105407 -0.1236975775 0.059186250377 0.99118111609 -0.11856214771 
0.034202005884 0.99291654466 -0.11378470076 0.013535027887 0.99390912948 -0.10936839287 0.0008893222981 0.99439488259 -0.10572618688 
-0.0087149403506 0.99470975355 -0.10235504876 -0.01153324516 0.99495495203 -0.099657552125 -0.008380366753 0.99519527325 -0.097550692231 
0.00031174366941 0.99538369431 -0.095975017202 0.013905031581 0.99539500595 -0.094844252433 0.033627942555 0.99497898512 -0.09426547961 
0.059069492068 0.9938027608 -0.094164046896 0.088314605919 0.99161765952 -0.094313030411 0.12259721264 0.98791782365 -0.094806630403 
0.16221187281 0.98211080401 -0.095633032847 0.20561784435 0.97385214507 -0.096609014183 0.25131170587 0.96297456581 -0.097582847289 
0.30214319003 0.948132173 -0.09876677194 0.35607954729 0.92909461227 -0.099952776097 0.41084658832 0.90609858138 -0.10094771758 
0.46864586923 0.87749093288 -0.10188577907 0.52498195999 0.84492555705 -0.1024438614 0.58291085954 0.80600693123 -0.10279959458 
0.63828846114 0.76291562035 -0.10270149273 0.69183809386 0.71478495431 -0.10218865388 0.73943497556 0.66559266162 -0.10110551775 
0.78531080926 0.61103292698 -0.099627782312 0.82483961581 0.55687035263 -0.097647419567 0.85973632469 0.50177643817 -0.095256800825 
0.8886428413 0.44917239404 -0.092509788868 0.91232048031 0.39957665941 -0.089497678523 0.9331599389 0.34896372514 -0.086237155443 
0.94873981807 0.30499894344 -0.082875823475 0.96070874117 0.26594068976 -0.079462344318 0.97046764128 0.22895239607 -0.075982613479 
0.97791151253 0.19603931029 -0.072509740591 0.98332198727 0.16823325069 -0.069104578045 0.98777411091 0.14138559748 -0.065669008297 
0.99065017401 0.12132401035 -0.062391644046 0.9929542458 0.10269641481 -0.059121164891 0.99469910893 0.086315947957 -0.055885953645 
0.99601480553 0.071965714909 -0.052682473713 0.99694294591 0.06042104701 -0.049538466744 0.99755716201 0.052153775883 -0.04647248837 
0.99810669734 0.0436259864 -0.043356591557 0.99856535087 0.035366458971 -0.040205144204 0.99883453279 0.030827522447 -0.037138120246 
0.99908831211 0.025818023993 -0.033999621085 0.99927714291 0.02221049081 -0.030852645816 0.99945442474 0.018108138637 -0.027621516767 
0.99958526137 0.015345005849 -0.024368751584 0.99967233398 0.01447884318 -0.021108950334 0.99975606484 0.013144999047 -0.017748797688 
0.99979558671 0.014201699824 -0.014390848215 0.99984554166 0.013794750107 -0.01089025711 0.99983394606 0.016643482832 -0.0074212382437 
0.99981681251 0.018750797845 -0.0038404431748 0.99971415972 0.023906326452 -0.00029395098492 0.99954202703 0.030082593659 0.0032823413042 
0.99920001535 0.039410188659 0.0067945833063 0.99878595252 0.048159408102 0.010358207471 0.99796948296 0.062195978296 0.013732129208 
0.99683315617 0.077677068023 0.017027385591 0.99509206765 0.096886409689 0.020119654765 0.99247854698 0.12024776408 0.022952320582 
0.98843592542 0.14949467119 0.025411899468 0.98266814959 0.18332270342 0.02749716696 0.97445526484 0.2226863418 0.029115803261 
0.96169299999 0.27248305693 0.029992623431 0.94289458427 0.33173069645 0.030075704113 0.91541233279 0.40145696406 0.029198749763 
0.87398435664 0.4852033243 0.027001452334 0.81412216949 0.58022400864 0.023349366851 0.73016904859 0.68302767481 0.018065323824 
0.61758100438 0.78642856536 0.011127201853 0.47496992916 0.8799977233 0.0027519769762 0.31686113845 0.94845357952 -0.0059013932232 
0.1550679436 0.98780308612 -0.014106591532 0.0051060647205 0.99976485397 -0.02107521921 -0.1186680873 0.99258752467 -0.026227675 
-0.22045152214 0.97493711738 -0.029979051788 -0.29920820022 0.95363694456 -0.032419606638 -0.35593080782 0.93390406017 -0.033711517949 
-0.3976742513 0.91688668627 -0.034263601502 -0.42558751968 0.90427162671 -0.034177305552 -0.44041017851 0.89717083322 -0.033516722609 
-0.44411951129 0.89538164321 -0.032397109346 -0.43860345917 0.89814877013 -0.030915891158 -0.41819932192 0.90789793911 -0.028821160668 
-0.38777312663 0.92137864285 -0.026332465978 -0.34196952673 0.93942458873 -0.023200967199 -0.28020664227 0.95974398025 -0.019383756273 
-0.19990437862 0.97970457431 -0.014737247995 -0.10274032089 0.99466458144 -0.0093164845573 0.011683700588 0.99992700353 -0.0030787578255 
0.12911530689 0.99162403017 0.0033196875682 0.24990316694 0.96822019229 0.0099028475958 0.35876271509 0.93329280884 0.01593258399 
0.4466485376 0.89446378267 0.020967244661 0.51539736293 0.85658386623 0.025092596356 0.56630763809 0.82370566875 0.028366006245 
0.59469061341 0.80337361797 0.030559847417 0.61194819164 0.79024082039 0.032231297385 0.61425381463 0.78841020223 0.033190423623 
0.60523999883 0.79533318193 0.033610616542 0.58238466538 0.81222851419 0.033360789417 0.55046121649 0.83422145126 0.032665262807 
0.50304664131 0.86369589895 0.031200493494 0.4479589289 0.89357272036 0.02933583896 0.37986957 0.92465204885 0.026789892422 
0.30767636439 0.9511882918 0.024001840514 0.22814478872 0.97340506509 0.020797467277 0.14691803934 0.98899448231 0.017464354564 
0.067545220889 0.99761523376 0.014194664783 -0.0065926785462 0.99991578609 0.011178430551 -0.069390822559 0.99755103701 0.0087659738194 
-0.13025389077 0.99145964893 0.0064566622022 -0.17528289741 0.98450518009 0.0050454196842 -0.21279797256 0.97708765806 0.0040903968619 
-0.24351020999 0.96989180152 0.0035596324994 -0.26215061309 0.96501961179 0.0037689408645 -0.2748012602 0.96149108697 0.0043768784576 
-0.28179838913 0.95945865027 0.0053634229573 -0.2810945955 0.95965563665 0.0068474392062 -0.27861370439 0.96036584897 0.0084758395591 
-0.27139559586 0.96241153112 0.010415147955 -0.26058734187 0.96536812035 0.012594819259 -0.24836202412 0.9685529852 0.014880182539 
-0.23946249729 0.97075691987 0.016991613281 -0.22837993001 0.97338195324 0.019240080073 -0.2229672637 0.97459597256 0.021172850044 
-0.21930406493 0.97538511332 0.023013209511 -0.22321157133 0.97446390875 0.024427135981 -0.23302755135 0.97213575541 0.025499673869 
-0.2501370443 0.96785746173 0.026141783405 -0.27572180563 0.96087850064 0.026267715976 -0.30846421175 0.95088255481 0.025926762745 
-0.34915595417 0.93673020169 0.025032956594 -0.3961115275 0.91789797079 0.023642609969 -0.44453167848 0.89549223649 0.022028191328 
-0.50024957351 0.86565613104 0.019744036801 -0.55121519912 0.83417727279 0.01760914049 -0.60132903213 0.79885415126 0.015344058431 
-0.64750169457 0.76194980935 0.013192557268 -0.68679332994 0.72676257702 0.011448955731 -0.7230879864 0.69068625405 0.0098113398578 
-0.75249104379 0.65854516995 0.0086883921129 -0.77527125931 0.63157611771 0.008129085567 -0.79455149103 0.6071459317 0.0078578445448 
-0.80887260766 0.58792858064 0.0080677535042 -0.81785361005 0.57535840943 0.0088415622627 -0.82081487145 0.57110162179 0.010290014638 
-0.82011698585 0.57206722087 0.01213360273 -0.81472301511 0.57966966831 0.01447357239 -0.80004319643 0.59967847897 0.017793417437 
-0.7766865883 0.6295064858 0.021898125331 -0.74427645051 0.6673390868 0.026666616717 -0.68727117849 0.7256372957 0.033299283867 
-0.61210292685 0.78973243384 0.0406532888 -0.50896625316 0.85939475719 0.048928564836 -0.37172981407 0.92654565338 0.057706997246 
-0.21727081421 0.97391630472 0.065424954632 -0.047638898126 0.9962895666 0.071677296682 0.10498089164 0.99159110721 0.075670922377 
0.23524025554 0.96880539154 0.077962397909 0.33963565003 0.93721743927 0.07919025667 0.41847117644 0.90470276789 0.07996734493 
0.48030772134 0.87338502254 0.080641770956 0.52348759276 0.84812004786 0.081566688288 0.55777478408 0.8258595657 0.082724047246 
0.58536958427 0.80638853949 0.084142576526 0.60791146034 0.78935308757 0.085821672871 0.6228773812 0.77736379153 0.087916458136 
0.63627019978 0.76617300184 0.090217316129 0.64843722146 0.75560295904 0.092700259511 0.66105688683 0.74426441187 0.095259002669 
0.66804799351 0.73761030561 0.098198347425 0.67777008803 0.7282933355 0.10107682839 0.6858379376 0.72027265281 0.10408472008 
0.69284007714 0.71308300134 0.10716930862 0.69978180998 0.70579939737 0.1102389636 0.70675032393 0.69834207309 0.1132357213 
0.71211590855 0.69237478469 0.11622431032 0.71761584101 0.68618687215 0.11905915013 0.72357663658 0.67944227589 0.12163488288 
0.72604194041 0.6763447045 0.12418108335 0.73441721667 0.66690249827 0.12598575182 0.73611236437 0.66467198407 0.1278661042 
0.73826781252 0.66200089383 0.12928825761 0.72835979649 0.6725301028 0.13113072746 0.72835979649 0.6725301028 0.13113072746 

BinormalArray 3 384 double
-0.679466136 -0.73258554887 0.040548533916 -0.679466136 -0.73258554887 0.040548533916 -0.68097713699 -0.73120667986 0.040086534228 
-0.68109484526 -0.73109900515 0.040050673179 -0.68113513675 -0.73106213416 0.040038499961 -0.68156543428 -0.7306680173 0.039909989848 
-0.68182457344 -0.73043036981 0.039833728189 -0.68232972803 -0.72996645809 0.039687684566 -0.68280274881 -0.72953129535 0.039553701723 
-0.6835801186 -0.7288145889 0.039338485826 -0.68419600935 -0.72824539789 0.039172199842 -0.6850514056 -0.72745286499 0.038947412071 
-0.68586093373 -0.72670072116 0.038740695025 -0.68670344942 -0.72591573949 0.038531957147 -0.68755464686 -0.72512040563 0.038327600053 
-0.68829592276 -0.72442590543 0.038155343598 -0.68912914476 -0.7236431753 0.037968100983 -0.68972426072 -0.72308274974 0.037838884836 
-0.69032096042 -0.72251964722 0.037713803502 -0.69071510778 -0.7221470175 0.037634093595 -0.6909141384 -0.72195861881 0.037595293211 
-0.69091396735 -0.72195878084 0.037595325332 -0.69076527538 -0.72209964998 0.03762219855 -0.69026361579 -0.72257466266 0.037709383393 
-0.68961359841 -0.72318938766 0.037817911898 -0.68873971428 -0.7240143642 0.037957955683 -0.68768311509 -0.72500949994 0.038120312391 
-0.68637201444 -0.72624069797 0.038313266663 -0.68489413089 -0.72762362301 0.038521327886 -0.68330696955 -0.72910300944 0.03873482918 
-0.68170303133 -0.73059194821 0.038940753388 -0.67992251735 -0.73223764613 0.039158651465 -0.6782226254 -0.7338018264 0.039356701653 
-0.67639858072 -0.73547268089 0.039558762234 -0.67471273931 -0.7370100145 0.03973610376 -0.67284706505 -0.73870362341 0.039922221976 
-0.67095946224 -0.74040890583 0.040100526216 -0.66888454721 -0.74227388119 0.040285826384 -0.66665334938 -0.7442682153 0.040473886122 
-0.66364101455 -0.74694247398 0.040712951005 -0.66018046975 -0.74998875865 0.040970834377 -0.65559884163 -0.75397961686 0.04129038876 
-0.6495395295 -0.7591843224 0.041684100571 -0.64149457715 -0.76596772447 0.042168146225 -0.63124943756 -0.77440163651 0.042734680846 
-0.61813720837 -0.78487151021 0.043394747093 -0.60173590834 -0.79747464539 0.044137133638 -0.58225723151 -0.81176281688 0.04491820886 
-0.55895184004 -0.82793814068 0.045730468125 -0.5328750548 -0.84491524859 0.046501598647 -0.50376368688 -0.86255054303 0.047209199369 
-0.47283418784 -0.87985396657 0.047799877848 -0.44056227663 -0.89642438478 0.048251453626 -0.40786896589 -0.91174896853 0.048546112536 
-0.37539348867 -0.92558620602 0.048681658715 -0.34341636692 -0.93792161144 0.048664666092 -0.31230132152 -0.94874395723 0.04850554811 
-0.28236488655 -0.95809447354 0.048218778637 -0.25296816609 -0.96629262667 0.047808645512 -0.22416600217 -0.97340327066 0.047282937098 
-0.19557418111 -0.97957922469 0.046639920996 -0.16704211851 -0.98488174562 0.045878947097 -0.13824432104 -0.98937567517 0.044992011346 
-0.10802154819 -0.99317714927 0.043937402043 -0.076978665788 -0.99611676034 0.042728032852 -0.043276659171 -0.9982099971 0.041278716812 
-0.007114660051 -0.99919119018 0.039577103051 0.032670371413 -0.99876081574 0.037543038986 0.077257559785 -0.99639386493 0.035078987805 
0.12712125429 -0.99136725445 0.032111578955 0.18421605923 -0.98247362416 0.028460873953 0.24979330292 -0.96800276272 0.023957403452 
0.32445154781 -0.94572248227 0.018443959573 0.41003628343 -0.91199515806 0.011622303528 0.50610305139 -0.86246670253 0.0032997594091 
0.60951991372 -0.79274373829 -0.0065452416002 0.71527286314 -0.69861860451 -0.017798221471 0.81418141038 -0.57984110449 -0.029881842731 
0.89568743948 -0.44271447196 -0.041807978632 0.95312299497 -0.29797227857 -0.052622026303 0.98533437405 -0.15913243753 -0.061587650064 
0.99702556975 -0.035198283649 -0.068564525073 0.99497844032 0.067742894097 -0.073680415292 0.98567507482 0.14987318432 -0.077347756927 
0.97390823911 0.21240673341 -0.079913211665 0.96281722577 0.25751619448 -0.081660267811 0.95421198406 0.28744678068 -0.082787908237 
0.94902915428 0.30395101171 -0.083411311036 0.94766930966 0.30812062506 -0.083573679696 0.94988041942 0.30131261714 -0.083294030752 
0.95559620965 0.28290037948 -0.082481873069 0.96362732959 0.2546384717 -0.081127174248 0.97325615117 0.21568069073 -0.079084156774 
0.9830197381 0.1668958446 -0.07627562882 0.99134776766 0.10933178998 -0.07263720291 0.99668187282 0.044509908603 -0.068147724982 
0.99770518524 -0.025101636443 -0.062882996061 0.99363558739 -0.097182527224 -0.056955033718 0.98447260762 -0.16807337673 -0.050646074624 
0.97079290672 -0.23582085455 -0.044154918468 0.95377730414 -0.29813265638 -0.037759413519 0.93508948871 -0.35298571233 -0.031760588833 
0.91574633674 -0.40090139348 -0.026205332405 0.89727896322 -0.44094952301 -0.02130681408 0.88044167574 -0.47384665292 -0.017082304879 
0.86558139834 -0.5005864396 -0.013492936208 0.85340351648 -0.52114262557 -0.010620822896 0.84373040821 -0.53670195503 -0.0083671814609 
0.83668662027 -0.5476405719 -0.0067307852131 0.83196675526 -0.55479693104 -0.0056288054405 0.82964725653 -0.55826482463 -0.005080877436 
0.82908818728 -0.55909597547 -0.0049465063808 0.83018195745 -0.55746813329 -0.0052151595158 0.83285108571 -0.55346580868 -0.0058879241288 
0.83618179962 -0.54841080327 -0.0067519510029 0.84061098334 -0.54158117956 -0.0079372942177 0.84521001395 -0.53435495678 -0.0092093693467 
0.84995971948 -0.52674167647 -0.010567948444 0.85437906068 -0.51951458676 -0.011874965593 0.85859241862 -0.51248981365 -0.013162431395 
0.86192025882 -0.50684465789 -0.014211270049 0.86443690861 -0.50251668585 -0.015027024762 0.86562941847 -0.50044763886 -0.015423055722 
0.86565370643 -0.50040537177 -0.015431281643 0.86417135813 -0.50297634367 -0.01492184628 0.86079411602 -0.50876751952 -0.013751396395 
0.85579298775 -0.51717890444 -0.012014279949 0.84863767098 -0.52888857079 -0.0095385055268 0.83935116134 -0.54355239678 -0.0063576650069 
0.8278001177 -0.56101773639 -0.002462639997 0.8134858445 -0.58158031122 0.0022632705291 0.79729645291 -0.6035416143 0.0074756929465 
0.77810797263 -0.62798588192 0.013480172384 0.75748653171 -0.65255235207 0.019737833857 0.73360645046 -0.67904780338 0.026751758307 
0.70829720555 -0.70509817538 0.033935699354 0.68145545273 -0.73069333009 0.041300403164 0.65325959927 -0.75556098596 0.048780041632 
0.62459789713 -0.7789262109 0.056137553136 0.59475174827 -0.8013930416 0.063557460721 0.56529972867 -0.82185394592 0.070656268968 
0.53529192166 -0.84108784579 0.077677501735 0.50569776302 -0.85857171716 0.084406036354 0.47631506486 -0.87456285252 0.090905313249 
0.4461456459 -0.88964455199 0.097399351896 0.41691210012 -0.90303193266 0.10352598401 0.38556420452 -0.91611018491 0.1099198494 
0.35382185189 -0.92806504876 0.11621257415 0.31681273935 -0.94043690728 0.12332117257 0.2786756328 -0.95149239979 0.13039211949 
0.23022951847 -0.9631573416 0.1390046911 0.17140160628 -0.9738827835 0.14890874174 0.093277510791 -0.98251524116 0.16113071362 
-0.015249115875 -0.98420775779 0.17635916184 -0.16889727621 -0.96627110195 0.19440644956 -0.40027675025 -0.89124967246 0.21319602378 
-0.68437720221 -0.69574440891 0.21809989126 -0.91358493646 -0.35922555832 0.19057691919 -0.98956734384 -0.023961031736 0.1420645662 
-0.97201997231 0.21354851233 0.097847873289 -0.93131776239 0.35802162034 0.066841191074 -0.89232175168 0.44910125712 0.045496728833 
-0.86229422769 0.50542561493 0.031521622308 -0.83952107867 0.5428865484 0.021875878016 -0.82226385982 0.56890852852 0.015007698634 
-0.81051530034 0.58562284291 0.01052776238 -0.80272523939 0.59630006314 0.0076436077336 -0.79713631493 0.60377323344 0.0056194303957 
-0.79340317641 0.60868135068 0.0042910371318 -0.79178775775 0.61078496876 0.0037240593543 -0.79173168007 0.6108577763 0.003704579413 
-0.79178146224 0.61079314412 0.003721714682 -0.79391088923 0.60801784855 0.0044492484624 -0.79636605592 0.60479185602 0.0052835477728 
-0.79984368092 0.60017360335 0.0064600252601 -0.8048724623 0.59339175081 0.0081577875116 -0.81047174238 0.58569154563 0.010048292636 
-0.8176152814 0.57562995794 0.01246607948 -0.82546580392 0.56424912216 0.01513719597 -0.83577292489 0.54875743744 0.018678674513 
-0.84582057585 0.53300625452 0.022178505418 -0.85859179021 0.51196348722 0.026711898829 -0.87131465906 0.48972262548 0.031345095252 
-0.88517463103 0.4638208021 0.036553195896 -0.89989774373 0.43404312105 0.042315716991 -0.91460465055 0.40144543872 0.048372439666 
-0.92860003935 0.3670585974 0.054497275179 -0.94263130229 0.32819319162 0.061118384392 -0.95459746788 0.29019700364 0.06730061953 
-0.96544184243 0.25002839528 0.073538088338 -0.97452036825 0.20973723138 0.079500601533 -0.98166509624 0.17060396374 0.08501721223 
-0.98678941639 0.13482643931 0.089824712392 -0.99044276909 0.10075184677 0.094192284865 -0.99266825163 0.070977901879 0.097835983447 
-0.99385409268 0.045784043585 0.10078622834 -0.99435611822 0.024889726229 0.10313298059 -0.99444960672 0.012002913199 0.10452707675 
-0.99441083835 0.0021495213915 0.10555787101 -0.99437957614 -0.00092235481139 0.10586976824 -0.99440857462 0.0019756387054 0.1055825912 
-0.99444277812 0.010412642006 0.10476229253 -0.99434753447 0.023750644834 0.10348375505 -0.99388259311 0.04321979794 0.10163385348 
-0.99270856881 0.068408252062 0.099247208869 -0.99055660177 0.09739777645 0.096495035319 -0.98693134784 0.13142308138 0.093244240225 
-0.98124185241 0.17077754056 0.08943969314 -0.97312920175 0.21391725205 0.085199565565 -0.96241379857 0.25933756391 0.080645571951 
-0.94777417316 0.30988891085 0.075451836422 -0.92896371276 0.36353561913 0.069773017659 -0.90620199235 0.41800257118 0.063810653887 
-0.87785469699 0.47549016882 0.057273295014 -0.84554177785 0.53150337142 0.050628727865 -0.80689309434 0.58909588423 0.043469224685 
-0.76405900833 0.64412648943 0.036261514034 -0.71617972338 0.69731783806 0.028886615244 -0.66720192108 0.74455400753 0.021930033462 
-0.61285287177 0.7900588923 0.014775123267 -0.55886199137 0.82922052943 0.0081601580851 -0.50391332362 0.86375220622 0.0018677584099 
-0.45141623626 0.89230553407 -0.0037703452878 -0.40189334333 0.91564443529 -0.0087754607118 -0.35133782673 0.93615011986 -0.013589870834 
-0.30739300007 0.95142099956 -0.017539244565 -0.26832850823 0.96310157271 -0.020860784134 -0.23131868929 0.97258589019 -0.023840096423 
-0.19836652155 0.97977359831 -0.026351834377 -0.17050484664 0.98494852056 -0.02836387005 -0.14359423148 0.9891756185 -0.030204179281 
-0.12345531342 0.99184980505 -0.031507932557 -0.1047449908 0.99396286829 -0.032654300947 -0.088276145902 0.99552893835 -0.033607364905 
-0.073832859 0.99667731902 -0.034395212939 -0.062190607979 0.99745067792 -0.034992476353 -0.053821845058 0.99792302993 -0.035395413844 
-0.045190481159 0.9983372797 -0.035784024041 -0.036824971143 0.99866823338 -0.03613421012 -0.032177359337 0.99882225358 -0.036314229904 
-0.027056903132 0.99896742789 -0.03649660261 -0.023336155279 0.99905685028 -0.036617397067 -0.01911786916 0.99914194018 -0.036740855345 
-0.016236468543 0.99919015793 -0.036815830759 -0.015249945074 0.99920487388 -0.036838284172 -0.013792514607 0.9992250088 -0.036866628949 
-0.014723848964 0.99921227191 -0.036851647668 -0.014187576389 0.99921977985 -0.036858435037 -0.01690596617 0.99917840281 -0.036833512838 
-0.018879609971 0.99914346962 -0.036822376828 -0.023900941836 0.99903634796 -0.036811960409 -0.029941550819 0.9988732254 -0.03682096019 
-0.039133995121 0.99855361987 -0.036867311622 -0.04774689266 0.99817612403 -0.036941300063 -0.061650342189 0.9974077115 -0.037109194802 
-0.077000041462 0.99633139951 -0.037346164115 -0.096081953495 0.99465912633 -0.037702527977 -0.11932078241 0.9921203478 -0.038206889068 
-0.14845138141 0.98815356757 -0.038919330187 -0.1821695029 0.98246025935 -0.039826009221 -0.2214304216 0.97431541635 -0.040963860351 
-0.27113284592 0.96160390699 -0.042484184441 -0.33029499158 0.94283506243 -0.044353845311 -0.39994579565 0.91535438859 -0.046580079827 
-0.48362947702 0.87388816531 -0.049213854678 -0.57860498312 0.81394519499 -0.052052791207 -0.68138842453 0.72986647157 -0.054815587179 
-0.78480350194 0.61711220645 -0.057061265256 -0.87843041594 0.47430616943 -0.058255145682 -0.94698261541 0.31600892497 -0.057985217512 
-0.986456667 0.15405239227 -0.056312561353 -0.99855160892 0.003968796979 -0.053655689104 -0.99149254277 -0.11987724043 -0.050714740066 
-0.97394312055 -0.22169676015 -0.047805276686 -0.95272039016 -0.30045915664 -0.045256528491 -0.93303924802 -0.35716313056 -0.043269617784 
-0.91605560985 -0.39887351385 -0.041737747929 -0.90345743822 -0.42674224225 -0.040690490332 -0.8963579496 -0.44151054041 -0.040135631233 
-0.89455796551 -0.44515831201 -0.040001544895 -0.89730568796 -0.43957545316 -0.040198548908 -0.90702243603 -0.41909364024 -0.040875680395 
-0.92046525182 -0.38858319228 -0.041795010184 -0.93846580693 -0.34268287658 -0.043015989039 -0.9587359781 -0.28080912895 -0.044402222966 
-0.97864684622 -0.20037774374 -0.045816047348 -0.99356339842 -0.10306680243 -0.047000080327 -0.9987947065 0.011523568797 -0.047711022103 
-0.99048046164 0.12912608082 -0.047696020371 -0.96708698188 0.25009015664 -0.046879452096 -0.93218911101 0.3591134554 -0.045398099858 
-0.89339979918 0.44713977353 -0.043621345159 -0.85556287788 0.51600782321 -0.041810146774 -0.82272493957 0.56701731554 -0.040187531533 
-0.80241972441 0.59547401593 -0.039157147909 -0.78930592071 0.61279348225 -0.038474818471 -0.78747977306 0.61514452154 -0.038377397468 
-0.79439495748 0.60616384799 -0.038756172703 -0.81126690166 0.58332608527 -0.039707587713 -0.83322693799 0.55140991652 -0.040987483127 
-0.86265310275 0.50398436699 -0.042771277012 -0.89247683476 0.44887604997 -0.04466980172 -0.92349463931 0.38074921996 -0.046772670069 
-0.94997140652 0.30851233609 -0.048728485332 -0.97212875315 0.22892634263 -0.050580796277 -0.98766428939 0.14764160475 -0.052165199146 
-0.99623906434 0.068212285058 -0.053430430047 -0.99850285835 -0.0059755158407 -0.05437219032 -0.99611276749 -0.068807471752 -0.054998966129 
-0.99000067938 -0.12970101762 -0.055464410773 -0.98303711262 -0.17473593407 -0.055726013225 -0.97561663834 -0.21224358615 -0.055900224758 
-0.96842337756 -0.2429359309 -0.056020489717 -0.96356260084 -0.26153574591 -0.056090711157 -0.96005121395 -0.27413415711 -0.056143837595 
-0.95804203975 -0.28106827957 -0.056178931082 -0.95827085579 -0.280288158 -0.056173974646 -0.95901748055 -0.27772693565 -0.056153550377 
-0.96110736127 -0.27042091264 -0.056081816219 -0.96411572797 -0.25951929344 -0.055951759652 -0.96735812769 -0.24719871585 -0.055776766503 
-0.96961963525 -0.23820825524 -0.055629039879 -0.97230894444 -0.22703271595 -0.055420776321 -0.97358300035 -0.22153399265 -0.055306704243 
-0.97443283589 -0.21778705475 -0.055221799291 -0.97356325547 -0.22161867095 -0.055315027642 -0.97127900844 -0.23136468103 -0.055565026174 
-0.96703352994 -0.24841103842 -0.056018817946 -0.96007310832 -0.27394033741 -0.056712593226 -0.95008272069 -0.30663408308 -0.057605233569 
-0.93592034082 -0.34728532812 -0.05870278121 -0.91706475624 -0.39420821283 -0.059934279 -0.89463147322 -0.44260008499 -0.061153020259 
-0.8647502283 -0.49830114634 -0.062474076394 -0.83323483911 -0.54925001878 -0.063593394018 -0.79787502137 -0.5993511132 -0.064604128251 
-0.76094123845 -0.64551143855 -0.065447798521 -0.72574038841 -0.68478609898 -0.066097558668 -0.68965670443 -0.72106348256 -0.066641459679 
-0.65752650251 -0.75044252206 -0.067044161454 -0.63058761693 -0.77319110698 -0.06734069696 -0.60619816701 -0.7924364265 -0.067589143169 
-0.58703787794 -0.80671708343 -0.067779622016 -0.57454361441 -0.81565183381 -0.067909654282 -0.57038540629 -0.81856103096 -0.067958273063 
-0.57146329758 -0.81781011114 -0.067943517904 -0.57919529501 -0.81236297496 -0.067817454645 -0.59936855229 -0.79762944485 -0.067413702199 
-0.62939065967 -0.77422494593 -0.066656812279 -0.66744425187 -0.74177877414 -0.065440208474 -0.726039857 -0.68476217 -0.062983303928 
-0.79047038443 -0.60962160631 -0.059313307645 -0.8605210565 -0.5065752268 -0.053712670015 -0.92810659899 -0.36952057165 -0.045526783829 
-0.97589564891 -0.21532526798 -0.035534650845 -0.99865696551 -0.046043060214 -0.023755038419 -0.99426491497 0.10621563846 -0.01247064549 
-0.9717182961 0.23613195854 -0.0022915439854 -0.94032151659 0.34022918973 0.0062883942361 -0.90797173612 0.41882729056 0.013077732608 
-0.87681235831 0.4804711224 0.018643734894 -0.85171051745 0.52352074121 0.022698634162 -0.82962711109 0.55770969878 0.026052800921 
-0.81035067533 0.58523375352 0.028865840134 -0.79352913983 0.60772875742 0.031261184401 -0.78177606506 0.62268970164 0.032919896251 
-0.77084402611 0.6360908503 0.034466180176 -0.76055488429 0.64827866439 0.035931062728 -0.74951729765 0.6609208858 0.037515373333 
-0.74318559825 0.66798036259 0.038436984166 -0.73420976332 0.67775708683 0.039766250647 -0.7265460603 0.68589825455 0.040919514429 
-0.71972658147 0.69298817207 0.04196476254 -0.7128226352 0.70002228293 0.043042933827 -0.70574857726 0.70708428297 0.044167436855 
-0.70016232682 0.71255967975 0.045071264714 -0.69434871915 0.7181651821 0.046028550108 -0.68796122349 0.72421772382 0.047096108822 
-0.68519286611 0.72680686857 0.047565870355 -0.67605338826 0.73521275015 0.049132761407 -0.67407294699 0.73700603219 0.049474949766 
-0.67160250726 0.73922895092 0.049906215618 -0.68225778327 0.72953349935 0.048012399429 -0.68225778327 0.72953349935 0.048012399429 

