# vtk DataFile Version 4.1
vtk output
ASCII
DATASET POLYDATA
POINTS 215 float
-1.47268 0.969656 141.736 -1.47383 0.963333 140.288 -1.47496 0.956986 138.839 
-1.47602 0.950543 137.389 -1.47694 0.943931 135.936 -1.47769 0.937077 134.481 
-1.4782 0.929907 133.022 -1.47846 0.922347 131.558 -1.47841 0.914319 130.089 
-1.47805 0.905746 128.613 -1.47735 0.896546 127.13 -1.47633 0.886636 125.639 
-1.475 0.875929 124.141 -1.47338 0.864335 122.633 -1.47151 0.851758 121.116 
-1.46943 0.838099 119.589 -1.46722 0.823252 118.052 -1.46493 0.807106 116.505 
-1.46265 0.789541 114.947 -1.46045 0.770434 113.379 -1.45843 0.749649 111.8 
-1.45667 0.727048 110.211 -1.45525 0.70248 108.612 -1.45427 0.67579 107.003 
-1.45381 0.646813 105.385 -1.45394 0.615377 103.758 -1.45474 0.581304 102.122 
-1.45627 0.544412 100.478 -1.45859 0.504511 98.8279 -1.46174 0.461412 97.1708 
-1.46576 0.414922 95.508 -1.47069 0.364849 93.8401 -1.47655 0.311002 92.1679 
-1.48336 0.253195 90.4922 -1.49113 0.191246 88.8134 -1.49986 0.12498 87.1323 
-1.50956 0.0542319 85.4495 -1.52025 -0.0211559 83.7653 -1.53191 -0.10133 82.0802 
-1.54455 -0.186424 80.3944 -1.55819 -0.276563 78.7083 -1.57283 -0.371857 77.022 
-1.58849 -0.472405 75.3355 -1.60518 -0.578294 73.6487 -1.62293 -0.6896 71.9616 
-1.64178 -0.806385 70.2739 -1.66175 -0.928702 68.5855 -1.68288 -1.05659 66.8959 
-1.70524 -1.19009 65.2049 -1.72887 -1.3292 63.5122 -1.75383 -1.47395 61.8173 
-1.78018 -1.62433 60.1199 -1.808 -1.78031 58.4197 -1.83737 -1.94188 56.7164 
-1.86835 -2.10899 55.0099 -1.90103 -2.28158 53.2999 -1.93551 -2.45958 51.5864 
-1.97185 -2.64289 49.8695 -2.01016 -2.83142 48.1492 -2.05051 -3.02503 46.426 
-2.09301 -3.22359 44.7002 -2.13772 -3.42692 42.9722 -2.18474 -3.63485 41.2428 
-2.23416 -3.84719 39.5127 -2.28603 -4.06371 37.7827 -2.34045 -4.2842 36.0537 
-2.39747 -4.50841 34.3268 -2.45716 -4.7361 32.603 -2.51958 -4.96702 30.8834 
-2.58478 -5.2009 29.1691 -2.65281 -5.4375 27.4612 -2.72371 -5.67655 25.7607 
-2.79752 -5.91781 24.0686 -2.87427 -6.16105 22.3858 -2.95398 -6.40605 20.713 
-3.03668 -6.65259 19.0509 -3.12239 -6.90049 17.4001 -3.21114 -7.14959 15.7609 
-3.30294 -7.39974 14.1334 -3.39779 -7.65083 12.5178 -3.49573 -7.90276 10.9138 
-3.59675 -8.15546 9.32117 -3.70087 -8.40889 7.73946 -3.80809 -8.66301 6.16803 
-3.91843 -8.91782 4.60618 -4.03188 -9.17332 3.05306 -4.14844 -9.42953 1.5078 
-4.2681 -9.68646 -0.0305725 -4.39085 -9.94413 -1.563 -4.51667 -10.2026 -3.09043 
-4.64553 -10.4617 -4.61376 -4.77738 -10.7217 -6.13379 -4.91217 -10.9823 -7.65125 
-5.04985 -11.2436 -9.16671 -5.19033 -11.5055 -10.6806 -5.33352 -11.7678 -12.1932 
-5.47933 -12.0304 -13.7046 -5.62765 -12.2932 -15.2148 -5.77833 -12.5559 -16.7234 
-5.93126 -12.8184 -18.2302 -6.08629 -13.0803 -19.7346 -6.24327 -13.3414 -21.236 
-6.40204 -13.6014 -22.7337 -6.56244 -13.8601 -24.2268 -6.72433 -14.1171 -25.7147 
-6.88754 -14.3722 -27.1965 -7.05194 -14.6251 -28.6715 -7.21738 -14.8756 -30.139 
-7.38374 -15.1234 -31.5984 -7.55091 -15.3683 -33.0493 -7.71878 -15.6102 -34.4913 
-7.88727 -15.8488 -35.9242 -8.05632 -16.0841 -37.3481 -8.22587 -16.3161 -38.7631 
-8.39591 -16.5446 -40.1696 -8.56642 -16.7696 -41.5679 -8.73739 -16.9911 -42.9587 
-8.90886 -17.2092 -44.3428 -9.08086 -17.424 -45.7211 -9.25342 -17.6354 -47.0945 
-9.4266 -17.8436 -48.4642 -9.60047 -18.0487 -49.8312 -9.77509 -18.2509 -51.1967 
-9.95052 -18.4501 -52.562 -10.1268 -18.6465 -53.9282 -10.3041 -18.8401 -55.2965 
-10.4823 -19.0312 -56.6681 -10.6616 -19.2197 -58.044 -10.8419 -19.4058 -59.4253 
-11.0234 -19.5894 -60.8129 -11.2059 -19.7706 -62.2076 -11.3896 -19.9494 -63.6102 
-11.5743 -20.1259 -65.0213 -11.76 -20.2999 -66.4416 -11.9467 -20.4715 -67.8714 
-12.1344 -20.6406 -69.311 -12.3228 -20.8073 -70.7608 -12.512 -20.9713 -72.2208 
-12.7017 -21.1327 -73.6911 -12.8918 -21.2914 -75.1716 -13.0823 -21.4473 -76.6621 
-13.2728 -21.6003 -78.1624 -13.4633 -21.7503 -79.672 -13.6535 -21.8974 -81.1905 
-13.8432 -22.0413 -82.7174 -14.0323 -22.182 -84.252 -14.2204 -22.3195 -85.7935 
-14.4073 -22.4535 -87.3411 -14.5929 -22.5842 -88.8938 -14.7767 -22.7113 -90.4505 
-14.9587 -22.8349 -92.0102 -15.1385 -22.9547 -93.5716 -15.3158 -23.0708 -95.1334 
-15.4905 -23.1831 -96.6942 -15.6622 -23.2914 -98.2526 -15.8308 -23.3958 -99.8072 
-15.9959 -23.4961 -101.356 -16.1574 -23.5923 -102.899 -16.315 -23.6843 -104.433 
-16.4686 -23.772 -105.956 -16.618 -23.8555 -107.469 -16.7629 -23.9346 -108.969 
-16.9033 -24.0094 -110.454 -17.039 -24.0799 -111.924 -17.17 -24.1459 -113.378 
-17.2961 -24.2076 -114.813 -17.4174 -24.2649 -116.231 -17.5338 -24.318 -117.628 
-17.6453 -24.3667 -119.006 -17.7519 -24.4113 -120.363 -17.8536 -24.4517 -121.7 
-17.9506 -24.488 -123.015 -18.043 -24.5204 -124.309 -18.1307 -24.5489 -125.582 
-18.214 -24.5736 -126.834 -18.2928 -24.5947 -128.065 -18.3675 -24.6122 -129.276 
-18.438 -24.6264 -130.466 -18.5044 -24.6372 -131.636 -18.567 -24.6448 -132.787 
-18.6257 -24.6494 -133.919 -18.6807 -24.6511 -135.031 -18.7319 -24.6499 -136.124 
-18.7795 -24.646 -137.199 -18.8235 -24.6395 -138.254 -18.8638 -24.6304 -139.291 
-18.9004 -24.6188 -140.308 -18.9333 -24.6048 -141.306 -18.9623 -24.5884 -142.284 
-18.9874 -24.5696 -143.241 -19.0085 -24.5484 -144.178 -19.0253 -24.5248 -145.093 
-19.0378 -24.4989 -145.987 -19.0458 -24.4705 -146.857 -19.0491 -24.4396 -147.705 
-19.0475 -24.4061 -148.529 -19.0408 -24.37 -149.33 -19.029 -24.3312 -150.107 
-19.0117 -24.2896 -150.859 -18.9891 -24.2452 -151.588 -18.9608 -24.1978 -152.293 
-18.9269 -24.1474 -152.974 -18.8874 -24.094 -153.633 -18.8423 -24.0376 -154.27 
-18.7917 -23.9782 -154.887 -18.7358 -23.9158 -155.483 -18.6747 -23.8505 -156.061 
-18.6088 -23.7825 -156.623 -18.5384 -23.7119 -157.169 -18.4638 -23.6389 -157.701 
-18.3857 -23.5638 -158.222 -18.3045 -23.4869 -158.733 -18.2208 -23.4086 -159.236 
-18.1352 -23.3291 -159.734 -18.0485 -23.249 -160.228 
LINES 1 216
215 214 213 212 211 210 209 208 207 206 205 204 203 202 201 200 199 198 197 196 195 194 193 192 191 190 189 188 187 186 185 184 183 182 181 180 179 178 177 176 175 174 173 172 171 170 169 168 167 166 165 164 163 162 161 160 159 158 157 156 155 154 153 152 151 150 149 148 147 146 145 144 143 142 141 140 139 138 137 136 135 134 133 132 131 130 129 128 127 126 125 124 123 122 121 120 119 118 117 116 115 114 113 112 111 110 109 108 107 106 105 104 103 102 101 100 99 98 97 96 95 94 93 92 91 90 89 88 87 86 85 84 83 82 81 80 79 78 77 76 75 74 73 72 71 70 69 68 67 66 65 64 63 62 61 60 59 58 57 56 55 54 53 52 51 50 49 48 47 46 45 44 43 42 41 40 39 38 37 36 35 34 33 32 31 30 29 28 27 26 25 24 23 22 21 20 19 18 17 16 15 14 13 12 11 10 9 8 7 6 5 4 3 2 1 0 

CELL_DATA 1
FIELD FieldData 2
LengthArray 1 1 double
304.60086604 
TortuosityArray 1 1 double
0.0040024719296 
POINT_DATA 215
FIELD FieldData 8
RadiusArray 1 215 double
67.388196369 67.361553174 67.268451019 67.001402135 66.983397967 66.803469354 66.737262936 66.554597083 66.459376341 
66.202175255 66.069318402 65.942996864 65.93885429 65.857203696 65.646650857 65.370087695 65.141310337 65.127982943 
64.886925285 64.80553804 64.703669533 64.514867411 64.309731727 64.024456233 64.001827571 63.598741908 63.575275262 
63.425101855 62.865337958 62.573359299 62.337567719 62.081916704 62.057427065 61.806846357 61.769119172 61.427698632 
61.348056355 60.9871992 60.939203274 60.570643416 60.50772068 60.248818688 60.222683385 59.861456378 59.547364201 
59.439436319 59.191006112 59.083674438 58.955908928 58.68926713 58.658036755 58.490215965 58.463786122 58.208799943 
58.043444373 57.808150358 57.517373995 57.512674047 57.265027844 56.914642326 56.633654337 56.630808971 56.35059407 
56.145849758 56.082576366 55.94973906 55.858381289 55.658998299 55.317264569 55.137390281 55.021310827 54.768173803 
54.543182477 54.538261502 54.31039713 54.253558954 53.998490179 53.882719997 53.651464059 53.539443377 53.186219821 
53.186214484 53.185552691 52.960855587 52.923905266 52.767498511 52.758013691 52.674300166 52.491838824 52.3813053 
52.297485982 52.128707825 51.960658768 51.921951733 51.694537049 51.678939099 51.584865184 51.297589247 51.095916348 
51.010046434 50.875169223 50.760382253 50.598291487 50.589775181 50.43594696 50.317020421 50.253544996 50.25192144 
50.059312398 49.996102756 49.802694434 49.750478511 49.671069791 49.490819819 49.455606283 49.450173463 49.301926018 
49.295355576 49.248848009 49.237278926 49.200169493 49.143339056 49.123789585 49.064206936 48.872508449 48.867390374 
48.734265778 48.697108973 48.676953047 48.671286864 48.58714821 48.47856631 48.470800045 48.435597015 48.388693909 
48.3812573 48.299977033 48.27789906 48.242599661 48.228906911 48.212338577 48.191375236 48.191550719 48.147815512 
48.123671808 48.123349307 48.107535429 48.115033412 48.116435822 48.065576115 48.069760416 48.043067404 48.017018888 
47.952459683 47.951187075 47.929378128 47.921271965 47.872589788 47.83683971 47.806349838 47.779331959 47.766640804 
47.694276151 47.681656767 47.603932484 47.542761855 47.532793164 47.468125216 47.454317704 47.393686815 47.296588222 
47.178239668 47.177430264 47.123957769 47.02355351 47.019182862 46.95063177 46.847340156 46.744955786 46.736601668 
46.647891502 46.49860431 46.478504665 46.292607213 46.10579286 46.027967794 45.824162489 45.824137292 45.817863091 
45.569051995 45.558030505 45.22971891 44.988863634 44.802572077 44.764636825 44.390785467 44.240956673 44.12941517 
43.803277877 43.785668954 43.596681255 43.556818306 43.538640034 43.415338807 43.371843897 43.007597103 42.988347353 
42.780679249 42.570769099 42.464962005 42.173636273 41.795293446 41.064939248 40.524843731 40.387815962 
EdgeArray 2 215 int
33043 33043 32501 31893 32591 32949 32596 32596 32583 
32583 32581 32581 32148 32148 32368 32368 31555 31555 
31078 31078 31239 31753 31831 31831 31530 30844 31531 
31531 31237 31290 31269 31269 28481 28481 31075 30781 
29330 29330 28688 28688 29870 29870 30309 30309 30313 
30313 28317 28317 28221 28038 29042 29042 29182 29182 
29171 29171 27304 27304 28917 28917 28041 28041 28914 
28914 27190 27190 28503 28503 28293 28293 28727 28727 
26735 26735 27827 27827 26689 26689 27494 27494 26487 
26487 27912 27912 27911 27911 27651 27651 26153 26153 
27306 27308 27310 27310 27474 27474 27128 27128 24486 
24486 24348 24348 26424 26424 27115 27115 27337 27337 
27334 27334 22553 22553 27094 27094 27083 27083 27078 
27078 26373 26373 26363 26363 26362 26362 24739 24739 
25363 25363 25997 22269 25544 25540 25798 25798 21261 
21261 23816 23816 24578 24578 24699 24699 24288 24288 
24286 24286 24285 24289 22910 22910 23608 23608 22912 
22912 20154 20154 23667 23667 23366 23366 23158 23158 
22688 23158 22688 22688 22692 22692 21689 21689 22623 
21690 22157 22432 21682 21682 21223 21223 22154 22154 
20769 20769 21696 21696 21686 21686 21687 19294 19665 
19665 21147 21147 19954 19954 19356 19356 20801 20801 
20804 20804 20810 20810 20807 20807 20551 20551 18996 
19689 15532 15532 20562 20562 20570 20570 9863 9863 
19855 19855 19011 19011 12045 12045 19852 19852 19203 
19203 17949 17949 19321 19321 18088 18088 16182 16182 
17927 16535 18645 18645 19023 19023 18056 18056 17914 
17914 17288 18999 17601 17601 18451 18451 16190 16190 
18636 18636 16395 16395 16476 18045 18195 18195 18470 
18470 17594 17594 18290 17789 18206 18206 16039 16039 
17332 17332 18049 18049 18051 18050 17999 17999 17998 
17998 18000 18000 16410 16410 16268 17334 17334 15979 
15173 15173 17339 17339 14119 14119 16818 17020 15172 
15172 16375 16375 17025 17025 16229 16229 15368 15368 
11142 11142 15521 15521 16431 16431 16430 16430 15524 
15524 15823 15823 14418 14418 14928 14928 14047 14047 
14648 14648 10541 10541 15135 15135 15146 15146 15131 
15131 14395 14395 13164 13164 14488 14488 14898 14898 
13454 13454 14483 14483 13541 13541 13998 13998 13784 
11588 14046 13784 14018 14018 13514 13514 13729 13729 
11831 11831 13700 13700 12979 12979 12810 12810 13201 
13201 13190 13190 12488 12488 12756 12488 12756 12756 
12761 12761 9755 9755 12466 12466 8567 8567 11081 
11081 10717 10717 11513 11513 11876 11876 11298 11298 
10861 11007 10861 11305 10686 10686 9145 10654 10695 
10654 10694 10694 9692 9692 10603 10603 9022 10338 
2188 10345 10346 10348 10348 6313 6313 6313 9679 
9679 4248 4248 9611 9611 9623 9623 
EdgePCoordArray 1 215 double
0 0.396 0.88 0 0 0 0 0 0 
0 0.368 0 0.004 0 0.072 0 0 0.024 
0 0 0 0 0 0 0.996 0 0 
0 0 0 0 0 0 0 0 0 
0 0 0 0 0 0 0 0 0 
0.072 0 0 0 0 0 0 0 0 
0 0 0 0 0 0 0 0 0 
0 0.848 0.816 0 0 0 0 0 0 
0 0.936 0 0 0 0 0 0 0 
0.992 0 0 0 0.668 0.224 0 0 0 
0 0 0 0.248 0 0 0 0 0 
0 0 0 0 0.024 0 0 0 0 
0 0 0 0 0 0 0 0 0 
0.976 0 0 0 0 0.22 0 0 0 
0 0 0.832 0 0 0 0.896 0 0 
0 0 0.984 0 0 0 0 0.004 0.616 
0 0 0 0.06 0 0 0 0 0 
0 0 0 0 0 0 0 0 0 
0 0 0 0 0 0 0 0 0 
0 0 0 0 0.952 0.656 0 0 0 
0 0 0 0 0 0 0 0.996 0 
0 0 0 0 0 0 0 0 0 
0.144 0.116 0 0.74 0.708 0 0 0 0.008 
0.008 0.948 0.28 0 0 0 0 0 
CurvatureArray 1 215 double
0 1.4070238139e-05 5.6300782498e-05 9.7861387276e-05 0.00013815027029 0.00017647925197 0.00021259637609 0.00024605489975 0.00027708037323 
0.0003056459118 0.00033259521778 0.00035828880221 0.00038394899022 0.00041032393147 0.00043850960808 0.00046939813333 0.00050349048254 0.00054121604039 
0.00058274220484 0.00062794819021 0.0006766291998 0.00072842083054 0.0007830083207 0.00083986250141 0.00089894390751 0.00095960593871 0.0010218163377 
0.0010850332426 0.0011493100677 0.0012139202669 0.0012788754944 0.0013436527167 0.0014077569659 0.0014708653807 0.0015321479521 0.0015913990107 
0.0016476984545 0.0017007358554 0.0017497308355 0.00179416568 0.0018339000286 0.0018680868088 0.0018962578221 0.001919129995 0.0019354780811 
0.0019462108539 0.001950768634 0.0019502057753 0.0019437486668 0.0019324810656 0.0019168400289 0.0018970906736 0.0018742453863 0.0018485525789 
0.0018207265854 0.0017917865396 0.0017623778 0.0017327220489 0.0017038149319 0.0016766286237 0.0016510847249 0.0016280466719 0.0016083088463 
0.0015912320827 0.0015780501687 0.0015686397747 0.0015630092593 0.0015612767799 0.0015632227977 0.001568616315 0.0015773598483 0.0015892028352 
0.0016034521464 0.0016197066672 0.0016373422101 0.0016556241137 0.0016736771394 0.0016908757696 0.0017059275732 0.0017181390102 0.001726238541 
0.0017294904673 0.0017269195012 0.001717478827 0.0017012740206 0.0016771665741 0.0016459353126 0.001607176705 0.0015621220195 0.0015110403546 
0.0014555711454 0.001396749879 0.0013364665326 0.0012757426845 0.0012162251357 0.0011602001674 0.001108186192 0.0010618971027 0.0010221797573 
0.00098965177657 0.00096539687695 0.00094875198551 0.00094085670679 0.0009405930733 0.00094777877031 0.00096150173773 0.0009819597038 0.0010075839471 
0.0010373374352 0.0010710313855 0.0011075434018 0.0011467564087 0.0011867186543 0.0012281860912 0.0012690444224 0.001309446477 0.0013476586445 
0.0013849886755 0.0014212139377 0.0014538627357 0.0014835857334 0.0015112895991 0.0015370277405 0.0015595210383 0.0015802236668 0.0015975292462 
0.0016142141287 0.0016310548249 0.00164434224 0.0016580567691 0.0016698088399 0.001681684677 0.0016925330239 0.0017014395074 0.0017106562399 
0.0017187698621 0.0017268859441 0.0017309054448 0.0017367922285 0.0017399694098 0.00174242647 0.0017468475052 0.0017482957714 0.0017501423367 
0.0017526069112 0.001755080907 0.0017599629156 0.0017650183357 0.0017728305011 0.0017821625283 0.0017931925115 0.0018075974998 0.0018250835806 
0.0018437752876 0.0018682887974 0.0018952217061 0.0019247217818 0.0019588258917 0.001995603305 0.0020365928171 0.0020806680226 0.0021286699865 
0.0021782893316 0.0022319804023 0.0022878230379 0.0023468349989 0.0024057807239 0.0024660516731 0.0025271306917 0.0025884727193 0.0026466429065 
0.0027056642078 0.0027605258124 0.0028163129336 0.0028664937783 0.0029135908347 0.0029620276828 0.0030105999794 0.0030596026743 0.0031161784797 
0.0031782690652 0.0032524603004 0.0033462648551 0.0034616480811 0.0036059485836 0.0037882623581 0.0040106888802 0.004293935592 0.0046302244574 
0.0050387308403 0.0055325644031 0.0061133801948 0.0068001951705 0.0075984501497 0.0085150593926 0.0095698839795 0.01075066976 0.012074764598 
0.013519496216 0.015075997621 0.016713656273 0.018384171954 0.020028121971 0.021567551187 0.022877395145 0.023873555232 0.024407467144 
0.024346425262 0.02362986769 0.022079173866 0.019755842898 0.01662940588 0.012751315315 0.0082792556759 0 
TorsionArray 1 215 double
0 0 0.0041448152513 0.0071611597771 0.011263012541 0.015670578203 0.020324737934 0.025212004824 0.030074806681 
0.034646450528 0.038907065574 0.042646592714 0.045382318442 0.046802227426 0.046637096057 0.045184111423 0.042291261324 0.038284868086 
0.03361121397 0.02854807473 0.023551717492 0.018714458477 0.014213140306 0.01018256111 0.0067294302773 0.0037476266322 0.0012767375092 
-0.00070731577835 -0.0022572016875 -0.0033603734193 -0.0041638870386 -0.0046378383637 -0.0048054523427 -0.0047676053157 -0.0045684338818 -0.0041756785652 
-0.0036720047591 -0.0030827227896 -0.0024050775057 -0.0016899286645 -0.00092443739828 -0.00012808951602 0.00067902265709 0.0015026997579 0.0023291137283 
0.0031587091986 0.0040078382365 0.0048526774407 0.0056974238112 0.0065591375481 0.0074173630173 0.008286839397 0.0091640053287 0.010026651722 
0.010902107791 0.011757735514 0.012600204131 0.013419457746 0.014170297374 0.014888934598 0.015542388891 0.016083305691 0.016545189205 
0.016915499689 0.017142092442 0.01729134448 0.017305619048 0.017207976499 0.01707874327 0.016807505229 0.016428454454 0.016071238241 
0.015692421983 0.015210224479 0.014728937657 0.0142681204 0.013802398153 0.013437653959 0.012998812898 0.012665239477 0.012431602128 
0.012208037712 0.012202971611 0.012232168758 0.012418627185 0.012917150353 0.013458266355 0.014309335204 0.015354608611 0.016773136236 
0.018570592923 0.020534247634 0.022970202755 0.025718864072 0.028605514205 0.031796204272 0.035571737494 0.038599683264 0.041485250382 
0.044260675561 0.046249615185 0.047558629212 0.047741075657 0.047773385759 0.046621488069 0.045085253541 0.043277002466 0.040929995698 
0.039092535582 0.037043136605 0.035254804926 0.033422065493 0.032061354646 0.030668889568 0.029299396935 0.028581207264 0.027579060877 
0.027054551098 0.026593539715 0.025843287075 0.025658405633 0.025635870968 0.025070606465 0.024685903122 0.024619123442 0.024308433841 
0.023883701866 0.023692365585 0.023226219827 0.022825511933 0.022411740469 0.021777993676 0.021511547142 0.02124916575 0.020873139281 
0.020494261821 0.020176106818 0.019930672361 0.019710146587 0.019583149229 0.019434377978 0.019110612489 0.019006445144 0.018678528012 
0.018465690372 0.018055319885 0.017324348174 0.016903276785 0.016365424344 0.015566088693 0.014819916349 0.013987841734 0.012938526085 
0.012093650441 0.011185407043 0.010239098327 0.0090906782394 0.0081516899138 0.0074050000763 0.0064572930814 0.0056113587026 0.0045693323677 
0.0038726485891 0.0033693355956 0.0024322353745 0.001581569606 0.001400931039 0.00087781008733 0.00024812562112 -9.1397986366e-05 -0.00029845391094 
-0.00029999026194 -0.00021342096369 -7.7194750981e-05 0.00035464068367 0.0011711870167 0.0018589024771 0.0032451832525 0.0046382817329 0.0061371594729 
0.0082492422712 0.0099891301336 0.011801120113 0.013660575296 0.015197370407 0.01636763893 0.016848449306 0.016547699059 0.01650830015 
0.015488499603 0.013713061301 0.012394008927 0.010216624496 0.0081325574903 0.0068936062036 0.0051852872892 0.0033850115636 0.0026051231637 
0.001553768375 0.00038514847276 -0.00035994018861 -0.00056506825088 -0.0012590113743 -0.0015089569374 -0.0016407563575 -0.0020166663188 -0.0017476468319 
-0.0017095546673 -0.0019561077307 -0.0017246332371 -0.001458111425 -0.0016329701101 -0.00049920117932 0 0 
TangentArray 3 215 double
0.00078604760566 0.0043725903708 0.99999013124 0.00078604760566 0.0043725903708 0.99999013124 0.00075343700646 0.0044118192052 0.99998998404 
0.00068229443536 0.0044981242281 0.99998965062 0.00057449111162 0.004631475838 0.99998910964 0.00043328418813 0.0048118350358 0.99998832919 
0.00026324769883 0.005039307266 0.99998726796 7.0142449904e-05 0.0053140830355 0.9999858777 -0.00013923350577 0.0056365487299 0.99998410484 
-0.00035730768793 0.0060072254305 0.99998189262 -0.00057611540355 0.0064268339353 0.99997918173 -0.00078743391145 0.0068963371845 0.99997590995 
-0.00098298535128 0.0074169937937 0.99997201058 -0.0011548300203 0.0079904314316 0.99996740916 -0.0012956016905 0.0086185473354 0.99996202031 
-0.001398875897 0.0093037269529 0.99995574093 -0.0014589646743 0.010048740942 0.99994844578 -0.0014713531675 0.010856685998 0.99993998194 
-0.0014328043222 0.011731106838 0.99993016166 -0.0013412710965 0.012675919073 0.99991875773 -0.0011960376034 0.013695353058 0.99990549893 
-0.0009974439776 0.014793879851 0.99989006707 -0.00074700981147 0.015976163778 0.9998720939 -0.0004473361094 0.017246890055 0.99985116126 
-0.00010183406949 0.01861082804 0.99982679836 0.00028556912843 0.020072554683 0.9997984852 0.00071037142269 0.02163632524 0.99976565494 
0.0011677878447 0.02330599259 0.99972769642 0.0016529928484 0.025084887047 0.99968395809 0.0021611980676 0.026975608731 0.99963375581 
0.0026880019345 0.02897981738 0.99957638269 0.0032292591528 0.031098466274 0.99951110913 0.0037813310076 0.03333129566 0.99943720476 
0.004341338824 0.035676981323 0.9993539442 0.0049069588347 0.03813295934 0.99926062625 0.0054764469197 0.040695551592 0.99915658463 
0.0060489181048 0.043359918295 0.99904120439 0.0066241054447 0.046120039491 0.99891394183 0.0072023327226 0.048968929314 0.99877433405 
0.007784540571 0.051898470742 0.99862202542 0.0083721475775 0.05490002492 0.9984567564 0.0089670365418 0.057964187051 0.99827839067 
0.0095713610332 0.061080536225 0.99808694869 0.010187621182 0.064238939436 0.99788254371 0.010818506319 0.067428957456 0.99766542268 
0.011466753115 0.070639932611 0.99743596962 0.012135189621 0.073861579552 0.99719466717 0.012826754187 0.077083991469 0.99694209091 
0.013544274229 0.080297507496 0.99667891667 0.014290397778 0.083492647873 0.99640592244 0.015067870061 0.086661072173 0.99612389684 
0.015879222321 0.089794885706 0.99583368531 0.016726923896 0.092887030194 0.9955361418 0.017613357185 0.095931265548 0.9952321146 
0.018540613524 0.098921909253 0.99492246005 0.019510835723 0.1018544055 0.99460796667 0.020526086575 0.10472529536 0.99428934032 
0.021588217184 0.10753154176 0.99396726123 0.022698943157 0.11027083085 0.99364234101 0.023859970798 0.11294224416 0.99331503124 
0.025072947097 0.11554532386 0.99298571261 0.026339315891 0.1180800585 0.99265469335 0.027660571393 0.12054766851 0.99232210114 
0.029037954788 0.12294936726 0.9919880293 0.030472603176 0.12528676094 0.99165248348 0.031965715395 0.1275623544 0.99131530745 
0.033518325552 0.12977848795 0.99097631955 0.035131236458 0.13193772485 0.99063526738 0.03680502323 0.1340426446 0.99029185582 
0.038540167736 0.13609545009 0.98994579848 0.040336703156 0.13809842246 0.9895967745 0.042194344203 0.14005388323 0.98924443244 
0.044112576977 0.14196348078 0.98888849254 0.046090380133 0.14382833285 0.98852874896 0.048125973751 0.14564943252 0.98816503351 
0.050216941284 0.14742722488 0.98779728293 0.05236011866 0.14916150215 0.98742557403 0.054551560349 0.15085165797 0.98705010235 
0.056786579004 0.15249618725 0.98667127115 0.059059199009 0.1540933941 0.98628963135 0.061362635727 0.15564084577 0.98590595599 
0.063689262488 0.15713543933 0.98552124865 0.066030510784 0.15857393518 0.98513668023 0.068377141212 0.15995209604 0.98475372227 
0.070719442434 0.16126587025 0.98437395311 0.073047370002 0.16251089514 0.98399913145 0.075351165007 0.16368223493 0.98363119506 
0.077621188509 0.1647756421 0.9832720574 0.079848557097 0.16578674823 0.98292368068 0.082025265649 0.16671176155 0.98258793212 
0.084144531875 0.1675469456 0.98226662306 0.086201186072 0.16828897997 0.98196139167 0.088191398787 0.1689356117 0.98167358948 
0.09011297039 0.16948472979 0.98140439113 0.09196483355 0.16993474631 0.98115475405 0.093747881828 0.17028524689 0.98092521088 
0.095464254302 0.17053587953 0.98071611078 0.097116996635 0.17068546646 0.9805277969 0.098709936529 0.17073500076 0.98036009096 
0.10024718225 0.17068531266 0.98021274553 0.10173354346 0.17053667535 0.98008547 0.10317350766 0.17028979369 0.97997786377 
0.10457163393 0.16994528944 0.97988946926 0.10593247097 0.16950430378 0.97981967861 0.1072592689 0.16896681836 0.97976816826 
0.10855508761 0.16833381657 0.97973441256 0.10982256736 0.16760593621 0.97971794607 0.11106369177 0.16678347984 0.9797183918 
0.11227948155 0.16586799235 0.97973523318 0.11346984689 0.16486003684 0.97976821856 0.11463452433 0.163760681 0.97981700597 
0.11577255849 0.16257092526 0.97988132392 0.11688246131 0.16129258542 0.97996081153 0.11796189203 0.15992737402 0.98005521634 
0.11900844572 0.15847751668 0.98016420387 0.12001951953 0.1569463593 0.98028728199 0.12099110497 0.1553370779 0.98042416573 
0.12192029292 0.15365343563 0.98057435409 0.1228039587 0.15189781007 0.98073760151 0.12363830745 0.1500739873 0.9809135371 
0.12442033076 0.14818721816 0.98110148796 0.12514646694 0.14624109245 0.98130112845 0.12581319731 0.1442383781 0.98151226669 
0.1264184508 0.14218309619 0.98173435432 0.12696002257 0.14007903312 0.98196691245 0.1274349431 0.13792985093 0.98220959652 
0.12784136806 0.13573869628 0.98246200483 0.12817829607 0.13350641086 0.98272395039 0.12844361397 0.13123584436 0.98299511249 
0.12863629981 0.12892985841 0.98327503476 0.12875522769 0.12659038385 0.98356340216 0.12879940894 0.12421962838 0.9838598458 
0.12876863805 0.12181935208 0.98416395144 0.12866158125 0.11939292435 0.9844752547 0.12847703823 0.11694298574 0.98479337362 
0.12821424557 0.11447175624 0.98511792404 0.12787261685 0.11198183964 0.98544845702 0.12745182021 0.10947825276 0.98578422877 
0.12695146476 0.10696483736 0.98612466208 0.12637100973 0.10444471302 0.98646929492 0.12571031832 0.10192310086 0.98681740833 
0.12496875414 0.099401987447 0.98716870665 0.12414692162 0.096884993839 0.98752257687 0.12324534824 0.09437720782 0.98787829553 
0.12226480298 0.091880922754 0.98823540414 0.12120590805 0.089399015536 0.98859341687 0.12006971572 0.086932738395 0.98895195149 
0.11885854231 0.08448273074 0.98931052513 0.11757353853 0.082049876454 0.98966877328 0.11621587415 0.079633945316 0.99002641649 
0.11478818496 0.077234804654 0.99038298529 0.11329226555 0.074851122584 0.9907381955 0.11172963282 0.072480408958 0.99109186227 
0.11010357253 0.070120995155 0.99144351799 0.10841548887 0.067769859119 0.99179298645 0.10666641976 0.065423070693 0.99214015981 
0.10485911903 0.063078596219 0.99248458721 0.10299615067 0.060732409331 0.99282595021 0.10107936561 0.058380995298 0.99316394479 
0.099110182907 0.056021648025 0.99349823684 0.097090688051 0.053650842665 0.99382844866 0.095022847547 0.051265484959 0.99415416737 
0.092910159159 0.048862725291 0.99447480431 0.090754997031 0.046440607712 0.99478982728 0.088558771396 0.043997560609 0.9950987683 
0.086324990978 0.041531053848 0.99540100839 0.084057930368 0.03903988345 0.99569581291 0.08176040942 0.036525873274 0.99598247777 
0.079435789728 0.033989222068 0.99626035156 0.077088335313 0.031430036536 0.99652874588 0.07472280949 0.028851225342 0.99678689224 
0.072343096559 0.026255500214 0.99703416445 0.069952441732 0.023646469785 0.9972700238 0.06755357208 0.021027651476 0.99749403646 
0.065149306846 0.01840311385 0.99770581497 0.062743041366 0.015779304286 0.99790496758 0.060333752936 0.013160368746 0.99809150029 
0.057919526199 0.010548421001 0.99826552545 0.055496713592 0.0079477929742 0.99842723689 0.053058938353 0.0053598090745 0.99857699829 
0.050597833618 0.0027839633599 0.99871522907 0.048102067205 0.00022026733596 0.99884240129 0.045556414889 -0.0023371955312 0.99895903348 
0.04294257656 -0.0048964503742 0.99906554334 0.040239224205 -0.0074670255769 0.99916217321 0.037420518295 -0.010062941113 0.99924893897 
0.034458128161 -0.012700227472 0.9993254433 0.031318276662 -0.015401055123 0.99939080096 0.027965645604 -0.018190375032 0.99944336154 
0.024362457069 -0.021091720722 0.99948067015 0.020463990857 -0.024136803703 0.99949919449 0.016226207976 -0.027360249476 0.99949393541 
0.011601303667 -0.030795971796 0.99945836225 0.006540627149 -0.034483313221 0.99938387085 0.00099847542472 -0.038460680658 0.99925961546 
-0.0050754331491 -0.042764745991 0.99907227791 -0.011724721494 -0.047431553349 0.99880567612 -0.018985337239 -0.05249517354 0.99844069114 
-0.026888102652 -0.057979760423 0.99795559887 -0.035446676364 -0.063900091855 0.99732658212 -0.044657667071 -0.070262895016 0.99652838312 
-0.054495006338 -0.07705619109 0.99553635679 -0.064906824968 -0.084246003405 0.9943287761 -0.075808785124 -0.091780140264 0.99288943692 
-0.087076707571 -0.099576144371 0.99121250924 -0.098550851361 -0.1075240389 0.98930597428 -0.11003500514 -0.11549180538 0.98719498608 
-0.12129368398 -0.12331272864 0.98492731365 -0.13207201526 -0.1308085923 0.98257116534 -0.14208657559 -0.13778345012 0.98021789716 
-0.15105103514 -0.14403444526 0.97797631023 -0.15870202731 -0.14937481899 0.97596149001 -0.16478588044 -0.15362660765 0.97429178331 
-0.16909262901 -0.15663608814 0.97307390198 -0.16909262901 -0.15663608814 0.97307390198 
NormalArray 3 215 double
0.63782132222 -0.77017903436 0.0028663477936 0.63782132222 -0.77017903436 0.0028663477936 0.63961215198 -0.76869228572 0.0029094530649 
0.63402418467 -0.77330721962 0.0030458722902 0.62487881077 -0.78071497 0.0032569106662 0.60984610227 -0.79251191438 0.0035492413451 
0.58944285436 -0.80780058754 0.0039156357493 0.56242565173 -0.82683639537 0.0043544888441 0.52862993301 -0.84883849572 0.0048581997657 
0.48741449045 -0.87315390605 0.0054194874265 0.43924143084 -0.89834884322 0.0060267180513 0.3835939789 -0.92347775251 0.0066708295715 
0.32170821396 -0.94681041673 0.0073389268587 0.25467796595 -0.96699265574 0.0080210596842 0.18515998474 -0.98266979511 0.0087094105142 
0.11554769261 -0.99325742555 0.0094030489336 0.047955618276 -0.99879833007 0.010107152291 -0.014629682565 -0.99983428456 0.010834011684 
-0.070954759811 -0.99741208361 0.011599893545 -0.11968506634 -0.99273416469 0.01242429719 -0.16052027841 -0.9869425836 0.013325798144 
-0.19375237396 -0.98094594459 0.01432031358 -0.21952323297 -0.97548536466 0.015422500572 -0.23867453418 -0.97095701276 0.016641698039 
-0.25183116203 -0.96760404704 0.017985382636 -0.26013170112 -0.96537711298 0.019455791103 -0.26392542324 -0.96431322192 0.021056614094 
-0.26437344547 -0.96415118378 0.022785436997 -0.26184823118 -0.96479441174 0.02464238012 -0.25727286997 -0.96597197799 0.026623450436 
-0.25113697393 -0.96752521481 0.028725929508 -0.24388463951 -0.96931036337 0.030946761938 -0.23611186996 -0.97115577094 0.033281427898 
-0.22822329223 -0.9729531276 0.035725906129 -0.2204928068 -0.97463729964 0.038276053954 -0.21318917276 -0.9761533415 0.040927136435 
-0.20668707671 -0.97743187999 0.04367347359 -0.2010086373 -0.97848473116 0.046509769165 -0.19641967978 -0.97927323107 0.049429225237 
-0.19296738881 -0.97980367225 0.052424714609 -0.19073847136 -0.98007135751 0.0554884648 -0.18981980455 -0.98006790114 0.058611867005 
-0.1902340508 -0.97979262502 0.061785256072 -0.1919960455 -0.97924085255 0.064999009362 -0.19514742115 -0.97839685407 0.068242801554 
-0.19965259112 -0.97725419003 0.071505880348 -0.20555714865 -0.97578410941 0.074777205548 -0.21287211128 -0.97395807629 0.078045690916 
-0.22157317539 -0.97174874792 0.081300054476 -0.23166971383 -0.96911510486 0.084528440332 -0.24320144141 -0.96600123907 0.087719239638 
-0.25610457653 -0.96236931532 0.090861140287 -0.27045858106 -0.95813730329 0.093941811648 -0.28618974013 -0.95325554099 0.096950019134 
-0.30329021749 -0.94764988315 0.099873634824 -0.32176680576 -0.94123257125 0.10270038718 -0.34149839076 -0.93395153729 0.10541999384 
-0.3625067853 -0.92570007108 0.10801948439 -0.38460648123 -0.91644415346 0.11048967456 -0.40767325462 -0.90613120726 0.11282177404 
-0.4316407304 -0.89468427505 0.11500577306 -0.45623909566 -0.88212693087 0.11703830752 -0.48126542251 -0.86847122607 0.118917293 
-0.5065764001 -0.85371326465 0.12064001256 -0.53188180418 -0.83795337667 0.12221245805 -0.55694674647 -0.82129331086 0.12364311199 
-0.58167263884 -0.8037710311 0.12493626689 -0.60568227041 -0.78564859632 0.12611609894 -0.62897766382 -0.76694868055 0.12718812762 
-0.65142815018 -0.7478063753 0.1281678205 -0.67276464777 -0.72850845083 0.12908588527 -0.69298797905 -0.70913974509 0.12995569564 
-0.71218972455 -0.68969703262 0.13078149504 -0.7302669619 -0.67036954223 0.13158587007 -0.74714095305 -0.65134686858 0.13239204307 
-0.76296877974 -0.63256409717 0.13319648686 -0.77772893441 -0.61414806854 0.13401438166 -0.7915142338 -0.59608882929 0.1348455609 
-0.80452636468 -0.57821361539 0.13566998011 -0.81650099568 -0.56096725887 0.1365351915 -0.82797351581 -0.54368331836 0.13736195417 
-0.83867081924 -0.52681402291 0.13819639005 -0.8489274934 -0.50990875303 0.13897904352 -0.85882867391 -0.4928499163 0.13968632314 
-0.86835334375 -0.47568329277 0.14031348965 -0.87777817767 -0.45791289933 0.14078795201 -0.88725732793 -0.43918007636 0.14105068084 
-0.89662832575 -0.41969585598 0.14111354981 -0.90637095453 -0.39832535936 0.14081406492 -0.9160983332 -0.3756401439 0.14020815312 
-0.92642386041 -0.34986736592 0.13903832969 -0.93682892426 -0.32168481938 0.13736973336 -0.94753873236 -0.28973979009 0.13498594268 
-0.95819812617 -0.25392181173 0.13183347271 -0.9686122639 -0.21325284883 0.12772433082 -0.97807248655 -0.1682897294 0.12268976337 
-0.98624737198 -0.11732872054 0.116404865 -0.99222176518 -0.060479882659 0.10880327427 -0.99496731771 -0.00011037301537 0.10019992268 
-0.99376334127 0.065531930533 0.090221880028 -0.98785876962 0.13359411144 0.079294796055 -0.97664954943 0.20400096832 0.067374049356 
-0.96022567201 0.27375577918 0.054994837708 -0.93878903903 0.34187917165 0.042352947756 -0.91247568455 0.40806462063 0.029519324176 
-0.88310614374 0.46885448111 0.017292033808 -0.85034923591 0.52619204102 0.0053021653828 -0.8162567002 0.57766019101 -0.0058054378775 
-0.7809471451 0.62438673506 -0.016209923959 -0.74477389811 0.66681229173 -0.025946257809 -0.70883090848 0.70451856042 -0.034818690628 
-0.6725202664 0.73882152296 -0.043119003986 -0.63726729763 0.76898256241 -0.05055897623 -0.60141701678 0.79685302217 -0.057644019613 
-0.5670677202 0.82118707177 -0.063921779242 -0.53263794006 0.84345775994 -0.069827158078 -0.49843004784 0.86365124722 -0.075326028678 
-0.46513693406 0.88158834779 -0.080309511337 -0.4311022575 0.89827675007 -0.085145310245 -0.39785634691 0.91306722386 -0.089546479165 
-0.36483087395 0.92635194329 -0.093651004131 -0.3312569444 0.9384777116 -0.097613634351 -0.29749887291 0.94932488556 -0.10137397235 
-0.26462929644 0.95864288844 -0.10476234011 -0.23124951822 0.96687828063 -0.10802800919 -0.19786882944 0.97391290741 -0.11109264204 
-0.16476249856 0.97973214807 -0.1139220659 -0.13196921918 0.98438179784 -0.11651867348 -0.098768178027 0.98797022593 -0.11899445235 
-0.066818427167 0.99038630926 -0.12112083312 -0.034225424723 0.99179528473 -0.12316953149 -0.0030288298302 0.99216822261 -0.12487211155 
0.028176842876 0.99157610098 -0.12642350054 0.058983592127 0.99004742322 -0.1277772892 0.089701894411 0.98758218373 -0.12897674411 
0.1197161339 0.98426622906 -0.12995398268 0.14952843418 0.98007116103 -0.13077372321 0.1788507504 0.97506080864 -0.13141091486 
0.20795253528 0.96920477765 -0.13190087964 0.2367570546 0.96252731679 -0.13223940988 0.26544114432 0.95498588332 -0.13244984548 
0.29369339167 0.94667151406 -0.13250372133 0.32137742347 0.93765042752 -0.1323942123 0.34906353109 0.92773018143 -0.13217927873 
0.37553549494 0.91739493629 -0.13175592175 0.40227421216 0.90606140515 -0.13125619349 0.42716612551 0.89470445136 -0.13051071194 
0.45143161412 0.88283994626 -0.12962687631 0.47464429661 0.87073564289 -0.12857772707 0.49693025716 0.85839093414 -0.12737866267 
0.51744328216 0.84639338101 -0.12597894398 0.5371559542 0.83425113407 -0.12445290741 0.55495153901 0.82277903882 -0.12273321731 
0.57141759718 0.81170995015 -0.12086722659 0.58651348897 0.80117085482 -0.11885785059 0.60024599074 0.791254444 -0.11670970587 
0.61255318432 0.78210315979 -0.11442571316 0.62307819357 0.77410048724 -0.11199107269 0.63276852691 0.76656525391 -0.10946096496 
0.64121713792 0.75988877732 -0.10681586087 0.6484256173 0.75413269488 -0.10405814407 0.65468532092 0.74909598088 -0.1012044565 
0.65936256809 0.74538094084 -0.098225540628 0.66386948115 0.74176513473 -0.095193470851 0.66733388335 0.73904626928 -0.092065737356 
0.66970641778 0.73729268111 -0.088841523936 0.67127915677 0.73625239765 -0.085537714739 0.67318467932 0.73489010598 -0.082212649022 
0.67367457051 0.73481671179 -0.078784345679 0.67423411697 0.73466597942 -0.075327645664 0.67404892392 0.73518811737 -0.071808636259 
0.67416984359 0.7354131467 -0.06828268935 0.67398938189 0.73590009061 -0.064725340862 0.67425391857 0.73596128637 -0.061177105714 
0.67433016001 0.73617909356 -0.057612303467 0.67535150329 0.73550956489 -0.054092762628 0.67687367677 0.73435804241 -0.050599320601 
0.67904936607 0.73257752114 -0.047139515948 0.68286865387 0.72922926969 -0.043761555932 0.68727536612 0.72527203738 -0.040410925747 
0.6933545031 0.71963924584 -0.037133392983 0.70088660679 0.71246617968 -0.033910282189 0.70931389655 0.70422391011 -0.030699846694 
0.71910745749 0.69435428694 -0.027506159053 0.72969636527 0.68334009427 -0.024280240318 0.74096411334 0.6712165529 -0.020988612242 
0.75239875848 0.65847339767 -0.017575346481 0.76343799704 0.6457299557 -0.013973152194 0.77369161737 0.63348155774 -0.010119151175 
0.78376449955 0.62102916325 -0.0059989707452 0.79214944275 0.61032538045 -0.0014799762311 0.79945709313 0.60071319964 0.00346525959 
0.80578115782 0.59214664593 0.0088924359853 0.81038178242 0.58571253637 0.014906087837 0.81409339176 0.58033499204 0.021523161975 
0.81711415549 0.57575623985 0.0287959923 0.81897330175 0.57264990336 0.036807868833 0.82004194524 0.57048486608 0.045587560013 
0.82090140547 0.56840157701 0.055140998837 0.82089190307 0.56731212017 0.065524360204 0.82047194242 0.56651663278 0.076711775434 
0.81959336133 0.56604168208 0.088676582063 0.81867306826 0.56524880621 0.10133209942 0.81700259652 0.56512773907 0.11461847937 
0.81549354558 0.56435843043 0.12833487103 0.81343230096 0.56397759852 0.14232765058 0.81132188308 0.56330873667 0.15633319936 
0.80917751171 0.56241434051 0.17006429411 0.80690412352 0.56154862394 0.18321811699 0.80452089592 0.56084248374 0.19545290086 
0.80250459644 0.55980961299 0.20639663246 0.8004772193 0.55918456782 0.21575180299 0.79881841257 0.55863577826 0.22319321448 
0.79832155769 0.55723023258 0.22842320029 0.79832155769 0.55723023258 0.22842320029 
BinormalArray 3 215 double
0.77018396702 0.63781277463 -0.0033943287577 0.77018396702 0.63781277463 -0.0033943287577 0.76869742251 0.63960355356 -0.0034010143906 
0.77331291708 0.63401554473 -0.0033795427591 0.78072155204 0.62487013454 -0.0033426249247 0.79251974348 0.60983744704 -0.0032778617227 
0.80781003469 0.58943431877 -0.0031830353047 0.82684785865 0.56241740355 -0.003046772945 0.84885238678 0.52862220678 -0.0028614616179 
0.87317065161 0.48740760108 -0.0026160241188 0.89836887386 0.43923575868 -0.0023053791272 0.92350151018 0.38358999094 -0.0019182157216 
0.94683834883 0.32170642359 -0.0014554070563 0.96702523236 0.25467892874 -0.00091827467577 0.98270753608 0.18516423635 -0.00032266144535 
0.99330094829 0.11555573228 0.00031441969 0.99884840196 0.04796789194 0.00097531789553 0.99989189791 -0.014612863862 0.0016299392114 
0.9974785056 -0.070933184071 0.0022614742124 0.9928110021 -0.1196586785 0.0028486438567 0.98703181798 -0.16048917091 0.0033788023282 
0.98104995932 -0.19371679048 0.003844787966 0.97560698653 -0.21948363385 0.0042358362613 0.97109951427 -0.23863156573 0.0045507375825 
0.96777117929 -0.25178571293 0.0047853215094 0.96557310263 -0.26008483671 0.0049458258949 0.96454282763 -0.26387853164 0.005025355741 
0.96441967919 -0.26432806419 0.0050355615283 0.96510764759 -0.26180620984 0.0049736350398 0.96633638015 -0.25723618383 0.0048524355051 
0.96794782658 -0.25110780331 0.0046771939925 0.96979887322 -0.24386534165 0.0044542838738 0.97171852221 -0.23610483542 0.0041976531166 
0.97359913807 -0.22823094551 0.0039183989476 0.97537625761 -0.22051759922 0.0036255381282 0.97699559116 -0.21323350103 0.0033299990188 
0.97838840085 -0.20675308331 0.0030495293634 0.97956707221 -0.20109841584 0.0027889402549 0.98049346545 -0.19653494059 0.0025654097786 
0.98117429022 -0.19310958698 0.0023873909443 0.98160518677 -0.19090867305 0.0022662447893 0.98177799632 -0.19001858375 0.0022144459737 
0.98169210803 -0.19046149229 0.0022416488795 0.98134282027 -0.19225168755 0.0023574874873 0.98071425193 -0.19543011959 0.0025737946104 
0.97979965117 -0.19996061609 0.0028975130547 0.97856987273 -0.205887928 0.0033414504907 0.97699587441 -0.2132222406 0.0039163111764 
0.97504968108 -0.22193846264 0.0046301421879 0.97268953332 -0.23204501994 0.0054936774979 0.96985876198 -0.24358050964 0.0065205165181 
0.96651864761 -0.25648036852 0.0077152048655 0.96258629013 -0.27082264984 0.0090954046314 0.95801106585 -0.28653283556 0.010664513625 
0.95271784366 -0.30360196776 0.012432037133 0.94661790074 -0.3220355988 0.014409132636 0.9396581979 -0.34171206959 0.016593149727 
0.93173106607 -0.36265182465 0.01899669934 0.92280150226 -0.38466928322 0.02160856249 0.91281609279 -0.40763989588 0.024423268115 
0.90169708172 -0.43149661193 0.027441696489 0.88946732825 -0.45597058855 0.030638119219 0.87613839425 -0.48085963555 0.033993014267 
0.86170595219 -0.50602086405 0.03749316068 0.84627015003 -0.53116604377 0.041103127723 0.82993283743 -0.55606217573 0.044792210027 
0.81273209797 -0.58061146529 0.048547536459 0.79493067845 -0.60444083239 0.05231153413 0.77655166517 -0.62755261997 0.056082265449 
0.75773083653 -0.64981816958 0.059835824161 0.73875617025 -0.67097262447 0.063522107414 0.71971334447 -0.69101789537 0.067133971006 
0.70059965515 -0.71004533188 0.070680618829 0.68160534124 -0.72795472903 0.074135492633 0.66292102616 -0.7446700609 0.077473953524 
0.64448188489 -0.76034720775 0.080716935742 0.62641529559 -0.77496644843 0.083850350382 0.60871121639 -0.78862024123 0.086883658729 
0.59119591759 -0.80150728496 0.089852430004 0.57431536203 -0.81337012508 0.092687132732 0.55739975247 -0.8247329122 0.09550465686 
0.54090196413 -0.83532953915 0.098232511049 0.52436827001 -0.84548646983 0.10094823789 0.50767890977 -0.85528608487 0.10367177821 
0.49087802035 -0.86470730543 0.10639570042 0.47346547133 -0.87401715406 0.10919918441 0.45507871404 -0.88336231892 0.11213553199 
0.43592728357 -0.89258298003 0.11516521694 0.41486853426 -0.90213727459 0.11845858804 0.39247382041 -0.91164777785 0.12191238429 
0.3669584835 -0.92169455205 0.12578006242 0.33899988523 -0.93177126818 0.1299283711 0.30723383255 -0.94207834767 0.13452047799 
0.27154374153 -0.95225975443 0.13951830179 0.2309388482 -0.96210467438 0.14498911659 0.18597189494 -0.97091786556 0.15077450919 
0.13491737253 -0.97834119055 0.1569898642 0.077873343722 -0.98346766868 0.16348421026 0.017215839175 -0.9853169781 0.16986485083 
-0.048835683746 -0.9831439824 0.17619019799 -0.11741097661 -0.97625296709 0.18205715263 -0.18844332017 -0.9640461561 0.18736094575 
-0.25890429156 -0.94666592416 0.19181291889 -0.32780093317 -0.92433052692 0.19534488788 -0.3948209396 -0.89718085115 0.19794682613 
-0.45644203558 -0.86708661721 0.19955316689 -0.51463111127 -0.83368470426 0.20031134066 -0.56691256447 -0.79905692825 0.2002952063 
-0.61442239101 -0.76330139145 0.19963995399 -0.6575989922 -0.72676167748 0.19844654092 -0.69600119901 -0.69053315445 0.19684078234 
-0.73096730843 -0.65399805159 0.19486749994 -0.7617275639 -0.61858752056 0.19266706463 -0.79017881771 -0.58262208687 0.19018133435 
-0.81502833727 -0.54821224892 0.18759568115 -0.8377900332 -0.51375757659 0.18482698061 -0.85844547872 -0.47955908438 0.18191878588 
-0.87680275704 -0.44630998953 0.17895339755 -0.89390717153 -0.41234201286 0.17579542974 -0.90907859735 -0.37919130139 0.1725979745 
-0.92272315171 -0.34628402437 0.16932028749 -0.93520436195 -0.31284681188 0.16589054734 -0.94639603761 -0.2792446095 0.16234835405 
-0.95602809099 -0.24655177874 0.15881596154 -0.96457493902 -0.21336413693 0.15514809725 -0.97190959539 -0.18019157861 0.15140255409 
-0.9780132431 -0.1473089419 0.1476149449 -0.98293155896 -0.11475414738 0.14379511833 -0.9867862408 -0.081804558768 0.13986039155 
-0.98943822453 -0.050120355493 0.13601452056 -0.99108562276 -0.017804154108 0.13203143736 -0.99166604179 0.013103510111 0.12816692076 
-0.99127428262 0.044010015006 0.1242514193 -0.98993289337 0.074507914959 0.12033884343 -0.98764731599 0.1049083813 0.11639162662 
-0.9844943649 0.13459646115 0.1124928359 -0.98045389552 0.16407494295 0.10857979492 -0.9755862046 0.19305680934 0.10469300722 
-0.96986548999 0.22181213345 0.10079835706 -0.96331535075 0.25026479247 0.096907526293 -0.95589639332 0.27859225434 0.092996994862 
-0.94769562739 0.30648375058 0.089110652856 -0.93877797883 0.33380379527 0.085269764439 -0.9289592216 0.36112276736 0.081394787868 
-0.91870801128 0.38722658343 0.077660563336 -0.90746051489 0.41359466404 0.073857076815 -0.89616536676 0.43811715751 0.070292188093 
-0.88435408332 0.46201330879 0.066794893604 -0.87228966217 0.48485797712 0.063430964763 -0.85997336593 0.50677750437 0.060186135852 
-0.84798356254 0.52692791682 0.057191329148 -0.83583990299 0.5462804726 0.054307474845 -0.82434536361 0.56372089157 0.051705685401 
-0.81323989877 0.57983618624 0.049303794804 -0.80265061455 0.59458599679 0.047111393376 -0.79267081786 0.60797715966 0.045130342778 
-0.78344314505 0.61994817376 0.043371653352 -0.77534853946 0.63014284898 0.041888330517 -0.7677154116 0.63950713122 0.040542273171 
-0.76093216102 0.64763463546 0.039390674902 -0.75506133335 0.65452690212 0.038430681453 -0.74990518669 0.66047487574 0.037618472716 
-0.74606213289 0.66484561148 0.037035209815 -0.7423212529 0.66904988966 0.036488390454 -0.73947470013 0.67221635396 0.036087966632 
-0.73759156037 0.67429568733 0.035833170746 -0.736422812 0.67557996896 0.035681192732 -0.73494055745 0.67720188475 0.035496257658 
-0.73474657424 0.67741356117 0.035473071229 -0.73448331776 0.67770056182 0.035442974434 -0.73489764587 0.67724887514 0.035488184238 
-0.73502482841 0.67711014789 0.03550139781 -0.73542162669 0.67667710255 0.035540538654 -0.73540340508 0.67669699485 0.035538837401 
-0.73555040828 0.67653652349 0.035551782952 -0.73482219466 0.67733056443 0.035491530185 -0.73362242602 0.67863471046 0.035398669517 
-0.73180413153 0.68060187066 0.035267644335 -0.72843017259 0.68422328578 0.035042529234 -0.72445656887 0.68844153292 0.034798499576 
-0.71881805226 0.69434257064 0.034481913294 -0.71164889908 0.70170641603 0.034116713631 -0.70341908505 0.70997409949 0.033739721893 
-0.69357076041 0.71961666808 0.033338436106 -0.68258627245 0.73006202414 0.032945736684 -0.67050122114 0.74119300882 0.032573549537 
-0.65780600913 0.7524968364 0.03224539611 -0.64512137635 0.76341052639 0.031980900077 -0.63294486639 0.77354393945 0.031789461419 
-0.62058011565 0.78350361691 0.031660738264 -0.60998400424 0.79178301616 0.031609648609 -0.60050401033 0.79899628818 0.031620642825 
-0.59209976816 0.80524155248 0.031684486865 -0.58586567309 0.80978498742 0.031775576149 -0.58073311644 0.81346915925 0.031890036194 
-0.57645355136 0.81650225277 0.032021466999 -0.5737118283 0.81842674439 0.032131015223 -0.57198843085 0.81962874177 0.032217396654 
-0.57043659808 0.82070579055 0.03231242687 -0.56998247044 0.82101993677 0.032345738888 -0.56993989549 0.8210493471 0.032349422777 
-0.57034815363 0.82076741989 0.032308297614 -0.57057997807 0.82060733484 0.032281428769 -0.57162906275 0.8198823357 0.032142965566 
-0.57217822758 0.81950238161 0.032061229016 -0.57325005142 0.81875994615 0.031883053891 -0.57415076389 0.81813501947 0.031717349285 
-0.57490833771 0.81760875762 0.031564579643 -0.57572798979 0.81703871091 0.031385134085 -0.57667801507 0.81637701419 0.031161476776 
-0.5772087642 0.81600690915 0.031028482847 -0.57797049052 0.81547518819 0.03082741519 -0.57856266501 0.81506130608 0.030664474287 
-0.57800551325 0.81545055264 0.030822440881 -0.57800551325 0.81545055264 0.030822440881 
