# vtk DataFile Version 4.1
vtk output
ASCII
DATASET POLYDATA
POINTS 130 float
-2.87697 7.44969 152.55 -2.19343 7.40022 149.891 -1.50874 7.35054 147.231 
-0.819472 7.30004 144.561 -0.122244 7.2481 141.876 0.586241 7.19413 139.168 
1.30912 7.13756 136.431 2.04931 7.07783 133.659 2.80947 7.01444 130.847 
3.59195 6.94693 127.989 4.3987 6.87488 125.081 5.23129 6.79792 122.118 
6.09084 6.7157 119.097 6.97796 6.62794 116.015 7.89277 6.5344 112.871 
8.83488 6.43482 109.663 9.80333 6.32902 106.391 10.7967 6.21677 103.056 
11.8128 6.09789 99.6577 12.8494 5.97216 96.1991 13.9032 5.83933 92.6826 
14.971 5.69915 89.1115 16.0488 5.5513 85.4898 17.1326 5.39543 81.8219 
18.2177 5.23116 78.1127 19.2997 5.05805 74.3676 20.3735 4.87564 70.5921 
21.4344 4.68344 66.7921 22.4775 4.48094 62.9736 23.498 4.26765 59.1424 
24.4911 4.04308 55.3046 25.4525 3.80679 51.4661 26.378 3.55843 47.6326 
27.2635 3.29772 43.8096 28.1057 3.02448 40.0023 28.9013 2.73868 36.2157 
29.6475 2.44044 32.4544 30.3419 2.13005 28.7228 30.9826 1.80797 25.0247 
31.5679 1.47486 21.3636 32.0967 1.13156 17.7425 32.5682 0.779073 14.1642 
32.982 0.418601 10.6308 33.3379 0.051489 7.14399 33.6361 -0.320781 3.70497 
33.8771 -0.696616 0.314456 34.0618 -1.07434 -3.02732 34.1912 -1.45222 -6.32063 
34.2666 -1.82851 -9.56621 34.2895 -2.20147 -12.7652 34.2617 -2.56939 -15.9193 
34.1852 -2.93065 -19.0304 34.0621 -3.28371 -22.1006 33.8948 -3.62715 -25.1324 
33.6858 -3.9597 -28.1283 33.4378 -4.28022 -31.0907 33.1537 -4.58774 -34.022 
32.8364 -4.88147 -36.9244 32.4889 -5.16077 -39.7997 32.1146 -5.42519 -42.6493 
31.7166 -5.67443 -45.4741 31.2981 -5.90836 -48.2745 30.8626 -6.12698 -51.0503 
30.4133 -6.33047 -53.8004 29.9535 -6.51912 -56.5236 29.4863 -6.69334 -59.2176 
29.0149 -6.85367 -61.8798 28.5421 -7.00073 -64.5074 28.0708 -7.13524 -67.0968 
27.6037 -7.25801 -69.6444 27.1432 -7.3699 -72.1464 26.6916 -7.47183 -74.5992 
26.2508 -7.56478 -76.9991 25.8226 -7.64974 -79.3428 25.4086 -7.72774 -81.6272 
25.0102 -7.79983 -83.8498 24.6283 -7.86702 -86.0086 24.2639 -7.93035 -88.1022 
23.9175 -7.99082 -90.13 23.5897 -8.04939 -92.0918 23.2807 -8.10699 -93.9884 
22.9906 -8.1645 -95.8211 22.7193 -8.22275 -97.592 22.4668 -8.28249 -99.3039 
22.2327 -8.34442 -100.96 22.0168 -8.40917 -102.564 21.8185 -8.4773 -104.121 
21.6377 -8.54931 -105.636 21.4737 -8.62562 -107.113 21.3261 -8.70658 -108.559 
21.1946 -8.79247 -109.98 21.0785 -8.88351 -111.381 20.9777 -8.97984 -112.77 
20.8915 -9.08155 -114.152 20.8198 -9.18865 -115.535 20.7621 -9.30106 -116.924 
20.7182 -9.41868 -118.327 20.6878 -9.54128 -119.748 20.6706 -9.66858 -121.196 
20.6664 -9.80025 -122.674 20.6752 -9.93585 -124.189 20.6966 -10.0749 -125.746 
20.7305 -10.2167 -127.349 20.7768 -10.3608 -129.002 20.8353 -10.5064 -130.708 
20.906 -10.6527 -132.471 20.9886 -10.799 -134.293 21.0831 -10.9443 -136.175 
21.1894 -11.0879 -138.117 21.3071 -11.2287 -140.121 21.4363 -11.366 -142.185 
21.5767 -11.499 -144.309 21.7282 -11.6267 -146.491 21.8904 -11.7485 -148.728 
22.0632 -11.8637 -151.019 22.2462 -11.9716 -153.359 22.4392 -12.072 -155.745 
22.6418 -12.1642 -158.173 22.8537 -12.2483 -160.64 23.0743 -12.324 -163.142 
23.3031 -12.3915 -165.674 23.5398 -12.4509 -168.232 23.7836 -12.5026 -170.814 
24.0339 -12.5471 -173.414 24.2901 -12.5851 -176.031 24.5513 -12.6171 -178.66 
24.8168 -12.6442 -181.299 25.0857 -12.6673 -183.945 25.3571 -12.6873 -186.597 
25.6301 -12.7054 -189.251 
LINES 1 131
130 129 128 127 126 125 124 123 122 121 120 119 118 117 116 115 114 113 112 111 110 109 108 107 106 105 104 103 102 101 100 99 98 97 96 95 94 93 92 91 90 89 88 87 86 85 84 83 82 81 80 79 78 77 76 75 74 73 72 71 70 69 68 67 66 65 64 63 62 61 60 59 58 57 56 55 54 53 52 51 50 49 48 47 46 45 44 43 42 41 40 39 38 37 36 35 34 33 32 31 30 29 28 27 26 25 24 23 22 21 20 19 18 17 16 15 14 13 12 11 10 9 8 7 6 5 4 3 2 1 0 

CELL_DATA 1
FIELD FieldData 2
LengthArray 1 1 double
348.45149157 
TortuosityArray 1 1 double
0.014180575222 
POINT_DATA 130
FIELD FieldData 8
RadiusArray 1 130 double
81.618968584 81.470188722 81.006309953 80.137044265 79.764052498 79.741381727 78.759789516 78.479285149 77.747076987 
77.710448746 77.515538417 76.78357065 76.358709454 75.678925654 75.660337618 74.209740425 73.006180401 72.11766225 
71.006492484 70.980170008 70.91536592 69.540174016 69.108520335 67.150844615 67.135806843 65.286087311 65.211694344 
64.727410271 64.053837503 62.932858898 62.517747587 62.004735496 61.938336174 60.811880077 60.81102504 60.650134827 
59.735109358 59.164408984 57.997027734 57.483624323 56.586965474 56.23742927 56.014512713 55.446296717 55.411799024 
54.469821425 53.632840295 53.220156148 52.779577187 52.470608178 52.277932562 52.05169362 51.678988428 51.618227751 
51.500434671 51.454399797 51.308337047 51.307814084 51.375523343 51.521351528 51.553001468 52.015956872 52.075193954 
52.969896389 54.350101348 54.804913231 55.176147578 55.564254053 55.590284317 55.701304398 56.06269609 56.215429933 
56.542308851 56.843136495 56.855339838 56.988708433 57.137986814 57.173734112 57.264344545 57.321602737 57.560238804 
57.568511044 57.712454291 57.759209053 57.827759231 57.959201459 58.099895535 58.110744432 58.030793168 58.022136127 
58.001063455 57.997632509 57.987777272 57.980667044 57.940280033 57.911455967 57.854165346 57.820614824 57.721573815 
57.574360411 57.562907796 57.43585707 57.269149999 57.231793772 57.088897174 56.90714733 56.889360776 56.809916251 
56.488134921 56.262064901 55.991446972 55.828702449 55.472801545 54.631348053 53.933121268 53.466842827 53.280649091 
52.809503978 52.79387221 52.020680617 51.488856575 50.762967224 50.519779302 50.130081419 49.734342128 49.617864749 
49.406524567 49.37994693 49.226140756 47.549509924 
EdgeArray 2 130 int
29997 29997 30839 30944 30827 30827 30295 30528 30297 
29193 29413 30297 26733 21846 28636 29660 29799 24872 
28009 29799 29399 29415 23735 29080 28703 28703 28576 
28576 29406 28921 26886 26886 25365 25365 28159 28159 
27767 11763 27767 28481 28483 28483 28150 28150 28154 
28154 20390 20390 25731 27264 26777 26777 23597 23597 
23272 23272 26146 26146 24871 24871 24862 24862 23967 
23967 24439 24439 19422 4494 4494 22455 23374 23374 
23232 23232 18289 18289 17740 17740 20479 20479 21887 
21887 21886 21886 13710 13710 8250 8250 1081 14066 
18731 18731 18297 17252 17252 21409 19989 9068 14925 
17270 14925 15814 21393 21393 20953 20953 20433 17220 
20979 17234 20978 20978 18910 18910 15911 20957 20958 
20958 20948 20948 11985 11985 18912 18912 18768 19212 
20423 20423 15397 15397 14772 9954 18836 18836 18322 
18322 18822 18321 12854 17164 17167 17167 17214 17214 
14404 14404 15829 15829 17792 17792 16879 17537 17539 
13202 15823 14260 12388 13206 13707 13075 12934 16331 
13515 13081 13523 14261 13523 13207 13207 13979 14272 
13516 14269 14269 14222 13870 13869 13869 13520 14218 
13082 14228 14226 14228 14226 14227 14215 14227 13522 
16277 14208 15201 14656 15201 14656 14656 16828 16828 
17504 17504 15647 17507 14658 14658 15105 15105 16255 
16255 11749 11749 11752 11091 11752 11751 9773 11751 
9773 11346 11347 11347 10663 10663 10535 10535 10531 
10531 9585 9585 7515 7515 8288 8288 10105 10105 
10519 10519 10520 7547 9586 9586 10489 10489 9185 
9185 9565 9565 9578 9578 9570 11718 10512 11719 
11715 10099 10099 12171 8340 8340 10094 10094 
EdgePCoordArray 1 130 double
0 0.26 0 0.468 0.312 0.676 0.604 0.308 0.092 
0.936 0.124 0.852 0 0 0.004 0 0 0 
0.012 0.22 0 0 0 0 0.948 0 0 
0 0 0 0 0 0 0.952 0.052 0 
0 0 0 0 0 0 0 0 0.976 
0 0.088 0.832 0.78 0.584 0.712 0 0 0.952 
0.192 0 0 0.108 0 0 0 0 0.992 
0 0 0.412 0 0 0.972 0.896 0 0 
0 0 0 0.544 0.344 0.712 0.948 0.936 0.908 
0.848 0.524 0.408 0.62 0.384 0 0.688 0 0.108 
0.716 0.552 0.672 0.728 0.296 0.768 0.416 0 0 
0 0.72 0 0 0 0 0.056 0.176 0.928 
0.744 0 0 0 0 0 0 0 0 
0 0.004 0 0 0 0 0 0.812 0.864 
0.8 0.124 0 0 
CurvatureArray 1 130 double
0 7.5066582389e-05 0.00029734251322 0.00050997390724 0.00070236855601 0.000867500336 0.0010003140633 0.0010967185298 0.001154174748 
0.0011754842573 0.0011620477383 0.0011168004372 0.0010455560807 0.00095237305899 0.00084292237498 0.00072314054962 0.00060053168131 0.00048603217068 
0.00040005295472 0.00037241666085 0.00042129960429 0.00052915089247 0.0006701692684 0.00082948286326 0.00099847008014 0.0011750293467 0.0013561514979 
0.0015413111244 0.0017293077888 0.0019198336991 0.0021119022657 0.0023049730077 0.0024986351918 0.002691364744 0.0028829920996 0.0030726068873 
0.0032588607194 0.0034415781178 0.0036196616441 0.0037923155233 0.0039588627541 0.0041184185812 0.0042700787889 0.0044131841047 0.0045449221988 
0.0046642490027 0.0047689211042 0.0048549966103 0.0049206667536 0.0049612277223 0.0049738295769 0.0049540939657 0.0049005983611 0.0048117729453 
0.0046859691742 0.004526172322 0.004333922821 0.0041151027148 0.0038733259909 0.0036154373971 0.0033487217997 0.0030792181802 0.00281205765 
0.0025537923765 0.0023075373601 0.0020773250705 0.0018648541826 0.0016727979702 0.0015015707052 0.001353730381 0.0012312961315 0.0011384780195 
0.0010803509742 0.0010649028014 0.0010977992657 0.0011848264001 0.0013282598043 0.001526912043 0.0017794748374 0.0020884587693 0.0024497197671 
0.0028654683304 0.0033324774607 0.0038460884549 0.0043986936887 0.0049781577672 0.0055702954741 0.0061489707499 0.0066935782407 0.0071734943346 
0.0075630679279 0.0078345596096 0.0079726393045 0.0079676226639 0.0078205227627 0.0075446085988 0.0071636510311 0.0067031016312 0.0061955664977 
0.0056745613722 0.0051620293993 0.0046835160113 0.0042526463988 0.0038763260402 0.0035551550067 0.0032890976004 0.0030695838302 0.0028887964283 
0.0027390410697 0.0026120860689 0.0025024762238 0.0024036828448 0.0023121293459 0.0022247734016 0.002139331709 0.0020530840089 0.0019649723241 
0.001872812819 0.0017761999565 0.0016728572525 0.001561919832 0.0014425849293 0.0013134259786 0.0011741621737 0.0010244723737 0.00086372796856 
0.00069331746308 0.00051326258925 0.00032553441963 0 
TorsionArray 1 130 double
0 0 0.0001283373805 0.00035766177957 0.00064547382387 0.00090066476762 0.0012646214419 0.0017970328605 0.0024587345232 
0.0033310739614 0.0045731732957 0.0063093752678 0.0087932720009 0.01249517901 0.018190538321 0.027403677541 0.042981407103 0.069234802149 
0.10565540214 0.12372871416 0.096239893635 0.059773767779 0.036027062279 0.022307998659 0.014420523257 0.0096505951838 0.0066370901963 
0.0046898397142 0.0034175710925 0.0025869021037 0.0020696022583 0.0017994395057 0.0016918962811 0.0017280308983 0.0018960406274 0.0021616664823 
0.0025201329034 0.0029715178056 0.0034964652618 0.004090154254 0.0047486847809 0.0054556435219 0.0062050737735 0.0069735189938 0.0077514609513 
0.0085310096033 0.0092892666653 0.010024160845 0.010726348879 0.01139540025 0.012034297354 0.012657951471 0.013272451022 0.013904377516 
0.014573504256 0.015304058462 0.016126440448 0.017064349572 0.018181740922 0.01947610606 0.021000294174 0.022845924662 0.02503095788 
0.027604093944 0.030761481742 0.034546581292 0.039126045917 0.044805525358 0.051925303068 0.060375535497 0.070668786311 0.082104121393 
0.093076825752 0.1007652801 0.1023346935 0.097323092887 0.087314537089 0.075279920994 0.063431526686 0.052557870103 0.043062176084 
0.034728368843 0.027547683541 0.021112528959 0.015356149208 0.010152953258 0.0053388663832 0.00078884412886 -0.0034565904011 -0.0075074776158 
-0.011382807895 -0.015248031099 -0.019106835662 -0.022953296856 -0.026843682568 -0.030880326483 -0.035067449066 -0.039159436475 -0.043352381185 
-0.047384493646 -0.050860343289 -0.053582759815 -0.055159855664 -0.055202687515 -0.053633265493 -0.050498116144 -0.046137508502 -0.040858895548 
-0.035288846418 -0.029690031772 -0.024398541324 -0.019674332227 -0.015566236268 -0.011914258259 -0.0088616874259 -0.0064019502569 -0.0043245909535 
-0.0026112350974 -0.001190912442 -0.00014990459838 0.00065089461984 0.0012181212125 0.0015843023567 0.0019460707073 0.0019464514564 0.0018634987578 
0.001849219816 0.0014081580654 0 0 
TangentArray 3 130 double
-0.2490933862 0.018050291927 0.96831124744 -0.2490933862 0.018050291927 0.96831124744 -0.24956888408 0.018196639773 0.96818606394 
-0.25060299913 0.018515416727 0.967912866 -0.25216447667 0.018998425117 0.96749787418 -0.25420179796 0.019632890495 0.96695190962 
-0.25664898743 0.020402347156 0.96628931562 -0.25942744036 0.021287828037 0.96552795483 -0.26244718413 0.022268811826 0.96468936739 
-0.26561461466 0.023324936633 0.96379708643 -0.26883646218 0.024437432007 0.96287578042 -0.2720189881 0.025589500859 0.96195158275 
-0.27507378735 0.026767852364 0.96105041158 -0.27791912427 0.027963219072 0.9601973853 -0.28047949436 0.029170277086 0.95941667078 
-0.28268739093 0.030388024254 0.95873062275 -0.28448289312 0.03161972846 0.95815952549 -0.28581277791 0.032872492592 0.95772149147 
-0.28663122508 0.034156823957 0.95743190472 -0.28689815182 0.035486260776 0.95730359645 -0.28657843197 0.036876778734 0.95734680525 
-0.28564250273 0.038346216796 0.95756875904 -0.28406444122 0.039913559731 0.95797406071 -0.28182083343 0.041598190684 0.95856486916 
-0.27889364168 0.043419341464 0.95933992798 -0.27526758488 0.045395342346 0.9602952773 -0.27092969697 0.047542844563 0.96142434816 
-0.26587130665 0.049876071832 0.9627174174 -0.26008669689 0.052406138449 0.96416207494 -0.25357375309 0.05514027872 0.96574318605 
-0.2463340656 0.058081307493 0.96744306801 -0.23837343018 0.061226849431 0.96924165237 -0.22970050441 0.064568589492 0.97111717909 
-0.2203286991 0.068092225206 0.97304610025 -0.2102753982 0.071777012777 0.97500375248 -0.19956032513 0.075595543417 0.97696519408 
-0.1882076752 0.079513733391 0.97890522381 -0.17624453911 0.083491331117 0.98079919457 -0.1637001006 0.087482014812 0.98262361774 
-0.15060691806 0.091434106576 0.9843563178 -0.13700013273 0.095291553107 0.98597691836 -0.12291766988 0.098994613359 0.98746711994 
-0.10840088201 0.10248132403 0.98881081457 -0.093494255518 0.10568876557 0.98999429747 -0.078248821473 0.10855447886 0.99100607821 
-0.062722800093 0.11101824375 0.99183708335 -0.046980238116 0.11302389085 0.99248096069 -0.03109547761 0.11452120582 0.9929340183 
-0.015151746463 0.11546791304 0.99319564318 0.00075862480167 0.11583151798 0.993268586 0.016533439896 0.1155910648 0.99315927781 
0.032062345095 0.11473860773 0.99287816872 0.047229971615 0.11328003995 0.99243990364 0.061921062463 0.11123546551 0.99186312223 
0.07602049302 0.10863884728 0.9911702606 0.089420245209 0.10553694377 0.99038677962 0.10202384937 0.10198720938 0.98954016759 
0.11375002895 0.098055474111 0.98865871508 0.12453490849 0.093813368813 0.98777027106 0.1343323528 0.08933538179 0.98690121519 
0.14311848497 0.084695873205 0.98607489996 0.15088945278 0.0799665129 0.98531098129 0.15765730951 0.075214591444 0.98462527796 
0.16345048216 0.070501621417 0.98402919736 0.16831028323 0.065882667245 0.98352992975 0.17228601494 0.061405438124 0.98313117193 
0.17543311594 0.057111365423 0.982833411 0.17781036313 0.053035924272 0.98263455338 0.17947570387 0.049209173661 0.98253087939 
0.18048410838 0.04565700809 0.98251764576 0.18088912945 0.042402296195 0.98258901283 0.1807370217 0.039465693863 0.98273932861 
0.18006797718 0.036866391539 0.98296306786 0.17891547411 0.034623291646 0.98325504362 0.17730528824 0.032754984008 0.98361066779 
0.17525678503 0.031280325952 0.9840257113 0.17277948706 0.030218195265 0.98449688142 0.1698764786 0.029587671341 0.98502109202 
0.16654534847 0.029407290921 0.98559517965 0.16277471 0.02969412466 0.98621633162 0.1585480102 0.030462746073 0.98688122363 
0.15384503565 0.031723481971 0.98758560424 0.14864063144 0.033480677077 0.98832434299 0.14291024712 0.035731202706 0.9890904622 
0.13663096371 0.038460990593 0.98987510927 0.12978486417 0.041643108568 0.99066732082 0.12236148785 0.045237253359 0.9914541125 
0.11436446547 0.049185841173 0.99222050073 0.10581366358 0.053413751136 0.99295037126 0.096747270587 0.057830791564 0.99362747807 
0.087225545308 0.062332807583 0.99423655402 0.077331179647 0.066805554418 0.99476474935 0.067166178446 0.07112909806 0.99520317317 
0.056846461814 0.075184960622 0.99554794032 0.046498271602 0.078862800922 0.99580046664 0.036250251701 0.082066617653 0.99596736368 
0.02622360512 0.084719001328 0.99605974387 0.016527761578 0.086763629675 0.99609181588 0.0072559850422 0.088169244412 0.99607908071 
-0.0015230973449 0.088925403857 0.99603712417 -0.0097618557029 0.08904067806 0.99598015232 -0.017433991044 0.088541623975 0.99591989476 
-0.02453556434 0.087466288185 0.9958652793 -0.031078103325 0.085861387555 0.99582226005 -0.037084820355 0.083779702434 0.99579399353 
-0.042590516677 0.081275979822 0.9957812325 -0.047636596247 0.078404131144 0.99578288141 -0.052266312332 0.07521719217 0.99579646846 
-0.05652472526 0.071766133749 0.99581854646 -0.060455601629 0.06809851978 0.99584522484 -0.064101195719 0.06425924464 0.99587237445 
-0.067500341509 0.060290708413 0.99589594556 -0.070686851059 0.056232944331 0.99591225771 -0.073690041662 0.052123201838 0.99591814402 
-0.076535788154 0.047997586403 0.99591089201 -0.0792439468 0.04389104208 0.99588853459 -0.081828414563 0.039837185394 0.99584994313 
-0.084298363524 0.035869539122 0.99579473892 -0.086658277874 0.032021207043 0.99572334771 -0.088907964397 0.028325355666 0.99563700619 
-0.091041148913 0.024815263976 0.99553790077 -0.093047751581 0.021523419754 0.99542898206 -0.094913400095 0.018482127364 0.99531394919 
-0.09662048417 0.015723060442 0.99519709978 -0.098150325579 0.013276916173 0.99508303025 -0.099480745081 0.011172216257 0.99497676503 
-0.10059024787 0.0094352499304 0.99488319822 -0.10145860808 0.0080893617783 0.99480687225 -0.10206673879 0.0071539901027 0.99475182898 
-0.10206673879 0.0071539901027 0.99475182898 
NormalArray 3 130 double
0.92718115066 -0.28441091447 0.24381457212 0.92718115066 -0.28441091447 0.24381457212 0.92673756528 -0.285480855 0.24425021294 
0.92638927895 -0.28569626091 0.24531724429 0.92558999806 -0.2869411464 0.24687635366 0.92442894812 -0.28893793692 0.24888951061 
0.92292317222 -0.29166187979 0.25128900902 0.92090897663 -0.29568893462 0.2539580885 0.91824073013 -0.30150103776 0.25677049237 
0.91479337582 -0.30945369709 0.25959870746 0.91020129286 -0.32054743359 0.26226503636 0.90389168836 -0.33614994726 0.26454305637 
0.89497093785 -0.35805057304 0.26613306362 0.88170504596 -0.38929923374 0.26653764936 0.86088300758 -0.43441689276 0.26488188036 
0.82586730591 -0.50066426798 0.25938096268 0.76206466618 -0.59893938911 0.24602652852 0.63633215389 -0.74075375689 0.21532594266 
0.38747006628 -0.90985005001 0.14845819015 -0.011855225968 -0.99936864941 0.033492628884 -0.39679791434 -0.91409385319 -0.083569388748 
-0.62861484725 -0.76170223821 -0.15701297441 -0.74674252418 -0.63590591497 -0.19493401419 -0.80877645149 -0.54779581072 -0.21401028311 
-0.84359921178 -0.48841435024 -0.22314074563 -0.86510872064 -0.44736221397 -0.22683463356 -0.87920802793 -0.41885829649 -0.22704838931 
-0.88917854268 -0.39846334772 -0.22491882927 -0.89664396319 -0.38363955164 -0.22102103449 -0.90265588132 -0.37237791812 -0.21574764429 
-0.90776202571 -0.36353300747 -0.20931282128 -0.91240778523 -0.3560137724 -0.2019064816 -0.91686422667 -0.34907961015 -0.19365798623 
-0.92128420116 -0.34225268203 -0.18465785208 -0.92583433345 -0.33496503341 -0.17501203786 -0.93061002222 -0.32680993242 -0.16480368507 
-0.93565603017 -0.31748995051 -0.15410361624 -0.94101616092 -0.30666303666 -0.14299079283 -0.94669931545 -0.29403796151 -0.13153738374 
-0.95266226873 -0.27943167562 -0.11980208843 -0.95885491823 -0.26261270616 -0.10785088013 -0.96518022157 -0.24343631808 -0.095738701321 
-0.9715075709 -0.22180659295 -0.083515717088 -0.97768323375 -0.19763974562 -0.07123219347 -0.9835072719 -0.17100072518 -0.058925360414 
-0.98877971373 -0.14191166611 -0.046645007691 -0.99328102003 -0.11048517724 -0.034436040164 -0.99678797461 -0.076905000477 -0.022346242902 
-0.99909090688 -0.041333317989 -0.010436312541 -0.99999129425 -0.0039876684241 0.0012287873605 -0.99931073967 0.03492887555 0.012570569911 
-0.9968886888 0.075238453108 0.023497176733 -0.99257729456 0.1167935874 0.03390534286 -0.98623575289 0.15946979 0.043685533176 
-0.97770294017 0.20327038419 0.052707795411 -0.96681674239 0.24811765806 0.060852398366 -0.95333094608 0.294176861 0.067971182906 
-0.93700096546 0.34141071831 0.073945332179 -0.91740691841 0.39010832637 0.078613228814 -0.89408419223 0.44035917754 0.081836739733 
-0.86642862372 0.49227440081 0.083470679285 -0.83364407155 0.54597609442 0.083352662183 -0.79461354167 0.60165104368 0.081273249254 
-0.74828327869 0.65888534561 0.077085901218 -0.69293692697 0.71754154673 0.070516267355 -0.62664851008 0.77688801747 0.061291541967 
-0.54712435771 0.83560980617 0.049103859665 -0.4517067205 0.89153285057 0.033618670481 -0.33660032943 0.9415385715 0.014329570978 
-0.19870238951 0.98001818181 -0.0090401169791 -0.036665721132 0.99866640224 -0.036346140396 0.15075358975 0.98627563064 -0.067333020059 
0.35318144178 0.93023928009 -0.099587905715 0.55515445766 0.82153368846 -0.12994586127 0.73020458847 0.66569400201 -0.15379452092 
0.86000431721 0.48167119706 -0.16847976825 0.93932408337 0.2956682243 -0.17392690285 0.97680246281 0.12718773113 -0.17227951039 
0.9859868741 -0.014717993909 -0.1661723947 0.97896829184 -0.12945219689 -0.15768072901 0.96425058762 -0.21972330568 -0.14812992003 
0.94716089073 -0.28943579281 -0.13825038484 0.93079763681 -0.34224334593 -0.1283949044 0.91666997601 -0.38162272838 -0.11866022191 
0.90575711451 -0.40951102434 -0.10910898433 0.89814353693 -0.42825899935 -0.099661509836 0.89392202176 -0.43903379111 -0.090292575963 
0.89282844144 -0.44306349826 -0.080945109019 0.89472897827 -0.44082731992 -0.071633298505 0.89912092126 -0.43323957187 -0.062330107659 
0.90582130155 -0.42031692269 -0.053117362161 0.91431863282 -0.40259394155 -0.044040389456 0.92449560315 -0.37955784944 -0.035266395956 
0.93580569753 -0.35148913241 -0.026890263328 0.94797778728 -0.31776297793 -0.019099860659 0.96039493019 -0.27838313243 -0.012017056279 
0.97263377715 -0.23226988028 -0.0058513476107 0.98378664846 -0.17934139843 -0.0007022249149 0.99287441753 -0.11911937656 0.0033113671067 
0.99868044882 -0.050994083519 0.0060798507046 0.99966744408 0.024643858213 0.0075948335688 0.99425697807 0.10672577331 0.0079164940912 
0.98097942225 0.19398070372 0.0071315987663 0.95901299025 0.28330868745 0.005502013773 0.92829129681 0.37183930066 0.0032867541261 
0.8901234237 0.45571868958 0.00087552714838 0.84629209661 0.53271714711 -0.0014589025168 0.79981947741 0.6002312271 -0.0033582092778 
0.75313809533 0.65784595256 -0.0046596206835 0.70869475295 0.70549592138 -0.005220349675 0.66821624425 0.7439503495 -0.00499283581 
0.63271876152 0.7743713633 -0.0039950615366 0.60247029806 0.79813797678 -0.0023043397368 0.57752184299 0.81637523287 5.5402466394e-06 
0.55805000766 0.82980227343 0.00289412524 0.54296394525 0.83973315537 0.0061953145549 0.5320970656 0.84662601212 0.0098543580133 
0.52473784294 0.85115263297 0.013761961412 0.52061249341 0.85360629951 0.017858251602 0.51906478282 0.85445062898 0.02204254676 
0.51933352758 0.85416988075 0.026201182224 0.52129850745 0.85283673396 0.030288138639 0.52406323368 0.8509935143 0.034172587337 
0.52775099626 0.84855622939 0.037831356126 0.53220914429 0.84560924378 0.041212056177 0.53575981913 0.84321807488 0.044098689386 
0.54024897742 0.84021090356 0.04665490257 0.54328259677 0.83814243394 0.048593008392 0.54622175745 0.83614508497 0.050031875614 
0.54622175745 0.83614508497 0.050031875614 
BinormalArray 3 130 double
0.27979921158 0.95853253398 0.05410898732 0.27979921158 0.95853253398 0.05410898732 0.28084311847 0.95821164871 0.054383628769 
0.28107123771 0.95814133918 0.054443856274 0.28230521108 0.95775980201 0.054771611751 0.28427551038 0.95714649778 0.055299330755 
0.28695664382 0.95630387017 0.056024927162 0.29090214843 0.95504705765 0.057105671519 0.29657281917 0.95320576176 0.058679968342 
0.30430569504 0.95062840095 0.060857926986 0.31505644427 0.94691718473 0.0639318558 0.33012949858 0.94146077475 0.068309031368 
0.35122846114 0.93331841792 0.074533877257 0.38125735702 0.92068678984 0.083538390766 0.42451348683 0.90023944494 0.096732834552 
0.48788424041 0.8651080041 0.11643499993 0.58165877289 0.80016985756 0.14629173241 0.71651409331 0.67097188532 0.19079906499 
0.87619032667 0.4135289565 0.24755668763 0.95788773042 -0.0017400771295 0.28713771615 0.87202306019 -0.40382240001 0.27659221201 
0.72336141344 -0.64679151817 0.24167953487 0.60140086118 -0.77073379 0.21044341075 0.51619537906 -0.83557724975 0.18802390897 
0.45886676335 -0.87153094223 0.17284417902 0.41930258547 -0.89320004053 0.16241622275 0.39190603839 -0.90680615646 0.15528120195 
0.37238953736 -0.91582713324 0.15028870378 0.3583078472 -0.92199473484 0.14676919146 0.34772505182 -0.92644170662 0.14419796315 
0.33954032574 -0.92976895743 0.14227456906 0.33270127928 -0.93247276999 0.1407280782 0.32649298328 -0.93486593853 0.1393843924 
0.3204538735 -0.93713742349 0.1381403795 0.31403032325 -0.93949267524 0.13688852856 0.30682350493 -0.94206187795 0.13556826671 
0.2985392172 -0.94492205897 0.13415154961 0.28883636773 -0.94814923908 0.13261437744 0.27742149014 -0.95178178921 0.13095320742 
0.26410633837 -0.95580214627 0.12919016688 0.24865278887 -0.96018440233 0.12734874996 0.23090774418 -0.9648517117 0.12547026784 
0.21076595658 -0.96969036994 0.12360541249 0.18813377852 -0.97456062704 0.12180831497 0.16306614624 -0.97927252443 0.12014472457 
0.13557480618 -0.98363409283 0.11867368434 0.1057623396 -0.98743031436 0.11745510553 0.073802472468 -0.99043955612 0.11654475852 
0.039847012116 -0.99245086422 0.11598921391 0.0041031580823 -0.99326087104 0.11582748443 -0.033236891255 -0.99268256728 0.11608888693 
-0.072006584195 -0.99054239035 0.11679394146 -0.11206981803 -0.98667466294 0.1179553534 -0.15331282319 -0.98091592774 0.1195789319 
-0.19574944554 -0.97307695059 0.12166923522 -0.23931027219 -0.96296395636 0.124221626 -0.28416762907 -0.95029394588 0.12724061856 
-0.33028793747 -0.93478545422 0.130713553 -0.37796243545 -0.91597737173 0.13464713832 -0.42728009104 -0.89336609759 0.13902783706 
-0.47834980846 -0.86630971561 0.14383649529 -0.53129081962 -0.83397569577 0.14904564352 -0.58628789188 -0.79520990114 0.1546212177 
-0.64292773677 -0.74893232185 0.16045031186 -0.70107778727 -0.69339282003 0.16642215394 -0.76001919309 -0.62663735962 0.1723265669 
-0.81846084759 -0.54634654184 0.17784065113 -0.87426798719 -0.44984037956 0.18248046333 -0.92438557428 -0.33329202752 0.1855471219 
-0.9632979015 -0.1935970065 0.18594986434 -0.98281979413 -0.029452713036 0.18220260688 -0.97190919543 0.16032105108 0.17230692504 
-0.91806230332 0.36509690625 0.15448578014 -0.81227629613 0.56910774586 0.12776381467 -0.65982125894 0.74550560474 0.094113227286 
-0.47924694437 0.87579358249 0.057514930078 -0.29634020187 0.95481263178 0.022700725568 -0.13037994734 0.99143726516 -0.0072951063494 
0.0096193038971 0.99945914969 -0.031446416276 0.12298567951 0.99114095248 -0.050141150304 0.21232836063 0.97508650388 -0.064210413713 
0.28145683874 0.95667159597 -0.074575501305 0.33394868168 0.93901466252 -0.082035002148 0.37321952836 0.9236272919 -0.087291519147 
0.40116833035 0.91149408838 -0.090788201765 0.42011198043 0.90269600696 -0.092983024877 0.43119726958 0.89733099867 -0.09415940488 
0.43563533282 0.89513992735 -0.09458523806 0.4338934478 0.8960012529 -0.094436384709 0.42687414374 0.89942152126 -0.093911620677 
0.41458349449 0.90523384029 -0.093124757677 0.39754411872 0.91293764088 -0.092214627599 0.37522870923 0.92242966688 -0.091251988659 
0.34790253842 0.93316805105 -0.090339428062 0.3149222532 0.94488483345 -0.08953561277 0.27627431534 0.95695762803 -0.088907822151 
0.23085895713 0.96895479437 -0.088491515879 0.17857957165 0.97995343531 -0.08832101232 0.11894427983 0.98895740984 -0.088405315604 
0.051332653477 0.99473206241 -0.088730393282 -0.023868544526 0.9957230729 -0.089251636844 -0.10558938168 0.99033832105 -0.089893783663 
-0.19255487321 0.97709832413 -0.090562054887 -0.28165268689 0.95517747552 -0.091146882688 -0.36999997888 0.9245087863 -0.091561562285 
-0.45372495905 0.88640548908 -0.091754947872 -0.53058499971 0.84265368533 -0.091729628179 -0.59796073128 0.7962818898 -0.09153204812 
-0.65542960323 0.7497254996 -0.091234371013 -0.70292024254 0.70543468621 -0.090912244026 -0.74120043688 0.66513805106 -0.09062717807 
-0.77143416616 0.62985238126 -0.090417393836 -0.79500497423 0.59984466822 -0.090296539021 -0.81304261797 0.57516489026 -0.09026101251 
-0.8262702113 0.55598958507 -0.090294624469 -0.83600870274 0.54122250895 -0.09037502286 -0.84271989614 0.53069519901 -0.09047531375 
-0.84707967872 0.52369129414 -0.090572878654 -0.8493838794 0.51993358013 -0.090642692338 -0.8500983032 0.51875986434 -0.090670160687 
-0.84970830073 0.51940159558 -0.090652005889 -0.84828649763 0.52173388582 -0.090574667153 -0.84637413334 0.52485088319 -0.090456491333 
-0.84388587379 0.52887154483 -0.090285774542 -0.84090423969 0.53363726475 -0.090062918785 -0.83848971226 0.53745554214 -0.089869586916 
-0.83547151024 0.54217765871 -0.089614407178 -0.83339676679 0.54539143984 -0.089431574193 -0.83139892502 0.54846168263 -0.089250267022 
-0.83139892502 0.54846168263 -0.089250267022 
