# vtk DataFile Version 4.1
vtk output
ASCII
DATASET POLYDATA
POINTS 302 float
-11.7973 -2.58429 164.312 -11.3541 -2.14412 163.435 -10.9108 -1.70455 162.557 
-10.4672 -1.26739 161.676 -10.0232 -0.834414 160.789 -9.57844 -0.407375 159.894 
-9.13285 0.0120519 158.989 -8.68623 0.422279 158.071 -8.2384 0.821829 157.137 
-7.78923 1.20935 156.187 -7.33859 1.58365 155.218 -6.88638 1.94367 154.229 
-6.43253 2.28853 153.218 -5.97699 2.6175 152.183 -5.51976 2.93004 151.124 
-5.06083 3.22577 150.039 -4.60027 3.50446 148.929 -4.13814 3.76603 147.792 
-3.67455 4.01056 146.629 -3.20963 4.23823 145.44 -2.74354 4.44937 144.224 
-2.27643 4.64439 142.983 -1.8085 4.82379 141.717 -1.33992 4.98815 140.426 
-0.870888 5.13813 139.112 -0.401587 5.27443 137.776 0.0678105 5.39777 136.418 
0.537146 5.50893 135.041 1.00628 5.60869 133.644 1.47509 5.69786 132.23 
1.94349 5.77722 130.799 2.4114 5.84757 129.352 2.87877 5.90968 127.891 
3.34559 5.96429 126.416 3.81185 6.01213 124.929 4.27758 6.05388 123.43 
4.74279 6.09018 121.919 5.20756 6.12161 120.398 5.67193 6.14873 118.867 
6.13599 6.17202 117.327 6.59981 6.19192 115.777 7.0635 6.20881 114.219 
7.52714 6.22301 112.652 7.99085 6.2348 111.076 8.45473 6.24439 109.492 
8.9189 6.25196 107.9 9.38348 6.25763 106.299 9.8486 6.26149 104.69 
10.3144 6.26359 103.071 10.7809 6.26394 101.444 11.2484 6.26255 99.8074 
11.7168 6.25938 98.1611 12.1863 6.25437 96.5047 12.657 6.24748 94.8381 
13.1288 6.23861 93.161 13.6017 6.2277 91.4733 14.0757 6.21466 89.7748 
14.5507 6.19941 88.0656 15.0263 6.18185 86.3461 15.5025 6.1619 84.6166 
15.9788 6.13948 82.8779 16.4548 6.11453 81.1307 16.93 6.08697 79.3763 
17.4038 6.05673 77.6158 17.8756 6.02376 75.8509 18.3448 5.98801 74.0832 
18.8105 5.94944 72.3145 19.272 5.90801 70.5468 19.7284 5.86368 68.782 
20.1791 5.81642 67.022 20.6232 5.76621 65.2686 21.06 5.71303 63.5237 
21.4887 5.65687 61.7887 21.9089 5.59769 60.0649 22.3198 5.53549 58.3533 
22.7212 5.47026 56.6548 23.1125 5.40198 54.9696 23.4936 5.33065 53.298 
23.8643 5.25625 51.6398 24.2245 5.17878 49.9946 24.5742 5.09825 48.3618 
24.9135 5.01465 46.7407 25.2426 4.92801 45.1305 25.5616 4.83835 43.5304 
25.8707 4.74571 41.9396 26.1703 4.65014 40.3575 26.4605 4.55169 38.7837 
26.7415 4.45044 37.218 27.0137 4.34649 35.6605 27.277 4.23994 34.1116 
27.5318 4.13091 32.5719 27.778 4.01954 31.0426 28.0158 3.90596 29.5246 
28.2452 3.79032 28.0196 28.4662 3.67279 26.5291 28.6787 3.55351 25.0547 
28.8828 3.43265 23.5981 29.0783 3.31035 22.1609 29.2653 3.18675 20.7446 
29.4436 3.06199 19.3504 29.6133 2.93618 17.9792 29.7744 2.80941 16.6316 
29.9268 2.68178 15.3078 30.0707 2.55333 14.0077 30.206 2.42412 12.7306 
30.333 2.29416 11.4755 30.4516 2.16346 10.2412 30.562 2.032 9.02576 
30.6644 1.89973 7.82723 30.7589 1.76661 6.64331 30.8457 1.63256 5.47152 
30.925 1.49751 4.30927 30.997 1.36136 3.15388 31.0619 1.22399 2.00271 
31.1197 1.0853 0.853151 31.1708 0.945158 -0.29727 31.2152 0.803442 -1.45086 
31.2532 0.660021 -2.60973 31.2848 0.514766 -3.77575 31.3103 0.367549 -4.95051 
31.3298 0.218251 -6.13534 31.3435 0.0667586 -7.33128 31.3515 -0.0870286 -8.53908 
31.3539 -0.243196 -9.75921 31.3509 -0.401811 -10.9919 31.3426 -0.562921 -12.2371 
31.3291 -0.726549 -13.4945 31.3105 -0.892693 -14.7638 31.287 -1.06133 -16.0442 
31.2587 -1.23239 -17.3351 31.2256 -1.4058 -18.6357 31.1877 -1.58146 -19.9451 
31.1453 -1.75922 -21.2624 31.0982 -1.93892 -22.5867 31.0466 -2.12041 -23.9172 
30.9904 -2.30347 -25.2532 30.9297 -2.48792 -26.5941 30.8645 -2.67353 -27.9393 
30.7947 -2.8601 -29.2884 30.7205 -3.0474 -30.6412 30.6418 -3.23522 -31.9977 
30.5585 -3.42335 -33.3577 30.4708 -3.61157 -34.7215 30.3786 -3.79969 -36.0892 
30.2819 -3.98751 -37.4611 30.1809 -4.17485 -38.8375 30.0756 -4.3615 -40.2189 
29.9661 -4.54728 -41.6053 29.8524 -4.73201 -42.9971 29.7348 -4.91549 -44.3945 
29.6133 -5.09752 -45.7973 29.488 -5.27789 -47.2055 29.3593 -5.45638 -48.6189 
29.2273 -5.63277 -50.0368 29.0921 -5.8068 -51.4586 28.9542 -5.97825 -52.8835 
28.8136 -6.14683 -54.3104 28.6707 -6.31229 -55.7382 28.5257 -6.47435 -57.1654 
28.379 -6.63275 -58.5905 28.2308 -6.78722 -60.012 28.0815 -6.9375 -61.4283 
27.9314 -7.08336 -62.8375 27.7807 -7.22456 -64.2381 27.6297 -7.36093 -65.6283 
27.4789 -7.49227 -67.0067 27.3284 -7.61847 -68.3718 27.1785 -7.73942 -69.7223 
27.0295 -7.85506 -71.057 26.8816 -7.96536 -72.375 26.735 -8.07034 -73.6755 
26.5899 -8.17007 -74.9582 26.4466 -8.26463 -76.2227 26.3051 -8.35416 -77.4689 
26.1656 -8.43881 -78.6971 26.0281 -8.5188 -79.9076 25.8928 -8.59432 -81.101 
25.7597 -8.66562 -82.278 25.6288 -8.73295 -83.4395 25.5002 -8.79657 -84.5864 
25.3738 -8.85674 -85.7199 25.2497 -8.91373 -86.841 25.1278 -8.96781 -87.9507 
25.0082 -9.01921 -89.0502 24.8909 -9.06818 -90.1405 24.7758 -9.11495 -91.2225 
24.6629 -9.15973 -92.2969 24.5523 -9.2027 -93.3646 24.444 -9.24404 -94.4261 
24.338 -9.28392 -95.4819 24.2344 -9.32247 -96.5321 24.1332 -9.35983 -97.577 
24.0346 -9.39611 -98.6166 23.9385 -9.43143 -99.6508 23.8451 -9.46587 -100.68 
23.7546 -9.49956 -101.703 23.6669 -9.53257 -102.719 23.5822 -9.56501 -103.73 
23.5005 -9.59697 -104.734 23.422 -9.62856 -105.731 23.3468 -9.65988 -106.721 
23.2749 -9.69104 -107.704 23.2064 -9.72215 -108.679 23.1413 -9.75332 -109.647 
23.0796 -9.78467 -110.607 23.0214 -9.81631 -111.561 22.9666 -9.84837 -112.507 
22.9153 -9.88094 -113.447 22.8674 -9.91412 -114.381 22.8228 -9.94802 -115.309 
22.7816 -9.9827 -116.232 22.7437 -10.0182 -117.15 22.7089 -10.0547 -118.065 
22.6771 -10.0921 -118.976 22.6484 -10.1304 -119.885 22.6226 -10.1696 -120.792 
22.5996 -10.2098 -121.698 22.5792 -10.2509 -122.604 22.5614 -10.2927 -123.509 
22.5461 -10.3353 -124.415 22.5331 -10.3784 -125.322 22.5224 -10.422 -126.23 
22.5138 -10.4659 -127.141 22.5072 -10.5101 -128.053 22.5026 -10.5542 -128.967 
22.4997 -10.5982 -129.883 22.4987 -10.642 -130.801 22.4992 -10.6852 -131.722 
22.5014 -10.7279 -132.644 22.5051 -10.7698 -133.568 22.5102 -10.8109 -134.494 
22.5167 -10.851 -135.421 22.5246 -10.89 -136.35 22.5339 -10.928 -137.279 
22.5444 -10.9648 -138.209 22.5562 -11.0004 -139.14 22.5694 -11.0349 -140.072 
22.5838 -11.0683 -141.004 22.5995 -11.1007 -141.937 22.6165 -11.132 -142.871 
22.6349 -11.1624 -143.805 22.6545 -11.1919 -144.741 22.6756 -11.2207 -145.679 
22.6979 -11.2487 -146.618 22.7217 -11.2762 -147.559 22.7468 -11.3031 -148.504 
22.7733 -11.3295 -149.451 22.8012 -11.3554 -150.401 22.8304 -11.3808 -151.355 
22.861 -11.4058 -152.312 22.8929 -11.4303 -153.274 22.9261 -11.4543 -154.239 
22.9606 -11.4777 -155.207 22.9962 -11.5004 -156.18 23.033 -11.5224 -157.155 
23.071 -11.5435 -158.133 23.1099 -11.5637 -159.113 23.1498 -11.5828 -160.094 
23.1907 -11.6006 -161.075 23.2324 -11.6172 -162.055 23.275 -11.6322 -163.034 
23.3183 -11.6457 -164.009 23.3623 -11.6574 -164.981 23.4069 -11.6673 -165.946 
23.4521 -11.6752 -166.905 23.498 -11.6811 -167.855 23.5443 -11.6848 -168.796 
23.5912 -11.6862 -169.725 23.6386 -11.6853 -170.642 23.6865 -11.6819 -171.546 
23.7349 -11.6761 -172.434 23.7838 -11.6676 -173.307 23.8333 -11.6566 -174.162 
23.8833 -11.6429 -174.999 23.934 -11.6265 -175.816 23.9853 -11.6074 -176.614 
24.0374 -11.5856 -177.392 24.0902 -11.561 -178.148 24.144 -11.5336 -178.883 
24.1987 -11.5036 -179.596 24.2544 -11.4708 -180.287 24.3113 -11.4354 -180.957 
24.3694 -11.3974 -181.605 24.4288 -11.3567 -182.231 24.4896 -11.3136 -182.837 
24.5519 -11.2681 -183.422 24.6157 -11.2201 -183.987 24.6812 -11.17 -184.534 
24.7483 -11.1176 -185.063 24.8171 -11.0632 -185.575 24.8875 -11.0068 -186.072 
24.9597 -10.9486 -186.553 25.0335 -10.8887 -187.022 25.1089 -10.8272 -187.479 
25.1859 -10.7643 -187.924 25.2642 -10.7001 -188.361 25.3439 -10.6348 -188.789 
25.4247 -10.5685 -189.21 25.5064 -10.5014 -189.626 25.589 -10.4336 -190.037 
25.6721 -10.3654 -190.445 25.7556 -10.2969 -190.851 
LINES 1 303
302 301 300 299 298 297 296 295 294 293 292 291 290 289 288 287 286 285 284 283 282 281 280 279 278 277 276 275 274 273 272 271 270 269 268 267 266 265 264 263 262 261 260 259 258 257 256 255 254 253 252 251 250 249 248 247 246 245 244 243 242 241 240 239 238 237 236 235 234 233 232 231 230 229 228 227 226 225 224 223 222 221 220 219 218 217 216 215 214 213 212 211 210 209 208 207 206 205 204 203 202 201 200 199 198 197 196 195 194 193 192 191 190 189 188 187 186 185 184 183 182 181 180 179 178 177 176 175 174 173 172 171 170 169 168 167 166 165 164 163 162 161 160 159 158 157 156 155 154 153 152 151 150 149 148 147 146 145 144 143 142 141 140 139 138 137 136 135 134 133 132 131 130 129 128 127 126 125 124 123 122 121 120 119 118 117 116 115 114 113 112 111 110 109 108 107 106 105 104 103 102 101 100 99 98 97 96 95 94 93 92 91 90 89 88 87 86 85 84 83 82 81 80 79 78 77 76 75 74 73 72 71 70 69 68 67 66 65 64 63 62 61 60 59 58 57 56 55 54 53 52 51 50 49 48 47 46 45 44 43 42 41 40 39 38 37 36 35 34 33 32 31 30 29 28 27 26 25 24 23 22 21 20 19 18 17 16 15 14 13 12 11 10 9 8 7 6 5 4 3 2 1 0 

CELL_DATA 1
FIELD FieldData 2
LengthArray 1 1 double
364.22238188 
TortuosityArray 1 1 double
0.019585832413 
POINT_DATA 302
FIELD FieldData 8
RadiusArray 1 302 double
64.511464577 64.939451899 65.886195784 67.562619936 67.648485714 67.698148049 67.889219574 68.042472771 68.217967931 
68.505603779 68.633565982 68.946713069 69.108733365 69.259258133 69.419236074 69.651542021 70.014695724 70.639071567 
70.826273211 70.552771962 70.430740949 70.089513926 69.668044752 69.506890677 69.151657622 68.917789197 68.749143929 
68.422657953 68.14311788 67.848030176 67.544155579 67.439780521 67.364270955 66.862507833 66.788049486 66.44920914 
65.887635746 65.861242098 65.405823187 65.307111937 64.769183732 64.209179322 64.116071605 63.691685454 63.041287939 
62.949264328 62.761137278 62.031014604 61.952841691 61.838474447 61.353557577 61.295182883 60.769207092 60.359021097 
60.268430036 60.22418977 60.191528925 59.644200091 59.229283107 58.82923383 58.613121703 58.222286558 58.107607041 
58.058534092 57.284074836 56.886485415 56.375583822 56.260522404 55.325676907 54.973392546 54.510111392 54.14849973 
53.851462882 53.700001504 53.307179881 53.207474391 53.107717077 52.943969685 52.931375119 52.86328215 52.662587117 
52.609147595 52.573243578 52.031525027 52.005380062 51.753270191 51.306272445 51.15023847 51.070988166 50.850702472 
50.399384324 50.100861127 49.889928457 49.361449356 49.011605756 48.723497039 48.517330405 48.481456109 48.201956856 
48.18721719 48.111367043 48.056217605 48.047042571 48.031200269 47.732271453 47.684475719 47.545089344 47.473539043 
47.467156048 47.432643654 47.279465091 47.165214279 47.045819562 46.881938357 46.782591918 46.604201052 46.588074513 
46.580359973 46.578386227 46.510007603 46.428084569 46.235399486 46.1367412 46.02591962 45.907000116 45.6398636 
45.637041623 45.465745489 45.307111486 45.195591008 45.179934094 45.151583022 45.00284847 44.941590249 44.7658837 
44.698068714 44.630207033 44.629420334 44.504202302 44.481068275 44.354060259 44.342472079 44.279913294 44.171723807 
44.056633231 43.99035783 43.929042042 43.875008386 43.873454736 43.833933945 43.807211326 43.737056504 43.684964715 
43.654257607 43.566434305 43.562798167 43.560500865 43.557501241 43.554888605 43.565343661 43.558383399 43.526758377 
43.527354855 43.575179717 43.585451866 43.589228256 43.591379156 43.611712395 43.690162709 43.820916767 43.851494495 
43.863146072 43.814848768 43.833514241 43.854985221 43.855562611 43.856550421 43.865461947 43.866727377 43.897573465 
43.913281239 43.923206426 43.949587206 43.953724822 43.964388252 43.987083727 44.001914623 44.009528729 44.029775583 
44.07669306 44.115019442 44.113458543 44.110119149 44.108538766 44.10688968 44.131175053 44.11847288 44.128548038 
44.127182784 44.125495519 44.105393744 44.097440994 44.045453357 43.98634253 43.946297405 43.909198033 43.894264523 
43.881870472 43.881546069 43.880688423 43.815908366 43.612866681 43.548549043 43.516781717 43.43261509 43.40099492 
43.354852844 43.210601778 43.201013392 43.189512011 43.186823615 43.062422558 42.959966754 42.89784289 42.773353666 
42.536304405 42.512926565 42.359342813 42.193642125 42.158426436 42.050391075 41.925287085 41.919384032 41.767584828 
41.66944768 41.384291814 41.113500532 40.970160645 40.888075267 40.79808045 40.773912713 40.762472767 40.481479864 
40.43953712 40.392508605 40.385818212 40.004503868 39.930837324 39.703255654 39.46301965 39.300802712 39.280967287 
39.015830436 38.716222292 38.683694681 38.614055992 37.983200281 37.895075469 37.801688475 37.479499899 37.209511541 
36.974796313 36.664266582 36.634598643 36.122676702 35.629564031 35.572387535 35.220798755 34.788373064 34.757919889 
34.266164139 34.043048162 33.97234371 33.818242959 33.478988439 33.347814799 32.64299782 32.175972511 31.878821472 
31.215901963 31.139879157 30.784219036 30.763912458 30.26533575 30.255418514 30.091717216 29.817904748 29.728533163 
29.689804469 29.202348747 29.150035023 29.049490593 28.791621325 28.100002073 27.769272908 27.434163266 27.28731558 
27.258216645 26.772353532 26.009853487 25.934682912 25.523999482 
EdgeArray 2 302 int
48644 48644 39954 41994 42884 39954 48418 45989 48418 
43188 38753 43188 36562 38218 37828 36562 38910 38216 
36468 37619 35869 38166 37685 37685 38240 38516 38516 
37877 37877 37877 37599 37613 37345 37345 37389 37389 
35185 35185 35546 35546 35548 35173 34955 33639 33639 
35174 33568 33865 34352 35151 34295 34655 33302 33302 
31663 31663 32706 33856 34362 32706 33125 32414 33578 
32414 33573 33573 33600 33600 31866 31866 32243 32243 
32470 32470 31351 31013 32465 31473 31471 31473 31755 
31755 31476 31476 31481 31481 31959 30835 31251 31251 
31705 31705 31271 31271 30855 30852 30830 30431 30830 
28352 28352 28352 29481 29481 29446 29446 30429 30279 
29815 29732 30046 29732 30046 30046 30248 30248 30277 
30277 30274 30273 30272 30272 23307 23307 27336 29392 
29043 9644 29806 29806 29428 29428 27142 27142 19891 
19891 27432 11240 26093 27739 27540 27540 28306 28309 
28305 28310 27603 27604 27847 26071 27851 27845 27846 
27852 25090 26678 25090 26654 26654 26654 16409 20036 
20036 21797 21797 21797 27080 27080 27085 27205 25255 
25255 26683 26683 26680 26684 24924 25948 25665 25665 
25488 25488 24627 24627 24573 24573 24781 24781 21252 
21252 4755 23462 23750 23750 23752 23752 21796 21796 
21759 23273 17961 22795 16789 18651 16789 13264 15080 
13264 12636 21028 21024 12636 18110 20408 20387 21641 
20387 18775 18775 21615 20391 20390 17420 17420 19869 
16257 19868 19868 19276 19276 19830 18000 19831 20458 
20458 19829 19829 20452 20454 20453 15606 20453 18065 
20529 19261 20526 13832 20525 19902 19902 18108 20513 
18108 19260 19364 19364 19368 19368 20507 18762 20507 
19359 20508 20509 19901 19901 19897 19898 13980 13980 
13334 13334 8842 12067 12067 11572 18682 18682 11489 
9276 14473 14473 17514 17514 8558 8558 20496 20496 
21087 21087 21088 21088 21115 21115 21116 21124 21124 
21123 21123 21118 21120 21120 16308 17519 20489 20489 
20492 20492 20487 15653 16847 19330 19331 19331 18045 
18045 16793 18719 18720 18720 18029 18029 18728 18728 
18738 18738 18730 18730 19315 19315 19314 19314 9371 
10527 18717 18717 16277 16277 10251 10251 20164 11553 
16129 20164 20161 20161 21133 21139 20143 12116 18431 
15960 18431 21132 17174 15965 15965 12715 12715 20145 
13311 19349 5811 16684 18426 16684 11800 13356 19002 
13356 17180 13921 17342 17181 12117 14516 18413 18413 
18420 18420 18417 18417 17178 17178 18433 18433 18432 
18434 18434 18434 17167 17167 17165 17741 16526 16526 
15368 14192 15367 14192 17743 16533 17745 17103 17105 
17105 18965 18965 19544 19544 19547 18341 20100 18341 
20100 20098 18325 20098 18325 15293 18329 18329 15445 
15445 17660 17660 17665 17665 18302 18303 17651 17651 
17648 17648 17066 17066 16467 17065 17070 17067 15264 
17070 15264 15264 15265 15265 15278 15278 15276 15276 
15269 15269 15272 15270 12904 12904 14111 14111 12902 
14110 14081 14115 14115 14116 14116 14116 6523 6523 
12892 12892 14089 14089 14090 14088 13495 4683 10090 
12877 10090 8699 4317 9731 4317 4317 8940 15252 
6556 15251 14095 6556 14096 14095 9534 9534 5083 
5083 14648 14648 15198 15198 10192 10192 11262 15229 
8726 5374 4663 4663 15191 15191 11639 12218 8697 
8697 14597 14595 14597 14598 12232 12232 13449 13449 
13441 13441 11647 12227 11647 13431 13430 13430 13453 
13669 13452 13666 12830 12830 11862 11862 12834 9496 
14058 14058 12339 9712 12841 9712 3249 11888 11888 
10213 10632 10632 13479 12283 5687 5687 13481 13481 
14627 15811 14627 15807 14390 14390 14629 14629 15806 
15806 15812 14069 11698 13487 15301 12260 12835 15322 
13802 15322 15305 15305 14061 14061 15317 15317 15330 
15330 15327 15922 15348 15348 15328 15328 15940 15940 
15939 15939 15929 15929 12309 12309 14931 14931 14933 
14933 
EdgePCoordArray 1 302 double
0 0.796 0.46 0.024 0.28 0.64 0.408 0.676 0.528 
0.3 0.256 0 0.936 0.584 0 0.88 0 0 
0 0 0.492 0.284 0.824 0.284 0.676 0.224 0 
0 0.596 0.644 0.476 0.132 0 0 0 0 
0 0.008 0.412 0.368 0 0 0 0.66 0 
0 0 0.092 0.024 0.196 0 0 0 0.384 
0.84 0.448 0 0 0 0.936 0 0 0.984 
0.972 0 0 0 0 0.76 0.192 0 0.292 
0.464 0.892 0.06 0.344 0.476 0.008 0.156 0 0.82 
0.556 0 0 0.944 0 0 0.984 0.98 0 
0 0 0 0 0 0.5 0 0 0 
0.96 0.064 0.008 0.432 0.948 0.424 0.436 0.88 0.012 
0.072 0.448 0.54 0 0.136 0 0 0.916 0.044 
0.992 0.02 0.532 0.676 0.388 0.856 0.648 0 0.12 
0.108 0 0 0.108 0.148 0.784 0 0.416 0 
0 0.972 0.04 0 0.052 0 0 0 0 
0 0 0 0.992 0.028 0.108 0 0.172 0 
0 0.892 0.444 0 0 0.164 0 0 0 
0 0 0 0 0.1 0 0 0 0.484 
0.756 0 0.424 0.66 0.664 0.44 0.968 0.084 0.164 
0.228 0.168 0.404 0.612 0.76 0.568 0.928 0.892 0 
0 0 0 0 0.588 0 0 0.716 0 
0.256 0.7 0.248 0.696 0 0 0 0.196 0.32 
0.98 0.932 0.04 0 0 0 0 0.372 0 
0 0 0.968 0.012 0.972 0 0 0 0 
0 0.172 0 0 0.776 0.684 0.948 0 0 
0 0 0.86 0.932 0.644 0.556 0.116 0 0.972 
0.724 0.12 0.84 0 0 0 0 0 0.988 
0.34 0 0 0.956 0 0.48 0.484 0 0 
0 0.016 0.088 0 0.064 0.076 0 0 0.052 
0 0.12 0.164 0.268 0.496 0 0.036 0 0 
0.152 0.28 0 0 0 0.004 0.332 0.852 0.948 
0.868 0 0 0 0 0.496 0 0 0 
0 0 0 0 0 
CurvatureArray 1 302 double
0 0.00079686791581 0.0031432132534 0.0054543898366 0.0076477773524 0.00967678876 0.011511938642 0.013099606108 0.014419961118 
0.015446405054 0.016179735496 0.016620790436 0.016799006538 0.016711401773 0.016421624149 0.015941293394 0.015316161077 0.014582138544 
0.013773101342 0.012916091566 0.012040242841 0.011165507759 0.010307080028 0.0094714024452 0.0086789853744 0.0079239890114 0.0072133176865 
0.0065497757025 0.0059286998219 0.0053553594775 0.0048227502082 0.004332485102 0.0038818621602 0.0034712937538 0.0030968547094 0.0027588916583 
0.0024553053375 0.0021853762659 0.0019457694888 0.0017365674337 0.0015564000053 0.0014009558248 0.0012698855272 0.0011601151778 0.0010703561197 
0.00099786433994 0.00094198154564 0.00089895055656 0.00086938883477 0.00084915002928 0.00084033702183 0.00083948929027 0.0008463934476 0.00085784905316 
0.00087592407506 0.00089854455762 0.00092429447136 0.00095453376469 0.00098857956237 0.0010266255313 0.0010682121307 0.0011144374536 0.0011673792935 
0.0012247088212 0.0012891067517 0.0013609758374 0.0014398471185 0.0015284913386 0.0016250603844 0.0017298795745 0.0018446379839 0.0019669720407 
0.0020964741016 0.0022323218197 0.0023708834458 0.0025097338522 0.0026482211535 0.0027793372394 0.0029012448037 0.0030097924571 0.0031008973537 
0.0031734279715 0.0032258557212 0.0032570342975 0.0032669521338 0.0032578151214 0.0032340775235 0.0031982328314 0.0031562938156 0.0031096671113 
0.0030659745106 0.0030289998105 0.0030020834628 0.0029896123895 0.002992825483 0.0030178942813 0.0030622966025 0.0031301590213 0.0032206745965 
0.0033335761215 0.0034680206153 0.0036229746745 0.0037943635826 0.0039803099835 0.0041728805532 0.0043692025916 0.0045625323029 0.0047446683816 
0.0049096471836 0.0050476600613 0.0051549340767 0.00522406991 0.0052521665238 0.0052388340843 0.0051850112334 0.0050869417001 0.0049556743187 
0.004796902067 0.0046105816617 0.0044122275531 0.0042023135489 0.0039928026167 0.0037855131484 0.003587583696 0.003402348381 0.0032318642113 
0.0030804988791 0.0029458095317 0.0028269066022 0.0027268320679 0.0026417014501 0.0025696062016 0.002511213891 0.0024607639663 0.0024194307348 
0.0023864738868 0.0023574380637 0.0023331116308 0.0023115511567 0.0022906512774 0.0022711278528 0.0022489830517 0.0022251455466 0.0021998027472 
0.0021705296137 0.0021399974 0.0021059432674 0.002072061883 0.0020366669305 0.0020042935153 0.0019715749974 0.0019445686821 0.0019199219466 
0.001901380776 0.0018885417032 0.0018827739348 0.0018814620032 0.0018881137379 0.0018994103164 0.0019174338022 0.0019397574944 0.0019672311045 
0.0019989971093 0.0020331205786 0.0020696795103 0.0021074734841 0.0021456399261 0.0021821927078 0.0022167967368 0.0022478384354 0.0022725975909 
0.0022915720792 0.0023026575088 0.002304042981 0.0022976841933 0.0022801312249 0.0022525871615 0.002217622167 0.0021743632248 0.00212615049 
0.0020748041155 0.0020237061267 0.0019760291834 0.0019332935791 0.0018992251252 0.0018768762166 0.0018639735496 0.0018663441384 0.0018804933247 
0.0019052175784 0.0019404657554 0.0019930656385 0.0020491942316 0.0021197242748 0.0021935086157 0.0022813400099 0.0023772723586 0.0024782710705 
0.0025864026932 0.0027036585883 0.0028205478063 0.0029457648421 0.0030710581974 0.0031942187262 0.0033165224089 0.0034313181647 0.0035345613557 
0.0036249038775 0.0037017960139 0.0037559818513 0.0037859078158 0.0037930028687 0.0037734812005 0.0037241695103 0.0036481231062 0.0035469113775 
0.0034199179789 0.0032764807295 0.0031173306272 0.0029450588568 0.0027765500952 0.0026146719933 0.0024560616353 0.0023222187206 0.0022096887355 
0.0021212739581 0.0020600131339 0.0020261564688 0.0020080086037 0.002008314786 0.0020133529276 0.0020187986132 0.0020270703949 0.0020250091836 
0.0020143938831 0.0019954857138 0.0019696361913 0.001936300569 0.0018971954292 0.0018520859514 0.0018088010173 0.0017616894249 0.0017204016074 
0.0016761791045 0.0016339231386 0.0015915675408 0.001553470969 0.001511437401 0.0014754455203 0.0014440331228 0.0014132727375 0.001397728504 
0.0013879654954 0.0013965086343 0.0014203626825 0.0014553499989 0.0015111030136 0.0015782276587 0.0016633234373 0.001760304236 0.0018674833475 
0.0019911713246 0.0021253250908 0.0022753988912 0.0024423027184 0.0026237355787 0.0028274441254 0.0030523230911 0.0033068721708 0.0035907733325 
0.0039106810905 0.0042670337151 0.0046702285228 0.0051254376828 0.0056323973753 0.0062064210268 0.0068478838118 0.0075598645351 0.0083542373154 
0.0092203117623 0.010186717342 0.011214994714 0.012315576646 0.013485228089 0.014697633584 0.015899378422 0.017102622474 0.018215440903 
0.019217072679 0.020039878916 0.020612631282 0.020882825271 0.020779102248 0.020317764269 0.019364861362 0.018002395347 0.016219351637 
0.013987726807 0.011426943678 0.0085299388011 0.0054574254527 0 
TorsionArray 1 302 double
0 0 0.00091865217085 0.00085062517841 0.00064918785275 0.0014122260731 0.0018611506283 0.0022057071452 0.0025922917187 
0.0029006409919 0.0032310386588 0.0037934385272 0.0040484762314 0.004386623473 0.0048709929199 0.0050695296501 0.0053966330766 0.0057018798307 
0.0059160185221 0.0061101223446 0.0064224741397 0.0066620315399 0.0066608096335 0.006902062032 0.0072402375057 0.0072785154615 0.007663492454 
0.0079189664083 0.008290882676 0.0088608957309 0.0093135226101 0.010031688556 0.010855982532 0.01178426251 0.012676678089 0.013807795943 
0.014850900783 0.015535538484 0.015981448857 0.016386247026 0.016008166576 0.014588733874 0.012659835887 0.0099843803927 0.006745060315 
0.0034138130202 -0.00021612425351 -0.0033360926525 -0.0057832849901 -0.0070983225354 -0.0068106315043 -0.0060051244415 -0.0048931274636 -0.0026694826236 
6.5567644197e-05 0.0020398691662 0.0043181088039 0.006568783648 0.0082370524207 0.0094021478476 0.010232053566 0.011253370575 0.011668892484 
0.011553737998 0.011735078146 0.011453968734 0.011142102857 0.010870775579 0.010218107794 0.0098831851768 0.0094446532339 0.0088491020879 
0.0085130019559 0.0080013652813 0.0073949917758 0.0070915718194 0.0066534965979 0.0060652568464 0.0056142059025 0.0050836880263 0.004490253792 
0.0039572745725 0.0033228528898 0.0025202968349 0.0016826805913 0.00077553326191 -0.00025991319044 -0.001237329613 -0.0024118680161 -0.0036411534103 
-0.0046887087499 -0.0057330817154 -0.006550378409 -0.0071501582079 -0.0072500743403 -0.0069128633994 -0.0061532707083 -0.0047503923402 -0.0028650106352 
-0.00055937789625 0.0022129918761 0.0052693710975 0.0084632746562 0.011576239573 0.014591578803 0.017447927797 0.01988890224 0.021892159225 
0.023279238729 0.024072275777 0.024222892233 0.023681052587 0.022561964297 0.020843458005 0.018461261445 0.015667422844 0.012574083069 
0.0091314460948 0.0055723761047 0.0020130870373 -0.0014501166852 -0.0046365419713 -0.0074068120659 -0.0095856883334 -0.011077227098 -0.011650017565 
-0.011292647175 -0.010065172698 -0.0077997107462 -0.0046696254563 -0.00092085472468 0.0034051480224 0.0079935541848 0.012677310205 0.017334212695 
0.021684926027 0.02564637923 0.029209284259 0.032307745654 0.034869070636 0.036960323849 0.038660613308 0.039998944295 0.041038206687 
0.041793401996 0.042335483984 0.042631564014 0.042761568123 0.042655642795 0.042426377453 0.041795109899 0.040796931666 0.03994262831 
0.0384027287 0.036527044397 0.034878519885 0.032972668771 0.030825916187 0.029092964556 0.027098051246 0.025690488901 0.023996344612 
0.02285550175 0.022239959414 0.021482662731 0.021350360609 0.021116963487 0.021664199089 0.02247504901 0.023014154418 0.024535734527 
0.026059987712 0.028347323305 0.030606577526 0.033445395755 0.036757395436 0.04043813201 0.044655013252 0.048599005978 0.054167443465 
0.058641382444 0.062996715983 0.067871462964 0.071083015535 0.073200756443 0.074634225576 0.074398791957 0.07286879211 0.070145024476 
0.066110356064 0.063243579467 0.059547973819 0.055829432916 0.052778532643 0.050430141285 0.048003830458 0.046217220876 0.045150878179 
0.043586885583 0.042458220004 0.041384270937 0.039975348187 0.038518755881 0.036808292186 0.034718687091 0.032204969845 0.029826327039 
0.02706887257 0.023122530031 0.019668680387 0.016079317755 0.010648731002 0.0057044409225 0.00070737324073 -0.005785897851 -0.01279514345 
-0.020361658362 -0.029302611661 -0.038825779177 -0.049284404773 -0.060981711342 -0.072980093679 -0.084805855273 -0.094329890371 -0.10194466228 
-0.10525190992 -0.10334643375 -0.096329517229 -0.085716068399 -0.072261161521 -0.057633924442 -0.043179119686 -0.028680751209 -0.01643723584 
-0.0033922838224 0.0087818320349 0.019097245387 0.02790234528 0.034460525054 0.039917478735 0.043026701726 0.044519839262 0.041442501816 
0.035451221551 0.027989881555 0.019050343049 0.0069198026283 -0.0067345854025 -0.019364988084 -0.03414545347 -0.046679911368 -0.056655540377 
-0.065383119078 -0.068430822475 -0.070284319152 -0.068049321843 -0.061871735686 -0.054909321654 -0.046715554585 -0.039186567901 -0.030762067292 
-0.023404133156 -0.017057833718 -0.010394116428 -0.0060362692923 -0.0012590466075 0.0029250373882 0.0067256002507 0.009885194593 0.012753985711 
0.015389410495 0.017195408009 0.019826542309 0.020964877341 0.022546526629 0.024743359768 0.025196832115 0.026383573086 0.026959358646 
0.027927662299 0.028606709614 0.028239746141 0.028829907756 0.028943865595 0.027717184081 0.028040493016 0.027629547754 0.026256428546 
0.025476958304 0.024685295494 0.023736440117 0.021508192684 0.020700631939 0.019449453722 0.017027622443 0.015836311536 0.013649822345 
0.011395225935 0.010044644776 0.0083764611682 0 0 
TangentArray 3 302 double
-0.41161593597 -0.40846255748 0.81469666772 -0.41161593597 -0.40846255748 0.81469666772 -0.41134060416 -0.40663706071 0.81574825052 
-0.41073192598 -0.40264064159 0.81803410609 -0.40977799498 -0.39651783632 0.8214959527 -0.40847366422 -0.38835861209 0.82603078275 
-0.40680435374 -0.37828214403 0.83151237951 -0.40475781737 -0.36644189689 0.83778961887 -0.4023281357 -0.3530253805 0.84469234159 
-0.39951475482 -0.33824773542 0.8520425049 -0.39632671489 -0.32234532971 0.85966192395 -0.39278149573 -0.30556710996 0.86738194466 
-0.3888998428 -0.28816379368 0.87505344996 -0.38471864961 -0.27038847868 0.88254270788 -0.3802792723 -0.25248014679 0.88974235065 
-0.37562443242 -0.23465662356 0.89657267122 -0.37080754431 -0.21711711512 0.90297393285 -0.36587904625 -0.20002986544 0.90891175394 
-0.36088847782 -0.18353359672 0.91437132799 -0.35588494401 -0.16773852441 0.919352867 -0.35091321885 -0.15272619673 0.92386937479 
-0.34601031166 -0.13855179801 0.9279441058 -0.34120959605 -0.12524827119 0.93160553998 -0.33654464548 -0.11283174096 0.93488325465 
-0.33203722071 -0.10130032687 0.93781102992 -0.32770356193 -0.090639640774 0.94042268742 -0.32356125586 -0.080828079714 0.94274860659 
-0.31961788743 -0.071835695149 0.9448195801 -0.31588100363 -0.063628234545 0.94666289634 -0.31235312436 -0.056167519934 0.94830413656 
-0.30903325911 -0.049413347551 0.94976669022 -0.30592045416 -0.043324694892 0.95107078945 -0.30300969618 -0.037859111986 0.95223516616 
-0.3002937935 -0.032973057612 0.95327667288 -0.2977644845 -0.028622910674 0.95421016592 -0.29541315508 -0.024764972623 0.95504856627 
-0.29322872542 -0.0213556861 0.95580377132 -0.29119998237 -0.01835139601 0.95648617164 -0.28931680151 -0.015708933373 0.95710449679 
-0.2875686122 -0.013386127271 0.95766648938 -0.28594248998 -0.011341658893 0.95817965914 -0.284427549 -0.0095360609774 0.95865010974 
-0.28301423077 -0.0079313539308 0.9590829155 -0.28169204482 -0.0064919941301 0.95948290547 -0.28045082272 -0.0051850427044 0.95985439071 
-0.27928050502 -0.0039804300066 0.96020130998 -0.27817051598 -0.0028513005774 0.96052747703 -0.27711156776 -0.0017737702197 0.96083611129 
-0.27609409605 -0.0007273630946 0.96113033511 -0.27510909186 0.00030506314673 0.96141296773 -0.27414668894 0.0013377063316 0.96168695711 
-0.27319539648 0.0023817726863 0.96195561358 -0.27224502292 0.0034458878432 0.9622217901 -0.27128683214 0.0045363854762 0.96248785754 
-0.27031052854 0.0056571697994 0.96275657079 -0.26930449281 0.0068110891509 0.96303099598 -0.26826003653 0.0079997347492 0.96331332236 
-0.26716742024 0.0092235477855 0.96360598573 -0.2660160117 0.010482630735 0.96391161212 -0.26479618273 0.011777026979 0.96423248403 
-0.26349920359 0.013106771612 0.96457056883 -0.26211646887 0.014472191884 0.96492772393 -0.2606367185 0.015874110798 0.96530643506 
-0.25904999554 0.017313635706 0.96570872308 -0.25734752974 0.018792831737 0.96613615935 -0.25551773746 0.020313781598 0.96659093526 
-0.25355034309 0.021879110413 0.96707472723 -0.25143386334 0.023492204372 0.96758933887 -0.24915620715 0.025155921874 0.96813654204 
-0.24670787336 0.026873356834 0.96871721772 -0.24407746681 0.028646896491 0.96933252577 -0.24125465741 0.030478476699 0.96998311982 
-0.23823217394 0.03236946771 0.9706686607 -0.23500316214 0.03431927212 0.97138854294 -0.23156483102 0.03632643517 0.97214099756 
-0.2279194098 0.038388148663 0.97292296338 -0.22407035185 0.040499234819 0.97373111761 -0.22002685579 0.042653101432 0.97456087325 
-0.21580491798 0.044842121399 0.97540628536 -0.21142385277 0.047056862039 0.97626103385 -0.20690866353 0.049286905337 0.97711801023 
-0.20228776276 0.05152198117 0.97796991083 -0.19759066721 0.053751781823 0.97880982534 -0.19284872355 0.05596696126 0.97963108825 
-0.18809440424 0.058159959343 0.98042741405 -0.18335859366 0.060324698005 0.98119343503 -0.17866763212 0.062457909008 0.98192509227 
-0.17404348219 0.064559247425 0.98261944306 -0.16950214793 0.066630062426 0.98327486321 -0.16505539159 0.068674698031 0.98389049368 
-0.16070920504 0.070699783039 0.98446639968 -0.15646157066 0.072713431113 0.98500382428 -0.15230617838 0.074725257631 0.98550442104 
-0.14823151784 0.07674534032 0.98597036966 -0.14422253314 0.078783940692 0.9864040509 -0.14025879476 0.080850705979 0.98680830653 
-0.13631730494 0.082954112108 0.98718600459 -0.13237397558 0.085100938744 0.98753985277 -0.12840171692 0.087295579284 0.98787270482 
-0.12437355903 0.089539263918 0.98818719787 -0.12026256113 0.091830095792 0.98848578639 -0.11604180549 0.094162230405 0.98877083985 
-0.11168644814 0.096525447946 0.98904447585 -0.10717439595 0.098905627609 0.98930850885 -0.10248867667 0.10128484804 0.98956427316 
-0.097617954404 0.10364172116 0.9898126735 -0.092555555743 0.10595255079 0.99005430461 -0.08730310743 0.10819232715 0.99028914352 
-0.081869970275 0.11033616417 0.99051665248 -0.076274379117 0.11236117082 0.99073567937 -0.070542176041 0.11424795615 0.99094460285 
-0.064705434358 0.11598212766 0.99114143937 -0.058802252149 0.11755537058 0.99132387744 -0.052872745365 0.1189658861 0.99148958176 
-0.046957210959 0.12021868565 0.99163626797 -0.041098477278 0.12132501629 0.99176164253 -0.03533623524 0.12230116099 0.99186378929 
-0.029701845424 0.1231673836 0.99194132689 -0.024225112372 0.12394615416 0.99199319292 -0.018928549243 0.12466067609 0.99201886366 
-0.01382712475 0.12533344903 0.99201831494 -0.0089300868466 0.12598503626 0.99199194764 -0.0042399230752 0.12663310724 0.99194056233 
0.00024527085582 0.12729154899 0.99186531414 0.0045331772167 0.1279702943 0.99176764117 0.0086347182028 0.12867515638 0.991649205 
0.012565364064 0.12940765355 0.99151186116 0.016342695135 0.13016547496 0.99135758707 0.019983424506 0.13094268951 0.99118851628 
0.023507198464 0.13173009811 0.99100685814 0.02693455573 0.13251599761 0.99081483643 0.030283521272 0.13328644589 0.99061477461 
0.033572240666 0.13402588619 0.9904089895 0.036815875274 0.13471762244 0.99019985535 0.040026425195 0.13534433367 0.98998979623 
0.043215546663 0.13588897573 0.98978108832 0.046390328664 0.13633500842 0.98957602178 0.049554043985 0.13666706544 0.98937682909 
0.052707714607 0.13687121565 0.98918560804 0.055848171269 0.13693527935 0.98900440395 0.058969953244 0.13684960298 0.98883503719 
0.062064274776 0.13660695049 0.98867920322 0.065119456992 0.13620280756 0.98853844211 0.068124078642 0.13563510801 0.98841399595 
0.071064940658 0.13490435354 0.98830693087 0.073929112926 0.1340135187 0.98821802406 0.076704117941 0.13296749175 0.98814782519 
0.079379031723 0.13177300498 0.98809657649 0.081944657776 0.13043766258 0.98806431432 0.084394519479 0.1289697034 0.98805079864 
0.086723219916 0.12737755753 0.98805568718 0.088928504415 0.12567006554 0.98807831457 0.091010539126 0.12385555958 0.9881178483 
0.092969852159 0.12194121049 0.98817354132 0.094810566595 0.11993365512 0.98824433964 0.096538412228 0.11783877304 0.98832907401 
0.098157822959 0.11566152302 0.98842675697 0.099674677176 0.11340599924 0.98853631095 0.10109558139 0.11107585951 0.98865658186 
0.10242550464 0.10867385064 0.98878663532 0.10367022203 0.10620286973 0.98892539432 0.10483313304 0.1036653604 0.98907204352 
0.10591881357 0.10106384874 0.98922560794 0.10692932 0.098401710448 0.98938527577 0.10786455392 0.09568260891 0.98955044154 
0.10872509812 0.092911170178 0.98972034813 0.10950914521 0.090092551201 0.98989447889 0.11021524979 0.087233813145 0.99007214917 
0.11083932962 0.084342770276 0.99025296774 0.11137665066 0.081428101621 0.9904366239 0.11182401878 0.078501360836 0.99062249377 
0.11217545404 0.075574662926 0.99081034403 0.11242609674 0.072660827852 0.99099988742 0.11256970025 0.069774724409 0.99119097576 
0.11260187286 0.066930733116 0.99138342491 0.11251821807 0.064144054435 0.99157712301 0.11231496235 0.061430911222 0.99177194575 
0.11198963718 0.05880556301 0.99196785579 0.11154034339 0.056281301945 0.99216488894 0.11096842196 0.053870241045 0.99236284012 
0.11027243654 0.051582957059 0.99256193171 0.10945534741 0.049426833507 0.99276206366 0.108520693 0.047406489207 0.99296318359 
0.1074706547 0.045525415022 0.99316539155 0.10630998827 0.04378375685 0.99336859676 0.10504275816 0.042178362747 0.9935728482 
0.103672445 0.040706339688 0.99377815334 0.10220220571 0.039362273975 0.99398456755 0.10063389762 0.038139744742 0.99419222413 
0.098970515868 0.037033224989 0.9944010143 0.09721533999 0.036036182262 0.99461076369 0.095365562724 0.035143328588 0.99482177092 
0.093420789957 0.034350898502 0.99503395509 0.091381368455 0.033655753677 0.99524707271 0.089246440759 0.033056756539 0.99546085993 
0.087014591987 0.032554364716 0.99567498418 0.08468178522 0.032148911844 0.99588927232 0.082248155228 0.031843304156 0.99610302928 
0.079714236055 0.031642205184 0.99631541764 0.077078767425 0.031548919176 0.99652572938 0.07434431213 0.031567974436 0.99673285601 
0.071513805977 0.031703683514 0.99693563082 0.068589885546 0.031959087045 0.99713291208 0.065579883516 0.032336170001 0.99732324298 
0.06249096111 0.032835093136 0.99750525635 0.059331766502 0.033453752562 0.99767759718 0.056114563106 0.034186566317 0.99783888203 
0.052852783321 0.035026564375 0.99798783714 0.049558894753 0.035964277275 0.9981234827 0.046247094058 0.036984405361 0.99824514026 
0.042935144488 0.038070581656 0.99835224454 0.039639156394 0.039205405076 0.99844462715 0.036373141541 0.040365175699 0.99852273242 
0.033153779119 0.041526711786 0.99858718154 0.029997386365 0.042667168096 0.9986389085 0.02691708271 0.043761139815 0.99867934458 
0.023926138046 0.044783689998 0.99871014866 0.021035384309 0.045712013945 0.99873315975 0.018252690884 0.046524013217 0.99875039698 
0.015587362866 0.047200236917 0.99876382181 0.013043363164 0.047725277559 0.99877533438 0.010619305811 0.048086483671 0.9987867242 
0.0083181015755 0.048273949849 0.99879949687 0.0061383996762 0.048282519479 0.9988148569 0.0040738895856 0.048112282117 0.99883362565 
0.0021204979794 0.047765722727 0.9988563156 0.00027145588623 0.047249901663 0.99888306278 -0.0014835863492 0.046575306642 0.99891367985 
-0.0031541609661 0.045756485562 0.99894764392 -0.0047510352672 0.044810409262 0.99898421153 -0.0062859992782 0.043756231193 0.99902246143 
-0.0077686465331 0.042616648619 0.99906129411 -0.0092112603759 0.041412718837 0.9990996644 -0.010624925116 0.040167299851 0.99913647666 
-0.012016254205 0.038903070974 0.99917073651 -0.013394478475 0.037642679883 0.99920148949 -0.014768396201 0.03640662246 0.99922792811 
-0.016144155461 0.035212510241 0.99924944101 -0.017525439909 0.034075202032 0.99926560011 -0.01891260903 0.033006017184 0.99927619608 
-0.020306508963 0.03201212264 0.9992811765 -0.021705709808 0.031097036065 0.99928065953 -0.023108531154 0.030260760681 0.99927487817 
-0.024510390447 0.029497186304 0.99926430776 -0.025903864927 0.028797177451 0.99924957461 -0.027282986974 0.02814918553 0.99923133557 
-0.028643028376 0.027539596264 0.99921026194 -0.029976735833 0.026952038148 0.99918716112 -0.031277432283 0.026368802772 0.99916285383 
-0.032542717311 0.025772874709 0.99913799371 -0.033765807282 0.025146791672 0.9991133615 -0.03494472078 0.024474803945 0.99908951074 
-0.036078832231 0.023743152483 0.99906685491 -0.037167660415 0.022938712183 0.99904573494 -0.038215838217 0.022050713278 0.99902618372 
-0.03922383879 0.021070440014 0.99900827175 -0.040196128757 0.019990195745 0.99899182344 -0.041139773128 0.018804464458 0.99897643175 
-0.042061786079 0.017508422432 0.9989615915 -0.042971114419 0.016097390674 0.99894662387 -0.043874727842 0.014569170888 0.99893080217 
-0.044783502627 0.012920557741 0.99891315793 -0.045708343964 0.011147968712 0.9988926219 -0.046659689095 0.0092478796867 0.99886803439 
-0.047651488856 0.0072155374041 0.99883796065 -0.048694378775 0.0050460522241 0.99880097859 -0.049801677909 0.0027340499797 0.99875538439 
-0.050988166991 0.00027284327357 0.99869922018 -0.052269724117 -0.0023457448551 0.9986302486 -0.05366344484 -0.005131227444 0.99854589539 
-0.055187019555 -0.0080933751559 0.99844323331 -0.056859749364 -0.011241768681 0.99831888269 -0.058700602826 -0.014587949313 0.99816903927 
-0.060733946808 -0.018144147262 0.99798906689 -0.062980998442 -0.021922386174 0.9977739237 -0.065465663809 -0.025935055154 0.99751772905 
-0.068217082991 -0.0301934504 0.99721351031 -0.071258127762 -0.034708468951 0.99685385158 -0.074614923994 -0.039489587899 0.99643022112 
-0.078310807139 -0.044542855982 0.99593340714 -0.082370780214 -0.04987424682 0.99535300978 -0.086816263548 -0.055483390516 0.99467810359 
-0.09165555703 -0.061362833036 0.99389831552 -0.096900291046 -0.067502882553 0.99300236376 -0.10255337253 -0.073887116361 0.99197958639 
-0.10859616329 -0.080488041937 0.99082215782 -0.11500683588 -0.087267627528 0.98952402138 -0.12174966485 -0.094180100046 0.98808255114 
-0.12876527429 -0.10116948818 0.98650100801 -0.13598600623 -0.10817161795 0.98478764573 -0.14332514002 -0.11510950024 0.98295864979 
-0.1506807653 -0.1218984378 0.98103826522 -0.15793387591 -0.12845197069 0.97905923318 -0.16496849642 -0.13468217476 0.97705993009 
-0.17165647647 -0.14049661765 0.97508704971 -0.17786359282 -0.14580760642 0.97319303546 -0.1834768214 -0.15054069342 0.97142871876 
-0.18837753406 -0.15462192634 0.9698484235 -0.19246276087 -0.15798940096 0.96850267675 -0.19564854862 -0.16059209113 0.96743569589 
-0.19787034504 -0.16239455783 0.96668264396 -0.19787034504 -0.16239455783 0.96668264396 
NormalArray 3 302 double
-0.1333193425 -0.85733352145 -0.49719733096 -0.1333193425 -0.85733352145 -0.49719733096 -0.12897277804 -0.85999838738 -0.49372947676 
-0.13267437559 -0.86126322381 -0.4905335558 -0.13603235772 -0.86394613272 -0.48486315328 -0.14064095591 -0.86738581773 -0.47734889202 
-0.14719981177 -0.87119478051 -0.46835015729 -0.15458071275 -0.87558845053 -0.45765671474 -0.16323801924 -0.88021309826 -0.44562119645 
-0.17269955791 -0.88502800048 -0.43231967462 -0.18299575289 -0.88981648364 -0.41801815734 -0.19392097735 -0.89445560172 -0.40291913717 
-0.20591511108 -0.89860628226 -0.38743479002 -0.2177130777 -0.90257402864 -0.37143120308 -0.23052980183 -0.90577770671 -0.35555977908 
-0.24329035147 -0.90851865641 -0.33971113588 -0.2563185443 -0.91059867748 -0.32420803881 -0.26944110833 -0.91203578574 -0.30917990664 
-0.28270495068 -0.91278378331 -0.29479429401 -0.2957746317 -0.91297162115 -0.28106971771 -0.30893123623 -0.91248976882 -0.26818634021 
-0.32213359966 -0.91136969408 -0.25619372492 -0.33524545993 -0.90969322184 -0.24508921589 -0.34781138409 -0.90769817246 -0.23475789402 
-0.36100274048 -0.90487607016 -0.22555779528 -0.37374574556 -0.90175392659 -0.21714965704 -0.38652299574 -0.89813249741 -0.20966161035 
-0.3997355696 -0.89382777943 -0.20318310735 -0.41258595851 -0.88926360841 -0.19744128647 -0.42637411168 -0.88376429911 -0.19278428488 
-0.44012437075 -0.87784707153 -0.1888784193 -0.45469604559 -0.87102215075 -0.18593525494 -0.46980721683 -0.86341742672 -0.18382471611 
-0.4860902815 -0.85460088822 -0.18268431809 -0.5030526622 -0.84480605662 -0.18232044799 -0.52113880686 -0.83366248607 -0.18281466931 
-0.54041421505 -0.82100325326 -0.18413618414 -0.56043964191 -0.80701373947 -0.18610811932 -0.58068460433 -0.79199854163 -0.18853036982 
-0.60103292959 -0.77598590053 -0.19132511527 -0.62145424235 -0.75893871759 -0.19443931599 -0.63993441591 -0.74268091606 -0.19725364449 
-0.65628192605 -0.72761431495 -0.19967834692 -0.66969414517 -0.71479200077 -0.20145011185 -0.67952733155 -0.70519177071 -0.20235407633 
-0.68545895785 -0.69945197441 -0.20226950487 -0.68782417621 -0.69741676187 -0.2012654041 -0.68561732705 -0.70022583593 -0.19902929321 
-0.68107094898 -0.70544772334 -0.19617816414 -0.67312954536 -0.71406071849 -0.19238998279 -0.66544499383 -0.7222035526 -0.18869284243 
-0.65785499067 -0.73006385033 -0.1850232031 -0.6518405026 -0.73624450467 -0.1817910573 -0.64672074872 -0.74147583202 -0.17878999891 
-0.64600813167 -0.74252220913 -0.17701486592 -0.64765788832 -0.74135632119 -0.17586945367 -0.6518857878 -0.73775122515 -0.17540823657 
-0.65922738256 -0.73110969192 -0.17577791803 -0.66907475125 -0.7218597219 -0.17679796135 -0.68049495496 -0.71075521981 -0.17819549319 
-0.69304663954 -0.69810049005 -0.1798389869 -0.70622146967 -0.68431058942 -0.18157712683 -0.72077586491 -0.66840523854 -0.18362077673 
-0.73459988835 -0.6526921429 -0.18535363669 -0.748295766 -0.63647967208 -0.18694136408 -0.76195133767 -0.61962555504 -0.18839939111 
-0.77450781609 -0.60354139839 -0.18940808652 -0.78681662447 -0.58714750987 -0.19020357805 -0.79827431411 -0.57134185369 -0.19059539777 
-0.80870877155 -0.55650007576 -0.19051978504 -0.81890885073 -0.54149145807 -0.19019804162 -0.82807790877 -0.52765724597 -0.18938006174 
-0.83668282735 -0.51433853968 -0.18819594317 -0.84482190634 -0.50142896789 -0.18666798528 -0.85218558223 -0.48955739606 -0.18469783271 
-0.85895632599 -0.47848240061 -0.18234204764 -0.86549341277 -0.46757169622 -0.17971605758 -0.87133364313 -0.45777698134 -0.17668592958 
-0.87670988226 -0.44870122666 -0.17334068059 -0.88166436312 -0.44030094774 -0.16971454334 -0.88608873264 -0.43284786567 -0.16579952674 
-0.89003610082 -0.42627173435 -0.1616420358 -0.89357740671 -0.42044910731 -0.15729579263 -0.8965442311 -0.41578780917 -0.15273814006 
-0.89891343739 -0.41237427961 -0.14799353226 -0.90069503712 -0.41020984965 -0.14309552532 -0.90181639946 -0.40947601771 -0.13804554534 
-0.90220663524 -0.41033700743 -0.13284098639 -0.90202286422 -0.4124148906 -0.12754885511 -0.90084778264 -0.41662754888 -0.12204408233 
-0.89903156857 -0.42211622424 -0.11644797959 -0.89641647146 -0.42916316685 -0.11070901456 -0.89313949382 -0.43738395795 -0.10486714409 
-0.88932580869 -0.44643931282 -0.098952240845 -0.88510799512 -0.45600049779 -0.092991306048 -0.88102184534 -0.4649833745 -0.087126169809 
-0.87712196361 -0.47332874717 -0.081344686667 -0.8739712677 -0.48003227816 -0.075784135228 -0.87191090893 -0.48456137158 -0.070509886279 
-0.87127572033 -0.48639174416 -0.06558727296 -0.87227279584 -0.48519393431 -0.061049289529 -0.87520799436 -0.48038085411 -0.056966671047 
-0.87997024776 -0.47202888716 -0.053301901936 -0.88654723558 -0.45992155701 -0.050061567005 -0.89451824669 -0.44453847756 -0.04714497125 
-0.90374602335 -0.42574446714 -0.044550802319 -0.91377108149 -0.4040331267 -0.042185817179 -0.92418557261 -0.37984594538 -0.039976057299 
-0.93458939617 -0.35370931705 -0.037846791081 -0.9445536143 -0.32641074386 -0.035700084152 -0.95382708585 -0.29848367218 -0.033487127957 
-0.96214377498 -0.27075888385 -0.031128493088 -0.96936931769 -0.24394002541 -0.028572537798 -0.97547420175 -0.21859772987 -0.025789808503 
-0.98044098131 -0.19549677478 -0.022726486927 -0.98431487707 -0.17535754464 -0.019337898167 -0.9872396219 -0.1584727018 -0.01563111414 
-0.98932558748 -0.14526055159 -0.011586807891 -0.99065895365 -0.13617383299 -0.0071780750402 -0.99136031906 -0.13114413445 -0.0024359377014 
-0.99146485808 -0.13034729938 0.0026489110986 -0.99101655695 -0.13349775945 0.0080331863209 -0.99000601703 -0.1403593777 0.013686903518 
-0.98845321328 -0.15026271658 0.019528470689 -0.98637086364 -0.16255194884 0.025482999857 -0.98384069322 -0.17626431058 0.031438561856 
-0.98105466579 -0.19011700136 0.037246053764 -0.97821323377 -0.2031431426 0.042798748758 -0.97563330859 -0.21410286613 0.047954247764 
-0.9737258444 -0.221577122 0.05255053713 -0.97276716639 -0.22479064777 0.056508447733 -0.97302400238 -0.2228380642 0.059728451641 
-0.97462843786 -0.21503139971 0.062136183166 -0.97747481019 -0.20120429011 0.063716788023 -0.98135395139 -0.18108741018 0.064434245317 
-0.98585130157 -0.15480029926 0.06429680036 -0.99041167301 -0.12276933523 0.063343573405 -0.99443243542 -0.085484751698 0.061615652406 
-0.99730645988 -0.04338124668 0.05914298364 -0.99842698644 0.0027453499582 0.056000141004 -0.9972734943 0.052097384158 0.052263181469 
-0.9934074497 0.10411534178 0.047975352803 -0.98650549609 0.15791870345 0.043227182301 -0.97629257853 0.21308483102 0.038048073459 
-0.96261877913 0.26890149598 0.032512636439 -0.94541757002 0.32476687316 0.026685134479 -0.92459336285 0.38039905141 0.020583368303 
-0.90039831896 0.43482996487 0.014344645993 -0.87263734472 0.48830473239 0.0079090404761 -0.84204099224 0.5394114155 0.0015140058166 
-0.80805604162 0.5890842426 -0.0050188367579 -0.77249227405 0.63492488622 -0.01122833008 -0.73436122368 0.67853547565 -0.017412680256 
-0.69523813831 0.7184036157 -0.023241686428 -0.65540075576 0.75473518122 -0.02871681708 -0.61615001303 0.78691014763 -0.033638980388 
-0.57634006366 0.81631259573 -0.038286774291 -0.53863217519 0.84148227065 -0.042225206197 -0.50144449922 0.86397711195 -0.045792621986 
-0.46612952143 0.88336943068 -0.048802850269 -0.43242361842 0.9002075483 -0.051343784617 -0.39961787743 0.91511589594 -0.05355790349 
-0.36947657933 0.92759864466 -0.055206989945 -0.3391191878 0.93903058413 -0.056742740029 -0.31025363553 0.94888701513 -0.057931978769 
-0.2817355401 0.95767926904 -0.058953397707 -0.25320243851 0.96555916677 -0.059866690167 -0.22538033534 0.97238523218 -0.060586010567 
-0.19566565755 0.97874278293 -0.061461494558 -0.16600937594 0.98415781108 -0.062243794802 -0.13530929245 0.98879321089 -0.063082338805 
-0.10228987489 0.99268487021 -0.064136806486 -0.068319868189 0.99552793008 -0.065242133989 -0.030291224651 0.99730880301 -0.066765209147 
0.0083413034474 0.9976299672 -0.068299862365 0.052315016276 0.99614775068 -0.070376117334 0.097589493872 0.99258012435 -0.072532664529 
0.14870557486 0.98601493141 -0.075240993059 0.20182244952 0.97630561336 -0.078070789645 0.25946974001 0.96232696893 -0.081254285344 
0.32190569595 0.94296921602 -0.084768983493 0.3852369608 0.91859232983 -0.088207797954 0.4519751583 0.88729866187 -0.09175805643 
0.51920200662 0.8493422612 -0.095115717197 0.58497185097 0.80510027659 -0.098089133964 0.64791495163 0.75504673842 -0.10055166964 
0.70726238456 0.69949057248 -0.10243465422 0.76017467291 0.64141203017 -0.10356193418 0.80759398789 0.58049355483 -0.10401530428 
0.84748324527 0.52058722144 -0.10373569233 0.88108625382 0.46163829086 -0.10284503753 0.90946822816 0.40321213834 -0.10142738024 
0.93227421846 0.34778954963 -0.099534972609 0.95063274203 0.29468590807 -0.097250220424 0.96527583208 0.24349226839 -0.094626017748 
0.97663795281 0.19434118488 -0.091705032511 0.98512024048 0.147316068 -0.088521680426 0.99118769493 0.10152350362 -0.085087787815 
0.99506256138 0.056761099238 -0.081416684737 0.99688382312 0.014381139055 -0.077561756277 0.99691193566 -0.027698772864 -0.073480409034 
0.99532856941 -0.067261857591 -0.069259522296 0.99226481716 -0.10584602805 -0.064862554463 0.9880514816 -0.14180777512 -0.060372382947 
0.98278536264 -0.1761321212 -0.055771021675 0.97693328918 -0.20732928753 -0.051146016771 0.97062614391 -0.23605706826 -0.046496766383 
0.96414801511 -0.26204204764 -0.041863710084 0.95780113123 -0.28500285404 -0.037287614644 0.9523151034 -0.30333942175 -0.032880679004 
0.94711704254 -0.319616281 -0.028543662319 0.94321518732 -0.33128218209 -0.024438212713 0.94097491338 -0.33784767723 -0.020619393221 
0.93997188783 -0.34082647088 -0.017034284073 0.94079460128 -0.33869659552 -0.013788922555 0.94375661545 -0.33045939065 -0.010956364861 
0.94864822167 -0.31621748551 -0.008547126989 0.95554342243 -0.29477577938 -0.0066338325837 0.9643300549 -0.26464977071 -0.005295666453 
0.97411100249 -0.22602503313 -0.0045209752856 0.98425370598 -0.1767065196 -0.0044100116279 0.99321290744 -0.11620441194 -0.0049653944347 
0.99901393584 -0.043963363562 -0.0061950513644 0.99923712416 0.038227569215 -0.0079889081941 0.99172419079 0.12798005935 -0.010209495667 
0.9748092388 0.22267734766 -0.012717970812 0.94890133613 0.31520815917 -0.015168081172 0.9154662536 0.40201903529 -0.017384872144 
0.87843392394 0.4774820785 -0.019097276972 0.84081896085 0.54093695323 -0.020265431114 0.80682672861 0.59042246388 -0.020783266042 
0.7781918352 0.62768462855 -0.020723771482 0.75686829253 0.65325829068 -0.020099587381 0.74346657467 0.66850402049 -0.018969105025 
0.73646042836 0.67625492101 -0.017473387512 0.7392444431 0.6732598546 -0.015453851467 0.7474633684 0.66417282999 -0.013151608286 
0.76285385663 0.64648638995 -0.010456625686 0.78107652444 0.62438914831 -0.0075930530193 0.80295225751 0.59602643731 -0.0044897864404 
0.82540594265 0.56453813757 -0.0013118939426 0.84830976214 0.52949669468 0.0019487895564 0.86942967403 0.49402992651 0.0051452522681 
0.88678626776 0.46210857428 0.0081105418201 0.90024125748 0.43525759698 0.010793637498 0.90975738801 0.41493197742 0.013151010466 
0.91512834157 0.40287868582 0.015128878556 0.91490156354 0.40333684992 0.016568479823 0.90968599465 0.41492676912 0.017526191941 
0.89918166237 0.43720476051 0.018009315278 0.88033377211 0.47401989953 0.017820901529 0.85640160766 0.5160199092 0.01731299224 
0.82319493787 0.56752651941 0.016240197829 0.78460432703 0.61981634093 0.014958392808 0.74086023454 0.67152317258 0.013518194164 
0.69265756959 0.72116700189 0.011985268923 0.6455246446 0.76366458751 0.010692567138 0.60031476646 0.7997053819 0.0096686784196 
0.5596966341 0.82864823876 0.009042906913 0.52437326517 0.85144265822 0.0088362063191 0.49418285118 0.86931112339 0.0090266470599 
0.47182556289 0.88163801445 0.009749342458 0.45371462175 0.89108138763 0.010816774823 0.44193470057 0.89696234987 0.012339503728 
0.43530281847 0.90017108888 0.014264184786 0.43119721513 0.9021074662 0.01646454047 0.43252748293 0.90141842254 0.019099843335 
0.43570262569 0.89982180208 0.021998783485 0.44302207162 0.89615382953 0.025293435415 0.45135328025 0.89187919428 0.028839542568 
0.46268483634 0.88591751065 0.032755252167 0.47479193119 0.87932234025 0.036943795407 0.48812316759 0.87179008323 0.041446640908 
0.50323552659 0.8629073416 0.046313330594 0.5174908744 0.85414167759 0.051431405892 0.533432422 0.84392330258 0.056950070506 
0.54957527229 0.83307910396 0.062818999057 0.56488118451 0.82228153287 0.069009623186 0.58092472242 0.81043702395 0.075619422722 
0.59570360044 0.79894860585 0.082573274341 0.61111092255 0.78641430965 0.089977630037 0.62534689324 0.77419837576 0.097765730603 
0.63878291502 0.76205617884 0.10595644275 0.65203993188 0.74947725326 0.11457649884 0.66420201907 0.73726738221 0.12358189587 
0.67498253591 0.72575941012 0.13293552883 0.68592287311 0.71355494232 0.14265046949 0.69526097457 0.70236787971 0.15261565711 
0.7038590335 0.69143647062 0.16278227193 0.71156603992 0.68097343942 0.17305763674 0.71863360784 0.67078574216 0.18333637335 
0.72485193157 0.66117526017 0.19348631123 0.72974989408 0.65277072839 0.20336043923 0.73488840827 0.64392368166 0.21284106652 
0.738596482 0.63663205246 0.22175406776 0.74202947017 0.62969153774 0.22995832819 0.74491757567 0.62351958521 0.23732073724 
0.74711020954 0.61841187774 0.24370696392 0.74890385295 0.61411763474 0.2490031119 0.75072206901 0.61020453947 0.25311419381 
0.7516133136 0.60791109139 0.25597174019 0.7516133136 0.60791109139 0.25597174019 
BinormalArray 3 302 double
0.90155325642 -0.31326916883 0.29843618027 0.90155325642 -0.31326916883 0.29843618027 0.90231088318 -0.30830029931 0.30130714487 
0.90205143703 -0.31000995637 0.30032820698 0.90198513983 -0.31043628209 0.30008685789 0.90186993916 -0.31115820994 0.29968513682 
0.90157774661 -0.31292534881 0.29872276927 0.90126350893 -0.31474624938 0.29775642055 0.90082485551 -0.3171718499 0.29650733099 
0.90031262536 -0.31986545273 0.29516651025 0.89968755104 -0.32298624407 0.29367021752 0.89895347553 -0.32646273579 0.2920697365 
0.89797320634 -0.33086005728 0.29013056233 0.89699084524 -0.3350376 0.28836995361 0.89568057114 -0.34032414182 0.28624428897 
0.89426846676 -0.34573128291 0.28417211224 0.89263798313 -0.35166775072 0.28200571655 0.89080526079 -0.35802063972 0.27979851479 
0.88872797719 -0.36488516522 0.27752729373 0.8864892971 -0.37194973638 0.275300054 0.88398043198 -0.37952223997 0.27302282918 
0.88119623705 -0.38756764569 0.27071112245 0.87817224572 -0.39594332007 0.26840714248 0.8750799636 -0.40416955098 0.26623679567 
0.8714518377 -0.41344593531 0.26388283981 0.86771221795 -0.42263969454 0.26163179361 0.86365970583 -0.4322323896 0.25935896728 
0.859101787 -0.44261894855 0.25696806407 0.85439570364 -0.4529477702 0.25464936498 0.84890555576 -0.46454910754 0.2520981636 
0.84308302262 -0.47638518038 0.24953592302 0.83645931273 -0.48932952467 0.2467639245 0.8291358773 -0.50306762456 0.24383736811 
0.82069475191 -0.51823749316 0.24060345979 0.81134106936 -0.53430651847 0.23715440854 0.80071556235 -0.55171872857 0.233368877 
0.78865036028 -0.5705239634 0.22920082118 0.77531282592 -0.59024744859 0.2247175369 0.76098697666 -0.61032084961 0.22001654911 
0.74569679551 -0.63060819356 0.21510368521 0.72940490613 -0.65106327628 0.20996450462 0.71385216447 -0.66957756867 0.20513645903 
0.69942617818 -0.68594059678 0.20072000141 0.68713851865 -0.69930697812 0.19700356986 0.67793063194 -0.70899765998 0.19424823404 
0.6724198217 -0.71466851874 0.19261487925 0.67046183088 -0.71666012192 0.19203958703 0.67315530145 -0.71391920582 0.19282455158 
0.6781698995 -0.70876158232 0.19427456561 0.68644854341 -0.70008370731 0.19664994281 0.69428132131 -0.69167928923 0.19887988267 
0.70184833589 -0.68337478853 0.2010169441 0.70780407364 -0.67670684584 0.20268507131 0.71285042463 -0.67096424028 0.20408640419 
0.71386673265 -0.66979755551 0.20436614849 0.71275125384 -0.67107705526 0.20406184369 0.70928236441 -0.675025284 0.203124084 
0.70288037933 -0.68219758469 0.20140910556 0.69395566051 -0.69196001066 0.19903990777 0.683234658 -0.70334082716 0.1962194765 
0.67101007826 -0.71587982115 0.19303252718 0.65768244049 -0.72904703063 0.18958964793 0.64230106144 -0.74362789733 0.18565262394 
0.62710135054 -0.75742537891 0.18179849156 0.61141286829 -0.77106449568 0.17785906776 0.59509734067 -0.78463464225 0.17380343296 
0.57952555278 -0.7970314203 0.16997367066 0.56364936957 -0.80913899794 0.1661128237 0.54834232362 -0.82032656047 0.16243469553 
0.53397129889 -0.83041284213 0.15902566961 0.51943669912 -0.84021804084 0.15562506047 0.50604660584 -0.84891041532 0.15253832135 
0.49316049895 -0.85697612812 0.14961496621 0.48067604513 -0.86451788745 0.14683106594 0.46920940152 -0.87121406444 0.14432114 
0.4585267415 -0.87725762598 0.14202916949 0.4480107475 -0.88302690835 0.13982077544 0.43859533181 -0.88804332569 0.13788831212 
0.42989303289 -0.89255610095 0.13614546239 0.42186242459 -0.89661626527 0.13457848105 0.41477169966 -0.90011861782 0.13323254488 
0.40855281211 -0.90312673194 0.13208597869 0.40308478817 -0.905722526 0.13110819745 0.39877037441 -0.90773795613 0.13036100452 
0.39569575076 -0.90915613216 0.12984606342 0.39386301711 -0.90999385166 0.12954965725 0.39345274036 -0.91018042196 0.12948567711 
0.39462900759 -0.90964588929 0.12966226304 0.39701860697 -0.90855621334 0.13000704955 0.40153454425 -0.90647960339 0.13063207267 
0.40732639263 -0.90378063374 0.13139929967 0.41467732829 -0.90029535884 0.1323290605 0.42320759989 -0.89616483372 0.1333563579 
0.4325818109 -0.8915167372 0.13442798881 0.44247451669 -0.88648555358 0.1354978427 0.45180524402 -0.88161988679 0.13644924587 
0.46051563852 -0.87697121525 0.13728377287 0.46760170425 -0.8731133043 0.13791955638 0.47252975143 -0.87039057842 0.13833247994 
0.47477345858 -0.86914083521 0.13850765897 0.4740011456 -0.86957120445 0.13845155958 0.46962247176 -0.87199065899 0.13815579845 
0.46171257332 -0.87628281256 0.13765875217 0.45005293905 -0.88243404186 0.1369763258 0.43512432418 -0.89001512433 0.13616130498 
0.41678994741 -0.89888822572 0.13522609733 0.39554504135 -0.90858752441 0.1342118875 0.37183221325 -0.91870097318 0.13315151919 
0.34617909892 -0.9288248758 0.13207718032 0.31937546682 -0.93852596852 0.13102792683 0.29195494806 -0.94755205765 0.13002848282 
0.264750001 -0.95563474868 0.12911105332 0.23846471659 -0.96263908026 0.12829879225 0.21366926435 -0.96853608629 0.12760601488 
0.19112954376 -0.97330800812 0.12704730942 0.1715667157 -0.97700049742 0.12662894656 0.1552716311 -0.97975957704 0.12634038061 
0.14266282747 -0.98169708555 0.12616715059 0.13419382059 -0.9829008282 0.12608719379 0.12979378959 -0.98349424596 0.12606601583 
0.12963890545 -0.98351467101 0.12606603862 0.13344076367 -0.98300870742 0.12604540345 0.14096137517 -0.98196909383 0.12596265109 
0.15152618587 -0.98041724667 0.12578488556 0.16447482986 -0.97836622371 0.12548929292 0.17883772532 -0.9758963044 0.12507386241 
0.19332318628 -0.97319534781 0.12456709297 0.20695841514 -0.97045855797 0.12400968374 0.21849556039 -0.96799482167 0.12347354094 
0.22650693492 -0.96620430565 0.12306034364 0.23021418223 -0.96535417079 0.12285257527 0.22870767178 -0.96570074065 0.12294258979 
0.22129688831 -0.96736681717 0.12340635419 0.20781623316 -0.97024120498 0.12427557037 0.1879954983 -0.97410947086 0.12557241496 
0.16195563502 -0.97855559557 0.12727654404 0.13012553697 -0.98302617249 0.12933247396 0.092997462971 -0.98692171445 0.13167004759 
0.051007076942 -0.98963848842 0.13421602117 0.0049532317528 -0.99057619208 0.13687320107 -0.044363523167 -0.98922093019 0.13954866206 
-0.096382906512 -0.98513884132 0.14216820548 -0.1502210455 -0.97801353688 0.14464839846 -0.20545537475 -0.96757323871 0.14693575713 
-0.261371116 -0.95367331978 0.14897093296 -0.3173643089 -0.93625149127 0.15070846204 -0.3731535765 -0.9152137498 0.15211903405 
-0.42776376254 -0.89081916055 0.15316457374 -0.48144484384 -0.86286992328 0.15383873971 -0.532770619 -0.83210704866 0.15412114423 
-0.5826873233 -0.7979691178 0.15401548725 -0.62876657643 -0.76228434556 0.15354207526 -0.67262967145 -0.7240506948 0.15270859974 
-0.7127415644 -0.68485515705 0.15156805811 -0.7493068836 -0.64497342938 0.15016147837 -0.78169015371 -0.60571151808 0.14857341776 
-0.81129351829 -0.56591179362 0.14678783679 -0.83662437126 -0.52824867962 0.14495859372 -0.85926311315 -0.49112697285 0.14304264719 
-0.87876748076 -0.45590398455 0.14113564971 -0.89569096194 -0.42231187581 0.13924934562 -0.91066764863 -0.38963622784 0.13736099775 
-0.92318376408 -0.35964823494 0.13559087304 -0.9346466161 -0.32945206853 0.13377980994 -0.94451464766 -0.30076281499 0.13203715187 
-0.95331208871 -0.27242968287 0.1303001512 -0.96119523108 -0.24408774585 0.12854921266 -0.96801668537 -0.21646529071 0.12683246731 
-0.97438677817 -0.18694614722 0.12498617753 -0.97981433384 -0.15748926045 0.12313002905 -0.98447284584 -0.12698630808 0.12119279417 
-0.9884095553 -0.094155290738 0.11908539885 -0.9913086141 -0.060370063216 0.11688749756 -0.99318200965 -0.022508648938 0.11438031486 
-0.99360517354 0.015960122398 0.11177671317 -0.99227153021 0.059792968646 0.10872907259 -0.98886886892 0.10493302571 0.10548658776 
-0.98251970625 0.15593736175 0.10167873937 -0.97305007614 0.2089491909 0.097538633146 -0.95935471195 0.26650478795 0.092810207713 
-0.94032798143 0.32885902175 0.087378665337 -0.91630344917 0.39210345537 0.081503799471 -0.8854048314 0.45875233997 0.074863710216 
-0.8478675219 0.5258756126 0.067642482048 -0.8040560428 0.59152052142 0.059977935673 -0.75443504321 0.65431292859 0.051984200083 
-0.69930818923 0.71348155752 0.043727835027 -0.64163009266 0.76618615162 0.03563152051 -0.58108929552 0.8133711285 0.027615900415 
-0.52151412826 0.85300497368 0.020137748164 -0.46285655554 0.88633598707 0.013127338567 -0.40468870927 0.91443147253 0.0064908116872 
-0.34948152685 0.93694313859 0.00046631741037 -0.29655831684 0.95500131195 -0.0050654598596 -0.24551505211 0.96933934516 -0.010178069868 
-0.19648605525 0.9803936542 -0.014883309203 -0.14955636746 0.98856685337 -0.019195556137 -0.10383734581 0.99432337908 -0.02321257036 
-0.059128161737 0.99788624024 -0.026961306075 -0.016778164666 0.99939874351 -0.030342126691 0.025288649311 0.99911773129 -0.033529736715 
0.064859960453 0.99723152726 -0.03636573339 0.10346961016 0.99386882188 -0.038971844613 0.13947597853 0.9893659217 -0.041249538053 
0.17386147002 0.98381874984 -0.043276514451 0.20513675922 0.97769904008 -0.044983297403 0.2339573563 0.97113765204 -0.046428614291 
0.26004843443 0.96442060588 -0.047620444083 0.28312701914 0.9578517338 -0.048571051906 0.30159103125 0.95216455982 -0.049249374585 
0.3180029577 0.94678195152 -0.049780067911 0.32980880475 0.94271684616 -0.050110879719 0.33651628038 0.94033483376 -0.05027119909 
0.33963756714 0.93920862909 -0.050333627206 0.33764726419 0.93992772538 -0.050301054033 0.32954350465 0.94280515154 -0.050194867951 
0.31542684008 0.94762910623 -0.050049831087 0.29409909971 0.95447244679 -0.049880536055 0.2640726879 0.96322168531 -0.049695074677 
0.22553223481 0.9729772978 -0.04950140431 0.17627964417 0.98310584568 -0.049278628615 0.11582465558 0.99206059529 -0.048994126442 
0.043611525808 0.99786614755 -0.04859204036 -0.038567988691 0.99810192429 -0.048011029813 -0.12832198883 0.9906090615 -0.047192737418 
-0.22303015812 0.97372133312 -0.046090280947 -0.31557278179 0.94784559037 -0.04474992971 -0.40239201966 0.9144459722 -0.043234551434 
-0.47785342161 0.87744926278 -0.041700104491 -0.54129557797 0.83986858487 -0.040247452293 -0.59075470054 0.80590738077 -0.039015092052 
-0.62797859498 0.77730034629 -0.038040188012 -0.65350251755 0.75600171453 -0.037361306004 -0.66868868939 0.7426230286 -0.036965849991 
-0.67637389593 0.73563974395 -0.036776623352 -0.67330397392 0.73844715236 -0.036845106558 -0.66413884645 0.74669204479 -0.037021384155 
-0.64636936782 0.76211247643 -0.037298976022 -0.6241893318 0.78036983033 -0.037558034871 -0.59574322101 0.80228616394 -0.03777467099 
-0.5641743308 0.82478598147 -0.037886795015 -0.5290552047 0.84774183846 -0.037873020867 -0.49351599538 0.86891813082 -0.037725909243 
-0.46152936643 0.88633265853 -0.037484161336 -0.43462014233 0.89984529051 -0.037199261241 -0.41424284373 0.90941688871 -0.036929513237 
-0.40214387398 0.91483896679 -0.036741930687 -0.40256244775 0.91465456492 -0.036749184044 -0.41411727007 0.90947262878 -0.036965174501 
-0.43636373543 0.89899263418 -0.037402327253 -0.47315147674 0.88015497142 -0.038143234544 -0.51512634652 0.85622686087 -0.038992433089 
-0.56661134133 0.82301270493 -0.040020937014 -0.61888174558 0.784411575 -0.041034936115 -0.67057114655 0.7406553819 -0.041999317533 
-0.72019926531 0.69244074977 -0.042881537993 -0.76268093227 0.64530364159 -0.04360052409 -0.79870501453 0.60009807056 -0.04418829567 
-0.82762943636 0.55949580118 -0.044653830057 -0.85040352898 0.52420060452 -0.045028481196 -0.86825014705 0.49405051363 -0.045340623357 
-0.88055384622 0.47174937272 -0.045579087766 -0.88997403855 0.45370660498 -0.045787850973 -0.89583290509 0.4420102031 -0.045938943315 
-0.89902213089 0.43547668911 -0.04603543638 -0.9009427391 0.431481931 -0.046103406321 -0.90024428317 0.43294035672 -0.046074701696 
-0.89864532981 0.43625755015 -0.045999142837 -0.89498565351 0.44373732241 -0.045802496691 -0.89073029088 0.45224459456 -0.045545313608 
-0.88480344433 0.46377220874 -0.045146465025 -0.87825940984 0.47609436521 -0.044660546814 -0.87079849132 0.48966237605 -0.044053887396 
-0.86201240854 0.50503634496 -0.043276989083 -0.85336779219 0.51957810153 -0.042450060875 -0.8433054595 0.53583657236 -0.041413399921 
-0.83265445995 0.55232921533 -0.040236652648 -0.82208973149 0.56802148101 -0.038988081472 -0.81053012282 0.58449328709 -0.037530219055 
-0.79937765662 0.5997474962 -0.036031970505 -0.78724741657 0.61568262366 -0.034298863271 -0.77550254642 0.63050651729 -0.032516644343 
-0.76390813999 0.64459676 -0.030649154199 -0.75196692802 0.65857968971 -0.028609989032 -0.74048530279 0.67154858437 -0.026533284628 
-0.72979822522 0.68322394112 -0.024486664757 -0.71852852403 0.69514293888 -0.022204834341 -0.70837080428 0.70555614256 -0.020033305815 
-0.69857137437 0.71531834994 -0.017823948624 -0.68933415478 0.7242748621 -0.015631608555 -0.68045840573 0.73266383224 -0.013418904964 
-0.67222390932 0.74026214694 -0.011268076105 -0.66522325796 0.74658587408 -0.0093567992058 -0.6578179251 0.75314208753 -0.0072507525463 
-0.65192736625 0.75826138647 -0.0055117074042 -0.64634109242 0.76303912692 -0.0038056583292 -0.64143126013 0.76717718063 -0.0022609831894 
-0.63744822492 0.7704925758 -0.00097528477061 -0.63411442557 0.77323921259 0.00012409562657 -0.63098179096 0.77579675191 0.0011743944091 
-0.62922551869 0.77722076178 0.0017703343144 -0.62922551869 0.77722076178 0.0017703343144 
