# vtk DataFile Version 4.1
vtk output
ASCII
DATASET POLYDATA
POINTS 158 float
19.0762 -5.47971 229.312 18.7196 -4.85708 225.799 18.3638 -4.23525 222.285 
18.0116 -3.61661 218.765 17.6656 -3.00353 215.234 17.3285 -2.39833 211.689 
17.003 -1.80321 208.124 16.6917 -1.22025 204.538 16.3972 -0.651378 200.926 
16.1221 -0.0983296 197.286 15.8689 0.437365 193.616 15.64 0.954396 189.915 
15.4379 1.45169 186.183 15.2649 1.92839 182.418 15.1231 2.38389 178.623 
15.0145 2.81779 174.798 14.941 3.2299 170.945 14.9043 3.62024 167.065 
14.9058 3.98895 163.162 14.9467 4.33635 159.237 15.0279 4.66286 155.294 
15.1501 4.96897 151.334 15.3136 5.25524 147.361 15.5184 5.52224 143.376 
15.7642 5.77053 139.381 16.0503 6.00065 135.379 16.3758 6.21307 131.37 
16.7392 6.40819 127.356 17.1388 6.5863 123.337 17.5725 6.74758 119.314 
18.0381 6.89207 115.286 18.5326 7.0197 111.254 19.0533 7.13022 107.217 
19.5967 7.22327 103.175 20.1594 7.29832 99.1273 20.7376 7.35473 95.0741 
21.3274 7.39172 91.0148 21.9246 7.40842 86.9493 22.5253 7.40384 82.8775 
23.125 7.37695 78.7997 23.7196 7.32665 74.716 24.3048 7.25184 70.6271 
24.8765 7.15142 66.5338 25.4307 7.02433 62.4368 25.9635 6.86959 58.3375 
26.4713 6.68632 54.237 26.9508 6.47376 50.137 27.3988 6.23134 46.0392 
27.8128 5.95866 41.9457 28.1902 5.65555 37.8586 28.5292 5.32205 33.7805 
28.8281 4.95848 29.7144 29.0857 4.5654 25.6635 29.3014 4.14367 21.6313 
29.4747 3.69437 17.6219 29.6057 3.21887 13.6396 29.6948 2.71879 9.68899 
29.7428 2.19596 5.77524 29.7508 1.65241 1.90361 29.7202 1.09035 -1.92041 
29.6527 0.512114 -5.69119 29.5502 -0.0798593 -9.40312 29.415 -0.683091 -13.0507 
29.2491 -1.29509 -16.6286 29.0552 -1.9134 -20.132 28.8356 -2.53564 -23.5564 
28.593 -3.15956 -26.8981 28.3298 -3.78303 -30.1537 28.0487 -4.40414 -33.3211 
27.7521 -5.02115 -36.3986 27.4424 -5.63257 -39.3858 27.122 -6.23712 -42.2827 
26.7928 -6.83378 -45.0906 26.457 -7.42172 -47.8114 26.1165 -8.00037 -50.4478 
25.7728 -8.56933 -53.0032 25.4276 -9.12839 -55.4815 25.0821 -9.67749 -57.887 
24.7376 -10.2167 -60.2246 24.3951 -10.7461 -62.499 24.0555 -11.2661 -64.7151 
23.7196 -11.7767 -66.8779 23.3881 -12.2783 -68.9921 23.0615 -12.7711 -71.062 
22.7403 -13.2553 -73.0918 22.4249 -13.731 -75.0852 22.1158 -14.1983 -77.0456 
21.8133 -14.6573 -78.9758 21.5176 -15.1079 -80.8781 21.2292 -15.5499 -82.7547 
20.9483 -15.9831 -84.607 20.6751 -16.4074 -86.4366 20.4101 -16.8224 -88.2442 
20.1534 -17.2277 -90.0308 19.9053 -17.6232 -91.7971 19.6662 -18.0084 -93.5437 
19.4364 -18.383 -95.2712 19.216 -18.7467 -96.9804 19.0055 -19.0992 -98.6721 
18.805 -19.4404 -100.348 18.6149 -19.77 -102.008 18.4354 -20.0879 -103.656 
18.2666 -20.3941 -105.292 18.1088 -20.6886 -106.92 17.9622 -20.9714 -108.542 
17.8269 -21.2426 -110.162 17.703 -21.5023 -111.784 17.5907 -21.7508 -113.411 
17.4899 -21.9882 -115.048 17.4009 -22.2149 -116.7 17.3235 -22.4309 -118.372 
17.2578 -22.6366 -120.07 17.2037 -22.8322 -121.798 17.1612 -23.0178 -123.562 
17.1303 -23.1936 -125.368 17.1107 -23.3598 -127.222 17.1025 -23.5164 -129.129 
17.1054 -23.6635 -131.094 17.1194 -23.8011 -133.122 17.1442 -23.9291 -135.219 
17.1798 -24.0476 -137.388 17.2258 -24.1565 -139.634 17.2821 -24.2556 -141.96 
17.3485 -24.3449 -144.369 17.425 -24.4244 -146.864 17.5112 -24.4941 -149.448 
17.607 -24.554 -152.121 17.7124 -24.6043 -154.884 17.8273 -24.6452 -157.737 
17.9516 -24.6771 -160.681 18.0854 -24.7004 -163.713 18.2288 -24.7159 -166.832 
18.382 -24.7244 -170.035 18.5452 -24.7268 -173.319 18.7188 -24.7243 -176.681 
18.9032 -24.7182 -180.115 19.0989 -24.71 -183.617 19.3065 -24.7014 -187.181 
19.5267 -24.6941 -190.801 19.76 -24.6899 -194.47 20.0074 -24.6909 -198.183 
20.2694 -24.699 -201.932 20.5468 -24.7161 -205.71 20.8403 -24.7441 -209.511 
21.1505 -24.7847 -213.329 21.4778 -24.8396 -217.157 21.8225 -24.91 -220.99 
22.1847 -24.997 -224.822 22.5644 -25.1013 -228.65 22.9612 -25.2233 -232.47 
23.3744 -25.3629 -236.279 23.8033 -25.5195 -240.076 24.2465 -25.6922 -243.86 
24.7026 -25.8796 -247.631 25.1698 -26.0798 -251.389 25.6461 -26.2906 -255.137 
26.1292 -26.5095 -258.877 26.6166 -26.7335 -262.611 
LINES 1 159
158 157 156 155 154 153 152 151 150 149 148 147 146 145 144 143 142 141 140 139 138 137 136 135 134 133 132 131 130 129 128 127 126 125 124 123 122 121 120 119 118 117 116 115 114 113 112 111 110 109 108 107 106 105 104 103 102 101 100 99 98 97 96 95 94 93 92 91 90 89 88 87 86 85 84 83 82 81 80 79 78 77 76 75 74 73 72 71 70 69 68 67 66 65 64 63 62 61 60 59 58 57 56 55 54 53 52 51 50 49 48 47 46 45 44 43 42 41 40 39 38 37 36 35 34 33 32 31 30 29 28 27 26 25 24 23 22 21 20 19 18 17 16 15 14 13 12 11 10 9 8 7 6 5 4 3 2 1 0 

CELL_DATA 1
FIELD FieldData 2
LengthArray 1 1 double
497.746108 
TortuosityArray 1 1 double
0.010776290781 
POINT_DATA 158
FIELD FieldData 8
RadiusArray 1 158 double
78.310083109 79.211687019 80.76601567 81.176501714 81.234686714 81.60890277 81.590802459 81.521925634 81.6779438 
82.038923416 82.165563364 82.409887603 82.364940227 82.312617364 81.87009253 81.589303291 81.366385185 81.035725684 
80.471854916 80.459183345 80.001932709 79.77779458 79.765654043 79.727401827 79.262776094 78.946708047 78.626883142 
78.538327045 78.524594572 78.436093724 78.352572403 77.982300296 77.486455266 77.353287044 76.816679867 76.636840968 
74.954051758 74.939849852 74.303128184 73.850662955 73.843633065 73.794465507 73.160745219 72.185105672 72.161749946 
71.706734311 71.249873198 70.685573758 70.468585289 69.566916682 69.537148258 68.646917845 67.580652403 67.580631061 
67.575316906 66.305112313 65.09756264 63.807802248 63.685053125 62.966061544 62.824462073 62.336743523 62.107277602 
61.883367837 61.711488043 61.724725549 61.862184265 61.874274435 61.931097325 62.107458658 62.242934248 62.336906637 
62.45099978 62.480979922 62.644101672 62.732810983 63.011217635 63.47566884 63.536968964 63.557285369 63.701677959 
64.447286641 64.598540597 64.703249332 64.82871868 64.90122566 65.268743731 65.413387961 65.719027139 66.259103361 
66.407685716 66.502784453 66.708027237 66.946730349 67.199914229 67.672675164 67.862747852 67.93239676 68.520152079 
68.536397851 68.781264709 68.823091816 68.915002508 69.083701287 69.245551441 69.299087687 69.429265881 69.463611839 
69.568279861 69.609202746 69.753906021 69.832907575 69.846301385 69.900200385 70.007697144 70.045244931 70.104019182 
70.165658737 70.173543293 70.194006756 70.142727499 70.136443875 70.004238817 69.857753266 69.735137443 69.725857795 
69.558273594 69.110393372 68.680002655 68.548295538 68.120207041 67.660094913 67.138750164 67.055063311 66.595511587 
66.543808827 66.221043324 64.791937184 64.002556853 63.222022191 62.555826364 61.615530799 60.755905386 60.608328869 
59.895240188 59.315462772 59.288950525 58.631995266 57.929271346 57.201203958 56.726869454 56.691901281 56.145509583 
56.113102502 55.292774636 55.158766946 53.36878705 45.668820098 
EdgeArray 2 158 int
32880 32880 32725 31771 26388 26388 33380 28714 28713 
28712 28712 28707 28707 28707 31281 31281 31282 30451 
30796 25584 29722 30796 31265 29722 31265 31266 31267 
31266 30173 30439 31858 30569 32245 30569 31255 31710 
31259 31385 31385 30698 32390 30565 32397 30425 31413 
29838 28838 28004 30731 30306 27006 30306 28389 27006 
30896 29837 31246 31239 29826 31242 29929 31244 30157 
30157 27896 30156 28677 29052 28148 28148 30334 30334 
24884 24884 28143 28143 24759 28137 12913 12913 28138 
28138 26533 26533 26537 26537 21069 21069 22321 22321 
25956 25956 19828 19828 13050 13050 25395 25395 24871 
24871 16303 25382 25393 25393 25383 25383 16273 25383 
16273 16273 21640 21640 24378 24378 26689 26689 26687 
26687 26932 26932 26930 26930 13985 13985 14106 14106 
26307 26307 26925 26925 26917 26917 26922 26922 26920 
26661 23715 23715 14169 14169 23711 23711 10134 10134 
27113 27113 26666 14096 14096 14096 10859 10859 26212 
26212 7295 7295 26826 21631 22448 21631 22448 22448 
11648 11648 15972 15972 18393 16183 18393 18393 25621 
25621 24737 24737 25901 25901 25899 25899 25907 25907 
24844 24844 21806 21806 21007 21007 15101 7388 7388 
7388 25232 25232 15716 15716 23124 19671 23124 23124 
10781 19073 10781 10781 22987 15090 22987 22987 22440 
22440 23559 23559 23122 20350 20350 20350 17847 17847 
20356 20356 17845 13393 13393 13393 16941 16945 16941 
16941 16938 15956 15956 15956 16931 16931 16558 15321 
16558 16560 16560 9901 15442 15442 6408 6408 14227 
8439 10355 10355 12332 12332 5826 5826 12220 12220 
9407 9407 13527 13527 10765 10765 12271 12271 10140 
10140 9385 9385 10423 10423 9639 8450 6407 6407 
6005 9909 11165 11165 12984 12984 12988 12988 4684 
4684 13523 13523 4608 4608 6826 6826 15064 15064 
15062 15062 13736 13736 9116 9116 21748 21748 20333 
20333 15944 15944 22419 22419 7270 22424 15945 15945 
19640 19640 11803 11803 3415 3415 4246 4246 2625 
2625 
EdgePCoordArray 1 158 double
0 0.264 0 0.544 0.548 0.804 0 0 0.06 
0.26 0.872 0.08 0.18 0.764 0.216 0.628 0.608 0.936 
0.844 0.184 0.788 0.896 0.952 0.852 0.788 0.48 0.808 
0.556 0.484 0.512 0.436 0 0.232 0.78 0 0 
0 0 0.34 0 0 0 0 0 0 
0 0 0 0 0 0.992 0 0 0.996 
0 0 0 0 0 0 0 0 0 
0 0 0 0 0.032 0 0 0 0 
0 0.06 0 0 0 0 0.936 0.92 0 
0 0 0.988 0 0 0 0 0 0 
0 0 0 0.124 0 0 0 0.976 0 
0.976 0 0.888 0 0 0 0.096 0 0 
0 0.036 0 0.768 0 0.132 0 0 0.772 
0.692 0.06 0 0 0.02 0 0 0 0 
0 0 0 0 0 0 0 0.036 0 
0.948 0 0 0 0 0 0 0 0 
0 0 0 0 0 0 0 0.036 0 
0 0 0 0 0 
CurvatureArray 1 158 double
0 0.00011423723806 0.00045433574143 0.00078824192419 0.0011082712687 0.0014084918644 0.0016848909166 0.0019328916431 0.0021508888828 
0.0023385132641 0.0024959268418 0.0026248267608 0.0027279644805 0.0028078745906 0.0028673206402 0.0029095813145 0.0029365502363 0.0029507048638 
0.0029529201256 0.0029441403249 0.0029246122865 0.0028937184326 0.0028509985172 0.0027954082431 0.0027259572698 0.0026417514288 0.0025424751701 
0.0024281970023 0.00229959786 0.0021585241528 0.0020075195729 0.0018512058356 0.0016953461986 0.0015478617907 0.0014191224375 0.001321618041 
0.0012677923203 0.0012663022919 0.0013182611808 0.0014166824542 0.0015499256538 0.0017061170133 0.0018746376039 0.002047167812 0.002217259299 
0.0023800404047 0.0025313293868 0.0026680843352 0.0027884877716 0.0028905514892 0.0029737560794 0.0030377712046 0.0030832840119 0.0031112219018 
0.003123361653 0.0031213350642 0.0031073865075 0.0030840950378 0.0030530710869 0.0030172744503 0.0029778532598 0.0029367626243 0.0028954745972 
0.0028542818433 0.002813543584 0.0027736295892 0.0027332489875 0.0026917844565 0.0026471864153 0.0025973526971 0.0025400982691 0.0024726011441 
0.0023914899643 0.0022946746778 0.0021790737202 0.0020428418526 0.0018853944784 0.0017051328439 0.0015038813927 0.001284014077 0.0010466717168 
0.00079841979831 0.00054022514733 0.00027962836397 5.4276889509e-05 0.00025751292065 0.00051361359495 0.00076735989844 0.0010157370101 0.0012617271232 
0.0015055803295 0.0017511160555 0.0019982945813 0.002253044833 0.0025170660362 0.0027923189424 0.0030810898218 0.0033855490106 0.0037037689723 
0.0040349376576 0.0043767736239 0.0047198078786 0.0050628379382 0.0053917175078 0.0056971065329 0.0059644049667 0.0061858358891 0.0063447136412 
0.0064345634872 0.006450612502 0.0063885104231 0.0062518817707 0.006048115733 0.0057840458185 0.0054762547599 0.0051340137925 0.0047726603537 
0.004404132301 0.004038323601 0.003683388947 0.0033448578541 0.003026312098 0.0027304902012 0.0024567967876 0.002204545764 0.0019730180702 
0.0017602365876 0.0015650037382 0.0013851706364 0.0012205112181 0.0010708580581 0.00093770225653 0.00082293704481 0.00073253881284 0.00067273573686 
0.00064977520529 0.00066609540428 0.0007179492607 0.00079766017748 0.00089616350649 0.0010064511751 0.0011226746111 0.0012394198796 0.0013527405954 
0.0014582469506 0.0015506447509 0.0016263279784 0.001678939366 0.0017045950192 0.0016976812118 0.0016534349191 0.0015692575578 0.0014412263326 
0.0012699077524 0.0010565799088 0.00080458144213 0.00052094977522 0 
TorsionArray 1 158 double
0 0 -0.00049728668155 -0.00094416672581 -0.0015171705171 -0.0021136982231 -0.0026850465984 -0.0032860142997 -0.0038598799431 
-0.0043921788402 -0.0049087224528 -0.0053599152221 -0.0057424012974 -0.0060540241479 -0.0062651470993 -0.0063604212747 -0.0063400533279 -0.0061888185025 
-0.0059038149464 -0.0054845076848 -0.0049285816182 -0.0042369568019 -0.0033936294896 -0.0024108039984 -0.0012683532356 7.7736465585e-05 0.0016434545491 
0.0035108135932 0.0057650067334 0.0085299357377 0.011974792443 0.016288462641 0.021703848353 0.028283075319 0.035704546891 0.042845217296 
0.047651861153 0.04812971058 0.044162323385 0.037533061698 0.030443342033 0.02415441545 0.019037625101 0.01506742958 0.012039783926 
0.009725375368 0.0079498663217 0.0066043722539 0.0055607095513 0.004743988497 0.0041124259714 0.0036193914384 0.0032324652757 0.0029332640684 
0.002698703895 0.0025109063579 0.0023726054827 0.0022527268471 0.0021584618337 0.0020758021121 0.0019843362949 0.0019059353545 0.0018054388964 
0.0016707900152 0.0015261067493 0.001339213284 0.0011113386392 0.00084122745317 0.00050627657631 0.00012091607161 -0.00031850440831 -0.00081003469412 
-0.0013934382105 -0.0020363991864 -0.0027604375405 -0.0035637842676 -0.0044576296984 -0.0055653293087 -0.0068695528552 -0.0086224735355 -0.011306515846 
-0.016296940937 -0.029189383664 -0.091274452432 -2.2829014775 -0.11028856478 -0.034345182989 -0.019797982678 -0.014894903093 -0.012390754862 
-0.010502355244 -0.0090331704962 -0.0077907866472 -0.0065976860246 -0.005423692614 -0.004349272567 -0.0033762132198 -0.0024196726846 -0.0016580151929 
-0.001134245429 -0.0007251006545 -0.0005034816129 -0.00039824793759 -0.00053757075947 -0.00086337488956 -0.001268059563 -0.0017909988139 -0.0024773423487 
-0.0032317739044 -0.0040267970027 -0.0049407189324 -0.0058115763935 -0.0066624018153 -0.0075594543653 -0.0083855105639 -0.0091018441975 -0.0097247245706 
-0.010140926678 -0.010361014417 -0.010373447476 -0.010084464687 -0.0094673170507 -0.0084317099816 -0.0071053314335 -0.0053575672133 -0.0030697709415 
-0.00025687425182 0.0031425288112 0.0074202493448 0.01284272934 0.019655614285 0.028250586725 0.038633213701 0.0499599252 0.059496436854 
0.063026548344 0.05849848676 0.048625466274 0.037657271548 0.028266108024 0.021067956973 0.015813159578 0.011940830114 0.0091276127835 
0.0071060295043 0.0055771229674 0.0044280996534 0.0035261505793 0.0028393721387 0.0023225221252 0.0018701466386 0.0015312979528 0.0012414509179 
0.00098639677406 0.00079169703395 0.00057932597045 0 0 
TangentArray 3 158 double
0.099341479822 -0.17352412244 0.97980643462 0.099341479822 -0.17352412244 0.97980643462 0.098633261518 -0.17281596886 0.98000312276 
0.097080790716 -0.17126774122 0.98042984496 0.094697229776 -0.16890478334 0.98107268275 0.091504932 -0.16577223212 0.98190957551 
0.087532310365 -0.16193071053 0.98291227464 0.082814681171 -0.15745436636 0.98404768741 0.077392604462 -0.15242880179 0.98527957716 
0.071309307792 -0.14694517134 0.98657087897 0.064611001853 -0.14109728601 0.98788510178 0.057345235516 -0.13497925177 0.98918760888 
0.049559718208 -0.12868047283 0.99044695479 0.04130208822 -0.12228375679 0.99163542713 0.03262017309 -0.11586433578 0.99272925816 
0.023561406121 -0.10948716555 0.99370892153 0.014173928575 -0.10320656222 0.99455895012 0.0045068461271 -0.097066160351 0.99526772722 
-0.0053888695372 -0.09109881587 0.99582727711 -0.015459005733 -0.085327432653 0.99623302915 -0.02564631509 -0.07976514798 0.9964837117 
-0.03588888939 -0.074416635994 0.99658123197 -0.046120093015 -0.069278838299 0.99653067167 -0.056268420316 -0.064341248402 0.99634033775 
-0.066257590575 -0.059587916998 0.99602169245 -0.076007201813 -0.054998019515 0.99558933458 -0.085433635458 -0.050545953461 0.99506090292 
-0.094452095852 -0.046203075041 0.99445667449 -0.10297738884 -0.041937913995 0.99379920948 -0.11092608334 -0.037717089285 0.99311269512 
-0.11821802491 -0.033506164618 0.99242220628 -0.12477868865 -0.029270143784 0.99175276029 -0.13054110483 -0.02497422649 0.99112830045 
-0.13544596242 -0.020584322567 0.99057088435 -0.13944328195 -0.01606810349 0.99009968547 -0.1424934462 -0.011395384848 0.98973014655 
-0.14456711261 -0.0065384906831 0.98947339433 -0.14564493767 -0.0014732363401 0.98933582858 -0.14571815089 0.0038204179758 0.9893187681 
-0.14478764421 0.0093579302649 0.98941849954 -0.1428646725 0.01514965066 0.98962627968 -0.1399696853 0.021200322052 0.98992880226 
-0.13613189461 0.027508556697 0.99030873296 -0.13139026529 0.034066512449 0.99074520989 -0.12579214301 0.040859833769 0.99121481564 
-0.11939262959 0.047867871589 0.99169252638 -0.11225477345 0.055063964068 0.99215262218 -0.10444914039 0.062415854824 0.9925697145 
-0.096050914058 0.069886657755 0.99291997511 -0.087139950868 0.077436015908 0.99318190298 -0.077799543403 0.085021350658 0.99333710339 
-0.068113705282 0.092599140123 0.99337098931 -0.058165668447 0.10012640623 0.99327310333 -0.048035911552 0.10756224421 0.99303721724 
-0.037800259229 0.1148688622 0.99266121356 -0.02752872244 0.12201262603 0.99214670716 -0.01728474447 0.12896476235 0.99149852631 
-0.0071230573075 0.13570187824 0.99072411008 0.0029088520245 0.14220611389 0.98983279384 0.012771870116 0.14846495025 0.98883519248 
0.022434524857 0.15447095367 0.98774258619 0.031871070033 0.16022121661 0.98656646844 0.041062779929 0.16571661792 0.98531814692 
0.049994755664 0.17096119899 0.98400853291 0.05865422029 0.17596129126 0.98264810915 0.067031405506 0.18072464597 0.98124685631 
0.075116849622 0.18525984954 0.97981439418 0.082900345028 0.18957538397 0.97836021311 0.090370454787 0.19367901567 0.97689386311 
0.09751271143 0.19757722947 0.97542529673 0.10431040987 0.20127475832 0.97396499427 0.11074436046 0.20477417232 0.97252415136 
0.11679214865 0.20807498253 0.971115027 0.12242933085 0.21117467036 0.9697506471 0.12763078895 0.21406804157 0.96844476109 
0.13237108461 0.2167471968 0.9672117393 0.13662745215 0.21920249151 0.96606583991 0.14037980367 0.22142210776 0.96502111941 
0.14361214472 0.22339356843 0.96409069359 0.14631642129 0.22510459432 0.96328574498 0.14849027584 0.22654276535 0.96261571431 
0.15013982065 0.22769738766 0.96208727978 0.15127810682 0.22855941935 0.96170449007 0.15192427988 0.22912077105 0.9614690247 
0.15210415051 0.22937677805 0.9613795406 0.15184612905 0.22932478688 0.96143273047 0.1511807474 0.22896309273 0.96162377455 
0.15013800663 0.22829128986 0.96194681035 0.14874668039 0.22731136442 0.96239491306 0.14703236541 0.22602451984 0.96296126607 
0.14501598313 0.22443062685 0.96363958946 0.14271232414 0.22252989409 0.96442399326 0.14013148006 0.22032186808 0.96530898822 
0.13727789467 0.21780412674 0.96628988508 0.13414915134 0.21497143608 0.96736305846 0.1307388315 0.21181809171 0.96852488557 
0.12703670763 0.20833686353 0.96977184235 0.12302878913 0.20451842407 0.97110047434 0.1186993134 0.20035408461 0.97250640809 
0.1140335105 0.19583588603 0.97398391374 0.10901817746 0.19095547087 0.97552603509 0.10364557312 0.18570926703 0.97712315668 
0.097912969325 0.18009633897 0.97876368911 0.091824468456 0.17412065026 0.98043371329 0.085396655771 0.1677937348 0.98211642576 
0.07865853499 0.16113465866 0.98379289317 0.071649415064 0.15417023074 0.98544299748 0.064421205811 0.14693629246 0.98704591291 
0.057038948984 0.13947745929 0.98858110272 0.049574109728 0.13184314779 0.99003019753 0.042104312331 0.12408885684 0.99137741678 
0.034710916083 0.11627272533 0.99261060122 0.027471265962 0.10845283281 0.99372194934 0.020458199261 0.10068683799 0.99470780772 
0.013735831055 0.09302646707 0.99556888429 0.00735670494 0.085517778561 0.99630948427 0.0013614039062 0.078201653169 0.9969366319 
-0.0042234468841 0.071110172806 0.99745952591 -0.0093845279559 0.064269573793 0.99788844693 -0.014120025413 0.057699992575 0.99823410868 
-0.018438179033 0.051416558863 0.9985070711 -0.02235611478 0.045430975213 0.99871729264 -0.025898968396 0.039751876911 0.99887388179 
-0.029098160111 0.034386898236 0.99898490394 -0.031987448305 0.029343432726 0.99905743884 -0.034604159511 0.024628744113 0.99909758137 
-0.036988472136 0.020251092965 0.99911047746 -0.039181567751 0.01621962597 0.99910045965 -0.04122407214 0.012544798822 0.99907117059 
-0.043157342772 0.0092390049589 0.99902556752 -0.045023017242 0.0063154332427 0.99896598702 -0.046862077611 0.0037880460668 0.99889418678 
-0.048713989929 0.0016723401067 0.99881136881 -0.050616597276 -1.6337920431e-05 0.99871815835 -0.052606998351 -0.0012634984873 0.99861449383 
-0.054719707641 -0.0020543881566 0.998499641 -0.05698649459 -0.0023756724985 0.99837212282 -0.059435798876 -0.0022162267685 0.99822967004 
-0.062092709529 -0.0015674252946 0.99806915522 -0.06497735357 -0.00042489417068 0.99788664837 -0.068104239247 0.0012108825809 0.99767747612 
-0.07148190879 0.0033339032654 0.99743632469 -0.075110313842 0.0059308973914 0.99715759297 -0.078981438926 0.0089789635456 0.9968356487 
-0.083078301204 0.012445698644 0.99646530319 -0.087371375105 0.016287258158 0.99604265372 -0.091820621303 0.020447220284 0.99556561044 
-0.096373646049 0.024855753047 0.99503482948 -0.10096622246 0.029428836781 0.99445450649 -0.10552311442 0.034070451571 0.99383302252 
-0.10995717796 0.038672010392 0.99318371645 -0.11417490287 0.043115721253 0.99252462243 -0.11807623478 0.047277574148 0.99187843699 
-0.12155924073 0.051030899478 0.99127150584 -0.12452598531 0.054253769597 0.99073195541 -0.12688484156 0.05683265541 0.99028798148 
-0.12855712641 0.058669333766 0.98996513804 -0.12855712641 0.058669333766 0.98996513804 
NormalArray 3 158 double
0.69342078474 -0.6941375911 -0.19323721151 0.69342078474 -0.6941375911 -0.19323721151 0.6940387912 -0.69380789662 -0.19219978904 
0.69564841693 -0.69282588566 -0.18990937886 0.69883831578 -0.69057925851 -0.18634724605 0.70375399025 -0.68685695357 -0.18154296058 
0.71029919987 -0.68165641103 -0.17555507388 0.7183295805 -0.67499984373 -0.16845718962 0.72797182715 -0.66660191564 -0.16030877998 
0.73888347411 -0.65664785456 -0.15121113319 0.75101511815 -0.64500134066 -0.14124292145 0.76418052511 -0.63166390316 -0.13049459177 
0.77806986848 -0.61679029732 -0.1190672453 0.79247546632 -0.60043564691 -0.10704984446 0.80709593127 -0.58280199469 -0.094540957881 
0.82160389821 -0.56418218812 -0.081642470938 0.83568177097 -0.54493073574 -0.068457803942 0.84905330279 -0.52542720898 -0.055088447871 
0.86141989158 -0.50618328229 -0.041644388711 0.87256596637 -0.48767992772 -0.028229814801 0.88227954252 -0.47048824523 -0.014953927681 
0.89041256838 -0.45515026781 -0.001921402453 0.89681750899 -0.44226983404 0.01075869205 0.90133376508 -0.43251557927 0.02297210496 
0.9038701743 -0.4264039632 0.034617454857 0.9041671589 -0.4247418632 0.045564222981 0.90190842637 -0.42832361409 0.055678290734 
0.89663107891 -0.43800947347 0.064810566102 0.8874666236 -0.45509315378 0.072754473288 0.87322873204 -0.48081919515 0.079274731838 
0.85184417757 -0.51701321345 0.084016868868 0.82034206223 -0.56528902187 0.086528739072 0.773982909 -0.62732081928 0.086133885791 
0.70613272494 -0.70332264103 0.081938009379 0.60854904567 -0.79016206739 0.072883237255 0.47422523535 -0.87848037137 0.058160667682 
0.30350612671 -0.95206934647 0.038052471207 0.11075690832 -0.99373694635 0.014825272878 -0.079133575794 -0.99683345626 -0.0078062583386 
-0.24489742617 -0.96918208768 -0.026670800101 -0.37734532548 -0.92519485486 -0.04031111372 -0.47870466706 -0.87661247458 -0.04891228007 
-0.5548103409 -0.83027398429 -0.053203351772 -0.61211621218 -0.78891841856 -0.054050639704 -0.65578225211 -0.7531448536 -0.05217726824 
-0.68965301429 -0.72253718874 -0.048153200956 -0.71633818814 -0.69646411578 -0.042394995527 -0.73776573478 -0.67413616951 -0.035244085137 
-0.7553468924 -0.65476941092 -0.026983155126 -0.76993081941 -0.63787854346 -0.017818448647 -0.78225116014 -0.62291243816 -0.0079509022912 
-0.79279581638 -0.60948238172 0.0024535484812 -0.80194560124 -0.59725024197 0.013243908799 -0.8099621894 -0.58597883592 0.024291059931 
-0.81708795221 -0.57542072242 0.0354721095 -0.82344818655 -0.56546698487 0.046692323675 -0.82917978134 -0.55597926155 0.057861480552 
-0.83440810031 -0.54682340629 0.068900540409 -0.83912411996 -0.53805938338 0.079767231737 -0.84347721039 -0.52950444966 0.090394874527 
-0.84739820872 -0.52130708728 0.10077299541 -0.85095090492 -0.51341069373 0.11086936903 -0.85415726382 -0.50582058178 0.12066858629 
-0.85694476075 -0.49869654439 0.13018230921 -0.85929985195 -0.49210568832 0.1394121801 -0.86124900452 -0.48604671338 0.14835344493 
-0.86267038714 -0.48076898056 0.15703818158 -0.86360959623 -0.47623782037 0.16545695439 -0.8639505275 -0.47269350214 0.17363852993 
-0.86367980479 -0.47019684232 0.18158227962 -0.86273838016 -0.46888156673 0.1892949122 -0.86111070419 -0.46879746126 0.19676710966 
-0.85874611407 -0.47004518912 0.20399174435 -0.85551475515 -0.47284666473 0.21097520086 -0.85146912985 -0.47709410546 0.21767300117 
-0.84639223025 -0.48311452913 0.22409940723 -0.84036658928 -0.49070878482 0.23019314525 -0.83306843038 -0.50031030381 0.23598006316 
-0.82427789113 -0.51212043518 0.24145106764 -0.8136475441 -0.52645973143 0.24661270277 -0.80007299008 -0.54459982066 0.25158347695 
-0.78173687762 -0.56840575141 0.2565196989 -0.75141972812 -0.60552988444 0.26211057064 -0.67776987361 -0.68388006388 0.27006676331 
0.42856037036 -0.89180653279 0.14497281477 0.88935087592 0.39272767796 -0.23413669182 0.83035951711 0.49839387613 -0.24921199125 
0.80144957471 0.54161997552 -0.25362646018 0.78204097093 0.56859502091 -0.25516979052 0.76581704933 0.59014432727 -0.25544846829 
0.75219939748 0.60770724122 -0.2547311826 0.74056049156 0.62245833826 -0.25321093078 0.73056067825 0.63504490664 -0.25099613929 
0.72207420722 0.6457813722 -0.24814362491 0.71511918523 0.65478056303 -0.24467726743 0.70967001934 0.66217285039 -0.2406150034 
0.70553152535 0.66823560698 -0.23597974551 0.70262580574 0.67309779491 -0.23077334249 0.70095575756 0.67678826554 -0.22498593196 
0.70005338772 0.67979354061 -0.21864582431 0.69974816129 0.68228501893 -0.21175378089 0.69989920909 0.68439525387 -0.20431405626 
0.70018490844 0.68643099701 -0.19635065656 0.70059993834 0.68837849679 -0.18786902768 0.70058312471 0.69077180347 -0.17893462743 
0.70019300732 0.69352292849 -0.1695750576 0.69917184208 0.69685341889 -0.15985633497 0.69744681642 0.70079581608 -0.14984379344 
0.69465605911 0.70565821512 -0.13964040594 0.69091257643 0.71127822681 -0.12931780927 0.68590516729 0.71789680795 -0.11898854828 
0.67952598618 0.72554632781 -0.108751829 0.67183514517 0.73409652253 -0.098690593925 0.66262576858 0.74365540366 -0.088902932567 
0.65178021511 0.75423292718 -0.079468501609 0.63935595073 0.76567735733 -0.070442549111 0.62535180653 0.77788615165 -0.061872878832 
0.60977134511 0.79074987315 -0.053791679606 0.59302629997 0.80385680004 -0.046195806937 0.57508877011 0.81715616602 -0.039098680684 
0.55660233664 0.83014433026 -0.032468905055 0.5379041848 0.84259599864 -0.026288230339 0.52003513796 0.85389885513 -0.020498792644 
0.50379485809 0.86369211743 -0.015055472256 0.4900019616 0.87166496351 -0.009913073478 0.48031208663 0.87708348949 -0.0049851674751 
0.4762100801 0.8793315201 -0.00019331303843 0.47960278418 0.87747384281 0.0045633964118 0.49234979355 0.87034680671 0.0093870567869 
0.51795807038 0.85528368241 0.014465819766 0.55894895837 0.82896201468 0.01995094386 0.61900502803 0.78495444635 0.026063239136 
0.69897620522 0.71438800962 0.032894319315 0.7951256899 0.60510362204 0.040308111581 0.89272459705 0.44808196495 0.047595656365 
0.9670620185 0.24885307464 0.053508874253 0.99770987551 0.03635916501 0.057035212212 0.98617291235 -0.15509839408 0.058373582164 
0.94994159032 -0.30687956482 0.058616616032 0.90605629883 -0.41904923593 0.05881939497 0.86404226576 -0.49988014338 0.059588633369 
0.82747533289 -0.55816050494 0.061167182197 0.79686423201 -0.60080183484 0.063596784538 0.77204125206 -0.63204553717 0.066863622827 
0.75171557435 -0.65566933239 0.070861991482 0.73512247303 -0.67371702689 0.07550044589 0.72157668744 -0.68761828994 0.080673238973 
0.71035820177 -0.69853564252 0.086250688707 0.70123460221 -0.70695441759 0.092116687501 0.69349007576 -0.71375589019 0.098102212234 
0.68705298844 -0.71911652573 0.10406542894 0.68174855868 -0.72329314639 0.10984501411 0.67717860799 -0.72673644628 0.11525307161 
0.6735969175 -0.72926824331 0.1201458365 0.67053546768 -0.7313848462 0.12433178728 0.66831088586 -0.73284128473 0.12768794476 
0.66664886898 -0.73393583513 0.13006719575 0.66664886898 -0.73393583513 0.13006719575 
BinormalArray 3 158 double
0.71365179582 0.69861461734 0.051368577654 0.71365179582 0.69861461734 0.051368577654 0.71314909804 0.69911747475 0.051508450417 
0.71179252602 0.70047102223 0.051882048244 0.70898338702 0.70325774925 0.052641191598 0.70452620152 0.70763485809 0.053812070995 
0.69843621133 0.71352854343 0.055352293589 0.69075635528 0.72082129094 0.057204232087 0.68122492882 0.72966248804 0.059373814959 
0.67004939692 0.73974367975 0.061750254735 0.65711620795 0.75104249309 0.064292012105 0.64244816834 0.76340114948 0.066925600201 
0.62621970114 0.77653787097 0.069554445243 0.60850371633 0.79026812965 0.072107631126 0.58951851713 0.80431168752 0.07450253204 
0.56957167643 0.81835873503 0.076662156359 0.54903103503 0.83210510079 0.078524033363 0.52828796822 0.84528362612 0.080046324453 
0.50786487422 0.85760100891 0.08120208776 0.48825162927 0.86884263094 0.081992860529 0.47002667518 0.87879368015 0.082441448052 
0.45373719893 0.88729949735 0.082596345603 0.43999010509 0.89420234648 0.082528001073 0.42945466442 0.89932779199 0.082329908081 
0.42264481506 0.90256796992 0.082112240137 0.42036252692 0.90364238917 0.082010843564 0.42339376989 0.90221061189 0.08218106485 
0.43258699694 0.89778225478 0.082798025796 0.44922004562 0.88945569466 0.08408280359 0.47451763463 0.87600817505 0.086271036165 
0.51028031093 0.85532138641 0.089662312191 0.55809423916 0.82437344719 0.094547552969 0.61960429028 0.77836037779 0.1012207773 
0.69500429209 0.71057269036 0.10979747579 0.78116811899 0.61268729651 0.11996102099 0.86879574351 0.47764252566 0.1305816746 
0.94179848216 0.30581237329 0.13962238841 0.98311772408 0.11173500361 0.14489592671 0.98615622377 -0.07942584525 0.14555905133 
0.95867710348 -0.24616764625 0.14261732432 0.9149864429 -0.37918988467 0.1378943098 0.86674698092 -0.48072977415 0.13284786531 
0.82076402998 -0.5566761988 0.12828880224 0.77977582739 -0.613552933 0.12450886487 0.7443963827 -0.65658457451 0.12153485894 
0.71422973886 -0.68967287735 0.11927783687 0.68866426221 -0.71547585235 0.11762584179 0.6669273556 -0.73596513914 0.11646122241 
0.64824786467 -0.75259077432 0.11567987017 0.63214963599 -0.76623405512 0.11520508012 0.61808604054 -0.77765767811 0.11497035346 
0.60566931298 -0.78737324416 0.11492631421 0.59455866629 -0.79578065523 0.1150353906 0.5845115935 -0.80315575543 0.11526937835 
0.57527247348 -0.80975066329 0.11560901586 0.56672326008 -0.81569602678 0.11603765931 0.55871471058 -0.82113041035 0.11654493291 
0.55110106531 -0.82617744013 0.11712580089 0.54393221074 -0.83082460311 0.11776344504 0.53701310495 -0.83521446128 0.11846404002 
0.53048371129 -0.83927209249 0.11920313263 0.52427740016 -0.8430531545 0.11997744109 0.51839098832 -0.84657163997 0.12077765369 
0.51297777869 -0.84974938956 0.12157209188 0.50809787135 -0.85256648744 0.12233943608 0.50374293334 -0.85504221811 0.1230685271 
0.50015723732 -0.85705307623 0.12370433491 0.49729870108 -0.85863770721 0.12423884118 0.49540152093 -0.85967976126 0.12461156099 
0.49451841818 -0.8601617103 0.12479329398 0.49477452016 -0.86002241136 0.12473823056 0.49620967519 -0.85924180454 0.1244165567 
0.49891352516 -0.85776588988 0.12378599508 0.5030959776 -0.85546554007 0.12277274564 0.50863612005 -0.85238259491 0.121380432 
0.51584696232 -0.84830478274 0.11950274909 0.52451590533 -0.84330015784 0.11716615913 0.53506121241 -0.83705546417 0.11422630554 
0.54766916116 -0.82935394944 0.11059166543 0.562644807 -0.81985856878 0.10612609647 0.58123476197 -0.80752053274 0.10038297006 
0.60526480851 -0.79061292768 0.092659107298 0.64224864857 -0.76229531737 0.08014064221 0.71940740308 -0.69268443789 0.051393169805 
0.89061795196 0.38995820514 -0.23394927204 -0.4312745907 0.89060379131 -0.14431602242 -0.53632774864 0.83616950818 -0.11477412442 
-0.57891031961 0.80903083321 -0.10164621369 -0.60521594895 0.7905879115 -0.093190178282 -0.62602374594 0.77501134793 -0.086323114494 
-0.64278023543 0.76178921146 -0.080689319246 -0.65666075783 0.75035062695 -0.075964371626 -0.6683144946 0.74038924965 -0.071968710705 
-0.67805871346 0.73179763712 -0.068619234951 -0.68600915163 0.72460312996 -0.065891941371 -0.69229749501 0.71879079866 -0.063749244531 
-0.69719935574 0.71418269711 -0.062097773681 -0.70084298823 0.71071201812 -0.060889515825 -0.7032577756 0.70838964166 -0.060105046722 
-0.70492667195 0.7067736893 -0.059576331601 -0.70602234225 0.7057075606 -0.059239270355 -0.70668146451 0.705063972 -0.059043230787 
-0.70721576936 0.70454083986 -0.058890241455 -0.70762136302 0.70414277268 -0.058778927268 -0.70844244406 0.70333461318 -0.058563857115 
-0.70960734732 0.70218343005 -0.058273863696 -0.71135440996 0.7004476087 -0.057862344372 -0.7137351375 0.69806514748 -0.057334137895 
-0.71707706548 0.69468879492 -0.056638859277 -0.72123659043 0.69043512978 -0.055831104063 -0.72647183591 0.6850008239 -0.054886636684 
-0.7328298482 0.67827957329 -0.053825960648 -0.74019110186 0.67032848564 -0.05269586386 -0.74867119144 0.66093781952 -0.051503842977 
-0.75828350776 0.64998366747 -0.050272794654 -0.76887570332 0.63751462259 -0.049043438219 -0.78034176144 0.62352035773 -0.047844527837 
-0.79256612921 0.60799505051 -0.046700635811 -0.80512839857 0.59134056763 -0.04565736416 -0.81796915063 0.57352115148 -0.044720883596 
-0.83057442316 0.55517270143 -0.043924926589 -0.84270949449 0.53662650845 -0.043274684545 -0.85375212956 0.51891861933 -0.042787472256 
-0.86333309796 0.50284537137 -0.042455794037 -0.87113424957 0.48922301086 -0.042260677555 -0.87641477143 0.47970613653 -0.042180220451 
-0.87855324969 0.47577933015 -0.042168904032 -0.8766105031 0.47935016315 -0.042159778595 -0.86942064426 0.49227945729 -0.042055668657 
-0.85431661642 0.51807766155 -0.04169718823 -0.82797885834 0.55926924958 -0.040852375912 -0.7839877046 0.61954190162 -0.039129415747 
-0.71348385526 0.69974779384 -0.035969616247 -0.60432863356 0.79614672412 -0.030615295647 -0.44752128166 0.89399158624 -0.022444291013 
-0.24858963369 0.96853906825 -0.011630446732 -0.03643547374 0.99933596318 0.00029825055261 0.15469444965 0.98789654139 0.011403979763 
0.30619515084 0.95174706507 0.020543946156 0.41813864552 0.90796341189 0.027613688406 0.49879131465 0.86609374551 0.032997703151 
0.5569334881 0.82972630175 0.03713965559 0.59947129748 0.79937599396 0.040400294377 0.63064588909 0.77487922746 0.042987735735 
0.65423366708 0.75494558158 0.045116268782 0.67228059058 0.73880991662 0.046890453575 0.68621866606 0.72578440224 0.048383301121 
0.69721111977 0.71514344552 0.049663938727 0.70574489342 0.70664658424 0.050741998341 0.71269656036 0.69956538905 0.051690224423 
0.71823924293 0.69381258135 0.052502303483 0.72262230404 0.68919377462 0.053187843914 0.72628309608 0.685287508 0.053794941401 
0.72903397981 0.6823222674 0.054275037362 0.73135180697 0.67980345338 0.054697341844 0.73298076156 0.6780219028 0.055004568019 
0.73420184605 0.67668020452 0.055240836931 0.73420184605 0.67668020452 0.055240836931 
