# vtk DataFile Version 4.1
vtk output
ASCII
DATASET POLYDATA
POINTS 181 float
-9.20275 2.83224 198.967 -8.55103 2.71673 197.774 -7.89977 2.60115 196.581 
-7.25031 2.48533 195.388 -6.604 2.3691 194.195 -5.96215 2.25228 193.001 
-5.32606 2.13476 191.807 -4.697 2.01644 190.613 -4.07618 1.89724 189.418 
-3.46473 1.77718 188.223 -2.86373 1.6563 187.027 -2.27419 1.5347 185.83 
-1.69701 1.41256 184.632 -1.13299 1.2901 183.433 -0.582846 1.16762 182.233 
-0.047154 1.04547 181.03 0.473611 0.924046 179.826 0.979101 0.803808 178.618 
1.46909 0.685248 177.406 1.94346 0.568889 176.19 2.40224 0.455281 174.968 
2.84553 0.34498 173.739 3.27359 0.238549 172.501 3.68673 0.136537 171.254 
4.08537 0.0394745 169.996 4.47002 -0.0521415 168.724 4.84124 -0.137855 167.437 
5.19966 -0.217261 166.133 5.54595 -0.290015 164.809 5.88085 -0.35584 163.464 
6.20509 -0.41453 162.094 6.51947 -0.465958 160.699 6.82477 -0.510077 159.275 
7.12182 -0.546922 157.82 7.41143 -0.576609 156.333 7.69442 -0.599336 154.81 
7.97163 -0.615375 153.25 8.24387 -0.62507 151.651 8.51194 -0.628833 150.012 
8.77665 -0.627133 148.329 9.03876 -0.62049 146.602 9.29902 -0.609465 144.83 
9.55813 -0.594656 143.012 9.81676 -0.576679 141.145 10.0755 -0.556168 139.231 
10.335 -0.53376 137.268 10.5956 -0.510092 135.256 10.8578 -0.485785 133.194 
11.1221 -0.461447 131.084 11.3885 -0.437657 128.925 11.6574 -0.414969 126.718 
11.9288 -0.393901 124.463 12.2029 -0.374938 122.161 12.4794 -0.358526 119.814 
12.7584 -0.345074 117.421 13.0396 -0.334953 114.985 13.3228 -0.3285 112.507 
13.6077 -0.326014 109.988 13.8939 -0.327766 107.429 14.1809 -0.333994 104.831 
14.4684 -0.344914 102.197 14.7558 -0.360718 99.527 15.0427 -0.381579 96.823 
15.3285 -0.407654 94.0862 15.6127 -0.43909 91.3179 15.8947 -0.476023 88.5193 
16.174 -0.518586 85.6915 16.45 -0.566907 82.8357 16.7223 -0.621114 79.9528 
16.9903 -0.681338 77.0437 17.2535 -0.747713 74.1092 17.5115 -0.820379 71.1498 
17.7636 -0.899483 68.166 18.0096 -0.985179 65.1581 18.249 -1.07763 62.1263 
18.4815 -1.17701 59.0706 18.7065 -1.28348 55.9907 18.9239 -1.39725 52.8863 
19.1333 -1.51849 49.7569 19.3344 -1.64741 46.6019 19.527 -1.78417 43.4203 
19.7109 -1.92899 40.2114 19.886 -2.08203 36.9743 20.052 -2.24346 33.708 
20.2088 -2.41342 30.4116 20.3565 -2.59204 27.0845 20.495 -2.77942 23.726 
20.6241 -2.97561 20.3359 20.7441 -3.18062 16.9143 20.8549 -3.39443 13.4616 
20.9566 -3.61694 9.9787 21.0493 -3.84803 6.46703 21.1331 -4.08749 2.92857 
21.2083 -4.33506 -0.634116 21.275 -4.59042 -4.21791 21.3333 -4.85318 -7.81911 
21.3836 -5.1229 -11.4335 21.4261 -5.39907 -15.0564 21.4611 -5.68116 -18.6826 
21.4888 -5.96856 -22.3068 21.5096 -6.26066 -25.9234 21.5237 -6.5568 -29.5265 
21.5317 -6.85631 -33.1104 21.5336 -7.15851 -36.6696 21.5301 -7.46274 -40.1986 
21.5214 -7.76832 -43.6924 21.5078 -8.07462 -47.1464 21.4899 -8.38102 -50.5564 
21.4679 -8.68693 -53.9188 21.4423 -8.9918 -57.2307 21.4133 -9.29512 -60.4897 
21.3815 -9.59643 -63.6939 21.3471 -9.8953 -66.8422 21.3105 -10.1913 -69.9339 
21.2719 -10.4841 -72.9687 21.2318 -10.7734 -75.9469 21.1904 -11.0589 -78.869 
21.1479 -11.3403 -81.736 21.1047 -11.6174 -84.5489 21.0609 -11.8898 -87.3088 
21.0168 -12.1575 -90.0171 20.9726 -12.42 -92.6751 20.9284 -12.6774 -95.2841 
20.8844 -12.9293 -97.8456 20.8408 -13.1756 -100.361 20.7976 -13.416 -102.831 
20.7551 -13.6504 -105.257 20.7132 -13.8787 -107.64 20.672 -14.1007 -109.981 
20.6317 -14.3163 -112.282 20.5923 -14.5255 -114.543 20.5537 -14.728 -116.766 
20.5161 -14.924 -118.952 20.4795 -15.1135 -121.102 20.4438 -15.2963 -123.218 
20.4091 -15.4727 -125.3 20.3754 -15.6428 -127.35 20.3426 -15.8065 -129.369 
20.3107 -15.9642 -131.36 20.2797 -16.116 -133.323 20.2496 -16.262 -135.259 
20.2203 -16.4026 -137.171 20.1918 -16.5379 -139.059 20.164 -16.6683 -140.925 
20.1369 -16.7938 -142.77 20.1105 -16.9149 -144.595 20.0848 -17.0317 -146.4 
20.0595 -17.1446 -148.188 20.0348 -17.2537 -149.957 20.0106 -17.3592 -151.71 
19.9867 -17.4615 -153.447 19.9632 -17.5607 -155.167 19.94 -17.657 -156.872 
19.9171 -17.7505 -158.562 19.8942 -17.8415 -160.237 19.8715 -17.9301 -161.898 
19.8489 -18.0163 -163.545 19.8262 -18.1004 -165.179 19.8034 -18.1824 -166.799 
19.7804 -18.2623 -168.407 19.7572 -18.3403 -170.003 19.7338 -18.4163 -171.588 
19.7099 -18.4905 -173.163 19.6857 -18.5628 -174.727 19.661 -18.6334 -176.282 
19.6357 -18.7021 -177.83 19.61 -18.769 -179.369 19.5836 -18.8342 -180.902 
19.5566 -18.8976 -182.43 19.529 -18.9594 -183.952 19.5007 -19.0195 -185.47 
19.4718 -19.0781 -186.985 19.4423 -19.1351 -188.497 19.4122 -19.1908 -190.007 
19.3815 -19.2451 -191.515 19.3503 -19.2983 -193.022 19.3187 -19.3505 -194.528 
19.2867 -19.4018 -196.033 19.2543 -19.4523 -197.539 19.2218 -19.5024 -199.043 
19.189 -19.5521 -200.548 
LINES 1 182
181 180 179 178 177 176 175 174 173 172 171 170 169 168 167 166 165 164 163 162 161 160 159 158 157 156 155 154 153 152 151 150 149 148 147 146 145 144 143 142 141 140 139 138 137 136 135 134 133 132 131 130 129 128 127 126 125 124 123 122 121 120 119 118 117 116 115 114 113 112 111 110 109 108 107 106 105 104 103 102 101 100 99 98 97 96 95 94 93 92 91 90 89 88 87 86 85 84 83 82 81 80 79 78 77 76 75 74 73 72 71 70 69 68 67 66 65 64 63 62 61 60 59 58 57 56 55 54 53 52 51 50 49 48 47 46 45 44 43 42 41 40 39 38 37 36 35 34 33 32 31 30 29 28 27 26 25 24 23 22 21 20 19 18 17 16 15 14 13 12 11 10 9 8 7 6 5 4 3 2 1 0 

CELL_DATA 1
FIELD FieldData 2
LengthArray 1 1 double
404.48782492 
TortuosityArray 1 1 double
0.008325031877 
POINT_DATA 181
FIELD FieldData 8
RadiusArray 1 181 double
48.374646664 49.160880597 49.851175297 50.088121042 51.899019471 52.175512809 53.654993155 54.945496967 58.175957535 
59.947685185 59.98872488 60.319263514 61.338988757 62.03846114 62.155828216 63.380474651 63.766611379 63.781466971 
64.598853044 65.323870605 65.602761668 65.874668177 66.408290713 66.845311144 66.845331316 66.847832745 68.066056564 
68.714258522 69.055598614 69.08418283 69.194679904 69.491581443 69.577794427 69.843063133 69.920087927 69.982703491 
70.039324592 70.135655073 70.214289955 70.219323219 70.226981066 70.231776192 70.278651622 70.301678004 70.313150429 
70.30059188 70.296327722 70.286788083 70.28669758 70.21183552 70.196330874 70.124325236 70.088187745 70.007212343 
69.907008606 69.885601669 69.770173634 69.745983777 69.568376324 69.379129121 69.237752793 69.097059507 69.08844966 
68.906074549 68.904391948 68.88375844 68.583114675 68.544841078 68.289977036 68.112645648 68.037214165 67.826658986 
67.57071302 67.474259017 67.157260351 67.026015256 66.82756777 66.558062434 66.534736632 66.260935028 66.237654206 
65.999554578 65.74170105 65.727240821 65.673683901 65.485446001 65.363826837 65.050843184 65.046570491 64.875730297 
64.581599468 64.488706708 64.287434037 64.109421825 64.023763676 63.702930738 63.620572033 63.412178918 63.0133843 
62.802187683 62.645271742 62.508659567 62.382550111 62.192173091 62.068367946 62.019355584 61.841842245 61.837725467 
61.629430133 61.457999772 61.401537451 61.305473817 61.208554809 61.174059551 61.08375682 60.996308239 60.863769484 
60.856190912 60.765363661 60.754369771 60.4902792 60.298344182 60.277142297 59.997356477 59.976594777 59.863466447 
59.802218115 59.694512377 59.48024586 59.277223939 59.25347259 59.197330465 58.893496317 58.804770594 58.606435179 
58.597405118 58.470361996 58.466100407 58.182475213 58.181146139 57.8205831 57.774862637 57.416977924 57.353326367 
57.054500818 56.997765352 56.826570913 56.597888303 56.402442405 55.906188348 55.843879849 55.711346267 55.654191568 
55.352466876 55.131802332 54.795162691 54.662767739 54.160470593 53.998547787 53.651890661 53.641274264 53.363852186 
52.989742 52.702151085 52.287227184 51.955970166 51.502102867 51.434704888 51.220064444 51.00823695 50.429046986 
50.16829142 49.631530778 49.631463618 48.882290761 48.443713591 47.977726743 47.212037411 46.282566888 45.63661656 
45.605940738 
EdgeArray 2 181 int
29448 29448 12376 28474 28471 12376 28471 29360 27133 
29360 24413 19683 19683 29358 28995 29358 10628 10628 
26336 26336 29353 29353 27097 27097 29286 29286 29243 
29241 29189 28979 28979 28987 29038 29038 29180 29181 
28155 27071 28977 28976 28975 28977 28453 28975 28451 
28451 28152 28152 27243 28152 27243 27243 26235 26235 
28439 28439 25894 28144 28146 28144 28146 28145 28132 
28134 28131 28133 28130 28130 26152 26152 26949 26950 
26950 26950 25263 25263 26226 26953 26226 23323 26579 
25947 26579 24632 22890 22890 25496 25496 26514 26514 
21900 21900 25647 25647 25565 25565 22670 15946 24826 
24826 26206 26206 26211 26211 26204 25491 24390 24390 
25793 25793 25544 25544 25870 25870 25864 25864 23320 
23320 25416 25416 25413 25413 22736 22736 23741 25537 
22476 25539 22476 23739 24982 24932 25053 25053 25042 
25042 25037 25037 23904 23904 23908 23906 23949 23949 
24179 24179 24177 24176 24308 24308 23815 23815 24299 
24299 23588 23588 23034 23034 23315 23315 23806 23806 
23807 23807 23244 23244 23243 23249 22644 23249 22643 
22643 22878 22878 22639 22639 22621 22632 22636 22636 
22875 22875 22623 22623 21885 21885 17699 17699 22865 
22865 14847 14847 20219 20219 22610 22610 22439 22439 
16927 16927 12153 12153 14416 14416 22286 22286 23294 
23294 23296 23296 22846 22846 14478 14478 22852 22852 
21874 21874 21715 21715 21869 21708 21867 21867 18216 
18216 14135 14135 18219 18219 20629 20629 22138 22138 
22136 22136 22426 22426 22422 22422 8725 8725 22133 
22133 22134 22134 21043 21043 21044 21044 21698 21698 
21701 21701 5148 7773 8444 8444 21027 21027 21032 
21034 8727 21032 5601 7556 20196 20196 20198 20198 
20201 19260 20205 19261 19261 5333 17671 17672 17670 
17672 17660 17660 3707 8451 6999 6999 18193 15015 
8450 8450 17180 17196 17187 17187 17188 17188 7209 
7209 16006 16006 4230 16010 7867 18187 18186 18187 
18190 18190 18774 18774 18776 18776 18772 18772 17165 
17165 17650 17651 17659 17658 17659 17656 15492 17656 
17648 17648 17646 633 15503 15503 15493 18766 8214 
14106 14106 14098 14107 14098 12880 12880 15013 15013 
15008 15008 16000 16000 15999 15999 10251 10251 15485 
15485 18166 18166 18159 18159 14823 14823 9182 9182 
9119 9119 
EdgePCoordArray 1 181 double
0 0.38 0.172 0.084 0.988 0.152 0.504 0.888 0 
0 0 0 0 0.172 0.256 0.676 0 0.996 
0.84 0.724 0.248 0.632 0 0 0.992 0 0 
0 0.98 0.88 0.148 0.288 0.432 0 0 0.444 
0 0 0.48 0.044 0.02 0.112 0 0 0 
0 0 0 0.004 0 0 0 0.292 0 
0 0 0 0 0 0 0 0 0.844 
0.008 0.452 0.92 0 0 0 0 0.684 0 
0 0.084 0 0 0 0 0 0 0 
0 0 0.232 0.672 0 0 0 0.008 0 
0 0 0 0 0 0 0 0 0 
0 0 0 0 0 0 0 0 0 
0 0 0.74 0 0 0 0 0 0 
0 0 0 0 0 0 0 0 0 
0 0.776 0 0 0.28 0.244 0.88 0 0 
0.08 0.976 0.008 0.804 0.78 0 0.876 0 0.4 
0 0.652 0 0 0 0 0.86 0.736 0.924 
0 0 0 0 0 0.856 0.016 0.04 0.672 
0 0.416 0 0.212 0.932 0.228 0.504 0 0 
0 0 0 0 0 0 0 0 0 
0 
CurvatureArray 1 181 double
0 0.00022064230831 0.00089240295193 0.0015573014284 0.0022209037949 0.0028733524431 0.0035215311387 0.0041466121176 0.0047631386003 
0.0053560007598 0.0059273139361 0.0064767132389 0.0070022760094 0.0074953592724 0.0079651137621 0.0084055454047 0.0088107850855 0.009181779877 
0.0095090298853 0.0098028322649 0.010040057894 0.010224485951 0.010350272908 0.010409292211 0.010392534058 0.010300754991 0.010132177172 
0.0098810232044 0.0095544315419 0.0091573467644 0.0086945805182 0.0081761436989 0.0076183130136 0.0070264100241 0.0064210365108 0.0058084032076 
0.0052022962739 0.0046140853865 0.004053097412 0.0035255623353 0.0030374724111 0.0025933108122 0.0021969259585 0.0018482362796 0.0015509971891 
0.0013022147736 0.0011047739396 0.0009552725523 0.00085229706343 0.00078735714463 0.00075460787959 0.0007422906999 0.00074396204521 0.0007529047142 
0.00076536205627 0.00077955482401 0.00079404252852 0.0008091379653 0.00082439705016 0.00084035406817 0.00085702029817 0.00087467665998 0.00089359361353 
0.00091369977355 0.0009344673805 0.00095657924528 0.00097917377391 0.0010022366309 0.0010257502108 0.0010489694269 0.0010720731317 0.001094566645 
0.0011161778965 0.0011365296661 0.0011549220339 0.0011713641388 0.001185035157 0.0011961482039 0.0012032045856 0.0012066426959 0.0012056990719 
0.0012002646581 0.0011903556979 0.0011751911507 0.0011557571205 0.0011318247083 0.0011041976721 0.0010727496011 0.0010387536637 0.0010025085299 
0.00096497942329 0.000926583989 0.00088846802127 0.00085070882075 0.00081411404473 0.00077891155327 0.00074558904614 0.00071441576303 0.00068521103989 
0.00065828046971 0.00063330198894 0.00061038238356 0.00058913194842 0.00056925799366 0.00055050386378 0.00053253000413 0.00051491129597 0.00049693456017 
0.00047874891589 0.00045913821086 0.00043829108333 0.00041564363859 0.00039055200331 0.00036316464102 0.00033299351598 0.00030042849969 0.00026533053591 
0.00022849244252 0.00019139773097 0.0001574464053 0.00013200910722 0.00012528416333 0.00014356469328 0.00018099375527 0.00023021176069 0.00028617702959 
0.00034622286739 0.00040800313786 0.00047108828061 0.00053408298075 0.0005964125887 0.00065706218348 0.00071494574818 0.00076974244133 0.00081932619912 
0.00086366689302 0.00090224355317 0.00093337331223 0.0009573975469 0.00097338212712 0.00097991075631 0.00097993133838 0.00097248792819 0.00095542705261 
0.00093369767622 0.0009065037192 0.00087375949175 0.00083814136313 0.00079973093444 0.00076088470568 0.00072194823066 0.00068505358115 0.00065056354109 
0.00061875245276 0.00059297082826 0.00057296816144 0.00055955156941 0.00055195678684 0.00055075388982 0.00055758032246 0.00057050977424 0.00058635041174 
0.00060587181122 0.00062809248336 0.00065023941873 0.00067063883228 0.00068922521316 0.00070024587332 0.00070654038136 0.0007047542375 0.00069397860165 
0.00067416673733 0.00064248408966 0.00060089636171 0.00054960924461 0.00048797969554 0.00041728212165 0.00033824820747 0.00025167783049 0.00016105511482 
0 
TorsionArray 1 181 double
0 0 0.0010956544995 0.0024718683653 0.0039153235988 0.0058283470437 0.0073459617698 0.0091007018588 0.010942786443 
0.012639208415 0.014493186749 0.016344507398 0.018051584382 0.019775485552 0.021447930747 0.022899629337 0.024160469895 0.025167064175 
0.025951844263 0.026358535985 0.026423186698 0.026136159315 0.025475896577 0.024483004057 0.023193486101 0.02159539753 0.019791699842 
0.017825024946 0.015674325509 0.013454921282 0.011211309593 0.0088662755721 0.0065167698579 0.0041296300859 0.0016539988656 -0.00079591556493 
-0.0034387028826 -0.0063265883967 -0.0095098051273 -0.013101592321 -0.017311686999 -0.022395200266 -0.028510572803 -0.035927620883 -0.044634189423 
-0.054346580427 -0.06392809466 -0.071182503358 -0.073279292013 -0.068952146289 -0.058994202003 -0.046601016513 -0.033990777471 -0.023048082764 
-0.013973662611 -0.0068827957971 -0.0014126494767 0.0026851819894 0.0055847146067 0.0075818094151 0.0088040497704 0.0095106528478 0.0097586133247 
0.0095303427497 0.0091414445676 0.008585371222 0.0078409984694 0.0071169214819 0.0063245798723 0.005549708766 0.0048499608112 0.0041630836458 
0.0035355181312 0.0029406586513 0.0024192262924 0.0019610593275 0.0015710618449 0.0012087890381 0.0008770361124 0.00061505743499 0.00037474692694 
0.00019653013447 -2.3112823088e-05 -0.0002029605543 -0.00032719455404 -0.00046506422565 -0.0006061043066 -0.00075344365067 -0.00086650738665 -0.00099917665448 
-0.0011345579767 -0.0012417671098 -0.0013838522327 -0.0015275666427 -0.0016518165208 -0.0018227325577 -0.0019204003031 -0.0020471301596 -0.0021861152499 
-0.0022930599386 -0.0023694713421 -0.0024356245255 -0.0024849783054 -0.0024790248985 -0.002439456059 -0.0022675405275 -0.0021187459946 -0.0018447409154 
-0.0014750563472 -0.00088772066297 -3.7725955044e-05 0.00096164123578 0.0025382025373 0.0047474368014 0.007735877083 0.012606879159 0.020096503404 
0.032037301533 0.053019123116 0.088402317515 0.13874575885 0.16595546774 0.13363529016 0.087015966508 0.05427106017 0.035023974343 
0.023921492748 0.016160193634 0.011573895701 0.0084547343955 0.0060163361282 0.004483022502 0.00339959238 0.0024956589839 0.0018537667358 
0.0014474763155 0.0010449707917 0.00063989117267 0.00039456478883 0.00045660871647 -9.3269863279e-05 -0.0005358930624 -0.00034690831361 -0.00099487584989 
-0.0019601136456 -0.0025865845598 -0.0035943849795 -0.0047187309436 -0.0061086007022 -0.0086260110167 -0.011092887401 -0.013617016699 -0.017155416389 
-0.020339210453 -0.023381794808 -0.02600668122 -0.028400740232 -0.030151195403 -0.028349797666 -0.02618553852 -0.023450730768 -0.020436205415 
-0.016861048823 -0.011864980587 -0.0094612585832 -0.0068005632351 -0.0041589933424 -0.0022232205063 -0.0013193326522 -0.00030005446842 0.0016315164496 
0.001290068324 0.0011241931908 0.0017030693382 0.0025162337422 0.0019401931387 0.00092607341182 0.0015621806023 -8.2454172655e-05 0 
0 
TangentArray 3 181 double
-0.4775456919 0.084696626465 0.87451506197 -0.4775456919 0.084696626465 0.87451506197 -0.47688538241 0.084836965659 0.87486171553 
-0.47543161018 0.085142883415 0.87562290596 -0.47318808872 0.085606459917 0.8767922027 -0.47016017748 0.086212444182 0.87836030305 
-0.46635414844 0.08693783092 0.88031563759 -0.46178304835 0.087753464884 0.88264134599 -0.45646225435 0.088623985703 0.88531802168 
-0.45040749943 0.089507489848 0.88832510587 -0.44364291334 0.090358127782 0.89163690715 -0.43619234645 0.091125049639 0.89522760359 
-0.42808218214 0.091754050446 0.89906998591 -0.41934670248 0.092189823123 0.90313309076 -0.41002150646 0.09237604269 0.90738582256 
-0.40014202731 0.092256340139 0.91179774385 -0.38975240264 0.091777790348 0.91633503798 -0.37890096743 0.090892109741 0.92096290982 
-0.36764198813 0.089557817747 0.92564505392 -0.35602911356 0.087740522156 0.93034664027 -0.34412284206 0.085416763006 0.93503125412 
-0.331993025 0.082576466091 0.93966044857 -0.31970786219 0.079221697168 0.94419849902 -0.30733995345 0.075369303709 0.94861036315 
-0.2949678283 0.071051814251 0.95286180528 -0.28267041571 0.066315838269 0.95692196426 -0.27052295461 0.061220492789 0.96076499847 
-0.25860213828 0.055836881015 0.96436879709 -0.24698181836 0.050244963273 0.96771660369 -0.2357279411 0.044529946812 0.97079834241 
-0.22490218591 0.038779906193 0.97360932907 -0.21456062312 0.033082480204 0.9761502387 -0.20474714272 0.027520745172 0.97842793099 
-0.19549862353 0.022171572271 0.98045331841 -0.18684144148 0.01710289726 0.98224119576 -0.17879180725 0.012372196469 0.98380913719 
-0.17135988169 0.0080259230968 0.98517580944 -0.16454468651 0.0040985657634 0.98636111435 -0.15833590148 0.00061301394015 0.9873851156 
-0.15271640433 -0.002418642584 0.98826709447 -0.14766319702 -0.0049942012788 0.98902509483 -0.14314725799 -0.0071202878554 0.98967578733 
-0.13913363124 -0.0088109402238 0.99023441669 -0.13558469257 -0.01008610726 0.99071441979 -0.13245922178 -0.010970419307 0.99112774377 
-0.12971507001 -0.011491915421 0.99148471319 -0.12730934607 -0.011680841886 0.99179427723 -0.12519803973 -0.011568438158 0.99206432356 
-0.12333772419 -0.011186131373 0.99230170627 -0.12168684279 -0.01056487188 0.99251231517 -0.12020508966 -0.0097343484852 0.99270135433 
-0.11885444524 -0.0087226158672 0.99287337401 -0.11760018393 -0.0075557822306 0.99303227888 -0.11640926565 -0.0062576112587 0.99318161742 
-0.11525258898 -0.0048495407271 0.99332437939 -0.11410346716 -0.0033505577589 0.99346322154 -0.11293867638 -0.0017772101303 0.99360037082 
-0.11173771871 -0.00014369130618 0.99373772273 -0.11048292153 0.0015380585456 0.99387683262 -0.10915978549 0.0032582002769 0.99401887576 
-0.10775624497 0.0050088699123 0.99416472624 -0.10626285572 0.0067839672695 0.99431493164 -0.10467172221 0.0085789555048 0.99446982463 
-0.10297672462 0.010390722552 0.99462949236 -0.10117455077 0.012217396969 0.99479366981 -0.099262586538 0.014058092151 0.99496196357 
-0.097239296187 0.015912812702 0.99513381094 -0.095105164649 0.017782256105 0.99530839393 -0.092860786647 0.019667580217 0.99548483695 
-0.090508147125 0.021570341172 0.99566208911 -0.088049998784 0.023492246388 0.99583899907 -0.085489251684 0.025434931122 0.99601438349 
-0.082829853234 0.027399984574 0.99618695849 -0.080076387142 0.029388680064 0.99635539729 -0.077234776671 0.031401743024 0.99651829878 
-0.074311554585 0.033439308798 0.99667427251 -0.071314090748 0.035500769777 0.9968219479 -0.068250275287 0.037584825854 0.99696001965 
-0.065129684935 0.039689144116 0.9970872058 -0.061963298971 0.041810455093 0.99720230416 -0.058762329881 0.043944681697 0.99730429335 
-0.05553929138 0.046086817704 0.99739229611 -0.052306734628 0.048231090333 0.99746567231 -0.049078957204 0.050371328865 0.99752392713 
-0.045870114545 0.052500868008 0.99756683558 -0.042693475997 0.054612814913 0.99759446047 -0.039562090216 0.056700538093 0.99760708197 
-0.036488648536 0.058757614255 0.9976051931 -0.033484748804 0.060778244364 0.99758948301 -0.030560016062 0.062757273818 0.99756083023 
-0.027722796009 0.06469047955 0.99752021956 -0.024979786111 0.066574555812 0.9974687157 -0.022335439986 0.068407073686 0.99740743951 
-0.019792815459 0.070186862687 0.99733747987 -0.01735366543 0.071913366105 0.99725990498 -0.015018071064 0.07358676898 0.99717573425 
-0.012785181281 0.075208262603 0.99708588215 -0.010652395498 0.076779197164 0.99699121428 -0.0086169481548 0.078301317288 0.99689249767 
-0.006675661383 0.079776634843 0.99679041131 -0.0048249476699 0.081207050106 0.99668557474 -0.0030610734595 0.082594170249 0.99657856332 
-0.0013804042895 0.083939450025 0.99646990081 0.00022011761546 0.085243696868 0.99636010744 0.0017433140213 0.086507054136 0.99624971289 
0.0031916391147 0.087729123898 0.99613925445 0.0045673549027 0.088908356939 0.99602933859 0.0058713974865 0.090042493036 0.99592061739 
0.0071047517068 0.091128557355 0.9958137921 0.0082676563072 0.092162618441 0.99570964524 0.0093600027954 0.093139475976 0.99560907407 
0.010382094971 0.094053548648 0.99551300448 0.011333069437 0.094898596564 0.99542243189 0.012212576026 0.095667502952 0.9953384258 
0.013020400355 0.096352951537 0.99526206494 0.013756140883 0.096947979233 0.99519438197 0.014420319184 0.097444859344 0.99513644983 
0.015013295231 0.097836206175 0.99508928128 0.015535794942 0.098115576131 0.99505375372 0.015990024158 0.098276990958 0.99503062876 
0.016378057288 0.098315027026 0.99502055994 0.016702161537 0.098224874032 0.99502407605 0.016965573273 0.098002797594 0.99504151722 
0.017171424991 0.09764633317 0.99507303038 0.017322920755 0.097154487555 0.99511854669 0.017424429142 0.096526599743 0.99517787597 
0.017480011353 0.095762902501 0.99525067983 0.017492503048 0.094865476896 0.99533640224 0.017466593497 0.093837695894 0.99543427957 
0.017405973447 0.092683895121 0.99554343334 0.017313798373 0.091409859421 0.99566282947 0.017194262003 0.090022492331 0.99579129753 
0.017050546693 0.08853048836 0.99592752321 0.016885677659 0.086943489691 0.99607012981 0.016702949923 0.085273050176 0.99621760594 
0.016505570475 0.083532315313 0.99636836483 0.016296135452 0.081734282718 0.9965209195 0.016077661525 0.079893391552 0.99667374541 
0.015853373978 0.078024627898 0.99682537487 0.015626002638 0.076142871736 0.99697446864 0.015397331926 0.074264686904 0.99711969113 
0.01517111199 0.072404280887 0.99725997487 0.014950378293 0.070573447206 0.99739454317 0.014736133191 0.068786737725 0.99752254666 
0.014531768095 0.067055418905 0.99764342253 0.014340884707 0.065386613012 0.99775694929 0.014165689238 0.063788245375 0.99786291293 
0.014008806206 0.06226582039 0.9979612823 0.013872344541 0.060822359421 0.99805220237 0.013758297014 0.059458869083 0.99813593871 
0.013670376242 0.058174005201 0.99821285602 0.013610954478 0.056964673854 0.99828341059 0.013581693319 0.055826065679 0.99834812966 
0.013585457678 0.054753236876 0.99840749115 0.013623778328 0.053738744156 0.99846208743 0.013698066282 0.052773136073 0.99851257333 
0.013809535133 0.051847007315 0.99855955484 0.013959893313 0.050951561969 0.99860355483 0.01415089301 0.050078562589 0.99864502692 
0.014381010935 0.049217406321 0.99868455152 0.014649758812 0.048357857388 0.99872263527 0.014955971649 0.047493335281 0.99875958169 
0.015297857105 0.046618861504 0.99879560337 0.015673292876 0.045728985997 0.99883092049 0.016076963546 0.04481973245 0.99886571812 
0.016505550257 0.043891357784 0.99889995271 0.01695470253 0.042944803147 0.99893357234 0.017417824289 0.041984695162 0.99896641824 
0.017888255946 0.041017843985 0.99899827166 0.018360575717 0.040051974696 0.99902889277 0.018827805443 0.039097524107 0.999058005 
0.01928141971 0.038164933877 0.9990854141 0.019715375346 0.037268252385 0.99911079533 0.020123091421 0.036421993504 0.9991338747 
0.02049788527 0.035638849954 0.9991544971 0.020832856438 0.034931847511 0.99917253671 0.021123230166 0.034314570015 0.99918782991 
0.02136466254 0.033799212652 0.99920026242 0.021552268645 0.033396519219 0.99920977388 0.021683550607 0.033114841902 0.99921630835 
0.021683550607 0.033114841902 0.99921630835 
NormalArray 3 181 double
-0.86947796939 -0.18866639239 -0.4565227849 -0.86947796939 -0.18866639239 -0.4565227849 -0.87042625439 -0.18398542759 -0.45662621268 
-0.87134824826 -0.18282085122 -0.4553336871 -0.87308231833 -0.17838359547 -0.4537692787 -0.8753948956 -0.17229412401 -0.45166194392 
-0.87842428703 -0.16288184546 -0.44926637574 -0.88188587668 -0.15205230707 -0.44627054175 -0.88586433679 -0.13807354096 -0.44292219869 
-0.8901499143 -0.1219548495 -0.43904458175 -0.89464303925 -0.10333968233 -0.43466624251 -0.89919639106 -0.082150906537 -0.42976398042 
-0.90363666005 -0.058487239176 -0.42428767301 -0.90778083494 -0.032641265651 -0.41817281535 -0.91144240698 -0.0044270636578 -0.41140386466 
-0.91443181831 0.025850770615 -0.40391358894 -0.91657868193 0.057839031712 -0.39564904428 -0.91772877368 0.091274244273 -0.38657846588 
-0.9177744831 0.12571053269 -0.37667872271 -0.91662857065 0.16085151879 -0.36594924836 -0.91430566926 0.19606507366 -0.35440602428 
-0.91084065004 0.23093979721 -0.34210542278 -0.90634495597 0.26498382866 -0.32912367181 -0.9009839046 0.29773572802 -0.31556527046 
-0.89494638419 0.32883537424 -0.30155972223 -0.88847210206 0.35791365815 -0.28725448153 -0.88183110929 0.38464287444 -0.27280717333 
-0.87522429984 0.40893156536 -0.25837453402 -0.86894125599 0.43051598087 -0.24412513973 -0.86321559527 0.4492889903 -0.2302134646 
-0.85822373696 0.46525106896 -0.21677975031 -0.85414871791 0.47836360121 -0.20395644812 -0.85127068098 0.48838729334 -0.19187516619 
-0.84959398998 0.49554957565 -0.18061193278 -0.84949450611 0.4993615685 -0.17028537224 -0.85094609057 0.49999105176 -0.16093383457 
-0.85418715979 0.49706116724 -0.15262533235 -0.85944613915 0.4901106804 -0.14540926676 -0.86697888548 0.47847280328 -0.13932475963 
-0.87696423833 0.4613823582 -0.13438766395 -0.88964790544 0.4375682192 -0.13061645336 -0.90516814473 0.40532036943 -0.12800792124 
-0.92352683941 0.36205798161 -0.12653930157 -0.94396193139 0.30502368426 -0.12608102211 -0.96494224418 0.23001311572 -0.12641373343 
-0.98282003527 0.13389651023 -0.12702953524 -0.99178323715 0.014184867861 -0.12714086687 -0.98400265114 -0.12629336699 -0.12565336446 
-0.95310109741 -0.27715385511 -0.12158963241 -0.89897783895 -0.42270379276 -0.11471856282 -0.83060997733 -0.54668466852 -0.10593837252 
-0.75988282228 -0.64284085832 -0.096611217171 -0.69794360634 -0.71071782111 -0.088061916435 -0.64972040488 -0.75585458493 -0.080915028997 
-0.6164962608 -0.78374341306 -0.075356638083 -0.59744964504 -0.79872918887 -0.071313424287 -0.58985314395 -0.80460114983 -0.0684854602 
-0.5920650082 -0.80312614239 -0.066689020724 -0.60110288079 -0.79647568505 -0.065588183603 -0.61530338497 -0.78560634767 -0.064995468672 
-0.63260843172 -0.77176626403 -0.064679253467 -0.65171561174 -0.75571648616 -0.064493053535 -0.67163089715 -0.73808827495 -0.06432446178 
-0.69134762195 -0.7196769682 -0.064058778138 -0.70989441125 -0.70143205044 -0.063584616854 -0.72752922151 -0.68318456335 -0.062929200364 
-0.74344461668 -0.66591775917 -0.061997096296 -0.75775772819 -0.64969741219 -0.060798831898 -0.77053608526 -0.6346282653 -0.059338909553 
-0.78158608758 -0.62113314663 -0.057591682305 -0.79124783438 -0.60896312205 -0.05559478912 -0.79956665087 -0.59820294405 -0.053351743566 
-0.80662088178 -0.58887595233 -0.050871070748 -0.81260689144 -0.58081756255 -0.048176747617 -0.81750172403 -0.57414435101 -0.045268039503 
-0.82161188888 -0.56848417671 -0.042185837396 -0.82488567592 -0.56395759881 -0.0389287607 -0.82761664363 -0.56016751875 -0.035539303904 
-0.82962302066 -0.55740598302 -0.032003338698 -0.83118362952 -0.55527393692 -0.028365983124 -0.83226291853 -0.55383354607 -0.024634075512 
-0.83296305683 -0.5529362658 -0.020833432461 -0.83339252277 -0.55242031079 -0.016991269061 -0.83327987101 -0.55269642503 -0.013088862718 
-0.83303318997 -0.55314662869 -0.0091930178261 -0.83242448674 -0.55411324504 -0.0052901363837 -0.83162778903 -0.55533162473 -0.0014167217727 
-0.83043345865 -0.55711248577 0.002439046977 -0.82902502174 -0.55917668198 0.0062411267569 -0.82732617984 -0.56163300799 0.0099878171052 
-0.82532762925 -0.56448863622 0.013670551036 -0.82301205833 -0.56776089333 0.017283513584 -0.82050368945 -0.57126246594 0.020806023562 
-0.81750398472 -0.57541132324 0.024270230002 -0.81432098146 -0.57975646815 0.02763651195 -0.81068583281 -0.58466353439 0.030935934288 
-0.80667813934 -0.59000299508 0.034159117637 -0.80252601921 -0.59545114839 0.037281608942 -0.79784174678 -0.60151511745 0.040349852357 
-0.79299512498 -0.60768555074 0.043324394836 -0.78772329409 -0.61429156031 0.046237332027 -0.78246533098 -0.62075978914 0.049043755956 
-0.77679805361 -0.62761639586 0.051792311728 -0.77127608746 -0.63416947037 0.05442682936 -0.76557797804 -0.64081452882 0.056983323784 
-0.76023210344 -0.64692933566 0.059410298405 -0.75531575132 -0.65244988326 0.061703044101 -0.7506569176 -0.65759682338 0.06387965207 
-0.74705378989 -0.66149265975 0.065864224811 -0.74408203802 -0.66464944773 0.067698096855 -0.74320981044 -0.66546583366 0.069241619754 
-0.74397285066 -0.66447644685 0.0705368632 -0.74744117309 -0.66047172445 0.071475827906 -0.75477309197 -0.65203028303 0.071931145165 
-0.76696739403 -0.63766022165 0.071766692895 -0.78527287136 -0.61509146805 0.070774313438 -0.81416312152 -0.57660988867 0.068260148233 
-0.85405723986 -0.51627083854 0.06364473508 -0.90939293907 -0.41230526045 0.054853026974 -0.97176118216 -0.23278666997 0.038607915302 
-0.99732156507 0.07255472811 0.0092470146273 -0.88236593291 0.46950590969 -0.031536664535 -0.62647273921 0.77665989657 -0.065812704645 
-0.38445831852 0.91935083636 -0.083581343631 -0.2167869973 0.97195712425 -0.091119407491 -0.11020270297 0.98945012876 -0.094041517215 
-0.039671319715 0.99468535484 -0.095011742722 0.0088553879905 0.99543497332 -0.095030500393 0.039647538359 0.99473811441 -0.094467753462 
0.063726155451 0.9935669995 -0.093614072702 0.079372313917 0.99254375046 -0.09250372537 0.091213794984 0.99164433395 -0.091222577022 
0.099546579992 0.99097298474 -0.089794331231 0.10615992828 0.99042512813 -0.088250411909 0.11042391656 0.99010443516 -0.086601190154 
0.11404129237 0.98984387797 -0.084874500736 0.11652094835 0.98970724609 -0.08308089815 0.11838082816 0.9896394185 -0.081239158568 
0.11917876286 0.98969596197 -0.079361989228 0.12000042357 0.98974645273 -0.077471657064 0.12101732221 0.98976844751 -0.075585898474 
0.11970784563 0.99006961927 -0.073703328917 0.11904156051 0.99028581354 -0.071854814561 0.11846077294 0.99048465163 -0.070051410782 
0.11535855027 0.99097387862 -0.068287456938 0.11130336532 0.99155367086 -0.066579866904 0.10598275203 0.99224557039 -0.064933691599 
0.098367875917 0.99313197977 -0.063345337247 0.089191261514 0.99409411057 -0.061820855717 0.076770810062 0.99522103693 -0.060343436815 
0.058879651257 0.99652701134 -0.058882105326 0.038376112418 0.99761055902 -0.057449512873 0.011998469809 0.99835923697 -0.055989915952 
-0.02009336583 0.99831296208 -0.054474639864 -0.056365653454 0.99700823115 -0.052891399435 -0.097874367974 0.99388159898 -0.051185694251 
-0.14164459671 0.98868542644 -0.049375457141 -0.1897818255 0.98068221322 -0.047384125856 -0.23752059131 0.97032599337 -0.045292773003 
-0.27824025614 0.95953586599 -0.043281424914 -0.31776486209 0.94727376831 -0.041205585768 -0.34913737874 0.93624739537 -0.03929256193 
-0.3781967667 0.92497021867 -0.037380479349 -0.39843083758 0.91650304001 -0.035707776705 -0.41241986997 0.91035131874 -0.034210047163 
-0.42524431817 0.904487101 -0.032716264934 -0.43164604756 0.90149535115 -0.031429627482 -0.43683975409 0.89903332509 -0.030168023134 
-0.43781449821 0.89859569558 -0.029055826291 -0.44043559119 0.89735117633 -0.027881111136 -0.43856088046 0.89829912109 -0.026889462349 
-0.43589826013 0.89962166969 -0.025953000482 -0.43504535669 0.90006171691 -0.024988864944 -0.43268797499 0.90122054277 -0.024138135726 
-0.43033532497 0.90236683626 -0.023358101505 -0.42547260175 0.90468512117 -0.022757343935 -0.42565983785 0.90461411846 -0.022068056793 
-0.42223898151 0.90622654819 -0.021626045623 -0.42215330506 0.90627688274 -0.021184872732 -0.42265820962 0.90604916797 -0.020855288391 
-0.42265820962 0.90604916797 -0.020855288391 
BinormalArray 3 181 double
0.12632566205 -0.97838206946 0.16373867369 0.12632566205 -0.97838206946 0.16373867369 0.12222302449 -0.97926097221 0.16158428325 
0.12131370198 -0.97945251328 0.16110791398 0.11755976403 -0.98022998673 0.15915047909 0.11239743885 -0.98126558551 0.1564757695 
0.10432919143 -0.9828078744 0.15232892648 0.095045866659 -0.98446910836 0.14760371918 0.082985463528 -0.98644892744 0.14153418809 
0.06903777615 -0.98849148906 0.13460446322 0.052865846855 -0.99053335068 0.12668418779 0.034381495143 -0.99244518936 0.11777291246 
0.013654008749 -0.99406259213 0.10794966866 -0.0090718707475 -0.99520630238 0.097376161722 -0.033986806166 -0.99571435053 0.086010634007 
-0.060834263772 -0.99539967117 0.074018153102 -0.089311726358 -0.99409832693 0.061578664531 -0.11919712594 -0.99166911655 0.048830404953 
-0.15009785721 -0.9880163254 0.035977409722 -0.18175624823 -0.98307089758 0.02315764576 -0.2135991871 -0.97686358489 0.01062656029 
-0.24525485028 -0.96945754797 -0.0014563998162 -0.27627106915 -0.96099297253 -0.012915227747 -0.30621913179 -0.95166848446 -0.023599555246 
-0.33476103371 -0.94171064364 -0.033408291955 -0.36154496253 -0.9313968128 -0.042251830313 -0.38625280027 -0.92103306694 -0.050068591795 
-0.40878766989 -0.91085521219 -0.056880782118 -0.42888352152 -0.90118335198 -0.062669698292 -0.44642040038 -0.89227601505 -0.067471024096 
-0.46137947948 -0.88432887644 -0.071354146394 -0.47370212866 -0.87753849747 -0.074380634302 -0.4831323165 -0.87219290314 -0.07656829937 
-0.4898676764 -0.86829663103 -0.078042425381 -0.49340587738 -0.86622486389 -0.078772618017 -0.49388687025 -0.86594219029 -0.078866231537 
-0.49091759696 -0.86767838545 -0.078320702355 -0.48402208632 -0.87165057375 -0.077122611743 -0.4725223322 -0.87810215848 -0.075227952498 
-0.45564396686 -0.8871981006 -0.072581717817 -0.43211362463 -0.89917134713 -0.069055802866 -0.40022430249 -0.91414697923 -0.06446555724 
-0.35740734401 -0.93211393364 -0.058511581477 -0.30091969566 -0.95229135378 -0.050877443745 -0.22658556876 -0.97312569409 -0.041053179333 
-0.13129653037 -0.99092868584 -0.028662879918 -0.012583358405 -0.99983115947 -0.01339072943 0.12674475687 -0.9919254794 0.0044283081616 
0.27638036092 -0.96076043375 0.023522011651 0.4207507069 -0.90620631595 0.041939904287 0.54372585186 -0.83728198098 0.057628832621 
0.63910227449 -0.76595009423 0.06977632763 0.7064311142 -0.7034366275 0.078307036585 0.75120721399 -0.65470962169 0.083922779452 
0.77887688446 -0.62106581329 0.087338733728 0.79374701286 -0.60168135804 0.089135980224 0.79957371389 -0.59381295979 0.089822295893 
0.79810632643 -0.59580901199 0.089654408388 0.79149785265 -0.60466860139 0.088921492035 0.78069577024 -0.6187180704 0.087761402054 
0.76693882663 -0.63588658181 0.086331287943 0.75098266751 -0.65486377998 0.084725809317 0.73345468065 -0.6746496127 0.083018862465 
0.71514632056 -0.69423129742 0.081293578297 0.69700332507 -0.71263161158 0.079640134425 0.67885799013 -0.73011041798 0.078042339679 
0.66169072927 -0.74585542863 0.07658366916 0.64556814747 -0.75998491035 0.075264221347 0.63059576244 -0.77256724702 0.074086660212 
0.61719645415 -0.78340815323 0.073076688784 0.60512317945 -0.79285057252 0.072207391235 0.5944617386 -0.80094088546 0.071476844735 
0.58523667732 -0.8077588462 0.070877908423 0.57728486227 -0.81350308206 0.070391215948 0.57072385658 -0.81815169421 0.070014889787 
0.56518288801 -0.8220143268 0.069719076592 0.56078331121 -0.82504031543 0.069502199853 0.55712888195 -0.82752627258 0.069337414786 
0.55451218899 -0.8292908669 0.069230703684 0.55253445468 -0.83061588043 0.069158770781 0.55125803669 -0.83146693752 0.069118078577 
0.55053422515 -0.83194800991 0.069098304935 0.55020078927 -0.83216919082 0.069090732648 0.550668605 -0.83185899706 0.06909917861 
0.55131809057 -0.83142796804 0.069107864771 0.55249139449 -0.83064791104 0.06911806495 0.55392243278 -0.82969382037 0.069123822969 
0.55592162153 -0.82835573334 0.069122570516 0.55820810182 -0.82681766027 0.069110576088 0.5608898979 -0.82500296298 0.06908424935 
0.56397318285 -0.82290201205 0.069040043434 0.56747437134 -0.82049704236 0.068974207889 0.57120471262 -0.81791177231 0.068887654867 
0.57558273031 -0.81484698772 0.068767050055 0.58015531493 -0.81161006981 0.068621462646 0.58528876465 -0.80793164252 0.068436269602 
0.59085270471 -0.80389065366 0.068212156588 0.59652201549 -0.79971425194 0.067960284591 0.60280535441 -0.7950147591 0.067655284341 
0.60919140449 -0.7901607178 0.067319185482 0.61601033419 -0.7848893514 0.066932609645 0.62268662716 -0.77963804886 0.066527266076 
0.62974826589 -0.7739843851 0.066070365765 0.63650070578 -0.76848070567 0.06560683313 0.64334074983 -0.76280618065 0.065110754638 
0.64964371954 -0.75748665696 0.064629731422 0.65534514195 -0.75259846791 0.064173912247 0.66066611746 -0.74796976365 0.063730007939 
0.66472562574 -0.74439441638 0.063378193036 0.66803709968 -0.74144936671 0.063081455761 0.66899295065 -0.74059453296 0.062993410221 
0.6681291863 -0.74136696822 0.063074629125 0.6642313259 -0.74482975073 0.063445946426 0.65587226852 -0.75213312578 0.064244287601 
0.64155396161 -0.7642679834 0.065596980771 0.61899700007 -0.78247273132 0.067669333134 0.58045711809 -0.81118773146 0.071021112221 
0.5199623371 -0.85081872219 0.075806793686 0.41564783343 -0.90574704301 0.082820122167 0.23542413633 -0.96754948159 0.091779500437 
-0.071284325697 -0.99250691025 0.099240002117 -0.47026736889 -0.87744861666 0.094512046156 -0.77925867102 -0.62224983465 0.074572561442 
-0.92298263445 -0.38112889329 0.053327508987 -0.97606522027 -0.21415030742 0.037898965872 -0.9937563854 -0.10803267211 0.027878095858 
-0.99905987588 -0.037822101575 0.021186152017 -0.99980777875 0.010476411341 0.016572578699 -0.9990610546 0.041116548631 0.013654252632 
-0.99781561884 0.065071599655 0.011387612502 -0.99669467149 0.080629653506 0.0099292903146 -0.99568288172 0.09239840815 0.0088392993317 
-0.99488680626 0.10067222129 0.0080837238063 -0.99420568471 0.10723290155 0.0074940848288 -0.99374421765 0.11145274514 0.0071214806215 
-0.99333888969 0.11502803806 0.0068118046939 -0.99305453252 0.11746946017 0.0066046472051 -0.99283809774 0.11929319908 0.0064532417459 
-0.99274623798 0.12005857026 0.0063911415837 -0.99265085825 0.12084793084 0.0063286038212 -0.99253097176 0.12183257611 0.0062524797724 
-0.99269324016 0.12049800459 0.0063530965924 -0.99277670856 0.11980565952 0.0064039742449 -0.99284938014 0.11919957882 0.0064473836318 
-0.99321761593 0.1160790364 0.0066651866794 -0.99368299769 0.11200852042 0.0069420067997 -0.99426706147 0.10667608816 0.0072953886057 
-0.99505151341 0.099054724141 0.0077876369481 -0.99591790672 0.089875135196 0.0083655930426 -0.99695383644 0.077457927494 0.0091278410759 
-0.998171482 0.059579365377 0.010197634042 -0.99917066406 0.039092179094 0.011392349178 -0.99983577368 0.01273908776 0.012889581615 
-0.99970580272 -0.019321304052 0.014662715315 -0.99831723704 -0.055558387306 0.016612038563 -0.99510450259 -0.097027641996 0.018779393358 
-0.98982124899 -0.14075871333 0.020997134574 -0.9817270395 -0.18885532824 0.023359899513 -0.97127942474 -0.23655782412 0.025625669115 
-0.96040384547 -0.27725181477 0.027493359522 -0.94805636804 -0.31675530857 0.029243760119 -0.93695219178 -0.3481166439 0.030584188089 
-0.92559882305 -0.37716942655 0.031781164919 -0.91706445551 -0.39740538181 0.03258445876 -0.91085200889 -0.41140207591 0.033120233194 
-0.9049280837 -0.42423652935 0.033593607816 -0.90188371073 -0.43065284829 0.033821540053 -0.8993706959 -0.43586278316 0.033999788396 
-0.89888735415 -0.43685616896 0.034032516577 -0.89759644567 -0.43949596775 0.034116199371 -0.89850423921 -0.43764148873 0.034059645677 
-0.89978938295 -0.43499918304 0.033982011269 -0.90019266915 -0.43416584748 0.033958434735 -0.90131913188 -0.43182747908 0.033894701987 
-0.90243633835 -0.42949268352 0.033833267957 -0.90473148351 -0.42464643831 0.033709719295 -0.9046366738 -0.42484798102 0.033714706545 
-0.90623274808 -0.42143926796 0.033632569513 -0.90626822009 -0.42136312643 0.033630773809 -0.90602972439 -0.42187475921 0.033642622777 
-0.90602972439 -0.42187475921 0.033642622777 
