# vtk DataFile Version 4.1
vtk output
ASCII
DATASET POLYDATA
POINTS 209 float
-7.96363 -31.5434 -177.298 -7.87756 -31.6452 -176.017 -7.79157 -31.747 -174.734 
-7.70587 -31.8491 -173.45 -7.62068 -31.9516 -172.16 -7.53623 -32.0549 -170.865 
-7.45275 -32.159 -169.561 -7.37046 -32.2642 -168.248 -7.2896 -32.3706 -166.925 
-7.21042 -32.4783 -165.59 -7.13316 -32.5875 -164.243 -7.05807 -32.6982 -162.883 
-6.98541 -32.8104 -161.511 -6.91542 -32.9243 -160.126 -6.84834 -33.0398 -158.729 
-6.78441 -33.1569 -157.322 -6.72384 -33.2755 -155.905 -6.66685 -33.3957 -154.48 
-6.61361 -33.5172 -153.048 -6.56427 -33.6401 -151.61 -6.51895 -33.7641 -150.17 
-6.47774 -33.8893 -148.728 -6.44069 -34.0154 -147.286 -6.4078 -34.1423 -145.846 
-6.37905 -34.2699 -144.411 -6.35437 -34.3981 -142.982 -6.33364 -34.5268 -141.56 
-6.31673 -34.6558 -140.146 -6.30345 -34.7851 -138.744 -6.29361 -34.9145 -137.352 
-6.28694 -35.044 -135.974 -6.28321 -35.1735 -134.609 -6.28213 -35.303 -133.259 
-6.28341 -35.4323 -131.924 -6.28673 -35.5614 -130.605 -6.29179 -35.6903 -129.302 
-6.29825 -35.8191 -128.016 -6.30581 -35.9475 -126.746 -6.31411 -36.0757 -125.494 
-6.32283 -36.2035 -124.258 -6.33164 -36.3311 -123.038 -6.34019 -36.4583 -121.836 
-6.34813 -36.5851 -120.649 -6.35513 -36.7115 -119.478 -6.36083 -36.8374 -118.323 
-6.36487 -36.9629 -117.182 -6.3669 -37.0877 -116.056 -6.36655 -37.2119 -114.943 
-6.36346 -37.3353 -113.843 -6.35725 -37.4577 -112.756 -6.34758 -37.5792 -111.681 
-6.33407 -37.6994 -110.617 -6.31639 -37.8183 -109.564 -6.29419 -37.9357 -108.521 
-6.26716 -38.0513 -107.488 -6.23498 -38.165 -106.463 -6.19737 -38.2766 -105.447 
-6.15407 -38.3859 -104.439 -6.10483 -38.4926 -103.437 -6.04944 -38.5967 -102.442 
-5.98771 -38.698 -101.452 -5.91946 -38.7962 -100.467 -5.84454 -38.8912 -99.4845 
-5.76282 -38.983 -98.5048 -5.67419 -39.0714 -97.5261 -5.57854 -39.1563 -96.547 
-5.47579 -39.2377 -95.5661 -5.36586 -39.3155 -94.5818 -5.24867 -39.3897 -93.5926 
-5.12418 -39.4602 -92.5968 -4.9923 -39.527 -91.5927 -4.85301 -39.5902 -90.5788 
-4.70627 -39.6496 -89.5534 -4.55204 -39.7052 -88.5152 -4.39031 -39.7571 -87.4627 
-4.2211 -39.8051 -86.3948 -4.04443 -39.8493 -85.3104 -3.86035 -39.8895 -84.2088 
-3.66896 -39.9256 -83.0894 -3.47037 -39.9575 -81.9517 -3.26473 -39.985 -80.7958 
-3.05226 -40.0081 -79.6215 -2.83318 -40.0265 -78.4293 -2.60778 -40.04 -77.2195 
-2.37637 -40.0484 -75.9929 -2.13932 -40.0514 -74.7502 -1.89703 -40.0489 -73.4922 
-1.64992 -40.0404 -72.2199 -1.39846 -40.0258 -70.9342 -1.14313 -40.0048 -69.6361 
-0.88443 -39.9771 -68.3265 -0.622882 -39.9423 -67.0064 -0.359003 -39.9002 -65.6763 
-0.0933179 -39.8505 -64.3371 0.173654 -39.7929 -62.9892 0.441402 -39.727 -61.6331 
0.709425 -39.6527 -60.2689 0.97724 -39.5696 -58.8971 1.24438 -39.4774 -57.5174 
1.51039 -39.376 -56.1301 1.77485 -39.2649 -54.7349 2.03734 -39.1441 -53.3319 
2.29746 -39.0133 -51.9209 2.55485 -38.8723 -50.5019 2.80914 -38.7209 -49.075 
3.05998 -38.559 -47.6402 3.30704 -38.3866 -46.1979 3.54998 -38.2034 -44.7486 
3.78849 -38.0095 -43.2929 4.02227 -37.8049 -41.8316 4.25102 -37.5896 -40.3658 
4.47444 -37.3637 -38.8966 4.69227 -37.1272 -37.4257 4.90425 -36.8803 -35.9545 
5.11013 -36.6233 -34.4849 5.30969 -36.3563 -33.0187 5.50274 -36.0797 -31.5579 
5.68911 -35.7936 -30.1045 5.86867 -35.4985 -28.6606 6.04132 -35.1948 -27.2282 
6.20702 -34.8827 -25.8091 6.36576 -34.5628 -24.4053 6.51757 -34.2354 -23.0184 
6.66253 -33.901 -21.6497 6.80078 -33.56 -20.3005 6.9325 -33.2129 -18.9718 
7.0579 -32.8601 -17.6643 7.17722 -32.502 -16.3782 7.29076 -32.1391 -15.1138 
7.39881 -31.7718 -13.8707 7.50169 -31.4004 -12.6482 7.5997 -31.0252 -11.4456 
7.69314 -30.6465 -10.2614 7.78229 -30.2646 -9.0942 7.8674 -29.8798 -7.94195 
7.94864 -29.492 -6.80248 8.02614 -29.1015 -5.67324 8.09995 -28.7083 -4.55144 
8.17003 -28.3125 -3.43399 8.23625 -27.9138 -2.31756 8.29838 -27.5123 -1.19859 
8.35605 -27.1078 -0.0733135 8.40881 -26.7 1.06224 8.45607 -26.2888 2.2122 
8.49714 -25.8737 3.38082 8.5312 -25.4544 4.57247 8.55734 -25.0306 5.79159 
8.57455 -24.6019 7.04265 8.58173 -24.1676 8.33015 8.5777 -23.7275 9.65851 
8.56126 -23.2809 11.0321 8.53115 -22.8275 12.4551 8.4861 -22.3666 13.9315 
8.42488 -21.8978 15.4651 8.34628 -21.4205 17.0593 8.24916 -20.9344 18.7173 
8.13247 -20.4391 20.4416 7.99528 -19.9342 22.2344 7.83683 -19.4194 24.0972 
7.6565 -18.8947 26.0309 7.45389 -18.3599 28.0358 7.22881 -17.8151 30.1113 
6.9813 -17.2607 32.2561 6.71166 -16.6969 34.4681 6.42043 -16.1244 36.7445 
6.10844 -15.5438 39.0813 5.77677 -14.9561 41.4741 5.42675 -14.3624 43.9175 
5.05997 -13.7639 46.4057 4.67826 -13.1621 48.9318 4.28363 -12.5584 51.4888 
3.87831 -11.9545 54.0691 3.46465 -11.3522 56.6648 3.04513 -10.7532 59.2679 
2.62231 -10.1593 61.8703 2.1988 -9.57233 64.4641 1.77721 -8.99397 67.0417 
1.3601 -8.42586 69.5958 0.949958 -7.86952 72.1196 0.549177 -7.32632 74.6072 
0.159993 -6.79742 77.0532 -0.215524 -6.28383 79.4532 -0.575499 -5.78629 81.8036 
-0.91827 -5.30538 84.1019 -1.2424 -4.8414 86.3463 -1.54668 -4.39445 88.5361 
-1.83015 -3.96443 90.6717 -2.09207 -3.55101 92.7541 -2.33193 -3.15372 94.7853 
-2.54943 -2.77189 96.768 -2.74448 -2.40474 98.7054 -2.91719 -2.0514 100.601 
-3.06783 -1.71088 102.46 -3.19681 -1.38217 104.286 -3.30472 -1.06423 106.084 
-3.39226 -0.756005 107.858 -3.46023 -0.456462 109.613 -3.50958 -0.164606 111.353 
-3.54131 0.120513 113.083 -3.55654 0.399784 114.805 -3.55647 0.674033 116.524 
-3.54239 0.944017 118.24 -3.51567 1.21043 119.958 -3.47774 1.47388 121.677 
-3.43013 1.73495 123.399 -3.37442 1.99414 125.125 -3.31227 2.2519 126.854 
-3.24538 2.50867 128.586 -3.1755 2.76482 130.319 
LINES 1 210
209 208 207 206 205 204 203 202 201 200 199 198 197 196 195 194 193 192 191 190 189 188 187 186 185 184 183 182 181 180 179 178 177 176 175 174 173 172 171 170 169 168 167 166 165 164 163 162 161 160 159 158 157 156 155 154 153 152 151 150 149 148 147 146 145 144 143 142 141 140 139 138 137 136 135 134 133 132 131 130 129 128 127 126 125 124 123 122 121 120 119 118 117 116 115 114 113 112 111 110 109 108 107 106 105 104 103 102 101 100 99 98 97 96 95 94 93 92 91 90 89 88 87 86 85 84 83 82 81 80 79 78 77 76 75 74 73 72 71 70 69 68 67 66 65 64 63 62 61 60 59 58 57 56 55 54 53 52 51 50 49 48 47 46 45 44 43 42 41 40 39 38 37 36 35 34 33 32 31 30 29 28 27 26 25 24 23 22 21 20 19 18 17 16 15 14 13 12 11 10 9 8 7 6 5 4 3 2 1 0 

CELL_DATA 1
FIELD FieldData 2
LengthArray 1 1 double
315.05870185 
TortuosityArray 1 1 double
0.017756921831 
POINT_DATA 209
FIELD FieldData 8
RadiusArray 1 209 double
27.049647939 27.089534686 27.289564216 27.29332253 27.493928436 27.49688819 27.790050082 28.055328497 28.082280301 
28.200421412 28.237250525 28.94083489 28.997142957 29.444042629 29.480064862 29.559086513 29.971873422 30.487245574 
30.599577032 30.911562437 31.355011601 31.454132762 31.929361652 31.948546408 31.950847919 32.065411804 32.327764111 
32.405375107 32.955515087 33.129014909 33.238626328 33.553404018 33.956459975 34.10263215 34.564918074 34.620080457 
34.88921628 35.000113513 35.08497857 35.409760328 35.411583142 35.88026624 35.975772399 36.071777459 36.124253043 
36.211544384 36.369316136 36.692729139 36.711711326 36.769500976 37.003178534 37.240336752 37.361493311 37.373938346 
37.690920985 37.772769808 37.86345793 38.084325402 38.098933412 38.163818572 38.22259724 38.287965218 38.326930057 
38.368138983 38.40332686 38.462348663 38.474759219 38.554285959 38.574930852 38.634948905 38.636546268 38.668328811 
38.720521852 38.738759563 38.773435004 38.787420053 38.805454788 38.823057725 38.860971466 38.869206989 38.87060718 
38.906837078 38.909350805 38.90591338 38.911434657 38.918468198 38.911995827 38.847275273 38.895700277 38.920311643 
38.917763649 38.821112446 38.822452541 38.849520096 38.84952768 38.851416234 38.902686798 38.911692608 38.932682063 
38.918882439 38.919984978 38.982677807 38.984591653 38.987856041 39.009069401 39.030678577 39.061577554 39.073455163 
39.072547956 39.102657829 39.239322365 39.281159707 39.33742939 39.499680996 39.502941303 39.624603892 39.700479838 
39.750409024 40.031399121 40.104499302 40.187957422 40.236970217 40.65097073 40.651056661 40.941634264 41.101063669 
41.199474987 41.483741247 41.684381016 41.781987011 42.292992351 42.39467752 42.549109969 42.598131547 43.139537028 
43.270643305 43.332480671 43.358386129 43.405769848 43.507405881 43.617599981 43.835192107 44.02811405 44.204620531 
44.27154682 44.3568192 44.927080714 45.003617893 45.105841129 45.391780679 45.590297407 45.829949998 45.967321981 
46.055301243 46.434384812 46.4388823 46.486616241 46.666033543 46.729367363 46.979440349 47.077575956 47.121519068 
47.219040745 47.235382992 46.994861588 46.965781385 47.091987277 47.009698546 46.867745562 46.96541806 46.989745184 
47.138960297 47.224496975 47.633475604 48.046964949 48.180244079 48.362687641 48.932001817 49.120228966 49.62882005 
49.737689106 49.965482147 50.077922296 50.467036028 50.573329132 50.661103537 50.771538755 50.9563387 51.290066185 
51.558178541 51.582202236 51.621642288 51.741167306 51.846574645 51.929166315 52.022820776 52.069359059 52.120390431 
52.165867941 52.212187439 52.489805081 52.508329468 52.809967992 52.868038255 53.358742499 53.521910564 53.554186318 
53.635205579 53.468321582 
EdgeArray 2 209 int
4968 4968 5584 5848 6216 5584 6216 5850 5850 
5850 5577 5577 5579 6169 4081 6492 5572 6493 
5571 5896 5890 5896 5889 6700 6222 6698 6692 
6224 6693 6696 5875 6696 5542 6471 6221 6221 
6474 6936 6437 6921 6941 6921 6941 4864 5969 
7213 7213 7213 6481 6481 6940 7211 6943 6942 
6943 7217 7450 7450 7508 7508 4801 6779 7255 
7253 6797 6797 6801 6595 7516 7516 7514 7514 
7525 6649 7698 7699 7697 7699 7711 7711 7710 
7714 7713 7102 7515 7102 7536 7515 7276 7276 
7047 7935 7935 7935 8490 8484 8487 8484 8488 
8461 8195 8195 7407 7727 8048 8193 8048 7262 
8088 8088 7817 7817 8201 8201 8590 8590 8080 
8497 8497 8497 5376 8495 5376 5376 7918 7918 
8220 8220 8799 8799 8798 8798 8795 9037 9037 
9037 8494 9036 8788 8494 9298 8788 9353 9353 
9370 9352 9370 9370 9346 9357 9357 9358 9358 
9358 9305 9304 9305 9305 9308 9308 9317 9311 
9319 9319 9315 9315 9518 9163 9881 9881 9879 
9267 8703 8703 9700 9700 10005 10005 10098 10098 
10561 10561 9697 9697 10324 10324 9383 9383 7884 
9383 7884 7884 9278 9278 9399 9399 8600 9039 
10877 8600 9695 9695 7282 7282 11120 10573 10787 
11120 10572 10572 10941 10795 10795 10795 11446 11203 
11446 11444 10357 10357 11601 11614 11377 8545 10906 
11776 11542 12018 11175 11542 12228 12100 11116 12100 
12453 11116 12927 12371 12927 12389 13152 11848 13153 
13152 12360 12360 12248 8607 13297 13299 13297 13359 
13587 13359 13587 13587 13591 13591 13854 12820 13860 
13592 13860 13860 13567 13567 5072 5072 13833 13833 
13859 12923 12923 12923 15098 12028 12028 12028 3857 
3857 14037 14037 14340 14340 15111 15111 11010 11010 
15275 15275 14094 14094 15672 15672 13084 14697 13084 
13084 3935 3935 16036 16036 15650 15650 15660 15660 
15054 15054 16034 16033 16035 16034 15902 14199 13322 
13322 14589 14589 16499 16499 16667 16667 15547 16835 
16462 16462 16900 17678 17678 16909 17264 17264 17727 
17727 15376 17921 16757 16757 18452 18127 18127 18419 
18419 17496 17496 17496 17744 17744 18933 18600 18933 
18090 16554 18090 20916 20792 20920 20370 20687 20929 
20938 20935 21772 20936 21772 21771 20937 22104 22105 
19790 22103 22105 22102 22103 22208 22099 22022 22022 
22260 21546 22260 22260 22371 22370 22370 22531 22531 
22531 20562 22017 20562 22674 22674 22674 22672 22672 
22673 22533 22533 22533 22680 22680 22679 22683 22683 
22683 22844 22607 22607 22030 23202 22048 23104 23277 
23799 23799 28312 28312 
EdgePCoordArray 1 209 double
0 0.664 0.008 0.012 0 0 0.148 0.8 0.84 
0.908 0.884 0.272 0.544 0.036 0.316 0.888 0.868 0 
0.108 0.184 0.312 0.076 0.952 0 0 0.804 0.368 
0.612 0 0 0.204 0.716 0 0.136 0 0 
0.684 0.088 0.204 0 0.004 0.088 0.228 0.352 0 
0.076 0 0.104 0.124 0.168 0 0.2 0.12 0.04 
0 0 0 0 0.064 0 0.792 0 0 
0 0 0 0.092 0 0.932 0.104 0.996 0 
0.692 0 0.184 0.304 0 0.748 0 0 0.788 
0 0 0.632 0 0.864 0 0 0 0 
0 0 0 0 0.996 0 0 0 0.436 
0.836 0 0 0.704 0.956 0 0.06 0 0.092 
0.048 0 0.7 0.52 0.004 0.016 0.964 0.668 0.328 
0.796 0.268 0.22 0.22 0.748 0 0.924 0.28 0.588 
0.984 0 0 0.952 0.24 0 0 0 0 
0.516 0 0.124 0 0 0 0 0 0 
0 0 0 0.848 0 0 0 0 0 
0 0.872 0.172 0.884 0 0 0 0 0.092 
0 0.044 0.924 0 0 0.112 0 0.128 0.044 
0.168 0 0 0.688 0.148 0.768 0.64 0.364 0.46 
0.616 0.496 0.812 0.744 0.188 0.46 0.9 0.248 0 
0.088 0 0.104 0.18 0 0.748 0.284 0 0 
0.168 0 0 0.024 0 0.02 0.18 0.952 0.092 
0 0 
CurvatureArray 1 209 double
0 7.1297276023e-05 0.00028185154413 0.00048888576429 0.00068738780272 0.00087428886303 0.001047290485 0.0012050887909 0.0013461479274 
0.0014702792779 0.0015788798404 0.0016726536397 0.0017519484892 0.001819794426 0.0018757398926 0.001922289343 0.0019600507581 0.0019892492123 
0.0020118441812 0.0020258015351 0.0020337899657 0.0020334554318 0.0020257969729 0.0020100484015 0.0019861556234 0.0019531044966 0.0019120682019 
0.0018626488017 0.0018026132642 0.001735415903 0.0016598142333 0.0015782027304 0.00149105047 0.0013982078597 0.0013013735011 0.0012089299025 
0.0011150105697 0.0010361907945 0.00096936879729 0.00093397199152 0.00093598143812 0.00098377759702 0.0010923572202 0.0012454877734 0.0014503536853 
0.0016981891457 0.0019818900291 0.002297602983 0.0026442075685 0.0030175825738 0.0034109393383 0.0038225496512 0.0042459055526 0.0046756322662 
0.0051079023412 0.0055339946131 0.005949192695 0.0063453507235 0.0067146152021 0.0070547522955 0.0073519904972 0.0076009042715 0.0077964188548 
0.0079356151867 0.0080088934126 0.0080160959408 0.0079595566971 0.0078412884623 0.0076650703382 0.0074338155846 0.0071701876716 0.0068696461755 
0.0065494139105 0.0062226569206 0.0058940109961 0.0055739086755 0.0052729484735 0.0049906742087 0.0047332285251 0.004507417555 0.004303837643 
0.004134754802 0.0039921629866 0.0038824017585 0.0037926473005 0.0037342013537 0.0037021334387 0.0036877662411 0.0037017492411 0.003731357336 
0.0037857323461 0.003856284706 0.0039373936901 0.004031437534 0.0041408523043 0.0042490176149 0.0043658160697 0.0044771604336 0.0045885594234 
0.0046925795006 0.0047879189021 0.0048688843367 0.0049405889158 0.0050006472481 0.0050488369915 0.0050842005814 0.0051128622537 0.0051333139218 
0.0051504683026 0.0051662428471 0.0051821695453 0.0052042701631 0.0052305177613 0.0052642780626 0.0053110362954 0.0053670478041 0.0054315135726 
0.0055111294942 0.0056006609243 0.0056971886249 0.0058042962021 0.0059095063917 0.006021583862 0.0061234279324 0.0062194077671 0.0062970762098 
0.0063536165741 0.0063793043691 0.0063633944375 0.0063050372657 0.0061878200902 0.0060092769238 0.0057643703491 0.0054501483361 0.0050723060286 
0.0046444328624 0.0041920582448 0.0037652690137 0.003436324194 0.0032932531541 0.0034001517151 0.0037494889164 0.0042640352415 0.0048586903324 
0.0054588250837 0.0060093503727 0.0064733451822 0.0068296950985 0.0070638288721 0.0071750874447 0.0071700923173 0.0070559158346 0.0068523816587 
0.0065742776335 0.0062390855534 0.0058650541635 0.0054667967502 0.0050587061207 0.0046507861392 0.0042522513199 0.0038693381544 0.0035064958735 
0.003165870117 0.0028493758867 0.0025569950268 0.0022875226804 0.002040222388 0.0018132364291 0.001605265365 0.0014144888275 0.0012398188826 
0.0010812405988 0.00093987109529 0.00082034823572 0.00073044070261 0.00068358080487 0.000692481519 0.00076381697345 0.0008924326131 0.0010698078909 
0.0012890297978 0.0015454968036 0.0018372668803 0.00216190343 0.0025187161474 0.0029033264502 0.0033114831754 0.0037355587227 0.0041641306579 
0.0045854119344 0.0049835228488 0.0053399631346 0.0056397953228 0.0058640043867 0.0060013598099 0.0060412547236 0.005980019742 0.0058193828948 
0.0055652191986 0.0052275297814 0.0048191909937 0.0043541223635 0.0038452550118 0.0033046208395 0.0027426070443 0.0021662518663 0.0015813977271 
0.00099108251394 0 
TorsionArray 1 209 double
0 0 -0.0045654058886 -0.0009989988113 0.00060367237571 0.0010560489137 0.0018462314477 0.00084475084102 0.0016721262612 
0.0023573519112 0.001960516798 0.0019416874434 0.0032654593734 0.0029522229192 0.0026681934456 0.0041343311959 0.0036271512201 0.0042889130846 
0.0049810182966 0.0051628159544 0.0058926155211 0.006616198732 0.0077815495686 0.0089245761167 0.009959337057 0.012004405346 0.014878293705 
0.016443976722 0.019673321536 0.024059077922 0.028954341073 0.035990001354 0.043604313029 0.052641838052 0.066787262321 0.083160899482 
0.10442939866 0.13105403619 0.16053309517 0.18831347598 0.20575706391 0.20518566023 0.18760283801 0.16330310004 0.1355483766 
0.11367574441 0.097580664262 0.082647899778 0.0700396235 0.061992104651 0.054862019312 0.049238695419 0.043746334656 0.040319675718 
0.037307719936 0.034636842795 0.032495925323 0.030116394458 0.029504280859 0.02857965892 0.027030795948 0.02628438136 0.026079466062 
0.025970239187 0.025411058128 0.025109506633 0.025448940499 0.025532244629 0.025177990063 0.025570109573 0.02612168663 0.025987906499 
0.026680625855 0.027340592789 0.027706040745 0.028790914199 0.029767126881 0.030448859493 0.032049644559 0.033195454549 0.034291309331 
0.036047287222 0.037694192634 0.039004517051 0.040113510259 0.041445196104 0.042139481972 0.042776293441 0.0428186803 0.042702107531 
0.042164967923 0.040934847201 0.039733634383 0.038057744209 0.036127468971 0.034087562687 0.031748075742 0.029485240322 0.027004463052 
0.024593770871 0.022194597681 0.01980110877 0.017371959616 0.014969760743 0.012762530373 0.010510588459 0.008285404898 0.0062212151587 
0.0041647954705 0.0023193918732 0.00048272838357 -0.0011975113039 -0.0026253471884 -0.004130816052 -0.005432380699 -0.0063498516024 -0.0073371789025 
-0.0082613885158 -0.0088548118041 -0.0094800723847 -0.0098317611716 -0.01016912902 -0.01039207872 -0.010364660933 -0.010253655182 -0.0098532560528 
-0.0091902971226 -0.0080083435521 -0.0063002193158 -0.0037773577825 2.6577438843e-05 0.0053718453002 0.013038393239 0.024096258826 0.040087877432 
0.063278906261 0.096239776476 0.13967144248 0.1872648281 0.21750771422 0.20743997043 0.16546589993 0.11868753003 0.080414714569 
0.053103608101 0.034461384889 0.021622575803 0.012822626746 0.0067664348372 0.0025678175877 -0.00045559373517 -0.0024608275005 -0.0037912257663 
-0.0047452536024 -0.0052658794346 -0.0055025516645 -0.005546209563 -0.0053895943711 -0.0051215611192 -0.0046537662063 -0.0040534881041 -0.0033202667661 
-0.002399530575 -0.0012062105717 0.00025833761526 0.0019747453568 0.0041761605772 0.0070573948237 0.010778854169 0.015696051818 0.022424728652 
0.031704683091 0.044763796798 0.062351355283 0.083315357535 0.1010443487 0.10490717402 0.0925341384 0.073278432665 0.055526266967 
0.041968346795 0.032261010473 0.025373511706 0.0203823145 0.01669983086 0.013908550653 0.011685628049 0.0099345777129 0.0084431095728 
0.0071174571388 0.0060316590505 0.0049788665574 0.0040462426969 0.0031938208561 0.0023633964385 0.0016656596733 0.00097843205031 0.00033431858655 
-0.00018617867621 -0.00061354560063 -0.0010083969283 -0.0013152477243 -0.0014392186127 -0.0015232249806 -0.0015703438707 -0.0013592363877 -0.0011618910331 
0 0 
TangentArray 3 209 double
-0.066745409211 0.078965690988 -0.99464037219 -0.066745409211 0.078965690988 -0.99464037219 -0.066521016001 0.079004052376 -0.99465235843 
-0.066030202077 0.079087442244 -0.99467843492 -0.065278280584 0.079213243856 -0.99471805457 -0.064275402626 0.079381946388 -0.9947699127 
-0.06303428233 0.079592172448 -0.9948325313 -0.061569839762 0.079843687439 -0.99490408603 -0.059898280926 0.080132553895 -0.99498289922 
-0.05803784453 0.080457878431 -0.99506690147 -0.056006652176 0.080819379767 -0.99515399952 -0.053821770176 0.081213796113 -0.99524245105 
-0.051500669032 0.081638694331 -0.99533050022 -0.049060389439 0.082096190649 -0.99541614095 -0.046516332436 0.082583433379 -0.99549796953 
-0.043883489034 0.083097237904 -0.99557475282 -0.041176866436 0.083641188502 -0.99564482485 -0.038410275972 0.08421134202 -0.99570733681 
-0.035597648898 0.08480821733 -0.99576120313 -0.032753511065 0.085432291936 -0.99580546846 -0.029891955577 0.086081715911 -0.99583954992 
-0.027027547059 0.086756626232 -0.99586284171 -0.024175936685 0.087456506175 -0.99587493372 -0.021352926889 0.088182227727 -0.99587546773 
-0.018574726714 0.08893379117 -0.99586432827 -0.015857683791 0.089709839158 -0.99584169356 -0.013218732815 0.090512010475 -0.99580763256 
-0.010674522344 0.091343761915 -0.99576220642 -0.0082411440658 0.092201569736 -0.99570625894 -0.0059350425941 0.093086042514 -0.99564037883 
-0.0037714418504 0.093999290002 -0.99556512078 -0.0017645268127 0.09494175342 -0.99548126547 7.1767116998e-05 0.095916221568 -0.99538940786 
0.0017243288252 0.096921478018 -0.99529053738 0.0031807745036 0.097953738045 -0.99518588609 0.004428900296 0.099014729258 -0.99507611178 
0.0054571264888 0.10010121147 -0.99496229438 0.0062536125822 0.10120880757 -0.99484555063 0.0068056891509 0.10233310796 -0.99472690605 
0.0071007480048 0.1034651172 -0.9946077362 0.0071252440352 0.10459651488 -0.99448921561 0.0068644896195 0.10571218762 -0.99437307494 
0.0063034998839 0.10680072302 -0.99426046459 0.0054265007743 0.10784533495 -0.99415287397 0.0042177522518 0.10882593496 -0.99405187312 
0.0026619517889 0.10972768897 -0.993958122 0.00074438933365 0.11052943425 -0.99387257234 -0.0015480567474 0.11120475391 -0.99379631023 
-0.0042258755386 0.11173248729 -0.99372933602 -0.007297417263 0.11209548173 -0.99367064497 -0.010767476499 0.11227006373 -0.99361939103 
-0.014636839977 0.11223561658 -0.99357381673 -0.018902282729 0.11197307903 -0.99353144554 -0.023555901455 0.11146874601 -0.99348872071 
-0.028585284204 0.11070694802 -0.9934419224 -0.033973208713 0.10967396147 -0.99338685479 -0.039696934169 0.10836138923 -0.99331866123 
-0.045729283598 0.10676245503 -0.99323240524 -0.052038273452 0.10487864264 -0.99312259486 -0.058586784479 0.10270534637 -0.99298499511 
-0.06533346907 0.10024482154 -0.99281544789 -0.072232768473 0.097510352132 -0.99260977145 -0.079236012634 0.094514917661 -0.99236514683 
-0.086292611853 0.091272114086 -0.992080131 -0.093349094587 0.087800226915 -0.99175453954 -0.10035215162 0.084125940459 -0.99138906177 
-0.10725121362 0.080276941622 -0.99098576671 -0.11399721129 0.076278807605 -0.99054842352 -0.1205458572 0.072160982392 -0.99008155671 
-0.12685839199 0.067957687157 -0.98959016827 -0.13290380021 0.063694917206 -0.98908014711 -0.13865774635 0.059396151951 -0.98855759898 
-0.14410325876 0.055088514664 -0.98802808987 -0.14923116402 0.050787607754 -0.98749717903 -0.15403868255 0.046506129975 -0.98696973822 
-0.15852907011 0.042254836846 -0.98644972639 -0.16270956009 0.038034615676 -0.98594065088 -0.1665907575 0.033843830166 -0.98544513529 
-0.1701856766 0.02967989341 -0.98496494324 -0.17350660388 0.02553038959 -0.98450173063 -0.17656600112 0.021385317488 -0.98405645948 
-0.17937582437 0.017232126406 -0.9836296902 -0.18194464684 0.01305264389 -0.98322213867 -0.18427865863 0.0088284250997 -0.98283438833 
-0.18638119706 0.0045440597378 -0.98246699736 -0.1882536889 0.00018427286137 -0.9821204176 -0.1898945404 -0.00427172519 -0.98179520058 
-0.19129892571 -0.0088362709146 -0.98149204854 -0.19245977772 -0.013523393791 -0.98121167532 -0.19336940295 -0.018345468889 -0.98095449322 
-0.1940177147 -0.023312698162 -0.98072098198 -0.19439400161 -0.028435589525 -0.98051128978 -0.19448915883 -0.033714987555 -0.98032508216 
-0.19429301138 -0.03914998606 -0.98016197861 -0.19379782641 -0.044743657225 -0.98002061592 -0.19299789995 -0.050490310036 -0.97989924952 
-0.19189025293 -0.05638128169 -0.97979553066 -0.19047597385 -0.062406878432 -0.97970622378 -0.1887590182 -0.06855366682 -0.97962769857 
-0.18674767142 -0.074809524952 -0.9795554309 -0.18445399553 -0.081158801618 -0.97948454426 -0.18189438257 -0.087583557391 -0.97940979884 
-0.1790882282 -0.094068007533 -0.97932559268 -0.17605696272 -0.10060046294 -0.97922596613 -0.17282485191 -0.10716943083 -0.97910483793 
-0.16941691009 -0.11376338491 -0.97895648669 -0.16585884733 -0.12037564212 -0.97877502397 -0.16217614642 -0.12700317493 -0.9785545928 
-0.1583929827 -0.13364481877 -0.97828969403 -0.15453218024 -0.14030387614 -0.97797475817 -0.15061429611 -0.14698453651 -0.97760466439 
-0.14665792095 -0.15369541043 -0.97717407612 -0.14267948841 -0.16044620055 -0.97667782831 -0.13869326717 -0.1672453055 -0.97611125669 
-0.13471180838 -0.17410646084 -0.97546894824 -0.13074587729 -0.18104252516 -0.97474566921 -0.12680478548 -0.18806032825 -0.97393729743 
-0.12289710362 -0.1951699799 -0.97303904386 -0.11903102675 -0.20238141336 -0.97204597535 -0.1152146401 -0.20969667213 -0.97095462943 
-0.11145636404 -0.21711768123 -0.96976151265 -0.10776469471 -0.22463898716 -0.96846481403 -0.10414858284 -0.23225226345 -0.96706357537 
-0.10061770757 -0.23994390277 -0.9655583879 -0.097181341537 -0.2476915124 -0.96395264487 -0.093848508943 -0.25546886739 -0.96225158621 
-0.090627081722 -0.26324096258 -0.96046391274 -0.087523019069 -0.27096696861 -0.95860138903 -0.084539424432 -0.27859542946 -0.95668054877 
-0.081674635316 -0.28607060787 -0.95472135268 -0.078921725659 -0.29332940322 -0.95274824714 -0.076266480649 -0.30029969494 -0.95079099551 
-0.073686483615 -0.30690713488 -0.9488826654 -0.07115069769 -0.31307280464 -0.94706018669 -0.06861848 -0.31871598819 -0.94536322283 
-0.066039281001 -0.3237575642 -0.9438325344 -0.063353865441 -0.32812112154 -0.942508789 -0.060495834975 -0.33173735881 -0.94143007107 
-0.057394518429 -0.33454877119 -0.94062903897 -0.053977403743 -0.33650897793 -0.94013198417 -0.050173953819 -0.33758645019 -0.93995636229 
-0.045920004888 -0.33776956167 -0.94010801313 -0.041162390315 -0.33706698862 -0.94058040741 -0.035862987954 -0.33550490823 -0.94135556653 
-0.029998720568 -0.33313041909 -0.94240341714 -0.023567155171 -0.33000886171 -0.94368360184 -0.016586769656 -0.3262196062 -0.94514847913 
-0.0090937343 -0.32185445841 -0.94674548407 -0.0011424250364 -0.31701326602 -0.94842041523 0.0071970642002 -0.31180012165 -0.95012045889 
0.015845013785 -0.30631832394 -0.9517972578 0.024713571941 -0.30067034569 -0.95340787839 0.033711265514 -0.29495057949 -0.95491764369 
0.042748407223 -0.28924343305 -0.95630058565 0.051738347847 -0.28362505056 -0.95753849743 0.060600641254 -0.27815824618 -0.95862169408 
0.069263231343 -0.27289360598 -0.95954764582 0.077663693458 -0.26786975059 -0.96031981518 0.085749327907 -0.26311379859 -0.96094650307 
0.093477259019 -0.25864313386 -0.96143940597 0.10081382567 -0.25446484487 -0.96181298353 0.10773401573 -0.25057830953 -0.9620831007 
0.11422005332 -0.24697669145 -0.96226622787 0.12026056486 -0.24364749482 -0.96237897671 0.12584929377 -0.24057285813 -0.96243787082 
0.13098324623 -0.23773236255 -0.96245868119 0.13566264336 -0.23510442424 -0.96245600258 0.13988922254 -0.23266550943 -0.9624436431 
0.14366503903 -0.23039072883 -0.96243465681 0.14699211694 -0.22825538722 -0.96244106093 0.14987124034 -0.22623560694 -0.96247392768 
0.15230160164 -0.22430797274 -0.96254358629 0.15428033008 -0.22245048877 -0.96265952434 0.15580153761 -0.22064165355 -0.96283079593 
0.15685643485 -0.21886144488 -0.96306579567 0.15743274099 -0.21709137155 -0.96337234155 0.15751464707 -0.21531450615 -0.96375764557 
0.1570831601 -0.21351548765 -0.96422819776 0.15611561948 -0.21168017944 -0.96478982944 0.15458630448 -0.20979645959 -0.96544731602 
0.15246695344 -0.20785308109 -0.96620439079 0.14972780455 -0.20584040005 -0.96706324211 0.14633870879 -0.20375045276 -0.96802413984 
0.14227131579 -0.20157736363 -0.96908484622 0.13750057543 -0.19931645742 -0.97024045554 0.13200751734 -0.19696486546 -0.97148281361 
0.1257826073 -0.19452205508 -0.97280003381 0.11882816181 -0.19198885714 -0.97417665066 0.11116302693 -0.1893696904 -0.97559310258 
0.10282457279 -0.18667120851 -0.9770265949 0.093870406856 -0.18390181751 -0.97845207764 0.084381308168 -0.18107505882 -0.97984264956 
0.074459028275 -0.17820611915 -0.98117196872 0.064225128116 -0.17531377213 -0.98241549979 0.053817194006 -0.17242019758 -0.98355222795 
0.043382915523 -0.16954897698 -0.98456643607 0.033074513522 -0.16672722133 -0.98544817734 0.023041371237 -0.16398206583 -0.98619418843 
0.013424446843 -0.16134069657 -0.98680746038 0.004351443836 -0.15883105014 -0.9872961878 -0.0040668602372 -0.15648023845 -0.98767271686 
-0.011738297125 -0.15431298136 -0.98795228436 -0.018589056377 -0.15235227032 -0.98815142195 -0.024562487047 -0.15062013913 -0.98828652623 
-0.02961702235 -0.14913529582 -0.98837315601 -0.033723021354 -0.14791397244 -0.98842511835 -0.036860393393 -0.14697102043 -0.98845375742 
-0.039015547337 -0.14631777325 -0.98846795411 -0.039015547337 -0.14631777325 -0.98846795411 
NormalArray 3 209 double
-0.98801561689 -0.14428109552 0.0548462055 -0.98801561689 -0.14428109552 0.0548462055 -0.98332099617 -0.17431108251 0.051917867977 
-0.98519552479 -0.16322264296 0.052422769418 -0.98480324557 -0.16588799452 0.051417319899 -0.98492015793 -0.1654957469 0.050432531742 
-0.98459388605 -0.16786374866 0.0489555046 -0.98429268191 -0.17010058059 0.047262128856 -0.98437289378 -0.17010077246 0.045560215002 
-0.98381802537 -0.17385361633 0.043324508545 -0.98350437631 -0.17616619483 0.041044044374 -0.9831386502 -0.17874530255 0.038581230015 
-0.98281347875 -0.18105659399 0.036002441147 -0.98179089795 -0.18708372368 0.032959263372 -0.98153436811 -0.18888776454 0.03019431457 
-0.98064296957 -0.19392852162 0.027038763717 -0.97952838008 -0.19990412039 0.023716982674 -0.97883191336 -0.20363278202 0.020537173237 
-0.97725466532 -0.21139211942 0.016931950754 -0.97604094226 -0.2171694834 0.013471989783 -0.97421622896 -0.22540521227 0.0097585607969 
-0.97239725593 -0.23325249533 0.0060704273587 -0.96990254446 -0.2434838306 0.0021629798064 -0.96706252474 -0.25453255623 -0.0018030692665 
-0.96344277191 -0.26784814106 -0.0059496703328 -0.95948487061 -0.28157952982 -0.010087192287 -0.95372465164 -0.30032488583 -0.014637342982 
-0.94673196286 -0.32144150837 -0.019337714361 -0.9387236987 -0.34382918924 -0.024068778834 -0.92743286871 -0.37283783853 -0.029329510865 
-0.91346381495 -0.40542752631 -0.034819243097 -0.89443885954 -0.44531728749 -0.040885694351 -0.86883606299 -0.49281119749 -0.047550176338 
-0.83528998224 -0.54707967487 -0.054721795527 -0.79026544468 -0.6095664692 -0.062523967926 -0.72503688621 -0.68500022279 -0.071387732899 
-0.63875535237 -0.76518844547 -0.080487531635 -0.51517193105 -0.85235362037 -0.089951027232 -0.35115189064 -0.93115517942 -0.098195628889 
-0.14101247696 -0.98459015237 -0.10342975008 0.10127803309 -0.98947605134 -0.10334362023 0.34521712761 -0.93351138505 -0.096858808551 
0.55285607692 -0.82887556011 -0.085530486151 0.71373579923 -0.69673692401 -0.071685895543 0.82349942054 -0.56431507703 -0.058285488818 
0.89542986648 -0.44276951254 -0.046481318681 0.94195332121 -0.33376348129 -0.036412624478 0.97125809294 -0.23638051866 -0.027963678035 
0.98773320063 -0.15465134876 -0.021588994763 0.99634573553 -0.083750305578 -0.016764892375 0.99971668117 -0.019886121286 -0.013080503552 
0.9993246475 0.035137374265 -0.010752386894 0.99628989225 0.085555409778 -0.0093124889043 0.99170152025 0.12823736632 -0.0091253827846 
0.98544010394 0.16976083008 -0.0094372724097 0.97857123615 0.20562699746 -0.010764464416 0.97060628834 0.24034439346 -0.012570026166 
0.96240093997 0.27120966369 -0.01515747565 0.95368688728 0.30024611869 -0.018264425494 0.94408509343 0.32898871068 -0.021674054011 
0.93429060189 0.35559365566 -0.025577788543 0.92423555567 0.38065316105 -0.029863164745 0.91360532074 0.40514773791 -0.034360273289 
0.90238334025 0.42916517889 -0.039007133541 0.89051998719 0.45283748614 -0.04373057924 0.87850220615 0.47526021304 -0.04859633424 
0.8656406078 0.49781438044 -0.053358980081 0.85202764819 0.5202748679 -0.05799093504 0.83777338987 0.54243303518 -0.062467187986 
0.82321663483 0.56378208859 -0.066814135661 0.80714452209 0.58610357612 -0.070712930343 0.79054584785 0.60787146001 -0.074360947828 
0.77313883418 0.62946360225 -0.077665413949 0.75404933521 0.65187518251 -0.080426031216 0.73412449245 0.6739451395 -0.082820157727 
0.7126877655 0.69634843331 -0.08470542094 0.68922753793 0.71942417729 -0.085989848707 0.66419877305 0.7425016037 -0.086783399195 
0.63737785807 0.76561763374 -0.087058055061 0.60713055468 0.78987812447 -0.086516114454 0.57571313933 0.81315582978 -0.085626968252 
0.54055801196 0.8371116406 -0.083911482369 0.50276339465 0.86056289134 -0.081611758076 0.46111906167 0.88385742747 -0.078519162509 
0.41721966717 0.90570892637 -0.074960589756 0.36992833665 0.92636368369 -0.070734371336 0.31969217782 0.94522379743 -0.065946070467 
0.26751616565 0.96163334883 -0.060798055348 0.21294759684 0.97550233769 -0.055213315101 0.15786191742 0.98621661036 -0.049562208236 
0.10147356902 0.99387796651 -0.043700142848 0.045797032635 0.99822664234 -0.038028967008 -0.0088383189288 0.99942879437 -0.03261853923 
-0.062259953225 0.99768080857 -0.027508224697 -0.11300540275 0.99332802734 -0.023004543963 -0.16168613735 0.98665943582 -0.018993438218 
-0.20687747474 0.97823966808 -0.015775368277 -0.24921647239 0.9683574199 -0.013230918808 -0.28801342658 0.95755715543 -0.011513478621 
-0.32343269975 0.94619179686 -0.010600579579 -0.35546652966 0.93463001293 -0.010501676819 -0.38422908951 0.92316989672 -0.011195916807 
-0.40963856657 0.91215941344 -0.012706268047 -0.43181479112 0.90183734226 -0.015013136958 -0.45079190557 0.89244527377 -0.018113287802 
-0.4671157482 0.88392538018 -0.021881500183 -0.48019120187 0.87676470314 -0.026458741031 -0.49074796102 0.87072557712 -0.031676617566 
-0.49850195849 0.86607262414 -0.037603285645 -0.50378160417 0.86270143278 -0.044162576746 -0.50680178579 0.86053471105 -0.051302641288 
-0.50736368041 0.85970493408 -0.059072177177 -0.50604563501 0.85987456744 -0.067331593969 -0.5028948589 0.86099401496 -0.076066202019 
-0.49764869779 0.8631704522 -0.085337823077 -0.49105660798 0.86593584546 -0.094965884951 -0.48335168492 0.86911988242 -0.10488936396 
-0.47413731166 0.87288238643 -0.11519613339 -0.4639484394 0.87689046996 -0.12575750188 -0.45312758733 0.88093519153 -0.13648654851 
-0.44129748133 0.88516252343 -0.14745792651 -0.42952015985 0.88905233801 -0.15842465893 -0.41688116338 0.89300404838 -0.16956964703 
-0.40453863847 0.89650537004 -0.1806283795 -0.39208258695 0.89974218979 -0.19166438616 -0.38011522648 0.90249303158 -0.20253084345 
-0.36881468957 0.9047299933 -0.21316510968 -0.35865293232 0.90633316785 -0.22344633136 -0.35043816954 0.90709242672 -0.23318751836 
-0.34462865283 0.90693775864 -0.24227049676 -0.3426621644 0.90547619381 -0.25039070178 -0.34606372149 0.90226432972 -0.25721387982 
-0.35673258445 0.89662647821 -0.26230291986 -0.3778371821 0.88717128191 -0.26488899632 -0.41323835589 0.87156304902 -0.26384069589 
-0.46856404708 0.84518080686 -0.25713252905 -0.54988047695 0.79959647419 -0.24140617127 -0.66105861679 0.71998917131 -0.2112275985 
-0.7936611811 0.58686127216 -0.16029902323 -0.91709270141 0.38914677513 -0.086635814886 -0.98782086528 0.15556370435 -0.0031419759174 
-0.99587434074 -0.058255448131 0.069574422153 -0.96806023025 -0.21956096439 0.1210469889 -0.93115375399 -0.33080080676 0.1533737679 
-0.89865198046 -0.40381177745 0.17134954454 -0.87349225726 -0.45234021854 0.17999889779 -0.85585244822 -0.48410054128 0.18210780545 
-0.84419965236 -0.50498078142 0.1797814155 -0.83733825538 -0.51818364127 0.17421354713 -0.8338893739 -0.5262554823 0.1663841322 
-0.83312025176 -0.53039209209 0.1568275319 -0.83431503448 -0.53159806783 0.1460202641 -0.8367608755 -0.53081420721 0.13441545543 
-0.84018449029 -0.52834282131 0.12224518575 -0.84430118236 -0.5245114736 0.10974163988 -0.84867931066 -0.51989851711 0.097205758892 
-0.85329404198 -0.51449996613 0.084729350081 -0.85781614646 -0.50880997388 0.072552528292 -0.86222980244 -0.50286144006 0.060746521695 
-0.86632412426 -0.49702553635 0.049478560452 -0.8699141949 -0.49166680201 0.038897934585 -0.8729139971 -0.48700586155 0.029093718829 
-0.8751044353 -0.48351131187 0.020224703161 -0.87627727408 -0.48164657893 0.012438324903 -0.87597289679 -0.48232276765 0.0060192938213 
-0.8739737374 -0.48597191691 0.0010964986998 -0.86970658694 -0.49356494878 -0.0020233563096 -0.86225429405 -0.50646734688 -0.0028911818101 
-0.85024546742 -0.52638561563 -0.00091038142557 -0.83177474532 -0.55509413739 0.004612123091 -0.80338752804 -0.59527199638 0.014823296185 
-0.75953007635 -0.6497220584 0.031229952669 -0.69096983602 -0.72072622983 0.055806696305 -0.58241225884 -0.80779851767 0.090870873253 
-0.4158498437 -0.89911613114 0.13659828046 -0.18139664122 -0.96529575313 0.18788125916 0.092713868652 -0.96840548142 0.23150585763 
0.34583984807 -0.9026336621 0.25621723502 0.53698745285 -0.8016206002 0.26277155253 0.66607124629 -0.69959675945 0.25867637894 
0.75053917542 -0.61170081938 0.2500261061 0.80655382873 -0.54030374646 0.23988076813 0.84488064873 -0.4832542404 0.22943850711 
0.87210299353 -0.43755481042 0.21904829732 0.89202841992 -0.4008753927 0.20876833471 0.90715888156 -0.37103047184 0.19849219775 
0.91889970326 -0.34673364698 0.18814652111 0.92820909725 -0.32690853467 0.17764763367 0.93577673627 -0.31058341402 0.16691268015 
0.94191207277 -0.29745248489 0.15596046424 0.94693199887 -0.28697939023 0.14478473365 0.95110622801 -0.27857621819 0.13338753205 
0.95441499154 -0.27245064172 0.12191255781 0.95713021283 -0.26780914286 0.11036312193 0.95917809861 -0.26493528242 0.098927606276 
0.96071350208 -0.26332866388 0.087678855495 0.96177004724 -0.26288173367 0.076756565354 0.96236320723 -0.26355332896 0.066307617737 
0.96255616038 -0.26514083739 0.056444436871 0.96243996583 -0.26735101951 0.047251926238 0.96204178688 -0.27012480251 0.038835439479 
0.96139813179 -0.27337768443 0.031277369448 0.9605941814 -0.27686257032 0.024615763558 0.95976251038 -0.28017976705 0.018847328958 
0.95880990129 -0.28369954927 0.014076183517 0.95795334071 -0.28674172671 0.010226396224 0.95723701183 -0.28921259335 0.0073060950858 
0.95660503879 -0.2913382756 0.0053673956274 0.95660503879 -0.2913382756 0.0053673956274 
BinormalArray 3 209 double
-0.13917683404 0.98638095334 0.087649436657 -0.13917683404 0.98638095334 0.087649436657 -0.16927720735 0.98151617726 0.089281693792 
-0.1582080603 0.98341422875 0.088694218265 -0.16093885049 0.9829580028 0.088838342693 -0.16062675716 0.9830105108 0.088822184938 
-0.16309984303 0.98259190307 0.088947137296 -0.16546018002 0.98218673279 0.089062622733 -0.16559650336 0.98216317433 0.089069057819 
-0.16951018126 0.98147921521 0.089246000239 -0.17199533915 0.98103705315 0.08935269249 -0.17476158487 0.98053783004 0.089464810481 
-0.17727195797 0.98007838123 0.089560144898 -0.18352032829 0.97890750115 0.089779693077 -0.1855438359 0.97851999925 0.089844844146 
-0.19082349339 0.97748993732 0.089998982293 -0.19704978632 0.97623895345 0.090160343147 -0.20102919215 0.97541895612 0.09025034039 
-0.20906010261 0.97371501895 0.09040428849 -0.21510761618 0.97238816271 0.090498477798 -0.22362739147 0.97045475344 0.090600007249 
-0.23176084304 0.96853836332 0.090666148076 -0.24229027701 0.96595392424 0.090710737542 -0.25364172715 0.96303534335 0.090712742847 
-0.26726953581 0.95934777538 0.090657824303 -0.28131355625 0.95533507899 0.090540432563 -0.30039066889 0.94953280034 0.090293450083 
-0.32184568519 0.94251348736 0.089909293576 -0.34457205492 0.93449470794 0.089385344452 -0.37394257489 0.92321554084 0.088543863898 
-0.40690248832 0.9092813945 0.087393996388 -0.4471867764 0.89032498388 0.085705367946 -0.49509987931 0.86483362681 0.083300104686 
-0.5498069409 0.83145057366 0.0800141944 -0.61275640316 0.78665989146 0.075470560871 -0.68869579531 0.72178305478 0.068755533301 
-0.76939055076 0.63597672158 0.059764454468 -0.85706404299 0.51307902229 0.046809647511 -0.93629377457 0.34996852266 0.029597311632 
-0.98998235374 0.14098652908 0.0075985458963 -0.99483264467 -0.099983563174 -0.017643587628 -0.93849774299 -0.34260973042 -0.042901736976 
-0.83325291725 -0.54914379848 -0.064270245738 -0.70039400482 -0.70917349249 -0.080753919794 -0.56730143216 -0.81835530775 -0.091998235567 
-0.44519464084 -0.88989605743 -0.099432080983 -0.33574303648 -0.9361544652 -0.10436201766 -0.23802378119 -0.96527599841 -0.10764258676 
-0.1560937742 -0.98163069003 -0.10970834994 -0.085099488847 -0.99016185005 -0.11107469427 -0.02122778469 -0.99347872396 -0.11202413217 
0.033704774286 -0.99306018513 -0.1126741181 0.083959241895 -0.99002136413 -0.11317483939 0.12638518204 -0.98545923129 -0.11356447164 
0.16760275376 -0.97924727839 -0.11394772794 0.20308657481 -0.97246550586 -0.11430959295 0.23737646565 -0.96462033042 -0.11471718137 
0.26775597728 -0.95658094091 -0.1151505107 0.29626565634 -0.94807844534 -0.11564567587 0.32445481204 -0.93873214501 -0.11623697721 
0.35047483367 -0.92924922804 -0.11688996176 0.37492807948 -0.91956234275 -0.11761816614 0.39880693602 -0.90935264931 -0.11845162294 
0.42220598335 -0.89860260984 -0.11939621938 0.44526407777 -0.88725944982 -0.12045982627 0.46707956438 -0.87581422462 -0.12159820925 
0.48904346975 -0.86356033679 -0.122882177 0.51093397082 -0.85058544858 -0.12430153709 0.53254525023 -0.83699414273 -0.12584260604 
0.55337267779 -0.823123022 -0.12746438772 0.57519935705 -0.80772863981 -0.12930639609 0.59649919684 -0.79181082668 -0.13124146802 
0.61764924828 -0.77507472478 -0.13329882636 0.63964025808 -0.75662366162 -0.13557645414 0.66131181288 -0.73731616612 -0.13795491046 
0.68333350776 -0.71645892289 -0.14050597486 0.70603895078 -0.69352881781 -0.14327169592 0.72875751069 -0.66898876198 -0.14617293508 
0.75152265536 -0.6426108798 -0.1492144619 0.77542759042 -0.612732199 -0.15254935045 0.79836008696 -0.58165304494 -0.15588748142 
0.82196189044 -0.54676060117 -0.15947255461 0.84505923727 -0.50917692263 -0.1631372029 0.86799227355 -0.46767307686 -0.16694701625 
0.88948850398 -0.4238757981 -0.17070298498 0.90978765344 -0.37663017881 -0.17445954847 0.92829789129 -0.32639504459 -0.17812720146 
0.94437271357 -0.27419559212 -0.18159558125 0.95792095444 -0.2195730106 -0.18486518886 0.96834285717 -0.16443917182 -0.18780806623 
0.97573574352 -0.1079958601 -0.19046430906 0.97985386867 -0.052297110611 -0.1927470059 0.9808648486 0.0023204734727 -0.19467604934 
0.97896574197 0.055680183128 -0.196279885 0.97451125259 0.10628939378 -0.19756108761 0.96778582528 0.15477043095 -0.19858678228 
0.95936429018 0.19967048574 -0.19937867451 0.94953149146 0.24163875693 -0.20000164469 0.93883880361 0.27997265731 -0.20049192502 
0.9276403376 0.31484062402 -0.2008949614 0.91630795578 0.34623689556 -0.20124547779 0.90514222107 0.37428126089 -0.20157156889 
0.89449631151 0.39889398896 -0.20189089696 0.88461287129 0.42020108872 -0.20221551124 0.87573867588 0.43824210936 -0.20254783422 
0.86781379821 0.45357889559 -0.20289257532 0.86134038127 0.46561073883 -0.20322250731 0.85607554356 0.47508647939 -0.20353746783 
0.85229540678 0.48172323187 -0.20380203007 0.84989640579 0.48586115324 -0.20399764509 0.84880344234 0.4877248785 -0.20410085537 
0.84916049721 0.48711923297 -0.20406200736 0.85062352358 0.48463671445 -0.20387956282 0.85314766514 0.48033146262 -0.20352087726 
0.85685383951 0.47394483935 -0.20292310607 0.8612600788 0.46623890403 -0.2021196701 0.86619379764 0.45745376042 -0.20110783678 
0.87183146973 0.44719684525 -0.19981208668 0.87782883312 0.43601016872 -0.19827171388 0.88396887746 0.42424108007 -0.19651597816 
0.89041227074 0.41151818869 -0.19447048232 0.89660426212 0.39890257673 -0.19229542746 0.90297462219 0.38549014993 -0.18982669989 
0.90896895817 0.37243126214 -0.18727089489 0.91478250522 0.35932284453 -0.18455368199 0.92016567637 0.34675926195 -0.18180523173 
0.925074298 0.334914668 -0.17908017293 0.92935880868 0.32424850158 -0.17650811299 0.9327626574 0.31554384176 -0.17431554401 
0.935179312 0.30923697913 -0.1726619389 0.9361378116 0.30670951022 -0.17197463195 0.93510604992 0.30941747288 -0.17273535504 
0.93129596012 0.31916918576 -0.1755530277 0.92313414087 0.33898751532 -0.18141340198 0.90803390103 0.3725559964 -0.1915110026 
0.88095774425 0.42526514474 -0.20751628735 0.83283716824 0.50297316833 -0.23108492624 0.74789154235 0.60956207065 -0.26285418564 
0.60564659568 0.73734046881 -0.29920099298 0.39500305936 0.85751180469 -0.32961506021 0.14728378214 0.92835086176 -0.34128018545 
-0.078266535671 0.93942430561 -0.33370094909 -0.24731568537 0.91552106917 -0.3172634925 -0.36285883278 0.88204721121 -0.30054314944 
-0.43763534454 0.85203296431 -0.28725447419 -0.48626727805 0.82854238147 -0.27759981341 -0.51695402692 0.81192822002 -0.27116618446 
-0.53595172446 0.80087709294 -0.26711726085 -0.54668394978 0.79434772177 -0.26485534914 -0.551884693 0.79109787731 -0.26379430272 
-0.55286488553 0.79047663664 -0.26360406917 -0.55073374929 0.79183384463 -0.26399147693 -0.54652976846 0.79450640846 -0.2646975238 
-0.54061316664 0.79824313314 -0.26560366044 -0.53336540647 0.8027730344 -0.26660232261 -0.52542458063 0.8076716672 -0.26757333214 
-0.51680932915 0.8129076606 -0.26849441826 -0.50805492774 0.81814314591 -0.26929905905 -0.49920619042 0.82334774008 -0.26998458909 
-0.49065722635 0.8282930312 -0.27052937123 -0.48278967063 0.83277331761 -0.27092939192 -0.47583036422 0.83668142181 -0.27120041091 
-0.47026163647 0.83977337727 -0.27135708593 -0.46655710847 0.84181498636 -0.27142585225 -0.46565377627 0.8423119658 -0.2714352831 
-0.46798856347 0.84101998774 -0.27142602066 -0.4745588476 0.83732881895 -0.271430192 -0.48677360015 0.83027560922 -0.27146615798 
-0.50640201589 0.81843649462 -0.27151188294 -0.53529813244 0.79985622261 -0.27145152893 -0.57628733381 0.77101796378 -0.27096901745 
-0.63239092755 0.72632443178 -0.26932236178 -0.70622819645 0.65655881815 -0.26490045838 -0.79782318946 0.54660663696 -0.25436065497 
-0.89580408926 0.37906444132 -0.2320456485 -0.97072663022 0.14517384539 -0.19134880191 -0.98315475614 -0.12581926322 -0.13257540678 
-0.92505117712 -0.37371594637 -0.06794638425 -0.82901893153 -0.55910277675 -0.011475896214 -0.72969320219 -0.68304452249 0.031591311637 
-0.64299671404 -0.76329496543 0.062737719748 -0.57188504606 -0.81590538132 0.085122869021 -0.51454997009 -0.85144059813 0.10142601315 
-0.46818291445 -0.87630608486 0.11354472364 -0.43055648853 -0.89418782665 0.1226753474 -0.39954571574 -0.90749172489 0.12969961561 
-0.37390115145 -0.91757122238 0.13513319654 -0.35257302754 -0.92534917123 0.13935986351 -0.33461123906 -0.93149184822 0.14268235841 
-0.3197323168 -0.93630971326 0.14524244025 -0.30742175627 -0.94011858353 0.14720364353 -0.29711401495 -0.94318986092 0.14871499047 
-0.28904649632 -0.94552272682 0.14979618167 -0.28244802814 -0.94738764205 0.15059803152 -0.27763480471 -0.94872576206 0.15112360378 
-0.27413042436 -0.94969003321 0.15146402627 -0.27185373416 -0.95031322614 0.15165856208 -0.2707880215 -0.95060482057 0.15173767671 
-0.27074974115 -0.95061533544 0.15174011232 -0.27145971543 -0.95041892336 0.15170198753 -0.27287187642 -0.95002448707 0.15163908803 
-0.27491061196 -0.94944833743 0.15156520048 -0.27733241001 -0.94875492246 0.15149531832 -0.279736676 -0.94805742011 0.15144147474 
-0.28250027466 -0.94724507351 0.15139473415 -0.28493535205 -0.94652027919 0.15136448141 -0.28694705884 -0.94591521555 0.15134659039 
-0.28876389462 -0.9453640137 0.15133504144 -0.28876389462 -0.9453640137 0.15133504144 
