# vtk DataFile Version 4.1
vtk output
ASCII
DATASET POLYDATA
POINTS 134 float
3.26606 -31.6115 -173.785 2.82975 -31.7566 -171.265 2.39411 -31.9013 -168.746 
1.96112 -32.0444 -166.232 1.53277 -32.185 -163.726 1.11098 -32.322 -161.234 
0.697588 -32.4543 -158.757 0.294338 -32.5809 -156.301 -0.0971578 -32.7012 -153.868 
-0.475437 -32.8142 -151.461 -0.839198 -32.9194 -149.083 -1.18731 -33.0164 -146.738 
-1.51883 -33.1047 -144.427 -1.83296 -33.1841 -142.152 -2.12911 -33.2546 -139.916 
-2.40683 -33.316 -137.718 -2.6658 -33.3686 -135.561 -2.90584 -33.4124 -133.444 
-3.12687 -33.4479 -131.366 -3.32891 -33.4753 -129.328 -3.51202 -33.495 -127.328 
-3.67634 -33.5074 -125.363 -3.82199 -33.5128 -123.432 -3.94915 -33.5116 -121.531 
-4.05796 -33.5042 -119.658 -4.14857 -33.4906 -117.808 -4.22112 -33.4712 -115.978 
-4.27572 -33.4461 -114.163 -4.31246 -33.4152 -112.358 -4.33141 -33.3784 -110.559 
-4.33265 -33.3357 -108.76 -4.31624 -33.2867 -106.958 -4.28225 -33.231 -105.147 
-4.23076 -33.1683 -103.323 -4.16189 -33.0981 -101.481 -4.07579 -33.0198 -99.6176 
-3.97266 -32.9329 -97.7292 -3.85273 -32.8368 -95.8127 -3.71634 -32.7309 -93.8654 
-3.56387 -32.6148 -91.8855 -3.39578 -32.4878 -89.8715 -3.21265 -32.3496 -87.8229 
-3.01509 -32.1998 -85.7397 -2.80386 -32.0382 -83.6228 -2.57977 -31.8646 -81.4736 
-2.34374 -31.6791 -79.2945 -2.09677 -31.4818 -77.0884 -1.83995 -31.2729 -74.859 
-1.57442 -31.0528 -72.6106 -1.3014 -30.8221 -70.3481 -1.02217 -30.5813 -68.0767 
-0.738037 -30.3313 -65.8021 -0.450336 -30.0727 -63.5303 -0.16041 -29.8066 -61.2674 
0.130406 -29.5338 -59.0192 0.420803 -29.2553 -56.7919 0.709514 -28.972 -54.5909 
0.995332 -28.6847 -52.4213 1.27712 -28.3944 -50.2879 1.55384 -28.1016 -48.1945 
1.82455 -27.8072 -46.1441 2.0884 -27.5115 -44.139 2.34466 -27.215 -42.1804 
2.59272 -26.9179 -40.2686 2.83209 -26.6204 -38.4027 3.06236 -26.3223 -36.5809 
3.28324 -26.0235 -34.8004 3.49452 -25.7236 -33.0574 3.69607 -25.4223 -31.3475 
3.88781 -25.119 -29.6651 4.06972 -24.8132 -28.0043 4.24178 -24.5042 -26.3585 
4.40403 -24.1912 -24.7207 4.55646 -23.8737 -23.0836 4.69909 -23.5509 -21.4398 
4.83188 -23.2223 -19.7818 4.95478 -22.8872 -18.1022 5.06772 -22.5451 -16.394 
5.17059 -22.1957 -14.6501 5.26323 -21.8386 -12.8643 5.34548 -21.4738 -11.0305 
5.41718 -21.1012 -9.14341 5.47814 -20.7209 -7.1984 5.52821 -20.3333 -5.19148 
5.56726 -19.9387 -3.11947 5.59519 -19.5379 -0.980013 5.61199 -19.1315 1.22841 
5.61771 -18.7205 3.50642 5.6125 -18.306 5.85377 5.59659 -17.8891 8.26932 
5.57034 -17.4711 10.751 5.53422 -17.0536 13.2961 5.4888 -16.638 15.9008 
5.43479 -16.226 18.5608 5.37298 -15.8191 21.2709 5.30426 -15.419 24.0255 
5.2296 -15.0275 26.8184 5.15004 -14.6461 29.643 5.06663 -14.2764 32.4926 
4.98048 -13.92 35.3601 4.89265 -13.5783 38.2386 4.80418 -13.2525 41.1214 
4.71606 -12.9438 44.0017 4.62919 -12.6532 46.8733 4.54436 -12.3816 49.7307 
4.46224 -12.1295 52.5685 4.38336 -11.8974 55.3824 4.30811 -11.6856 58.1686 
4.23671 -11.4941 60.9241 4.16922 -11.323 63.6468 4.10554 -11.172 66.3353 
4.04543 -11.0407 68.989 3.9885 -10.9287 71.6081 3.93422 -10.8353 74.1935 
3.88198 -10.76 76.7465 3.83107 -10.7018 79.2692 3.78071 -10.6602 81.7642 
3.7301 -10.6343 84.234 3.6784 -10.6232 86.6819 3.6248 -10.6262 89.1109 
3.56855 -10.6424 91.5242 3.50894 -10.671 93.925 3.44535 -10.7112 96.3162 
3.3773 -10.7622 98.7007 3.30439 -10.8231 101.081 3.2264 -10.8932 103.459 
3.14326 -10.9717 105.837 3.05502 -11.0576 108.216 2.96194 -11.1501 110.596 
2.86439 -11.2483 112.98 2.76292 -11.3513 115.366 2.6582 -11.4581 117.754 
2.551 -11.5677 120.145 2.44221 -11.6791 122.538 
LINES 1 135
134 133 132 131 130 129 128 127 126 125 124 123 122 121 120 119 118 117 116 115 114 113 112 111 110 109 108 107 106 105 104 103 102 101 100 99 98 97 96 95 94 93 92 91 90 89 88 87 86 85 84 83 82 81 80 79 78 77 76 75 74 73 72 71 70 69 68 67 66 65 64 63 62 61 60 59 58 57 56 55 54 53 52 51 50 49 48 47 46 45 44 43 42 41 40 39 38 37 36 35 34 33 32 31 30 29 28 27 26 25 24 23 22 21 20 19 18 17 16 15 14 13 12 11 10 9 8 7 6 5 4 3 2 1 0 

CELL_DATA 1
FIELD FieldData 2
LengthArray 1 1 double
299.1089943 
TortuosityArray 1 1 double
0.0071222911266 
POINT_DATA 134
FIELD FieldData 8
RadiusArray 1 134 double
48.081925482 49.214434256 51.076205703 52.39399327 53.052215838 53.205955162 53.239693749 53.265404675 53.478012916 
53.896124506 54.231037225 54.444724859 54.991434709 54.997755873 54.969547052 54.971348526 55.180899308 55.307170381 
55.363649174 55.375694898 55.354307957 55.355280017 55.348323781 55.32273195 55.321648049 55.330380545 55.422308818 
55.424164632 55.390682738 55.337637502 55.33109021 55.285283759 55.270272199 55.242551398 55.137375576 55.122420433 
54.849817943 54.796536487 54.57387595 54.546261967 54.429633456 54.408957113 54.33842296 54.112623523 54.003266441 
53.779623242 53.736776704 53.542125829 53.024318675 52.476901235 52.133025662 51.89865514 51.401493482 51.384337221 
51.033382321 51.014839765 50.810490854 50.864940539 50.876154998 50.948948764 50.962347178 50.96617787 51.000072893 
51.037057739 51.084636351 51.188105908 51.254182344 51.369957904 51.48324404 51.548392227 51.553280599 51.804560929 
51.860369978 52.0305673 52.180715895 52.189462628 52.518871623 52.527609888 52.669380452 53.00307311 53.091770118 
53.095813299 53.577305315 54.206459641 54.473341302 54.646588163 55.1461663 55.202776388 55.605673338 55.700002069 
56.017862938 56.198541334 57.045447817 57.13443885 57.469947347 57.914230047 58.133240337 58.547583116 59.478440934 
59.535675699 59.79120943 59.970499027 60.04789966 60.372571262 60.581706226 60.759187477 61.429937501 61.49546082 
61.514173542 62.134138617 62.607729246 62.636738688 62.642037917 63.540705233 63.786476252 63.921496435 64.227764737 
64.579514851 64.872731997 65.21719777 65.260539102 65.687282778 65.98079885 66.450700585 66.583672573 67.378307673 
67.496923258 67.756523921 68.135323749 68.399996272 68.829635436 69.364609747 69.843215278 67.659291115 
EdgeArray 2 134 int
35974 35974 32224 35915 30504 30504 29874 31949 30376 
30376 31605 31605 31774 31045 30399 31360 30821 30894 
30662 30401 30662 29174 30118 29902 29828 29828 29324 
29889 29888 29888 29389 29887 29238 29238 28653 28818 
28816 28733 28733 28232 28817 28232 28811 28817 28088 
28088 28626 28622 27667 28626 27667 27667 24138 24138 
27486 28188 27404 27485 27468 27465 27468 26770 23780 
26770 23780 26251 26251 27071 27335 27335 13538 13538 
27292 27292 17877 17877 26409 26409 16824 16824 26403 
26403 26125 22585 25016 25016 25014 25014 24340 24340 
24654 25726 24654 25041 24805 24805 16085 16085 25853 
25853 25847 25847 20235 20235 23793 23793 21747 21747 
24464 24464 7062 7062 21372 21372 22811 22811 20792 
20792 21973 21973 23737 18563 23736 23737 23736 23736 
23738 23738 23743 23743 23744 23744 22731 22731 23724 
23724 23730 23730 23733 23731 23524 23733 23524 23524 
23523 23523 23520 23520 22257 22257 23527 23521 23527 
23527 23529 21772 21772 21772 19966 19966 22298 21901 
22303 22298 22303 22303 22490 21979 21165 21074 21074 
21074 21387 20805 20323 20805 20265 18179 18179 18179 
20409 20745 20409 18366 18366 18366 18961 18961 20264 
14008 18110 20263 18049 18655 12493 18684 9382 20701 
18330 16534 19842 18132 18134 19840 18135 19845 19105 
13071 13989 19103 14541 19108 17730 17733 17733 17731 
17732 17731 17466 17466 17268 17046 17267 17268 17267 
12492 17082 17082 17081 17081 17079 17079 16081 16081 
16525 16525 13008 15815 15815 13690 13690 14782 12996 
12996 14565 15285 14565 14191 14191 14191 12045 11973 
14571 11973 14583 14571 14773 14789 13996 14793 13997 
14013 13273 13273 13280 13280 7740 7740 
EdgePCoordArray 1 134 double
0 0.136 0 0.848 0 0 0.996 0.412 0.536 
0.568 0.688 0.064 0 0.448 0 0.964 0 0.6 
0.436 0.568 0.036 0.912 0 0.012 0.948 0 0 
0.144 0.756 0.284 0.24 0.18 0.488 0.668 0 0 
0 0 0 0 0 0.084 0 0 0 
0.516 0.448 0 0 0 0 0 0 0 
0 0 0 0 0 0 0.368 0.956 0 
0 0 0 0 0 0 0.388 0.996 0 
0 0 0 0.988 0 0.02 0 0 0.536 
0.996 0 0.036 0.532 0 0.632 0.588 0.7 0 
0.76 0.088 0 0 0.316 0.74 0.78 0.92 0.464 
0.348 0.48 0.644 0.736 0.372 0.72 0.608 0.816 0.392 
0.48 0 0.012 0.14 0.004 0 0 0 0 
0 0.696 0.852 0.008 0 0.572 0.768 0 0.828 
0.928 0.204 0.64 0.512 0.688 0 0 0 
CurvatureArray 1 134 double
0 8.0718135799e-05 0.00032300960605 0.00056711773431 0.00081095267294 0.0010551994883 0.0012966047051 0.0015348412397 0.001768748426 
0.0019988752027 0.002222597682 0.0024415590673 0.0026560355881 0.002864530806 0.0030712744484 0.0032761441074 0.0034791494694 0.0036844729156 
0.003892143553 0.0041045225607 0.0043198376257 0.0045390743543 0.0047589055608 0.004975238733 0.0051811155412 0.0053703299156 0.0055326961041 
0.0056600251767 0.0057446759901 0.005779434329 0.0057596792748 0.0056866394287 0.0055604840889 0.0053882331002 0.0051756495352 0.0049337976508 
0.0046701548605 0.0043961158799 0.004118128512 0.0038439454967 0.0035800503844 0.0033291501584 0.0030949121729 0.0028790968029 0.0026809342192 
0.0025015996441 0.0023407119428 0.0021976455444 0.0020715331286 0.0019612049298 0.0018673975264 0.0017882789504 0.0017255516552 0.001677040231 
0.0016447846419 0.0016290173719 0.0016297306074 0.0016479518143 0.001686170347 0.0017439523453 0.0018234870863 0.0019248020369 0.0020491842434 
0.0021964297268 0.0023639752635 0.0025508655192 0.0027508488293 0.0029604778647 0.003170402792 0.0033742896633 0.0035619228528 0.0037254114305 
0.0038589257312 0.0039549669008 0.0040121290073 0.0040294092735 0.0040070752848 0.0039500139566 0.0038613250293 0.0037476063178 0.0036135222791 
0.0034655140359 0.0033080068357 0.0031466677032 0.0029852109166 0.0028271884614 0.002675206757 0.0025323533082 0.0024006237104 0.0022806960312 
0.0021743334951 0.0020832077843 0.0020065104877 0.0019457870413 0.0019011358128 0.0018723023014 0.0018584056531 0.0018597527721 0.0018745313705 
0.0019024770639 0.0019414362333 0.0019902375695 0.0020469632997 0.0021095466925 0.0021763530292 0.0022447977888 0.0023121563933 0.0023763457994 
0.0024350498125 0.0024853638367 0.0025252150917 0.0025533554542 0.0025677901353 0.0025685296545 0.0025556061866 0.0025296621513 0.0024918319642 
0.0024438688481 0.0023870919215 0.0023222608863 0.0022494646321 0.0021683444485 0.0020777986371 0.001975425953 0.0018603639645 0.001730344486 
0.00158490942 0.0014228191249 0.0012450443216 0.0010516152755 0.00084462303593 0.00062558450081 0.0003963226956 0 
TorsionArray 1 134 double
0 0 -5.3866171012e-05 -0.00051584885658 -0.00049760710842 -0.00073028014421 -0.0010860087593 -0.0014844002828 -0.001900813037 
-0.0023089660498 -0.0028705021275 -0.0035094814318 -0.004325595592 -0.0051359157432 -0.0059126107902 -0.006874207485 -0.0079267674428 -0.0087799154576 
-0.0094539747231 -0.010035062656 -0.010356431257 -0.010168124131 -0.0095467619285 -0.0087133158738 -0.0073246657063 -0.0056002059309 -0.0036467688005 
-0.0013090340291 0.0011083862625 0.0034796146242 0.0059726794933 0.0084277197623 0.010761122381 0.012901560456 0.014918623818 0.016750568618 
0.018280383769 0.019626427443 0.020580869679 0.021331455807 0.021846758336 0.022127600884 0.022192379331 0.021996701017 0.021703833173 
0.021413095907 0.021067203766 0.02079516568 0.020585974259 0.020543352474 0.020680972641 0.021098869783 0.021790181636 0.022728071781 
0.024015635293 0.025534339356 0.027313887627 0.029302511488 0.031349212948 0.033479641158 0.035618217282 0.037640626676 0.039549537974 
0.041407444253 0.043122536839 0.044763572439 0.046351239959 0.047846436897 0.04913093893 0.050257237969 0.051308727404 0.051703759704 
0.051846803414 0.051566211725 0.050500716977 0.049144118581 0.04741356909 0.04519670394 0.04276501735 0.040231559064 0.037786525163 
0.035449592896 0.033310209494 0.031539705452 0.030038778354 0.028822450171 0.027989659523 0.027465722331 0.027109553684 0.026908271112 
0.026895604343 0.026844877306 0.026708398986 0.026470279944 0.025978784298 0.025203653115 0.024132939492 0.022769701345 0.021157217939 
0.019328401656 0.017342414013 0.015263406062 0.013111038558 0.010920624637 0.0087214977177 0.0065125663018 0.0042621635551 0.0019685203495 
-0.00037097616614 -0.0027878430542 -0.0052823054107 -0.0078737679925 -0.010554746658 -0.013252558006 -0.01592676396 -0.018502460917 -0.020839699398 
-0.02279752677 -0.024264463869 -0.025103742756 -0.025283312084 -0.024792987381 -0.02371077618 -0.022171811113 -0.020253654281 -0.018149876837 
-0.015966535229 -0.013770568388 -0.011649663003 -0.0097072593581 -0.0077849420107 -0.0060760602905 0 0 
TangentArray 3 134 double
0.17021050864 0.056557421669 -0.98378333021 0.17021050864 0.056557421669 -0.98378333021 0.16979110526 0.056270156134 -0.98387227327 
0.16886837725 0.055637948038 -0.98406701494 0.16744368593 0.054664403205 -0.98436498062 0.16552229677 0.053355370246 -0.98476168373 
0.16311356608 0.051720997664 -0.98525068026 0.16023119807 0.049777247345 -0.98582360938 0.15689131411 0.047543555036 -0.98647084393 
0.15311130146 0.045042066117 -0.98718191922 0.14891139565 0.042297772907 -0.98794549174 0.14431227895 0.039339069521 -0.98874991972 
0.13933227183 0.036195135759 -0.98958396823 0.133989561 0.032898693039 -0.99043650657 0.12829934135 0.029481489989 -0.99129719094 
0.12227288809 0.025972431768 -0.99215662757 0.11591970594 0.022402927 -0.99300590665 0.10924402166 0.018803281075 -0.9938370995 
0.10224682695 0.015198802043 -0.99464294236 0.094927257728 0.011610403304 -0.99541650291 0.087283135003 0.0080568623809 -0.99615096311 
0.079312770636 0.0045524643937 -0.996839385 0.071017409711 0.0011032669416 -0.997474466 0.062404313186 -0.0022910915831 -0.99804832177 
0.0534876876 -0.0056333320902 -0.99855261897 0.044291934487 -0.0089343934433 -0.99897867903 0.034852742745 -0.012210164811 -0.99931786645 
0.025218166819 -0.015478928462 -0.99956212755 0.015447841906 -0.018764962172 -0.99970457655 0.0056116045406 -0.022092346959 -0.9997401853 
-0.004212433074 -0.025481917033 -0.99966640801 -0.013942139666 -0.028954509327 -0.99948349318 -0.023494610038 -0.03252722787 -0.99919466709 
-0.032789972116 -0.036211640614 -0.99880605465 -0.04175556374 -0.04001256864 -0.99832633304 -0.050328268385 -0.043930083228 -0.99776611147 
-0.05845667611 -0.047958633423 -0.99713729571 -0.066102571831 -0.052086713178 -0.99645241949 -0.073240421245 -0.056299595477 -0.99572395585 
-0.079856886805 -0.060577072267 -0.99496396716 -0.085950551306 -0.064898768291 -0.99418340994 -0.09152886171 -0.0692435871 -0.99339206415 
-0.096606592153 -0.073590383763 -0.99259841919 -0.1012053654 -0.077919839786 -0.99180944368 -0.10535077243 -0.082212807649 -0.99103091224 
-0.10907049924 -0.086452723902 -0.99026741475 -0.11239363852 -0.09062741741 -0.9895222793 -0.11534962741 -0.094727612887 -0.98879782707 
-0.11796647962 -0.098747471975 -0.98809556545 -0.12027044171 -0.10268369213 -0.98741636619 -0.12228570729 -0.1065372172 -0.98676036967 
-0.12403366353 -0.11031212231 -0.98612721592 -0.12553224808 -0.11401624352 -0.98551608353 -0.12679552184 -0.11766008077 -0.98492588606 
-0.12783385582 -0.12125605438 -0.98435535991 -0.12865329343 -0.12482061204 -0.98380289942 -0.12925528937 -0.12837070972 -0.9832670192 
-0.12963625083 -0.13192367158 -0.9827464512 -0.129787579 -0.13549871692 -0.982239931 -0.12969563885 -0.13911417086 -0.98174655015 
-0.12934121327 -0.14278593377 -0.98126603308 -0.12869958276 -0.14652693397 -0.98079879436 -0.12774155502 -0.15034533884 -0.98034604819 
-0.12643375862 -0.15424372725 -0.97990988223 -0.1247397625 -0.1582151157 -0.97949373087 -0.12262247762 -0.16224293427 -0.9791021184 
-0.12004633629 -0.1662987211 -0.9787408301 -0.11698007961 -0.17034176213 -0.97841675428 -0.11340024023 -0.17431915069 -0.97813762795 
-0.10929535369 -0.17816752387 -0.97791147815 -0.10466800632 -0.18181550292 -0.977746251 -0.099536812503 -0.1851854806 -0.97764961041 
-0.093938151967 -0.18820398308 -0.97762717043 -0.087924629561 -0.19080147626 -0.97768300393 -0.081562725071 -0.19291846796 -0.9778189948 
-0.074929253421 -0.1945130632 -0.97803388245 -0.068107258144 -0.19555747874 -0.9783244216 -0.061180677535 -0.19604053459 -0.9786853598 
-0.05423074784 -0.19596865726 -0.9791094481 -0.0473326979 -0.19536194047 -0.97958834616 -0.040553117867 -0.1942511227 -0.98011323119 
-0.03394946149 -0.19267343521 -0.98067547202 -0.02756942693 -0.19067057909 -0.98126686328 -0.021451458946 -0.18828569427 -0.9818799989 
-0.015625756971 -0.1855596602 -0.98250875224 -0.010115632805 -0.1825314438 -0.98314797767 -0.0049385584265 -0.17923691167 -0.98379354548 
-0.00010737431953 -0.17570660576 -0.9844425718 0.0043693731182 -0.17196576023 -0.98509323715 0.0084859535443 -0.16803635392 -0.9857442733 
0.012239165908 -0.16393655541 -0.98639495569 0.015627998345 -0.15967857841 -0.98704534712 0.018653198468 -0.15527227566 -0.98769559005 
0.021317024106 -0.15072496331 -0.98834587565 0.023623431186 -0.14603975749 -0.98899662423 0.025577924995 -0.14121807477 -0.98964803092 
0.027187397627 -0.13626053655 -0.99029990992 0.028460762968 -0.13116603869 -0.9909517926 0.029408840681 -0.12593266418 -0.99160278549 
0.030044542659 -0.12055826033 -0.992251496 0.030383250663 -0.11504076095 -0.99289600734 0.03044314185 -0.10937937223 -0.99353377801 
0.030245294521 -0.10357417601 -0.99416176361 0.029814374555 -0.097627382229 -0.99477635542 0.029178788706 -0.091542896051 -0.9953735462 
0.028370574431 -0.085327087942 -0.99594899396 0.027425714992 -0.078990301688 -0.99649804937 0.026384404102 -0.072546130362 -0.99701600899 
0.025290401273 -0.066010950591 -0.99749834587 0.024190379212 -0.059405333296 -0.9979407958 0.023133335885 -0.052754064564 -0.99833955017 
0.02216892251 -0.046084531737 -0.99869152135 0.02134639405 -0.039427399394 -0.9989944002 0.020712826004 -0.032815932357 -0.99924676303 
0.020310346556 -0.026284386601 -0.99944815816 0.020174527966 -0.019868078959 -0.99959904355 0.020332604501 -0.013602469156 -0.99970073423 
0.020801335403 -0.0075217329469 -0.99975533406 0.021585695028 -0.0016578927385 -0.99976562712 0.022678438243 0.0039593483688 -0.99973497088 
0.024059535419 0.0093030388451 -0.99966724075 0.02569718482 0.014349484649 -0.99956677965 0.027549027013 0.01907871307 -0.99943836919 
0.02956368985 0.023473022612 -0.99928724872 0.031683337109 0.027517574185 -0.99911908663 0.033845597459 0.031200147238 -0.99893995132 
0.03598628146 0.034510192559 -0.99875624361 0.038041564529 0.037438403479 -0.99857458676 0.039949852696 0.039976733959 -0.99840165766 
0.041653929718 0.042117863962 -0.99824397603 0.043102479858 0.043854942436 -0.99810766967 0.044250978934 0.045182523991 -0.99799819158 
0.045062648136 0.046094930813 -0.99792014465 0.045062648136 0.046094930813 -0.99792014465 
NormalArray 3 134 double
0.81378595566 0.55491184456 0.17269992223 0.81378595566 0.55491184456 0.17269992223 0.81243763083 0.55708001593 0.1720667076 
0.81292209532 0.5567092319 0.17097513872 0.81412466677 0.55545299298 0.1693310354 0.81510898522 0.55469644224 0.16706046562 
0.81688680907 0.55291304942 0.16426533703 0.81910675468 0.55060321863 0.1609354531 0.8220568564 0.54729872235 0.15711980577 
0.82551059408 0.54330163737 0.15282535748 0.82955445761 0.53843182882 0.14808972812 0.8343937821 0.53230525473 0.14296199558 
0.83993457218 0.5249891408 0.13746387343 0.84652226124 0.51581712338 0.13165392683 0.85367315917 0.50545715955 0.12551970829 
0.86155516781 0.49349647822 0.11909625853 0.87021163286 0.47968358332 0.1124071792 0.87953832921 0.46399435105 0.1054588529 
0.88901991391 0.44720900664 0.098222691075 0.89858844069 0.42931594441 0.090700794588 0.90801011048 0.41066807328 0.082881679851 
0.91697379305 0.39188237712 0.074748012385 0.92500066755 0.37414152383 0.066271299786 0.93202180973 0.35781884321 0.057454517903 
0.93800750055 0.34323205502 0.048308232425 0.94251328733 0.33190617724 0.038820004086 0.94579639534 0.32345975148 0.029033906583 
0.94758629158 0.31893641805 0.018967900699 0.94786401235 0.31855720364 0.0086673000592 0.94663412247 0.32230508277 -0.0018088093303 
0.94390298146 0.32999041357 -0.012389049366 0.93934831749 0.34219144321 -0.023016398898 0.93304308634 0.35819222462 -0.033599542391 
0.92463314495 0.3783006276 -0.04407019882 0.91423221305 0.40153150117 -0.054331521069 0.90126543042 0.42846571875 -0.064325358835 
0.88597912346 0.4577894673 -0.073958071998 0.86789492963 0.48973513496 -0.083173846351 0.84720163816 0.52326230195 -0.091901837099 
0.82385305252 0.55789615272 -0.10009011261 0.79783579569 0.59317731512 -0.10769733487 0.76930379291 0.62850424719 -0.11469126156 
0.7384316588 0.66337415469 -0.12105129566 0.70550172652 0.69727793016 -0.12677066692 0.67101616367 0.7296235188 -0.13185912523 
0.63493141882 0.76044624263 -0.13632169844 0.5975644244 0.78947235305 -0.14017903718 0.5590870118 0.81660461901 -0.14345246404 
0.51939616653 0.84194271648 -0.14615089587 0.47874766033 0.86533658023 -0.14830131704 0.43658517601 0.88709029035 -0.14988062201 
0.39308209138 0.90703575875 -0.15090593689 0.34725657227 0.92548371726 -0.15130354294 0.29921859133 0.9421496796 -0.15107023477 
0.2482219856 0.95700014618 -0.1501218374 0.19386192809 0.96974146443 -0.14838815653 0.13601148693 0.97991809983 -0.14581286999 
0.074301895661 0.98703085048 -0.14230013527 0.0090201850518 0.99041642218 -0.13781852899 -0.059537494531 0.98941528127 -0.13233551274 
-0.13080434698 0.98338760465 -0.12585325516 -0.20418188405 0.97174862378 -0.11838230615 -0.27839761319 0.95414026788 -0.11005052557 
-0.35285938781 0.93022071699 -0.10089435129 -0.42662958787 0.89983511683 -0.091016247312 -0.49868952566 0.8630295041 -0.080553286966 
-0.56858826072 0.81967834489 -0.069532731056 -0.63533128976 0.77005064004 -0.058104767578 -0.69855092652 0.7140627694 -0.046270556747 
-0.75702603578 0.65248540256 -0.034269236994 -0.81063445451 0.58513798721 -0.022029913377 -0.85851747563 0.51269243889 -0.0097060363895 
-0.89962656349 0.43665360345 0.002382615285 -0.93409977235 0.35672200568 0.014388396957 -0.96106516284 0.27510644031 0.025888207119 
-0.98056362749 0.19272035909 0.036794505586 -0.99277614113 0.11037078153 0.047051293156 -0.9979704842 0.02936197901 0.056504750753 
-0.99666917406 -0.04918651062 0.065048018097 -0.98951742422 -0.12478095945 0.0726978633 -0.97721538551 -0.19682242429 0.07944195132 
-0.96031826275 -0.26550732493 0.085408984557 -0.93948221209 -0.3304020613 0.090596087453 -0.91499320769 -0.39208281876 0.095176116304 
-0.88708307528 -0.4508137266 0.09925019624 -0.85590377137 -0.50679457114 0.10289799231 -0.82140700386 -0.56036478679 0.10621600513 
-0.78324882425 -0.61202139326 0.10932105697 -0.74128422166 -0.661741579 0.11223094646 -0.69534388146 -0.70942513672 0.11494721354 
-0.64529169556 -0.75485398823 0.11744821877 -0.59072814631 -0.79793754789 0.11973273078 -0.53244912639 -0.83767737617 0.12163281324 
-0.47045070615 -0.87379648199 0.12310906196 -0.4058585419 -0.9054830429 0.1240133178 -0.33962071558 -0.93231823435 0.12425972578 
-0.27334608935 -0.95392225011 0.12375078255 -0.2082996968 -0.97036849464 0.12245905817 -0.14607134802 -0.98192358367 0.12037124709 
-0.087772946675 -0.98918306519 0.11752775574 -0.034547554059 -0.99288195686 0.11398195584 0.012958356265 -0.99386776868 0.10981320224 
0.054281667285 -0.99297885071 0.1051023436 0.089118612186 -0.99099566351 0.099927312879 0.11741149712 -0.98859018945 0.094360890517 
0.13921584031 -0.98630251839 0.088466332732 0.15457350109 -0.98454771438 0.08229721054 0.16343941936 -0.98362958671 0.07589724862 
0.16589606623 -0.98370494351 0.069304251775 0.16190844182 -0.98482144058 0.062549073835 0.15138777537 -0.98690625016 0.055657837342 
0.13429697082 -0.98974603941 0.048652863137 0.11042812351 -0.99301517676 0.041551031926 0.079797447837 -0.99621836578 0.034370554329 
0.042571011698 -0.99872501026 0.027130478011 -0.00099973084314 -0.99980243091 0.019851944308 -0.050321665749 -0.99865402268 0.012564750213 
-0.10437312293 -0.99452403049 0.0053107431874 -0.16183372759 -0.98681629171 -0.0018576933178 -0.22113073419 -0.97520375921 -0.0088784241532 
-0.28034443984 -0.95977141295 -0.015678965038 -0.33791540331 -0.94091475389 -0.022194731599 -0.39210920002 -0.91948140126 -0.028360677001 
-0.44205410509 -0.89633872849 -0.03413285794 -0.48679826153 -0.87262221122 -0.039470610045 -0.52615013286 -0.84923437053 -0.044351117343 
-0.56003463252 -0.82703333231 -0.048755283159 -0.58884274444 -0.8065296111 -0.052670757854 -0.61264008296 -0.78836987101 -0.056080970254 
-0.63228923249 -0.77248438432 -0.058976287237 -0.6479018292 -0.75925011173 -0.061339119363 -0.65980469967 -0.74877846386 -0.063155129243 
-0.66880298603 -0.74064408994 -0.064411939231 -0.66880298603 -0.74064408994 -0.064411939231 
BinormalArray 3 134 double
0.55568048474 -0.82998439914 0.048426191871 0.55568048474 -0.82998439914 0.048426191871 0.55777780217 -0.82855025519 0.048871239284 
0.55735189792 -0.82884211395 0.048781267296 0.55602485466 -0.82974922453 0.048503457465 0.55515737542 -0.83034032868 0.048324187436 
0.55325392518 -0.83163218924 0.04793741848 0.55080857618 -0.83328165783 0.047450933855 0.54736426665 -0.83558585369 0.046782910364 
0.54322112295 -0.83832842199 0.046002918026 0.53820516358 -0.84160683465 0.045090329031 0.53194076977 -0.84563795645 0.043993909404 
0.52449636079 -0.85033894077 0.042746383806 0.51521535183 -0.85606680302 0.041264633892 0.50475877043 -0.86234790056 0.039682263954 
0.492719021 -0.86935991325 0.037964556841 0.47884688139 -0.87715549862 0.03610949224 0.46311777248 -0.88563857121 0.034150402515 
0.44630614946 -0.89430034149 0.03221366423 0.42840124883 -0.90307974089 0.0303208111 0.409755163 -0.91174931892 0.028528684381 
0.39098407546 -0.92000406389 0.02690678655 0.37326973163 -0.92737096296 0.02555003923 0.3569888624 -0.93378821279 0.024464786479 
0.34246313114 -0.93923374193 0.023642796687 0.33122036131 -0.94327009182 0.023121551193 0.32288459994 -0.94616314716 0.022821789371 
0.3185031618 -0.94764970533 0.022710612214 0.31830045282 -0.94771788218 0.022707653656 0.32226130401 -0.94637802269 0.022722018143 
0.33019602815 -0.94364029103 0.022662394929 0.34268112753 -0.93918403552 0.022427488727 0.35899666061 -0.93308108419 0.021933718446 
0.37944481153 -0.9249742441 0.021078016114 0.40303341488 -0.9149707361 0.019814604987 0.43033439246 -0.90248948783 0.018028727682 
0.46002587949 -0.88776617029 0.015729497386 0.49233001241 -0.87031400764 0.012833042332 0.52619884549 -0.85030989581 0.0093731580996 
0.56114973536 -0.82769698628 0.0053547559832 0.59671647023 -0.80245175724 0.00079464318158 0.6322927658 -0.77471784342 -0.0042569241344 
0.66737234857 -0.74466045035 -0.009744847253 0.70144478606 -0.71255314657 -0.015595686209 0.73391997033 -0.6788892215 -0.021700278493 
0.7648305169 -0.64362057037 -0.028050700683 0.79390454635 -0.60705854329 -0.034575949752 0.82104578234 -0.56937121069 -0.041234060525 
0.84635189601 -0.53045395554 -0.048031959909 0.86967562837 -0.49055953999 -0.054914835369 0.89131340722 -0.44913320754 -0.061965893864 
0.91109940168 -0.4063463646 -0.069141248367 0.92933015 -0.36122041098 -0.076585161683 0.94572254401 -0.31386316545 -0.084254276654 
0.96023140501 -0.26352929529 -0.092238600121 0.97255636491 -0.20981255198 -0.10056246866 0.98223925069 -0.15258269403 -0.10919970645 
0.98877382185 -0.091467180308 -0.11815280003 0.99150079203 -0.026747119162 -0.12732152613 0.98976478418 0.041287390992 -0.13660535618 
0.98293492834 0.11207584996 -0.14586956673 0.97043607498 0.1850255923 -0.15498178787 0.9519332246 0.25886797465 -0.16373914501 
0.92709479403 0.3330139491 -0.17203764876 0.89578300185 0.40652766165 -0.17974446837 0.85806321735 0.47839032737 -0.18673566799 
0.81381586794 0.54815339667 -0.19295488283 0.76332811636 0.61482167808 -0.19830403661 0.70651750762 0.67803185402 -0.20274569382 
0.64417862958 0.73655898127 -0.20619107715 0.5761218531 0.79028897172 -0.20863113758 0.50303098015 0.83836316765 -0.21001674249 
0.42643600911 0.87972319018 -0.21033173509 0.3460157147 0.91451856587 -0.20959226574 0.26400998967 0.94185928419 -0.20784564978 
0.18133002904 0.96178143642 -0.20517282747 0.098777198739 0.97446167862 -0.20166185042 0.017658917448 0.98015610134 -0.197439053 
-0.060906350031 0.97937580762 -0.19264849852 -0.13643636935 0.97276072308 -0.18740782466 -0.20833995047 0.96100334787 -0.18184342279 
-0.27683256365 0.94466015465 -0.17601398787 -0.34148660277 0.92438044557 -0.17002262194 -0.40289857879 0.90045519631 -0.16386938287 
-0.4613452647 0.87311774488 -0.15756252829 -0.51703617681 0.84252094021 -0.15110280335 -0.57032108909 0.80861946256 -0.14445906035 
-0.62170834623 0.77107522518 -0.13755627699 -0.67117703425 0.72974369468 -0.13036690059 -0.71862707652 0.68445581241 -0.12286319932 
-0.7638382227 0.63507500521 -0.11502568101 -0.80671929618 0.5812042853 -0.10679679731 -0.84625645403 0.52362881306 -0.098299949879 
-0.88216875798 0.46234369628 -0.089535406093 -0.91363054758 0.39846310777 -0.080662099388 -0.94021462406 0.33292666649 -0.071807349476 
-0.96153146638 0.26733014593 -0.063180948318 -0.97765086881 0.20292967972 -0.054939273808 -0.98883683253 0.14130477675 -0.04727238825 
-0.99568731803 0.083561769976 -0.040301306555 -0.99894110166 0.030838986153 -0.034141358282 -0.99945249818 -0.01621762355 -0.028839080588 
-0.99806749409 -0.057143609417 -0.024410758831 -0.99557469636 -0.091632358565 -0.020845499079 -0.99265459181 -0.11962163474 -0.018097675779 
-0.98985557548 -0.14116171678 -0.01610308676 -0.98760055838 -0.15628925216 -0.014792117526 -0.98620049656 -0.16495422128 -0.01409558308 
-0.98581889352 -0.16723378399 -0.013927335725 -0.98650924072 -0.16308812509 -0.014204979154 -0.988203719 -0.15242395501 -0.014844113296 
-0.99069312227 -0.13519982765 -0.015752590239 -0.99365485004 -0.11120404171 -0.016843399531 -0.99659587906 -0.080449252761 -0.018015870022 
-0.99888697999 -0.043098548643 -0.019165498143 -0.99979597367 0.000598826389 -0.020190404834 -0.99852607134 0.0500511321 -0.020989736183 
-0.99432065032 0.10423711583 -0.021472494682 -0.98658192888 0.16183589776 -0.021569418484 -0.97498045459 0.2212734769 -0.021240564616 
-0.95959790215 0.28062838125 -0.02048359909 -0.94082561344 0.3383393536 -0.019329948438 -0.9195060774 0.39267028847 -0.017849879042 
-0.89650106325 0.44274812369 -0.016122734165 -0.87293964209 0.48761999507 -0.014252076412 -0.84971790215 0.52709347817 -0.012326883038 
-0.82768725853 0.56109260721 -0.010434951266 -0.8073518822 0.59000707823 -0.0086363159933 -0.78935172009 0.61390130088 -0.0070039106081 
-0.77361183847 0.63363551157 -0.0055463383735 -0.76050338326 0.64931965307 -0.0043118652241 -0.75013306097 0.66127857336 -0.0033225383584 
-0.74207272125 0.67031454511 -0.0025469566501 -0.74207272125 0.67031454511 -0.0025469566501 
