# vtk DataFile Version 4.1
vtk output
ASCII
DATASET POLYDATA
POINTS 284 float
-3.26966 -35.0532 -250.192 -3.25217 -35.1709 -248.8 -3.23481 -35.2885 -247.409 
-3.21797 -35.4058 -246.016 -3.20207 -35.5227 -244.621 -3.18748 -35.6388 -243.224 
-3.17458 -35.7539 -241.824 -3.16372 -35.868 -240.42 -3.15523 -35.9807 -239.012 
-3.14943 -36.092 -237.598 -3.14659 -36.2016 -236.179 -3.14697 -36.3094 -234.754 
-3.1508 -36.4153 -233.322 -3.15828 -36.5191 -231.883 -3.1696 -36.6207 -230.436 
-3.18492 -36.7201 -228.981 -3.20438 -36.8172 -227.517 -3.22814 -36.9118 -226.043 
-3.25633 -37.004 -224.558 -3.2891 -37.0936 -223.062 -3.32657 -37.1807 -221.553 
-3.36891 -37.2653 -220.029 -3.41628 -37.3474 -218.491 -3.46885 -37.4269 -216.935 
-3.5268 -37.504 -215.36 -3.59032 -37.5787 -213.764 -3.6596 -37.6511 -212.146 
-3.73485 -37.7214 -210.502 -3.81624 -37.7897 -208.833 -3.90394 -37.8562 -207.134 
-3.9981 -37.9212 -205.405 -4.09884 -37.9848 -203.645 -4.20623 -38.0473 -201.851 
-4.3203 -38.1091 -200.023 -4.44101 -38.1705 -198.16 -4.56827 -38.2317 -196.263 
-4.70191 -38.2933 -194.332 -4.84171 -38.3554 -192.367 -4.98735 -38.4185 -190.37 
-5.13845 -38.4828 -188.343 -5.29456 -38.5487 -186.288 -5.45516 -38.6165 -184.208 
-5.61966 -38.6864 -182.106 -5.78744 -38.7586 -179.987 -5.95782 -38.8333 -177.853 
-6.13009 -38.9105 -175.709 -6.30351 -38.9904 -173.559 -6.47734 -39.0728 -171.409 
-6.65084 -39.1577 -169.261 -6.82327 -39.245 -167.12 -6.99394 -39.3344 -164.991 
-7.16216 -39.4257 -162.877 -7.3273 -39.5186 -160.782 -7.48878 -39.6127 -158.71 
-7.64607 -39.7076 -156.663 -7.7987 -39.8029 -154.643 -7.94626 -39.8981 -152.654 
-8.08842 -39.9927 -150.696 -8.22489 -40.0863 -148.771 -8.35546 -40.1784 -146.88 
-8.47999 -40.2686 -145.022 -8.59839 -40.3563 -143.197 -8.71062 -40.4412 -141.405 
-8.8167 -40.5229 -139.646 -8.91671 -40.601 -137.916 -9.01074 -40.6752 -136.215 
-9.09896 -40.7453 -134.54 -9.18155 -40.8109 -132.889 -9.25872 -40.872 -131.259 
-9.3307 -40.9282 -129.647 -9.39775 -40.9796 -128.051 -9.46015 -41.026 -126.467 
-9.51816 -41.0673 -124.892 -9.57209 -41.1034 -123.324 -9.62222 -41.1342 -121.759 
-9.66882 -41.1598 -120.195 -9.7122 -41.18 -118.629 -9.75261 -41.1948 -117.059 
-9.79033 -41.204 -115.483 -9.82559 -41.2076 -113.9 -9.85864 -41.2054 -112.308 
-9.88968 -41.1973 -110.707 -9.91891 -41.1831 -109.096 -9.94651 -41.1625 -107.475 
-9.97263 -41.1354 -105.845 -9.99741 -41.1013 -104.205 -10.021 -41.0602 -102.557 
-10.0434 -41.0115 -100.901 -10.0647 -40.955 -99.2382 -10.085 -40.8903 -97.5703 
-10.1043 -40.8171 -95.8979 -10.1226 -40.7348 -94.2221 -10.1399 -40.6431 -92.5437 
-10.1561 -40.5416 -90.8635 -10.1712 -40.4298 -89.182 -10.185 -40.3073 -87.4993 
-10.1975 -40.1736 -85.8154 -10.2085 -40.0284 -84.13 -10.2178 -39.8712 -82.4426 
-10.2252 -39.7015 -80.7522 -10.2305 -39.519 -79.0578 -10.2334 -39.3233 -77.358 
-10.2336 -39.1141 -75.6512 -10.2307 -38.891 -73.9359 -10.2244 -38.6538 -72.2102 
-10.2143 -38.4022 -70.4724 -10.2 -38.136 -68.7206 -10.1811 -37.8553 -66.9532 
-10.157 -37.5598 -65.1684 -10.1273 -37.2497 -63.3649 -10.0915 -36.925 -61.5413 
-10.0491 -36.586 -59.6967 -9.99965 -36.2329 -57.8303 -9.94265 -35.8662 -55.9417 
-9.87762 -35.4862 -54.0309 -9.80411 -35.0937 -52.098 -9.72168 -34.6891 -50.1438 
-9.62992 -34.2733 -48.1692 -9.52848 -33.8471 -46.1757 -9.417 -33.4114 -44.1648 
-9.2952 -32.9671 -42.1385 -9.16283 -32.5151 -40.0993 -9.01968 -32.0567 -38.0495 
-8.86561 -31.5927 -35.9918 -8.70052 -31.1241 -33.9292 -8.52435 -30.6521 -31.8644 
-8.33712 -30.1776 -29.8004 -8.13888 -29.7014 -27.7401 -7.92977 -29.2245 -25.6862 
-7.70995 -28.7475 -23.6412 -7.47966 -28.2712 -21.6075 -7.23921 -27.796 -19.5873 
-6.98893 -27.3225 -17.5821 -6.72925 -26.8508 -15.5934 -6.46064 -26.3813 -13.6221 
-6.18363 -25.914 -11.6688 -5.89881 -25.4488 -9.73363 -5.60683 -24.9857 -7.81628 
-5.3084 -24.5244 -5.91602 -5.00425 -24.0646 -4.03171 -4.69521 -23.606 -2.16183 
-4.38212 -23.1482 -0.304489 -4.06587 -22.6907 1.54251 -3.74737 -22.2332 3.38167 
-3.42759 -21.7753 5.2157 -3.1075 -21.3166 7.04755 -2.78807 -20.8567 8.88024 
-2.47031 -20.3955 10.7169 -2.15521 -19.9326 12.5607 -1.84373 -19.4681 14.4148 
-1.53685 -19.0018 16.282 -1.2355 -18.5337 18.1653 -0.940583 -18.0641 20.0672 
-0.652961 -17.5932 21.99 -0.373448 -17.1213 23.9357 -0.102806 -16.6487 25.9058 
0.158264 -16.176 27.9016 0.409127 -15.7037 29.9236 0.649215 -15.2323 31.9722 
0.878037 -14.7625 34.047 1.09518 -14.295 36.1474 1.3003 -13.8303 38.2723 
1.49316 -13.3691 40.4201 1.67358 -12.912 42.5889 1.84147 -12.4596 44.7766 
1.99682 -12.0124 46.9807 2.1397 -11.571 49.1987 2.27026 -11.1357 51.4278 
2.3887 -10.7069 53.6652 2.49528 -10.2849 55.9082 2.59034 -9.86985 58.1542 
2.67424 -9.462 60.4005 2.74738 -9.06144 62.6446 2.81019 -8.66823 64.8844 
2.86312 -8.28242 67.1176 2.90663 -7.90402 69.3422 2.94118 -7.53304 71.5563 
2.96722 -7.16949 73.7582 2.98519 -6.81339 75.9462 2.99551 -6.46477 78.1186 
2.99861 -6.12371 80.2738 2.99485 -5.79029 82.4101 2.98461 -5.46462 84.526 
2.96822 -5.14687 86.6195 2.946 -4.83718 88.6889 2.91825 -4.53575 90.7323 
2.88526 -4.24277 92.7478 2.8473 -3.95842 94.7333 2.80463 -3.68288 96.6869 
2.75749 -3.41631 98.6066 2.70616 -3.15883 100.49 2.65086 -2.91051 102.337 
2.59186 -2.67139 104.144 2.5294 -2.44145 105.91 2.46374 -2.2206 107.634 
2.39513 -2.00869 109.316 2.32383 -1.80553 110.954 2.25011 -1.61085 112.549 
2.17421 -1.42433 114.099 2.0964 -1.24561 115.607 2.01693 -1.07428 117.071 
1.93605 -0.909925 118.494 1.85399 -0.752077 119.876 1.77099 -0.600276 121.219 
1.68724 -0.454057 122.525 1.60296 -0.312965 123.794 1.51832 -0.176562 125.03 
1.4335 -0.0444352 126.233 1.34862 0.0837965 127.405 1.26384 0.208477 128.55 
1.17925 0.32991 129.668 1.09494 0.448358 130.761 1.01099 0.56404 131.831 
0.927455 0.677133 132.879 0.844369 0.787777 133.908 0.761753 0.896074 134.919 
0.679609 1.00209 135.913 0.597925 1.10588 136.891 0.516669 1.20746 137.855 
0.435794 1.30683 138.806 0.355234 1.40399 139.746 0.274907 1.49893 140.675 
0.194712 1.59163 141.596 0.114528 1.68209 142.509 0.0342169 1.77028 143.416 
-0.0463787 1.85623 144.318 -0.127434 1.93994 145.217 -0.209143 2.02143 146.115 
-0.291714 2.10076 147.012 -0.37537 2.17797 147.911 -0.460344 2.25312 148.812 
-0.546879 2.3263 149.718 -0.635219 2.3976 150.63 -0.725613 2.46712 151.55 
-0.818301 2.53497 152.478 -0.913517 2.60127 153.416 -1.01148 2.66614 154.365 
-1.11239 2.72971 155.327 -1.21643 2.79211 156.301 -1.32375 2.85349 157.289 
-1.43448 2.91397 158.291 -1.5487 2.97369 159.308 -1.66646 3.03281 160.341 
-1.7878 3.09146 161.389 -1.91269 3.1498 162.452 -2.04107 3.20797 163.532 
-2.17286 3.26613 164.627 -2.30794 3.32445 165.739 -2.44613 3.38309 166.867 
-2.58726 3.44222 168.011 -2.7311 3.50205 169.173 -2.87741 3.56275 170.352 
-3.02592 3.62453 171.549 -3.17635 3.68761 172.765 -3.32838 3.75221 174.001 
-3.48169 3.81857 175.257 -3.63595 3.88692 176.535 -3.79081 3.95751 177.837 
-3.94591 4.0306 179.164 -4.10089 4.10644 180.517 -4.25539 4.18529 181.899 
-4.40902 4.26741 183.312 -4.56142 4.35303 184.757 -4.71222 4.44241 186.236 
-4.86105 4.53575 187.753 -5.00755 4.63328 189.307 -5.15138 4.73517 190.902 
-5.29221 4.84159 192.538 -5.42975 4.95264 194.218 -5.56371 5.06843 195.941 
-5.69386 5.18901 197.71 -5.82 5.31437 199.524 -5.942 5.44448 201.383 
-6.05976 5.57924 203.287 -6.17326 5.7185 205.234 -6.28256 5.86208 207.223 
-6.38777 6.0097 209.251 -6.48911 6.16108 211.316 -6.58686 6.31584 213.414 
-6.68137 6.47359 215.541 -6.77309 6.63387 217.694 -6.86252 6.79619 219.867 
-6.95023 6.96002 222.055 -7.03684 7.12482 224.252 
LINES 1 285
284 283 282 281 280 279 278 277 276 275 274 273 272 271 270 269 268 267 266 265 264 263 262 261 260 259 258 257 256 255 254 253 252 251 250 249 248 247 246 245 244 243 242 241 240 239 238 237 236 235 234 233 232 231 230 229 228 227 226 225 224 223 222 221 220 219 218 217 216 215 214 213 212 211 210 209 208 207 206 205 204 203 202 201 200 199 198 197 196 195 194 193 192 191 190 189 188 187 186 185 184 183 182 181 180 179 178 177 176 175 174 173 172 171 170 169 168 167 166 165 164 163 162 161 160 159 158 157 156 155 154 153 152 151 150 149 148 147 146 145 144 143 142 141 140 139 138 137 136 135 134 133 132 131 130 129 128 127 126 125 124 123 122 121 120 119 118 117 116 115 114 113 112 111 110 109 108 107 106 105 104 103 102 101 100 99 98 97 96 95 94 93 92 91 90 89 88 87 86 85 84 83 82 81 80 79 78 77 76 75 74 73 72 71 70 69 68 67 66 65 64 63 62 61 60 59 58 57 56 55 54 53 52 51 50 49 48 47 46 45 44 43 42 41 40 39 38 37 36 35 34 33 32 31 30 29 28 27 26 25 24 23 22 21 20 19 18 17 16 15 14 13 12 11 10 9 8 7 6 5 4 3 2 1 0 

CELL_DATA 1
FIELD FieldData 2
LengthArray 1 1 double
480.33579651 
TortuosityArray 1 1 double
0.0084085779271 
POINT_DATA 284
FIELD FieldData 8
RadiusArray 1 284 double
37.476146757 37.595349986 37.822717016 37.937187739 38.109160676 38.149352783 38.17750195 38.220415197 38.333841654 
38.703998575 38.873403449 39.065204898 39.068768779 39.259102636 39.376789406 39.612339016 39.694193015 40.162643913 
40.185207485 40.306724329 40.346424905 40.538366541 40.643740101 40.88218094 40.933340591 40.964960601 41.05598854 
41.286630431 41.347820327 41.464653447 41.609237 41.61876029 41.797046507 41.978402317 42.380252995 42.542333315 
42.786550559 43.230307455 43.511158621 44.013330012 44.231941151 44.742478763 45.227735821 45.319866026 45.606390324 
45.99099847 46.002120535 46.814742945 47.018965609 47.541599092 47.57221819 47.68783734 47.882766499 48.071453313 
48.330775681 48.596166296 48.846787205 49.368585357 49.428844467 49.696642887 50.024589354 50.172553859 50.202608794 
50.380400941 50.59376808 50.790145724 50.815547726 51.055569255 51.239774748 51.456503594 51.72482471 51.822541498 
51.832750503 51.871090168 51.935910118 51.967885779 52.008936764 52.243150085 52.361603576 52.566451249 52.597338715 
52.763810805 52.89225784 53.143968975 53.223624731 53.236695481 53.265044262 53.319446418 53.354988185 53.516615356 
53.65603341 53.732220263 53.658316864 53.620902133 53.609728605 53.620868784 53.631695881 53.632445773 53.703906327 
53.722265195 53.592265476 53.534471945 53.527072312 53.490600106 53.48658008 53.483234718 53.479332543 53.465450461 
53.460100551 53.405976265 53.382767292 53.381872068 53.361045869 53.261271321 53.228565583 53.200889581 53.190968051 
53.092381179 53.080060859 52.98422368 52.952184711 52.907989557 52.891557873 52.882240669 52.90854426 52.905039956 
52.917599394 53.012321041 52.984253186 52.977672642 52.978724927 52.95648239 52.976272042 52.998787777 52.999340119 
52.998406668 53.000911499 53.024789232 53.027511811 53.006922882 53.013295665 53.03036877 53.07099233 53.15048601 
53.156575352 53.334600814 53.336525677 53.340942494 53.361472056 53.534385578 53.612668961 53.613420537 53.727970288 
53.773976856 53.793730561 53.833568292 53.929616337 54.063320055 54.171977703 54.332088962 54.31407295 54.290659161 
54.21100965 54.202323753 54.316753937 54.317656772 54.303344829 54.389020004 54.396205895 54.400664731 54.52605923 
54.691450584 54.863703485 54.974811375 55.290437874 55.319734531 55.594863784 55.906860674 56.215453484 56.768366424 
56.847391537 57.210852164 57.445816933 57.452206076 57.454061799 57.889419792 58.040427195 58.182304064 58.677318532 
58.784576237 58.906946171 58.998278872 59.221107168 59.379990461 59.490724812 59.503365113 59.614184855 59.635883962 
59.653276314 59.784945592 59.891886699 59.942171272 60.075171145 60.191525445 60.344977479 60.360801945 60.523276708 
60.726015181 60.773298881 61.001903779 61.063239559 61.14519776 61.159000126 61.233638652 61.334968182 61.496536116 
61.565985977 61.813031572 61.819126399 61.893285908 62.102481467 62.133235553 62.330190563 62.390836039 62.431838379 
62.466779677 62.53089363 62.557930451 62.676572944 62.772134659 62.842847976 62.895496675 62.924483939 62.986613382 
63.054425381 63.086925089 63.125589354 63.328511981 63.438817802 63.481386384 63.595332742 63.719396748 63.767268104 
64.033344814 64.094728571 64.102292208 64.14558543 64.244914631 64.292081145 64.394289311 64.41505888 64.425024623 
64.631602338 64.728763182 64.826119562 64.932648681 64.990659432 65.086943209 65.173883904 65.206240841 65.248241146 
65.472361929 65.540279977 65.677611819 65.905023654 65.940419472 65.942661481 66.100251606 66.145177344 66.447739704 
66.744604449 66.75162482 67.148543277 67.181132481 67.259884125 67.510051704 67.963215309 68.170194854 68.310255562 
68.766302836 69.048394282 69.437883417 70.000634824 70.484166278 
EdgeArray 2 284 int
3994 3994 4089 4089 4378 4381 4379 4376 2955 
4489 3973 554 4253 3973 5102 4253 5102 5109 
5103 5107 5099 5106 4495 5260 4495 5417 5417 
5417 3888 3888 3625 3625 3395 3940 2255 2255 
4134 4002 4134 4134 5279 5292 4244 4244 6052 
5819 5146 5819 5299 5146 4760 5299 4760 5269 
4984 6245 5845 5845 3200 7191 7191 7192 7190 
7192 4421 5808 6250 3870 6652 7408 7415 7408 
4123 7409 7831 6631 6532 4771 6043 6673 6460 
6632 5584 6632 6561 7432 7532 8214 6871 7793 
5854 7999 8026 5854 8208 7549 7954 8208 9843 
7754 7754 9839 7789 8830 9394 9388 9550 9559 
9101 7244 8667 8779 9256 9756 10220 10220 8809 
9963 9473 9572 9678 10221 10214 11003 10451 10878 
10841 10759 10010 9042 9757 10842 9757 10590 11195 
10969 10991 10840 10847 11438 11678 11713 11713 11700 
11700 10402 11270 11270 9826 9826 11193 11406 11193 
11193 12223 12223 11945 11945 11686 11686 11697 11697 
11962 11274 11707 13245 12463 12404 13358 13781 13784 
12651 12542 12774 13734 13734 11487 11487 14151 14151 
13905 13905 14470 14470 15738 15738 16186 16186 16226 
16234 16463 13916 14890 16727 16727 16989 16989 16990 
16987 16987 17426 14448 17625 17625 17445 17445 17479 
17479 12646 12646 18149 18149 18155 16194 18602 18602 
18598 18598 18215 18215 17655 17655 16601 17629 17589 
17589 19560 19560 18236 17008 19796 19796 19594 19594 
19591 19591 19427 19427 19434 19434 16700 16700 19863 
19863 19652 19652 21120 21120 21099 21099 20887 20887 
20327 20327 21954 21217 20654 20654 21383 21383 21990 
21990 21981 21981 21634 22251 22251 22251 21335 21956 
19999 21956 19999 21324 23282 23282 23280 23280 22037 
22037 22955 22532 21451 21451 22816 19242 23627 23585 
23627 23627 23809 23809 23808 23810 23789 22372 22372 
22372 22861 22861 22619 23192 23192 23192 24026 21809 
24907 24907 24902 24906 24902 24902 24914 24202 24339 
22776 24339 22316 24745 24745 25077 24856 26156 24686 
23833 26277 24975 23833 23659 23659 25170 27039 25663 
25663 27273 27273 27547 27483 26279 27547 26279 26279 
26579 26579 27484 27484 27274 27274 25897 25897 27825 
27825 27540 27540 26581 26581 28047 28047 27706 27706 
27662 27662 26860 25399 27736 29074 29066 27736 29861 
29066 29861 29861 29882 29882 29891 29891 29520 29520 
22679 22679 28307 29311 29311 29311 30117 30117 28483 
28483 30375 30375 29993 29517 29993 29371 29371 29371 
29643 29643 30098 30098 30371 30371 31244 31244 31243 
31243 29893 29893 29866 29866 31009 31231 31231 31231 
29869 29869 31468 31468 30992 30992 30090 30565 20884 
28375 20884 20884 30353 30353 30162 30162 27241 27241 
31001 31001 30103 30103 30991 29086 30991 30991 32016 
32016 32014 32014 20564 20564 31449 32192 31474 31449 
31474 30913 30913 30913 31329 31329 21376 30569 21376 
21376 31431 31431 30783 32108 31430 32108 31430 31430 
32297 32297 30431 30431 25051 25051 30360 30360 25647 
25032 29375 25647 29375 29375 32295 29140 29140 29140 
29970 29970 31885 21686 21686 31803 31803 31803 31342 
31342 32514 32514 28552 32512 28029 28552 31881 31330 
31881 31881 32869 32869 33150 33168 33167 32724 32724 
32724 29989 31295 29989 20603 20603 20603 28741 28741 
31934 31934 33131 33634 33633 33773 33773 33773 33762 
33772 33762 33768 33768 33768 33770 33770 33698 33698 
31367 33638 31367 31367 34051 34051 34050 20356 34054 
34050 25729 34641 34654 34652 34653 34652 34656 34882 
34882 34885 26679 34886 34501 34881 35380 35380 35516 
35516 
EdgePCoordArray 1 284 double
0 0 0.836 0.348 0.156 0.78 0.136 0.748 0.056 
0.172 0.316 0.004 0.024 0 0 0 0.94 0 
0.944 0 0.04 0 0.112 0.328 0.3 0.524 0.472 
0.448 0 0.296 0.244 0.348 0.368 0.26 0.436 0.424 
0.708 0.784 0.156 0.232 0.296 0.492 0.344 0.652 0.584 
0.032 0.984 0.284 0.16 0.436 0.904 0.528 0.744 0.116 
0.452 0.328 0.784 0 0.98 0.232 0.452 0.376 0.648 
0.584 0.812 0.044 0.072 0.412 0.344 0.632 0.776 0.544 
0.052 0 0 0.76 0 0 0 0 0 
0.384 0.46 0.98 0.84 0.332 0.104 0 0 0 
0 0 0 0 0.176 0.468 0.996 0.016 0.592 
0 0.056 0 0 0 0 0 0.268 0 
0 0 0 0.796 0 0 0.908 0 0 
0 0 0 0 0 0 0 0 0 
0 0.876 0 0 0 0 0.232 0 0.012 
0.156 0.164 0 0 0 0.408 0 0.672 0.144 
0 0 0.012 0.1 0 0 0.972 0 0.008 
0 0.86 0 0.972 0.548 0.54 0 0.752 0.812 
0.492 0.452 0 0.948 0 0 0.264 0.98 0 
0 0 0 0 0 0 0 0 0 
0 0.408 0.084 0.036 0.996 0 0 0 0 
0 0.256 0 0 0 0 0.94 0.368 0 
0 0 0 0 0 0 0 0.028 0 
0 0 0 0.224 0.184 0 0 0 0 
0 0 0.968 0 0 0 0 0.652 0.836 
0.12 0 0 0.976 0 0 0.284 0.928 0 
0 0 0 0 0.44 0.916 0 0.608 0 
0 0.964 0.068 0 0 0 0.972 0.884 0.972 
0 0 0.996 0.34 0 0.98 0.44 0 0 
0 0.928 0.336 0 0.044 0.008 0 0 0 
0.024 0 0 0.876 0.828 0.936 0.124 0.096 0.172 
0.784 0.852 0.02 0 0 
CurvatureArray 1 284 double
0 8.5951594875e-05 0.00033862793921 0.00058587308733 0.00082752902304 0.0010589509726 0.0012715147954 0.0014682260141 0.0016458578054 
0.0018022409629 0.0019365447263 0.0020510040402 0.0021474784232 0.002226278058 0.0022871499033 0.0023367032165 0.0023753150562 0.0024015504371 
0.0024174849457 0.0024281950888 0.0024261143334 0.0024152937811 0.0023958615871 0.0023627512298 0.002318071604 0.0022581796023 0.0021863164317 
0.00210016741 0.0019998504708 0.0018884478888 0.0017682536633 0.0016413820644 0.0015091366563 0.0013769849419 0.0012466907597 0.0011203106443 
0.0010013196645 0.00089285848681 0.00079587566034 0.00071296058715 0.00064462718572 0.00059301369073 0.00055844311153 0.00053907086623 0.00053254211636 
0.00053539399139 0.00054557174759 0.00056264678544 0.00057997605764 0.00060044139714 0.0006206252021 0.00064336926062 0.00066841680006 0.00069621011432 
0.00073025985835 0.00077131154377 0.00082400761551 0.00088842760337 0.00096786643569 0.0010612549769 0.001170487172 0.0012927308667 0.0014272062226 
0.001568654022 0.0017168182665 0.0018628159528 0.0020075511013 0.0021411774507 0.002263209897 0.0023670392717 0.0024520511843 0.0025140282125 
0.0025584542013 0.002578873293 0.0025824743175 0.0025725801219 0.0025527881562 0.0025279775013 0.0025030000187 0.0024823339247 0.0024719515203 
0.0024687650243 0.0024844203621 0.0025134044074 0.002560067871 0.0026219572164 0.0027007735848 0.0027967092152 0.0029067308205 0.003028391406 
0.0031642485811 0.0033062379133 0.0034536747298 0.0036076401332 0.0037546908576 0.0038994595736 0.0040316254246 0.0041486133229 0.0042502261322 
0.0043238690311 0.0043742039754 0.0043914765103 0.0043840925195 0.0043411912673 0.0042730523767 0.0041789372475 0.0040599275977 0.0039249274342 
0.0037760985039 0.0036194212785 0.0034598097801 0.003302161265 0.0031521043035 0.003011268549 0.00288264381 0.002770757076 0.0026753985795 
0.0025961429405 0.0025361087392 0.0024918134663 0.0024641007622 0.0024509581879 0.0024512393223 0.0024628866614 0.0024841974721 0.002512451523 
0.002546416222 0.0025826830483 0.002618430968 0.0026514327825 0.0026777386294 0.0026936181122 0.0026949835053 0.0026779942325 0.0026372576729 
0.0025689798179 0.0024687948501 0.002332805191 0.0021581130998 0.00194320148 0.0016878869385 0.001394559826 0.0010681616458 0.00072113915234 
0.00039684950178 0.00033441699898 0.00064404743453 0.0010329356742 0.0014268504772 0.0018047990595 0.0021556340478 0.00247133357 0.0027463062844 
0.0029776252106 0.0031642522303 0.00330587798 0.0034060399714 0.0034672067699 0.0034934375473 0.0034894365058 0.0034597120911 0.0034082567941 
0.0033399729265 0.0032576648917 0.003165503788 0.0030656900153 0.0029606205863 0.0028528317914 0.0027436263033 0.0026344534453 0.0025271410324 
0.0024221036458 0.0023210236578 0.0022243974666 0.0021338285425 0.0020491874668 0.0019723166971 0.0019037430359 0.0018437457732 0.0017927720056 
0.0017520108138 0.0017208299951 0.0016996166029 0.0016879175009 0.0016859253029 0.0016924181197 0.001706673881 0.0017277689743 0.0017549349913 
0.0017868466658 0.0018219964989 0.0018590898573 0.0018967014876 0.001933343247 0.0019677387356 0.0019973510497 0.002021087358 0.0020371986244 
0.002043653811 0.0020395741704 0.0020235689139 0.0019948724075 0.001953425877 0.0018997441332 0.0018344726095 0.0017598090641 0.0016769725001 
0.0015881510543 0.0014965871504 0.0014033444343 0.0013121373523 0.0012228479117 0.0011430198198 0.0010746938658 0.0010254715095 0.0010063358046 
0.0010237021602 0.0010847569836 0.0011898974464 0.0013323605336 0.0015055595762 0.0016977213908 0.0019048333317 0.0021131637374 0.0023189021976 
0.0025130164524 0.0026900801266 0.0028433475478 0.0029696137395 0.0030672939918 0.0031330149275 0.003166358339 0.0031696055935 0.0031437847094 
0.0030917186751 0.0030161186963 0.0029194225885 0.0028055954479 0.0026755719386 0.0025318108319 0.0023755070649 0.0022089264976 0.0020293989086 
0.0018407664876 0.0016385777611 0.0014273626869 0.001205896463 0.00097140368498 0.00072813003911 0.00047391792047 0.00022075244518 0.00010980753952 
0.00035428357451 0.00062626429145 0.00089830613078 0.0011649209207 0.0014222628616 0.0016632343046 0.0018857854091 0.0020834539444 0.0022546009403 
0.0023951616282 0.0025040998574 0.0025804509978 0.002622917478 0.0026344447191 0.0026151319058 0.0025693194713 0.0024972844429 0.0024036700693 
0.0022917895163 0.0021637111029 0.0020232527711 0.0018722985999 0.0017136934257 0.0015488751972 0.0013795017932 0.0012067846317 0.001031519535 
0.00085410925103 0.00067465809637 0.00049347222594 0.00031017143476 0 
TorsionArray 1 284 double
0 0 0.0054410455777 0.00033591840375 -0.0018590012434 -0.00059613160866 -0.00044077442095 -0.0015313400455 -0.0018738778216 
-0.0015822847201 -0.0016553249015 -0.0022846774241 -0.0026249196907 -0.002206345402 -0.0022687705628 -0.0027588978309 -0.0022565707205 -0.0012550875444 
-0.0011941335483 -0.00029960613111 0.0013464990435 0.0021269787301 0.0035740242097 0.0053031797068 0.0071441004131 0.0090420998814 0.010685917779 
0.013117400673 0.015608497843 0.017806748817 0.020472843461 0.023697686607 0.027304571537 0.030906364597 0.035542727849 0.041217360321 
0.047814166964 0.054864016054 0.062978765112 0.071463344621 0.078620235611 0.085540309039 0.088400122165 0.087356197296 0.083807901628 
0.078604841415 0.072894080566 0.067981113747 0.06478168988 0.062484097875 0.062131135129 0.062400680528 0.064173540235 0.066402294941 
0.068519878158 0.070106529108 0.06962805925 0.069199497317 0.066578757378 0.062274589302 0.057661223528 0.052852183819 0.047895641951 
0.043152704682 0.038457640953 0.035089355692 0.031831929213 0.02902862232 0.02709674667 0.025373111104 0.024085555328 0.023633370116 
0.023249817408 0.022954363145 0.023375336008 0.023754775934 0.024055356336 0.024446117802 0.024601066208 0.024526941246 0.023723622936 
0.022750684251 0.021486270096 0.019477906519 0.017256621573 0.015027322153 0.012567322777 0.010133928478 0.0078659427901 0.0056708980732 
0.0036400682374 0.0017706368711 5.2909427733e-05 -0.0015734214644 -0.0030961938892 -0.004500000761 -0.00590713897 -0.0072720838676 -0.0086166146654 
-0.0099805612752 -0.01139061884 -0.012803959131 -0.014231883223 -0.015801475335 -0.017292787758 -0.018890231726 -0.020568957698 -0.022251109857 
-0.023897316881 -0.025532985345 -0.027197789234 -0.028610156864 -0.029827728506 -0.030963505944 -0.031661969986 -0.031805565399 -0.03177483081 
-0.031119476465 -0.02984742901 -0.028296940031 -0.026303373973 -0.0239054729 -0.021301847257 -0.018675045218 -0.015939282248 -0.013131214501 
-0.010444481755 -0.0079406971051 -0.0055299648203 -0.0032036218214 -0.0009600959585 0.0010502331431 0.0030536390881 0.0049422437595 0.0067433456397 
0.008687911772 0.010784779861 0.013119707157 0.015862284122 0.019745342648 0.025838062235 0.036542091878 0.059513946302 0.12577826838 
0.41076067464 0.59261454929 0.16958144508 0.072241651003 0.042075217892 0.029189159208 0.022670113254 0.018609907233 0.01594701552 
0.014082334686 0.012408435184 0.01112705432 0.010045883232 0.0089669723437 0.008009628673 0.0071102726738 0.006213139882 0.0053755987542 
0.0045523682558 0.0037607937461 0.0030288134787 0.0022877710788 0.0016298982789 0.0010506237772 0.00050904880885 9.7218105337e-05 -0.0001967754625 
-0.00038736992826 -0.00041516418591 -0.00024381237867 4.2140902968e-05 0.00051342776404 0.0012498094531 0.0019985183598 0.0027644312063 0.0036600389809 
0.0044711018718 0.0050564599422 0.005437897154 0.0055928684916 0.0054992155386 0.0049711819543 0.0041367076204 0.0031628553899 0.0019891624142 
0.0005659841223 -0.0010248713216 -0.0027002805545 -0.0044403228037 -0.0061657368225 -0.0080357386153 -0.0099937878034 -0.011985167941 -0.014173167891 
-0.016301197038 -0.018561507376 -0.020918263538 -0.023280695263 -0.025812735021 -0.027943765849 -0.029811791554 -0.030991552184 -0.03055368335 
-0.028920861664 -0.024656618283 -0.01694037452 -0.0038661532261 0.014117675697 0.037018506551 0.068133014483 0.098691928802 0.12668870043 
0.1407956553 0.13763802601 0.1205463846 0.095792287387 0.070894134814 0.050755364264 0.03345339314 0.018933215079 0.0079209140783 
-0.0013612952652 -0.0096094504069 -0.016795547495 -0.021876270353 -0.026532515894 -0.0314839643 -0.034862419574 -0.038078107133 -0.04019197661 
-0.041668477711 -0.043047587916 -0.043253967871 -0.043483546606 -0.042949503627 -0.041801376043 -0.040687536966 -0.039252835313 -0.037883890624 
-0.03639362557 -0.035133452102 -0.036365985935 -0.037727274551 -0.042584969996 -0.056491669517 -0.10410317693 -0.42074300074 -1.6465104805 
-0.17077134257 -0.062067710744 -0.03535998305 -0.025032294781 -0.019232475343 -0.0159482288 -0.013514499767 -0.011822786144 -0.010647872875 
-0.0096230548532 -0.0088657520861 -0.0081311651155 -0.0075401559399 -0.0069990928027 -0.0065929590214 -0.0061131107769 -0.0055887311811 -0.0052866636464 
-0.0048720724223 -0.0044902443139 -0.0041486605323 -0.0037586625377 -0.0033814429525 -0.0030543690698 -0.0027584858486 -0.0023762050286 -0.0021895269919 
-0.001858132664 -0.0014041090931 -0.0010914038516 0 0 
TangentArray 3 284 double
-0.012477676827 0.084232767666 -0.99636797843 -0.012477676827 0.084232767666 -0.99636797843 -0.01223427889 0.084063982883 -0.9963852514 
-0.011701134737 0.083700191576 -0.99642228065 -0.010884426043 0.083144235596 -0.99647808072 -0.0097943678611 0.082398130787 -0.99655136265 
-0.0084458038981 0.081472900226 -0.9966397719 -0.0068568402513 0.080381216965 -0.99674061004 -0.0050479397858 0.079132425488 -0.99685133171 
-0.0030418158984 0.077739174002 -0.99696909089 -0.00086171342613 0.076217257046 -0.99709086205 0.0014693389061 0.074581202991 -0.99721386132 
0.0039291377262 0.072842105408 -0.99733574565 0.0064972220771 0.071011112061 -0.9974543639 0.0091551087801 0.069102434561 -0.99756756038 
0.011886848708 0.067126193981 -0.99767368258 0.014679345324 0.065087884733 -0.99777155907 0.017521839671 0.062997632292 -0.99785985161 
0.02040580183 0.060867648302 -0.99793723883 0.02332422895 0.058703150725 -0.99800296615 0.026271485873 0.056514256554 -0.99805608451 
0.029242507269 0.054316117885 -0.998095504 0.032231906261 0.052118428237 -0.9981206208 0.035233393514 0.049936453971 -0.99813073219 
0.03823923472 0.047788366703 -0.99812525914 0.041240208297 0.04569400894 -0.9981038537 0.044225469697 0.043673783952 -0.99806648497 
0.047182058624 0.04174668708 -0.99801356076 0.050095371697 0.039936496451 -0.99794565483 0.052949761319 0.038264979755 -0.99786377532 
0.055728861277 0.036749362316 -0.99776940141 0.058416870955 0.035405713477 -0.9976642244 0.060997501796 0.034249151745 -0.99755014931 
0.063455954127 0.033290532892 -0.99742923674 0.06577911838 0.032534498934 -0.99730367189 0.067954616389 0.031984779719 -0.99717558332 
0.06997213951 0.031642012266 -0.99704698122 0.071824280286 0.03150349818 -0.99691965693 0.073504998501 0.031561486968 -0.99679530885 
0.075008843283 0.031807285144 -0.99667545873 0.076332206818 0.032229059495 -0.99656142908 0.077472959225 0.032811285439 -0.99645439441 
0.078430005603 0.033541262601 -0.99635521674 0.079203549447 0.034402509614 -0.99626465615 0.079794099448 0.035376195455 -0.99618343014 
0.08020164065 0.036442397784 -0.99611226701 0.080427100591 0.03758002619 -0.99605181749 0.080472859519 0.038770100048 -0.99600250914 
0.08034014449 0.039989951793 -0.99596499182 0.080030303142 0.041215433163 -0.99593997743 0.079545996244 0.042422859893 -0.99592807744 
0.078889183593 0.04358751096 -0.99593003047 0.078062456343 0.044686305997 -0.99594647796 0.077068539536 0.045693131704 -0.99597820153 
0.075910355821 0.046582607602 -0.99602594271 0.074591727099 0.047329599854 -0.99609034893 0.073116175931 0.047909917676 -0.99617200553 
0.071488607559 0.048302934657 -0.99627115059 0.069714031331 0.048485156878 -0.9963880486 0.067798637835 0.048436578061 -0.99652257506 
0.065749894479 0.048142302618 -0.99667410425 0.063575813173 0.047588334721 -0.9968417459 0.061286484808 0.046763817779 -0.99702412816 
0.058894451848 0.045662625085 -0.99721931801 0.056412991596 0.044283320888 -0.99742496553 0.053857231908 0.042631057255 -0.99763820673 
0.051245629572 0.040712672025 -0.99785588327 0.04859742471 0.038540484245 -0.99807460712 0.04593380335 0.036133076438 -0.99829078254 
0.043277872719 0.033510161221 -0.9985009238 0.040652485147 0.030696016589 -0.99870172225 0.038080368644 0.027716857633 -0.99889021485 
0.035583504741 0.024595791865 -0.99906399255 0.03318188729 0.021357085863 -0.99922111529 0.030892920822 0.018025718231 -0.99936014576 
0.02873126057 0.014618673903 -0.99948026946 0.026707444472 0.011150013809 -0.99958110707 0.024827792662 0.007629809434 -0.99966262645 
0.023095594703 0.0040623425946 -0.99972500763 0.021510305288 0.00044685506043 -0.99976852675 0.020067980655 -0.0032239686783 -0.99979341975 
0.018761355152 -0.0069579951074 -0.99979977888 0.017581418348 -0.010769588632 -0.99978743225 0.016518150092 -0.014678108342 -0.99975582212 
0.015558755469 -0.018701640981 -0.99970404308 0.014689861068 -0.022860366027 -0.99963073765 0.013898669355 -0.027174773409 -0.9995340708 
0.013170471271 -0.031667265639 -0.99941168843 0.012490444618 -0.036358522256 -0.99926075008 0.011844371206 -0.041265328332 -0.99907801675 
0.011216829545 -0.046404813345 -0.99885973792 0.010592288041 -0.051789945527 -0.99860182504 0.0099552094531 -0.057426639479 -0.9983000926 
0.0092890753297 -0.063321530451 -0.99794994707 0.0085771557668 -0.069471229071 -0.99754708196 0.0078024566906 -0.075865503086 -0.99708753232 
0.0069479708765 -0.082489911873 -0.99656767966 0.0059965400526 -0.089319806004 -0.99598494655 0.004930757064 -0.096328771767 -0.99533735757 
0.0037344321823 -0.10348014615 -0.99462450873 0.0023925040935 -0.11073094226 -0.9938475408 0.00089096793136 -0.11803365239 -0.99300919587 
-0.0007821754118 -0.12533939335 -0.9921136148 -0.0026363094285 -0.13259617283 -0.99116663827 -0.0046788557255 -0.13975004003 -0.99017575946 
-0.006914399405 -0.14675351831 -0.98914892506 -0.0093442145043 -0.15355711829 -0.98809559106 -0.011967810225 -0.1601173921 -0.98702542635 
-0.014782746113 -0.16639773893 -0.9859479007 -0.017783366445 -0.17236664007 -0.98487232333 -0.020962882037 -0.17799957134 -0.98380725256 
-0.02431425562 -0.18327836514 -0.98276032574 -0.027829118036 -0.18819337596 -0.98173763982 -0.031498739494 -0.19274062818 -0.98074404391 
-0.035314926695 -0.19691916817 -0.97978349504 -0.039270431717 -0.20073576655 -0.97885800054 -0.043358473087 -0.20420275223 -0.97796793342 
-0.047573385171 -0.20733199138 -0.97711320653 -0.051910930071 -0.21014083535 -0.97629200788 -0.056367358915 -0.21264962228 -0.97550133726 
-0.060939797627 -0.2148785414 -0.97473768446 -0.065626655748 -0.21684993922 -0.97399653281 -0.070426021874 -0.21858795279 -0.97327256323 
-0.075336022416 -0.22011726657 -0.9725599584 -0.080354487632 -0.2214619539 -0.97185274568 -0.08547725837 -0.22264679756 -0.97114470695 
-0.090698366761 -0.22369774521 -0.97042935088 -0.09600932324 -0.22464003133 -0.96970050334 -0.10139722906 -0.22549740975 -0.96895279562 
-0.10684544411 -0.22629340646 -0.96818146299 -0.11233233544 -0.22705100677 -0.96738269921 -0.11782972689 -0.22779214737 -0.96655413354 
-0.12330321849 -0.22853541612 -0.96569554203 -0.12871192131 -0.22929782552 -0.96480865902 -0.13400776977 -0.23009253339 -0.96389799446 
-0.13913595685 -0.2309280088 -0.96297115235 -0.14403603605 -0.23180929232 -0.96203849835 -0.14864224628 -0.23273624264 -0.96111358537 
-0.15288528939 -0.23370233998 -0.9602131558 -0.15669473348 -0.23469384638 -0.95935684652 -0.1600005993 -0.23569175995 -0.95856622229 
-0.16273606024 -0.23667162079 -0.95786403973 -0.16484029172 -0.23760275475 -0.95727352891 -0.1662612809 -0.23844917822 -0.95681721132 
-0.16695838773 -0.23917198517 -0.95651537273 -0.16690381855 -0.23973173948 -0.95638475962 -0.16608461109 -0.24008826494 -0.95643793682 
-0.16450377807 -0.24020362696 -0.95668214397 -0.16217978611 -0.24004418312 -0.95711885737 -0.15914606433 -0.23958225677 -0.95774363608 
-0.15544961217 -0.2387982187 -0.95854620589 -0.1511489746 -0.23767897844 -0.95951169388 -0.14631136423 -0.23622136397 -0.96062086793 
-0.14101011689 -0.23443050936 -0.96185159105 -0.13532177908 -0.23231843699 -0.96318023232 -0.12932316075 -0.22990735165 -0.96458184192 
-0.12308928201 -0.22722404776 -0.96603222554 -0.11669092308 -0.2242992671 -0.96750869105 -0.11019342529 -0.22116883532 -0.96899006977 
-0.10365559552 -0.21786980295 -0.97045776131 -0.097128954849 -0.2144397121 -0.97189586685 -0.090657906246 -0.21091642011 -0.97329101905 
-0.084279616932 -0.20733581015 -0.97463265285 -0.078024611664 -0.20373193038 -0.97591262955 -0.071917366181 -0.20013602534 -0.97712510141 
-0.065976928567 -0.19657569363 -0.9782663449 -0.060217850309 -0.19307604038 -0.97933418869 -0.054650479138 -0.1896577113 -0.98032814796 
-0.049281809202 -0.1863372775 -0.98124906232 -0.044116062214 -0.18312813892 -0.98209870064 -0.039154794973 -0.18003902635 -0.98287987619 
-0.034397633374 -0.17707492899 -0.98359609207 -0.029842212866 -0.17423746787 -0.98425136379 -0.025484388132 -0.17152452627 -0.98485018295 
-0.021318442841 -0.16893030444 -0.98539742045 -0.017337069423 -0.16644692365 -0.98589799048 -0.01353162505 -0.16406389106 -0.9863569003 
-0.009891901565 -0.16176748509 -0.98677932237 -0.0064064040004 -0.15954400828 -0.98717002964 -0.0030627073462 -0.15737976371 -0.98753340693 
0.00015257051611 -0.15525970866 -0.98787367593 0.0032535445408 -0.15316958532 -0.98819456211 0.0062546786887 -0.15109713182 -0.9884991329 
0.0091706053443 -0.14903156748 -0.98878991292 0.012015882813 -0.14696370149 -0.98906890003 0.014804358025 -0.1448863772 -0.98933754032 
0.017549214839 -0.14279603566 -0.98959654267 0.020262764021 -0.14069174474 -0.98984607559 0.022955798808 -0.13857430841 -0.990085952 
0.025637650125 -0.13644684403 -0.99031559094 0.028315965055 -0.13431543989 -0.99053398161 0.030996504299 -0.1321886028 -0.99073981953 
0.033682952434 -0.13007659929 -0.99093165104 0.03637677745 -0.12799121433 -0.99110795533 0.039077125292 -0.12594498704 -0.99126728914 
0.041780726819 -0.12395208596 -0.99140821625 0.044481917973 -0.12202753437 -0.99152944476 0.047173004631 -0.1201860309 -0.99162998422 
0.049844229958 -0.11844266234 -0.99170907452 0.052483661084 -0.11681094394 -0.99176643858 0.055078166115 -0.1153029557 -0.99180221013 
0.05761353088 -0.11392889276 -0.99181696318 0.060075046949 -0.11269604634 -0.99181177139 0.062448732115 -0.11160899654 -0.99178807603 
0.064720980066 -0.11066776941 -0.99174787096 0.066879997436 -0.10986847103 -0.99169349348 0.068916160639 -0.10920283845 -0.99162760292 
0.070821630878 -0.10865721849 -0.99155327919 0.072592470237 -0.1082150367 -0.99147356954 0.074227645847 -0.10785570785 -0.99139164959 
0.075729126367 -0.10755546754 -0.99131070852 0.077100824745 -0.10728685945 -0.99123407559 0.078349988348 -0.10702199405 -0.99116475528 
0.079486845359 -0.10673353447 -0.99110533953 0.080521075283 -0.10639144277 -0.99105863466 0.081465909942 -0.10596972201 -0.99102660082 
0.082333955092 -0.10544224574 -0.9910111264 0.08313876439 -0.10478600646 -0.99101354113 0.083894286985 -0.10398119362 -0.99103464116 
0.08461396249 -0.10301085577 -0.99107479079 0.085312637657 -0.10186397737 -0.99113343399 0.086005144818 -0.10053391507 -0.99120938605 
0.086705233758 -0.099017360018 -0.99130104653 0.087426587942 -0.097316081024 -0.991406159 0.088183743573 -0.095438155891 -0.99152165169 
0.088989367502 -0.093394915056 -0.99164423172 0.08985570584 -0.091202946336 -0.99177012191 0.090794625576 -0.088883568954 -0.99189517951 
0.091816833104 -0.086461950876 -0.99201512096 0.092928838273 -0.083963907666 -0.99212614784 0.09413531701 -0.081417440572 -0.99222464314 
0.095440118478 -0.078853163778 -0.99230709075 0.096842202181 -0.076299820963 -0.99237086072 0.098338530687 -0.073785505218 -0.9924138414 
0.099921763105 -0.071335513124 -0.99243482699 0.10158155537 -0.068972710623 -0.9924333493 0.10330576262 -0.066717505833 -0.99240953937 
0.10507867055 -0.064586073686 -0.99236440488 0.10688352547 -0.06259212603 -0.9922994194 0.10870080213 -0.060746170472 -0.99221672954 
0.11050914294 -0.05905519074 -0.99211905222 0.11228697363 -0.057524081861 -0.9920093828 0.11401069036 -0.056155756931 -0.99189117016 
0.11565621029 -0.054951756926 -0.99176809055 0.11719802344 -0.05391170198 -0.99164416586 0.11861026849 -0.053034479031 -0.99152354901 
0.11986979012 -0.052319514835 -0.99141005734 0.1209499125 -0.051764537297 -0.99130800024 0.12182465889 -0.051367026975 -0.99122156001 
0.12246847171 -0.051123888923 -0.99115479186 0.12285778861 -0.05103209839 -0.99111134022 0.12297120928 -0.051088198494 -0.99109438383 
0.12278752781 -0.051287546489 -0.99110686134 0.12228932328 -0.05162472682 -0.99115095167 0.12146323702 -0.052093582368 -0.99122799634 
0.12029971074 -0.052686736422 -0.9913385332 0.11879243196 -0.053394982778 -0.99148239214 0.11694156092 -0.054208239895 -0.99165827686 
0.11475261902 -0.055114770816 -0.991864002 0.11223718073 -0.056102248142 -0.9920964434 0.10941283573 -0.057157242762 -0.99235169218 
0.10630221792 -0.058265159298 -0.99262531183 0.10293354834 -0.059411363018 -0.99291237004 0.099338929088 -0.06058087738 -0.99320780024 
0.095555451879 -0.061759200324 -0.99350639494 0.09162257618 -0.06293236091 -0.99380321064 0.087581698524 -0.064087472325 -0.99409367867 
0.083474812165 -0.065212342146 -0.99437382617 0.079345028109 -0.066296794418 -0.99464018698 0.075235794305 -0.067332408447 -0.99488990448 
0.071187752451 -0.068311289652 -0.99512103365 0.067240908818 -0.069227840447 -0.99533218891 0.063433195526 -0.070077671965 -0.99552265147 
0.059800135017 -0.070857647823 -0.99569229062 0.056374902976 -0.071566088993 -0.99584143578 0.053188080699 -0.072202326824 -0.99597080885 
0.050267854104 -0.072766014176 -0.99608144749 0.047639723998 -0.073257467517 -0.99617458317 0.045326715146 -0.073677777523 -0.99625151141 
0.043349417633 -0.074027367994 -0.99631359359 0.041726517064 -0.074307602968 -0.99636202151 0.040474260048 -0.074519870097 -0.99639782378 
0.039606510285 -0.074664943953 -0.99642183361 0.039606510285 -0.074664943953 -0.99642183361 
NormalArray 3 284 double
-0.81195041835 0.58071043699 0.059261340708 -0.81195041835 0.58071043699 0.059261340708 -0.82246408783 0.56586862459 0.057840504281 
-0.82593299588 0.56089816623 0.056814905021 -0.82490776091 0.56249221566 0.055943661877 -0.82319167151 0.56511122891 0.054815790783 
-0.82354364794 0.56475774182 0.053146523746 -0.82270533709 0.56614714956 0.051316014837 -0.82118422808 0.56853055354 0.049289687076 
-0.81967919847 0.57089007307 0.047016338192 -0.81857633889 0.57267276836 0.044482331049 -0.81698645117 0.5751391223 0.041810627858 
-0.81480320407 0.57842193026 0.039035999036 -0.81256449622 0.58175084468 0.036123319265 -0.81100662339 0.58410447292 0.033018502773 
-0.80864830004 0.58753225591 0.029896071933 -0.80616695278 0.59108549402 0.026697996321 -0.80459613547 0.59336384762 0.023332447903 
-0.80382344441 0.59453745616 0.019826331858 -0.80232794681 0.59665963042 0.016344760531 -0.80311072408 0.59569676305 0.012590923344 
-0.80457374047 0.59378842022 0.0087411759112 -0.80677264745 0.59084250448 0.0047989814279 -0.8108976802 0.58518759914 0.00065273668246 
-0.81625863978 0.57767531885 -0.0036137205352 -0.82375519804 0.56688801914 -0.0080837777641 -0.83247890539 0.55391231714 -0.012649782281 
-0.84280832591 0.53793433557 -0.017342906095 -0.85560570042 0.51714951826 -0.022254464038 -0.86970664739 0.49281610159 -0.027251376309 
-0.88536228294 0.46377351406 -0.032369053309 -0.90247470312 0.42909732414 -0.037615111821 -0.92107817492 0.38699225683 -0.043034739788 
-0.9401737672 0.33721710692 -0.048558318194 -0.95882778357 0.27877839146 -0.054146928889 -0.97638690688 0.20756436803 -0.059880223818 
-0.99021065604 0.12321464834 -0.065582063821 -0.99723710728 0.021266270095 -0.071175119389 -0.99257861059 -0.094773645931 -0.076194867493 
-0.96948119982 -0.23162344248 -0.080354116841 -0.92235926395 -0.37734456732 -0.082852071329 -0.84392145354 -0.52999689128 -0.083065489104 
-0.73187951624 -0.67667546248 -0.080390871244 -0.59328284904 -0.80150727148 -0.074843535423 -0.4368374757 -0.89705326712 -0.066846509062 
-0.27418326209 -0.95997507491 -0.057196104183 -0.11457595981 -0.9923166498 -0.046690641105 0.035752666979 -0.99871251531 -0.035986922183 
0.1780847873 -0.98369415701 -0.025131931926 0.30922909564 -0.95087699455 -0.014501987347 0.4323830385 -0.90168170947 -0.0038733492508 
0.54680558369 -0.83723303057 0.0066712941487 0.65196619817 -0.75805544278 0.017088654641 0.74861841528 -0.66242899221 0.027537221907 
0.83206819271 -0.55340203158 0.037532840551 0.90129928083 -0.43063632477 0.047031501818 0.95205005569 -0.30088328087 0.055407064085 
0.98356360637 -0.16945123466 0.062361136035 0.99699101717 -0.037323812616 0.067940008104 0.99384856936 0.084388864359 0.071718482673 
0.9779408368 0.19535373626 0.073950236292 0.9530573662 0.2934076599 0.074790386029 0.92238492922 0.37902423481 0.074475981178 
0.88890191924 0.45221072634 0.073204077397 0.85449102047 0.51456709874 0.071174411271 0.8209975605 0.56680244365 0.068541925297 
0.78733552801 0.61304122067 0.065446375641 0.75596751963 0.65166897441 0.0619730349 0.72520342981 0.68607045406 0.058200665486 
0.69560645152 0.71637626089 0.05419148864 0.66684298447 0.74351916785 0.049996810979 0.6385929036 0.76818893483 0.045660309658 
0.60950675003 0.79170961122 0.041199674347 0.58069500323 0.81329506594 0.036666727856 0.55103004482 0.83386876304 0.032074533936 
0.51972545635 0.85389289595 0.027429405205 0.4876127506 0.872763208 0.022763747854 0.45399288127 0.89082196579 0.018074540837 
0.41927946166 0.90775869448 0.013374813296 0.38367927654 0.92342573264 0.0086677021736 0.34769336435 0.93759995637 0.0039555279514 
0.31295121084 0.94976891721 -0.00073724627939 0.27870824865 0.96036038946 -0.0054437571838 0.24658205178 0.96906872732 -0.010153495688 
0.21765216697 0.97591313224 -0.014869180822 0.19173585833 0.98125038672 -0.019622415703 0.16934772394 0.98525349005 -0.024431715772 
0.15093323134 0.98810904836 -0.029320099281 0.13616824001 0.99009098304 -0.03432281632 0.12499884088 0.99137167259 -0.039465131087 
0.11737547206 0.99207786847 -0.044771659073 0.11287803549 0.99233648907 -0.050267699086 0.11145539887 0.99219239161 -0.055963846283 
0.11270054875 0.99170053534 -0.061875960754 0.1167225741 0.99083390489 -0.06800010015 0.12308959392 0.98960776564 -0.074333182765 
0.13183989253 0.98796765357 -0.080858878517 0.14294114185 0.98585128452 -0.087550412786 0.15627810284 0.98319362193 -0.094379321681 
0.1719349779 0.97988592684 -0.10130120314 0.18984206932 0.97582704854 -0.10826615373 0.21027992991 0.97082920114 -0.11520856429 
0.23290552051 0.96480730698 -0.12207325222 0.25820164454 0.95747004628 -0.12877508003 0.28603266766 0.94862851216 -0.13523778668 
0.3162956914 0.93806563942 -0.14138561362 0.34938528943 0.92535839716 -0.1471113739 0.38498769664 0.91026323889 -0.15233288993 
0.42331337938 0.89228715768 -0.1569376025 0.46371043189 0.87126224471 -0.16085625976 0.50647102152 0.84652610301 -0.16395322897 
0.55087782921 0.81787841289 -0.16615811452 0.59621899853 0.78517228106 -0.16741384307 0.64195359261 0.74818927768 -0.16765556863 
0.68755029261 0.70671494593 -0.16681900471 0.73136613089 0.66171397201 -0.16504000071 0.77283777742 0.61348241346 -0.16236101187 
0.81146161294 0.56240438369 -0.15884382245 0.84574410986 0.51061736754 -0.15487674004 0.87581575986 0.45855850223 -0.15056843898 
0.90126066482 0.40784646413 -0.14625483155 0.92229233043 0.35939895505 -0.14215923585 0.93894764424 0.31488133981 -0.13866168622 
0.95198545407 0.27435744872 -0.13583698161 0.96181670988 0.23869388608 -0.13391730784 0.96902328745 0.20809844215 -0.13299964949 
0.97400816753 0.18316916496 -0.13325594396 0.97738001083 0.16315692085 -0.13456646537 0.97940969928 0.14828216696 -0.13700014571 
0.98041085973 0.13807137454 -0.14046651438 0.98049610642 0.132678758 -0.14499562916 0.97981690349 0.13160499424 -0.15046249076 
0.97846204511 0.13434570737 -0.15672669582 0.97631853185 0.14129029097 -0.16382667076 0.97346832288 0.1514841936 -0.17149916455 
0.96969746797 0.16542800206 -0.17977874389 0.96484971277 0.18305295525 -0.18856470332 0.95857604529 0.2048933757 -0.19786528242 
0.95051502435 0.23113790862 -0.20759685854 0.9398800548 0.26299457299 -0.21785164026 0.92493337044 0.30341648475 -0.22899060468 
0.90218168795 0.35736519028 -0.24157467314 0.86216420079 0.43669150187 -0.2568529211 0.77080285856 0.57374022222 -0.276920766 
0.42894217241 0.85589426201 -0.28888341072 -0.67954755554 0.73078264606 -0.064589813246 -0.97291675486 0.19802966247 0.11923607209 
-0.9852195317 -0.0069484488208 0.17115546562 -0.97497312724 -0.11049890301 0.19291810075 -0.96292778225 -0.17636097884 0.20412469551 
-0.95141515093 -0.22488933405 0.21031880087 -0.94047947249 -0.26431621883 0.21362419873 -0.93033927019 -0.29721376837 0.21478551681 
-0.92054627311 -0.32645822064 0.21452176868 -0.91123318777 -0.35251128898 0.21304898182 -0.90252255418 -0.37566595719 0.21054246083 
-0.89408382997 -0.39703491295 0.20730987167 -0.88618193071 -0.41630744245 0.20339542534 -0.87879980856 -0.43374488348 0.19893786095 
-0.8719459642 -0.4495057724 0.1940484375 -0.86568808317 -0.46361218092 0.18880648391 -0.86013008214 -0.47601242401 0.18327142165 
-0.85519810893 -0.48694507867 0.17754065688 -0.85108032935 -0.49619115189 0.17162929173 -0.84763413115 -0.50406646451 0.16563024804 
-0.84497463328 -0.51044971606 0.15955863026 -0.8430908751 -0.51541208385 0.15345409786 -0.84185753367 -0.51918827718 0.14737511951 
-0.84125988443 -0.52182698616 0.14134497995 -0.84125079611 -0.52341849965 0.1353889666 -0.84156799761 -0.52437843467 0.12957840353 
-0.8422030891 -0.52472675158 0.12391849291 -0.8429044107 -0.52485904507 0.11846998454 -0.84353316636 -0.52499838474 0.11326293865 
-0.84373995388 -0.52569719205 0.10837597751 -0.84362561547 -0.52680790891 0.10377498752 -0.8426271994 -0.52920908702 0.099584863545 
-0.84070293873 -0.53295535155 0.095797505537 -0.8378735872 -0.53798946755 0.09238606322 -0.83407053927 -0.54437519481 0.089341943146 
-0.82903125794 -0.55244082771 0.08669662764 -0.82321367178 -0.56143632439 0.084311946085 -0.81667162395 -0.57122610896 0.082147374112 
-0.80983861233 -0.58116111002 0.080082371231 -0.80283304412 -0.59107003505 0.078072510833 -0.7961641787 -0.60028910205 0.075997332213 
-0.79042912379 -0.60810007387 0.073729915351 -0.78582339492 -0.61433505935 0.071232203754 -0.78251545681 -0.61885460199 0.068472924949 
-0.78081118608 -0.6213352297 0.065394373035 -0.78095160626 -0.62151153168 0.061951631665 -0.78298156568 -0.61932226899 0.058136003844 
-0.78687460573 -0.61475019058 0.053949587975 -0.79256505951 -0.60778314024 0.049399199268 -0.79979999383 -0.59861280862 0.044527241381 
-0.8087937264 -0.58677930018 0.039277996574 -0.81912358533 -0.57262478485 0.03372547599 -0.83082589574 -0.55583543776 0.027844157306 
-0.84374245473 -0.53631159149 0.021645944718 -0.85739490365 -0.5144340617 0.015217599847 -0.871918853 -0.48957669335 0.0084955934524 
-0.88674562692 -0.46225498302 0.0015886518261 -0.90183258987 -0.43205019421 -0.0055325885676 -0.91681431048 -0.39910812327 -0.012815070512 
-0.93100737474 -0.36444711935 -0.020088936472 -0.94434569931 -0.32781420464 -0.027368731045 -0.95599723504 -0.29135729368 -0.034354242912 
-0.96557919759 -0.25688686975 -0.040816042495 -0.97315268229 -0.22538299538 -0.046651498768 -0.97804166234 -0.20200949899 -0.051251039536 
-0.98049820395 -0.18884494221 -0.054413783563 -0.97920295463 -0.19527770581 -0.055029003703 -0.97398546985 -0.22027542435 -0.053207536668 
-0.96070456429 -0.27346123979 -0.047599269819 -0.93338409075 -0.35691228161 -0.037520159511 -0.88795433301 -0.45931131779 -0.023879192593 
-0.81632522585 -0.57755740318 -0.0063695902929 -0.73129784079 -0.68197339925 0.010758753228 -0.63745251614 -0.77002237219 0.026829759466 
-0.5553243242 -0.8307220602 0.038932681118 -0.48674568638 -0.87223782394 0.047747411158 -0.43776928834 -0.89752105462 0.053047212003 
-0.40083806852 -0.91441873056 0.056278131064 -0.37951943277 -0.92341544527 0.057174431197 -0.36760080121 -0.92825635567 0.056655000818 
-0.36495509358 -0.92941196704 0.054782982679 -0.36899483914 -0.92798094259 0.051905480159 -0.3802210716 -0.92365111383 0.047964118202 
-0.39635403509 -0.91707866834 0.043245750569 -0.41591492676 -0.90861180861 0.03793883179 -0.43946028552 -0.89769300099 0.031967693493 
-0.46676262226 -0.88401910879 0.025354876362 -0.49529945285 -0.86852651033 0.018443233484 -0.52708338959 -0.84974302938 0.010949174823 
-0.55815148505 -0.82973192003 0.0034439256981 -0.5912763073 -0.80645664464 -0.0044731126474 -0.6232953179 -0.78188951844 -0.012317777251 
-0.65543440407 -0.75498016058 -0.020265712306 -0.6863373081 -0.72674085218 -0.028086176004 -0.71612794652 -0.69705138291 -0.035778957386 
-0.74372623286 -0.66709130643 -0.04313327532 -0.77032110246 -0.63566656349 -0.05033308228 -0.79422760457 -0.60493692976 -0.05704229256 
-0.8173808134 -0.57257692701 -0.063594563815 -0.83757664959 -0.54187726056 -0.069529781752 -0.85766616313 -0.50865011489 -0.075391068732 
-0.87734191551 -0.47295976674 -0.081118569601 -0.89672402423 -0.43400582337 -0.086746582911 -0.91894615949 -0.38324117624 -0.093081452528 
-0.94734149305 -0.30375106027 -0.10138732134 -0.99064912762 -0.066011930417 -0.11940155357 0.22217867251 0.97474218974 -0.022678205831 
0.77849191453 0.62436909677 0.064137118819 0.84965884205 0.52158221922 0.077664925917 0.87787622925 0.47167791518 0.082784481964 
0.89483992337 0.43816091185 0.085302560762 0.90699204033 0.41217470326 0.086472265908 0.9161780797 0.39129190324 0.086650866905 
0.92399012147 0.37257522753 0.086197188257 0.93035605484 0.35664868923 0.08508421532 0.93613359673 0.34157707124 0.083540370321 
0.94119671578 0.32786956168 0.081549326999 0.94583237242 0.3148432252 0.079214057007 0.95006640171 0.30250699011 0.076572535994 
0.95392087623 0.29087490205 0.073666500198 0.95751302372 0.27962244278 0.070569815755 0.96079093826 0.26898056973 0.067306953979 
0.96392232286 0.25838179014 0.063973479053 0.96668725839 0.24869830392 0.060538401877 0.96927286719 0.23926781646 0.057105349506 
0.97168342459 0.23009988039 0.053715616197 0.97382261874 0.22165801636 0.050370934126 0.97582673773 0.21339736966 0.047156553711 
0.97758936604 0.20585788152 0.044063182194 0.97919556738 0.19870199376 0.041152867379 0.98057074558 0.19236658753 0.038420162904 
0.98185483689 0.18619567406 0.035947882298 0.98291480087 0.18094995831 0.03369876596 0.98385363453 0.17613867381 0.031736310614 
0.9847180827 0.17153515843 0.030099618547 0.98531783021 0.16829844564 0.028712482571 0.98583758394 0.16540362484 0.027674879895 
0.98610042486 0.16395663601 0.026910473734 0.98610042486 0.16395663601 0.026910473734 
BinormalArray 3 284 double
0.5835930309 0.80974084077 0.061146913783 0.5835930309 0.80974084077 0.061146913783 0.56868545493 0.82019872378 0.062216612432 
0.56364684844 0.82364283828 0.062567604968 0.56516255648 0.82261141702 0.062463920297 0.56767908391 0.82088966799 0.062294547754 
0.56719002841 0.82122521855 0.062326656323 0.56842669894 0.82037568529 0.062248075635 0.5706408519 0.81884740271 0.06211239174 
0.57281476844 0.81733784037 0.061984641335 0.57439710554 0.81623331842 0.06189616342 0.57665499187 0.81464877963 0.061776906644 
0.57972433148 0.81247898328 0.061624680306 0.5828350758 0.81026130148 0.06148087293 0.58496533299 0.80873161076 0.06139007211 
0.58817227891 0.80641175732 0.061265389688 0.59150601101 0.80397854824 0.061148449781 0.59356384991 0.80246535294 0.061084477691 
0.59451784958 0.80176077642 0.061058856222 0.59642756988 0.8003444418 0.061015804217 0.59525034556 0.80121876244 0.061037044598 
0.59313233929 0.8027858191 0.061065184329 0.58998220273 0.8051017354 0.061091702549 0.58412632215 0.80935889714 0.061111499642 
0.57641963353 0.81486655226 0.061097529312 0.5654437363 0.82252661435 0.061019257374 0.55228885549 0.83142873748 0.060854536255 
0.53614175282 0.84195241239 0.060565304807 0.51519834932 0.85496283663 0.060076691359 0.49072056231 0.86929171245 0.059373802209 
0.46154947944 0.88519128556 0.058382069145 0.42676325921 0.90256408186 0.057019283771 0.38457028025 0.92144668254 0.055151707063 
0.33473366928 0.94083811744 0.052697318989 0.27626507024 0.95980420651 0.049532778316 0.20506286399 0.97769832105 0.045334477143 
0.1207756447 0.99187546269 0.039953850287 0.018958497443 0.99927737659 0.032943891939 -0.096874748984 0.99499840632 0.024360920181 
-0.23340924709 0.97228538892 0.013462758467 -0.3787172856 0.92551194765 0.00092322803936 -0.53084321681 0.84736457017 -0.013370279847 
-0.67690553841 0.73551703052 -0.028523497267 -0.80108817167 0.59699460726 -0.04307180189 -0.89599437583 0.44050421195 -0.056125909684 
-0.95832731132 0.27770453217 -0.066999680488 -0.99015343807 0.1178787859 -0.075503383441 -0.99611538774 -0.032713775486 -0.08175538642 
-0.98072996779 -0.17534711068 -0.086151732768 -0.94761411819 -0.30681302009 -0.088843985248 -0.89817444993 -0.43031429883 -0.090068094936 
-0.83353473255 -0.54510639457 -0.089882524631 -0.75421901949 -0.65065742117 -0.088309630939 -0.65850657439 -0.74772987636 -0.08525915482 
-0.54945440262 -0.83161063732 -0.080768851249 -0.42672670484 -0.90128367608 -0.074780041527 -0.29707695346 -0.95245676599 -0.06761207469 
-0.16580715065 -0.98435415658 -0.059622841425 -0.033894918868 -0.99812630592 -0.050941259316 0.087569206302 -0.99525495099 -0.042417173758 
0.19826414475 -0.97955052776 -0.034235836163 0.29604015388 -0.95480222848 -0.026700782382 0.38137908848 -0.92420440097 -0.019905177743 
0.45429596246 -0.8907414797 -0.013956892228 0.51639391002 -0.85630583811 -0.0088114306383 0.5683857882 -0.82275001235 -0.0044735833541 
0.61439128557 -0.78900122946 -0.00063884981859 0.65280272638 -0.75752371505 0.0025340796394 0.68700077955 -0.72663727736 0.0053099943588 
0.71711832381 -0.69690897679 0.0076933563013 0.74408857639 -0.66800973167 0.0097564786143 0.76860197046 -0.6396229641 0.011553129233 
0.79198190374 -0.61040227598 0.013180501541 0.81344469731 -0.58145938 0.014584712168 0.83391337508 -0.55166834195 0.015827929347 
0.85385008327 -0.52024342054 0.016935722327 0.87265142976 -0.4880164546 0.017872386012 0.89065933132 -0.45428846703 0.018653263897 
0.90756340083 -0.41947306228 0.01926197008 0.92321585749 -0.38377690997 0.019691720393 0.93739351424 -0.34770091722 0.019936690303 
0.94958388317 -0.31287471966 0.019996464962 0.96021487484 -0.2785532953 0.019886070958 0.96898113627 -0.24635412493 0.019626580759 
0.97590238208 -0.21735640536 0.019254446469 0.98133662349 -0.19137680694 0.018797583756 0.98545835802 -0.16892925155 0.018295698514 
0.98845621975 -0.15045827604 0.017793504565 0.99060698524 -0.13563887041 0.017317552575 0.9920861861 -0.12441615438 0.016900292304 
0.99302426017 -0.1167394372 0.016574755219 0.99355239043 -0.1121877623 0.016357061235 0.99371957205 -0.1107088032 0.016277992085 
0.99358557729 -0.1118947362 0.016348352207 0.99312752106 -0.11585301574 0.016607397424 0.99236488931 -0.12215111802 0.0170596257 
0.99124667386 -0.13082557065 0.0177398316 0.98971302481 -0.14184222597 0.018679171774 0.98770078577 -0.15508407242 0.019901966598 
0.9851012219 -0.17063244046 0.021451174182 0.98181172566 -0.18841504652 0.023356061425 0.97764081198 -0.20870725697 0.025685085837 
0.9724990523 -0.23116422055 0.028437588095 0.96608744978 -0.25626034698 0.031712362575 0.95820844358 -0.28385537202 0.035534580809 
0.94863545511 -0.31384113975 0.03993134504 0.93693255103 -0.3466007043 0.045003850862 0.92284410653 -0.38181573653 0.050749368278 
0.90586271214 -0.41968490647 0.057247934674 0.88580832421 -0.45955613622 0.064434233342 0.86200212409 -0.50170679638 0.072405997885 
0.83423164305 -0.54542088575 0.08107788313 0.80233935837 -0.58998961203 0.090353814059 0.76609621742 -0.6348731015 0.10016351955 
0.72527749937 -0.67954162963 0.11043424519 0.68085344662 -0.72238478062 0.12082554756 0.63312069356 -0.76285028961 0.13121594046 
0.58246615674 -0.80044659694 0.14148647177 0.53105758255 -0.83373301079 0.15121875128 0.47934275382 -0.86284659017 0.16039415884 
0.42897034293 -0.88740547336 0.16880749609 0.38088055777 -0.9076389673 0.1764128843 0.33677514283 -0.92361737139 0.18306680321 
0.29672913401 -0.9360963515 0.18887943706 0.26163289722 -0.945505067 0.19382568295 0.23170564665 -0.95243028192 0.1979622474 
0.20756178805 -0.95729221025 0.20127028679 0.18844236327 -0.96068552373 0.2038940907 0.17457159821 -0.96289320132 0.20581894942 
0.16546479143 -0.96422382761 0.20710821584 0.16127253862 -0.96480266765 0.20771851335 0.16147752505 -0.96477503237 0.20768761595 
0.16555465135 -0.96422134102 0.20704797253 0.17388319553 -0.96304701904 0.20568197155 0.18547598765 -0.96130638465 0.20368773364 
0.20081834113 -0.95880437571 0.20091332206 0.21981504062 -0.95538268122 0.19729490705 0.24297622931 -0.95071159978 0.19263957546 
0.27045753228 -0.94443553697 0.18679999933 0.30343408359 -0.93581657019 0.17937420067 0.3448159922 -0.92324852075 0.16945235451 
0.39948113426 -0.90348030675 0.1553645992 0.47906217666 -0.86766667743 0.13286823459 0.61499604853 -0.78355864287 0.088406523945 
0.88776883787 -0.45852129042 -0.040307775148 0.71439361357 0.63912863909 -0.28487953171 0.16077590014 0.95033777038 -0.26647557508 
-0.04775962053 0.9706976546 -0.23551025878 -0.15206945169 0.96445258182 -0.21611593943 -0.21781326035 0.95472359737 -0.2026332555 
-0.26579057291 0.94466935918 -0.19223728353 -0.30438848417 0.9346901303 -0.18358107482 -0.33624667587 0.92512887918 -0.17628025944 
-0.36429480644 0.91567863711 -0.16977021985 -0.38902711168 0.90651196075 -0.16399381515 -0.41076582051 0.89778488418 -0.15891426127 
-0.43065430875 0.88923141534 -0.15428660452 -0.44840251355 0.88112311974 -0.15019065783 -0.46429333991 0.87346993213 -0.14656729572 
-0.47850366042 0.86630093474 -0.14337690687 -0.49107037051 0.85969724646 -0.14060773673 -0.5019535694 0.85377188752 -0.13826126804 
-0.51140310974 0.84846706017 -0.13627364806 -0.51920557872 0.84397135101 -0.13467711647 -0.52568457477 0.84015627756 -0.13339099344 
-0.5307211264 0.83713743439 -0.13242357019 -0.53438898457 0.83490839405 -0.13174364013 -0.53692571007 0.83335075772 -0.13129088497 
-0.53838007961 0.8324512091 -0.13104149857 -0.53884215787 0.83216414184 -0.13096552956 -0.53873018055 0.83223386512 -0.1309831528 
-0.53806204059 0.83265017006 -0.13108369377 -0.53723514103 0.83316522227 -0.13120257483 -0.53647212715 0.8336402299 -0.13130736414 
-0.53632864386 0.83372958116 -0.13132620174 -0.53665188619 0.83352795317 -0.13128558312 -0.53832731489 0.83247869754 -0.13108363811 
-0.5414062422 0.83053589569 -0.13072645823 -0.54582672146 0.82771555635 -0.13023113266 -0.55164930468 0.82394614949 -0.12959856248 
-0.55920224435 0.81896492889 -0.12879943776 -0.56772234855 0.81322096123 -0.12791795482 -0.57706874601 0.80676538671 -0.12696957579 
-0.58658104468 0.80002584714 -0.12602111698 -0.59608281458 0.79311908571 -0.12508954411 -0.60489952185 0.78655001853 -0.1242402383 
-0.61230207032 0.780912026 -0.12354182418 -0.61811893062 0.77640084223 -0.12300699083 -0.62220783598 0.77318571032 -0.12264283998 
-0.62424082099 0.77157293309 -0.12246879735 -0.62394935276 0.77180488376 -0.12249255734 -0.62127215013 0.77392900218 -0.12269806456 
-0.61619300026 0.77792177081 -0.12306057421 -0.6087013689 0.78372055192 -0.12355055643 -0.59899327888 0.79107557515 -0.12412286758 
-0.58660640893 0.80020368236 -0.12476773515 -0.57188977166 0.8106849799 -0.12542708017 -0.55452956513 0.82255837732 -0.12607409446 
-0.53442887537 0.83566812346 -0.12666714097 -0.51197601946 0.8495368147 -0.12715249097 -0.48654281353 0.86430312375 -0.12749980733 
-0.45865332682 0.87939782696 -0.12765808917 -0.42788896759 0.89478054897 -0.12758840304 -0.39440040054 0.91008578597 -0.12724852148 
-0.3592164569 0.92462475741 -0.12661988421 -0.32208425317 0.93833190626 -0.12567803127 -0.28516635389 0.95036080911 -0.12447683767 
-0.25028206044 0.96031387838 -0.12311029691 -0.21841288929 0.96824171116 -0.12167086161 -0.19474281329 0.973426581 -0.12048206535 
-0.18135151353 0.97609907755 -0.11975900524 -0.18766202722 0.97486211712 -0.12011168194 -0.2126348604 0.96954887975 -0.12149644409 
-0.26594845661 0.95594293917 -0.124275965 -0.3497291746 0.92805952619 -0.12804304077 -0.45265926259 0.88193170448 -0.13151448827 
-0.57169418878 0.80951181514 -0.13362775036 -0.67697224013 0.72383159337 -0.13332820603 -0.76590863572 0.62948666205 -0.13088355138 
-0.82731818082 0.54707369001 -0.12749511911 -0.86936781091 0.47835646604 -0.12399476101 -0.89496433742 0.42935869437 -0.12120208874 
-0.91203675653 0.3924715883 -0.11897481713 -0.92104375133 0.37125933767 -0.1176644055 -0.92579332376 0.35948810351 -0.11694026301 
-0.92676246803 0.3570305104 -0.11679273306 -0.92507770528 0.36129405304 -0.11703779912 -0.92042830937 0.37278456391 -0.11765796288 
-0.91349501806 0.3892185082 -0.11847280215 -0.90464302612 0.40911446255 -0.11935808232 -0.89331584534 0.43303403601 -0.12028434691 
-0.87921774223 0.46075198736 -0.12117659798 -0.86330761602 0.48973466099 -0.12190127949 -0.84410463439 0.52200812564 -0.12245359516 
-0.82370052871 0.55358484938 -0.12272429894 -0.8000459462 0.58725671175 -0.12270304994 -0.77513280545 0.6198367167 -0.122358402 
-0.74790655496 0.65255926644 -0.12166424628 -0.7193865522 0.68405406185 -0.12063593567 -0.68945260883 0.7144433304 -0.11927207477 
-0.65928675088 0.74263158654 -0.11764058307 -0.62769183096 0.76981751089 -0.11568908881 -0.59682834602 0.79429077923 -0.1135697293 
-0.56436889258 0.8180073148 -0.11113858925 -0.53360095518 0.83872675102 -0.1086621266 -0.50034024107 0.85933835284 -0.10581700484 
-0.46465298525 0.87952926467 -0.10259569134 -0.42574304813 0.89942169084 -0.098911470557 -0.37509559909 0.92221886197 -0.093891757732 
-0.29588100476 0.95137881066 -0.085631709395 -0.059331860997 0.99651299539 -0.058664983543 0.96722009862 -0.21741126814 0.13121593393 
0.61552706036 -0.77944391624 0.11659167809 0.51295728237 -0.85163776112 0.10764734224 0.46322781455 -0.88023076691 0.10302324407 
0.42987148212 -0.89735117046 0.099856826134 0.40404677562 -0.90953888856 0.097392059765 0.38333066353 -0.91866866344 0.095422687071 
0.36479321795 -0.92636389279 0.09367948692 0.34905648037 -0.93255254555 0.092224309641 0.33418964743 -0.93811414764 0.090879731229 
0.32070014137 -0.94292455782 0.089692238169 0.30790551783 -0.94728244652 0.088601120773 0.29581347079 -0.95121999465 0.087606576624 
0.28443649117 -0.95476572652 0.086708073194 0.27344855629 -0.95804530553 0.08587828375 0.26307835151 -0.96101105561 0.085132437834 
0.25275622886 -0.96383930246 0.084428003719 0.24335182553 -0.96630941664 0.083821240351 0.23420009435 -0.96861615657 0.083264980813 
0.2253078478 -0.97076650784 0.082757241191 0.21713628762 -0.97266398612 0.08232012334 0.20913729376 -0.97444891221 0.081920143095 
0.20184889214 -0.9760131794 0.081580012123 0.19493052899 -0.97744350864 0.081279002736 0.18881748061 -0.97866333333 0.081031099028 
0.18285027242 -0.97981441005 0.080805319958 0.17778906304 -0.98076014195 0.080626255168 0.17314015916 -0.98160417312 0.080471936694 
0.16867461458 -0.98239281258 0.0803320371 0.16555262376 -0.98293133704 0.080239114089 0.16274548338 -0.98340654353 0.080159078017 
0.16136070287 -0.98363782342 0.080120883145 0.16136070287 -0.98363782342 0.080120883145 
