# vtk DataFile Version 4.1
vtk output
ASCII
DATASET POLYDATA
FIELD FieldData 4
Angle 1 2 double
0 0 
METADATA
INFORMATION 0

Offset 1 2 double
0 0 
METADATA
INFORMATION 0

Normal 3 2 double
0.03863 -0.982009 0.184843 -0.148212 0.942807 -0.298578 
METADATA
INFORMATION 1
NAME L2_NORM_RANGE LOCATION vtkDataArray
DATA 2 1 1 

Binormal 3 2 double
-0.007266 0.1847 0.982768 -0.046368 0.294956 0.954385 
METADATA
INFORMATION 1
NAME L2_NORM_RANGE LOCATION vtkDataArray
DATA 2 1 1 

POINTS 2 double
-0.21467 -71.001555 47.363383 -13.407738 51.496532 28.195061 
METADATA
INFORMATION 1
NAME L2_NORM_RANGE LOCATION vtkDataArray
DATA 2 73.6161 82.1503 

