# vtk DataFile Version 4.1
vtk output
ASCII
DATASET POLYDATA
POINTS 148 float
-0.5633 -1.08465 -123.267 -0.494428 -0.982681 -122.101 -0.425571 -0.88074 -120.935 
-0.356776 -0.778902 -119.769 -0.288087 -0.677242 -118.602 -0.219546 -0.575835 -117.434 
-0.15119 -0.474754 -116.265 -0.0830454 -0.374068 -115.095 -0.0151341 -0.273841 -113.923 
0.0525341 -0.174135 -112.749 0.119959 -0.0750067 -111.573 0.187152 0.0234941 -110.394 
0.254135 0.121321 -109.213 0.320938 0.218433 -108.029 0.387603 0.314793 -106.842 
0.454177 0.41037 -105.651 0.520714 0.505134 -104.457 0.58727 0.599063 -103.26 
0.653907 0.692132 -102.059 0.720683 0.784322 -100.855 0.787655 0.875614 -99.6481 
0.854878 0.965992 -98.4377 0.922399 1.05544 -97.2244 0.990262 1.14394 -96.0085 
1.0585 1.23148 -94.7902 1.12715 1.31805 -93.57 1.19622 1.40364 -92.348 
1.26573 1.48823 -91.1247 1.33569 1.57183 -89.9002 1.40611 1.65442 -88.675 
1.47698 1.73602 -87.4492 1.54829 1.81662 -86.223 1.62005 1.89626 -84.9963 
1.69226 1.97493 -83.7692 1.7649 2.05268 -82.5416 1.83799 2.12955 -81.3131 
1.91152 2.20557 -80.0834 1.98551 2.28081 -78.8519 2.05999 2.35534 -77.618 
2.13496 2.42922 -76.381 2.21048 2.50256 -75.1399 2.28657 2.57545 -73.8936 
2.3633 2.64798 -72.6411 2.44071 2.72028 -71.381 2.51888 2.79247 -70.112 
2.59788 2.86467 -68.8327 2.67778 2.93702 -67.5415 2.75869 3.00963 -66.2368 
2.84067 3.08266 -64.9171 2.92383 3.15621 -63.5808 3.00827 3.23043 -62.2262 
3.09407 3.30541 -60.852 3.18132 3.38126 -59.4566 3.27011 3.45807 -58.0387 
3.36052 3.53591 -56.5972 3.45261 3.61483 -55.1309 3.54643 3.69485 -53.6392 
3.64202 3.77598 -52.1215 3.73941 3.85818 -50.5774 3.83858 3.94141 -49.0069 
3.93953 4.02558 -47.4103 4.0422 4.11057 -45.7882 4.14652 4.19625 -44.1414 
4.2524 4.28245 -42.4712 4.35972 4.36897 -40.779 4.46834 4.45559 -39.0666 
4.57809 4.54209 -37.336 4.68878 4.62821 -35.5895 4.80021 4.71369 -33.8295 
4.91216 4.79827 -32.0586 5.0244 4.88169 -30.2793 5.13669 4.96368 -28.4943 
5.2488 5.04401 -26.7062 5.36049 5.12243 -24.9176 5.47152 5.19873 -23.1308 
5.58168 5.27272 -21.348 5.69076 5.34424 -19.571 5.79859 5.41315 -17.8014 
5.905 5.47934 -16.0405 6.00985 5.54273 -14.2891 6.11303 5.60325 -12.5477 
6.21445 5.6609 -10.8164 6.31406 5.71565 -9.09489 6.41182 5.76751 -7.38252 
6.50772 5.81652 -5.67828 6.60177 5.86271 -3.98083 6.69399 5.90612 -2.2886 
6.78444 5.94678 -0.599768 6.87315 5.98473 1.08762 6.96018 6.01999 2.77564 
7.0456 6.05258 4.46643 7.12946 6.08248 6.16211 7.2118 6.10966 7.86477 
7.29267 6.13409 9.57638 7.37211 6.15568 11.2988 7.45011 6.17436 13.0337 
7.52669 6.18999 14.7825 7.60183 6.20246 16.5466 7.6755 6.2116 18.3269 
7.74765 6.21726 20.1241 7.81822 6.21925 21.9389 7.88712 6.2174 23.7713 
7.95427 6.21152 25.6215 8.01956 6.20142 27.4892 8.08288 6.18691 29.3737 
8.1441 6.16784 31.2743 8.20309 6.14402 33.1901 8.25973 6.1153 35.1198 
8.31388 6.08155 37.0619 8.36539 6.04265 39.0148 8.41413 5.99848 40.9768 
8.45996 5.94896 42.9458 8.50274 5.89401 44.9199 8.54235 5.83356 46.897 
8.57866 5.76756 48.8749 8.61155 5.69597 50.8515 8.64089 5.61875 52.8246 
8.66657 5.53586 54.7925 8.68849 5.44726 56.7531 8.70655 5.35292 58.705 
8.72065 5.25279 60.6466 8.73069 5.14681 62.577 8.73659 5.03494 64.4952 
8.73828 4.9171 66.4008 8.73567 4.79321 68.2935 8.7287 4.66319 70.1736 
8.71731 4.52695 72.0415 8.70144 4.3844 73.898 8.68105 4.23545 75.7442 
8.65612 4.08002 77.5813 8.62661 3.91803 79.4108 8.59254 3.74944 81.2342 
8.55392 3.57421 83.0534 8.51078 3.39234 84.87 8.46318 3.20388 86.6856 
8.41122 3.0089 88.5019 8.35501 2.80753 90.3203 8.2947 2.59996 92.1421 
8.23047 2.38642 93.9683 8.16253 2.1672 95.7996 8.09115 1.94269 97.6367 
8.01661 1.71328 99.4797 7.93923 1.47947 101.329 7.85936 1.24179 103.183 
7.7774 1.00084 105.043 7.69376 0.757263 106.906 7.60886 0.511731 108.773 
7.52319 0.264962 110.642 
LINES 1 149
148 147 146 145 144 143 142 141 140 139 138 137 136 135 134 133 132 131 130 129 128 127 126 125 124 123 122 121 120 119 118 117 116 115 114 113 112 111 110 109 108 107 106 105 104 103 102 101 100 99 98 97 96 95 94 93 92 91 90 89 88 87 86 85 84 83 82 81 80 79 78 77 76 75 74 73 72 71 70 69 68 67 66 65 64 63 62 61 60 59 58 57 56 55 54 53 52 51 50 49 48 47 46 45 44 43 42 41 40 39 38 37 36 35 34 33 32 31 30 29 28 27 26 25 24 23 22 21 20 19 18 17 16 15 14 13 12 11 10 9 8 7 6 5 4 3 2 1 0 

CELL_DATA 1
FIELD FieldData 2
LengthArray 1 1 double
234.68771384 
TortuosityArray 1 1 double
0.0027119411333 
POINT_DATA 148
FIELD FieldData 8
RadiusArray 1 148 double
43.014840151 43.357085649 43.462666086 43.892829116 44.298512457 44.884130837 45.386563398 45.479120813 45.580240172 
45.609434789 45.614946927 46.462948875 46.591146475 46.75644061 46.945496331 47.128417089 47.346706243 47.482791417 
47.713407334 48.068035154 48.099628614 48.605350108 48.716812884 49.001215603 49.125445727 49.262967517 49.50211048 
49.625042894 49.768048999 49.869441281 50.135300087 50.154391332 50.2439014 50.35344391 50.460726219 50.815758411 
50.825198451 50.935992313 50.990174884 51.171560467 51.180649365 51.381089663 51.512194564 51.5903273 51.596371876 
51.710720943 51.848539681 51.862292304 51.86711035 51.90717278 52.02650256 52.167059278 52.178987978 52.292396162 
52.424996776 52.501631486 52.5697779 52.618662911 52.689274355 52.996655558 53.039279457 53.063219163 53.127225764 
53.142154194 53.21539577 53.235334219 53.328562769 53.589820064 53.623682268 53.829765423 53.878888408 53.906792982 
53.909773919 54.142963089 54.175170979 54.190408526 54.242198715 54.305706912 54.396958263 54.414245845 54.482477473 
54.589751096 54.604108187 54.64915968 54.703081676 54.766282442 54.783325355 54.816470479 54.878070472 54.924505204 
54.944716371 55.024479417 55.110637917 55.144595468 55.301675037 55.30817624 55.397913939 55.487424059 55.651860317 
55.785199754 55.863353163 55.871900817 55.903938748 55.926027943 55.954570159 55.968664581 56.110616163 56.29692041 
56.318001554 56.330578797 56.449085751 56.642948597 56.696951327 56.740507991 56.794164709 56.810640016 56.913442513 
57.036992784 57.120172304 57.319581218 57.442970299 57.467134893 57.480122801 57.403586687 57.397289101 57.399457744 
57.429960826 57.411784799 57.431606444 57.442172528 57.460954605 57.536632211 57.57177861 57.604808435 57.493376972 
57.46965911 57.417372697 57.389011087 57.301307834 57.243246669 57.169451722 57.049013331 57.019397145 56.704812358 
56.495222396 56.261394399 56.237293914 55.971714095 
EdgeArray 2 148 int
18221 18221 18215 18215 18220 19340 18220 18220 18064 
18064 19796 19796 10794 10794 20044 20044 18062 18062 
19033 19798 19033 18301 18301 18301 19032 3310 3310 
3310 3198 18792 3198 3198 16234 16234 19036 19036 
20477 20477 20479 20479 3632 5260 3632 3632 21280 
20655 21280 21280 21279 21279 21282 21282 21044 21044 
21046 21046 21047 21047 20662 3172 20662 20662 20663 
20663 12779 12779 3626 18348 18348 18348 4389 4389 
22175 22173 22173 22173 22174 18595 18595 18595 17785 
21284 17785 17785 11802 16239 11802 21722 20050 3206 
20050 20050 20669 20669 21720 3410 21720 21720 21719 
21719 17778 17778 21291 21290 21290 22179 22179 22179 
22181 22181 22182 22186 22182 22182 19744 17586 19041 
19041 19038 19038 24673 3721 24675 24673 24675 24675 
24469 24469 21818 4388 15497 15497 22602 16587 22500 
22500 18360 18360 21516 21516 9394 9394 2976 20243 
2976 3933 4103 4103 3480 16472 3480 3091 12253 
12253 3095 5540 15605 15605 16254 9217 9217 2756 
9329 24819 18927 4266 17246 3344 4488 3773 25107 
25106 25112 25106 25113 25113 25423 25420 25421 25420 
3899 4810 4801 3492 3374 3374 3851 3222 25240 
25240 25235 25241 25235 19751 7058 19751 4499 15850 
6712 3745 3858 3745 21294 12799 4814 4814 5961 
20485 5961 21316 16939 16936 4074 4074 10934 7078 
4826 10934 17172 4826 3852 3852 25743 25743 25742 
25745 25746 25746 25666 18078 4615 7076 4701 4701 
4581 4581 21180 21180 4423 4423 18601 12258 12258 
12258 12809 16950 8126 8126 5276 5276 5291 5291 
6496 6496 6001 6903 7468 7468 7106 7106 20067 
20067 7101 7101 8367 8122 25126 25126 7088 25124 
6494 7891 25333 25333 7477 7477 7469 5207 25122 
25122 6323 6323 13264 13264 25249 25249 25242 25242 
9435 9435 7721 7721 24956 9438 21454 21454 
EdgePCoordArray 1 148 double
0 0 0.82 0 0 0 0 0 0 
0.224 0.004 0 0.016 0 0.86 0 0 0 
0 0 0.976 0 0.804 0 0 0 0 
0 0 0.972 0 0 0 0.08 0 0 
0.032 0 0.036 0 0.972 0 0.76 0.004 0.972 
0 0 0.336 0 0 0 0.8 0.024 0 
0 0.576 0 0.168 0 0 0.5 0.92 0 
0 0.02 0 0.5 0 0 0 0 0.04 
0.016 0 0.34 0.132 0 0.396 0 0.152 0.412 
0.428 0.492 0.292 0.596 0.908 0.836 0 0.556 0.66 
0.508 0.5 0 0.812 0 0.936 0.492 0.464 0.432 
0.788 0.388 0.652 0 0.872 0.256 0.076 0 0.868 
0.38 0.824 0 0 0.456 0 0.608 0.032 0 
0 0 0 0.664 0 0.428 0 0 0 
0 0.516 0 0 0 0 0.688 0 0.136 
0.268 0 0 0.356 0 0 0 0 0 
0 0 0.908 0 
CurvatureArray 1 148 double
0 2.8024586472e-05 0.00011266325248 0.00019661085265 0.00027810096333 0.00035498135241 0.0004277534846 0.00049334220114 0.00055323879975 
0.00060440553909 0.00064910761755 0.00068457564038 0.00071426554052 0.00073706363197 0.00075373388773 0.00076468699668 0.00077266635881 0.00077649765369 
0.00077867231388 0.00077931928065 0.00077828656664 0.00077738434615 0.00077448396947 0.00077244598376 0.00076860689535 0.00076530815628 0.00075993414242 
0.00075444690848 0.00074714795452 0.00073837888023 0.00072847099029 0.00071686031864 0.00070281044995 0.00068757312497 0.00066996236256 0.00064984041365 
0.00062769546638 0.00060314287839 0.00057569364918 0.00054591208963 0.00051412023289 0.00047966241101 0.00044397154288 0.00040717405975 0.00036966369476 
0.00033246710358 0.00029639182604 0.0002622179579 0.00023082876179 0.0002031251195 0.00017964223925 0.00016084461334 0.00014677305082 0.00013815524339 
0.00013401282452 0.00013467540652 0.00013985906976 0.00014931410149 0.00016293254676 0.00018055945896 0.00020187740714 0.00022627770056 0.00025355986914 
0.00028342176999 0.00031529916052 0.00034890834564 0.00038420306959 0.00042036701687 0.0004581764478 0.00049648349263 0.00053535410215 0.00057524097624 
0.00061501411267 0.00065529977197 0.00069540220979 0.00073529927439 0.0007747650221 0.00081352420887 0.00085080844598 0.00088704975283 0.00092135145129 
0.00095366077853 0.0009837057016 0.0010114924483 0.0010367714356 0.0010597958312 0.0010805672875 0.0010998657318 0.0011174000982 0.0011344861931 
0.0011508892597 0.0011673701815 0.0011843305893 0.0012022357352 0.0012212159051 0.0012411706636 0.0012623113172 0.0012839270958 0.0013065561144 
0.001328865125 0.0013516295997 0.0013738880519 0.0013955362016 0.0014165988433 0.0014368769486 0.0014566396545 0.0014760093523 0.0014954793132 
0.0015153498156 0.0015365517623 0.0015591243701 0.001584475447 0.0016129319239 0.0016451238365 0.0016817654005 0.0017234977296 0.0017705636836 
0.0018232482324 0.0018816787712 0.0019451392351 0.0020132949965 0.0020850390259 0.0021584816912 0.0022325317899 0.0023038929147 0.0023705112551 
0.0024294020654 0.0024779107885 0.0025118679606 0.0025306467557 0.0025294413258 0.0025090550002 0.0024666637868 0.0024030344932 0.002318154498 
0.0022140302851 0.0020909839632 0.0019530416688 0.0018007819745 0.0016375126871 0.0014649100247 0.0012849957792 0.0011002050342 0.00091153981144 
0.00071906531781 0.00052511989877 0.0003290744473 0 
TorsionArray 1 148 double
0 0 0.0023437459393 0.0048930172308 0.0079495135762 0.011042634011 0.014332144239 0.017703702669 0.021126414014 
0.024604469218 0.028122969235 0.031614750346 0.03472261977 0.037843074273 0.040782881093 0.043018338292 0.044684211881 0.045860412503 
0.045765541811 0.045368628899 0.043776114148 0.041707621583 0.038918604873 0.035276347511 0.031244850387 0.027105845905 0.022849890209 
0.018167721871 0.014639482884 0.010366231323 0.0063064413237 0.0034790585542 0.0002177016125 -0.0026376564894 -0.0043106650793 -0.0059333825847 
-0.0074716876386 -0.007968381053 -0.007877644774 -0.0080026847771 -0.0071512469781 -0.0061756815056 -0.0046153972145 -0.0025027260678 0.00021579936163 
0.0031654592282 0.0067268519989 0.011197747913 0.01515176447 0.019051842496 0.021364063863 0.020831176046 0.01595755439 0.0058201798489 
-0.0060758304152 -0.018205188429 -0.028744059742 -0.035049829717 -0.037352405624 -0.036748459237 -0.034838792814 -0.03146335898 -0.028072810147 
-0.025832908638 -0.023326594673 -0.021260149101 -0.019378019643 -0.018211813887 -0.01724455283 -0.016241861636 -0.015573316721 -0.015085977992 
-0.014694042124 -0.01426040703 -0.014173191941 -0.013900316833 -0.01374018088 -0.013582213737 -0.013384617028 -0.013137339759 -0.012867456753 
-0.012438895413 -0.011838779258 -0.011227315186 -0.010243641213 -0.0092435276633 -0.0081467123349 -0.0067464374616 -0.0052804276327 -0.0038256270932 
-0.0023859123732 -0.00097921479599 0.00020266289902 0.001247559807 0.0020564564695 0.0025977233581 0.002887742355 0.002996332042 0.0029537017169 
0.0026755434005 0.0023737395127 0.0020262212566 0.0015978261706 0.0012111756292 0.00085167599576 0.00042119001718 0.00011170473681 -0.00012912074248 
-0.00043476030291 -0.00060711667033 -0.00068298676178 -0.00080333252752 -0.00091823955992 -0.00095689473357 -0.00091691239979 -0.0009477695055 -0.00089834516176 
-0.00088078006961 -0.00092897727847 -0.00091582139576 -0.00093155643092 -0.0009379543434 -0.0010666862853 -0.0011382626508 -0.001199388769 -0.0013401595773 
-0.0014613863079 -0.0015715789854 -0.0016673329548 -0.0017654926902 -0.0018612230811 -0.0019225054614 -0.0019344368798 -0.0020256142137 -0.0020436129673 
-0.0019547194935 -0.0019382478196 -0.0018714165222 -0.0017848820248 -0.001733063077 -0.0015597574548 -0.0013952977493 -0.0012702271363 -0.0010515356873 
-0.0010203955212 -0.00077858269898 0 0 
TangentArray 3 148 double
-0.058739524352 -0.086963651895 -0.99447825091 -0.058739524352 -0.086963651895 -0.99447825091 -0.05869637314 -0.086893882915 -0.9944868973 
-0.058601817839 -0.086740258892 -0.99450588456 -0.05845782611 -0.086503589535 -0.99453497252 -0.058268493497 -0.086186020233 -0.99457365367 
-0.058039203574 -0.085790045779 -0.99462129421 -0.05777690542 -0.085319067323 -0.99467707622 -0.057489661103 -0.084777066191 -0.99474006048 
-0.057186500144 -0.084168805457 -0.99480918592 -0.056876994668 -0.083499622793 -0.99488332003 -0.05657105819 -0.082775520968 -0.99496126985 
-0.056278336111 -0.082002713117 -0.99504186039 -0.056007482005 -0.081186970571 -0.99512403135 -0.055766877906 -0.080335029483 -0.99520668123 
-0.055564012704 -0.079453880418 -0.99528876281 -0.055404553327 -0.078549664421 -0.99536942172 -0.055292835317 -0.077628427088 -0.99544790405 
-0.055231855332 -0.076696003189 -0.99552356338 -0.055222529507 -0.075757118649 -0.99559596785 -0.05526495093 -0.074816637035 -0.99566473073 
-0.055357413184 -0.073878253758 -0.99572966232 -0.055497383569 -0.072945636372 -0.99579062787 -0.055681228524 -0.072021399742 -0.99584763833 
-0.055904294374 -0.071107479386 -0.99590081647 -0.056161321447 -0.070205224925 -0.99595036642 -0.056446913673 -0.06931566778 -0.99599652818 
-0.056755411072 -0.068439573932 -0.99603958156 -0.05708084275 -0.067577034302 -0.99607987723 -0.057418257621 -0.066728974197 -0.99611765756 
-0.057762183326 -0.065895376836 -0.99615326606 -0.058107495263 -0.065076273713 -0.99618702942 -0.058450174425 -0.064272845935 -0.99621914175 
-0.05878605165 -0.063485736828 -0.99624984886 -0.059111602411 -0.062715754355 -0.99627935471 -0.05942428833 -0.061964944092 -0.99630773341 
-0.05972189035 -0.06123522177 -0.99633505581 -0.060002465473 -0.060528526075 -0.99636138106 -0.060264993514 -0.059847737794 -0.99638666131 
-0.060509027194 -0.059195903838 -0.99641081016 -0.060734251335 -0.058575547347 -0.99643376898 -0.06094103571 -0.057989701211 -0.9964554103 
-0.061129945516 -0.057441002653 -0.99647561986 -0.061302123663 -0.056931338545 -0.99649429117 -0.061458905049 -0.05646241589 -0.99651131383 
-0.061601909625 -0.056035211431 -0.99652659764 -0.061732764228 -0.055649605289 -0.9965401082 -0.061853271707 -0.055304600237 -0.99655184209 
-0.061965395813 -0.054998230475 -0.99656183168 -0.06207080363 -0.054727270813 -0.99657018878 -0.062171216972 -0.054487519446 -0.99657706677 
-0.062268058751 -0.054273843769 -0.99658268033 -0.062362464753 -0.054080413763 -0.99658729263 -0.06245530347 -0.053900303784 -0.99659123633 
-0.062546868928 -0.053726071787 -0.99659490185 -0.062637250675 -0.053550274993 -0.99659868697 -0.062726279505 -0.053365073296 -0.99660302167 
-0.062813088743 -0.053162699384 -0.99660837006 -0.062896482846 -0.052935649838 -0.99661519626 -0.062974963721 -0.052676693385 -0.99662396114 
-0.063046679352 -0.05237898581 -0.99663511782 -0.063109214828 -0.052036416556 -0.99664910493 -0.063160253264 -0.051643604402 -0.9966663035 
-0.063197396686 -0.05119565812 -0.99668705903 -0.063217354281 -0.050688436245 -0.99671171787 -0.063217112494 -0.050118721594 -0.99674054319 
-0.06319357963 -0.049483825934 -0.99677375691 -0.063143791947 -0.048782067401 -0.99681150246 -0.063064373174 -0.048012166905 -0.99685390939 
-0.062951886115 -0.047173545535 -0.99690105659 -0.062803475382 -0.04626691583 -0.9969529056 -0.06261605539 -0.045292930262 -0.99700941825 
-0.062386659692 -0.044253220856 -0.99707048755 -0.062112577762 -0.043150161742 -0.9971359442 -0.061791551871 -0.041986376025 -0.99720556975 
-0.061421138755 -0.04076543985 -0.99727910969 -0.060999625593 -0.039491083213 -0.99735625532 -0.060525576083 -0.038167496929 -0.99743666306 
-0.059998088368 -0.036799591327 -0.99751993437 -0.059416825414 -0.035392253299 -0.99760564817 -0.058781912045 -0.033950330795 -0.99769337066 
-0.05809412924 -0.032478944352 -0.99778263681 -0.057354902249 -0.030982740984 -0.99787298037 -0.056566371856 -0.029465746272 -0.99796393491 
-0.055730839744 -0.027931524442 -0.99805506033 -0.054851613762 -0.026382473856 -0.99814591395 -0.053931936396 -0.024820156097 -0.99823609737 
-0.052974909905 -0.023244862853 -0.99832526527 -0.051984175572 -0.021655559758 -0.99841308196 -0.050963072212 -0.020049938284 -0.99849925651 
-0.049914416733 -0.01842459974 -0.99858353938 -0.048840806886 -0.01677552694 -0.99866568845 -0.04774434554 -0.015097724786 -0.99874548118 
-0.046626292079 -0.013385834363 -0.99882271116 -0.045487478775 -0.011634217179 -0.998897159 -0.044328310151 -0.0098375939419 -0.99896857942 
-0.04314860629 -0.0079911154843 -0.99903670596 -0.041947892078 -0.006090851296 -0.99910123405 -0.040725399206 -0.004133480728 -0.99916182683 
-0.039480414572 -0.0021167818127 -0.99921810237 -0.038211765265 -3.9715873323e-05 -0.99926966301 -0.036918371348 0.002098234648 -0.99931608176 
-0.035599544663 0.0042962934578 -0.99935690035 -0.034254358329 0.0065530165155 -0.99939166342 -0.032882188403 0.008866484551 -0.99941990531 
-0.031482548191 0.011234473072 -0.99944116174 -0.030054504782 0.013654446154 -0.9994549929 -0.028597441973 0.016124280807 -0.99946095165 
-0.027110774636 0.018642312929 -0.99945858847 -0.025593078579 0.021207373607 -0.99944746817 -0.024043196951 0.023819160385 -0.99942712204 
-0.022459840521 0.026478614947 -0.99939703748 -0.020840714665 0.029187758461 -0.99935666274 -0.019183138363 0.031949206216 -0.99930538647 
-0.017484225496 0.034766748857 -0.99924250061 -0.015740905651 0.037645413123 -0.99916717658 -0.013949331313 0.040590576486 -0.99907848603 
-0.012105868914 0.043608192232 -0.99897536181 -0.010206560571 0.046704369995 -0.9988566103 -0.0082473054211 0.049884406847 -0.99872094596 
-0.0062248911236 0.053152970467 -0.99856697946 -0.0041365512691 0.056513528802 -0.9983932642 -0.0019809455205 0.059967356071 -0.9981983731 
0.0002428030009 0.063513155677 -0.99798097181 0.0025333704406 0.067146800682 -0.99773989055 0.0048870366384 0.070860635323 -0.99747425392 
0.0072986025791 0.074643429561 -0.9971835783 0.0097604167098 0.078480539041 -0.99686786449 0.012261840409 0.082353035409 -0.99652778427 
0.014790127612 0.086239318814 -0.9961646611 0.017330196381 0.090114590487 -0.99578061081 0.019865051895 0.093951748474 -0.99537854541 
0.022376442107 0.097722956264 -0.99496206895 0.024844482794 0.10139936556 -0.99453552995 0.027249799298 0.10495243507 -0.99410383503 
0.02957287178 0.10835527804 -0.9936722694 0.031794033395 0.11158278955 -0.99324640473 0.03389550275 0.1146122006 -0.9928318782 
0.035860812171 0.11742371044 -0.99243421665 0.037674715681 0.11999974268 -0.99205880751 0.039324128558 0.12232564936 -0.9917106677 
0.040796895133 0.12438933747 -0.99139442508 0.042083158722 0.12618142638 -0.99111414852 0.043174893993 0.12769471875 -0.99087334576 
0.044064620889 0.12892273336 -0.99067514252 0.044746830616 0.12986048436 -0.99052207232 0.045216873623 0.1305047497 -0.99041604624 
0.045216873623 0.1305047497 -0.99041604624 
NormalArray 3 148 double
-0.5240551925 -0.84520396183 0.10486380749 -0.5240551925 -0.84520396183 0.10486380749 -0.52287960609 -0.84594261275 0.10477601575 
-0.52037792327 -0.84750768265 0.1045827176 -0.51448658383 -0.85113508629 0.10427185596 -0.50524989065 -0.8567029355 0.10383943524 
-0.49272427616 -0.86403492676 0.10327842475 -0.47636259835 -0.87324533135 0.10257322346 -0.45639938962 -0.88394253734 0.1017112965 
-0.43219664964 -0.89614311567 0.10066564598 -0.40412095935 -0.90928659886 0.099418968712 -0.37128560792 -0.92334025028 0.097927419821 
-0.33453434187 -0.9374627942 0.096178394612 -0.2934395245 -0.95133215644 0.094129557448 -0.24825492752 -0.96433946918 0.091754450249 
-0.19896959058 -0.9759543255 0.089018293425 -0.14733075866 -0.98534493334 0.085959350228 -0.0927830209 -0.99225981052 0.082533505082 
-0.037490372824 -0.9961831203 0.078826789747 0.017521461559 -0.99703748438 0.074894947329 0.072221520193 -0.99487621096 0.070748688215 
0.12327418319 -0.99013464757 0.066609724872 0.17283896999 -0.98297312727 0.06237404526 0.21650910193 -0.97453386938 0.058374191341 
0.25689299751 -0.96490341539 0.054473725764 0.29022851304 -0.95559768527 0.050994844051 0.32038411526 -0.9460867688 0.047684846601 
0.34319184783 -0.9381910859 0.04490926326 0.36218674077 -0.93113997082 0.042416029394 0.37659836133 -0.9255000553 0.040290468977 
0.38564466159 -0.92183884766 0.038617792982 0.39076112718 -0.9197365208 0.037289057303 0.39338521115 -0.91866124232 0.036188361351 
0.39104945265 -0.91968354228 0.035531783568 0.3872695432 -0.92130126538 0.035018271149 0.38108280972 -0.92388831869 0.034731350659 
0.37360095239 -0.92694488077 0.03457624022 0.36377787635 -0.93084137344 0.034640932029 0.35520021322 -0.93414874184 0.03462566467 
0.34536579559 -0.93782484356 0.034742337785 0.33650436857 -0.94103834627 0.034808630931 0.32853071585 -0.94385063189 0.034836093704 
0.32192061146 -0.94612724691 0.034790121876 0.3176498885 -0.94757675202 0.034595481806 0.31609243641 -0.94811085745 0.034225335964 
0.31851528778 -0.94732278968 0.033578915927 0.32409335728 -0.9454590777 0.032720454911 0.33564666519 -0.94146398153 0.031414767837 
0.35222963037 -0.9354414919 0.029723773641 0.37361099742 -0.92717339946 0.027646155964 0.39990585643 -0.91621122515 0.025145514596 
0.42644426464 -0.90423147046 0.022599490718 0.45124001615 -0.89217448566 0.020177585927 0.46509294915 -0.88506386991 0.01872150737 
0.46515940242 -0.88503322449 0.018518150498 0.449416443 -0.89310418095 0.019742915927 0.41790241791 -0.90821746482 0.022329480468 
0.37233026281 -0.92773543257 0.026021962939 0.31985521194 -0.94698775922 0.030113573107 0.26349572613 -0.96405039169 0.03430516868 
0.20835310255 -0.97730806283 0.038182914917 0.15429514341 -0.98714147434 0.04176982591 0.10649421257 -0.99330711706 0.044720844087 
0.061657768894 -0.99697589809 0.047300931948 0.019622191449 -0.99857942625 0.049538864316 -0.018140328499 -0.99851551458 0.051358501086 
-0.053765623634 -0.99715077323 0.052911181845 -0.085843030646 -0.9948374979 0.054123256212 -0.11746723349 -0.99154211503 0.0551877085 
-0.14665153721 -0.98760213411 0.055994207995 -0.17472802931 -0.9829870948 0.056625852984 -0.20151955519 -0.97782004505 0.057077389338 
-0.22774110366 -0.97202890911 0.057391545974 -0.25291859841 -0.9657745386 0.057547573118 -0.27730534966 -0.95905589695 0.057563265947 
-0.30171132827 -0.95166485238 0.057482894305 -0.32476046601 -0.9440623942 0.057243651 -0.34799353972 -0.93576712846 0.056924314665 
-0.37000862754 -0.92731082985 0.056464505583 -0.39188814621 -0.91831185364 0.055919766893 -0.41251951381 -0.90927196583 0.055246202312 
-0.43283985661 -0.89982238695 0.054491563389 -0.45154074666 -0.89063870032 0.053606525681 -0.46937698154 -0.88142800475 0.052630045022 
-0.48569812374 -0.87260573774 0.051541818518 -0.50012163576 -0.86449113174 0.050333215594 -0.51309240072 -0.85693200997 0.04902773312 
-0.52402460083 -0.85037158002 0.047606655288 -0.53275042613 -0.84501764038 0.046067026291 -0.5393472342 -0.84091140266 0.044413667291 
-0.5438694397 -0.83808538879 0.042648723936 -0.54635415807 -0.83656125549 0.040772537071 -0.54687926793 -0.83631259338 0.038785467205 
-0.54598921863 -0.83698778778 0.036704444404 -0.54350795357 -0.83869397452 0.03451842268 -0.54022892146 -0.84089978468 0.032253132355 
-0.536102103 -0.84362336639 0.02990235508 -0.5318629947 -0.84638409168 0.027490438614 -0.52731051778 -0.84930459438 0.025006475272 
-0.52307213552 -0.85199210278 0.022472157076 -0.51926122648 -0.85438407801 0.019890347364 -0.51585646147 -0.85650115567 0.017259243917 
-0.51304748534 -0.85823628137 0.014586402458 -0.51093272751 -0.85953865581 0.011876326527 -0.50931597956 -0.86053123531 0.0091228291979 
-0.5083289561 -0.86113969299 0.0063325790523 -0.50809684249 -0.8612927866 0.0035120370906 -0.50812613298 -0.86128242661 0.00064389499297 
-0.50868581516 -0.86094926206 -0.0022604428944 -0.5097365531 -0.86031481675 -0.0052021644415 -0.51088239526 -0.85961153595 -0.0081966746895 
-0.51218763782 -0.85879998806 -0.011242960622 -0.51373692889 -0.85782790437 -0.014340654803 -0.51542775024 -0.85675438742 -0.017497254581 
-0.51710205802 -0.85567283282 -0.020723531558 -0.51864749369 -0.8546504261 -0.024029699598 -0.52040119361 -0.85348188397 -0.027409331107 
-0.52177644047 -0.85252274226 -0.030892071633 -0.5234287461 -0.85137234495 -0.034459802784 -0.5249516943 -0.85027727639 -0.038134917254 
-0.52652408538 -0.84912627357 -0.041916095262 -0.52806884272 -0.84796502022 -0.045810717471 -0.52962538969 -0.84676739076 -0.049818997834 
-0.53153747792 -0.84531640579 -0.0539266508 -0.53329952615 -0.84392551004 -0.058149367203 -0.53534633971 -0.84231993743 -0.062461344584 
-0.53751219787 -0.84060145772 -0.066856760443 -0.5398869617 -0.83871102563 -0.071315384562 -0.54234804161 -0.83672568761 -0.075820349923 
-0.54496367479 -0.83460139332 -0.080343683189 -0.54767906779 -0.83237411986 -0.084858489736 -0.55053674916 -0.83001763852 -0.089330888138 
-0.55339487902 -0.82762802095 -0.093733488217 -0.55624684564 -0.82521467033 -0.098031599946 -0.5593576942 -0.82260463108 -0.10217920951 
-0.56221925171 -0.82014537814 -0.10616530377 -0.56505285034 -0.8176958918 -0.10994864646 -0.56785230971 -0.81526763249 -0.11350084484 
-0.57047404436 -0.81296765784 -0.11680304796 -0.57302322115 -0.81073159779 -0.11982764444 -0.57550101621 -0.80856587428 -0.12255532337 
-0.57749185124 -0.8067718621 -0.12498929667 -0.57956142975 -0.80495760032 -0.12708977469 -0.58109780646 -0.80356475239 -0.1288760181 
-0.58261877799 -0.80223044058 -0.13031377413 -0.58407347733 -0.8009947789 -0.13139839137 -0.58453979007 -0.80052746099 -0.13217041287 
-0.58453979007 -0.80052746099 -0.13217041287 
BinormalArray 3 148 double
-0.84965629727 0.52732114139 0.0040731253641 -0.84965629727 0.52732114139 0.0040731253641 -0.85038323909 0.52614688923 0.0042187239825 
-0.85192290961 0.52364764425 0.0045277750503 -0.85550349948 0.51777040653 0.005250570602 -0.86100367634 0.50855879722 0.0063733121276 
-0.86824779788 0.49606825476 0.0078770608011 -0.87734856477 0.47975331997 0.0098106003195 -0.88791583836 0.4598461044 0.012125355642 
-0.89996431054 0.43570991316 0.014869812691 -0.91293551672 0.40770785389 0.017973541367 -0.92679378112 0.3749546577 0.021500975404 
-0.94070161209 0.33828843392 0.025326122559 -0.95433558428 0.29728068207 0.029458252592 -0.96708817917 0.25218182174 0.033834634516 
-0.97842922203 0.20297841123 0.038419032484 -0.98753429461 0.15141107145 0.043019814253 -0.99414989483 0.09692417519 0.047662258322 
-0.99776946942 0.041676299394 0.052145680231 -0.99832032466 -0.01330840804 0.056386307343 -0.99585633362 -0.067998497673 0.060385156242 
-0.99082744843 -0.11906041874 0.063918574181 -0.98338534201 -0.16864983013 0.067160285338 -0.97469144326 -0.21235973115 0.069856531664 
-0.96482158853 -0.25279463077 0.072209258101 -0.95530796929 -0.28618925608 0.074043186814 -0.94560444406 -0.31640980406 0.075611317061 
-0.93754902746 -0.33928382081 0.076735324587 -0.93035613729 -0.35834578158 0.077625760058 -0.92459548882 -0.372822869 0.078270622939 
-0.9208375129 -0.38193054115 0.078659624816 -0.91865622541 -0.38710439278 0.078872863595 -0.91751384336 -0.3897826614 0.078979896921 
-0.91849035145 -0.38749418484 0.078890626856 -0.92006962746 -0.38375866447 0.07874749564 -0.92262920293 -0.3776118646 0.078515180833 
-0.92566496325 -0.37016676732 0.078236437703 -0.92955116094 -0.36037568595 0.077871716045 -0.93284561375 -0.35183003909 0.077554397092 
-0.93651541625 -0.34202398712 0.077191109387 -0.93972132074 -0.33319024011 0.076864187012 -0.94252520333 -0.32524326163 0.076570633114 
-0.94479111431 -0.31865932259 0.076328149752 -0.94622439092 -0.31441552397 0.076172700573 -0.94673564137 -0.31288623743 0.076117197768 
-0.94591395813 -0.31534043069 0.07620496437 -0.94400877199 -0.3209521052 0.07640146974 -0.93995504623 -0.33254619631 0.076795432091 
-0.93386004155 -0.34917676022 0.077337008698 -0.9255063684 -0.37061356311 0.077997108243 -0.91444521201 -0.39697367814 0.078751844999 
-0.9023679837 -0.42357974185 0.079449507722 -0.89022096741 -0.44844174203 0.080041446695 -0.88305599127 -0.46233829977 0.080345583832 
-0.88301450698 -0.46241723667 0.080347244536 -0.89112369264 -0.44665119503 0.08000796457 -0.90632388414 -0.41508216722 0.079270495713 
-0.92597229509 -0.36943293648 0.078068009889 -0.94537647307 -0.31687852699 0.076493942852 -0.96260280296 -0.26044578756 0.074591122015 
-0.9760195187 -0.20524471292 0.072529352268 -0.9860072189 -0.15114205566 0.070326689725 -0.99230527818 -0.10331461335 0.068237274067 
-0.99609457813 -0.058464204585 0.066162891374 -0.99780686294 -0.016425952212 0.064122167567 -0.9978349188 0.021327937023 0.062214097539 
-0.99655197015 0.056935809645 0.06035299803 -0.99430570532 0.088986867983 0.058630211481 -0.99107231517 0.12057804917 0.05689112554 
-0.98718305631 0.1497220134 0.055253344105 -0.9826117439 0.17775191687 0.053650878785 -0.97748099648 0.20449085546 0.052099822943 
-0.97172109908 0.23065440011 0.050563359406 -0.96549169352 0.25576865354 0.0490732677 -0.95879275507 0.28008736273 0.047618505519 
-0.95141879218 0.30442106967 0.046152943942 -0.94382714805 0.32739372353 0.044762309995 -0.93554110062 0.35054689196 0.043355802171 
-0.92708890887 0.37247874425 0.042020710833 -0.91809221853 0.39427240313 0.040693370548 -0.90905023928 0.4148154616 0.039443570767 
-0.89959698236 0.43504573337 0.038216216424 -0.89040517142 0.45365490767 0.037092525598 -0.88118414351 0.47139839015 0.036028641237 
-0.87234821379 0.48762593901 0.035064761515 -0.86421620554 0.50195522531 0.034224287678 -0.85663734133 0.51483151627 0.033480969179 
-0.85005404337 0.5256689569 0.032867477859 -0.84467427388 0.53429975124 0.03239053669 -0.84053990163 0.54080126928 0.032041549778 
-0.83768405951 0.54522785624 0.031811966616 -0.83612900293 0.54761651501 0.031692947831 -0.8358489958 0.54804498434 0.031672564759 
-0.83649373101 0.54705782377 0.031717115815 -0.83817062325 0.54447870673 0.031826784795 -0.84034975655 0.54110144509 0.031961113696 
-0.8430496622 0.53687592398 0.032117118677 -0.84579083066 0.5325381403 0.032264530124 -0.84869609384 0.52788693894 0.03240864079 
-0.85137350082 0.52355035674 0.032529771846 -0.85376087968 0.51964203608 0.032626900922 -0.85587916496 0.516140841 0.032703015625 
-0.85762168245 0.51323681396 0.032757023385 -0.85893794123 0.51102872439 0.032791095715 -0.85995115829 0.50932050666 0.032811992471 
-0.86058731199 0.50824424815 0.032821679853 -0.860775421 0.50792547864 0.03282350915 -0.86080777139 0.50787064218 0.03282364267 
-0.86052527409 0.50834912444 0.032824081566 -0.85994978967 0.50932176803 0.03282827823 -0.85931432136 0.51039264773 0.03283659917 
-0.85857986188 0.51162629277 0.032850530013 -0.85769460329 0.51310755328 0.032872575979 -0.85671829763 0.51473407489 0.032902745439 
-0.855745151 0.51634801863 0.032938734145 -0.85484326118 0.51783730268 0.032977670887 -0.85380794904 0.5195392948 0.033028886021 
-0.8529963623 0.52086783304 0.033074255882 -0.85200831796 0.522478547 0.033135993231 -0.85109206353 0.52396574241 0.033199400284 
-0.85013742315 0.52550864242 0.033272037764 -0.84919148977 0.52703087723 0.033350684533 -0.84822934543 0.52857251362 0.033437634397 
-0.84703473991 0.53047738232 0.033554377223 -0.84592268999 0.53224152474 0.033671381045 -0.84461850171 0.53429944167 0.033818533354 
-0.84322438742 0.53648629777 0.033986537912 -0.84168093887 0.53889203045 0.034184450666 -0.84006443148 0.54139458924 0.034404210627 
-0.83832919863 0.54406184774 0.03465343498 -0.83650899756 0.54683881095 0.034928667953 -0.83457454283 0.5497670313 0.03523554672 
-0.83261840162 0.55270433575 0.035560013063 -0.83064565152 0.55564279581 0.035901045561 -0.82847837532 0.55884399191 0.036290140981 
-0.82645929014 0.56180129266 0.03666536923 -0.82444188137 0.56473242302 0.037052322791 -0.82243227639 0.56762904339 0.03744889655 
-0.82053236795 0.5703466135 0.037833498521 -0.81867270861 0.57298720589 0.038218556647 -0.81685506258 0.57554987834 0.038602387125 
-0.8153764622 0.57762137707 0.038920041714 -0.81384123568 0.57975987212 0.039254729424 -0.81268768162 0.58135853612 0.039509297959 
-0.81155016402 0.58292816798 0.039762825136 -0.81046646706 0.58441733271 0.040006086975 -0.81010410946 0.5849139206 0.040087869958 
-0.81010410946 0.5849139206 0.040087869958 
