# vtk DataFile Version 4.1
vtk output
ASCII
DATASET POLYDATA
POINTS 117 float
20.5994 2.27424 130.021 21.2366 2.24895 126.471 21.8726 2.22363 122.919 
22.5038 2.19822 119.363 23.1266 2.17264 115.8 23.7375 2.14682 112.227 
24.3331 2.12068 108.643 24.9103 2.09415 105.045 25.4659 2.06714 101.433 
25.9973 2.03955 97.8067 26.5018 2.01128 94.1673 26.9774 1.98224 90.5169 
27.4221 1.95231 86.8584 27.8343 1.92137 83.1958 28.2129 1.88929 79.5341 
28.5567 1.85594 75.8791 28.8654 1.82119 72.2371 29.1386 1.78488 68.6152 
29.3762 1.74687 65.0207 29.5785 1.707 61.4611 29.7461 1.66512 57.9438 
29.8796 1.62105 54.476 29.9798 1.57464 51.0646 30.0476 1.52572 47.7156 
30.0842 1.47409 44.4343 30.0905 1.41961 41.2252 30.0676 1.36207 38.0914 
30.0166 1.3013 35.0353 29.9384 1.23713 32.0576 29.8338 1.16936 29.1583 
29.7036 1.09783 26.3359 29.5483 1.02235 23.5877 29.3685 0.942756 20.9103 
29.1645 0.858879 18.2989 28.9362 0.770567 15.7484 28.6838 0.677677 13.2527 
28.4069 0.58008 10.8052 28.1055 0.477665 8.39928 27.779 0.370343 6.02791 
27.427 0.258047 3.68424 27.0489 0.140737 1.36158 26.6442 0.0184044 -0.946395 
26.2124 -0.108926 -3.24549 25.753 -0.241193 -5.54091 25.2655 -0.378297 -7.83711 
24.7496 -0.520097 -10.1378 24.2051 -0.666407 -12.4456 23.632 -0.816997 -14.7627 
23.0303 -0.97159 -17.0898 22.4002 -1.12987 -19.4272 21.7423 -1.29146 -21.7741 
21.0573 -1.45595 -24.1289 20.3458 -1.6229 -26.4893 19.609 -1.79181 -28.8523 
18.848 -1.96216 -31.2144 18.0641 -2.1334 -33.5717 17.2588 -2.30496 -35.9198 
16.4337 -2.47625 -38.2543 15.5904 -2.64668 -40.5706 14.7306 -2.81565 -42.864 
13.856 -2.98257 -45.1303 12.9683 -3.14687 -47.3654 12.069 -3.308 -49.5654 
11.1598 -3.46544 -51.7271 10.242 -3.61869 -53.8479 9.31683 -3.76732 -55.9257 
8.38537 -3.91092 -57.959 7.44847 -4.04916 -59.9472 6.50675 -4.18173 -61.8903 
5.56061 -4.30838 -63.7892 4.61019 -4.42894 -65.6453 3.65541 -4.54326 -67.4608 
2.69597 -4.65125 -69.2386 1.73133 -4.75287 -70.9821 0.760792 -4.84814 -72.6952 
-0.216524 -4.9371 -74.3822 -1.20162 -5.01982 -76.0477 -2.19558 -5.09642 -77.6968 
-3.19956 -5.16705 -79.3344 -4.21471 -5.23186 -80.9654 -5.24216 -5.29104 -82.595 
-6.28298 -5.34481 -84.2279 -7.33812 -5.39337 -85.8688 -8.40839 -5.43695 -87.5217 
-9.49444 -5.47582 -89.1907 -10.5967 -5.51022 -90.8792 -11.7155 -5.54042 -92.5902 
-12.8508 -5.56672 -94.326 -14.0024 -5.58941 -96.0887 -15.1698 -5.60879 -97.8798 
-16.3524 -5.62519 -99.7 -17.5493 -5.63894 -101.55 -18.7595 -5.65039 -103.429 
-19.9816 -5.65989 -105.338 -21.2142 -5.66779 -107.275 -22.4558 -5.67446 -109.239 
-23.7047 -5.68026 -111.228 -24.9592 -5.68555 -113.241 -26.2176 -5.69067 -115.276 
-27.478 -5.69595 -117.33 -28.7389 -5.70171 -119.401 -29.9985 -5.70823 -121.488 
-31.2553 -5.71577 -123.587 -32.5078 -5.72456 -125.696 -33.7549 -5.73477 -127.814 
-34.9955 -5.74657 -129.937 -36.2288 -5.76004 -132.066 -37.4541 -5.77526 -134.196 
-38.6711 -5.79223 -136.329 -39.8797 -5.81092 -138.461 -41.0801 -5.83126 -140.593 
-42.2726 -5.85314 -142.723 -43.458 -5.8764 -144.852 -44.637 -5.90085 -146.979 
-45.8109 -5.92627 -149.104 -46.9808 -5.95243 -151.228 -48.1482 -5.97905 -153.351 

LINES 1 118
117 116 115 114 113 112 111 110 109 108 107 106 105 104 103 102 101 100 99 98 97 96 95 94 93 92 91 90 89 88 87 86 85 84 83 82 81 80 79 78 77 76 75 74 73 72 71 70 69 68 67 66 65 64 63 62 61 60 59 58 57 56 55 54 53 52 51 50 49 48 47 46 45 44 43 42 41 40 39 38 37 36 35 34 33 32 31 30 29 28 27 26 25 24 23 22 21 20 19 18 17 16 15 14 13 12 11 10 9 8 7 6 5 4 3 2 1 0 

CELL_DATA 1
FIELD FieldData 2
LengthArray 1 1 double
302.97993276 
TortuosityArray 1 1 double
0.038638259585 
POINT_DATA 117
FIELD FieldData 8
RadiusArray 1 117 double
57.711678014 57.86215546 59.843308154 60.290186128 60.547957345 62.051842553 62.30203737 62.260579807 61.534264206 
61.466400432 61.407096116 60.566640402 60.517664822 59.382260018 59.210350471 59.154953465 58.321729511 57.637054037 
57.616544415 56.87143268 56.040480444 55.864243247 54.868477244 54.736765171 54.533452655 53.902921014 53.868233233 
53.618351546 53.279493441 53.242004992 53.130984749 52.925395883 52.773269265 52.657013903 52.286783597 52.25783165 
52.226998067 52.020623587 51.983184731 51.809521361 51.56212043 51.46891286 51.058824705 51.011106299 50.99906796 
50.659953655 50.501116291 50.184795888 50.15691613 49.922317344 49.677677031 49.371706063 49.32675043 49.154554327 
49.137427986 49.025639197 48.901183181 48.838808411 48.410243628 48.397333011 48.347710009 48.183828909 48.178643846 
48.10500699 47.98731416 47.959782265 48.010120252 48.090191791 48.141297394 48.198393288 48.210695059 48.224798829 
48.223691506 48.275350631 48.276701827 48.301243171 48.309076977 48.310338762 48.331798671 48.390155435 48.6210467 
48.723394769 48.871075638 48.952570651 48.958977072 49.124720573 49.134787104 49.216322688 49.332944046 49.47115796 
49.464969666 49.455937999 49.587752989 49.741313438 49.751107809 49.738158885 49.8468167 49.986003222 50.072314972 
50.07826212 50.095950037 49.947870112 50.00365224 50.009394116 50.038745387 49.902094428 49.801022002 49.796402956 
49.684314258 49.718449836 49.689520341 49.517840384 49.438698015 49.436774588 49.295692225 49.074673933 49.015524748 

EdgeArray 2 117 int
8635 8635 4596 9256 9255 9255 8686 9908 9908 
9908 4097 4097 9843 9843 10523 10523 9914 9911 
7376 9914 9839 7376 12160 10739 10737 10740 9896 
11157 12154 11157 12154 12155 12152 12152 12150 12150 
12144 12146 10537 10537 9754 9754 8788 8788 12254 
11827 10731 10731 11876 11876 12586 12586 12602 12606 
13300 13300 14692 14101 14023 13378 14034 14682 14016 
14016 14683 14683 9333 9333 15737 15737 15740 15740 
14010 14010 11408 11408 12005 12005 16299 16299 11405 
11405 14211 14211 14659 14659 9967 9967 14235 14235 
14666 14666 16782 13998 14665 14665 16789 16790 7558 
7558 14664 14664 14996 14996 16780 16780 14982 14982 
9923 9923 15721 15721 18888 17076 19395 19395 18870 
18870 16630 16630 18866 18866 21487 21487 21481 21481 
18063 18063 17277 17277 18451 18451 17970 17970 18067 
18067 18066 18066 18073 18071 18071 18071 18235 18234 
18235 18235 15518 18051 18906 15518 19926 18906 19926 
19926 8470 19924 16720 8470 16720 16720 15637 15637 
23879 17104 23878 23879 23880 23878 23880 23880 20515 
18226 20515 12034 12034 17267 12816 12816 16734 16734 
23875 23873 21233 23873 20339 20339 13460 19662 20807 
19662 20807 20267 19646 19177 20338 19897 23872 23860 
23860 12611 21333 21333 21674 21682 18275 21343 18275 
22051 22051 18825 21335 22066 23144 23143 23142 23144 
22060 22060 20874 20874 22747 22747 23146 23146 18337 
18337 23855 22088 22475 22475 24183 24183 23630 23630 

EdgePCoordArray 1 117 double
0 0.956 0 0.136 0 0 0 0 0.044 
0.496 0.96 0.9 0.892 0.76 0.212 0.188 0 0 
0.096 0 0 0 0.94 0 0 0 0.988 
0 0.276 0.232 0.456 0 0 0 0 0 
0 0 0 0 0 0 0 0 0 
0 0.04 0 0.936 0 0 0 0 0 
0 0 0.124 0 0 0 0 0 0 
0 0 0 0 0 0 0.72 0 0.244 
0 0.008 0.968 0.42 0 0.976 0.984 0 0 
0.884 0.86 0.216 0 0.108 0.072 0.248 0 0 
0.476 0.988 0 0.12 0.484 0.168 0.872 0.216 0.828 
0.028 0 0.036 0.02 0.128 0.46 0.332 0.392 0.62 
0 0 0 0 0 0.992 0 0 0 

CurvatureArray 1 117 double
0 0.00010486936718 0.00041864222905 0.00072593275744 0.0010195170632 0.0012932200278 0.0015414419262 0.0017608099373 0.0019493978113 
0.0021069425562 0.0022342538248 0.0023343705134 0.0024096886258 0.0024648439001 0.0025035730745 0.002530254957 0.0025491216078 0.00256448428 
0.0025796631167 0.0025981433987 0.0026239910329 0.0026592163331 0.0027075364634 0.0027708611257 0.0028520927192 0.0029528656827 0.0030746983052 
0.0032184140628 0.0033843936537 0.0035706881365 0.0037753873987 0.0039931667017 0.0042192178376 0.0044445965357 0.0046612993088 0.0048584122792 
0.0050270873109 0.0051591831937 0.0052466936423 0.0052879616443 0.005281797117 0.0052311834253 0.00514215426 0.0050215608257 0.004879430476 
0.0047238396661 0.0045634525943 0.0044066014663 0.004258525497 0.004124643863 0.0040077170219 0.0039111127189 0.0038363173524 0.003783190669 
0.0037529453784 0.0037451731788 0.003759788054 0.0037959947845 0.0038536999609 0.0039314230326 0.0040284720323 0.0041435756427 0.0042740626047 
0.0044183190386 0.0045714524524 0.0047298786584 0.0048879291452 0.0050374634116 0.0051708928 0.0052784931497 0.0053512303326 0.0053756315741 
0.0053462656413 0.0052549521023 0.0050943561767 0.004866231295 0.0045753756673 0.0042247697259 0.0038319241646 0.0034070915764 0.0029702010033 
0.0025372875352 0.0021244579421 0.0017515317635 0.0014311525869 0.0011831697947 0.0010192208026 0.00094301123142 0.00094125294686 0.00098540449616 
0.0010525459906 0.001124318875 0.0011946842737 0.0012592230208 0.0013143937785 0.0013619725843 0.0014028472375 0.001436203797 0.0014633060329 
0.0014837696556 0.0014977926199 0.0015034316783 0.0015031902895 0.0014914401554 0.001471585203 0.0014396021081 0.0013961660857 0.0013367601209 
0.0012635847273 0.0011740442584 0.0010670609259 0.00094768315238 0.00080611181019 0.0006556872418 0.00048778869012 0.00030960118714 0 

TorsionArray 1 117 double
0 0 -5.781232982e-05 -0.00012141801964 -0.00019680007349 -0.0002756077758 -0.00036374001068 -0.00045805446035 -0.00056426088122 
-0.00067984581248 -0.00080599643412 -0.00094913714494 -0.0011087976976 -0.0012864659232 -0.0014850210621 -0.0017042426585 -0.0019441164722 -0.0022045549561 
-0.0024840054878 -0.0027717044461 -0.0030625066827 -0.0033448454435 -0.0035979973186 -0.0038098468977 -0.0039550599554 -0.0040194698982 -0.0039850644213 
-0.0038380685229 -0.0035785873969 -0.003208347921 -0.0027437592267 -0.002192723554 -0.001581368922 -0.00093246741405 -0.00026716173434 0.0003933605757 
0.0010450116453 0.0016535684579 0.0022224015569 0.0027482387891 0.0032122472114 0.0036193612574 0.0039607262996 0.0042422879058 0.0044640303904 
0.0046196037314 0.0047262089038 0.0047814202737 0.0047906629532 0.0047655101499 0.0047179612067 0.0046609666701 0.0045954861738 0.0045371718192 
0.0044921637898 0.0044725824883 0.0044743544464 0.0045026667457 0.0045703608143 0.004672538594 0.0047988489394 0.004975253861 0.0051855901323 
0.0054335269186 0.0057420644908 0.0060801697548 0.0064825537581 0.0069643119704 0.0075124949484 0.0081311226084 0.0089054151969 0.0098164984469 
0.010843186956 0.012135564515 0.013716930474 0.015587335229 0.017985354692 0.021022297533 0.024846149162 0.029947275173 0.036615122831 
0.045838880998 0.058541788266 0.075923851388 0.098869303463 0.12424688759 0.14347737041 0.14374035637 0.12373108735 0.096866683119 
0.073703534669 0.056599265335 0.044456698287 0.035683640492 0.029394518119 0.024766650245 0.02119526023 0.018317942414 0.015979073261 
0.014021888704 0.012331360524 0.010863697495 0.0095408506148 0.0084082784452 0.0073476960362 0.006389516871 0.0055695631392 0.004841916079 
0.0041506795304 0.0035807857389 0.0028774295443 0.0024713423915 0.0021125530033 0.001406645601 0.0015132316524 0 0 

TangentArray 3 117 double
-0.176439431 0.0070142469338 0.98428650683 -0.176439431 0.0070142469338 0.98428650683 -0.17550910291 0.0070266990694 0.98445273137 
-0.17347280235 0.0070542812004 0.9848133955 -0.17036154883 0.0070975857546 0.985356061 -0.16622832448 0.0071578350062 0.98606131125 
-0.16114620026 0.0072367346296 0.98690401347 -0.15520456044 0.0073365325679 0.98785511069 -0.14850375575 0.0074599293712 0.98888370599 
-0.14115063701 0.0076101140419 0.98995887987 -0.13325438379 0.0077906322755 0.99105124754 -0.12492103504 0.0080053218509 0.99213439101 
-0.11625065498 0.0082584218499 0.99318557364 -0.10733423237 0.0085544891288 0.99418619145 -0.098250776408 0.0088984276397 0.99512190355 
-0.089067232872 0.0092955071229 0.99598223959 -0.079837019689 0.0097513834416 0.99676023236 -0.0705996419 0.010272152989 0.99745184016 
-0.061382013052 0.010864393061 0.99805521563 -0.052199760523 0.011535181295 0.9985700399 -0.043055927998 0.012292077901 0.99899704298 
-0.033943782487 0.013143119582 0.99933731945 -0.024847813999 0.014096735659 0.9995918508 -0.015744280526 0.015161523855 0.99976109437 
-0.0066031320317 0.01634613444 0.99984458919 0.0026112149286 0.017658867106 0.99984066029 0.01193732845 0.019107234484 0.99974617468 
0.021415562874 0.020697439904 0.99955639643 0.031086642973 0.022433733223 0.99926490394 0.040988312667 0.024317633637 0.99886365983 
0.051153211285 0.026347150325 0.99834321586 0.061605860957 0.028516128815 0.99769311328 0.072360669488 0.030813529514 0.99690243249 
0.08341936461 0.033223122328 0.99596055833 0.094768842229 0.03572345089 0.99485813139 0.1063805546 0.038288204449 0.99358803888 
0.11821044392 0.040887097739 0.9921464288 0.13020263804 0.043487195367 0.99053325885 0.14228954747 0.046054553471 0.98875308484 
0.15439783737 0.048556074101 0.9868148841 0.16645409927 0.050961286038 0.9847314254 0.17838740896 0.05324383126 0.98251871573 
0.19013514315 0.055382599507 0.98019456998 0.20164527503 0.057362285112 0.9777774549 0.21287955305 0.059173425458 0.97528498482 
0.22381423927 0.060811941087 0.97273279688 0.23443856841 0.062278408515 0.97013398944 0.24475564467 0.063577014611 0.96749813313 
0.25477933951 0.06471450999 0.96483134296 0.26453192219 0.065699213483 0.9621364121 0.27404210983 0.066540056415 0.95941301999 
0.28334347951 0.067245824714 0.95665797006 0.29247356966 0.067824536373 0.95386531718 0.30147010976 0.068283047042 0.95102744356 
0.31037090842 0.068626713793 0.94813515564 0.31921356072 0.068859255828 0.94517781689 0.32803385854 0.068982497688 0.94214393946 
0.33686517365 0.068996552687 0.939021475 0.34573833437 0.068899828237 0.9357979578 0.35468068009 0.068688830098 0.93246096958 
0.36371532732 0.068358448233 0.9289985378 0.37286146152 0.067902328605 0.92539915943 0.38213234678 0.067312549732 0.9216528035 
0.39153530072 0.06658021621 0.91775115532 0.40107007224 0.065695834246 0.91368859822 0.41072755145 0.064649257837 0.90946322187 
0.42049030562 0.063430893239 0.90507702692 0.43032938339 0.062031891229 0.90053798713 0.44020408302 0.060444679532 0.89586093006 
0.45006241329 0.058664237801 0.89106808458 0.45984142935 0.056689162285 0.88618970809 0.46946531793 0.054521529489 0.88126597466 
0.47884975525 0.052168297589 0.87634546876 0.48790733221 0.049642284951 0.87148268986 0.49654499236 0.046961576117 0.86673968464 
0.50467141227 0.04414971339 0.86218186507 0.51220533757 0.041235272665 0.85787256889 0.51907334392 0.038250487989 0.85387338862 
0.52521753389 0.035230211862 0.85023842201 0.53059864353 0.032210586981 0.84701095481 0.53519504083 0.029227054933 0.84422274758 
0.53900580904 0.026313444829 0.84189093144 0.54204508443 0.023500472692 0.84002074631 0.54434395183 0.020814437322 0.83860385243 
0.54594460546 0.018277666629 0.83762188049 0.54689864938 0.015908099679 0.8370476687 0.54726428919 0.013718677226 0.83684741481 
0.54710043392 0.011718295719 0.83698494416 0.54646414536 0.0099126729507 0.8374238334 0.54541202504 0.0083044400002 0.83812693502 
0.5439984972 0.0068932820944 0.83905787507 0.54227216743 0.0056771492272 0.84018370991 0.54027639675 0.0046524891821 0.84147475866 
0.53804782036 0.0038139843051 0.84290568661 0.53562136677 0.0031554405007 0.84445236376 0.53302824049 0.0026697540803 0.84609323792 
0.53029393844 0.0023489174127 0.8478106047 0.52744200396 0.0021842702058 0.84958823051 0.52449432122 0.0021659369064 0.85141119074 
0.52147102125 0.0022833852199 0.85326593753 0.5183917063 0.0025252940635 0.85513955688 0.51527718601 0.0028792675334 0.85701874623 
0.51214704202 0.0033321556703 0.85889132263 0.50902353697 0.0038695800332 0.86074390219 0.50593059943 0.0044764801316 0.86256257146 
0.50289213606 0.0051369470088 0.8643339119 0.49993481935 0.0058341100643 0.86604338203 0.49708871052 0.0065505912656 0.86767499885 
0.49438556575 0.007268523671 0.86921233363 0.49185682954 0.0079700393549 0.87063961414 0.48953717168 0.0086370905835 0.87193965285 
0.48745632251 0.0092521837361 0.87309835113 0.48564888588 0.0097990487222 0.87409904375 0.48414536199 0.010262560337 0.87492739603 
0.48297108576 0.010629116611 0.87557178587 0.48215345689 0.010887737834 0.87601912147 0.48215345689 0.010887737834 0.87601912147 

NormalArray 3 117 double
-0.98424322089 -0.013035216225 -0.17633877984 -0.98424322089 -0.013035216225 -0.17633877984 -0.98440745367 -0.013207317892 -0.17540676128 
-0.98476578029 -0.013407624494 -0.17336837536 -0.98530221299 -0.01392191639 -0.17025195837 -0.98599732222 -0.01471417632 -0.16611072689 
-0.98682491596 -0.015811397431 -0.16101734361 -0.98775431928 -0.017251500578 -0.1550606026 -0.98875291336 -0.019047156935 -0.14834042649 
-0.98978643295 -0.021269170311 -0.14096254657 -0.9908224714 -0.023924283251 -0.13303555482 -0.9918294205 -0.027078622527 -0.12466414412 
-0.99277799496 -0.0307923252 -0.11594690782 -0.99364148085 -0.035118835965 -0.10697324386 -0.99439480873 -0.040127030377 -0.097820170765 
-0.99501426055 -0.045881183926 -0.088552460553 -0.9954768395 -0.052439128331 -0.079221208294 -0.9957594567 -0.059851469731 -0.069863480924 
-0.9958378486 -0.068163690404 -0.060503641231 -0.99568722501 -0.077395833044 -0.051155009358 -0.99528647409 -0.087498418526 -0.041819388438 
-0.99461144802 -0.098450840004 -0.032488452953 -0.99365086917 -0.11010061853 -0.023147440271 -0.99239798435 -0.12229687857 -0.013773675826 
-0.99086258356 -0.13480543597 -0.0043399231559 -0.9890721236 -0.14734125727 0.0051853858137 -0.98706857955 -0.15961046099 0.014836442205 
-0.98491596018 -0.17126883307 0.02464829012 -0.98268861797 -0.18199447132 0.034656781702 -0.98046290317 -0.19151207655 0.044895657287 
-0.97831805831 -0.19956278235 0.05539379653 -0.97630859265 -0.20601593363 0.066173763688 -0.97449553091 -0.21069271745 0.077246611892 
-0.97289043605 -0.21361638966 0.088612851902 -0.97151229858 -0.21473851207 0.10025579858 -0.97033739331 -0.21417049159 0.1121442985 
-0.96935085739 -0.21195749541 0.12422936617 -0.96852167552 -0.2081999146 0.13644984286 -0.96780068907 -0.20307688981 0.1487333287 
-0.96716463423 -0.19665126193 0.16099953873 -0.96657126375 -0.18908264765 0.17316969844 -0.96598707592 -0.18050459352 0.18516765612 
-0.96538437186 -0.17103546293 0.19692609018 -0.96473062431 -0.1608363048 0.20839027227 -0.96400876693 -0.14999517133 0.21951889638 
-0.96319200216 -0.13866721263 0.23028801776 -0.96226103583 -0.126977411 0.2406874239 -0.96120374675 -0.11500646579 0.2507207013 
-0.96000057996 -0.10289761504 0.26040539029 -0.95864277241 -0.090720613657 0.26976620465 -0.95711915267 -0.078570514448 0.27883615591 
-0.9554255095 -0.066474957069 0.28765113572 -0.95355551112 -0.054469062311 0.29625159655 -0.95150301287 -0.042581794172 0.30467820287 
-0.94926441198 -0.030783914303 0.31296873129 -0.94683238681 -0.01906940925 0.3211616243 -0.94420066773 -0.0073564912328 0.3292885985 
-0.94135708124 0.004341502307 0.33738404965 -0.93829050728 0.01612451718 0.34547203056 -0.93498563396 0.028046198842 0.35357499208 
-0.93142502892 0.040170783914 0.3617094464 -0.92759017814 0.05250218152 0.36989185223 -0.92345747495 0.065219588902 0.37811730612 
-0.9190083217 0.078246822073 0.38639505624 -0.91421456185 0.091769380544 0.39470256612 -0.90905358585 0.10580910268 0.40302110594 
-0.90350325523 0.12040359587 0.41132085029 -0.89753151309 0.13572086659 0.41954383487 -0.89111088418 0.15185087714 0.42762448855 
-0.88421181742 0.16889868618 0.4354798454 -0.87680524878 0.1869561665 0.44301235595 -0.86880282884 0.20648330832 0.45005142815 
-0.86017491694 0.22744288874 0.4564743636 -0.85080572498 0.25022808045 0.4620774027 -0.84050992522 0.27537107831 0.46659815134 
-0.82906812455 0.30326968893 0.46975902399 -0.81615267216 0.3344336878 0.47122067462 -0.80107364387 0.37014824715 0.47039482589 
-0.7831216648 0.41095524381 0.46672930667 -0.76076850199 0.45872909195 0.45912842057 -0.73196823465 0.51490122538 0.44620536927 
-0.693239441 0.58157996103 0.42565693507 -0.63856245007 0.66133076048 0.39354748456 -0.55932760802 0.75404044221 0.34434813549 
-0.44075143981 0.85650532369 0.26858294582 -0.26958341 0.94991282005 0.15808358346 -0.041709953139 0.99907031828 0.010898575383 
0.20878141241 0.96639015189 -0.15000132055 0.42944253586 0.85514444944 -0.29035681323 0.58585596312 0.71133684993 -0.38829457427 
0.6868383322 0.57075036578 -0.44999680598 0.74940530043 0.44888770963 -0.48671502939 0.78858646071 0.34616568437 -0.50823293179 
0.81331961405 0.26030247495 -0.52034010698 0.82907708119 0.18802515031 -0.52657168201 0.83914346906 0.12627747311 -0.52904842701 
0.84547582555 0.072749343486 -0.52903512306 0.84927145828 0.026070167034 -0.52731237093 0.85133691595 -0.014785409381 -0.5244109526 
0.85222279454 -0.05089822329 -0.52069730106 0.85232251618 -0.082681492396 -0.51643983119 0.85190690126 -0.11082994614 -0.51183137322 
0.85120525537 -0.13550593105 -0.50703821935 0.85034487222 -0.15729670497 -0.50216665051 0.84945239198 -0.17634558046 -0.49732571823 
0.8486027973 -0.19293975968 -0.49259267306 0.84786342167 -0.20722070913 -0.48804425609 0.84719050752 -0.21979193182 -0.48369386049 
0.8466730954 -0.23041494769 -0.47963905325 0.84624294086 -0.23960448489 -0.47588084209 0.84590723674 -0.24741095693 -0.47247091468 
0.84585923438 -0.25303930322 -0.46956710558 0.84548507825 -0.25925092624 -0.46684466336 0.84560404976 -0.26244397875 -0.46484077816 
0.8454395569 -0.2659905326 -0.46312092611 0.84504550337 -0.26959277344 -0.46175516645 0.84504550337 -0.26959277344 -0.46175516645 

BinormalArray 3 117 double
0.011593503698 -0.99989043574 0.0092036511279 0.011593503698 -0.99989043574 0.0092036511279 0.011769449647 -0.99988808987 0.0092351394538 
0.011981018932 -0.99988522977 0.0092726729245 0.012509666821 -0.99987789481 0.0093650261898 0.013320086821 -0.99986612024 0.0095035190248 
0.014439091797 -0.99984880326 0.0096893366596 0.015904375852 -0.99982426507 0.0099242032965 0.017728814034 -0.99979075574 0.010204601241 
0.019982862962 -0.99974482172 0.01053454457 0.022673759675 -0.99968341725 0.010907149147 0.025867656073 -0.99960125201 0.011322603286 
0.02962495469 -0.9994916864 0.011778407458 0.033999560324 -0.99934653053 0.012269548546 0.039060841141 -0.99915496267 0.01279106214 
0.044873704294 -0.99890365427 0.013335672239 0.051496721361 -0.99857651101 0.01389386009 0.058981310255 -0.99815443917 0.014454085809 
0.067373791384 -0.99761499401 0.015003198347 0.076695077784 -0.99693371125 0.015525476604 0.086896614192 -0.99608881711 0.016001464481 
0.097958598925 -0.99505511933 0.016414091098 0.1097293777 -0.99382047466 0.01674299333 0.12205883124 -0.99237775151 0.016971742077 
0.13471354478 -0.99073724989 0.017086911095 0.14740934799 -0.98892806529 0.017081153498 0.15985343119 -0.98699514403 0.016954828305 
0.17170301411 -0.98500690495 0.016717420434 0.18263816889 -0.98304361044 0.016387777144 0.19238620983 -0.98118896102 0.015992780801 
0.20069161858 -0.97953076704 0.015567615777 0.20742769778 -0.97813305102 0.015148752629 0.21242032329 -0.97706658177 0.014781780712 
0.21569749433 -0.97635252968 0.014502714473 0.21721583796 -0.97601803594 0.014355251716 0.21709104255 -0.97604560034 0.014368900825 
0.21537225037 -0.97642319994 0.014578353626 0.21216276087 -0.97711906102 0.015010113199 0.2076427483 -0.97807911486 0.015675909831 
0.20187589778 -0.97927043703 0.01659918809 0.19502057567 -0.98063790447 0.017784132847 0.18720817685 -0.98213195964 0.019233106125 
0.17855431082 -0.98370708958 0.020945643809 0.16921585498 -0.98531276826 0.022907272211 0.15927772344 -0.98691436016 0.025112795878 
0.14889040694 -0.9884701877 0.027537878584 0.13817473201 -0.98994855267 0.030159683431 0.12720861464 -0.99132813742 0.032961982975 
0.11613085133 -0.99258456215 0.035909780725 0.1050090332 -0.99370689019 0.038983577845 0.093935348093 -0.99468542522 0.042155132864 
0.082937135341 -0.99551950214 0.045413130702 0.072049276584 -0.99620929202 0.048743699358 0.061300810913 -0.99675684913 0.052134386826 
0.050665326928 -0.99716735044 0.055590465668 0.040138933054 -0.99744411398 0.059110959522 0.029646023616 -0.99759074627 0.062720142174 
0.019201572457 -0.99760745139 0.066412894382 0.0087136733184 -0.99749326495 0.0702229185 -0.0018653332075 -0.99724382944 0.074170514234 
-0.012592703051 -0.99685175963 0.078281499443 -0.023468956549 -0.99630958778 0.082561573222 -0.034657776982 -0.99559802424 0.087082791771 
-0.046084844971 -0.99470825353 0.091824165769 -0.057918322308 -0.99361080819 0.096866040405 -0.070174472031 -0.99228267507 0.10222835332 
-0.082884079639 -0.99069647011 0.10793856335 -0.096196698485 -0.98880326195 0.11408025403 -0.11018964285 -0.98655347135 0.12070828795 
-0.12495313557 -0.98388604066 0.12788656262 -0.14056463128 -0.98073122245 0.13567554587 -0.15742922175 -0.97692990854 0.14430521104 
-0.17550505451 -0.9723930281 0.15378483265 -0.19513086253 -0.96691341458 0.16432405541 -0.21676285697 -0.96019028302 0.1762058008 
-0.24073389975 -0.95188145196 0.18965466229 -0.26747057387 -0.94151673419 0.20495299792 -0.29806690645 -0.92818488207 0.22277554619 
-0.33296696566 -0.91097454397 0.24343044186 -0.37375977025 -0.88799217242 0.26790583394 -0.42165005838 -0.85675113502 0.29696585815 
-0.47842639482 -0.81306355935 0.3317164952 -0.54628300706 -0.74972618537 0.37347760732 -0.62517380704 -0.65649811173 0.4220994436 
-0.71251853033 -0.51581446023 0.4756603689 -0.79260750208 -0.31210986315 0.52379459807 -0.83591989902 -0.040869267566 0.54732771297 
-0.81061176715 0.25681268636 0.5262659091 -0.71899655509 0.5182950024 0.46304885732 -0.5994151428 0.7028021928 0.38310646611 
-0.48199454403 0.82109469772 0.30575277088 -0.37991129507 0.89357013945 0.23916482551 -0.29365423393 0.9381618588 0.18335625865 
-0.22139500538 0.96551958813 0.13695319104 -0.16043984824 0.98215914497 0.098094184596 -0.1082549453 0.991991367 0.065069152605 
-0.062920324705 0.9973474899 0.036592582988 -0.023300699781 0.9996577291 0.011895462801 0.01145262197 0.99988834396 -0.0095988053031 
0.042240767692 0.99870123511 -0.028487901412 0.069400052329 0.99657282409 -0.045013764912 0.09350964203 0.99383521414 -0.059561010655 
0.11469533807 0.99077093184 -0.072235310183 0.13344900559 0.98754380812 -0.083358202656 0.14988282865 0.9843181383 -0.093021181985 
0.16423395479 0.981197157 -0.10138711548 0.17661481986 0.97827682221 -0.10854337631 0.18753948341 0.97552478003 -0.11480568671 
0.19679324657 0.97306532178 -0.12006788771 0.20481636723 0.97083786973 -0.12459569182 0.2116466498 0.96887213762 -0.12842303752 
0.21658367727 0.96741175728 -0.13117165325 0.22203635311 0.96576028904 -0.13418987296 0.2248489704 0.96489265614 -0.13573909768 
0.22797123932 0.96391703919 -0.13745201197 0.23114095535 0.9629128692 -0.13918572157 0.23114095535 0.9629128692 -0.13918572157 

