# vtk DataFile Version 4.1
vtk output
ASCII
DATASET POLYDATA
POINTS 186 float
-0.38673 -0.225966 -158.717 -0.316378 -0.253963 -157.729 -0.246091 -0.281955 -156.741 
-0.176064 -0.309929 -155.75 -0.106489 -0.33787 -154.756 -0.0375502 -0.365762 -153.758 
0.0305766 -0.393585 -152.754 0.0977313 -0.421315 -151.743 0.163771 -0.448926 -150.724 
0.228573 -0.476384 -149.696 0.292038 -0.503651 -148.658 0.35409 -0.530683 -147.609 
0.414678 -0.557429 -146.55 0.473778 -0.583836 -145.479 0.531389 -0.609845 -144.398 
0.587536 -0.635393 -143.304 0.642264 -0.660417 -142.2 0.695641 -0.68485 -141.084 
0.74775 -0.708629 -139.957 0.798688 -0.731688 -138.819 0.848566 -0.753969 -137.671 
0.8975 -0.775414 -136.512 0.945611 -0.795972 -135.344 0.993022 -0.815599 -134.166 
1.03985 -0.834256 -132.978 1.08622 -0.851912 -131.781 1.13223 -0.868545 -130.574 
1.17797 -0.884141 -129.358 1.22355 -0.898692 -128.132 1.26903 -0.9122 -126.896 
1.31446 -0.924674 -125.65 1.3599 -0.936128 -124.393 1.40539 -0.946585 -123.125 
1.45092 -0.956071 -121.845 1.49652 -0.964619 -120.552 1.54218 -0.972265 -119.247 
1.58787 -0.979046 -117.928 1.63357 -0.985004 -116.594 1.67924 -0.990181 -115.246 
1.72485 -0.99462 -113.881 1.77035 -0.998362 -112.5 1.8157 -1.00145 -111.101 
1.86084 -1.00391 -109.685 1.90573 -1.0058 -108.251 1.95033 -1.00714 -106.798 
1.99462 -1.00795 -105.326 2.03855 -1.00827 -103.834 2.08211 -1.0081 -102.324 
2.12529 -1.00748 -100.795 2.1681 -1.0064 -99.2469 2.21053 -1.00487 -97.6808 
2.25263 -1.00289 -96.0972 2.29442 -1.00046 -94.4969 2.33594 -0.997569 -92.881 
2.37726 -0.994201 -91.2505 2.41843 -0.990342 -89.6067 2.45952 -0.985976 -87.9509 
2.50061 -0.981082 -86.2845 2.54177 -0.975639 -84.6089 2.58308 -0.969625 -82.9256 
2.62461 -0.96302 -81.2358 2.66644 -0.955801 -79.5408 2.70862 -0.94795 -77.8419 
2.75122 -0.939449 -76.1398 2.79428 -0.93028 -74.4354 2.83783 -0.920431 -72.7293 
2.88191 -0.909888 -71.0219 2.92652 -0.898641 -69.3132 2.97166 -0.886682 -67.6031 
3.01734 -0.874004 -65.8914 3.06352 -0.8606 -64.1773 3.11018 -0.846464 -62.4603 
3.15729 -0.831592 -60.7393 3.2048 -0.815977 -59.0134 3.25267 -0.799612 -57.2813 
3.30085 -0.782488 -55.5418 3.34929 -0.764595 -53.7937 3.39794 -0.745922 -52.0357 
3.44676 -0.726452 -50.2664 3.4957 -0.706171 -48.4847 3.54471 -0.68506 -46.6894 
3.59377 -0.663099 -44.8793 3.64282 -0.640268 -43.0535 3.69183 -0.616545 -41.211 
3.74077 -0.591909 -39.3511 3.7896 -0.566341 -37.473 3.83829 -0.539822 -35.5763 
3.8868 -0.512337 -33.6605 3.9351 -0.483874 -31.7253 3.98315 -0.454425 -29.7705 
4.03091 -0.423987 -27.7961 4.07833 -0.392562 -25.8021 4.12537 -0.360158 -23.7888 
4.17197 -0.326788 -21.7566 4.21809 -0.292474 -19.7061 4.26368 -0.257241 -17.6381 
4.30867 -0.221122 -15.5534 4.35302 -0.184155 -13.4533 4.39668 -0.146384 -11.3391 
4.4396 -0.107857 -9.21237 4.48173 -0.0686274 -7.07494 4.52304 -0.0287518 -4.92881 
4.5635 0.0117105 -2.77622 4.60307 0.0526983 -0.619588 4.64174 0.0941493 1.5385 
4.67951 0.136001 3.6953 4.71639 0.178192 5.84799 4.75238 0.220663 7.99366 
4.78751 0.263358 10.1294 4.82183 0.306222 12.2523 4.85537 0.349208 14.3595 
4.88821 0.392273 16.4484 4.9204 0.435378 18.5165 4.95204 0.478494 20.5615 
4.9832 0.521596 22.5814 5.01399 0.564666 24.5745 5.04451 0.607694 26.5395 
5.07485 0.650675 28.4751 5.10515 0.693611 30.3808 5.1355 0.736513 32.2562 
5.16602 0.779392 34.1012 5.19683 0.82227 35.9161 5.22805 0.865169 37.7014 
5.25978 0.908117 39.4579 5.29214 0.951145 41.1864 5.32524 0.994286 42.8882 
5.35919 1.03758 44.5644 5.39408 1.08106 46.2164 5.43002 1.12476 47.8455 
5.46711 1.16874 49.453 5.50545 1.21302 51.0403 5.54513 1.25766 52.6086 
5.58625 1.3027 54.1592 5.62891 1.34819 55.6933 5.67321 1.39417 57.212 
5.71924 1.4407 58.7165 5.76711 1.48784 60.2077 5.81692 1.53563 61.6867 
5.86879 1.58415 63.1548 5.92282 1.63345 64.6128 5.97913 1.68362 66.062 
6.03784 1.73471 67.5037 6.09906 1.78682 68.9391 6.16294 1.84002 70.3697 
6.22958 1.89439 71.797 6.29911 1.95003 73.2225 6.37166 2.00701 74.648 
6.44733 2.06543 76.0752 6.52625 2.12537 77.506 6.6085 2.1869 78.942 
6.69418 2.25009 80.3851 6.78335 2.315 81.8369 6.87606 2.38167 83.2992 
6.97233 2.45013 84.7733 7.07216 2.52039 86.2605 7.17551 2.59243 87.7619 
7.2823 2.66622 89.2781 7.39243 2.74167 90.8098 7.50575 2.81869 92.357 
7.62206 2.89714 93.9195 7.74112 2.97687 95.497 7.86266 3.05767 97.0885 
7.98635 3.13931 98.6929 8.11183 3.22152 100.309 8.23871 3.30403 101.935 
8.36654 3.38652 103.568 8.49489 3.46866 105.208 8.62327 3.55011 106.851 
8.75122 3.63052 108.495 8.87824 3.70954 110.139 9.00388 3.78685 111.78 
9.12769 3.86213 113.415 9.24926 3.93508 115.044 9.36823 4.00547 116.665 
9.48428 4.07309 118.275 9.59717 4.13778 119.875 9.70674 4.19946 121.463 
9.81289 4.2581 123.039 9.91564 4.31374 124.603 10.0151 4.36649 126.156 
10.1114 4.41654 127.697 10.2048 4.46415 129.229 10.2957 4.50963 130.751 
10.3846 4.55337 132.267 10.4719 4.59578 133.777 10.5582 4.63735 135.284 

LINES 1 187
186 185 184 183 182 181 180 179 178 177 176 175 174 173 172 171 170 169 168 167 166 165 164 163 162 161 160 159 158 157 156 155 154 153 152 151 150 149 148 147 146 145 144 143 142 141 140 139 138 137 136 135 134 133 132 131 130 129 128 127 126 125 124 123 122 121 120 119 118 117 116 115 114 113 112 111 110 109 108 107 106 105 104 103 102 101 100 99 98 97 96 95 94 93 92 91 90 89 88 87 86 85 84 83 82 81 80 79 78 77 76 75 74 73 72 71 70 69 68 67 66 65 64 63 62 61 60 59 58 57 56 55 54 53 52 51 50 49 48 47 46 45 44 43 42 41 40 39 38 37 36 35 34 33 32 31 30 29 28 27 26 25 24 23 22 21 20 19 18 17 16 15 14 13 12 11 10 9 8 7 6 5 4 3 2 1 0 

CELL_DATA 1
FIELD FieldData 2
LengthArray 1 1 double
294.36329951 
TortuosityArray 1 1 double
0.00040108243811 
POINT_DATA 186
FIELD FieldData 8
RadiusArray 1 186 double
47.386352508 47.457289913 47.911733417 48.03137929 48.11347159 48.845531889 49.286281177 49.646536214 49.995945221 
50.321893404 50.862169095 51.139673489 51.485137655 51.616890613 52.417750468 52.564218667 52.960126416 53.076464674 
53.54757413 53.967980181 54.072157461 54.244818129 54.411321672 54.489128599 55.112608443 55.193688434 55.491028726 
55.94169165 55.955621669 56.04736095 56.264596841 56.373310801 56.782549027 57.008535823 57.269684134 57.369594434 
57.531998527 57.610367898 57.897143519 58.035550381 58.208452485 58.45420925 58.620754507 58.792309613 58.904417605 
59.058164265 59.217839354 59.419142698 59.541966088 59.565927249 59.646165958 59.896902725 60.150343048 60.257952425 
60.319538308 60.756927246 61.107076798 61.273577622 61.405668598 61.467663716 61.538936745 61.646423056 61.791650431 
61.853769303 61.952538265 62.143660376 62.209008159 62.325894621 62.359762207 62.705563739 62.731868435 62.800030865 
62.813214828 62.946477172 63.0635184 63.265198733 63.309438721 63.332463836 63.386175579 63.589020449 63.664892014 
63.777931974 63.952420671 63.970988815 64.094515598 64.29990167 64.47211226 64.606884081 64.626296247 64.769397459 
65.048149447 65.152859795 65.409857821 65.455999237 65.482510724 65.603371148 65.843586883 65.978504928 65.988193557 
66.205832035 66.508877715 66.600088168 66.866986257 66.957902482 67.227840421 67.408381356 67.615598265 67.868843775 
68.041876319 68.522599744 68.77746924 68.835042513 68.949163886 69.166522273 69.167228422 69.497693902 69.554736176 
69.720472549 69.919472625 70.109869156 70.3271497 70.369238504 70.429297118 70.438235564 70.471911166 70.737460774 
70.886383371 70.926336093 71.099278172 71.240149983 71.285705604 71.570683911 71.67280574 71.706670184 71.826730974 
72.07509526 72.199374149 72.34565403 72.355924845 72.431282253 72.580527701 72.644010902 72.6808583 72.847421108 
72.875122628 72.899296896 72.984432254 73.125527441 73.157545163 73.24965499 73.298517393 73.393031337 73.448110689 
73.512055442 73.554548612 73.633488161 73.646870024 73.672008381 73.849080941 73.966386603 73.969266237 73.965295005 
74.030434024 74.028291911 74.045305163 74.049930099 74.036727239 74.008184254 73.949809373 73.853387603 73.782483988 
73.709556299 73.540057977 73.393967708 73.359944273 73.323593575 73.150696171 72.987894386 72.84392383 72.381077707 
72.169174963 71.98476985 71.955513289 71.334629519 70.820299555 70.626775393 
EdgeArray 2 186 int
16089 16089 16548 16543 16544 16544 16545 16545 16102 
16100 16100 16100 16096 16096 11795 11795 13134 13134 
14447 14447 13732 13732 15604 15604 16105 16105 16108 
16108 12336 12336 7308 7308 7650 7650 15610 15610 
9622 13399 13399 13399 16559 17191 17191 17191 17192 
17192 17193 12774 12774 12774 16563 16563 5081 5081 
10825 10825 13404 16113 16113 15886 15886 15886 8480 
13948 13948 13948 15630 15630 16847 16847 16848 16851 
15626 5158 5158 5158 16567 16567 16566 16566 14124 
17199 17199 17199 17201 17201 17202 17202 16571 17196 
16571 16571 16577 16575 16575 16575 5991 14201 15417 
16120 11506 16121 16121 16121 13645 13645 12596 10702 
12596 16122 16858 16858 16860 16860 20812 16161 20812 
20812 17945 17945 20815 18238 21021 18238 21021 21024 
21023 21026 20452 21026 20452 20452 20451 20451 18723 
19262 18723 18723 19263 19263 19654 20446 17302 10140 
17302 19001 19001 19001 8378 8378 14660 14660 19653 
17498 17498 19380 19380 21709 21709 21709 21708 21708 
21705 13151 13151 13151 13770 17093 17093 17093 13667 
17088 13665 19660 17098 19660 17098 17098 20563 20563 
19661 19661 14663 23316 23322 23317 19006 23322 19006 
14490 14490 17960 17960 17960 17967 22131 22131 23325 
23325 23326 23326 23326 13666 13666 16871 16871 21459 
21459 21460 21460 24077 24077 15643 24081 24718 16133 
22543 22543 20949 20949 21030 21030 21031 21029 19107 
21029 19107 19107 17974 19670 21032 21423 21032 21032 
20183 20183 24724 23722 24724 24721 24721 24721 24738 
24723 24738 24736 24737 24735 24735 24735 25199 24742 
25199 25198 25198 25198 22550 25774 25774 25773 25773 
25773 20571 20571 23456 20568 17984 20568 23466 23466 
24748 24751 14675 24751 24752 21881 24752 24755 20421 
24753 25122 20421 25122 25206 23728 25206 23730 25209 
25204 25209 25204 22085 22085 24235 24240 22291 22763 
22291 22763 22763 7851 25622 23734 25624 25620 25624 
25620 25620 14657 25621 24761 14657 24761 24765 24762 
24766 19178 19178 10853 17431 20962 10853 20962 21275 
25632 25632 25636 25636 14699 25625 25217 25217 25220 
25220 24781 25215 21290 21290 25645 25645 23480 26071 
26445 26445 26443 26443 24788 25222 13039 23260 13039 
17234 25994 25994 24787 27008 27018 27018 27012 27012 
27428 27303 27429 27432 27140 27432 27442 27442 10771 
10771 27518 27518 
EdgePCoordArray 1 186 double
0 0.68 0 0 0.008 0 0 0 0 
0 0 0 0 0 0 0 0 0 
0.004 0 0.044 0 0 0.016 0 0 0 
0 0.092 0.032 0 0.056 0 0 0 0.18 
0.58 0 0 0 0.012 0 0 0 0.936 
0 0.112 0 0.048 0.056 0.184 0 0 0.684 
0.092 0 0 0.472 0 0 0.18 0.912 0.34 
0.316 0.976 0 0 0.604 0 0 0.936 0.088 
0.06 0 0 0 0.536 0.08 0.044 0 0 
0.08 0 0.052 0 0.596 0.416 0.14 0 0 
0 0.084 0.184 0.32 0.192 0.14 0 0.368 0.02 
0.092 0 0 0 0 0 0 0.988 0.176 
0 0 0 0.136 0.812 0 0.996 0.196 0 
0 0.748 0.004 0 0.708 0.18 0.324 0 0.66 
0.44 0 0.056 0.236 0 0 0.656 0.508 0 
0.256 0.948 0.12 0.008 0.76 0.616 0.468 0.7 0.868 
0.656 0.088 0.556 0.832 0.88 0 0.084 0.636 0.868 
0 0.904 0.364 0.012 0.06 0 0.148 0.42 0.112 
0 0 0.832 0 0 0.768 0 0 0.36 
0 0 0.024 0.248 0.54 0 0.892 0 0 
0.12 0.82 0.9 0 0 0 
CurvatureArray 1 186 double
0 0.00010066891678 0.0004042686581 0.00069574028364 0.00097147394912 0.0012218509967 0.001436723931 0.0016173106007 0.0017568886544 
0.0018576892324 0.0019184610313 0.0019430317411 0.0019342847 0.0018995944869 0.0018416575881 0.0017661904963 0.001677020288 0.0015819552082 
0.0014829765106 0.0013851509821 0.0012907423747 0.0012043528433 0.0011244705456 0.0010554478438 0.00099451655146 0.00094255201512 0.00089796292191 
0.00085785195526 0.00082228090052 0.00078804333931 0.00075541415368 0.00072295641268 0.0006907551903 0.00065950879391 0.00062957098503 0.00060191917601 
0.00057744916399 0.00055689655485 0.00054033332259 0.00052760610876 0.00051827664345 0.00051093820359 0.00050431524852 0.0004972048209 0.00048857376105 
0.0004772111693 0.00046282369702 0.00044469209211 0.00042308092678 0.00039812975415 0.00036994477179 0.00033994537528 0.00030871034539 0.0002776813045 
0.00024851151838 0.00022338605389 0.00020453279116 0.00019429456358 0.00019331987419 0.00020082701021 0.00021439881651 0.00023117525527 0.00024866591436 
0.00026486966101 0.0002783909653 0.00028811744509 0.00029389763031 0.00029501974956 0.00029204731993 0.00028525775933 0.00027554980296 0.00026385003009 
0.00025166792683 0.00024016679151 0.0002306881395 0.00022418902646 0.00022119427866 0.00022144825423 0.00022449607215 0.00022947770183 0.00023550080361 
0.00024181435948 0.0002478568722 0.00025323173073 0.00025786394677 0.00026151693601 0.0002642893301 0.00026622371061 0.00026743602403 0.0002678850189 
0.0002679172438 0.00026734174721 0.00026633714516 0.00026490021734 0.00026313766645 0.00026084138048 0.00025816300142 0.00025487651208 0.00025086363483 
0.00024628610813 0.00024093142034 0.00023449186356 0.00022740151761 0.00021916707726 0.00020975783815 0.0001997044748 0.00018835241863 0.00017657411019 
0.00016414920899 0.00015182498654 0.00014047799997 0.00013124963671 0.00012614021952 0.00012694941624 0.00013530742767 0.00015142888753 0.0001745480352 
0.00020371949844 0.00023767015707 0.00027534082834 0.00031629470704 0.00035976736275 0.00040528805027 0.00045251210316 0.00050085043313 0.00055020377762 
0.00060046725284 0.0006513918233 0.00070329090779 0.00075565342726 0.00080936256099 0.00086420614036 0.000920325894 0.0009780074961 0.0010372723733 
0.0010982535846 0.0011604806025 0.0012230371822 0.0012863722923 0.0013478878322 0.0014075239659 0.0014638567312 0.0015144495342 0.0015576594533 
0.0015924830202 0.0016162769065 0.0016280648828 0.0016263754201 0.001610751886 0.001581035756 0.0015368573422 0.0014790770661 0.0014083056355 
0.0013275298648 0.0012362858077 0.0011369627004 0.0010312887138 0.000921061501 0.00080582957643 0.00068937093072 0.00057165471106 0.00045483696071 
0.00034397472848 0.00024916059932 0.00020321527806 0.00023858270608 0.00033320256311 0.00045309821369 0.00058265458952 0.00071678333027 0.00085082506801 
0.00098250562725 0.0011068614338 0.0012206480863 0.0013197807801 0.0013982982025 0.0014503492424 0.0014719987703 0.0014568586633 0.0014006138725 
0.0013011143429 0.0011569301429 0.00096935989888 0.00074224093163 0.00048179976589 0 
TorsionArray 1 186 double
0 0 -0.00093284938369 -0.0024658484805 -0.004241425249 -0.0056041604677 -0.0074611021184 -0.0094635701339 -0.011584640957 
-0.013913637586 -0.016440026077 -0.019269436312 -0.022473481107 -0.026037288633 -0.029954255656 -0.034248205146 -0.038974561212 -0.044001154562 
-0.049196075791 -0.05429285872 -0.058951158756 -0.062647660353 -0.065020868996 -0.065207396698 -0.063347952915 -0.058605137614 -0.052123840324 
-0.043525242947 -0.033459689038 -0.022780429814 -0.011173770365 6.3246686141e-05 0.011693308489 0.022906763041 0.033112900308 0.042199806529 
0.049557551559 0.054521708551 0.056484233623 0.055907526572 0.052815313131 0.047656220737 0.041336249007 0.034575523654 0.027467544791 
0.020277080595 0.013327505215 0.0062745265355 -0.0009162058305 -0.0088388504678 -0.017745990974 -0.027938756904 -0.040578129745 -0.056209537607 
-0.075055060907 -0.096234637381 -0.11530330347 -0.12513816776 -0.12114306788 -0.10452083529 -0.083015599901 -0.062306523903 -0.044805122297 
-0.030685128049 -0.018822005286 -0.0091184533839 -0.00046651459918 0.0079737229039 0.016004959024 0.024362832726 0.033532236012 0.042918069783 
0.052195764496 0.061037398705 0.067495032839 0.07066041901 0.069823130304 0.064927258 0.057453122764 0.049073977324 0.040714516578 
0.033236560935 0.027102179204 0.022383421224 0.018716953928 0.016241336146 0.014641018671 0.013798170377 0.013408440403 0.013392154741 
0.013592404983 0.01372079668 0.013887949785 0.013919872955 0.013641489551 0.013118782741 0.012344752429 0.011148941176 0.0097696679636 
0.0081265735653 0.0060005679225 0.0036379240945 0.00088374449451 -0.0026040519802 -0.0065428399853 -0.011482144352 -0.017745231326 -0.025603571899 
-0.036151899306 -0.049593167926 -0.066827641044 -0.086575488674 -0.10486463903 -0.11474638868 -0.11124651029 -0.096748100126 -0.07908872941 
-0.063169468584 -0.049753620147 -0.039769204638 -0.032389136924 -0.026702370164 -0.022301153966 -0.018913801858 -0.016142375017 -0.013870176935 
-0.012008162553 -0.010444764875 -0.0089601435158 -0.0076533051223 -0.0065676936976 -0.0054589029293 -0.0044959943545 -0.0036501461792 -0.0028196558055 
-0.0021215297883 -0.0015393907347 -0.00099154805548 -0.00056754354043 -0.00015468664574 0.00011468884949 0.00029913759014 0.00048769718043 0.00058217287002 
0.00066719977423 0.0006339555664 0.00047086651716 0.00039348931503 0.0001503545416 -0.00024508693493 -0.00059956098827 -0.0012853582102 -0.0021561851971 
-0.0032295082732 -0.0046889381075 -0.0067844278764 -0.0096411266737 -0.013568074091 -0.019696938698 -0.029092480453 -0.045048957618 -0.074514235275 
-0.13505620424 -0.26396502746 -0.40352848964 -0.29558860695 -0.15286717494 -0.082455377254 -0.049475880991 -0.032419675955 -0.022804833919 
-0.016644771956 -0.012524494564 -0.0099962625835 -0.008041283681 -0.0065142013707 -0.0053503494017 -0.0045410308267 -0.0038942525022 -0.0031774242119 
-0.0026434284006 -0.0022467456455 -0.0017231203489 -0.0013839599882 0 0 
TangentArray 3 186 double
-0.070940061648 0.028241770824 -0.99708069384 -0.070940061648 0.028241770824 -0.99708069384 -0.070694064305 0.028197393363 -0.99709942146 
-0.070157260934 0.028100046217 -0.99714008351 -0.069341364681 0.027950261551 -0.99720136283 -0.068263977584 0.0277478978 -0.99728134623 
-0.066951994811 0.027493867636 -0.99737731959 -0.065436789767 0.027188658749 -0.9974862422 -0.06375305644 0.026832515003 -0.99760491375 
-0.061938512041 0.026425969245 -0.99773006814 -0.060031634808 0.025969561491 -0.99785859955 -0.058070948194 0.025464206135 -0.9979876448 
-0.056093121166 0.024910933066 -0.99811472646 -0.054131039102 0.024310609777 -0.99823785986 -0.052213838142 0.023664220245 -0.99835550772 
-0.050367409448 0.022973395068 -0.99846649778 -0.048613669756 0.022240336314 -0.99857001685 -0.046969144064 0.021467238711 -0.99866563832 
-0.04544575373 0.020656551411 -0.99875321794 -0.044051730262 0.019811504008 -0.9988327935 -0.042791276956 0.01893578891 -0.99890457128 
-0.041664341576 0.018033236647 -0.99896891094 -0.040668248802 0.017108519754 -0.99902622192 -0.039797187452 0.016166566764 -0.99907698702 
-0.03904252595 0.015212530476 -0.99912174438 -0.038394076206 0.014252094977 -0.99916103442 -0.037839033422 0.013290759731 -0.99919545798 
-0.037364476137 0.012334443387 -0.99922557885 -0.036956057382 0.011388876127 -0.9992519919 -0.036599144596 0.01045966823 -0.99927528637 
-0.036279446599 0.0095521657992 -0.99929603116 -0.035982658917 0.0086712318473 -0.99931479424 -0.0356960352 0.0078214009894 -0.99933208632 
-0.035407356718 0.007006508135 -0.99934840168 -0.035105921853 0.0062297134266 -0.99936418033 -0.034782975453 0.0054935180707 -0.99937979061 
-0.03443143392 0.0047996317468 -0.99939553726 -0.034046019006 0.0041489863008 -0.99941165418 -0.033623493774 0.0035418133122 -0.99942829469 
-0.033162867464 0.0029775393829 -0.99944552552 -0.032664733082 0.0024548722728 -0.99946335041 -0.032131547217 0.0019719084076 -0.99948170331 
-0.031567725409 0.0015261998006 -0.99950044994 -0.030979064739 0.001114777576 -0.99951941193 -0.03037235055 0.00073434321266 -0.99953838399 
-0.029755514125 0.00038123968483 -0.99955713395 -0.029137180535 5.1490340047e-05 -0.9995754209 -0.028526327736 -0.00025881705153 -0.999593008 
-0.027932149855 -0.00055367855516 -0.99960966804 -0.027363521994 -0.00083701454487 -0.9996251983 -0.026829358861 -0.0011126341234 -0.99963940876 
-0.026337728993 -0.0013841987369 -0.99965214351 -0.025895629195 -0.0016550249133 -0.99966328195 -0.025509343664 -0.0019281483155 -0.99967272426 
-0.025183961681 -0.002206298129 -0.99968039909 -0.02492320216 -0.0024917965207 -0.99968626326 -0.024729547834 -0.0027865984416 -0.99969029421 
-0.024603794704 -0.0030922521488 -0.99969249835 -0.024545265789 -0.0034098176484 -0.99969290438 -0.024551963835 -0.0037399656191 -0.9996915593 
-0.024620184162 -0.0040829605789 -0.99968853948 -0.024744861396 -0.0044386443186 -0.99968394519 -0.024919556554 -0.0048064726033 -0.99967790489 
-0.025136639356 -0.0051855281724 -0.99967057557 -0.025387493248 -0.0055745232847 -0.99966214286 -0.025662411763 -0.0059719606094 -0.99965282789 
-0.02595149505 -0.0063761597187 -0.99964286847 -0.026244581123 -0.0067852365874 -0.99963252374 -0.026531361018 -0.0071973302584 -0.99962207124 
-0.026802357599 -0.007610589787 -0.99961178092 -0.02704882422 -0.0080232409471 -0.99960191512 -0.027262864881 -0.0084338275453 -0.99959272044 
-0.02743817904 -0.0088411345595 -0.99958440398 -0.027570068487 -0.009244255094 -0.99957712813 -0.027655184294 -0.0096426388614 -0.99957101313 
-0.027692001728 -0.010036070008 -0.99956612104 -0.027680411544 -0.010424717548 -0.99956246432 -0.027621512292 -0.010808929714 -0.99956001275 
-0.027517667129 -0.011189249101 -0.99955869197 -0.02737200231 -0.01156641032 -0.99955839831 -0.027188035617 -0.011941100412 -0.99955901319 
-0.026969626517 -0.012313947037 -0.99956040636 -0.026720657272 -0.012685448577 -0.99956244721 -0.026444766091 -0.013055831187 -0.9995650152 
-0.026145118894 -0.013425081378 -0.99956800666 -0.025824568432 -0.013792966403 -0.99957133099 -0.025485447378 -0.01415885796 -0.99957491901 
-0.025129574236 -0.014521926924 -0.99957872033 -0.024758295576 -0.014881081981 -0.99958270303 -0.02437273629 -0.015235037536 -0.99958684633 
-0.023973685941 -0.015582458967 -0.99959114109 -0.023561801111 -0.015921945979 -0.99959558481 -0.023137935012 -0.016252146279 -0.99960017192 
-0.022702914029 -0.016571796003 -0.99960489858 -0.022257701098 -0.016879830574 -0.99960975689 -0.021803661158 -0.017175452917 -0.99961472787 
-0.021342467492 -0.017458141968 -0.9996197839 -0.020876094942 -0.017727680433 -0.99962488865 -0.020407135548 -0.017984207225 -0.9996299901 
-0.019938277694 -0.018228200308 -0.9996350323 -0.019472397142 -0.018460482148 -0.99963995336 -0.019013077718 -0.018682180513 -0.99964467638 
-0.018563828131 -0.018894720439 -0.99964912536 -0.018128296787 -0.019099783611 -0.99965322143 -0.017710828942 -0.019299253722 -0.9996568738 
-0.017315291235 -0.019495191558 -0.9996600013 -0.0169458948 -0.019689779971 -0.99966251766 -0.016606914255 -0.019885277189 -0.99966433674 
-0.016302422139 -0.020083987754 -0.99966537625 -0.016036825878 -0.020288195021 -0.99966554875 -0.015814139497 -0.020500121014 -0.99966477283 
-0.015638517821 -0.020721916189 -0.99966296268 -0.015513849891 -0.020955576258 -0.99966003435 -0.015443938268 -0.021202918012 -0.99965590132 
-0.015432428329 -0.021465607383 -0.99965047284 -0.015482750293 -0.021744989939 -0.99964365644 -0.015597809947 -0.022042165533 -0.99963535915 
-0.015780195565 -0.022358027612 -0.99962548188 -0.01603245921 -0.022693110913 -0.99961391695 -0.016356072832 -0.023047694357 -0.99960056156 
-0.016752246461 -0.023421830549 -0.99958530406 -0.017221952359 -0.023815289521 -0.99956802487 -0.017765493246 -0.024227662144 -0.99954860194 
-0.018382783053 -0.024658528783 -0.99952690321 -0.019073304597 -0.0251072877 -0.99950279297 -0.01983616954 -0.025573415254 -0.99947612618 
-0.020670501725 -0.026056636852 -0.99944673797 -0.021575390676 -0.026556743078 -0.99941444952 -0.022550143971 -0.027073769961 -0.99937905821 
-0.023593997853 -0.027608093364 -0.99934034065 -0.024706569528 -0.028160448799 -0.9992980409 -0.025888172437 -0.028731803129 -0.99925186315 
-0.027139051728 -0.029323474704 -0.99920148404 -0.028459875972 -0.029936976948 -0.99914654224 -0.029851649514 -0.03057394055 -0.99908663948 
-0.03131550519 -0.031236273035 -0.9990213383 -0.032852497204 -0.031925735343 -0.99895017936 -0.034462929756 -0.032643636741 -0.99887271434 
-0.036146921712 -0.033391292478 -0.99878847692 -0.03790347662 -0.034169337403 -0.99869704257 -0.039730040275 -0.034977808022 -0.9985980557 
-0.041623547983 -0.035816210459 -0.99849120142 -0.043578834529 -0.036682887396 -0.99837630729 -0.045588440789 -0.037575244562 -0.99825337218 
-0.047643678904 -0.038489832333 -0.99812254391 -0.049733865168 -0.039422278979 -0.99798418153 -0.051846405138 -0.040366911251 -0.99783889619 
-0.053967477068 -0.041316987342 -0.99768753524 -0.056081909619 -0.042265435516 -0.99753117865 -0.058174211272 -0.043204400845 -0.99737111493 
-0.060228374003 -0.044125277729 -0.99720885617 -0.062228097514 -0.045019546939 -0.99704608934 -0.064157734465 -0.045877981491 -0.99688464524 
-0.066003307751 -0.046691856529 -0.99672635859 -0.067751691132 -0.04745267439 -0.99657310421 -0.06939027172 -0.048151828638 -0.99642681196 
-0.070908568314 -0.048780989464 -0.99628931039 -0.072297698866 -0.049332434927 -0.99616231288 -0.073548838534 -0.049798497073 -0.996047528 
-0.074654820931 -0.050171603523 -0.9959465186 -0.075609943052 -0.050444914759 -0.99586065646 -0.076408116789 -0.050611364581 -0.9957912881 
-0.077044304376 -0.050664449206 -0.99573956874 -0.077513230029 -0.050597762658 -0.995706566 -0.077810667603 -0.050405219715 -0.99569313236 
-0.077932952375 -0.050081653874 -0.99569989599 -0.077876570671 -0.049622512736 -0.99572729498 -0.077638547494 -0.04902427951 -0.99577551484 
-0.07721764528 -0.048284964311 -0.99584436408 -0.076614675764 -0.047404388992 -0.99593323841 -0.075832124576 -0.046384801389 -0.99604113323 
-0.074875279277 -0.045231449072 -0.99616655664 -0.073753570138 -0.043952981873 -0.9963074557 -0.072481418648 -0.042562108702 -0.99646119385 
-0.071076623867 -0.041075902313 -0.99662474572 -0.069562936728 -0.039516045906 -0.99679460269 -0.067970721809 -0.037909586003 -0.99696682205 
-0.066335286432 -0.036287732584 -0.99713731764 -0.064696671812 -0.034686168658 -0.99730196549 -0.06310000687 -0.033144798229 -0.99745667148 
-0.061593497689 -0.031704962298 -0.99759763252 -0.060226096765 -0.030408847014 -0.99772146378 -0.059045873348 -0.02929791262 -0.9978252438 
-0.058097825452 -0.028410146751 -0.99790656188 -0.057420806636 -0.027778883385 -0.99796351867 -0.057420806636 -0.027778883385 -0.99796351867 

NormalArray 3 186 double
-0.98165778041 0.17536106048 0.074809762943 -0.98165778041 0.17536106048 0.074809762943 -0.98129796943 0.17745511475 0.074592073596 
-0.98119853278 0.1782268903 0.074058185573 -0.98067726463 0.18139089723 0.07327649719 -0.97984143978 0.1862534219 0.072252444377 
-0.97874052488 0.1924194512 0.071005209437 -0.97712449283 0.20096398951 0.069578735434 -0.9750279355 0.21141658576 0.067996707692 
-0.97224670677 0.22436747896 0.066299136975 -0.96868272465 0.23977362232 0.064516579231 -0.96409097145 0.25806859344 0.062683329842 
-0.95822009098 0.27948950793 0.060826574824 -0.95067760201 0.30452396247 0.05896823997 -0.94104061115 0.33343649735 0.05711978992 
-0.92876133332 0.36653240168 0.055284575043 -0.91316008335 0.40408066416 0.053455392906 -0.89344292238 0.44620170635 0.051611836735 
-0.86867246318 0.49288537811 0.04972077796 -0.83808034453 0.54345387016 0.047741251702 -0.80075720565 0.59724892374 0.045624781605 
-0.75663290449 0.65240232474 0.04333421873 -0.7054527035 0.7075796715 0.040834931012 -0.6490321375 0.75980391733 0.038148285758 
-0.58867806183 0.80759646161 0.035300066772 -0.5279036143 0.84868639101 0.03239110567 -0.4701328689 0.88210127262 0.029536933116 
-0.41736352408 0.90834377655 0.026819253721 -0.374642091 0.92684788431 0.024419316202 -0.34174577403 0.93952661565 0.022350937721 
-0.32235380261 0.94639182346 0.02074951619 -0.31596562238 0.94856800121 0.019607971776 -0.32317810607 0.94614842686 0.018949039615 
-0.34479480763 0.93848987681 0.018796057184 -0.37894448627 0.9252227086 0.019079198782 -0.42464677082 0.90514355434 0.019755153009 
-0.47916843632 0.87747831047 0.02072255512 -0.53970007147 0.84157301172 0.021879186316 -0.6018075454 0.79830770922 0.023075521526 
-0.66164182908 0.74942984216 0.024186808124 -0.71659092938 0.69704076517 0.0251318845 -0.76404677493 0.64464339023 0.025834572719 
-0.80336046429 0.59491281311 0.026281347206 -0.83458138621 0.55024783809 0.026480681044 -0.85872713303 0.51174903258 0.026469579722 
-0.87611135745 0.48139284977 0.026264301498 -0.88791866719 0.45927041573 0.025906093683 -0.8946138113 0.44611681214 0.025414927813 
-0.89637254763 0.44260716801 0.024802231332 -0.8931038985 0.44920595438 0.02407149829 -0.88339990895 0.46804581755 0.023188651051 
-0.86598998886 0.49957166669 0.022124399283 -0.83732438585 0.5463111018 0.02078588231 -0.79217608695 0.60999557647 0.019037960764 
-0.72236501184 0.69131095076 0.01667210314 -0.61817844508 0.78592266218 0.013452847655 -0.469995137 0.88262141029 0.0091660945685 
-0.28338568327 0.95899764827 0.0040081331423 -0.077652315562 0.99697938089 -0.0014939799581 0.11358353138 0.99350714558 -0.0065063881564 
0.26967792682 0.96289251772 -0.010574265881 0.38591641594 0.9224327883 -0.013648112829 0.4679630327 0.88360475215 -0.015913578978 
0.52348192546 0.85185536211 -0.017581688186 0.55908257548 0.82889833644 -0.018820776921 0.57806207252 0.81575464406 -0.019712965323 
0.58507940431 0.81072039034 -0.020360239244 0.57949551812 0.81471137257 -0.020744249568 0.56253929664 0.82650680823 -0.020881467333 
0.53348290042 0.84555648613 -0.020741835404 0.49086399043 0.8710003006 -0.020273609687 0.43180652523 0.90175791049 -0.019385448954 
0.35651762852 0.93411425346 -0.018048325143 0.26264412921 0.96475733135 -0.016166415827 0.1527398698 0.98817065084 -0.013758524194 
0.032082105899 0.99942554323 -0.010923461912 -0.091756104237 0.99575061583 -0.0078440042231 -0.20997328412 0.97769548711 -0.0047701609636 
-0.31464181131 0.9492084465 -0.0019635876756 -0.40347145372 0.91499211672 0.00046085081452 -0.47576041521 0.87957154784 0.0024330118674 
-0.53332765289 0.84589943933 0.0039690314757 -0.57871046179 0.81551700242 0.0051205654292 -0.61498108658 0.78851925281 0.0059708539631 
-0.64446946279 0.76460166966 0.0065877369496 -0.66879506012 0.74341366715 0.0070204735217 -0.69023219482 0.72355062317 0.0073493498486 
-0.7093309021 0.70483474684 0.0075928235771 -0.72776121549 0.68578606068 0.0078161503472 -0.74518739666 0.66680704561 0.0080067335478 
-0.76287239251 0.64649684742 0.0082182126429 -0.78011444757 0.62558012066 0.0084238553063 -0.79729737504 0.6035248127 0.0086426969033 
-0.81405997755 0.58071320413 0.0088615741507 -0.83033017194 0.55719778395 0.0090793797559 -0.84542980688 0.53400617695 0.0092652367302 
-0.85947263436 0.51109488105 0.0094240829546 -0.87191148534 0.48957083578 0.0095267252062 -0.88255861713 0.47010520325 0.0095595610686 
-0.89145549346 0.45300824725 0.009520036614 -0.89832092418 0.43923956606 0.0093872674829 -0.90279055016 0.42998345725 0.0091350442238 
-0.90504387662 0.42522779259 0.008769595742 -0.90434347363 0.42672575936 0.0082466970002 -0.90006955338 0.43568109804 0.0075352433817 
-0.89175237673 0.45247524378 0.006622112069 -0.87702794062 0.48040897221 0.0054047002509 -0.854197429 0.5199345598 0.0038478321948 
-0.81829221543 0.57479963712 0.0017964774 -0.76309882013 0.64628122825 -0.00087448916552 -0.67906851997 0.73406223245 -0.0043109254335 
-0.55300632243 0.83313247657 -0.0086188069848 -0.37848733043 0.9255076183 -0.013527348676 -0.16004401014 0.98693724287 -0.018460591896 
0.068737467933 0.99738152083 -0.022478042871 0.27498937586 0.96111784538 -0.02516605748 0.43520280267 0.89993839968 -0.026634513812 
0.55475755986 0.83156218689 -0.027356518633 0.64070130673 0.7672905753 -0.027694920233 0.70230971072 0.71132487294 -0.027892568403 
0.74798208804 0.66312492618 -0.028073621958 0.78237973366 0.62215824399 -0.028303211492 0.80879307216 0.58739686367 -0.02861277637 
0.82945913254 0.55781322947 -0.0290163484 0.84602575053 0.53232434791 -0.029516403152 0.85928834328 0.51060396565 -0.030118654879 
0.87017517622 0.49177780391 -0.030818083605 0.87911328479 0.47556315652 -0.03161513339 0.88657696988 0.46143761265 -0.032505478098 
0.89259292028 0.44961757379 -0.0334950147 0.8976076673 0.43943712636 -0.034575823752 0.90172138986 0.43083699509 -0.035749387989 
0.90495190758 0.42390047656 -0.03701933206 0.90757600015 0.4181301165 -0.038379807603 0.90957744601 0.41362067122 -0.039834784455 
0.91104960839 0.4102145429 -0.041384053192 0.91211288521 0.40767496322 -0.043025678238 0.91282620851 0.40588787229 -0.044758777692 
0.91319668144 0.40484780435 -0.046584078081 0.91337462781 0.40422147503 -0.048495241051 0.91324423209 0.40427128709 -0.050494544129 
0.9130790148 0.40438013062 -0.052568266975 0.91272478469 0.40489444891 -0.054717023471 0.91232069667 0.40549995031 -0.056927468965 
0.91184303966 0.40624952599 -0.05919116194 0.91132426311 0.40707053055 -0.061495289386 0.91087008513 0.40772839021 -0.063822001174 
0.91052964293 0.40811689598 -0.066154127338 0.91015484001 0.40856892967 -0.068480631674 0.91009705551 0.40830727343 -0.070770898052 
0.91018486093 0.40771628764 -0.073013339374 0.91055428313 0.40649502812 -0.075184370635 0.91148067023 0.40402308918 -0.077254975272 
0.91290198334 0.40041942483 -0.079210182622 0.91514678417 0.39489523816 -0.081019221846 0.91831650498 0.38712068696 -0.082658153914 
0.92304713102 0.37538683455 -0.084075670484 0.92939416519 0.35911182796 -0.08523602958 0.93826052519 0.33506032403 -0.086033517504 
0.95024064499 0.29932216033 -0.086307363238 0.96598669959 0.24397774733 -0.085700379324 0.9847366806 0.15280830936 -0.083326409204 
0.99701579062 -0.0087902755911 -0.076695790713 0.94704921259 -0.31586620476 -0.05767434118 0.63564858961 -0.77190579548 -0.010597803234 
0.085688702761 -0.99537805556 0.043358652375 -0.26609955544 -0.96149230654 0.06872824056 -0.44110148737 -0.89402565506 0.078406670194 
-0.53241814061 -0.84248745738 0.082132866223 -0.5874316111 -0.80495416772 0.083503833087 -0.62278873307 -0.77790634724 0.08364154996 
-0.64788660789 -0.75719282453 0.083078094556 -0.66559793141 -0.7417923482 0.081996986858 -0.6791265636 -0.72958679438 0.080561902176 
-0.68996071914 -0.71953804743 0.078861932138 -0.69841445885 -0.71154498907 0.076947853707 -0.70533448109 -0.70490741075 0.074892002679 
-0.71087945995 -0.69954121818 0.07274941572 -0.71578542998 -0.69474256384 0.070597366927 -0.71973777474 -0.6908595538 0.068488046649 
-0.72294177924 -0.68770198649 0.066491816139 -0.72564091795 -0.68502675569 0.064680771435 -0.72789904523 -0.68277286056 0.063120526199 
-0.72929205562 -0.68140048989 0.061858467338 -0.73110401419 -0.67953526546 0.060981500812 -0.73110401419 -0.67953526546 0.060981500812 

BinormalArray 3 186 double
0.17696188804 0.98409903 0.01528362962 0.17696188804 0.98409903 0.01528362962 0.17904369429 0.98372485445 0.015125021557 
0.17979821471 0.98358810636 0.015067813672 0.18293134718 0.9830137971 0.014832293689 0.18775191678 0.9821098294 0.014474140713 
0.1938670043 0.98092754169 0.014026496343 0.2023505672 0.9792212476 0.013416266059 0.21273474749 0.97702765744 0.012683998183 
0.22561019903 0.97414624289 0.011795573774 0.24093563825 0.97048142276 0.010762263052 0.259145449 0.96579095838 0.0095635233099 
0.28047784049 0.95982553642 0.0081927177156 0.30542090244 0.95219438695 0.006627353686 0.3342398589 0.94247552059 0.0048589929786 
0.36724039781 0.93012161658 0.0028755134831 0.40469170154 0.91445294263 0.00066514340002 0.44671427552 0.89467491018 -0.0017779597376 
0.49329791727 0.86984901617 -0.004455770116 0.54376537327 0.83920521645 -0.0073364511938 0.59745862135 0.80183237587 -0.010394074693 
0.65251109606 0.75765824027 -0.013537373082 0.70758927116 0.70642643426 -0.016706774615 0.75971933526 0.64995126689 -0.019745437542 
0.80742418882 0.58953925578 -0.022575322853 0.84843601345 0.52870434791 -0.025060797522 0.88178415337 0.47087227625 -0.027129436534 
0.90797113649 0.4180423963 -0.028791842603 0.92643270315 0.37526429733 -0.02998589123 0.9390795113 0.34231613141 -0.030811323043 
0.94592379592 0.32287965654 -0.031255394652 0.94808806222 0.31645466788 -0.031392187679 0.94566468943 0.32363865658 -0.031246041991 
0.9380100531 0.34523565861 -0.03081363822 0.92475329174 0.37937333877 -0.03012008055 0.9046907011 0.42507054391 -0.029150781322 
0.87704736816 0.47959230414 -0.027913004424 0.8411686522 0.54012744038 -0.026413002549 0.79793304166 0.60223936848 -0.024710404315 
0.74908631961 0.66207706949 -0.022883177926 0.69672839409 0.71702729746 -0.021009511338 0.6443602171 0.76448087681 -0.019206759272 
0.59465573497 0.80378878787 -0.017553955746 0.55001291561 0.83500064309 -0.016115790784 0.51153223879 0.85913467419 -0.014912420569 
0.48118967021 0.87650486527 -0.013990083323 0.45907675303 0.888296506 -0.013336125784 0.44592866835 0.8949747052 -0.012957615701 
0.44242067183 0.89671544442 -0.012859272001 0.44901744303 0.89342784261 -0.013039397966 0.46785124385 0.88370349932 -0.013540270086 
0.49936726288 0.86627145505 -0.014356285418 0.54609274784 0.83758070712 -0.015532862436 0.60975923171 0.79240247282 -0.017088019782 
0.69105322352 0.72255401293 -0.019003701068 0.78564256761 0.61831978783 -0.02112808429 0.88232251511 0.47007625016 -0.023136516102 
0.95869036075 0.28339715699 -0.024471281248 0.99667830709 0.077591798741 -0.024735904126 0.9932250412 -0.11370824221 -0.023967753005 
0.96263578903 -0.26985427317 -0.02260550677 0.9222018281 -0.38613216586 -0.021112525786 0.88339663556 -0.46820886343 -0.019769787097 
0.85166591049 -0.52375142228 -0.018698250749 0.82872320408 -0.55937149779 -0.017927032084 0.81558916186 -0.57836726772 -0.017482067647 
0.81056067667 -0.58539883266 -0.017308846467 0.81455274012 -0.57982699142 -0.017449744518 0.82634473836 -0.56288071061 -0.017879569412 
0.84538608256 -0.53383172226 -0.018602787798 0.87081622861 -0.4912169622 -0.019621213959 0.90155413646 -0.43215916213 -0.020942722303 
0.93388560696 -0.35686467438 -0.022478373803 0.96449880908 -0.26297877358 -0.02417047637 0.98787940709 -0.15305484092 -0.025855226059 
0.99910154215 -0.032370678675 -0.027354115609 0.99539671094 0.091498832403 -0.028519318312 0.9773168739 0.2097491395 -0.029275014385 
0.94881152426 0.314448924 -0.029640607671 0.91458272427 0.40330589445 -0.029711882718 0.87915461555 0.47561675996 -0.02959492546 
0.84547871287 0.53320024874 -0.029380960421 0.81509521401 0.57859407028 -0.029132352125 0.78809830446 0.614871477 -0.028881296448 
0.76418292593 0.64436329345 -0.028642656544 0.7429981556 0.66868966911 -0.028423004915 0.72313899715 0.69012609171 -0.028212910938 
0.70442755187 0.70922287983 -0.02801304862 0.68538357146 0.72765103751 -0.027808768302 0.66640956894 0.74507466576 -0.027604870238 
0.64610446147 0.76275750619 -0.027386340135 0.62519300238 0.77999743864 -0.027160734474 0.60314304416 0.79717856732 -0.026922111461 
0.58033691132 0.81393952486 -0.026674317831 0.55682708296 0.83020822742 -0.026417774351 0.53364130462 0.84530610242 -0.026163929581 
0.51073602757 0.85934698221 -0.025912821152 0.48921830546 0.87178330226 -0.025677295426 0.46975933854 0.88242714496 -0.025465617664 
0.45266938074 0.89131995413 -0.025281833532 0.43890812584 0.89818027935 -0.025136484655 0.42966001142 0.90264345266 -0.025041404914 
0.42491289188 0.90488911694 -0.024994406692 0.42642026988 0.90417936526 -0.025008575868 0.43538617987 0.89989417134 -0.025086944079 
0.45219230344 0.89156384588 -0.025219624029 0.48014042531 0.87682354666 -0.025409447083 0.51968352166 0.85397460693 -0.025620461303 
0.57457121508 0.81804768235 -0.025805197164 0.64608282049 0.76282957674 -0.025846197209 0.73390452934 0.67877270417 -0.02552954938 
0.83303027803 0.55268515329 -0.024488307748 0.9254764509 0.37814879649 -0.022289606379 0.98698905748 0.15970383497 -0.018635597878 
0.99751541374 -0.069060333107 -0.013916527337 0.96132259289 -0.27528102495 -0.0089011063908 0.90019732774 -0.43545955004 -0.0044442559049 
0.83186238959 -0.55498148431 -0.0007189290928 0.76762282132 -0.6408979605 0.002237950965 0.71168360183 -0.7024853941 0.004552138128 
0.66350746658 -0.74814219914 0.0064102775219 0.62256353628 -0.78252920164 0.0079178202349 0.58782493454 -0.80893630462 0.0091597702829 
0.55826483028 -0.82960011933 0.010199082312 0.53280074933 -0.84616807593 0.011088227489 0.51110671047 -0.85943562336 0.011846510795 
0.49230873754 -0.87033076658 0.01250854462 0.47612428527 -0.87928062844 0.013085924747 0.46203113259 -0.8867594604 0.013597496337 
0.45024571285 -0.89279439431 0.014034512608 0.44010233018 -0.89783183342 0.014420050841 0.43154181443 -0.90197226518 0.014754499029 
0.42464752071 -0.9052339586 0.01503207741 0.41892223552 -0.90789370693 0.015270150539 0.41446079276 -0.9099358079 0.015462107451 
0.41110576522 -0.91145396156 0.015611718669 0.40862060405 -0.91256883126 0.015726733987 0.40689140999 -0.91333971123 0.015809881927 
0.40591282447 -0.91377419361 0.015858815591 0.40535184191 -0.91402267779 0.015888006605 0.40547070973 -0.91397006482 0.01588156691 
0.40565279857 -0.91388944026 0.015871294389 0.40624420315 -0.91362730422 0.015836552309 0.40693075638 -0.91332244651 0.015794562822 
0.40776506825 -0.91295117911 0.015741463739 0.40867423471 -0.91254559726 0.01568128846 0.40942354389 -0.91221054165 0.015629760583 
0.40990642928 -0.91199424657 0.015595302507 0.4104546097 -0.9117483549 0.015554764913 0.41029149478 -0.91182155613 0.015567244406 
0.40980002672 -0.91204187878 0.015606070714 0.40867904442 -0.91254316748 0.015697329041 0.40630871625 -0.91359758878 0.015895687245 
0.4028070657 -0.91514160366 0.016196081905 0.39738655209 -0.9174998608 0.016671342163 0.38971757322 -0.92077085919 0.017356209327 
0.37809518492 -0.92558367505 0.01840900937 0.36193857001 -0.93198980997 0.019886318378 0.33802034735 -0.94087974202 0.022080666346 
0.30243904233 -0.95283212296 0.025329254611 0.24729098794 -0.96846794959 0.030281973138 0.15638244649 -0.98695902162 0.038163072011 
-0.0048670752332 -0.99867704722 0.05119049655 -0.31159186144 -0.94745364378 0.072402381072 -0.76804711479 -0.63373555741 0.092102512094 
-0.99326929941 -0.081941164636 0.081864182552 -0.96079460153 0.27031491022 0.061673194982 -0.89409268747 0.44532544068 0.047786170672 
-0.84295216875 0.53654771119 0.039347106718 -0.80563905922 0.59144028589 0.033824465967 -0.77870641634 0.62666591188 0.030102359342 
-0.75804791133 0.65162346681 0.027390174094 -0.74265725917 0.66918775208 0.025454820168 -0.73043381258 0.6825625073 0.023976427262 
-0.72034874858 0.69323716616 0.022801576056 -0.7123048796 0.7015284817 0.021898581237 -0.70560842595 0.70828553957 0.021174127345 
-0.70017856522 0.71367029119 0.020608063336 -0.6953168766 0.71842163086 0.020119677499 -0.69137249349 0.72222884134 0.01973767927 
-0.68815799412 0.72530047094 0.019437128861 -0.6854327651 0.72788298923 0.019190584013 -0.68313729571 0.73004304886 0.018988997227 
-0.68173142827 0.73135917027 0.0188685924 -0.67984540258 0.73311674148 0.018710209928 -0.67984540258 0.73311674148 0.018710209928 

