# vtk DataFile Version 4.1
vtk output
ASCII
DATASET POLYDATA
POINTS 436 float
157.228 70.3989 -331.922 156.806 70.1367 -329.848 156.384 69.8743 -327.774 
155.962 69.6114 -325.705 155.538 69.3477 -323.643 155.113 69.0826 -321.592 
154.686 68.816 -319.554 154.257 68.5475 -317.533 153.825 68.277 -315.529 
153.39 68.0041 -313.546 152.95 67.729 -311.585 152.507 67.4515 -309.647 
152.058 67.1716 -307.733 151.605 66.8896 -305.843 151.145 66.6057 -303.977 
150.679 66.3201 -302.135 150.206 66.0332 -300.316 149.726 65.7454 -298.519 
149.24 65.4572 -296.743 148.746 65.1691 -294.986 148.245 64.8815 -293.248 
147.737 64.5951 -291.527 147.222 64.3104 -289.822 146.701 64.028 -288.132 
146.175 63.7484 -286.455 145.644 63.4721 -284.792 145.109 63.1997 -283.141 
144.572 62.9314 -281.502 144.033 62.6678 -279.875 143.493 62.4092 -278.261 
142.954 62.1558 -276.66 142.418 61.9079 -275.072 141.884 61.6655 -273.498 
141.355 61.4288 -271.94 140.832 61.1978 -270.398 140.316 60.9725 -268.874 
139.807 60.7526 -267.368 139.308 60.5381 -265.882 138.818 60.3288 -264.417 
138.339 60.1243 -262.974 137.87 59.9245 -261.554 137.413 59.729 -260.158 
136.969 59.5375 -258.786 136.536 59.3497 -257.439 136.116 59.1654 -256.117 
135.708 58.9841 -254.822 135.313 58.8058 -253.551 134.93 58.63 -252.307 
134.559 58.4567 -251.087 134.2 58.2857 -249.893 133.852 58.1169 -248.723 
133.516 57.9502 -247.577 133.19 57.7857 -246.454 132.874 57.6232 -245.352 
132.567 57.463 -244.272 132.27 57.3049 -243.212 131.982 57.1493 -242.171 
131.701 56.9961 -241.147 131.428 56.8455 -240.141 131.161 56.6976 -239.15 
130.901 56.5525 -238.174 130.647 56.4104 -237.211 130.398 56.2713 -236.26 
130.153 56.1352 -235.322 129.913 56.0023 -234.394 129.676 55.8726 -233.476 
129.442 55.7459 -232.567 129.212 55.6223 -231.666 128.983 55.5017 -230.774 
128.757 55.3839 -229.888 128.532 55.2689 -229.009 128.309 55.1566 -228.135 
128.086 55.0466 -227.267 127.865 54.939 -226.404 127.643 54.8333 -225.545 
127.422 54.7296 -224.689 127.201 54.6274 -223.836 126.979 54.5267 -222.985 
126.757 54.4271 -222.136 126.534 54.3285 -221.288 126.31 54.2305 -220.439 
126.084 54.1331 -219.589 125.857 54.0358 -218.737 125.628 53.9386 -217.883 
125.398 53.8412 -217.025 125.165 53.7433 -216.161 124.93 53.6448 -215.292 
124.693 53.5455 -214.417 124.453 53.4452 -213.534 124.211 53.3438 -212.642 
123.965 53.2411 -211.741 123.717 53.1369 -210.83 123.466 53.0313 -209.908 
123.212 52.9242 -208.975 122.954 52.8154 -208.03 122.694 52.7051 -207.072 
122.43 52.5933 -206.101 122.164 52.4799 -205.117 121.894 52.3652 -204.118 
121.62 52.2492 -203.106 121.343 52.1322 -202.079 121.063 52.0143 -201.037 
120.779 51.8957 -199.98 120.491 51.7766 -198.907 120.199 51.6574 -197.818 
119.903 51.5383 -196.712 119.602 51.4196 -195.589 119.296 51.3016 -194.449 
118.985 51.1845 -193.29 118.669 51.0687 -192.114 118.347 50.9544 -190.918 
118.019 50.8418 -189.703 117.685 50.7311 -188.469 117.345 50.6226 -187.215 
116.998 50.5164 -185.941 116.645 50.4125 -184.648 116.285 50.311 -183.335 
115.919 50.2119 -182.004 115.546 50.1152 -180.654 115.168 50.0206 -179.286 
114.784 49.928 -177.901 114.395 49.8371 -176.501 114.001 49.7476 -175.086 
113.603 49.6592 -173.657 113.202 49.5714 -172.216 112.798 49.4838 -170.765 
112.392 49.3957 -169.303 111.984 49.3068 -167.833 111.576 49.2164 -166.357 
111.168 49.1239 -164.874 110.761 49.0289 -163.386 110.356 48.9307 -161.895 
109.952 48.8289 -160.401 109.552 48.7229 -158.905 109.154 48.6124 -157.408 
108.761 48.4969 -155.911 108.372 48.3763 -154.414 107.987 48.2503 -152.918 
107.607 48.1187 -151.423 107.232 47.9816 -149.93 106.863 47.8389 -148.439 
106.499 47.6909 -146.952 106.141 47.5377 -145.468 105.789 47.3797 -143.989 
105.442 47.2171 -142.515 105.101 47.0506 -141.046 104.766 46.8804 -139.585 
104.437 46.7073 -138.131 104.114 46.5317 -136.685 103.796 46.3544 -135.249 
103.485 46.1758 -133.824 103.18 45.9968 -132.41 102.881 45.8178 -131.008 
102.589 45.6395 -129.62 102.303 45.4625 -128.247 102.023 45.2875 -126.889 
101.749 45.1148 -125.548 101.482 44.9452 -124.223 101.221 44.7789 -122.917 
100.967 44.6165 -121.628 100.72 44.4583 -120.358 100.479 44.3047 -119.107 
100.245 44.1559 -117.875 100.017 44.0121 -116.662 99.7954 43.8735 -115.467 
99.5802 43.7403 -114.289 99.3713 43.6125 -113.129 99.1684 43.4902 -111.986 
98.9714 43.3734 -110.858 98.7801 43.262 -109.743 98.5943 43.156 -108.642 
98.4137 43.0553 -107.552 98.2383 42.9599 -106.472 98.0676 42.8696 -105.401 
97.9016 42.7843 -104.336 97.74 42.7038 -103.275 97.5825 42.6282 -102.218 
97.4289 42.5573 -101.163 97.2791 42.4909 -100.108 97.1328 42.4291 -99.0504 
96.99 42.3718 -97.9901 96.8504 42.3189 -96.925 96.7139 42.2705 -95.854 
96.5804 42.2266 -94.7755 96.4498 42.1872 -93.6886 96.3219 42.1524 -92.5921 
96.1968 42.1224 -91.4849 96.0744 42.0973 -90.3661 95.9545 42.0773 -89.2349 
95.8371 42.0625 -88.0904 95.7222 42.0531 -86.9319 95.6096 42.0494 -85.7588 
95.4993 42.0515 -84.5703 95.3913 42.0597 -83.3661 95.2853 42.0742 -82.1455 
95.1813 42.0952 -80.9081 95.0792 42.1229 -79.6536 94.9789 42.1574 -78.3816 
94.8803 42.1988 -77.0921 94.7831 42.2473 -75.7848 94.6874 42.3029 -74.4598 
94.5929 42.3656 -73.1172 94.4994 42.4352 -71.7573 94.4069 42.5118 -70.3804 
94.3151 42.5951 -68.9872 94.2239 42.6849 -67.5782 94.133 42.7809 -66.1544 
94.0424 42.8828 -64.7166 93.9517 42.9901 -63.2659 93.8608 43.1024 -61.8036 
93.7694 43.2193 -60.3308 93.6773 43.3401 -58.8491 93.5842 43.4644 -57.3597 
93.4899 43.5915 -55.8641 93.3941 43.721 -54.3638 93.2964 43.8521 -52.8601 
93.1966 43.9845 -51.3545 93.0942 44.1174 -49.8482 92.9889 44.2505 -48.3423 
92.8805 44.3832 -46.838 92.7684 44.5151 -45.3362 92.6524 44.646 -43.8376 
92.532 44.7753 -42.343 92.4069 44.903 -40.8528 92.2769 45.0289 -39.3674 
92.1415 45.1527 -37.8871 92.0005 45.2746 -36.4118 91.8536 45.3944 -34.9417 
91.7007 45.5123 -33.4767 91.5416 45.6285 -32.0166 91.3763 45.743 -30.5612 
91.2046 45.8562 -29.1103 91.0267 45.9682 -27.6636 90.8426 46.0794 -26.221 
90.6524 46.1901 -24.7822 90.4565 46.3006 -23.3471 90.255 46.4112 -21.9157 
90.0484 46.5223 -20.4879 89.8369 46.6341 -19.0638 89.6211 46.747 -17.6436 
89.4013 46.8613 -16.2276 89.1781 46.9771 -14.816 88.952 47.0948 -13.4093 
88.7235 47.2144 -12.008 88.4931 47.3361 -10.6128 88.2615 47.46 -9.22431 
88.0289 47.5861 -7.84321 87.7961 47.7145 -6.47031 87.5634 47.8451 -5.10639 
87.3312 47.9778 -3.75227 87.1001 48.1126 -2.40877 86.8704 48.2491 -1.07671 
86.6423 48.3874 0.24312 86.4163 48.527 1.54997 86.1926 48.6677 2.84315 
85.9714 48.8093 4.12201 85.7528 48.9514 5.38601 85.537 49.0937 6.63468 
85.3241 49.2358 7.8677 85.1142 49.3773 9.08482 84.9072 49.5179 10.286 
84.7031 49.6571 11.4712 84.5018 49.7945 12.6408 84.3033 49.9298 13.795 
84.1074 50.0626 14.9345 83.914 50.1925 16.06 83.7227 50.3191 17.1724 
83.5334 50.4422 18.2727 83.3459 50.5613 19.3622 83.1598 50.6762 20.4423 
82.9748 50.7867 21.5144 82.7907 50.8924 22.5801 82.6072 50.9931 23.6412 
82.4239 51.0888 24.6992 82.2405 51.1792 25.756 82.0567 51.2641 26.8133 
81.8723 51.3436 27.8728 81.687 51.4175 28.9361 81.5005 51.4857 30.0047 
81.3127 51.5482 31.0799 81.1232 51.6051 32.1632 80.9319 51.6563 33.2555 
80.7386 51.7018 34.3577 80.5433 51.7417 35.4705 80.3456 51.7759 36.5946 
80.1456 51.8046 37.73 79.9431 51.8277 38.8772 79.738 51.8453 40.0358 
79.5302 51.8574 41.2057 79.3195 51.8641 42.3866 79.1059 51.8654 43.5778 
78.8892 51.8613 44.7787 78.6693 51.8519 45.9886 78.4461 51.837 47.2066 
78.2194 51.8168 48.4318 77.989 51.7913 49.6633 77.7547 51.7603 50.9002 
77.5165 51.7239 52.1415 77.274 51.6821 53.3863 77.0271 51.6349 54.6337 
76.7757 51.5821 55.883 76.5195 51.5239 57.1333 76.2584 51.4602 58.384 
75.9922 51.391 59.6345 75.7208 51.3163 60.8842 75.4441 51.2362 62.1326 
75.1619 51.1506 63.3794 74.8743 51.0595 64.6242 74.5813 50.9632 65.8668 
74.2827 50.8616 67.1069 73.9786 50.7548 68.3445 73.6692 50.6429 69.5792 
73.3545 50.5262 70.8111 73.0346 50.4046 72.0401 72.7098 50.2785 73.266 
72.3803 50.1479 74.4888 72.0464 50.0131 75.7084 71.7082 49.8743 76.9247 
71.3663 49.7316 78.1377 71.0208 49.5852 79.3472 70.6723 49.4355 80.5532 
70.3211 49.2826 81.7555 69.9676 49.1267 82.9542 69.6123 48.9681 84.1491 
69.2557 48.8068 85.3403 68.8982 48.6432 86.5278 68.5403 48.4774 87.7116 
68.1824 48.3096 88.8919 67.8249 48.1398 90.0689 67.4682 47.9684 91.2428 
67.1126 47.7952 92.414 66.7585 47.6206 93.5828 66.406 47.4445 94.7497 
66.0554 47.2671 95.9154 65.7067 47.0882 97.0803 65.36 46.9081 98.2453 
65.0152 46.7265 99.4111 64.6721 46.5436 100.579 64.3304 46.3592 101.749 
63.9899 46.1733 102.922 63.6499 45.9857 104.1 63.3101 45.7963 105.284 
62.9696 45.6048 106.475 62.6277 45.4109 107.674 62.2836 45.2146 108.882 
61.9363 45.0153 110.101 61.5847 44.8127 111.333 61.2276 44.6063 112.579 
60.8639 44.3958 113.84 60.4922 44.1805 115.119 60.1112 43.9599 116.418 
59.7195 43.7334 117.738 59.3156 43.5002 119.082 58.898 43.2596 120.452 
58.4653 43.0109 121.849 58.0159 42.7533 123.277 57.5484 42.4858 124.736 
57.0613 42.2077 126.23 56.5531 41.9179 127.76 56.0226 41.6157 129.328 
55.4684 41.3001 130.935 54.8894 40.9702 132.584 54.2844 40.6252 134.274 
53.6527 40.264 136.007 52.9933 39.8859 137.783 52.3056 39.4902 139.602 
51.5892 39.076 141.463 50.8438 38.6427 143.366 50.0693 38.1896 145.309 
49.2658 37.7164 147.29 48.4337 37.2224 149.308 47.5735 36.7075 151.359 
46.6859 36.1714 153.44 45.7717 35.614 155.548 44.8323 35.0352 157.68 
43.8687 34.4353 159.83 42.8824 33.8144 161.994 41.875 33.1728 164.169 
40.8481 32.511 166.35 39.8036 31.8297 168.531 38.7433 31.1292 170.709 
37.669 30.4105 172.878 36.5827 29.6743 175.035 35.4862 28.9214 177.175 
34.3814 28.1525 179.294 33.2701 27.3687 181.39 32.1539 26.5707 183.458 
31.0345 25.7593 185.496 29.9133 24.9354 187.502 28.7916 24.0996 189.474 
27.6708 23.2525 191.411 26.5517 22.3948 193.312 25.4353 21.5268 195.176 
24.3224 20.6489 197.004 23.2136 19.7613 198.795 22.1094 18.8641 200.552 
21.0102 17.9573 202.275 19.9164 17.0408 203.965 18.8282 16.1144 205.624 
17.7459 15.178 207.254 16.6697 14.2311 208.857 15.6 13.2733 210.435 
14.5369 12.3045 211.989 13.481 11.324 213.522 12.4327 10.3317 215.035 
11.3925 9.32707 216.53 10.3612 8.30996 218.008 9.33958 7.28012 219.471 
8.32852 6.23744 220.919 7.32907 5.18188 222.353 6.34236 4.11349 223.774 
5.36961 3.03242 225.183 4.41209 1.93891 226.58 3.47109 0.833289 227.965 
2.54791 -0.284049 229.338 1.64382 -1.41264 230.7 0.760017 -2.55198 232.049 
-0.102416 -3.70151 233.388 -0.942524 -4.86068 234.715 -1.75953 -6.02892 236.031 
-2.55286 -7.20568 237.336 -3.32216 -8.39041 238.63 -4.06734 -9.58261 239.915 
-4.78855 -10.7818 241.189 -5.48622 -11.9875 242.455 -6.16105 -13.1993 243.713 
-6.81399 -14.4168 244.963 -7.44628 -15.6396 246.207 -8.05936 -16.8673 247.445 
-8.65491 -18.0994 248.679 -9.2348 -19.3356 249.908 -9.80108 -20.5753 251.134 
-10.3559 -21.818 252.358 -10.9017 -23.0632 253.579 -11.4407 -24.3101 254.8 
-11.9755 -25.5583 256.019 
LINES 1 437
436 435 434 433 432 431 430 429 428 427 426 425 424 423 422 421 420 419 418 417 416 415 414 413 412 411 410 409 408 407 406 405 404 403 402 401 400 399 398 397 396 395 394 393 392 391 390 389 388 387 386 385 384 383 382 381 380 379 378 377 376 375 374 373 372 371 370 369 368 367 366 365 364 363 362 361 360 359 358 357 356 355 354 353 352 351 350 349 348 347 346 345 344 343 342 341 340 339 338 337 336 335 334 333 332 331 330 329 328 327 326 325 324 323 322 321 320 319 318 317 316 315 314 313 312 311 310 309 308 307 306 305 304 303 302 301 300 299 298 297 296 295 294 293 292 291 290 289 288 287 286 285 284 283 282 281 280 279 278 277 276 275 274 273 272 271 270 269 268 267 266 265 264 263 262 261 260 259 258 257 256 255 254 253 252 251 250 249 248 247 246 245 244 243 242 241 240 239 238 237 236 235 234 233 232 231 230 229 228 227 226 225 224 223 222 221 220 219 218 217 216 215 214 213 212 211 210 209 208 207 206 205 204 203 202 201 200 199 198 197 196 195 194 193 192 191 190 189 188 187 186 185 184 183 182 181 180 179 178 177 176 175 174 173 172 171 170 169 168 167 166 165 164 163 162 161 160 159 158 157 156 155 154 153 152 151 150 149 148 147 146 145 144 143 142 141 140 139 138 137 136 135 134 133 132 131 130 129 128 127 126 125 124 123 122 121 120 119 118 117 116 115 114 113 112 111 110 109 108 107 106 105 104 103 102 101 100 99 98 97 96 95 94 93 92 91 90 89 88 87 86 85 84 83 82 81 80 79 78 77 76 75 74 73 72 71 70 69 68 67 66 65 64 63 62 61 60 59 58 57 56 55 54 53 52 51 50 49 48 47 46 45 44 43 42 41 40 39 38 37 36 35 34 33 32 31 30 29 28 27 26 25 24 23 22 21 20 19 18 17 16 15 14 13 12 11 10 9 8 7 6 5 4 3 2 1 0 

CELL_DATA 1
FIELD FieldData 2
LengthArray 1 1 double
638.1859018 
TortuosityArray 1 1 double
0.030521623971 
POINT_DATA 436
FIELD FieldData 8
RadiusArray 1 436 double
34.599081243 33.989008093 32.559606472 32.007331768 31.040511355 30.763809351 30.23098538 30.217810516 30.167831148 
30.218312152 30.417607608 30.503025603 30.614622938 30.619944295 30.933032778 31.058915117 31.143899493 31.350347445 
31.781144006 31.838062174 32.194673455 32.872123253 33.466066635 34.210211425 34.622655973 34.997239895 34.997957271 
35.336278466 35.76140345 36.209121959 36.335355728 37.019303842 37.561399877 38.318573192 38.597540341 38.794383579 
38.885631601 38.886054211 39.060741539 39.080990335 39.545424356 39.69272115 39.872292725 40.290178996 40.673987107 
40.691572856 40.731172586 41.032023202 41.455339339 41.536085921 42.140678811 42.557774977 42.562587892 42.666990982 
42.878004578 43.183009374 43.253015446 43.36872019 43.370343378 43.573312717 43.711469955 43.72592686 44.087843236 
44.101458322 44.106633601 44.285609127 44.712271663 44.751308239 44.833585036 45.057083167 45.066336776 45.364856737 
45.377185596 45.556635194 45.751702397 45.815654532 45.938733242 46.170677929 46.262368413 46.509034107 46.696343192 
46.840168462 46.973916852 47.055933074 47.178981421 47.19045002 47.258202052 47.417393189 47.432352277 47.497270323 
47.692800002 47.799017459 47.826674942 48.032692346 48.088802843 48.739653903 49.016449072 49.019666811 49.277615207 
49.461273683 49.849466057 49.866850202 50.135281084 50.183801235 50.441548801 50.558162097 50.582395269 50.69902339 
50.779029538 51.008697895 51.385657587 51.528105639 51.672125998 52.018254831 52.154026295 52.165597212 52.300910916 
52.886102953 53.206848588 53.43899 54.158575365 54.479249378 55.094811418 55.45149564 55.472861798 55.822183395 
55.925571487 56.270253684 56.427580575 56.53375141 57.238526469 57.90900668 57.956357753 58.049810991 58.313341538 
58.399875721 58.855622749 59.068445282 59.088707009 59.431585856 59.704064942 59.96107355 59.996694789 60.360605124 
60.443572754 60.680837696 60.783311957 61.038964486 61.340585863 61.708733269 61.800205132 61.976803982 62.093658536 
62.168665529 62.34148314 62.724758245 62.963498463 63.132466297 63.144507292 63.568187725 63.9455127 64.039641143 
64.070283389 64.18900668 64.416699616 64.545422296 64.582627689 64.681146832 64.847176773 64.85577368 64.882993794 
65.063695599 65.120414077 65.202147748 65.218193605 65.338237601 65.391310381 65.46317121 65.603463276 65.614475987 
65.72450712 65.830893747 65.885987496 65.937242036 65.991927905 66.030583839 66.04468847 66.059571641 66.059720471 
66.148537128 66.224703578 66.241464554 66.272506617 66.31160394 66.378809903 66.39531622 66.444795415 66.451893504 
66.471172824 66.47118157 66.473359407 66.516591945 66.530373099 66.482454082 66.467242003 66.441161666 66.363609912 
66.330360039 66.325867729 66.176388491 66.161038109 66.054687053 66.029161491 66.007997438 66.006624971 65.983311052 
65.981986155 65.946066716 65.944670534 65.937749343 65.914897459 65.85689876 65.847771094 65.847541723 65.845345989 
65.858993986 65.865727394 65.851074753 65.797805379 65.795689619 65.763373072 65.658864198 65.652890703 65.46994186 
65.469936259 65.469475095 65.288843273 65.262210117 65.250905836 65.284519823 65.288144397 65.358758371 65.404213157 
65.405883526 65.62852849 65.647329528 65.690276174 65.913374589 66.079089073 66.149186547 66.340041262 66.574646727 
66.774415921 67.035636189 67.591519162 67.714502189 67.854915308 68.522409123 68.564596399 68.602857316 68.923401999 
69.561357934 69.813798072 69.950922405 70.357264645 70.394524385 70.845015665 70.888714557 71.553639384 71.642738638 
71.651281949 72.139948803 72.289043803 72.429713593 72.632590378 72.73436011 72.958678327 72.980287553 73.236937017 
73.636611674 73.791841878 74.062803433 74.116230747 74.332644723 74.43933042 74.667489878 74.910655146 75.081388524 
75.266023296 75.576246215 75.707370341 76.321467301 76.385503707 76.919864371 77.092502823 77.189537114 77.540593343 
77.906845462 78.064404372 78.086240431 78.572959897 78.768284103 79.154341217 79.599295964 79.741975872 79.861998179 
80.007872941 80.169689772 80.268448348 80.501509922 80.901093924 80.993144967 81.055665956 81.243547586 81.262504276 
81.425504373 81.882118664 81.96820542 82.03191215 82.341275725 82.790528875 83.020795172 83.061636148 83.105931598 
83.385111318 83.624030002 83.654397421 83.719726597 83.959725172 83.979456667 84.203320723 84.527532809 84.534105956 
84.781652255 84.873149449 84.895182844 85.137916894 85.227614272 85.299595168 85.4434061 85.536994688 85.657870596 
85.751819357 86.393928726 86.397667748 86.717784514 86.773680725 86.920091096 87.190642679 87.200137259 87.393282888 
87.406703917 87.561117732 87.71195742 87.870413323 87.901909823 88.185638025 88.186552372 88.500515176 88.588792445 
88.616092133 88.815908053 88.859802907 89.388980072 90.158846269 90.316129231 90.407522664 90.590484108 90.645155186 
91.12422228 91.381720914 92.122477856 92.521661404 92.695790633 92.826725166 93.770649474 94.71684405 94.991168093 
94.999850593 95.176385317 95.536896296 95.599254648 96.66578935 97.191610622 97.283752728 97.70470821 97.931419231 
98.07993921 98.271833227 98.286353486 98.29672544 98.31659975 98.354452775 98.357133372 98.514971088 98.509810871 
98.45745744 98.122688873 98.027648534 97.7202559 97.707241418 97.637141871 97.327604742 97.239847369 97.174935418 
97.124628075 96.973464895 96.967902788 96.536701991 96.31379847 96.060483832 95.20686477 94.820218639 93.669097007 
92.925217109 92.391340071 92.159352275 92.069029085 91.27248549 90.664825338 90.116514921 88.370911971 88.339987711 
88.223190957 87.606262443 87.042331801 86.999212905 85.602356543 85.264832927 85.249477238 84.569460656 83.647235657 
82.712822432 81.61899078 80.3249617 79.275025532 
EdgeArray 2 436 int
6154 6154 8676 8676 9091 9091 8022 9430 9708 
9708 9988 9988 7001 7001 9055 9055 9249 9249 
10288 10288 10931 10931 9994 5050 11205 5050 11007 
11205 10244 11007 10244 6354 11229 6354 11854 7960 
1970 4238 10479 1970 9190 11517 11517 7046 12106 
12106 10507 10507 7490 6035 13295 13294 13295 13295 
11475 12954 13642 11385 11521 11521 12711 12833 12711 
12711 13951 13951 13952 13952 12823 13946 12693 12693 
11873 13827 14440 11873 14442 14442 14443 13640 14595 
13571 14590 13571 14711 7426 11562 11562 10905 8136 
10905 14951 14951 14952 14952 14952 14857 14797 14857 
14857 15187 14717 14798 14798 14799 12090 14799 14799 
14862 14862 15527 15527 15526 15521 15521 15521 15277 
14459 15718 14459 15720 15090 15090 15090 15780 15780 
15318 15779 15318 14780 14801 14801 15974 15974 15971 
15973 15971 15971 15968 14309 14963 15968 16057 14963 
16050 16057 16055 16067 14720 16067 14720 14720 15625 
15625 13752 13752 14700 14726 14700 16389 16389 16389 
16076 14628 16076 16096 16096 16096 16271 8280 15554 
8280 16272 15554 16272 16272 16269 16273 16269 16269 
16210 16210 16085 16085 16514 16267 16514 16514 15746 
16556 15746 15746 16270 16270 15895 15895 16516 16516 
16505 16505 17183 17183 16627 17182 16627 16627 15761 
16399 15761 15761 17568 17569 17568 17568 17566 17566 
17563 17563 13263 13263 17080 17080 14884 17261 14884 
14884 17076 16526 17019 16526 18086 17019 18086 18086 
17680 17680 17520 17520 8298 8298 17325 17325 17002 
17002 18399 18399 18813 18636 18813 18813 17454 17454 
17665 17665 17295 17295 17662 19098 19098 19098 18975 
19097 19250 18227 19524 19524 19523 19523 19409 19409 
19712 19706 19707 19708 19708 19708 19322 20680 20680 
20680 20681 20681 19644 19644 20196 20196 18318 18318 
21095 21095 21097 21097 21345 21345 18496 18496 20796 
20796 21217 21217 21035 21035 20623 20623 21213 21213 
19413 19413 20285 20285 21457 21457 21892 21327 21327 
22096 22096 22096 21934 21934 22993 21604 21347 21877 
21347 21940 21940 22551 22551 22551 21947 21947 20961 
20961 23909 22522 23909 23909 22898 23910 22898 23982 
23982 23982 22439 22439 23619 23619 24761 24762 24761 
24761 22755 22753 22755 22755 23518 25153 25110 25153 
25110 23196 21897 23659 23659 22294 22294 22294 22988 
23950 21340 22988 23727 23727 23990 22411 23990 25856 
24998 24998 26059 25436 25054 26058 25977 26006 24640 
24640 26343 24830 26343 26343 26267 26267 26499 25608 
26499 26499 22216 26499 22216 22216 24208 24208 26793 
23694 27600 27600 28395 28400 28072 28072 28393 28393 
26729 26729 29229 28701 28897 28152 28152 28540 29325 
28070 29326 29231 28903 29446 26439 29063 26439 29402 
29402 29310 29744 29744 30052 30052 30189 30189 29997 
29997 30454 30454 30809 30809 30825 30825 30810 30810 
30821 30821 29993 29993 30640 30640 32112 30846 32112 
32111 32444 32444 32454 32454 32453 32453 28053 28053 
31295 28053 31295 31295 30755 31543 30522 30522 32433 
32702 20014 20014 26702 32909 26702 29261 29261 29261 
23384 30631 30631 30631 31828 31828 32069 32069 27131 
27131 33022 33022 33117 33117 26537 26537 32908 32908 
31895 31895 32186 32186 25851 25851 31567 31567 28050 
25641 32701 32701 31552 28050 27357 31552 27357 27357 
31793 31793 33119 33119 32715 32715 26214 26214 30316 
30316 31842 31842 33432 33276 33276 33276 31762 34257 
31762 31762 33275 33275 29973 29973 33073 33073 33588 
34163 33750 33588 32898 32898 33200 33200 33262 32178 
27175 27175 33571 34711 22950 33766 35116 22950 35116 
33217 33217 35137 26834 25399 25399 33481 33481 33481 
33943 33943 35454 29405 29405 35143 35143 35662 35662 
35662 20799 20799 35804 35803 36018 34165 36018 36018 
36019 36019 36233 36001 36001 36000 36442 36437 36437 
36438 36648 36648 35941 35941 35774 35761 37297 37285 
37297 37298 37298 37298 37087 27065 37293 37087 37498 
37498 37653 38302 37503 37496 37496 38325 38325 38325 
33490 38545 36595 36595 38081 38958 38958 38958 39220 
39220 39218 39218 39219 39219 39468 39466 39467 39465 
39460 39465 40383 39460 40383 37766 37766 38554 40377 
40385 40387 39615 40386 40386 39870 40388 39870 39968 
40927 40927 41012 41012 40921 41408 41408 41408 41393 
40283 41393 41395 41391 41395 41391 41391 41363 41363 
41397 41409 41409 41409 41411 41411 40655 40110 40924 
40110 25449 25449 41617 41617 41353 42308 42308 42308 
42468 42469 42468 42468 42465 42465 42467 42467 42309 
42309 42303 42176 42307 42176 42930 42930 42934 42934 
42935 42935 42461 42461 42295 42295 41437 41437 41470 
40405 39395 40911 39395 42123 43535 42123 43535 43535 
43536 43536 43537 43537 24587 24587 41920 43837 43835 
43839 43835 43835 37602 43724 42504 44568 44569 41155 
43293 41155 42979 44689 43969 44684 44684 44687 39625 
39625 44178 44993 44056 45358 45357 45675 45466 45676 
45655 45236 46034 44370 45991 46034 46966 44288 46174 
47044 46781 47044 46781 47197 44787 44787 46964 46327 
48131 48131 48042 48042 47856 47856 48065 44899 48554 
48065 48554 45983 47321 47321 48572 48452 47911 48184 
45127 49464 49394 47340 49935 47340 50172 50172 49510 
49510 49631 49631 51764 51764 51075 50792 51075 49894 
50407 53242 56089 56604 56603 56604 56603 53848 50068 
50068 55248 55248 53063 53063 51978 55016 54424 51978 
54424 54424 47892 47892 60943 60943 57039 57354 59186 
57666 59341 55571 59341 57036 57050 57050 58717 50151 
62127 62127 64597 64597 56752 56752 57194 57194 
EdgePCoordArray 1 436 double
0 0 0 0.848 0 0 0 0 0 
0 0 0.488 0.044 0.988 0.196 0.616 0.744 0.964 
0.128 0.644 0.084 0.564 0 0 0.972 0.004 0 
0.656 0.88 0 0.936 0 0 0 0.112 0 
0.004 0.992 0 0.024 0.612 0.592 0.148 0 0.168 
0.024 0.048 0 0.372 0 0.884 0 0.98 0 
0 0 0.124 0 0.004 0.82 0.728 0 0 
0.444 0.008 0 0 0.844 0 0.224 0.984 0.208 
0.992 0.608 0.248 0 0 0 0.852 0.236 0 
0.74 0.192 0 0.764 0.96 0.896 0 0.912 0 
0 0 0.968 0 0.964 0 0 0 0 
0 0 0.996 0 0.948 0 0.512 0 0 
0 0 0 0.936 0 0.228 0.044 0.948 0 
0 0 0 0 0 0 0.108 0 0 
0 0 0.18 0 0.344 0.308 0 0 0 
0.996 0.464 0 0.024 0 0 0 0 0 
0 0 0 0 0 0 0 0 0 
0 0 0 0.26 0.58 0 0 0.544 0.52 
0.636 0.308 0 0 0 0.844 0 0.912 0.016 
0 0 0 0.948 0 0.708 0 0.956 0.94 
0.316 0.744 0.496 0 0.816 0.984 0 0.104 0.108 
0 0.784 0.688 0.2 0 0.84 0 0 0.912 
0 0.996 0 0 0.364 0 0.184 0 0 
0 0.912 0.388 0.56 0.616 0.572 0.468 0.084 0.952 
0.004 0 0 0 0 0 0 0 0 
0 0 0 0.336 0.412 0 0 0 0 
0.988 0 0.8 0 0.1 0 0.96 0.492 0 
0.004 0 0 0 0 0 0 0 0 
0 0 0 0 0.984 0 0.388 0.964 0 
0 0 0 0 0 0 0.028 0 0.228 
0 0 0 0 0.788 0.992 0 0 0.064 
0 0.64 0.304 0.52 0.532 0.416 0.392 0.328 0 
0 0.856 0.408 0.856 0 0 0.9 0.748 0 
0 0.94 0.06 0.856 0.376 0 0 0.06 0.396 
0.348 0 0.94 0.752 0 0.124 0.568 0.908 0 
0.172 0 0.54 0 0 0 0 0.052 0.168 
0.588 0.368 0.496 0.708 0.76 0.696 0 0.016 0.016 
0 0 0.036 0 0.484 0.04 0.824 0 0 
0.036 0 0 0.584 0.728 0 0 0.004 0 
0.976 0 0 0 0 0.96 0.968 0 0 
0 0 0 0 0.168 0.408 0.52 0.284 0 
0 0 0 0.968 0.5 0 0.236 0.804 0.96 
0.932 0.016 0.888 0.152 0 0.84 0.808 0.384 0.36 
0.328 0.16 0.896 0.78 0.284 0.02 0.044 0 0.832 
0 0 0 0.012 0.896 0.048 0 0.044 0.16 
0.228 0.68 0.748 0 0 0 0 0.792 0.708 
0.88 0.96 0.284 0.04 0 0 0 0.02 0.796 
0 0 0 0.016 0.576 0.04 0.08 0 0.616 
0 0 0 0 
CurvatureArray 1 436 double
0 9.4640796444e-05 0.00038565296827 0.00067166191903 0.00096791483005 0.0012588133719 0.0015484848309 0.0018284121762 0.0021138964703 
0.0023813920807 0.0026387895832 0.0028792307444 0.0030848084378 0.0032787948463 0.003423826366 0.0035435490953 0.003613279635 0.0036386463464 
0.0036297988115 0.0035583158756 0.0034551381797 0.003311789447 0.0031391567282 0.0029344291351 0.0027169637352 0.0024875537678 0.0022519604841 
0.0020211844363 0.0018013325876 0.0016037884109 0.0014427389324 0.001304644683 0.0012119808181 0.0011604890225 0.0011536322007 0.0011807576144 
0.0012426602453 0.0013200163356 0.0014300456129 0.0015211963103 0.0016564663444 0.0017695099544 0.0019128853526 0.002041953941 0.0021889945116 
0.0023170733015 0.0024470941828 0.0025511111081 0.0026539985223 0.0027423838215 0.0027961510627 0.0028061397515 0.0028171386944 0.0027664397022 
0.00272528996 0.0026308144796 0.0025172639487 0.0024321654731 0.00232660095 0.0022123223295 0.0021800936294 0.0021143124867 0.0021117889464 
0.0021217332635 0.0021438827647 0.0021796942455 0.0022075027117 0.0022319626524 0.0022474874779 0.0022352816583 0.0022217579156 0.0021865339237 
0.0021497491691 0.0020894155745 0.0020276563294 0.001952699968 0.0018657904417 0.001787596304 0.0016913478917 0.0015790788122 0.0014733171604 
0.0013640746322 0.0012426482708 0.0011075875728 0.00097013376849 0.00084276312609 0.00070960600614 0.00058477300584 0.00046503779894 0.00037726811039 
0.0003062256575 0.00027377949029 0.00027579110334 0.00029315260402 0.00032315346781 0.00036064941347 0.00040097763868 0.00047463172446 0.00054582230964 
0.00065430417859 0.0007834235095 0.00093163800887 0.0010982875793 0.0012702155501 0.0014556958774 0.0016326432895 0.0018044855192 0.0019638234666 
0.0021031062479 0.0022195249937 0.0023073688194 0.0023594893131 0.0023808867931 0.0023697742324 0.0023187785569 0.002239657257 0.0021192784888 
0.0019765067117 0.0017996899751 0.0015994644726 0.001378107512 0.0011309177097 0.00087564646918 0.00061366650277 0.0003715205958 0.00027403335147 
0.00044926880673 0.00072458536087 0.0010168422094 0.0013146223791 0.0016054774741 0.0018796675511 0.0021374433056 0.002369878375 0.0025800021859 
0.0027547400111 0.0028959314141 0.0030050084213 0.0030740409513 0.0031044105233 0.0031054801262 0.0030706520974 0.0030049178462 0.0029139700353 
0.0027974053281 0.0026675744995 0.0025158463406 0.0023659597781 0.0022055362615 0.0020534734217 0.0019070217161 0.0017802570485 0.0016717361175 
0.00159842071 0.0015653211698 0.0015646323708 0.0016083494453 0.0016910999635 0.0018177504821 0.0019606070769 0.0021309934411 0.0023268568361 
0.0025277749906 0.0027481605008 0.0029713302091 0.0032031459275 0.0034295028704 0.0036556777391 0.0038847413655 0.0040943408234 0.0042890984119 
0.0044738910933 0.0046433870589 0.0047842736938 0.0049121817266 0.0050126744196 0.0050897946506 0.0051596293231 0.0051939976243 0.0052271599252 
0.0052419823102 0.0052447133221 0.0052440163351 0.0052272589921 0.0052082157203 0.0051877850606 0.005160058622 0.0051296612639 0.0050940305825 
0.0050523118904 0.0049998947676 0.0049398615693 0.0048644819584 0.0047866548562 0.0046864318833 0.0045714488642 0.0044470590562 0.0043012027776 
0.0041434882903 0.0039670470845 0.0037778300549 0.0035764906415 0.0033612835422 0.0031370864957 0.0029012585059 0.0026644499719 0.0024230246432 
0.0021769849871 0.0019354709149 0.0017023157798 0.0014766321364 0.0012746614329 0.0011057439491 0.00099049281607 0.00094566438783 0.00098314305339 
0.0011030748933 0.0012587651445 0.0014544799793 0.0016670856339 0.0018855946871 0.0020951711271 0.0023037536635 0.0024988190028 0.0026760008535 
0.0028264138954 0.0029626443732 0.0030599361779 0.0031362550527 0.0031797628179 0.0031879485318 0.0031693632013 0.0031231607308 0.0030520747085 
0.0029519109067 0.0028400498492 0.0027156053209 0.0025741860277 0.00244428003 0.0023054289664 0.0021845017206 0.0020663730656 0.0019701369737 
0.0018858587067 0.0018203507308 0.00177378054 0.0017367805469 0.0017087841752 0.0016820898004 0.0016591629185 0.0016286439217 0.0015935619425 
0.0015385100118 0.0014755546221 0.0013908912429 0.0012864836579 0.0011515227062 0.0010014876 0.00081655172894 0.00060257232873 0.0003627592878 
0.00012580597825 0.00025345993652 0.00057885871232 0.00094617217278 0.0013338307059 0.0017465138159 0.0021676936387 0.0025968818205 0.003019914779 
0.0034222513825 0.0038045117126 0.0041535211727 0.0044457566586 0.0046969783094 0.0048848403543 0.0050168860481 0.0050984622408 0.005110630986 
0.005090165889 0.0050188798539 0.0049146049615 0.0047878065192 0.0046437047405 0.0044854994773 0.0043335657321 0.004184270318 0.0040443657496 
0.0039266588332 0.0038229340011 0.0037441217779 0.0036973393309 0.0036735536246 0.0036771481016 0.0037128930339 0.0037651454064 0.0038498703252 
0.0039430488893 0.0040513739029 0.0041686227439 0.0042880262907 0.0044127719344 0.004518967143 0.004621150898 0.0047144461855 0.0047789970053 
0.004833590724 0.0048547702579 0.0048633402122 0.0048365497349 0.0047899097276 0.004714602198 0.0046162787826 0.004494469178 0.0043533837077 
0.0041893276024 0.0040054699197 0.003809508979 0.003595029869 0.0033714598872 0.0031353714941 0.002893774241 0.0026497951447 0.0023990838951 
0.0021573421986 0.0019256443433 0.0017199279376 0.0015430378771 0.0014112151177 0.0013353041983 0.0013192712289 0.0013534249413 0.0014159816971 
0.0014874634871 0.0015544137671 0.0015998365034 0.001615431341 0.0015839332115 0.0015116300273 0.0013973808417 0.0012393339157 0.0010525174623 
0.00085824341826 0.00070969065647 0.00068747233808 0.00083997311402 0.0011123189625 0.0014399689818 0.0017808962983 0.0021211146169 0.0024409810842 
0.0027330409873 0.0029912086319 0.0032117947066 0.0033846663631 0.0035260648298 0.0036234482847 0.0036866362835 0.0037182751291 0.0037268493215 
0.0037086087482 0.0036829066584 0.0036411506833 0.0035980705292 0.0035518058567 0.0035064421907 0.003464176892 0.0034306484952 0.0034035241365 
0.0033837060052 0.0033727392586 0.0033720236584 0.0033820181569 0.0034002028903 0.0034278067141 0.0034653034204 0.0035134964087 0.0035686283161 
0.0036330381389 0.0037070159262 0.0037880654744 0.0038763859883 0.0039715029176 0.004072082541 0.0041784406014 0.0042856980392 0.0043961469735 
0.0045052734213 0.0046089349079 0.0047113883234 0.0048019528694 0.0048833268409 0.0049494144425 0.0050000242358 0.0050320900853 0.0050467720978 
0.0050425447514 0.0050216280935 0.0049825555265 0.0049356525189 0.0048785150788 0.0048259750634 0.0047734130839 0.0047292718547 0.0047083019826 
0.0047027385883 0.0047210800856 0.0047681789249 0.0048413029565 0.0049432424292 0.005065918661 0.0052124812665 0.0053771585495 0.0055541395636 
0.0057411012818 0.0059309611573 0.0061184659576 0.006293943869 0.0064515734246 0.0065818420281 0.0066768534934 0.00672487146 0.0067209596766 
0.0066529611111 0.0065163384976 0.0063057956448 0.006017488228 0.0056514339108 0.0052091494425 0.0046950526289 0.0041148658012 0.0034774001182 
0.0027894786005 0.0020618205631 0.0013041699078 0 
TorsionArray 1 436 double
0 0 2.0664754073e-05 -0.0032422351147 -0.0043299916483 -0.0051786129348 -0.0059719862664 -0.0080771513378 -0.010006791588 
-0.011074899454 -0.012943545924 -0.0140816736 -0.015910547695 -0.017781112396 -0.019237576301 -0.020878983367 -0.022586204075 -0.024676821819 
-0.026743139188 -0.029037296667 -0.03162094399 -0.034500268507 -0.03800956116 -0.042581525643 -0.047046010148 -0.053630811883 -0.06147830271 
-0.070886756756 -0.083782242309 -0.095858468997 -0.11061382332 -0.12849364911 -0.13991766259 -0.14410598994 -0.14161867941 -0.13560629724 
-0.12180724803 -0.1124980372 -0.098742701286 -0.089698224613 -0.080423065876 -0.072765925302 -0.064982746092 -0.057537400887 -0.049530204994 
-0.043129022161 -0.034885600815 -0.027397552973 -0.017572131766 -0.0082122426208 -0.0011408179491 0.0099651482907 0.022204036562 0.035214075628 
0.048521080005 0.063353911098 0.082673340771 0.10024733063 0.11925664884 0.13669967159 0.14613602242 0.15890357546 0.15601225887 
0.15080913031 0.14256751196 0.13737487272 0.12717332416 0.11633197455 0.11526362534 0.10710547123 0.10201598444 0.11010347844 
0.10169127531 0.097609275159 0.1017701358 0.10003139025 0.10637708609 0.10177598346 0.092616416089 0.10107859998 0.10389423163 
0.099595641351 0.10521057413 0.10761088018 0.12045111576 0.14327719808 0.16331750189 0.200152241 0.2578776993 0.3322960852 
0.42261797953 0.46919421037 0.43846865031 0.36728869078 0.31690200318 0.30083299105 0.27610068705 0.2476445691 0.22853768461 
0.1750859626 0.14945232508 0.12553611776 0.096817094466 0.077001721785 0.060501086924 0.052825643895 0.04381814625 0.03557240487 
0.030603548796 0.023882680315 0.020606569989 0.017823796391 0.014486056844 0.011823814471 0.0084981224555 0.0066574243225 0.0043846024421 
0.00066213994735 -0.0040707421675 -0.0083812070801 -0.015740661748 -0.031827854171 -0.059024531165 -0.13297288618 -0.38511294073 -0.7251124787 
-0.26865319161 -0.10268255607 -0.048925896383 -0.026310220394 -0.016319950957 -0.010777164688 -0.007202408903 -0.0036942829878 -0.0019608993318 
-0.0011112610965 0.00072784609655 0.0020096751913 0.0031844467437 0.0045489668295 0.0062583141611 0.0077376403998 0.010421699539 0.013033148635 
0.015944685233 0.020176446603 0.024874679431 0.031274365838 0.039050283147 0.048155494789 0.058837879876 0.071327264178 0.084169734778 
0.094619352687 0.10078317318 0.10363558714 0.099223353364 0.088976650155 0.077070132646 0.065634729579 0.053277241221 0.044623525737 
0.035427576368 0.027396255951 0.022556716947 0.017258646244 0.01280702564 0.0087103074556 0.0062627606658 0.0045342417753 0.0018761292163 
-0.00055990606255 -0.00093322459618 -0.0012421016847 -0.0030741623826 -0.0027745623557 -0.0031917845208 -0.0024403297365 -0.0010566317428 -0.0014242285564 
0.0005126115048 0.0025217540531 0.0039202015428 0.0064709225315 0.0073866226292 0.009255956739 0.012026115532 0.012304636894 0.014245389043 
0.015533335446 0.016222020099 0.016854014143 0.016560001499 0.017176153535 0.017579169667 0.016649463776 0.016718957056 0.016806475685 
0.015650441478 0.015958476141 0.016149648532 0.016487828961 0.016768716197 0.017720732112 0.02065945919 0.022485607013 0.026450215748 
0.032794144068 0.041948471049 0.054858032235 0.072768149124 0.10142509559 0.13602521142 0.17052874026 0.18488350295 0.168548756 
0.1294352025 0.094296635424 0.064052610866 0.042620603999 0.028614881905 0.01719684739 0.0091283502566 0.0029517793476 -0.0021415223705 
-0.0058814541264 -0.0095564134121 -0.013255980501 -0.016030051116 -0.018527355755 -0.021487924845 -0.024768152749 -0.028025099984 -0.031312918555 
-0.035347936665 -0.039461509137 -0.043878252752 -0.049305113288 -0.054685947865 -0.06031794535 -0.065171063276 -0.069979108436 -0.073621068987 
-0.0758692103 -0.075566072686 -0.072250871515 -0.069239924768 -0.064718372578 -0.059113495867 -0.052251989654 -0.046174880646 -0.042720930795 
-0.03575242999 -0.032392262691 -0.030455068439 -0.02698667529 -0.028030664163 -0.029770327631 -0.035603787824 -0.055246563586 -0.16551193065 
-1.5201210884 -0.384292926 -0.084144938249 -0.040743647311 -0.020102320305 -0.011398123134 -0.0069071822197 -0.003269362615 -0.0028247396512 
0.00014630671052 0.0018689819888 0.0017936470308 0.0027481008622 0.0033223652678 0.0037057329215 0.0028172693373 0.0029185813737 0.0025489656008 
0.00064884722814 -6.2769712471e-05 -0.0026533632373 -0.0059601173143 -0.0083506267252 -0.011741250866 -0.016200535567 -0.02058656696 -0.024890207218 
-0.029490195376 -0.033371644871 -0.037733344344 -0.03936529427 -0.040504186931 -0.042045168936 -0.040538856423 -0.039201559701 -0.036883919688 
-0.03285344994 -0.030139176307 -0.027561362996 -0.024215655828 -0.020547890908 -0.017825595056 -0.016267969725 -0.013416847634 -0.011907654309 
-0.0098788261286 -0.0079551101658 -0.0068843354486 -0.0054694809401 -0.0048671560404 -0.00322944496 -0.0016737454727 -0.00053481868076 0.0012809198304 
0.0029249044409 0.0051830921955 0.0079293090708 0.011153512719 0.015614678133 0.021236694562 0.028235645671 0.03668236334 0.049098326533 
0.064278412006 0.082851193752 0.10700746333 0.13586765979 0.15708841248 0.16628776826 0.16542063661 0.14361473888 0.11517851303 
0.090215752982 0.068137788166 0.048542055508 0.030140654663 0.014574002692 -0.0023791315742 -0.025070858362 -0.057060376044 -0.10737172311 
-0.20328367525 -0.34216421573 -0.38742013945 -0.26774934017 -0.14973999117 -0.083023688084 -0.049509203972 -0.029405833141 -0.016137259886 
-0.0089068312374 -0.0037143443711 0.00016912447852 0.0031181436991 0.0051675477772 0.0068308530573 0.0082730558032 0.0093738190954 0.010253751586 
0.010567019103 0.011207704309 0.01161004773 0.011562802701 0.011517092786 0.011455492643 0.011099770557 0.010625350139 0.010248120327 
0.0096015866111 0.009017407589 0.0084268355334 0.0077812778859 0.0072321910089 0.0065672951939 0.0059317767796 0.0055453849083 0.0050459550899 
0.0045481672223 0.0042198846846 0.0039426700222 0.0036742523369 0.0035052037912 0.0034386660106 0.0034548917719 0.0035356379178 0.0036876668547 
0.0040580510957 0.0044370374597 0.0049295061657 0.0056601673937 0.0065423889777 0.0075286107971 0.008736264838 0.010148689271 0.011744010427 
0.013576366789 0.01566081141 0.017895318091 0.020282612212 0.022677990023 0.025031585651 0.027607133581 0.029443669339 0.030951411048 
0.032312676598 0.032672025436 0.032437053397 0.031562368996 0.030498989979 0.029174106011 0.027259069961 0.025624365346 0.023848105583 
0.021993648577 0.020213738084 0.018803087854 0.017565908819 0.016244938207 0.01490883546 0.014114203155 0.012991298278 0.011902527218 
0.011511031776 0.010305543111 0.0094254120107 0.0089747828593 0.0082969872211 0.0072509542816 0.0065778676742 0.0058420858181 0.0048637998591 
0.0044850519816 0.0030534201691 0 0 
TangentArray 3 436 double
0.19785336921 0.12298359954 -0.97248603 0.19785336921 0.12298359954 -0.97248603 0.19825188194 0.12328111788 -0.97236719262 
0.19912776715 0.12393419798 -0.97210516248 0.20048670724 0.12493558402 -0.97169757644 0.20233534849 0.12627159427 -0.97114154027 
0.20466875773 0.12791979746 -0.97043661567 0.20747846756 0.12985139467 -0.96958305513 0.21076604289 0.13203094104 -0.96857911694 
0.21452835131 0.13441239081 -0.96742487857 0.21874407106 0.13694567543 -0.96612468831 0.22339659653 0.13957367537 -0.96468292708 
0.22844495231 0.14223340603 -0.9631108773 0.23385365198 0.1448613093 -0.9614196121 0.23957646309 0.14738868793 -0.95962476677 
0.24554965835 0.14975300081 -0.95774704595 0.25170881959 0.15189603464 -0.95580869676 0.25797048972 0.15376276194 -0.9538386863 
0.26426351715 0.1553087294 -0.95186343142 0.27049838605 0.15649691944 -0.94991543695 0.27658439793 0.15730410904 -0.94802768319 
0.28244815626 0.15772080021 -0.9462278733 0.28801592245 0.15774998894 -0.94454315381 0.29321861329 0.15740436024 -0.94299878696 
0.29799934417 0.15670473466 -0.94161564187 0.3023173091 0.15568795954 -0.94040709476 0.3061342472 0.15439053641 -0.9393856423 
0.30942583285 0.15285778238 -0.93855748483 0.31217907641 0.15113915139 -0.93792386747 0.3143908462 0.14928015498 -0.93748270979 
0.3160815298 0.14733139999 -0.9372224523 0.31726308605 0.14534213688 -0.93713382047 0.31794761973 0.14335886328 -0.93720731294 
0.31816359662 0.14142578122 -0.93742769011 0.31794548983 0.1395821255 -0.93777795652 0.31732563696 0.1378652109 -0.93824177254 
0.31633010723 0.13630815205 -0.9388052785 0.3149979202 0.13493786498 -0.93945094755 0.31335410358 0.13378067853 -0.94016590867 
0.31144244912 0.13285835908 -0.94093159013 0.30929585881 0.13218237251 -0.94173451255 0.3069403412 0.13176109943 -0.94256386501 
0.30440930242 0.13159663807 -0.94340728291 0.30172506427 0.13168479418 -0.9442569039 0.29891346345 0.13201432782 -0.94510473421 
0.29599734024 0.13256544316 -0.94594501841 0.29300435589 0.13331683832 -0.94677086354 0.28995833869 0.1342341032 -0.94757868663 
0.28687945421 0.13528115794 -0.94836658896 0.28377252153 0.13641448948 -0.94913868485 0.28065766568 0.13758477196 -0.94989562859 
0.27757083839 0.13874707097 -0.95063330468 0.27452233699 0.13985180216 -0.95135637903 0.27153044533 0.14084634617 -0.9520680249 
0.268613534 0.14168486019 -0.95277078552 0.26578846647 0.14232906608 -0.95346679441 0.26309460679 0.14274405642 -0.9541516453 
0.26053543156 0.14290153102 -0.95483005888 0.25812448993 0.14278411804 -0.95550219431 0.25590421313 0.14238407778 -0.95615888224 
0.25387222816 0.14170203661 -0.95680166419 0.25204255036 0.14075016683 -0.95742568555 0.25044071745 0.13954518701 -0.95802222721 
0.24906236511 0.13811113092 -0.95858919971 0.2479159086 0.13648416502 -0.95911927046 0.24700081188 0.13469875385 -0.95960765141 
0.24632267143 0.13278926042 -0.9600479956 0.24587433665 0.13079643592 -0.96043641275 0.24564131108 0.12875747492 -0.96077149153 
0.24562304059 0.12671234286 -0.96104802382 0.24579848774 0.12469440136 -0.96126708551 0.2461491906 0.12273130568 -0.96142997799 
0.24667532532 0.12085052932 -0.96153337615 0.24734656026 0.11907133509 -0.96158291181 0.24813701096 0.11741181797 -0.9615833239 
0.24903390782 0.11588649209 -0.9615364963 0.25001176533 0.1145078085 -0.96144790758 0.25105830125 0.11328429844 -0.96132013247 
0.25214855174 0.11221383696 -0.96116032099 0.25324667572 0.11129514729 -0.96097841361 0.2543390483 0.11053265865 -0.96077790352 
0.25541203686 0.10991947892 -0.96056358435 0.25644194757 0.10944514633 -0.9603433175 0.25740576336 0.10910655137 -0.96012396774 
0.25828328772 0.10889034532 -0.95991282728 0.25906538707 0.10878725611 -0.9597137376 0.25974227014 0.1087882676 -0.95953064877 
0.26030117015 0.10887603023 -0.95936922551 0.26073465347 0.10903287958 -0.9592336898 0.26104286939 0.10924171995 -0.95912609544 
0.26122847644 0.10948490024 -0.95904782973 0.26129446685 0.10974160028 -0.95900051239 0.2612468685 0.10999432231 -0.95898452686 
0.26109380411 0.11021783841 -0.9590005493 0.26085181073 0.11038921676 -0.95904669003 0.26053717278 0.11048671604 -0.95912098673 
0.26016919039 0.11048244796 -0.95922136187 0.25976018389 0.11035534411 -0.95934683243 0.25933397343 0.11008258952 -0.95949346726 
0.25891652905 0.10963923099 -0.95965695434 0.25851663748 0.10900894604 -0.95983654745 0.25815892444 0.10817274137 -0.9600274099 
0.25786804618 0.10711230292 -0.96022446611 0.25765733496 0.10582118814 -0.96042416352 0.25753896579 0.10429244587 -0.96062311383 
0.25752117889 0.10252494092 -0.96081812999 0.25761887702 0.10052672876 -0.96100306503 0.25783817387 0.098307164322 -0.96117385396 
0.2581772493 0.095883996853 -0.96132760654 0.25863569375 0.093280702558 -0.9614604976 0.259200327 0.090524569084 -0.96157188648 
0.25986143004 0.08765249308 -0.96165954352 0.26060603966 0.084703302737 -0.96172233134 0.26141573652 0.081714371406 -0.96176118356 
0.26226947458 0.078730295357 -0.96177765793 0.26314171909 0.075793363761 -0.96177533847 0.2640105014 0.072950233613 -0.96175709957 
0.26485175006 0.070244622608 -0.96172721886 0.26563796934 0.067716138714 -0.96169173533 0.26633980942 0.065406038893 -0.96165750452 
0.26693696112 0.063350372775 -0.96162954876 0.26740457266 0.061587478804 -0.96161415182 0.26771598456 0.06014760433 -0.96161864442 
0.26785372555 0.059054998875 -0.96164800671 0.26779742465 0.058334008425 -0.96170769094 0.26752971395 0.058003394107 -0.96180219298 
0.26703741435 0.058076268537 -0.96193459568 0.26630974916 0.05855979597 -0.96210699395 0.26534383568 0.059456210299 -0.96231887019 
0.26413622322 0.060760801071 -0.96256957184 0.26268355544 0.062461731512 -0.96285818364 0.26099439157 0.064540250305 -0.96318040037 
0.25908099239 0.066972038219 -0.96353089493 0.25695875987 0.069726607468 -0.96390372753 0.25464069235 0.072765539693 -0.96429419475 
0.2521480564 0.076046758615 -0.9646959356 0.24951043338 0.079523625689 -0.96510130898 0.24674975727 0.083146295455 -0.96550569695 
0.24389309517 0.08686262154 -0.96590426187 0.24097144288 0.090616955513 -0.96629257013 0.23801024281 0.094359801106 -0.9666681707 
0.23503279964 0.098042494797 -0.96703011965 0.23206607073 0.10161780237 -0.96737746565 0.2291277614 0.10504084717 -0.96771219346 
0.22623653853 0.10827281753 -0.96803616958 0.22340724598 0.11128252807 -0.96835189957 0.22065140269 0.11403900594 -0.96866302893 
0.21797664523 0.11652097909 -0.96897319032 0.21538429024 0.11871067849 -0.96928704847 0.21287600456 0.12059294075 -0.96960876096 
0.21044867642 0.12216015062 -0.96994239633 0.20809804482 0.12340768327 -0.97029157858 0.20581727757 0.1243320084 -0.97065998163 
0.20359798153 0.12493317364 -0.97105075256 0.20142483234 0.12521681545 -0.97146733658 0.19929010775 0.12518848182 -0.97191115693 
0.1971861014 0.12485048754 -0.97238366768 0.19509923091 0.1242090676 -0.97288663144 0.19301087023 0.12327283336 -0.97342211426 
0.19091101258 0.12205047984 -0.97399007472 0.18879336232 0.12055202574 -0.97458928551 0.18663855721 0.11878578929 -0.97522099302 
0.18444006248 0.11675876399 -0.97588383242 0.18218683501 0.11448274868 -0.97657649849 0.17986496624 0.11197007462 -0.97729795677 
0.17747006804 0.1092290499 -0.97804569914 0.17499516454 0.10627404052 -0.97881689845 0.17243526163 0.10312166179 -0.97960808664 
0.16978015567 0.09978395176 -0.98041718759 0.1670295738 0.096276266708 -0.98124003279 0.16419027495 0.092618620714 -0.98207094688 
0.16125970277 0.088829175119 -0.98290624472 0.15823430059 0.084924841645 -0.98374268861 0.15512396392 0.080922702369 -0.98457507183 
0.1519375254 0.076837209595 -0.98539892003 0.14867568625 0.072686996755 -0.98621100218 0.14535127328 0.068486787773 -0.98700687295 
0.14196737545 0.064244843012 -0.98778432082 0.13853590456 0.059969988991 -0.9885400364 0.13507007744 0.055665838092 -0.98927114011 
0.13156952635 0.051335711367 -0.98997682017 0.1280485115 0.046978837012 -0.99065461568 0.12451718674 0.042588262688 -0.99130303646 
0.12098484443 0.038161409606 -0.99192054835 0.11746665603 0.033691206994 -0.99250515731 0.11396551387 0.029171238505 -0.99305634306 
0.1104919377 0.024593872098 -0.99357268137 0.10706199015 0.019949198398 -0.99405219166 0.10367933091 0.01523666406 -0.99449406253 
0.10035845811 0.010451465423 -0.99489645027 0.0971126071 0.0055948846076 -0.99525767458 0.093953129898 0.00067221951144 -0.99557639461 
0.090892496595 -0.0043074228491 -0.99585139462 0.087936354281 -0.0093329934442 -0.99608237251 0.08509811961 -0.014391752922 -0.99626863219 
0.082393002728 -0.019461869109 -0.99640986986 0.079823383263 -0.024522383707 -0.99650734076 0.077399999604 -0.029550379508 -0.99656209798 
0.075132453888 -0.034519762727 -0.99657588791 0.073021559559 -0.03940062078 -0.99655177634 0.071076462704 -0.044165219307 -0.99649263412 
0.06930237374 -0.048787610916 -0.99640200221 0.067704676714 -0.053239978173 -0.99628388599 0.066285330478 -0.057494842115 -0.99614286028 
0.065048648663 -0.061526129294 -0.99598353838 0.06400451389 -0.065314641903 -0.99580993154 0.063151239569 -0.068842310043 -0.99562676606 
0.062495159827 -0.072089372382 -0.9954383343 0.062042799518 -0.075042019802 -0.99524840432 0.061802618184 -0.077692983331 -0.99505991615 
0.061780647237 -0.080033786734 -0.9948757433 0.061982818274 -0.082058845456 -0.99469818343 0.062422846817 -0.083768933723 -0.99452810616 
0.063109357885 -0.085165473252 -0.99436615545 0.064051006686 -0.086252712761 -0.99421221984 0.065254111582 -0.087039085339 -0.99406543977 
0.066735035756 -0.087538280199 -0.99392327898 0.068497897402 -0.087765054852 -0.99378334319 0.07054411268 -0.087733746792 -0.9936429529 
0.072884905185 -0.087467685546 -0.99349745575 0.075521440136 -0.08699274755 -0.99334222399 0.078444588038 -0.086332842348 -0.99317324115 
0.081646916505 -0.08552011952 -0.99298544309 0.085120385494 -0.084585837619 -0.99277376882 0.088846358194 -0.083563629364 -0.99253385055 
0.092797839247 -0.082490952547 -0.99226196328 0.096949757657 -0.08140043592 -0.99195499571 0.10126885598 -0.080328944403 -0.99161074999 
0.10571668742 -0.079315307851 -0.99122805849 0.1102571722 -0.078390840047 -0.99080685917 0.11484217935 -0.07758489515 -0.99034936153 
0.11942690083 -0.076925602942 -0.98985840754 0.12397022109 -0.076438375777 -0.98933743434 0.12843009122 -0.076143277671 -0.98879113716 
0.13276090404 -0.076054703735 -0.98822579626 0.13692431335 -0.076183996073 -0.98764757437 0.14089139832 -0.076536428012 -0.98706220122 
0.14462728593 -0.077111416914 -0.98647695236 0.1481115854 -0.07790753488 -0.98589724327 0.15132768979 -0.078918602811 -0.98532826227 
0.15426210527 -0.080133501548 -0.98477501228 0.15690933592 -0.081537434164 -0.98424138662 0.15926656143 -0.08311337777 -0.98373082134 
0.1613378515 -0.08484427767 -0.98324541505 0.16312884471 -0.086709083175 -0.98278711577 0.16465436414 -0.088687831626 -0.98235604996 
0.16593280219 -0.090755977457 -0.98195196304 0.16697820176 -0.092889713964 -0.9815751531 0.16780799661 -0.09506420646 -0.98122539354 
0.16844303731 -0.097254645392 -0.98090186927 0.16890780285 -0.099435989425 -0.98060320117 0.16922503755 -0.10158268679 -0.98032843701 
0.16941043599 -0.10366713956 -0.98007817461 0.16949185118 -0.1056617761 -0.97985106085 0.16948747471 -0.10754209111 -0.97964722965 
0.16941411283 -0.109279141 -0.97946767569 0.16929310548 -0.11084055211 -0.97931313503 0.16913880658 -0.11219929163 -0.97918506068 
0.16896723121 -0.11332773842 -0.97908472487 0.16879657612 -0.11419173313 -0.97901377109 0.16864118277 -0.1147628256 -0.97897377152 
0.16850543359 -0.11501448971 -0.97896761234 0.1684051286 -0.11491430617 -0.97899663682 0.16834639313 -0.1144361433 -0.97906274622 
0.16832857699 -0.11355813358 -0.97916803485 0.16836384449 -0.11225870003 -0.97931179924 0.16845184731 -0.11052309494 -0.9794940636 
0.16858965892 -0.10834152016 -0.9797140613 0.16877546903 -0.10571210977 -0.97996928059 0.16900242744 -0.10263889867 -0.98025682145 
0.16926940806 -0.09913971109 -0.98057084659 0.16956480169 -0.095236809119 -0.98090658486 0.16987678114 -0.090956589525 -0.98125877222 
0.17020062866 -0.086343275041 -0.98161936862 0.17052611 -0.081442873236 -0.98198162111 0.17084464162 -0.076303501784 -0.98233898632 
0.17114852392 -0.070980475571 -0.98268507409 0.17143839869 -0.065522452917 -0.98301357245 0.17170969586 -0.05998588939 -0.98331961916 
0.17196179839 -0.054418818718 -0.98359937579 0.17220416807 -0.048861336929 -0.98384871512 0.17243936459 -0.043355313132 -0.98406553764 
0.17268211595 -0.037929519303 -0.98424704135 0.17295068342 -0.03260619976 -0.98439062208 0.17325733362 -0.027404709486 -0.98449524034 
0.17361958785 -0.022333049014 -0.9845595328 0.17406048987 -0.017392040226 -0.98458136424 0.17460100154 -0.012582330239 -0.98455887342 
0.17526195646 -0.0078951432814 -0.9844901794 0.17606580385 -0.0033212197129 -0.98437279636 0.17703150501 0.0011488622085 -0.98420451449 
0.17818415634 0.0055319577382 -0.98398160749 0.179536934 0.0098454740839 -0.98370196501 0.18110275644 0.014102351916 -0.98336306382 
0.18290185725 0.018318574785 -0.9829604979 0.18493999654 0.022508255272 -0.98249202344 0.18722634303 0.026684862912 -0.98195428334 
0.18976565902 0.030859657017 -0.98134432093 0.19254904079 0.035041529781 -0.98066149006 0.19557467782 0.03923680667 -0.97990357607 
0.19883714297 0.043446410314 -0.97906904762 0.20232460546 0.047674857442 -0.97815738099 0.20601472064 0.051920979495 -0.97717047989 
0.20988448943 0.056178102676 -0.97611091679 0.21392066949 0.060440435252 -0.97497943617 0.21809165653 0.064699810186 -0.97378127108 
0.2223714306 0.068942766901 -0.97252138369 0.2267290081 0.07315847317 -0.97120636051 0.23113205651 0.077336089312 -0.96984385431 
0.23555208607 0.081460185079 -0.96844176541 0.23995532864 0.085515232871 -0.96701012673 0.24431550152 0.089484494546 -0.96555810853 
0.24859979073 0.093356436826 -0.96409684148 0.25277886883 0.09712115252 -0.96263717215 0.25682772505 0.10076772458 -0.96118956784 
0.26071928767 0.10428861448 -0.95976525147 0.2644281613 0.10767401626 -0.95837573724 0.26793244901 0.1109204211 -0.95703127585 
0.27121070448 0.11402486406 -0.95574216405 0.274242913 0.11698504482 -0.95451837277 0.27700995894 0.11980237509 -0.95336922206 
0.27949354789 0.12247889976 -0.95230366785 0.28167961999 0.12501894517 -0.95132899411 0.28355406922 0.12742246313 -0.95045284245 
0.28510232857 0.12969387108 -0.94968213737 0.28631673765 0.131838032 -0.94902131644 0.28719472906 0.13385922633 -0.94847292799 
0.28773293749 0.13576291459 -0.94803912773 0.28792781442 0.13755108976 -0.94772214883 0.28779344867 0.13922650427 -0.94751829081 
0.28734888468 0.14079391048 -0.94742160269 0.28660546137 0.14225674794 -0.9474282702 0.28559302161 0.14361933556 -0.94752842304 
0.2843517628 0.14488581054 -0.94770890937 0.28292126256 0.1460608256 -0.94795664163 0.28134758824 0.14715009944 -0.94825649633 
0.27968342744 0.14816211733 -0.94859114871 0.27799163287 0.14910694014 -0.94894034188 0.27633619457 0.14999262313 -0.94928421486 
0.27477804149 0.15083186298 -0.9496034841 0.27338306663 0.15163998844 -0.94987736724 0.27221502601 0.1524316229 -0.95008609081 
0.2713305588 0.15322073122 -0.95021215283 0.27078672794 0.15402837948 -0.95023671066 0.2706318149 0.15487198994 -0.95014371939 
0.27090037407 0.155765867 -0.94992103988 0.27162283264 0.1567285924 -0.94955630961 0.2728194484 0.1577790168 -0.94903916169 
0.27449512018 0.15893381511 -0.94836304832 0.2766488337 0.16020363536 -0.94752320184 0.27926796568 0.16160025768 -0.94651717367 
0.28232558087 0.16313775054 -0.94534561973 0.28579176399 0.16482254078 -0.94401090973 0.28963024993 0.16666057648 -0.94251714604 
0.2937943167 0.1686551358 -0.94087211917 0.29823932053 0.17081084172 -0.93908304427 0.30292108066 0.17312992363 -0.93715785673 
0.30779088098 0.17561186984 -0.93510707663 0.3128047425 0.17825797778 -0.93294013014 0.31792343195 0.18106965569 -0.93066560654 
0.32310816078 0.18404604729 -0.92829314816 0.32833094411 0.18718500816 -0.92582966244 0.3335659515 0.19049005574 -0.92328072365 
0.33879122074 0.19396304111 -0.92065131697 0.34399445111 0.1976055639 -0.91794327642 0.3491636449 0.2014189284 -0.91515854602 
0.35429009217 0.20540644997 -0.91229749583 0.35937262178 0.2095715683 -0.90935750751 0.36441261575 0.21391801345 -0.90633466722 
0.3694093779 0.21844929946 -0.90322567229 0.3743665595 0.22316680595 -0.90002569733 0.37928929372 0.22807439472 -0.89672833241 
0.38418429167 0.2331769229 -0.89332578193 0.38905741763 0.23847662946 -0.88981077932 0.39391270622 0.24397551537 -0.88617646537 
0.3987572007 0.2496746452 -0.88241445276 0.40359870142 0.25557580378 -0.87851527974 0.40843935781 0.26168105687 -0.8744714492 
0.41328225404 0.26798868085 -0.87027572954 0.41813242421 0.27449824919 -0.86591915732 0.4229906543 0.28120900187 -0.86139445299 
0.42785540163 0.28811795406 -0.85669586193 0.43272487361 0.29522118312 -0.8518178425 0.43759449276 0.30251390981 -0.84675639606 
0.44245718023 0.30999154003 -0.84150869798 0.44730183574 0.3176463432 -0.83607527675 0.45211499251 0.32546923961 -0.83045879345 
0.4568812572 0.3334505227 -0.82466372888 0.46157700495 0.34157685198 -0.81870136356 0.46617977967 0.34983586318 -0.81258309228 
0.47066332008 0.3582125009 -0.80632489936 0.47499457423 0.36668940463 -0.79994939526 0.4791385118 0.37524992164 -0.79348206206 
0.4830583937 0.38387436482 -0.78695302293 0.48671533443 0.3925440312 -0.7803956476 0.49006957082 0.40124133509 -0.77384572543 
0.49308200844 0.40994983589 -0.76734038406 0.49571369681 0.41865465558 -0.76091800489 0.49792591946 0.42734134214 -0.75461855002 
0.49968433533 0.43600020675 -0.74847804559 0.50095749089 0.44462471062 -0.74252976979 0.50171952079 0.4532131381 -0.73680076948 
0.50194807589 0.4617663042 -0.73131389254 0.50161842562 0.47028311684 -0.72609417096 0.50071842232 0.47877307311 -0.7211500579 
0.49923663374 0.48724557332 -0.71648763758 0.497159643 0.49570581599 -0.71211518265 0.4944823029 0.5041653543 -0.70802863476 
0.49120088322 0.51263496081 -0.70422090943 0.48731444713 0.52112465632 -0.70068089898 0.48282051028 0.52963913274 -0.69739998847 
0.47771764846 0.53817955597 -0.69436922015 0.47201094725 0.54674754963 -0.69157268789 0.46570484161 0.55533533364 -0.68900048455 
0.45880918587 0.56393153981 -0.68664062607 0.45134070347 0.57252092602 -0.6844788957 0.44332316549 0.58108248962 -0.68250107047 
0.4347865887 0.58958584934 -0.68069754557 0.42577062781 0.59799357247 -0.67906042424 0.41632897671 0.60626532101 -0.67757844099 
0.40652962307 0.61435747041 -0.67623854084 0.39645041927 0.62221656274 -0.67503600949 0.38618689166 0.62979243249 -0.67395932866 
0.37584875751 0.63703466969 -0.67299668728 0.36555233113 0.64388517831 -0.67214832467 0.35543089679 0.65030079015 -0.67139985101 
0.34562213576 0.65623852339 -0.67074312497 0.3362638957 0.66165676234 -0.67017678362 0.32749531702 0.66652406826 -0.66969581435 
0.31945335368 0.6708204742 -0.66929025558 0.31226368267 0.67452825742 -0.66895666708 0.30604079216 0.67763834298 -0.66868924745 
0.30088554318 0.68014620985 -0.66848262739 0.29688230206 0.68204923645 -0.66833355279 0.2940986149 0.68335050744 -0.66823505498 
0.2940986149 0.68335050744 -0.66823505498 
NormalArray 3 436 double
-0.77658673089 -0.58571099435 -0.2320682669 -0.77658673089 -0.58571099435 -0.2320682669 -0.78001960076 -0.58088585859 -0.23268227633 
-0.77927000826 -0.58145988237 -0.23375769382 -0.78477572642 -0.57324359378 -0.23562436506 -0.78943478762 -0.56579818107 -0.23804439583 
-0.79586061615 -0.55542239063 -0.24106399076 -0.80233224421 -0.54445508269 -0.24460505479 -0.81233367007 -0.52751773085 -0.2486745908 
-0.82283615674 -0.50877663488 -0.25315409332 -0.83390287566 -0.48791262447 -0.25796756549 -0.84672935835 -0.46247543961 -0.26299403315 
-0.8586711927 -0.43676774309 -0.26817479638 -0.87248737345 -0.4050872938 -0.27325824337 -0.88565192366 -0.37177917339 -0.27821020174 
-0.89883991977 -0.33482917722 -0.2828006731 -0.91140661079 -0.29500475995 -0.28689751029 -0.92326415238 -0.25164965252 -0.29026842287 
-0.93417422211 -0.20413042599 -0.29265900282 -0.94356953931 -0.15273072953 -0.29385344772 -0.95097227342 -0.097267080712 -0.29358278254 
-0.95589881341 -0.036501440865 -0.29141911971 -0.95745192865 0.028651284892 -0.28716703886 -0.95466011306 0.10128502903 -0.27993822788 
-0.94598722628 0.1804329704 -0.26935499051 -0.92974654634 0.26569899445 -0.25490273422 -0.90192216422 0.36282608284 -0.234293925 
-0.86046930136 0.46514446223 -0.20792597404 -0.79684671268 0.579215182 -0.17188685065 -0.70623019933 0.69669798415 -0.12590005735 
-0.58565150272 0.80748454346 -0.070576408501 -0.41983348657 0.90760011183 -0.001371338713 -0.21891424653 0.972891953 0.074550656941 
0.0070688121287 0.98842902337 0.15151929797 0.22538789056 0.94962127202 0.21776073687 0.42870476228 0.86165142391 0.27160458477 
0.59426498494 0.7429141163 0.3081034623 0.71908771547 0.6120896621 0.32902751102 0.81392985758 0.47218298815 0.33846921965 
0.87538951587 0.34514212274 0.33848206838 0.91654434681 0.22258966651 0.332265407 0.94027328338 0.11121495974 0.32174117749 
0.95103692285 0.013652816956 0.30877560132 0.95285367312 -0.075021145798 0.29400970274 0.94883070851 -0.14680653759 0.27958563466 
0.94111177812 -0.20986762137 0.26507395682 0.93215903747 -0.26009004632 0.2518584854 0.92358074819 -0.29876098984 0.24029247287 
0.91644942167 -0.32704200281 0.23057316823 0.91317360059 -0.34043706076 0.22409056841 0.91237553729 -0.34551217912 0.21952724896 
0.91422560776 -0.34220589973 0.21699460891 0.92104748964 -0.32246665837 0.21837302046 0.93027600497 -0.29197356182 0.22212157432 
0.94207115721 -0.24490760522 0.22917722325 0.95343398396 -0.18505633065 0.23815497624 0.96248275486 -0.10689541874 0.24939991187 
0.96501236518 -0.0082882383315 0.26207334881 0.95581017999 0.1063017715 0.27409274561 0.92856859167 0.23885921676 0.28408914997 
0.88197236256 0.3721878067 0.28913835482 0.80875164571 0.51266097684 0.28826983606 0.71720982906 0.6379490389 0.28041234792 
0.61067962516 0.74582068296 0.26612385141 0.49903587113 0.83057977576 0.24718502266 0.38506698621 0.89510144489 0.22475947029 
0.26717189867 0.94288508728 0.19896454144 0.16301391888 0.97116130892 0.17398900631 0.060256452511 0.98719430091 0.1477043404 
-0.0436907263 0.99185934589 0.11960835423 -0.12925364649 0.98705149554 0.094988631032 -0.22224602238 0.97266749578 0.067265505242 
-0.31646623534 0.94784464859 0.037942641249 -0.39010631807 0.92066851048 0.013658492308 -0.47058042765 0.88225061109 -0.013708403895 
-0.54345608637 0.83849852526 -0.039695154936 -0.61263058441 0.78765081756 -0.065497760639 -0.68338607578 0.72409086828 -0.093144435697 
-0.73634137455 0.66670808509 -0.11533303695 -0.78579010725 0.60307596919 -0.13723440797 -0.83578005038 0.52497407618 -0.16085374327 
-0.87493274001 0.44904141495 -0.18125812568 -0.9079889374 0.36788805155 -0.20053546094 -0.93614722524 0.27444607164 -0.21979018732 
-0.95396454669 0.18554768421 -0.23563467604 -0.965416591 0.059263481511 -0.25388707251 -0.96061662899 -0.07249095521 -0.26825501584 
-0.92980211978 -0.23951921104 -0.27946120589 -0.8576704073 -0.42997267306 -0.28200172492 -0.70324640486 -0.65911829744 -0.26647244517 
-0.42824773439 -0.87727025137 -0.21679664215 -0.03339611445 -0.99189350645 -0.12260494036 0.38705486547 -0.92205663088 -0.00031712993828 
0.70433008932 -0.70111215551 0.11117945259 0.87703394666 -0.44227060361 0.18763840113 0.95855192491 -0.14826211223 0.24330341825 
0.94961365735 0.15054078647 0.27490247976 0.87603797913 0.39105993925 0.28218714188 0.73935976998 0.61655290367 0.27057281369 
0.59277589509 0.76639730238 0.24749123846 0.45932032791 0.86023454038 0.22140770516 0.3220465593 0.92724038405 0.19107926058 
0.20871000269 0.96419591181 0.16360433496 0.11736429344 0.98319735814 0.13981622785 0.041909602104 0.99201697271 0.11893658436 
-0.017584042313 0.99468766392 0.10142609473 -0.075799357152 0.99361083763 0.083617945484 -0.11777235897 0.99058991608 0.06972294909 
-0.1568084876 0.98602676243 0.056234526734 -0.18820302644 0.98111872791 0.04456077398 -0.21197820519 0.97665445913 0.034803850264 
-0.23575628184 0.97149463669 0.024842432587 -0.25333716314 0.96723663509 0.01654005758 -0.26932419235 0.96301103259 0.0086157137754 
-0.28072420046 0.95978636128 0.0020159286642 -0.28869080131 0.95741585428 -0.0035359875551 -0.29586212586 0.95519044469 -0.008764522886 
-0.29797634868 0.95449343747 -0.012343963957 -0.29576285193 0.95515225386 -0.01443978394 -0.28509342662 0.9584007492 -0.013774688155 
-0.27197898813 0.96222700878 -0.012108410037 -0.23772998592 0.97132345619 -0.0038983645525 -0.17785572018 0.98398302507 0.012031175235 
-0.050413868811 0.9976114363 0.047221435859 0.28267057482 0.94948316499 0.13630504585 0.90803829136 0.31873628335 0.27179706234 
0.88724709917 -0.40442399265 0.22188695137 0.76407052299 -0.62131531869 0.17367645394 0.69329407541 -0.70538113675 0.14758311867 
0.65640990434 -0.7425429245 0.1332518021 0.63396242639 -0.76345059583 0.12342945208 0.61951084266 -0.77639300741 0.11584564675 
0.60999991716 -0.78480316873 0.10947185673 0.6040143417 -0.79017713997 0.10385933995 0.60277320895 -0.79169283441 0.09943296497 
0.60142228099 -0.79330353131 0.094661222985 0.60217488129 -0.79323877759 0.090319732403 0.60527536057 -0.79129766191 0.086543331 
0.60918163593 -0.78868643485 0.082894161011 0.61502741176 -0.78445636029 0.079809157296 0.6220666744 -0.77915822555 0.077107147298 
0.63175406163 -0.77150029531 0.075326621806 0.64193098287 -0.76320025627 0.073823993836 0.65737657991 -0.74989520698 0.074250998185 
0.67264802626 -0.73616577728 0.07486375046 0.69365420504 -0.71610099149 0.07773811045 0.71648017518 -0.69281351982 0.081643036008 
0.74498678728 -0.66123947111 0.08807410865 0.77721000274 -0.6217897511 0.096551111172 0.81485615241 -0.56950006362 0.10807001629 
0.85478755284 -0.50445150863 0.12192995923 0.89661386651 -0.42049233472 0.13881560007 0.93521873542 -0.31701402606 0.15769598665 
0.96494577471 -0.19337863849 0.17743831055 0.97900634958 -0.057346856751 0.19559628192 0.97385841603 0.08502871834 0.21064164493 
0.9492026106 0.22377918229 0.22121772443 0.91033143956 0.34623299443 0.22675842591 0.86495550511 0.44700853261 0.228112573 
0.81733370065 0.52973973237 0.22658649063 0.7733737166 0.59335522665 0.22320992245 0.73550260491 0.64119850538 0.21886158838 
0.70044550339 0.68091424139 0.213850164 0.67526941454 0.70736978039 0.20890000376 0.65322272024 0.7292310291 0.203769929 
0.63607464916 0.74560845542 0.19868837889 0.62333148434 0.7575883417 0.19369503131 0.61430871963 0.76614953087 0.18878478048 
0.60903919293 0.77150444057 0.18398956398 0.60464407785 0.77610456237 0.17907330173 0.6024924713 0.77888521421 0.17418566275 
0.60283520213 0.77968240065 0.16936668264 0.60497960241 0.77904954023 0.1645645604 0.60607424841 0.7792446677 0.15953605637 
0.60865246442 0.77824301714 0.15453149786 0.61281884044 0.77593851103 0.14957438252 0.61492599644 0.77526048716 0.14435094721 
0.61965539012 0.77241426701 0.13929607895 0.62057541532 0.77264010921 0.13384100844 0.62292642967 0.77165897684 0.12847212418 
0.62444418554 0.77132589071 0.12298711095 0.62356180974 0.77293099568 0.11725333834 0.62169599456 0.7752962726 0.11139919228 
0.61838671116 0.77877574016 0.10538606165 0.61207911962 0.78456574886 0.099074401505 0.60703665302 0.78923101948 0.092848800624 
0.59716588346 0.7974780829 0.086148795321 0.58689891029 0.80575947509 0.079380963741 0.57603774756 0.8141990975 0.07252822223 
0.56159494047 0.82483034401 0.065314825588 0.54766408796 0.83467650663 0.058130680741 0.53106696025 0.84581238474 0.05068819928 
0.51506741714 0.85605488689 0.043308041051 0.49819043409 0.86632560549 0.035864141663 0.47990180524 0.87686484849 0.028324809259 
0.46123831324 0.88703212238 0.020814232342 0.44408456096 0.895882771 0.01352639413 0.42411126865 0.90558963381 0.0060866198704 
0.40600297746 0.9138711549 -0.0010461977461 0.38769408793 0.92175307309 -0.0080353239476 0.36790030036 0.92974480003 -0.014965821627 
0.34828811358 0.93713722173 -0.021661430913 0.32655812357 0.94475352611 -0.028294289731 0.30549189678 0.95156605664 -0.034593942521 
0.27988828635 0.95915790415 -0.040971478792 0.24997504981 0.96709311885 -0.047364268725 0.2183827728 0.97439432915 -0.053522480035 
0.17506718969 0.98271572995 -0.06017701563 0.12455889542 0.98995575896 -0.066878074662 0.051184986641 0.99590059128 -0.074579551087 
-0.038244814478 0.99585797341 -0.082487762523 -0.16805088651 0.9815278249 -0.091444127645 -0.33735075658 0.93605071262 -0.10001765067 
-0.5449263394 0.83177902858 -0.10582500763 -0.74916976832 0.65400242887 -0.10500229166 -0.897922022 0.42943607502 -0.096543771826 
-0.97292534936 0.21520526661 -0.084279047164 -0.99611432792 0.049254582517 -0.073008436566 -0.99538748733 -0.07111867519 -0.064388540208 
-0.98706430835 -0.14895533276 -0.059298904066 -0.9777959975 -0.20175079689 -0.056671008631 -0.97008919488 -0.23617946539 -0.056091123273 
-0.96544232257 -0.25419688339 -0.057489705665 -0.96264426732 -0.26402848019 -0.060041454407 -0.96237477237 -0.26410252421 -0.06391129961 
-0.96348210999 -0.25883957933 -0.06858786996 -0.96588663285 -0.24815594034 -0.074038110172 -0.96936388625 -0.23217099916 -0.080189046465 
-0.97364365365 -0.21084164887 -0.086970309974 -0.97792098609 -0.18661044685 -0.09405895005 -0.98222194149 -0.15789790526 -0.10152984376 
-0.98612563571 -0.12496985059 -0.1092646651 -0.9893240972 -0.086498208609 -0.11728550893 -0.9911384037 -0.043954452775 -0.12535019261 
-0.99104310084 0.0043259156789 -0.13347231447 -0.98822020395 0.058296159858 -0.14150048146 -0.98170450122 0.11818836697 -0.14929093138 
-0.97032422266 0.18419899537 -0.15665769378 -0.95241817595 0.25728533065 -0.16341320861 -0.92648622406 0.3361400162 -0.16921337459 
-0.89109923494 0.41924850405 -0.17370332564 -0.8449777264 0.50482684423 -0.17652903227 -0.78766270021 0.59002234223 -0.17737278925 
-0.71887451801 0.67249373424 -0.17598751309 -0.64158783795 0.74741581503 -0.17243736729 -0.55863865363 0.81242857633 -0.16698102596 
-0.47621123777 0.86458155117 -0.16037954484 -0.39067252212 0.90783178095 -0.15236941278 -0.31272057993 0.93879943811 -0.14443494691 
-0.2371640756 0.96188932524 -0.13609602209 -0.17463805568 0.97613725767 -0.12906433934 -0.11411615225 0.9859646522 -0.12186553413 
-0.060316506816 0.99149765686 -0.11530097763 -0.019459754373 0.99368343214 -0.11051947631 0.025894132547 0.99417126036 -0.10465657639 
0.059722518756 0.99314548147 -0.10047523774 0.09648705574 0.99074648577 -0.095454958005 0.13097061886 0.98724690822 -0.090499940363 
0.17325065837 0.98131580209 -0.083686952102 0.22066107197 0.97243339442 -0.075378940944 0.33122518878 0.94204084149 -0.05337534337 
0.82549418301 0.55921740555 0.076388789333 0.250575416 -0.9555647548 0.15526738319 0.061767406044 -0.99006180406 0.1263424382 
-0.0059692480162 -0.99344130706 0.1141872913 -0.042190632 -0.99340423839 0.10662068147 -0.056714878836 -0.9931346281 0.10230851865 
-0.067642216447 -0.99286950307 0.09815640796 -0.072272419501 -0.99288295325 0.094658008246 -0.074224387101 -0.9930641334 0.09118315263 
-0.077128963975 -0.99320901702 0.087103222802 -0.073402899461 -0.99377562935 0.083797451355 -0.071546137378 -0.99424206059 0.07977390031 
-0.06816382443 -0.99479930256 0.075683820425 -0.064109117917 -0.99538383772 0.07142154162 -0.059392014861 -0.99598144453 0.067033951979 
-0.054422922815 -0.99655977151 0.06250413813 -0.051479860605 -0.99701861756 0.057477823443 -0.046282842881 -0.99753352024 0.052770962281 
-0.0440850643 -0.99789779809 0.047502543804 -0.042967291336 -0.99819104185 0.042053012339 -0.042321622953 -0.99843444866 0.036572284077 
-0.047041046126 -0.99843562727 0.030223139889 -0.053738272514 -0.99827554971 0.023624667394 -0.064022364021 -0.99781191162 0.016508359625 
-0.078562664999 -0.99687070299 0.0087583782047 -0.099345904841 -0.99505295889 1.4020399753e-05 -0.12416723364 -0.99221735082 -0.0093395298371 
-0.15519443826 -0.98768735158 -0.019707406057 -0.19097389441 -0.98111028956 -0.030847550351 -0.23104817518 -0.97200513046 -0.042693876653 
-0.27676323641 -0.95933343442 -0.055511012998 -0.32023069502 -0.9449029013 -0.067902938653 -0.36770695935 -0.92640692607 -0.081004934312 
-0.41346278774 -0.90567531382 -0.093812307765 -0.45624862027 -0.88350165287 -0.1061226926 -0.49710478861 -0.85961001773 -0.11814163767 
-0.5333832285 -0.83591304865 -0.12942838424 -0.56393342781 -0.8138996143 -0.13980882247 -0.5928831579 -0.79119283906 -0.15001150791 
-0.61692665443 -0.77069089442 -0.15948996304 -0.63788526326 -0.75145685841 -0.16856743712 -0.65398215453 -0.73552219543 -0.17695886977 
-0.66877000359 -0.72002300779 -0.18523917119 -0.68132345802 -0.70601021298 -0.19325611173 -0.69043547547 -0.69496426526 -0.20080718169 
-0.69971138935 -0.68334387087 -0.2084349437 -0.70501003535 -0.67566893909 -0.21548163447 -0.71059780624 -0.66746681483 -0.22257315397 
-0.71390906611 -0.66163234517 -0.22929562831 -0.71693301415 -0.65601203358 -0.23591368129 -0.71914013772 -0.65124406858 -0.24231926349 
-0.71934679238 -0.64875445783 -0.24830997915 -0.7189810334 -0.64692858205 -0.25406629714 -0.71730022736 -0.6466559528 -0.2594541627 
-0.71395554755 -0.648353569 -0.26439577471 -0.7096303796 -0.65121794411 -0.26896080312 -0.70249536085 -0.65730578231 -0.27285413049 
-0.69362981527 -0.66527457752 -0.27620176659 -0.68084648546 -0.6773574105 -0.27863058281 -0.66407347431 -0.69323141208 -0.28006540313 
-0.64073963805 -0.71488138189 -0.27999522509 -0.61038110468 -0.74164957311 -0.27819205193 -0.56918596347 -0.77529917908 -0.2737490126 
-0.51161246224 -0.81726459557 -0.26520043233 -0.43491649739 -0.86468401365 -0.25133483012 -0.33092950982 -0.91535038251 -0.22938905109 
-0.19115356241 -0.96184208052 -0.19575527509 -0.012957995802 -0.98898073631 -0.14747607789 0.17654980728 -0.98013212904 -0.090394552785 
0.3668455432 -0.92989210439 -0.026926225808 0.53306796122 -0.84537588955 0.034324249293 0.65152339689 -0.75417709033 0.082062048024 
0.7363685617 -0.66601165291 0.11912102895 0.79248273154 -0.59234554178 0.14525109066 0.83053942947 -0.53232402669 0.16381509914 
0.85301331199 -0.49178399121 0.17469057092 0.86538902106 -0.46764233009 0.18003470037 0.86928526825 -0.46024478587 0.18032709027 
0.86328702519 -0.47355697685 0.17458322317 0.8410230444 -0.5169439424 0.15952805147 0.79086111217 -0.59788291433 0.13067027976 
0.67570660407 -0.7333771204 0.074689922249 0.39992515657 -0.91589838677 -0.034496583159 -0.054688228236 -0.98290756098 -0.17578943159 
-0.4491668277 -0.85234960558 -0.26786061815 -0.65814754938 -0.68962536873 -0.30209047329 -0.75400593322 -0.57761735176 -0.31278306799 
-0.80163728608 -0.50686050603 -0.31697017052 -0.82815613213 -0.46041907065 -0.31964308251 -0.84177458037 -0.43305668027 -0.3223002754 
-0.8481309323 -0.41805001335 -0.32543525933 -0.85128834841 -0.40867797481 -0.32907515975 -0.85072635035 -0.40642658558 -0.33328982485 
-0.84843915301 -0.40735683013 -0.33795179626 -0.84368771394 -0.41292535055 -0.34305057386 -0.83808706325 -0.41975817152 -0.34844390058 
-0.830422406 -0.43012164242 -0.35411015282 -0.8219378926 -0.44143686984 -0.35993275852 -0.81166846628 -0.45534342039 -0.3658642786 
-0.80068319831 -0.46973829478 -0.37182300944 -0.78872883501 -0.48497610241 -0.37776315981 -0.77523082257 -0.50185017285 -0.3836190503 
-0.76112415564 -0.51872832541 -0.38937250045 -0.74618573906 -0.53589925374 -0.39499219317 -0.73062989262 -0.55299554173 -0.40046958792 
-0.71423037736 -0.57028417411 -0.40577201581 -0.69797771406 -0.58644287208 -0.41098889092 -0.68120360461 -0.60236952413 -0.41606802985 
-0.66447499768 -0.61738503221 -0.42108039549 -0.6481084081 -0.63119210541 -0.42608921297 -0.63178259449 -0.6442229478 -0.43107719357 
-0.61601884298 -0.65596966256 -0.43614743709 -0.60063243224 -0.66670428122 -0.44130044498 -0.5856880401 -0.67642042728 -0.44657017952 
-0.57166991601 -0.68470959373 -0.45206888788 -0.55816306921 -0.69203834683 -0.45775202313 -0.54482605207 -0.698759908 -0.46357217771 
-0.53251400435 -0.70413119571 -0.46971064966 -0.52048060832 -0.70886291558 -0.47603918249 -0.50890521138 -0.71281726248 -0.48260443029 
-0.49748896478 -0.71626954735 -0.48934922649 -0.48653244419 -0.71897929288 -0.49634157306 -0.47541294173 -0.72147535472 -0.50344398633 
-0.46437434667 -0.72355842947 -0.51070506685 -0.45289006188 -0.72565489926 -0.51799185227 -0.44125792498 -0.72752506233 -0.52535581021 
-0.42894229432 -0.7295846978 -0.53264873687 -0.415668667 -0.73203194413 -0.53976734993 -0.40172140061 -0.73463541578 -0.54674557353 
-0.38641736895 -0.73788212066 -0.5533638884 -0.36960257547 -0.74184488611 -0.5595177398 -0.35089867014 -0.74673394095 -0.56502968482 
-0.33036083963 -0.75243733658 -0.56982433273 -0.30716012812 -0.75940114656 -0.57355257327 -0.28142425662 -0.7673907596 -0.57611787844 
-0.25238202442 -0.77668365 -0.57711855071 -0.21998239148 -0.78704446775 -0.57634083077 -0.18335177977 -0.79861197984 -0.57323732478 
-0.14293890196 -0.81073635144 -0.5676927327 -0.097692068344 -0.8234145681 -0.55896753825 -0.048913255834 -0.83553640457 -0.54725351532 
0.0045614361755 -0.8469511328 -0.53165117507 0.061947187133 -0.85670108816 -0.51207986833 0.12083879819 -0.86361601867 -0.48945414202 
0.18223495172 -0.86745752197 -0.46293398013 0.24385104345 -0.86747802981 -0.43361104276 0.30394347975 -0.86345635232 -0.40256861373 
0.36186373556 -0.85550528374 -0.3703584026 0.41585121691 -0.8440689182 -0.33854900197 0.46700097579 -0.82940838299 -0.30658085856 
0.5134799267 -0.81237644115 -0.27637453345 0.55563438759 -0.79353786 -0.24812918423 0.59430033683 -0.77314988302 -0.22146414615 
0.6287424341 -0.75209690407 -0.19756821216 0.65992377341 -0.73046682019 -0.17583753269 0.68762836131 -0.70890526056 -0.156909427 
0.71330560946 -0.68686710768 -0.13931505269 0.73632151465 -0.66515814882 -0.12407765362 0.75737805135 -0.64356416114 -0.11047016716 
0.77608787047 -0.62276949002 -0.099225901855 0.79404202417 -0.60145231298 -0.088047595394 0.8093034845 -0.58191233921 -0.080036863092 
0.82397371958 -0.56205354368 -0.071854877949 0.83726508759 -0.54294806893 -0.064765481111 0.84873796571 -0.525442206 -0.059618400848 
0.85949142694 -0.50824947408 -0.054377928575 0.86909627502 -0.49212962387 -0.049800582797 0.87772413935 -0.47699970197 -0.045515047259 
0.88474277531 -0.46410336535 -0.042875258772 0.89153169524 -0.45128616473 -0.038884880292 0.89636290328 -0.44173972208 -0.03741074111 
0.90127617389 -0.43192496774 -0.033794683194 0.90423399987 -0.42577284564 -0.032838352476 0.90707412802 -0.41988832642 -0.030171503448 
0.90707412802 -0.41988832642 -0.030171503448 
BinormalArray 3 436 double
-0.59813635042 0.80113523537 -0.020377462098 -0.59813635042 0.80113523537 -0.020377462098 -0.59351968268 0.80459516856 -0.019000026309 
-0.59421072573 0.80408004562 -0.019206604581 -0.58645727845 0.80980422451 -0.016881306862 -0.57952836242 0.81481771138 -0.014797782937 
-0.5698390819 0.8216705504 -0.011871281879 -0.55965672996 0.8286780305 -0.0087787453124 -0.54377539815 0.83922158829 -0.0039296457843 
-0.52623022115 0.85034089928 0.0014523624053 -0.50671197473 0.86208303131 0.0074713987565 -0.48284920459 0.87557732777 0.014865689401 
-0.45879917893 0.88825874429 0.022354342158 -0.42904341578 0.90272891029 0.031658520236 -0.39777353916 0.91654613681 0.041465535578 
-0.3630319048 0.93030288661 0.052386785162 -0.32554670931 0.94334499854 0.064183750222 -0.28466564837 0.95552575341 0.077045461967 
-0.23975678561 0.96654537801 0.091141187149 -0.19106843701 0.97579815457 0.10635231034 -0.13839366322 0.9827484583 0.12268928923 
-0.08050153752 0.98680889436 0.1404553611 -0.018238222213 0.9870633439 0.15929005741 0.051448161847 0.98232642755 0.1799663201 
0.12768930492 0.97102397979 0.20200958414 0.21017993288 0.9514017572 0.22507574772 0.30466084811 0.9189781259 0.25032173647 
0.40478171326 0.87193757094 0.27545714183 0.51728091086 0.80104102882 0.30125359651 0.63434793401 0.70166042657 0.32446162239 
0.74639452294 0.57119363674 0.34151580559 0.85034344696 0.39387523438 0.34896750845 0.92248895049 0.18146482883 0.34071197825 
0.9480094713 -0.054834425025 0.3134824208 0.92092940244 -0.28059983958 0.27046767966 0.84588218265 -0.48841581393 0.21432061447 
0.73944870744 -0.65536150596 0.15400294015 0.61942648291 -0.77919061733 0.09577480948 0.48921098997 -0.87128982305 0.039072388356 
0.36972529855 -0.92909933351 -0.0088109066374 0.25354000089 -0.96590975808 -0.052304944204 0.14722017358 -0.98502296694 -0.089755083892 
0.053513998001 -0.99120932473 -0.12099721724 -0.032122627667 -0.98844875571 -0.14811209987 -0.10183824406 -0.98031630496 -0.1691416988 
-0.1633835844 -0.96870118446 -0.18687915766 -0.21266870077 -0.95633665015 -0.20048001218 -0.25084410177 -0.9448402386 -0.21060427375 
-0.27896350347 -0.93527671665 -0.21779997023 -0.29255278364 -0.93031913595 -0.22117679368 -0.29799690208 -0.92827353975 -0.2224996219 
-0.29520495894 -0.92932468626 -0.22183250377 -0.27624085201 -0.93619267658 -0.21733445196 -0.24669368018 -0.94599880865 -0.2103056875 
-0.20086986857 -0.95913798032 -0.19926271754 -0.14254869102 -0.97236649029 -0.18488720684 -0.066394084572 -0.98397027588 -0.16551230083 
0.029536823691 -0.98970220649 -0.14006112419 0.14070766687 -0.98402877448 -0.10903542301 0.26883713334 -0.96055871708 -0.071088302667 
0.39708140658 -0.91727682265 -0.030489132223 0.53140881473 -0.8469758635 0.015380451013 0.65029955262 -0.75732962741 0.059685235279 
0.75169031769 -0.651672329 0.10141420959 0.83036191 -0.53991602014 0.13780344558 0.88922101587 -0.42502899791 0.16922274041 
0.93163529243 -0.30550732317 0.19677641472 0.95549582565 -0.19934393499 0.21746200302 0.96748617883 -0.094174969581 0.23473723369 
0.96838031907 0.012610318523 0.24915966267 0.96066466485 0.10089921419 0.258732971 0.94340727234 0.19711663873 0.26669786132 
0.9159696533 0.29493333433 0.27205499909 0.88692544203 0.37174118816 0.27417466933 0.8467479465 0.45590385415 0.27417073306 
0.80164680187 0.53243830073 0.2717937839 0.74978522541 0.60538760426 0.267072957 0.68553132737 0.6803374767 0.2592059355 
0.62787139447 0.73682317015 0.25073716904 0.56426946451 0.78988148831 0.24018161013 0.48660390042 0.84391039258 0.22590239793 
0.41140903234 0.88672403588 0.2108627333 0.33135119903 0.92340681256 0.19371691054 0.23952170188 0.95539264923 0.17278379589 
0.1524512609 0.97658330396 0.15180139481 0.029256299364 0.99229691759 0.12037813871 -0.09874029173 0.99141826403 0.08567485362 
-0.26021398669 0.96476761844 0.038886032795 -0.44319173381 0.89623397146 -0.018594501676 -0.66128746729 0.74406271013 -0.095234284815 
-0.86508008941 0.46734351678 -0.18228131071 -0.96468124328 0.064062883395 -0.2555113419 -0.88427292439 -0.37109677783 -0.28345824502 
-0.66011298331 -0.70448120876 -0.26068577976 -0.40344490236 -0.89006232029 -0.21218217823 -0.1153195077 -0.98275685276 -0.14453504589 
0.17477383713 -0.98241086125 -0.065749566943 0.40630297315 -0.91372524423 0.0049063290856 0.62136383928 -0.77957959212 0.078502476269 
0.76261325007 -0.63294108252 0.13344143612 0.84981997183 -0.49811001316 0.17231491599 0.91084575169 -0.35850234059 0.20453872107 
0.94336854173 -0.24259678111 0.22627990689 0.95908201962 -0.14874418001 0.24090838206 0.96535862059 -0.070890137403 0.25111217029 
0.96611264554 -0.0092243008333 0.25795594274 0.96326889894 0.051301853336 0.2635927696 0.95898339274 0.095222474293 0.26698976166 
0.95328673869 0.13622585264 0.26960510179 0.94746356065 0.16942476876 0.27130803337 0.94227407425 0.19481111329 0.27233839085 
0.93642459 0.22026168831 0.27311861143 0.93161406916 0.23932956825 0.27352620331 0.92689065812 0.25677327084 0.27375389544 
0.92325979333 0.26946554749 0.27382416389 0.92055095292 0.27858615899 0.2738169007 0.91802181762 0.28686142612 0.27376351944 
0.91709522195 0.28984128556 0.27373049349 0.91758422211 0.2882684452 0.27375262343 0.92075232501 0.27783098102 0.27390710464 
0.92453885197 0.26477521381 0.27408392391 0.93379829102 0.22964695927 0.27437752419 0.94694006907 0.16780843862 0.27412557984 
0.96213971103 0.035831958932 0.27019113083 0.92107648188 -0.30834860605 0.23777983865 0.32232640844 -0.94606701028 0.032602123834 
-0.37614306368 -0.91272579738 -0.15952433809 -0.58760135585 -0.78136932693 -0.2102061406 -0.67002684563 -0.70633024215 -0.22838917479 
-0.70665273867 -0.66703682832 -0.23601647528 -0.72738503671 -0.64283879769 -0.24014430778 -0.74032982068 -0.62693576556 -0.24261760544 
-0.74885054614 -0.61611584336 -0.24418052155 -0.75441293119 -0.60889924264 -0.24515880887 -0.75618951089 -0.60657038518 -0.24545832934 
-0.75809801318 -0.60405827344 -0.24576615858 -0.75837323 -0.60369548175 -0.24580848103 -0.75680664319 -0.60575135477 -0.24557890997 
-0.75459518457 -0.6086284519 -0.24527028961 -0.75078228968 -0.6135281462 -0.24476349263 -0.7459116415 -0.61968434505 -0.24414572612 
-0.73867881296 -0.62862943261 -0.24326661863 -0.73080089768 -0.6381216115 -0.24234450041 -0.71788334786 -0.65316429707 -0.24087320293 
-0.70452939002 -0.66808453458 -0.23937709425 -0.68478686194 -0.68906862425 -0.23717374389 -0.66179235192 -0.71204250707 -0.2345769619 
-0.63046083852 -0.74107032276 -0.23094135147 -0.5912311047 -0.77413518215 -0.22618687097 -0.53915976998 -0.81309717758 -0.21949879784 
-0.47439392293 -0.85475468588 -0.21058212851 -0.39086925963 -0.89886413887 -0.19815267277 -0.28810616997 -0.9402359592 -0.18152458746 
-0.16561254117 -0.97313740258 -0.1599252385 -0.031218654654 -0.99047063922 -0.13413913841 0.10901026775 -0.98848265593 -0.10497047417 
0.24521836277 -0.96661017651 -0.074382264181 0.36501090429 -0.92988968222 -0.045521628387 0.4632480741 -0.88599502275 -0.020348009966 
0.54361623142 -0.83933276852 0.0013771783619 0.60518605471 -0.79586228966 0.0187897601 0.65130788966 -0.75812559181 0.032305106481 
0.68946208027 -0.72299597986 0.043804714007 0.7147161499 -0.69751107091 0.051566762795 0.73549212891 -0.6750443012 0.058021717708 
0.75094168592 -0.65737131507 0.062845353719 0.76212502453 -0.64402308409 0.066330341081 0.7699940763 -0.63433494246 0.068762658778 
0.77475541961 -0.62835026948 0.070213806571 0.77878537518 -0.62321151204 0.071419539773 0.78105337566 -0.62028994364 0.072083355794 
0.78139940321 -0.61984250561 0.072181998444 0.7803599085 -0.62118401874 0.071894562188 0.78013496348 -0.62147346211 0.071834355699 
0.7787535977 -0.62324461449 0.071477161209 0.77611120925 -0.62660675675 0.070819229552 0.77507356184 -0.62791777882 0.070570792721 
0.77192775685 -0.63186137741 0.069847962987 0.77181212549 -0.63200542882 0.069822495605 0.77053146425 -0.63359587904 0.069552315985 
0.76990838343 -0.63436662511 0.069426695629 0.77121608394 -0.63274850043 0.069678454864 0.77329784725 -0.63016024118 0.070060758425 
0.77650533989 -0.6261406019 0.070621553191 0.78202348817 -0.61912962155 0.071538630637 0.78645938454 -0.61340316003 0.072237107711 
0.79447116961 -0.60284645537 0.073428277295 0.80255055876 -0.59190683201 0.074558050187 0.81082125634 -0.5803857973 0.075638724013 
0.82130341697 -0.56528370795 0.076909211425 0.83104343346 -0.55071210859 0.077993494268 0.84210491812 -0.53348004455 0.079109727281 
0.85231690694 -0.51686698166 0.080027579054 0.86259694468 -0.49939247142 0.080831123422 0.87318529956 -0.48052150309 0.081526177967 
0.88344247776 -0.46129735477 0.08206179976 0.89242205833 -0.44361324746 0.082402405791 0.90229644345 -0.42312432004 0.08262528624 
0.91077807213 -0.40453417435 0.082676508853 0.91889125909 -0.38577048012 0.082583234663 0.92714481363 -0.36554622174 0.082331369052 
0.93482221354 -0.34553378513 0.081937978958 0.94274910166 -0.32342894061 0.081350179431 0.94988470667 -0.30202050094 0.080639078908 
0.95782629974 -0.27609898646 0.079612368413 0.96613451272 -0.24589611025 0.078225355821 0.97381768596 -0.21404772288 0.076568184268 
0.98257103259 -0.17050781948 0.074035460437 0.99027055525 -0.11981773893 0.070766777782 0.99677506667 -0.046322916995 0.065525978306 
0.99735674951 0.043144985589 0.058463872828 0.98382774396 0.17282787629 0.047047799077 0.93930711444 0.34174819554 0.030171437077 
0.83610555169 0.5485348574 0.0060841308133 0.6592739391 0.75155924089 -0.022728410892 0.43529064237 0.89889312774 -0.050131841944 
0.22127516709 0.97263751867 -0.070806480683 0.055355973121 0.9949227514 -0.084050193289 -0.065017522539 0.99360199462 -0.092346077609 
-0.14280000623 0.98496787401 -0.097192825842 -0.19547761853 0.97556592695 -0.1002976711 -0.22972461903 0.96786667494 -0.10227755839 
-0.24749727839 0.96336402965 -0.10331913453 -0.25704189264 0.96079872904 -0.1039002777 -0.25679003514 0.96086782471 -0.10388407625 
-0.25117879044 0.96239145618 -0.10349831069 -0.24013279029 0.96529404759 -0.10268225124 -0.22378175715 0.96935230326 -0.1013796692 
-0.20209408135 0.97429712154 -0.099514326814 -0.17752155062 0.9793014946 -0.097235187773 -0.14849690738 0.98440278116 -0.0943389259 
-0.11529720706 0.98917389172 -0.090783071057 -0.076610801976 0.99331527453 -0.086345529152 -0.033917198821 0.99612760596 -0.081113601063 
0.0144261788 0.99709426259 -0.074799176946 0.068356133003 0.99538814363 -0.067304402477 0.12808546428 0.990037214 -0.0584844316 
0.19378816032 0.97985945905 -0.048182874905 0.26638801847 0.96318984351 -0.036093614039 0.34456234114 0.93849973023 -0.022249706228 
0.42678490643 0.90432810074 -0.0067327450568 0.51126519751 0.85936110232 0.010314729148 0.59516521497 0.80309762925 0.028505522058 
0.67615791427 0.73522352109 0.047506305014 0.74950251915 0.65867376929 0.066293585214 0.81290331223 0.57627621579 0.084225459791 
0.86353295373 0.49422878704 0.10024342314 0.90525867055 0.40891681126 0.11529865945 0.93490444173 0.33108671319 0.12780951915 
0.95675500753 0.2555591124 0.13895825143 0.97003695994 0.19305061043 0.14751189162 0.97894861482 0.13249400876 0.15525767994 
0.98369813621 0.078648080789 0.1617172106 0.9853394493 0.037799811598 0.16636509219 0.98519210808 -0.0076291363702 0.17128428551 
0.98373374402 -0.041474353369 0.1747792862 0.98083132725 -0.078331174773 0.17842122785 0.97685145294 -0.11293742147 0.18167657452 
0.97027536512 -0.1554867206 0.18544431932 0.96063333651 -0.20330652106 0.18934109773 0.92835878075 -0.31525949125 0.1968792203 
0.53866991067 -0.82100399541 0.18917496361 -0.95333712482 -0.27146031317 -0.13212730534 -0.98379077017 -0.081743459958 -0.15960490996 
-0.98571286805 -0.013376087406 -0.1679024182 -0.98482159117 0.023366715901 -0.17198962221 -0.9840769267 0.038317828175 -0.17356366667 
-0.98336262765 0.049721875252 -0.17471599143 -0.98300129116 0.054848801205 -0.17521435607 -0.98281682926 0.057348787638 -0.17544855849 
-0.982547195 0.060886502537 -0.1757664456 -0.98278166058 0.057792289208 -0.17550002544 -0.98286470557 0.056653541516 -0.17540623358 
-0.98304905221 0.054029496484 -0.17520095453 -0.98326541015 0.050774737877 -0.17496016457 -0.98350632789 0.046890700172 -0.17468991167 
-0.98374098635 0.042783102959 -0.17442269884 -0.98384892103 0.040751495672 -0.174300362 -0.98405979432 0.036449541552 -0.17406249487 
-0.98411668363 0.035193418867 -0.17399935709 -0.98412374038 0.035031610369 -0.17399209723 -0.98411053534 0.035340749217 -0.17400426913 
-0.98385366128 0.041081014724 -0.17419622102 -0.98346340002 0.048813549138 -0.17440463942 -0.98279348454 0.060169518283 -0.17463274555 
-0.98167415489 0.075828994733 -0.17483082444 -0.97971084359 0.097811686122 -0.17492723345 -0.97677888406 0.12388064293 -0.17480445634 
-0.97221290515 0.15624135891 -0.17432929994 -0.96567582778 0.19342070523 -0.17337423806 -0.95670088689 0.23495681831 -0.17181008861 
-0.9442735395 0.28222111728 -0.16940697613 -0.93017137738 0.32720264936 -0.16649214682 -0.91213671325 0.37625965902 -0.16258931496 
-0.89196156519 0.42357603302 -0.15807564797 -0.8704219633 0.46788696052 -0.15312543221 -0.84725033232 0.51025340323 -0.14767646691 
-0.82431263863 0.5479936648 -0.14216756707 -0.80305912353 0.57994785027 -0.13695450003 -0.78117866489 0.61030677895 -0.13147444275 
-0.76148886638 0.63572632059 -0.126438727 -0.74307950109 0.65805751869 -0.12162712341 -0.72791845452 0.6755081879 -0.11757300558 
-0.71322870342 0.6916725302 -0.11355143144 -0.70002592288 0.70561783776 -0.10985069108 -0.68973537212 0.7161275058 -0.10689486363 
-0.67893660858 0.72683426518 -0.10371611494 -0.67197827862 0.7335661678 -0.10161629061 -0.66455152563 0.74061270607 -0.099318122155 
-0.65943086073 0.7453904199 -0.097693714463 -0.65454449313 0.74989022979 -0.096104889452 -0.65049780787 0.75357394353 -0.094757129497 
-0.64864345857 0.75524977931 -0.094124569072 -0.6474327124 0.75634046002 -0.093701608579 -0.64770356142 0.75609651791 -0.093798465493 
-0.64984069521 0.75416280368 -0.094580845813 -0.65307156718 0.75121334885 -0.09579161054 -0.65932728652 0.74541650688 -0.098192466757 
-0.6673248333 0.7378401364 -0.10133854145 -0.67914570447 0.72629294209 -0.10611161278 -0.69445799252 0.71068811741 -0.11247442554 
-0.71507766915 0.6884355663 -0.12132764784 -0.74033201926 0.65903427381 -0.13259836807 -0.77176708197 0.61860706333 -0.14731215964 
-0.8105364586 0.56147847744 -0.16665103853 -0.85373905032 0.48470639551 -0.19023497079 -0.89889089835 0.37975700752 -0.21858583694 
-0.93844023372 0.2375462969 -0.25080208247 -0.9575644438 0.054743044412 -0.28297267547 -0.94127843726 -0.14126921155 -0.30665601807 
-0.88479091649 -0.33982017152 -0.31885307763 -0.79605016062 -0.5148811737 -0.31812186146 -0.70281853228 -0.64077328508 -0.30895907142 
-0.61392623037 -0.73173532107 -0.29607094346 -0.54030239626 -0.7923338907 -0.28333783059 -0.48067430834 -0.83365339251 -0.2719820407 
-0.44061941627 -0.85801893509 -0.26392809064 -0.4169202493 -0.87125069384 -0.2590361639 -0.40985537691 -0.87502968526 -0.25756867033 
-0.42335864234 -0.86775200304 -0.26033424893 -0.46684251913 -0.84248102312 -0.26885644498 -0.54812195803 -0.78695655604 -0.28330495589 
-0.68541980791 -0.66233028528 -0.30251988386 -0.87563372315 -0.37068234841 -0.30961295106 -0.96112830489 0.099535889493 -0.25753638238 
-0.8513883651 0.49923656171 -0.16093696664 -0.7021843348 0.70700282823 -0.08416745711 -0.59753209223 0.80091446285 -0.038618932491 
-0.53106505305 0.84724994532 -0.011723463313 -0.48746573585 0.87312603592 0.0052992241051 -0.46197939261 0.88676223893 0.015092130975 
-0.4482925251 0.89365556043 0.02033595961 -0.44003547072 0.89767245862 0.023514709195 -0.43861029986 0.89835498706 0.024069110421 
-0.44026799011 0.89756106094 0.023414499008 -0.44636795252 0.89460399688 0.020960432584 -0.45370573426 0.89097087887 0.017944350321 
-0.4643957377 0.88552574434 0.013444512227 -0.47599505647 0.87940751833 0.008433440193 -0.49001937948 0.87170875256 0.0022041867956 
-0.50448739566 0.86340777555 -0.0044136986901 -0.51971686134 0.85425988599 -0.011594448153 -0.53642420503 0.84371792838 -0.019726367821 
-0.55309179025 0.83264594102 -0.028110646713 -0.56997777187 0.82083130481 -0.036895915897 -0.58674075118 0.8084716112 -0.04592324894 
-0.60361701322 0.79535158959 -0.055338506334 -0.61941781488 0.78240942961 -0.064475228295 -0.63495282861 0.76901888138 -0.073789332085 
-0.64962272819 0.75572192344 -0.082913722919 -0.66317808353 0.74282777465 -0.091660933539 -0.67601063969 0.73004031669 -0.10025343404 
-0.68769412905 0.71786650878 -0.10837186191 -0.69848049875 0.70614042414 -0.11614944799 -0.70838005305 0.69493262512 -0.12355705963 
-0.71706778063 0.68471552035 -0.13030139743 -0.7249566031 0.675102907 -0.13665280307 -0.73235364679 0.66577594988 -0.14283039097 
-0.73866542742 0.65755708966 -0.14829720215 -0.74448990066 0.64974154716 -0.1535275536 -0.74972954604 0.64250528992 -0.15840631372 
-0.75461545519 0.63556744732 -0.16312429215 -0.7589699365 0.62921636139 -0.16748553984 -0.76321267988 0.62286326501 -0.17189461411 
-0.76719496207 0.61674017565 -0.17619150355 -0.77124033841 0.61034889025 -0.18072789653 -0.77516674154 0.60396776218 -0.18530910679 
-0.77927403714 0.59709037645 -0.19030254171 -0.78368758302 0.58945270121 -0.19590631756 -0.78822352751 0.58131374894 -0.20193562332 
-0.79319458905 0.57202603106 -0.20887451662 -0.79860759491 0.56143124733 -0.21684294748 -0.80454733223 0.54915928267 -0.22611429071 
-0.81087379037 0.53523688827 -0.2366541137 -0.81777798878 0.51886325961 -0.2490383081 -0.82500436577 0.50011679945 -0.26315581575 
-0.83257038543 0.47822969364 -0.27950476458 -0.84016407816 0.45308860628 -0.29805207032 -0.84761542199 0.4237903762 -0.3192958087 
-0.85433250865 0.39065379579 -0.34279086409 -0.85994060964 0.35255824447 -0.36905938838 -0.86364634884 0.310607096 -0.39703679433 
-0.86488572795 0.26352544273 -0.427231809 -0.86286818292 0.21188920585 -0.45886976731 -0.85713420559 0.15793579948 -0.49028281313 
-0.84708512317 0.10054451184 -0.52185974671 -0.83268779142 0.041923880871 -0.55215344808 -0.81431297008 -0.016137631821 -0.58020165771 
-0.79232337415 -0.072911634483 -0.60572895287 -0.7678492007 -0.12639918478 -0.6280373007 -0.74080661678 -0.17766294856 -0.64779737051 
-0.7128283196 -0.22451566405 -0.66443096208 -0.68445313426 -0.26714187563 -0.67835029689 -0.65568750952 -0.30633629494 -0.69009561965 
-0.62783523517 -0.34107398801 -0.69963665726 -0.60065978947 -0.37234125997 -0.70750957834 -0.57500591968 -0.3997455088 -0.71384292427 
-0.54968693799 -0.42497306109 -0.71919550023 -0.52588021408 -0.44717817964 -0.72352033565 -0.50303943234 -0.46719110762 -0.72710645608 
-0.48210090528 -0.48448226061 -0.72996962696 -0.46078664142 -0.50110045326 -0.73251212061 -0.44259186017 -0.51452844572 -0.73442012762 
-0.42403422141 -0.52752501708 -0.73614695233 -0.40664316827 -0.53909115334 -0.7375785125 -0.391551712 -0.54865232205 -0.73869336422 
-0.37658973206 -0.55770374978 -0.73969365361 -0.36276474083 -0.56570200827 -0.740528852 -0.34978157832 -0.57290221745 -0.74123943278 
-0.33938146143 -0.578453073 -0.74176294459 -0.3281198392 -0.58425373553 -0.74228360055 -0.32073755494 -0.58793902239 -0.74260024697 
-0.31171966296 -0.59231913312 -0.74295955224 -0.30695565184 -0.59458079601 -0.74313653175 -0.30120181108 -0.59726533243 -0.74333814087 
-0.30120181108 -0.59726533243 -0.74333814087 
