# vtk DataFile Version 4.1
vtk output
ASCII
DATASET POLYDATA
POINTS 319 float
-8.64367 0.514168 185.283 -7.64413 0.718526 183.56 -6.64499 0.922849 181.837 
-5.64746 1.12704 180.113 -4.65275 1.33098 178.387 -3.66207 1.53458 176.659 
-2.67662 1.73769 174.928 -1.6976 1.9402 173.194 -0.72624 2.14193 171.457 
0.236275 2.34271 169.715 1.18874 2.54234 167.97 2.12997 2.74059 166.221 
3.05879 2.93723 164.468 3.97404 3.13198 162.712 4.87459 3.32455 160.953 
5.75935 3.51464 159.191 6.62725 3.70195 157.428 7.47731 3.88614 155.664 
8.30858 4.06689 153.9 9.1202 4.24388 152.136 9.91139 4.4168 150.374 
10.6815 4.58536 148.614 11.4299 4.74929 146.857 12.1561 4.90832 145.103 
12.8598 5.06224 143.353 13.5408 5.21087 141.607 14.1991 5.35405 139.866 
14.8346 5.49165 138.128 15.4475 5.6236 136.395 16.0382 5.74985 134.665 
16.6071 5.87037 132.939 17.1547 5.98518 131.216 17.6816 6.09432 129.495 
18.1886 6.19783 127.775 18.6763 6.2958 126.057 19.1457 6.3883 124.34 
19.5975 6.47542 122.623 20.0327 6.55725 120.907 20.4519 6.63387 119.191 
20.8561 6.70537 117.476 21.2459 6.7718 115.762 21.6222 6.83322 114.051 
21.9855 6.88967 112.343 22.3365 6.94117 110.64 22.6756 6.98775 108.942 
23.0033 7.02939 107.253 23.3201 7.06608 105.572 23.6262 7.0978 103.903 
23.922 7.12451 102.247 24.2077 7.14619 100.606 24.4836 7.16279 98.9804 
24.7498 7.17427 97.3725 25.0066 7.1806 95.7832 25.2543 7.18174 94.2132 
25.493 7.17766 92.6632 25.723 7.16834 91.1331 25.9445 7.15377 89.623 
26.1579 7.13392 88.1322 26.3635 7.10879 86.6599 26.5615 7.07839 85.2051 
26.7524 7.04271 83.7665 26.9365 7.00176 82.3423 27.1141 6.95555 80.931 
27.2856 6.90409 79.5307 27.4514 6.84739 78.1394 27.6117 6.78547 76.7553 
27.7668 6.71832 75.3765 27.9171 6.64597 74.0012 28.0627 6.56842 72.6277 
28.2038 6.48566 71.2545 28.3405 6.39772 69.8803 28.473 6.30458 68.5038 
28.6012 6.20625 67.124 28.7252 6.10274 65.7402 28.845 5.99403 64.3517 
28.9604 5.88014 62.9581 29.0714 5.76105 61.5592 29.1778 5.63677 60.1546 
29.2795 5.50728 58.7445 29.3764 5.3726 57.3288 29.4682 5.23271 55.9077 
29.5548 5.0876 54.4812 29.636 4.93728 53.0495 29.7117 4.78174 51.6127 
29.7817 4.62097 50.1709 29.8458 4.45496 48.7242 29.9039 4.28371 47.2727 
29.9559 4.10722 45.8163 30.0017 3.92551 44.355 30.0413 3.73859 42.8889 
30.0745 3.54648 41.4179 30.1013 3.34923 39.942 30.1217 3.14689 38.4613 
30.1357 2.93954 36.9758 30.1434 2.72727 35.4859 30.1446 2.51021 33.9917 
30.1396 2.28851 32.4938 30.1283 2.06234 30.9928 30.1109 1.8319 29.4893 
30.0873 1.59742 27.9843 30.0579 1.35914 26.4788 30.0225 1.11735 24.9738 
29.9815 0.872336 23.4706 29.935 0.624403 21.9706 29.883 0.37387 20.4751 
29.8258 0.121061 18.9854 29.7636 -0.133702 17.503 29.6964 -0.390102 16.0291 
29.6246 -0.647833 14.565 29.5483 -0.906605 13.1117 29.4676 -1.16615 11.6703 
29.3828 -1.42622 10.2415 29.2939 -1.68659 8.82587 29.2012 -1.94709 7.4239 
29.1048 -2.20755 6.0358 29.0047 -2.46784 4.66159 28.9011 -2.72786 3.3011 
28.7941 -2.98756 1.95399 28.6837 -3.24688 0.61976 28.57 -3.50581 -0.702222 
28.4531 -3.76435 -2.01271 28.3328 -4.02251 -3.31253 28.2093 -4.28035 -4.60261 
28.0825 -4.53788 -5.88385 27.9525 -4.79517 -7.15723 27.8192 -5.05225 -8.42366 
27.6826 -5.30918 -9.68405 27.5428 -5.56598 -10.9392 27.3997 -5.8227 -12.19 
27.2533 -6.07936 -13.4371 27.1039 -6.33597 -14.681 26.9513 -6.59252 -15.9224 
26.7956 -6.84901 -17.1616 26.637 -7.10542 -18.3991 26.4756 -7.36172 -19.6352 
26.3114 -7.61787 -20.87 26.1446 -7.87383 -22.1038 25.9753 -8.12955 -23.3368 
25.8036 -8.38498 -24.5691 25.6297 -8.64007 -25.8008 25.4537 -8.89478 -27.0322 
25.2757 -9.14905 -28.2633 25.0957 -9.40285 -29.4944 24.914 -9.65613 -30.7258 
24.7305 -9.90885 -31.9576 24.5453 -10.161 -33.1901 24.3584 -10.4124 -34.4236 
24.1701 -10.6632 -35.6584 23.9801 -10.9131 -36.8947 23.7887 -11.1623 -38.1328 
23.5957 -11.4105 -39.373 23.4014 -11.6576 -40.6153 23.2055 -11.9037 -41.8601 
23.0083 -12.1485 -43.1073 22.8097 -12.392 -44.3571 22.6098 -12.6339 -45.6095 
22.4086 -12.8741 -46.8645 22.2061 -13.1125 -48.122 22.0025 -13.349 -49.382 
21.7977 -13.5833 -50.6445 21.592 -13.8153 -51.9094 21.3852 -14.0448 -53.1766 
21.1775 -14.2718 -54.4461 20.9691 -14.496 -55.718 20.7598 -14.7175 -56.9923 
20.55 -14.936 -58.2692 20.3395 -15.1516 -59.5487 20.1285 -15.3641 -60.831 
19.9171 -15.5736 -62.1165 19.7054 -15.7799 -63.4053 19.4934 -15.9831 -64.6979 
19.2812 -16.1832 -65.9945 19.0689 -16.3802 -67.2956 18.8565 -16.5741 -68.6015 
18.6442 -16.765 -69.9127 18.432 -16.9529 -71.2295 18.22 -17.1378 -72.5523 
18.0083 -17.3198 -73.8815 17.7971 -17.499 -75.2173 17.5863 -17.6754 -76.56 
17.3762 -17.849 -77.9098 17.1669 -18.0199 -79.2667 16.9584 -18.1881 -80.6307 
16.7511 -18.3537 -82.0016 16.545 -18.5166 -83.3792 16.3404 -18.6769 -84.7632 
16.1375 -18.8345 -86.1528 15.9364 -18.9893 -87.5476 15.7374 -19.1414 -88.9467 
15.5407 -19.2906 -90.3491 15.3467 -19.4369 -91.754 15.1554 -19.5801 -93.1603 
14.9672 -19.7202 -94.5668 14.7823 -19.8569 -95.9724 14.6008 -19.9903 -97.376 
14.423 -20.12 -98.7765 14.2491 -20.246 -100.173 14.0791 -20.3682 -101.564 
13.9133 -20.4863 -102.949 13.7517 -20.6004 -104.328 13.5944 -20.7104 -105.699 
13.4414 -20.816 -107.063 13.2928 -20.9174 -108.418 13.1486 -21.0144 -109.766 
13.0087 -21.1071 -111.105 12.8732 -21.1954 -112.437 12.7419 -21.2795 -113.76 
12.6148 -21.3593 -115.077 12.4919 -21.4351 -116.386 12.3731 -21.5068 -117.689 
12.2584 -21.5746 -118.985 12.1476 -21.6387 -120.276 12.0409 -21.6993 -121.562 
11.9381 -21.7565 -122.844 11.8392 -21.8105 -124.121 11.7443 -21.8616 -125.394 
11.6533 -21.91 -126.664 11.5663 -21.9558 -127.93 11.4832 -21.9993 -129.194 
11.4042 -22.0407 -130.454 11.3293 -22.0803 -131.71 11.2585 -22.1182 -132.964 
11.1918 -22.1546 -134.214 11.1293 -22.1897 -135.46 11.071 -22.2237 -136.702 
11.0169 -22.2568 -137.94 10.9669 -22.2891 -139.173 10.9212 -22.3207 -140.399 
10.8796 -22.3518 -141.62 10.842 -22.3824 -142.834 10.8085 -22.4127 -144.039 
10.7789 -22.4426 -145.237 10.7532 -22.4723 -146.425 10.7312 -22.5017 -147.603 
10.7128 -22.531 -148.77 10.6978 -22.56 -149.925 10.6862 -22.5888 -151.068 
10.6777 -22.6173 -152.199 10.6721 -22.6454 -153.316 10.6693 -22.6733 -154.419 
10.6691 -22.7007 -155.51 10.6713 -22.7277 -156.586 10.6757 -22.7541 -157.649 
10.6821 -22.7799 -158.699 10.6902 -22.8051 -159.737 10.7 -22.8295 -160.764 
10.7111 -22.8532 -161.78 10.7234 -22.876 -162.786 10.7367 -22.8979 -163.784 
10.7509 -22.919 -164.774 10.7658 -22.9391 -165.759 10.7812 -22.9583 -166.739 
10.797 -22.9766 -167.716 10.8131 -22.9939 -168.69 10.8294 -23.0104 -169.663 
10.8459 -23.026 -170.636 10.8624 -23.0407 -171.609 10.8789 -23.0548 -172.583 
10.8954 -23.0681 -173.558 10.912 -23.0808 -174.535 10.9285 -23.093 -175.513 
10.9451 -23.1048 -176.492 10.9617 -23.1162 -177.472 10.9784 -23.1273 -178.453 
10.9953 -23.1383 -179.433 11.0123 -23.1491 -180.411 11.0296 -23.16 -181.388 
11.0472 -23.1709 -182.362 11.0652 -23.182 -183.331 11.0836 -23.1932 -184.296 
11.1025 -23.2046 -185.255 11.1218 -23.2162 -186.206 11.1417 -23.2281 -187.15 
11.1623 -23.2403 -188.086 11.1835 -23.2527 -189.012 11.2053 -23.2653 -189.928 
11.2279 -23.2781 -190.834 11.2512 -23.2911 -191.728 11.2754 -23.3042 -192.612 
11.3003 -23.3173 -193.484 11.3262 -23.3304 -194.344 11.353 -23.3435 -195.193 
11.3808 -23.3564 -196.029 11.4097 -23.3691 -196.855 11.4396 -23.3815 -197.669 
11.4708 -23.3937 -198.472 11.5032 -23.4054 -199.265 11.5368 -23.4167 -200.047 
11.5718 -23.4276 -200.818 11.6082 -23.4379 -201.58 11.6461 -23.4477 -202.332 
11.6854 -23.4569 -203.075 11.7261 -23.4655 -203.809 11.7684 -23.4735 -204.533 
11.812 -23.4807 -205.249 11.8571 -23.4873 -205.956 11.9035 -23.4932 -206.654 
11.9511 -23.4983 -207.344 11.9998 -23.5027 -208.025 12.0494 -23.5062 -208.697 
12.0999 -23.509 -209.36 12.151 -23.5109 -210.015 12.2025 -23.5119 -210.66 
12.2542 -23.5121 -211.297 12.306 -23.5113 -211.925 12.3577 -23.5097 -212.544 
12.409 -23.5071 -213.155 12.4597 -23.5035 -213.757 12.5098 -23.499 -214.351 
12.5591 -23.4936 -214.937 12.6075 -23.4872 -215.515 12.655 -23.4801 -216.086 
12.7014 -23.4721 -216.651 12.7469 -23.4633 -217.21 12.7915 -23.4539 -217.764 
12.8353 -23.444 -218.314 12.8784 -23.4335 -218.86 12.921 -23.4228 -219.403 
12.9632 -23.4118 -219.945 
LINES 1 320
319 318 317 316 315 314 313 312 311 310 309 308 307 306 305 304 303 302 301 300 299 298 297 296 295 294 293 292 291 290 289 288 287 286 285 284 283 282 281 280 279 278 277 276 275 274 273 272 271 270 269 268 267 266 265 264 263 262 261 260 259 258 257 256 255 254 253 252 251 250 249 248 247 246 245 244 243 242 241 240 239 238 237 236 235 234 233 232 231 230 229 228 227 226 225 224 223 222 221 220 219 218 217 216 215 214 213 212 211 210 209 208 207 206 205 204 203 202 201 200 199 198 197 196 195 194 193 192 191 190 189 188 187 186 185 184 183 182 181 180 179 178 177 176 175 174 173 172 171 170 169 168 167 166 165 164 163 162 161 160 159 158 157 156 155 154 153 152 151 150 149 148 147 146 145 144 143 142 141 140 139 138 137 136 135 134 133 132 131 130 129 128 127 126 125 124 123 122 121 120 119 118 117 116 115 114 113 112 111 110 109 108 107 106 105 104 103 102 101 100 99 98 97 96 95 94 93 92 91 90 89 88 87 86 85 84 83 82 81 80 79 78 77 76 75 74 73 72 71 70 69 68 67 66 65 64 63 62 61 60 59 58 57 56 55 54 53 52 51 50 49 48 47 46 45 44 43 42 41 40 39 38 37 36 35 34 33 32 31 30 29 28 27 26 25 24 23 22 21 20 19 18 17 16 15 14 13 12 11 10 9 8 7 6 5 4 3 2 1 0 

CELL_DATA 1
FIELD FieldData 2
LengthArray 1 1 double
416.25125833 
TortuosityArray 1 1 double
0.023966734476 
POINT_DATA 319
FIELD FieldData 8
RadiusArray 1 319 double
70.691040559 70.751709635 70.942099184 71.134742572 71.104965049 71.100823155 71.105857489 71.10260714 71.148413632 
71.043600769 71.069732492 71.072622168 71.079625102 71.084474666 71.080852445 70.834551811 70.739420524 70.658295124 
70.480855316 70.105154068 70.020138163 69.979899584 69.716148817 69.176170727 69.079052307 68.976900873 68.591699766 
68.54642448 68.417190482 68.164132693 68.078086807 68.047505339 68.015966464 67.889220671 67.741571144 67.478035895 
67.04821509 66.467735399 66.222024419 66.00651163 65.882253663 65.357004022 64.949181812 64.52090746 64.089974807 
64.083275395 63.517814587 63.304951295 62.83611737 62.623041179 62.380491924 62.326262261 61.783275419 61.605696417 
61.529055786 61.169286304 61.076653396 60.750131757 60.750077005 60.736443755 60.514965762 60.286135188 59.991096661 
59.61173627 59.593189115 59.176459076 58.932091268 58.840994388 58.616037452 58.615948062 58.608588281 58.139636462 
57.891482633 57.652848561 57.284393022 56.948087283 56.941184413 56.508851228 56.22280479 56.124666894 55.824687145 
55.308400935 54.974397175 54.943165776 54.591911044 54.486133344 54.240699814 53.846922414 53.846840207 53.826370622 
53.377995056 53.376380206 53.210976386 53.05197695 52.914742758 52.375486431 52.065971421 52.029683697 51.43513438 
51.419726467 51.301554845 50.573417131 50.559843478 49.972242294 49.926287349 49.61626118 49.463164089 49.434846577 
49.307107267 48.970199856 48.600225647 48.558666987 48.370789498 48.300662383 47.908693938 47.88494053 47.615041334 
47.421321013 47.38559787 47.373260328 47.001718906 46.94900679 46.933412635 46.835120674 46.797893213 46.697194716 
46.696447863 46.479311952 46.444229172 46.259815294 46.227154843 46.00824994 45.981474246 45.85354507 45.828985108 
45.602150529 45.535491259 45.503376517 45.46419901 45.463907766 45.428166241 45.346806012 45.335886652 45.333213575 
45.327596096 45.299671228 45.286355811 45.276484125 45.208629185 45.215646943 45.188618288 45.200791678 45.222273559 
45.224205411 45.221217693 45.218866629 45.267903383 45.278232179 45.287814211 45.299060204 45.306460921 45.315211409 
45.327593945 45.352613964 45.368916831 45.377117821 45.438845024 45.456428612 45.462033133 45.463108528 45.532675208 
45.542806444 45.565147963 45.580151205 45.602638982 45.626652454 45.647084397 45.663288455 45.702608066 45.708255547 
45.723513317 45.740070368 45.739047641 45.764964603 45.830348378 45.878664779 45.86270425 45.854712692 45.87579924 
45.922182356 45.925023465 45.943348642 45.957142052 45.96395867 45.996636765 46.00152574 46.045287729 46.054401863 
46.009746842 45.97437511 45.964802511 45.964515219 45.953880401 45.93921409 45.926684186 45.916515081 45.88184632 
45.871559466 45.841578755 45.749819591 45.736304587 45.71878865 45.704867438 45.570428084 45.474385989 45.436205342 
45.422057629 45.389963783 45.23339726 45.167809235 45.092101573 45.042363205 44.975319184 44.909762601 44.898599588 
44.88841516 44.753738943 44.654358401 44.595184014 44.490526287 44.462793303 44.156812258 44.138151624 43.920456303 
43.774264509 43.542050962 43.46425851 43.313465427 43.183479452 43.11646758 43.101994911 42.819751325 42.704086943 
42.60489369 42.578732718 42.562417697 42.551031263 42.425478517 42.293210089 42.139838201 42.072021504 41.934648973 
41.920640617 41.681845445 41.414673352 41.405318005 41.15338251 41.141691693 40.870542028 40.62885332 40.451436162 
40.074332754 40.074321647 40.072944436 39.977626842 39.563959714 39.55862977 39.116536403 38.949006809 38.833654497 
38.825496601 38.291236181 38.110267292 37.93389903 37.71474407 37.536267723 37.305759702 37.243098379 36.911716166 
36.80989754 36.803675824 36.642109502 36.363194902 36.272062491 36.147762976 36.024694727 35.578476594 35.501040682 
35.143320317 34.760392724 34.728051691 34.61201343 34.456512403 34.426409285 34.393811258 33.788264305 33.251194188 
33.20787847 33.002005975 32.418945019 32.131106068 32.018305229 31.934669397 31.847279019 31.208690871 30.740064003 
30.724223147 30.477154716 30.134399055 29.631544211 29.142993018 29.118904457 29.112233452 28.702958149 28.263541657 
28.149294377 27.48488802 26.891604046 26.796174287 
EdgeArray 2 319 int
36802 36802 35327 38551 38174 38174 36796 36796 37209 
35874 37427 37209 37429 36841 33009 37429 32507 32507 
37009 37009 36455 36455 36272 36591 33886 35691 36586 
36586 35862 36183 36014 34740 36014 35314 35402 36202 
35644 35644 31339 13605 13605 35567 35597 17526 35888 
35888 34467 35599 34898 35602 34898 28154 35211 35212 
35213 35212 35213 35214 32534 32534 34836 34514 34838 
34514 32855 33253 34154 33253 34478 34459 34477 34477 
34292 34292 33688 33688 33195 33195 33678 33678 33685 
33685 33669 33669 33376 33375 17187 17187 31521 31521 
33047 33047 29320 29320 32759 32759 32396 32396 32086 
32086 30309 30309 29309 29309 30333 30333 26817 26817 
31726 31726 31707 31707 29682 29682 31381 31381 30501 
31381 30501 30501 26492 26492 20609 20609 30964 30964 
30495 30495 30912 26012 26608 26608 31154 31154 30507 
29350 29466 29466 18635 29466 18635 18635 30412 30412 
31162 31162 29866 29866 27887 27887 30614 30614 28995 
29582 29723 29723 28583 28583 30623 30623 30619 30619 
29709 29709 30068 30068 30067 30067 19171 21012 26321 
26321 29141 29141 29820 29820 29821 29820 29821 29821 
29824 29824 28114 28930 28114 25951 26690 26690 20000 
20000 20960 20960 26938 26938 29136 29136 20721 20721 
24049 26483 24327 24327 27675 27675 28872 23799 27374 
27374 25106 25106 21481 21481 25727 25727 20738 20738 
26682 26682 22882 22882 27206 27206 27366 26563 24247 
24247 26669 26669 27630 27630 22206 25235 25017 24255 
25016 27202 20799 25474 20629 25475 15621 10237 21981 
23356 19770 23957 23605 24558 23605 23233 24328 23566 
24332 24328 24209 26185 23650 14395 24731 24488 24489 
24726 23157 24725 23332 24729 24208 24208 22172 22172 
22170 24264 22860 22860 23570 23563 23115 23161 23601 
23115 20733 23312 23312 23613 23322 23612 23608 23612 
23608 24057 21989 21989 18657 18657 20350 20350 23510 
23510 22907 22907 20746 23594 22616 22616 22182 22904 
22902 22904 22905 22903 22903 22189 23123 22189 21023 
23126 21924 22679 22675 21924 22608 22327 22608 22609 
22084 22183 19449 22086 21860 22196 18869 21914 21870 
21870 19822 19657 20396 19822 20998 21271 20800 19847 
20740 20383 20732 20737 20044 20737 19516 20044 19807 
19516 19807 18710 18944 13156 19257 19917 19917 19525 
18541 18541 18676 18676 19513 19513 17156 17156 18964 
18964 17419 17419 17299 16446 18678 18344 17468 18696 
18348 18695 18348 18694 16202 17987 16820 17443 17439 
17173 16833 17465 16842 17465 17172 17171 17171 16841 
15975 16786 16793 16793 16204 16475 13686 13686 16194 
16198 16198 15199 15199 15678 15659 15659 15680 15680 
15684 15684 14403 14403 14968 14968 13927 14921 15409 
13924 14482 14486 14698 14926 14183 14183 13628 13628 
14490 14123 14672 14672 14096 14096 13399 13399 13128 
13128 12367 12367 13374 13374 13426 13379 13426 12891 
12891 12891 13637 12737 13155 13155 12878 12878 12876 
12876 12767 12319 12320 12376 12346 12376 11601 11601 
11858 11858 12686 12686 11879 11879 11428 11428 11196 
11196 10615 11553 10615 10673 11677 11677 11681 11681 
10700 10700 10014 10488 11140 10488 10691 11140 10432 
11242 10697 11247 11243 10220 10695 10698 9989 10655 
9989 11143 9934 9934 10482 10482 9342 9997 9261 
9068 8848 9068 10750 10750 10618 10618 10013 10013 
10258 10258 10140 10258 10140 10140 9583 9583 9831 
9831 9830 10152 7189 7189 8620 8620 9839 9125 
7853 9126 8612 8075 8618 8537 7508 8318 8541 
7809 7870 7870 6964 6964 7824 7824 7135 7817 
7820 7869 7856 7869 7856 7856 8074 8074 6339 
6339 5799 6643 5972 5799 6657 6360 6699 6657 
6940 6940 7205 7205 5567 6654 5568 6652 5556 
5559 3911 5023 5024 5023 5019 5019 4336 4336 
5015 4780 3954 5013 4302 5012 4302 4334 4334 
4289 4289 4289 4522 4122 4177 4177 3854 3854 
3858 3967 3469 3907 3434 3434 3012 3012 3045 
3720 3045 3500 3286 3500 976 976 1540 1540 
2531 2531 2248 2248 2493 2493 2770 2770 
EdgePCoordArray 1 319 double
0 0.08 0 0 0.388 0.2 0.06 0.928 0 
0 0 0.108 0.028 0 0.992 0.228 0.692 0.02 
0 0.712 0.648 0.036 0 0.7 0.168 0.308 0.98 
0.748 0.056 0 0.06 0.972 0.248 0.72 0.468 0 
0 0 0 0 0 0 0.904 0 0 
0 0 0 0 0 0 0 0 0 
0 0 0 0 0.996 0 0 0 0 
0 0.98 0 0 0.144 0 0.988 0 0 
0 0 0 0 0.888 0 0 0 0 
0 0 0 0.832 0 0 0 0.996 0 
0 0.992 0.652 0 0 0 0 0 0 
0.912 0 0 0.988 0 0 0 0 0 
0 0 0 0.464 0 0 0 0.02 0.412 
0.252 0.208 0.244 0.82 0.228 0.412 0.28 0.36 0.032 
0.964 0.164 0.548 0.64 0.432 0.36 0.024 0 0 
0.26 0 0.828 0.016 0.98 0.072 0.904 0.824 0.592 
0.024 0 0 0 0 0 0.028 0 0.924 
0.868 0.688 0.088 0.188 0.768 0.5 0.44 0.788 0.524 
0.6 0.324 0.436 0.7 0 0.244 0.836 0.32 0.768 
0.204 0.864 0.704 0.176 0.628 0.328 0.244 0.764 0.256 
0 0 0 0 0 0 0.752 0.052 0.452 
0.412 0.308 0.388 0.172 0.72 0.912 0.888 0.796 0.232 
0.952 0 0.9 0 0.612 0.504 0.792 0 0 
0 0 0 0.912 0.924 0.08 0.104 0 0 
0.932 0 0 0 0 0 0 0.124 0.516 
0 0.492 0 0 0 0.884 0.972 0.884 0 
0 0 0 0 0 0.264 0.184 0 0 
0 0.94 0.404 0.988 0.248 0.344 0.808 0.4 0.308 
0.296 0 0 0.964 0.964 0.968 0 0 0 
0 0.992 0 0 0 0.008 0 0 0.02 
0.136 0.24 0.06 0.292 0.832 0 0 0 0.852 
0.988 0.964 0 0 0 0.352 0.772 0.156 0.876 
0 0 0.916 0.704 0.592 0.728 0.752 0 0 
0.996 0.236 0.304 0.776 0.556 0 0.02 0 0 
0.976 0.384 0 0 0.044 0.768 0.972 0 0 
0 0 0 0 
CurvatureArray 1 319 double
0 0.00011565525513 0.00046305596766 0.00080660966673 0.0011449596931 0.0014777639667 0.0018022215823 0.0021088248343 0.0024059309359 
0.0026900657475 0.0029544518428 0.0032068037123 0.0034473816645 0.0036725938818 0.0038855468106 0.0040910030126 0.0042843202054 0.0044759025173 
0.0046564095456 0.0048361079614 0.0050104058545 0.0051763206613 0.0053399151611 0.005496980855 0.0056394079429 0.0057692719419 0.0058827829258 
0.0059747410293 0.0060361722764 0.0060726246659 0.0060749144202 0.0060390810177 0.0059664256724 0.0058609517286 0.0057185643989 0.0055456555277 
0.005349169684 0.0051320505982 0.0049016129246 0.0046651908744 0.0044302894206 0.0042012556972 0.0039842318376 0.0037848402096 0.0036061417852 
0.0034507005855 0.0033215427851 0.0032196407913 0.0031435472783 0.0030954086953 0.0030722475388 0.0030710405216 0.0030930492016 0.0031317647469 
0.0031853554904 0.0032494506345 0.0033183998065 0.0033913573971 0.0034626689526 0.0035265536211 0.00358300512 0.0036269183882 0.0036572083252 
0.0036741357587 0.0036774066977 0.0036677834416 0.0036475343897 0.0036207448697 0.0035874874681 0.0035544214561 0.0035206681939 0.0034908180668 
0.0034679930811 0.0034503156215 0.0034411588791 0.0034401019457 0.0034469942346 0.0034590508056 0.0034800027456 0.0035024672182 0.0035288814513 
0.0035554451713 0.0035816510499 0.0036058518719 0.003623715043 0.0036359460596 0.0036398997671 0.003635060526 0.0036207936098 0.0035970740693 
0.003562773539 0.0035199969013 0.003468622034 0.0034088750461 0.0033468183076 0.0032774282816 0.003209059979 0.0031384691418 0.0030698000423 
0.0030042197578 0.0029420443049 0.0028852197364 0.0028332681247 0.002787453281 0.0027481961654 0.0027137632347 0.0026867982668 0.0026636675128 
0.0026459033092 0.0026320255123 0.0026211871546 0.0026130792889 0.0026081649551 0.0026013465272 0.0025969122301 0.0025910864621 0.0025854738835 
0.0025769961608 0.0025662073689 0.0025523752095 0.002537284087 0.0025157813298 0.0024922137372 0.0024628880882 0.0024282420965 0.0023881105545 
0.0023426634533 0.0022891539636 0.0022313752623 0.0021672001617 0.0020981713344 0.002022034874 0.0019420855233 0.0018610278113 0.0017744838738 
0.0016871085931 0.0016021218843 0.0015171254944 0.0014347156594 0.0013557983096 0.0012830373695 0.0012175002628 0.0011605999669 0.0011142296652 
0.0010768142508 0.0010534549291 0.001043088203 0.0010435649282 0.0010581782728 0.0010825928875 0.0011178802579 0.0011621023162 0.0012123565879 
0.0012680980978 0.0013269381442 0.0013911970639 0.0014547382409 0.0015198473953 0.0015843676958 0.0016476282034 0.0017084589815 0.0017679419159 
0.0018236223537 0.0018752570778 0.0019222737862 0.0019666773376 0.0020055533664 0.0020393547429 0.0020700589915 0.0020935843399 0.0021150776957 
0.0021312506152 0.002140775566 0.0021480803885 0.0021509532312 0.0021507971709 0.0021457684413 0.0021374254385 0.0021287760678 0.0021173695381 
0.0021047089375 0.0020935883424 0.0020817156283 0.0020747489615 0.0020673300422 0.002063252499 0.0020656581878 0.0020711119296 0.0020843113582 
0.0021010421375 0.0021236146362 0.0021535895211 0.0021880981782 0.0022274093824 0.0022731353282 0.0023253794618 0.0023788575577 0.0024367959256 
0.0024973401489 0.002559043502 0.0026185028865 0.0026781180023 0.0027326198901 0.002782498121 0.002826311549 0.0028606469697 0.00288729017 
0.0029049058365 0.0029097347456 0.0029080756162 0.0028961146004 0.0028774925196 0.0028523321145 0.0028240168609 0.0027933820885 0.002763637996 
0.0027346575792 0.0027081334533 0.0026885807858 0.0026706865141 0.0026590324146 0.0026509750239 0.0026450334783 0.0026413540528 0.0026381703986 
0.0026340414415 0.0026275377608 0.0026197679257 0.0026068298268 0.002590280193 0.0025710903491 0.0025444345268 0.0025146882848 0.0024788609599 
0.0024379056186 0.0023911079673 0.002336583777 0.0022778187215 0.0022089153639 0.0021321540848 0.0020482032198 0.00195415711 0.0018530627162 
0.0017456126207 0.0016341120771 0.0015204694151 0.0014108537687 0.0013088873085 0.0012144533046 0.0011420505563 0.0010753975188 0.0010299058242 
0.00098815423312 0.00095129015471 0.00091256357794 0.00086606114249 0.00080456776623 0.00074138475448 0.00066119043603 0.00056986296936 0.00047500533274 
0.00037992007932 0.00029338561813 0.00023666695444 0.00024022496482 0.00029961123918 0.00038963885462 0.00049055853289 0.00059601797168 0.00069635882127 
0.00079384404144 0.00089183315615 0.00098244498749 0.0010707569397 0.001158959226 0.001245135325 0.0013387386619 0.0014327116362 0.001538642823 
0.0016538250111 0.0017840552898 0.001926415617 0.0020819345458 0.0022533180351 0.0024344324418 0.0026285294808 0.0028214621827 0.0030195351233 
0.0032134245208 0.0033973897561 0.0035648802777 0.0037154244786 0.0038350174841 0.0039262142774 0.0039812897694 0.0040041372928 0.0039818113532 
0.0039150534098 0.0038124783976 0.003676170748 0.0035093803956 0.0033187667305 0.0031324190695 0.0029544203941 0.0028132094641 0.0027372835022 
0.0027139781195 0.002766437966 0.0028499704037 0.0029640684402 0.0030378463602 0.0030746402729 0.003023715845 0.0028680588835 0.0026032898272 
0.0022105794598 0.0017220805726 0.0011276716766 0 
TorsionArray 1 319 double
0 0 -0.00018124976915 -0.00049383984659 -0.00092190927716 -0.001311523031 -0.0015787017661 -0.0019290181819 -0.0023145171003 
-0.0026082942756 -0.0029132762893 -0.0032263083115 -0.003472325553 -0.0036874496996 -0.0038959245493 -0.0040238424487 -0.0041289667033 -0.004196649097 
-0.004196223371 -0.0041585075857 -0.0040939348354 -0.0039848478212 -0.0038463071576 -0.00370727856 -0.0035697664858 -0.0034232484773 -0.0032915159499 
-0.0032188149953 -0.0031904161777 -0.0031766903468 -0.0032686899855 -0.0034276660493 -0.0036642690288 -0.0040042524828 -0.0044445709668 -0.0050156131644 
-0.0056941856934 -0.006528605969 -0.0075156879441 -0.0086327791548 -0.0098828777456 -0.011325622517 -0.012820804298 -0.014344860047 -0.0159155806 
-0.017384383611 -0.018591004639 -0.019548986588 -0.020196370059 -0.020332331817 -0.020194743895 -0.01949298283 -0.018440653739 -0.017258460101 
-0.015761461648 -0.014433179538 -0.012816753847 -0.011014240069 -0.0096102005633 -0.0081221699318 -0.0065120064778 -0.0051603253792 -0.0036568161224 
-0.0018929184696 -0.00049997084615 0.00099214273284 0.002675315895 0.0041164008817 0.0057157731296 0.0070868611756 0.0080794665336 0.0092390167488 
0.010087556329 0.010457066916 0.01080692951 0.010923366924 0.010554897653 0.010341815144 0.0099959253561 0.0093198238345 0.0087427991578 
0.0082489225905 0.0077134346703 0.0071413438489 0.0066119070501 0.0061496259804 0.0058336204367 0.0054435896596 0.0051246673881 0.0048838764516 
0.0046213055287 0.0044058214332 0.0041587324943 0.0040670167591 0.003763999253 0.0035343124606 0.0034217685177 0.0031073612797 0.0029495797049 
0.0026935355095 0.0024419483695 0.0022123626203 0.0019982666621 0.0018866483708 0.0017451824286 0.0017825928385 0.0018870536574 0.0020003150301 
0.0023871409856 0.0028941138063 0.0035218031323 0.0044439609027 0.0053474640193 0.0064537326652 0.0078298143599 0.0092884026867 0.010764233974 
0.012185278849 0.013696277096 0.015197110033 0.016426049303 0.017538269507 0.018477262072 0.019151187324 0.019570474489 0.019821045899 
0.019926412329 0.01984740222 0.019707650551 0.019695437622 0.019704406014 0.019676285967 0.019933358444 0.020633912081 0.021782633668 
0.023176190887 0.025112204587 0.028033464232 0.031240819018 0.035004427834 0.039708176295 0.045111217117 0.050275281464 0.054832869915 
0.059400398349 0.062062655058 0.063154682749 0.062020655304 0.059757187028 0.056402155586 0.051287421348 0.046951351554 0.042322251876 
0.038549761729 0.034819530364 0.03174135651 0.029687013532 0.027312558335 0.02636271558 0.025629446434 0.024741491381 0.024221921846 
0.024497383024 0.024418557395 0.024623023491 0.024687812809 0.024778937827 0.025332746916 0.02533270272 0.025612169157 0.026052168523 
0.02627352899 0.026189079712 0.026236376401 0.026560644931 0.026660072993 0.026585275051 0.026584930904 0.026629458221 0.026144055356 
0.025744096822 0.025628667294 0.024740899749 0.023516300385 0.022214646882 0.02093155538 0.019210488843 0.016983025743 0.014691085269 
0.01239308953 0.0099596208945 0.0074486234664 0.0052463405951 0.00312099088 0.0008468760813 -0.00077257336713 -0.0020444932816 -0.0033373303663 
-0.0040804014382 -0.0041635166006 -0.0041205343429 -0.0039717215937 -0.0030812418117 -0.0018677104751 -0.0003004807293 0.0015654246159 0.0037528858021 
0.0065033681553 0.009350303897 0.012460557941 0.015939053757 0.019315338515 0.022890954464 0.026362743262 0.029552889084 0.03274303129 
0.03527698064 0.036945763557 0.037996935587 0.038448743465 0.038336471735 0.037371238804 0.03606588351 0.03408831028 0.031834478934 
0.029694808055 0.026816921353 0.0240832026 0.021668656642 0.018703505185 0.015706828063 0.012934627398 0.0096195223445 0.0066310012254 
0.0029731033147 -0.001764058966 -0.0058702475212 -0.0097589109509 -0.015318121858 -0.022231185508 -0.029701477847 -0.038085203228 -0.046453152079 
-0.057838449698 -0.072447649729 -0.085953359913 -0.10146766641 -0.11639129541 -0.13007422278 -0.13763817687 -0.14105525865 -0.13560849438 
-0.12312736845 -0.10830662223 -0.090208390317 -0.071066593389 -0.0510264638 -0.031100120789 -0.0076900604455 0.025026358769 0.070072980272 
0.15234753998 0.2997622079 0.48405631298 0.48356174387 0.29119625385 0.15507553487 0.085039875946 0.043044773765 0.015928417064 
0.0013332128996 -0.012349413644 -0.023174896178 -0.03106485493 -0.0408047609 -0.046466245578 -0.053204831187 -0.05826890084 -0.059742280721 
-0.061485275811 -0.060230963323 -0.057239905782 -0.053963266041 -0.048311291611 -0.042501728247 -0.039540277441 -0.032729997268 -0.02761498309 
-0.026143852013 -0.022734948858 -0.02190123957 -0.021429945704 -0.022589040926 -0.025610416261 -0.029671554279 -0.036730204512 -0.04498345663 
-0.055079662237 -0.071430945848 -0.09012365049 -0.11446105273 -0.14580977332 -0.1802081167 -0.22251927189 -0.2586585578 -0.28146328267 
-0.29100539263 -0.27263369543 -0.24118569351 -0.20439771199 -0.16750800059 -0.13543801528 -0.10940573013 -0.087761727236 -0.069622243432 
-0.052851247962 -0.04182284881 0 0 
TangentArray 3 319 double
-0.49906206592 -0.1020461306 0.86053683337 -0.49906206592 -0.1020461306 0.86053683337 -0.4985641954 -0.10200465664 0.86083029285 
-0.49747137069 -0.10191317195 0.86147312246 -0.49579032529 -0.10177056216 0.86245852423 -0.49352890358 -0.1015737734 0.86377774334 
-0.49069737918 -0.1013183947 0.86541935786 -0.48731646501 -0.10100040496 0.86736473362 -0.48340798379 -0.10061447813 0.86959384082 
-0.47898990108 -0.10015343492 0.87208827772 -0.47408946282 -0.099611119452 0.87482387149 -0.46873376147 -0.098980893016 0.8777764201 
-0.46294380403 -0.098254890888 0.88092508803 -0.45674426631 -0.097426319527 0.88424701722 -0.45016111636 -0.096489118309 0.88771888533 
-0.44321439779 -0.095436681737 0.89132083863 -0.43592477933 -0.094263954082 0.89503290092 -0.42830855143 -0.092966051255 0.89883763722 
-0.4203817065 -0.091538965372 0.90271802832 -0.41215962181 -0.08998037416 0.90665758609 -0.40365293751 -0.08828823121 0.91064235256 
-0.39487882135 -0.086462847211 0.91465561415 -0.38585139868 -0.08450546494 0.91868249386 -0.37658266118 -0.082418033751 0.92270947053 
-0.36709447593 -0.08020536491 0.92671934542 -0.35741294008 -0.077874032481 0.93069416315 -0.34756448777 -0.075431628053 0.93461703191 
-0.33758194361 -0.072887763663 0.93846992773 -0.32750910511 -0.070254403802 0.94223251102 -0.31739146153 -0.067543919101 0.94588608148 
-0.30727652294 -0.064769724625 0.94941351435 -0.29722216573 -0.061946807112 0.95279671352 -0.28728823222 -0.05909045379 0.95601976439 
-0.27752998126 -0.056214321098 0.95907093565 -0.26800334947 -0.053331608564 0.96194071761 -0.25876291695 -0.050454935411 0.96462223295 
-0.24985338285 -0.047593480817 0.96711330653 -0.24131238603 -0.044754520139 0.96941496031 -0.23317038502 -0.041942907388 0.9715309383 
-0.22544709816 -0.039160222525 0.97346806979 -0.21815107205 -0.036405038912 0.9752357576 -0.21128210588 -0.033673582842 0.97684490148 
-0.20483248972 -0.030959225124 0.9783073022 -0.19878541629 -0.028253375685 0.97963570016 -0.19311753397 -0.025545767393 0.980843021 
-0.18780167001 -0.022824599768 0.98194173472 -0.18280655081 -0.020077015178 0.98294388367 -0.17809779978 -0.017289949942 0.98386088008 
-0.17364170349 -0.01445072946 0.98470286647 -0.16940433888 -0.011546451292 0.98547899492 -0.16535196119 -0.0085653513194 0.98619742632 
-0.16145548854 -0.0054974274205 0.98686468349 -0.15768590579 -0.0023343320824 0.98748655991 -0.15401719886 0.00093020874509 0.98806772904 
-0.15042853545 0.0042997510123 0.98861153537 -0.14690135877 0.0077747051416 0.98912059161 -0.14342331108 0.011352694423 0.98959631677 
-0.13998329941 0.01502779979 0.99003981795 -0.13657149151 0.018790899418 0.99045198258 -0.13318469518 0.022630052946 0.99083284043 
-0.12982072323 0.026530945571 0.99118246996 -0.12647776311 0.030477103796 0.99150114553 -0.12315718452 0.034451004152 0.99178900791 
-0.11985899691 0.038434989255 0.99204665841 -0.11658121716 0.042410946629 0.99227522967 -0.11332354271 0.046363305995 0.99247580249 
-0.11008390895 0.0502780474 0.99264981284 -0.1068569036 0.054143694656 0.99279910479 -0.10363716056 0.057951965412 0.99292542955 
-0.10041629818 0.061696977275 0.99303073973 -0.097185244104 0.065376344035 0.99311679171 -0.093935830097 0.068990536293 0.99318496048 
-0.090656002907 0.072542385533 0.99323667443 -0.087334974745 0.076035838553 0.99327295012 -0.083963764287 0.079476868914 0.99329427341 
-0.080532048028 0.082872153221 0.99330095916 -0.077030797608 0.086228411486 0.99329296649 -0.073454627509 0.089552653705 0.99326972163 
-0.069796827363 0.09285114629 0.99323062152 -0.066053040285 0.096128718964 0.99317484123 -0.06222306299 0.099389509676 0.99310121126 
-0.058306946467 0.10263652708 0.99300858169 -0.054306729856 0.10587049385 0.99289587451 -0.050225912937 0.10909157883 0.99276199821 
-0.04607159702 0.11229779718 0.99260597051 -0.041852944029 0.11548567537 0.99242701992 -0.037580055569 0.11865087562 0.99222462635 
-0.033264416549 0.12178713531 0.99199867554 -0.028918755482 0.12488850137 0.99174924644 -0.024556127768 0.12794857087 0.99147675707 
-0.020190236221 0.13096019633 0.99118201221 -0.015834649525 0.1339169524 0.99086604228 -0.011501883248 0.13681304774 0.99053010891 
-0.0072049270232 0.13964298719 0.99017570418 -0.0029525871218 0.14240285934 0.98980437859 0.0012456905251 0.14509046361 0.98941760932 
0.0053825718686 0.14770432652 0.98901691585 0.0094541066806 0.15024421589 0.98860371002 0.013455909408 0.1527113057 0.98817923254 
0.017387444666 0.15510777118 0.98774452977 0.02124865185 0.1574367864 0.98730043709 0.02504091532 0.1597022012 0.98684758676 
0.028766657761 0.16190816205 0.98638644884 0.032428915038 0.16405889533 0.98591736182 0.036032238267 0.16615861474 0.98544050686 
0.039580337705 0.16821114633 0.98495604324 0.043078195392 0.17021968403 0.98446408175 0.046530519507 0.17218675592 0.98396475132 
0.049940829834 0.17411414825 0.9834582741 0.053313700415 0.17600243559 0.98294495879 0.056652747064 0.17785096708 0.9824253151 
0.059961400298 0.17965836378 0.98189994541 0.063244183048 0.18142219613 0.98136953288 0.066502898245 0.18313889948 0.98083510746 
0.069739483891 0.18480413262 0.98029783074 0.072957088433 0.18641291188 0.97975889357 0.076157726639 0.18795965606 0.97921967319 
0.079342624911 0.18943870576 0.97868162578 0.082511283559 0.19084439373 0.97814636199 0.085663231689 0.19217109219 0.9776155083 
0.088798457152 0.19341392753 0.97709052121 0.09191427432 0.19456869204 0.97657298255 0.0950070386 0.19563195364 0.97606444528 
0.098073121933 0.19660148321 0.97556625585 0.10110627514 0.19747588242 0.97507989262 0.10409994561 0.19825524665 0.97460661731 
0.10704723527 0.19894070939 0.97414756765 0.10993938736 0.19953397764 0.97370402221 0.11276798123 0.20003806752 0.97327701809 
0.11552552774 0.20045672476 0.97286738764 0.11820413536 0.20079354878 0.97247608359 0.12079536861 0.20105242143 0.97210411107 
0.1232913169 0.20123789681 0.97175231415 0.12568785495 0.20135427621 0.97142113348 0.1279797983 0.20140478081 0.97111136617 
0.13016202357 0.2013920694 0.97082391915 0.13223421065 0.20131877543 0.97055904725 0.13419633814 0.2011865901 0.97031711249 
0.1360481368 0.20099563036 0.97009878933 0.13779115051 0.20074617652 0.96990441357 0.13942856616 0.20043781195 0.96973416898 
0.14096506507 0.20006853247 0.96958828002 0.14240573748 0.19963520796 0.96946706477 0.14375688364 0.19913480687 0.96937056232 
0.14502405122 0.19856472196 0.96929875465 0.1462135676 0.1979206201 0.969251784 0.14733360721 0.19719789499 0.96922948696 
0.14839002034 0.19639279145 0.96923179546 0.14938983298 0.19550162476 0.96925837243 0.15033898533 0.19451995498 0.96930912335 
0.1512422027 0.19344384703 0.96938396633 0.15210541431 0.19227003468 0.96948242723 0.15293146055 0.19099549194 0.96960439893 
0.1537227492 0.18961845224 0.96974953413 0.15447986557 0.18813756839 0.96991763902 0.15520398275 0.18655103255 0.9701084661 
0.15589464799 0.18485865478 0.9703216665 0.1565490634 0.18306154117 0.97055698591 0.15716594001 0.18116112105 0.97081384185 
0.15774067199 0.17915962087 0.97109201966 0.15826818539 0.17706040125 0.97139116519 0.15874438234 0.17486722968 0.97171069412 
0.15916442367 0.17258466841 0.97205000821 0.15952129721 0.17021888881 0.97240860014 0.15980940812 0.16777693235 0.97278561567 
0.16002298083 0.16526517806 0.97318038746 0.16015697624 0.16269071107 0.97359204778 0.16020684881 0.16006251245 0.97401938261 
0.16016704126 0.15738808822 0.97446165065 0.16003444166 0.15467652509 0.97491750937 0.15980564727 0.15193636447 0.97538581918 
0.15947701484 0.14917522 0.97586568516 0.15904665254 0.14640375374 0.97635552091 0.15851431563 0.14363048271 0.97685387657 
0.1578795061 0.14086265954 0.97735959232 0.15714136427 0.13810840076 0.97787149528 0.15630049984 0.13537599208 0.97838821258 
0.15535891289 0.1326737526 0.97890820998 0.15431791266 0.13000720784 0.97943050174 0.153178838 0.12738176564 0.97995414656 
0.151945632 0.12480248964 0.98047787507 0.15062101357 0.12227199421 0.98100095296 0.14920665928 0.11979314787 0.98152278351 
0.14770592449 0.11736523146 0.9820429534 0.14612298224 0.11498668023 0.98256100952 0.14446279457 0.1126563583 0.98307631744 
0.14272729573 0.11036914554 0.98358912701 0.14091951412 0.10811894935 0.98409957999 0.13904322332 0.10589744145 0.98460789858 
0.13710176248 0.10369565046 0.98511436839 0.13509917504 0.10150527409 0.98561904012 0.1330379477 0.099315305645 0.98612239328 
0.13092138873 0.097114899943 0.98662469368 0.12875320542 0.094895122683 0.98712589257 0.12653613458 0.092646042037 0.9876261021 
0.12427280212 0.090356082326 0.98812552292 0.12196662341 0.088018043576 0.98862377413 0.11962108681 0.08562671203 0.98912024637 
0.11723933058 0.083175866837 0.98961442721 0.11482433768 0.080662556303 0.99010551129 0.1123790533 0.078088303766 0.99059233047 
0.10990615614 0.075455447044 0.99107371691 0.10740901627 0.072767875174 0.99154835463 0.10489002482 0.070034190139 0.99201476547 
0.10235026635 0.067264396311 0.99247162376 0.099791184673 0.064471788715 0.99291747287 0.097213413392 0.061671231493 0.99335100114 
0.094615947321 0.058878096876 0.99377119712 0.091997993752 0.056111839614 0.99417696141 0.089357697878 0.053390652525 0.99456756435 
0.086691805363 0.050732131764 0.99494260221 0.083997020075 0.048154986547 0.99530176223 0.081270053554 0.045675642183 0.99564497393 
0.078507006433 0.043309602028 0.99597235319 0.075704036363 0.041070272323 0.99628416208 0.072857946774 0.038968643646 0.99658073652 
0.069965609772 0.03701490614 0.99686243292 0.067026344006 0.035216715484 0.99712950621 0.064039219223 0.033576916878 0.9973823585 
0.061005567903 0.032097091724 0.9976212194 0.057928588403 0.030777074021 0.99784620577 0.054811282737 0.029614547317 0.99805746421 
0.051659955994 0.028605014501 0.9982549785 0.048481644388 0.027742827004 0.99843871405 0.045284221789 0.027019753371 0.99860866819 
0.042076903674 0.026426569059 0.99876482248 0.038869570192 0.025954363474 0.99890716662 0.035671732564 0.025590810783 0.99903585416 
0.032493548399 0.025324040539 0.9991510708 0.029345472275 0.025143133528 0.99925305408 0.026235653147 0.025034795183 0.99934225846 
0.023173699294 0.024985799067 0.99941917607 0.020168569926 0.024983886501 0.99948438417 0.017227691125 0.025015295337 0.99953861439 
0.014358960131 0.025068046798 0.99958261954 0.011569444673 0.02512878738 0.99961727276 0.0088671051081 0.025181957931 0.9996435582 
0.0062585367793 0.025215689221 0.99966244289 0.0037513821556 0.025220414739 0.99967487605 0.0013550230108 0.025183958779 0.99968191548 
-0.00092275580305 0.025093501395 0.99968468264 -0.0030726393018 0.024938460226 0.9996842662 -0.0050848033444 0.02471037594 0.9996817204 
-0.0069509333468 0.024405194942 0.99967798365 -0.0086624214309 0.024017587511 0.99967400584 -0.010210629697 0.02354252266 0.99967069211 
-0.011590216678 0.022982406711 0.99966868304 -0.012798124723 0.022340465125 0.99966850086 -0.013832745753 0.021624572453 0.99967046221 
-0.014698004321 0.020843126272 0.99967471347 -0.015400581947 0.020009111479 0.99968117794 -0.015949270389 0.019137175571 0.99968964648 
-0.016358560039 0.018241876158 0.99969977067 -0.016645270773 0.017342413878 0.99971104607 -0.01682799095 0.016454623576 0.99972299368 
-0.016927305126 0.015595503605 0.99973508822 -0.016964614238 0.014783561478 0.99974679203 -0.016962082681 0.014030636434 0.99975768514 
-0.016939266242 0.013347035896 0.9997674319 -0.016915298993 0.01274634774 0.99977567648 -0.01690809244 0.012235593947 0.9997821796 
-0.016931797849 0.011818291733 0.99978679837 -0.017000302495 0.011497601161 0.99978937526 -0.017124205858 0.01127475691 0.99978979862 
-0.017311130626 0.011146769468 0.99978801467 -0.017567683181 0.011111701019 0.99978392996 -0.017898355916 0.011163067357 0.99977749264 
-0.018305659367 0.01129249681 0.99976866442 -0.018791734708 0.011493696095 0.99975735339 -0.019356398887 0.011756206617 0.99974352783 
-0.019998595683 0.012067524412 0.9997271783 -0.020719301989 0.012418204493 0.99970820679 -0.021518364216 0.012796074013 0.99968656112 
-0.02239443996 0.013187358877 0.99966223427 -0.023347962148 0.013580919336 0.99963514909 -0.024379977859 0.013962364654 0.99960525662 
-0.025492553519 0.014321028632 0.99957242752 -0.026688211278 0.01464444626 0.99953653239 -0.027969996055 0.014920951589 0.99949739596 
-0.02934273754 0.015142686113 0.99945470273 -0.030811788252 0.015300477451 0.99940808937 -0.032382551365 0.015387790341 0.99935708647 
-0.034058903466 0.015399969413 0.99930117184 -0.03584604331 0.015332700713 0.9992396957 -0.037747976348 0.015185209028 0.99917190699 
-0.039767810979 0.014958315254 0.99909697728 -0.04190439024 0.014649590845 0.9990142199 -0.04415492838 0.014264334634 0.99892285541 
-0.046516028052 0.013807650222 0.99882211025 -0.048978172662 0.013279614501 0.99871156519 -0.051528657169 0.0126861137 0.99859093728 
-0.054152059044 0.012029921098 0.99846023231 -0.056828311332 0.011314866156 0.99831984696 -0.059533250144 0.010543888464 0.99817063599 
-0.062240734752 0.009717421679 0.99801385895 -0.064923382092 0.0088357666263 0.99785113303 -0.067549737441 0.0078962162509 0.99768466097 
-0.070084479885 0.0068983574778 0.99751720704 -0.072495209855 0.0058416825264 0.99735165278 -0.074749462 0.0047196394739 0.99719117672 
-0.076815964526 0.0035294796512 0.99703904155 -0.078662889978 0.0022696139735 0.99689869024 -0.080264403298 0.0009368837626 0.99677316768 
-0.081600235917 -0.0004674422481 0.99666503049 -0.082650765667 -0.001941747353 0.99657668072 -0.083409534675 -0.0034823849754 0.99650926866 
-0.083875909364 -0.0050786859593 0.99646326514 -0.084053487012 -0.0067183028978 0.99643859606 -0.083960398533 -0.0083842786631 0.99643381885 
-0.08362383706 -0.010056279016 0.99644664941 -0.083078643836 -0.011708016549 0.99647421506 -0.082371068371 -0.013309589446 0.99651285086 
-0.081552029809 -0.014830870599 0.9965587347 -0.080679674406 -0.016234486154 0.9966078625 -0.0798140636 -0.017485139604 0.99665640275 
-0.079016689266 -0.018547256041 0.99670073849 -0.078344692937 -0.019390549217 0.99673773666 -0.077846646773 -0.019987983912 0.99676495729 
-0.077846646773 -0.019987983912 0.99676495729 
NormalArray 3 319 double
-0.85915696429 -0.071313794358 -0.50671851501 -0.85915696429 -0.071313794358 -0.50671851501 -0.85941225395 -0.071668513727 -0.50623532265 
-0.86000287233 -0.072169188218 -0.50516004183 -0.86083135844 -0.073600397478 -0.50353982347 -0.86187764623 -0.076032326173 -0.50138409259 
-0.86314912422 -0.079260973235 -0.49868957026 -0.86465833597 -0.082983998779 -0.49545899729 -0.86632337855 -0.087655619854 -0.4917319352 
-0.86814245359 -0.093068478135 -0.48751096259 -0.87010584123 -0.099045347318 -0.48281036053 -0.87216100884 -0.10572867966 -0.47765743054 
-0.87428943215 -0.11302460123 -0.47206294957 -0.87648478451 -0.12075428969 -0.46603950911 -0.87871404089 -0.12892615013 -0.4596081833 
-0.88095777371 -0.13748360947 -0.4527821309 -0.88323212519 -0.14617311775 -0.44557202861 -0.88549895784 -0.15509134549 -0.4379934591 
-0.88777628284 -0.16402653648 -0.4300564695 -0.89006886424 -0.17286852976 -0.42177468907 -0.89236982325 -0.18159208235 -0.41315906645 
-0.89468411636 -0.1901064414 -0.40422750139 -0.89702336948 -0.1983106413 -0.39499615714 -0.89938093834 -0.20620168007 -0.38547995394 
-0.90174499051 -0.21378161741 -0.37570386231 -0.90410582338 -0.22103884922 -0.36569726176 -0.90645566194 -0.22795823096 -0.35549005312 
-0.90876430009 -0.23460874327 -0.34511763858 -0.91097724454 -0.24113645947 -0.33462466711 -0.91307725386 -0.24753952982 -0.32405880588 
-0.91503071796 -0.2538822769 -0.31346861832 -0.91673595467 -0.26046544818 -0.30290747715 -0.91819331612 -0.26721063746 -0.29243718892 
-0.9192873354 -0.27445908002 -0.28210460537 -0.91999263465 -0.28222254022 -0.27196321439 -0.92019186947 -0.29081575806 -0.26205556326 
-0.9198248222 -0.30034636249 -0.25241703392 -0.91878192948 -0.31105824027 -0.24306899684 -0.91694093219 -0.323192326 -0.2340214676 
-0.91416995383 -0.33696727235 -0.22526951165 -0.91034599538 -0.35251951067 -0.21679521048 -0.90529152608 -0.37006604649 -0.20856263818 
-0.89876965462 -0.38987934035 -0.20051735061 -0.89075499352 -0.41164580422 -0.19262209996 -0.88097441362 -0.43558393669 -0.18479912513 
-0.86939466452 -0.46132853533 -0.17699971692 -0.8559396952 -0.48862035272 -0.16916674937 -0.84089316231 -0.51660635639 -0.16129650371 
-0.82419539294 -0.54515077293 -0.15333815257 -0.8064232535 -0.57319950522 -0.14534050855 -0.78791636507 -0.60027567982 -0.13732046413 
-0.76898038372 -0.62606043597 -0.12929617147 -0.75065946486 -0.64943939928 -0.12140360158 -0.73282021715 -0.67087252423 -0.11359835194 
-0.71617780957 -0.68982517651 -0.10597438809 -0.70091571949 -0.70640352262 -0.098545509321 -0.68670793343 -0.72118326617 -0.091251908264 
-0.67467120803 -0.73329301426 -0.084262187844 -0.66422253383 -0.74350850162 -0.077482472667 -0.65516251863 -0.75215505708 -0.070886136092 
-0.64792396241 -0.75896522902 -0.064547037659 -0.64235348368 -0.76417639546 -0.05845030909 -0.63805400585 -0.76819650558 -0.052547259059 
-0.63573174476 -0.77048041677 -0.046958237594 -0.63522261956 -0.77120417762 -0.041669413588 -0.63586290159 -0.77093417758 -0.036590493609 
-0.63849734851 -0.76896426976 -0.031860442189 -0.64264145551 -0.76567654331 -0.027411506482 -0.64822852732 -0.76109116456 -0.023238235656 
-0.65560211497 -0.75485738133 -0.019395893796 -0.66389296181 -0.74766174495 -0.015749615981 -0.67313392481 -0.73941826519 -0.012302372488 
-0.68358700887 -0.72981241815 -0.0090904134847 -0.6943180186 -0.71964364227 -0.0059596295457 -0.7052484629 -0.70895434126 -0.0028892187671 
-0.71640528038 -0.69768435442 0.00012586343706 -0.72728716299 -0.6863259277 0.0031786032515 -0.7374663585 -0.67535399601 0.0063521777942 
-0.74765359142 -0.66402046387 0.0095357637767 -0.75695075523 -0.65334469563 0.012894295518 -0.76562193531 -0.64308198708 0.016389327982 
-0.77364269098 -0.63330539458 0.020031572413 -0.78120680433 -0.62381892342 0.023788225148 -0.78807915854 -0.61495016492 0.027704413783 
-0.79445428851 -0.60649394226 0.031740848659 -0.80023365931 -0.59861214028 0.035910945626 -0.80565791803 -0.59101815558 0.040160414565 
-0.81075657277 -0.58369166922 0.0444726319 -0.81538587299 -0.57685184527 0.048865394107 -0.81982362892 -0.57013289807 0.053270029132 
-0.82393713384 -0.56373599829 0.057700292124 -0.82782775433 -0.55753211467 0.06212205957 -0.83148393757 -0.55155125211 0.066525768393 
-0.83487139626 -0.5458589362 0.070906794272 -0.83828749461 -0.54001877789 0.075191727594 -0.84108921089 -0.53501983908 0.079515477198 
-0.84405834271 -0.52967923715 0.083698386104 -0.84659757311 -0.52492943315 0.087872859441 -0.84899089094 -0.52034161869 0.091973186162 
-0.85121129284 -0.51596695316 0.096007490299 -0.85313196734 -0.51201963523 0.10000869684 -0.85489705153 -0.50827741459 0.10394758824 
-0.85640052932 -0.50492122735 0.10785493754 -0.85778088882 -0.50173128567 0.1117034635 -0.85906243667 -0.49867110539 0.11549397624 
-0.86017683556 -0.49585834232 0.11924896611 -0.86147099353 -0.49271285953 0.12288924024 -0.86269444344 -0.48965364047 0.12648165733 
-0.86410630321 -0.48623998041 0.12996529619 -0.86584649418 -0.48222294657 0.13330745787 -0.86792961426 -0.47756125018 0.13650434799 
-0.87048463628 -0.47200683061 0.13952078646 -0.87375425343 -0.46508878022 0.14228819743 -0.87741253084 -0.45733590124 0.14488313971 
-0.88196577865 -0.4477523773 0.14715357252 -0.88717471957 -0.43666564963 0.14914465253 -0.89322722082 -0.42357108882 0.15077355442 
-0.89980636562 -0.40891803765 0.15210043681 -0.9069696893 -0.39239824116 0.15306731535 -0.91457512339 -0.37408147913 0.15367299907 
-0.92252816161 -0.35391723594 0.15389730715 -0.9304556688 -0.33254883593 0.15382951639 -0.93839205615 -0.30965693866 0.15340446309 
-0.94600970429 -0.28590640056 0.15271925058 -0.95325549803 -0.26129042828 0.15176056 -0.95990060938 -0.23643768278 0.15062550339 
-0.9659959342 -0.21111943158 0.14926634152 -0.97139018544 -0.18591240606 0.14777579271 -0.97611482558 -0.16075946626 0.14613774768 
-0.98015678393 -0.1358231424 0.14437712045 -0.98360332007 -0.11065853744 0.14240504498 -0.98639881231 -0.085655725302 0.1402871334 
-0.98858196385 -0.060577222246 0.1379713771 -0.99017979796 -0.034952530959 0.1353598474 -0.99117756582 -0.0080581829096 0.1322954977 
-0.99147344095 0.020329233099 0.1287133955 -0.99092748942 0.050574118798 0.12451895127 -0.98930143625 0.08373822168 0.11945952647 
-0.9861708131 0.12102378516 0.11322707637 -0.98113960776 0.16169735177 0.10591995336 -0.97337208113 0.20768495763 0.097024481698 
-0.96203623945 0.25886759869 0.086451375541 -0.94574491409 0.31642654154 0.073761787413 -0.92411370819 0.3774558541 0.059505735423 
-0.89570023318 0.44253961795 0.043356416271 -0.8602811918 0.50916641865 0.025803665562 -0.81849648462 0.57446203716 0.0075413874514 
-0.77098196906 0.63676218274 -0.010987539345 -0.72104207599 0.69230462565 -0.028506665122 -0.66789620125 0.7428631144 -0.045486895054 
-0.61622827509 0.78523627657 -0.060553306553 -0.56642717134 0.82079060233 -0.07391242583 -0.51847488439 0.85077621289 -0.085811594994 
-0.47458924049 0.87497245057 -0.095855430469 -0.43200389458 0.89574511574 -0.10494437911 -0.39426707089 0.91210619235 -0.11231994784 
-0.35708134979 0.9264453387 -0.11912994598 -0.32282125843 0.93818449143 -0.12488512783 -0.29025725136 0.94808696646 -0.12993010452 
-0.257484445 0.95684684266 -0.13470664523 -0.22590289902 0.96419038432 -0.13894165323 -0.19474648197 0.97040056011 -0.14281652809 
-0.16388608776 0.97555949326 -0.14637289826 -0.13159377469 0.97989815305 -0.14994228259 -0.10044078988 0.98310003646 -0.15305543454 
-0.067368710559 0.98541495891 -0.15626520913 -0.035633518445 0.98663397945 -0.159008311 -0.0021531279975 0.98681928727 -0.16181179905 
0.031201878463 0.98590597737 -0.16436497977 0.06485833029 0.98386496434 -0.1667427028 0.098913013109 0.98064682016 -0.1689616227 
0.13375327784 0.97613701562 -0.17107480063 0.16833203922 0.97044154209 -0.17293795988 0.20272433163 0.96354969003 -0.17457044485 
0.23723237557 0.95537389103 -0.17601570474 0.27213448923 0.9457826447 -0.17730766697 0.30654160898 0.93500044018 -0.1783435416 
0.34075397604 0.92292273469 -0.1791657155 0.37455766557 0.90961246713 -0.17975459604 0.40827326068 0.89490822613 -0.18014497332 
0.44012479298 0.87967383809 -0.18017798196 0.47202002719 0.86300825954 -0.18003843451 0.50276259805 0.84555553878 -0.17962628103 
0.53153623037 0.82792894833 -0.17889352227 0.55854314043 0.81017842197 -0.17787772447 0.58335390334 0.79279236358 -0.17657432347 
0.60653481199 0.77554954655 -0.17503834633 0.6267498175 0.75972419947 -0.17321607027 0.64430038155 0.74537478395 -0.17115329323 
0.6590464159 0.7328991868 -0.16886859883 0.67126091084 0.72230239157 -0.16639724969 0.68060138204 0.7141221941 -0.16374141399 
0.68743004957 0.70819633501 -0.16092817662 0.69213814184 0.70426351814 -0.15798002918 0.69459729732 0.70252564382 -0.15489452648 
0.69470853915 0.70311992273 -0.15166548679 0.69388627007 0.70463978712 -0.14833952482 0.69147201033 0.70772384051 -0.1448910781 
0.6880534744 0.71176293151 -0.14133628584 0.68413948359 0.71623611063 -0.13769168753 0.68053072694 0.72036422888 -0.13398995276 
0.67671797698 0.72463556352 -0.13021551255 0.67338865812 0.7284027706 -0.12640062851 0.67134831136 0.73093356764 -0.12258696718 
0.67044631292 0.73238887623 -0.11877826177 0.67150433506 0.73201943657 -0.11501944389 0.67426532896 0.730052147 -0.11131095554 
0.67953161331 0.72569896148 -0.10769310018 0.68748592249 0.71868593611 -0.10418076419 0.69791886887 0.70905214332 -0.10076859896 
0.71130425905 0.69609306858 -0.097471487742 0.72747249089 0.67962917348 -0.094275986126 0.745973067 0.65970825102 -0.091154850876 
0.76703199143 0.63553195835 -0.088096844653 0.78961258642 0.60768277931 -0.0850505914 0.81353881771 0.57570187951 -0.081987425879 
0.8382180026 0.5396022084 -0.078867209932 0.8624665601 0.5004285416 -0.075648578695 0.88558029938 0.45882374236 -0.072307031476 
0.90707265465 0.41530900737 -0.068830426213 0.92635401673 0.3709643929 -0.065220049697 0.94334456035 0.32606906578 -0.06148174368 
0.95748543382 0.28266259378 -0.057649823151 0.96932411703 0.23984079916 -0.053732180237 0.97843695157 0.20045389518 -0.049793249664 
0.98562654974 0.16260473655 -0.045825801692 0.99086517268 0.12818606184 -0.041887266825 0.99452688486 0.097324153541 -0.038003742212 
0.99698797223 0.069614579689 -0.034187622238 0.99853057036 0.044825950951 -0.030452162157 0.99933770577 0.024559824687 -0.026850788485 
0.99970113928 0.007205864175 -0.023360386131 0.99978080242 -0.0061226157931 -0.020021505691 0.99973974997 -0.015383073458 -0.016846168072 
0.99967342984 -0.02149436232 -0.013821217948 0.99969609475 -0.022053723654 -0.011015961434 0.99981682462 -0.01718003071 -0.0084358609557 
0.99994585393 -0.0084691694246 -0.0060466830608 0.99997963011 0.0050677444642 -0.0038803779613 0.99966049487 0.025978013254 -0.0020094313574 
0.99852471972 0.05429723194 -0.00044125232031 0.99586423307 0.090850415747 0.00079451295672 0.99069208822 0.13611165243 0.001674637345 
0.98202076049 0.18875989449 0.0022199536906 0.96674976213 0.25571450684 0.0022334764124 0.94251575928 0.33415708163 0.0017573574469 
0.90682966895 0.42149646875 0.00082362196139 0.85404598696 0.52019705305 -0.00069148628818 0.784424419 0.62021912793 -0.0025620742189 
0.69299308025 0.72092797307 -0.0048423526399 0.58886213508 0.80820226856 -0.0071048549067 0.47066472155 0.882262281 -0.0093801604309 
0.35649211594 0.93423103249 -0.011213795826 0.24760757547 0.96877738792 -0.012683108112 0.15302065312 0.9881281887 -0.013688038897 
0.074390441317 0.99712672617 -0.014295250735 0.015223834994 0.99977859494 -0.014525699858 -0.023485406912 0.99962007414 -0.014427163163 
-0.04438651207 0.99891509852 -0.014087706974 -0.034630411462 0.99931133446 -0.013326342946 0.010458458421 0.99987258247 -0.012059829213 
0.114253505 0.99340321201 -0.0098079027789 0.32846673207 0.94450080133 -0.0052765710815 0.661052061 0.75033458453 0.0028607528675 
0.93739516345 0.34804852515 0.012350371546 0.99902318722 -0.040355538043 0.018002831389 0.97067870835 -0.23954281569 0.020052047317 
0.93559807412 -0.35243516909 0.021111496512 0.91319710427 -0.40693234262 0.021843014531 0.90065277092 -0.43395448728 0.022540834004 
0.89866978443 -0.43800844455 0.023264158236 0.89920355677 -0.43686832679 0.024063011685 0.90784797209 -0.41855954543 0.024899126593 
0.91726391671 -0.39744396154 0.02579155937 0.9301753064 -0.36614342704 0.026700003714 0.94435028673 -0.32778069412 0.027610731813 
0.95765896784 -0.28648812289 0.028528174964 0.9712077015 -0.23641383424 0.029395569918 0.98205683311 -0.1861415159 0.030260743467 
0.99053162607 -0.13371414754 0.031106663273 0.99620319739 -0.080982767949 0.031952790185 0.99897455818 -0.031156327204 0.032849891613 
0.99930818385 0.015469680822 0.033820743243 0.99767259093 0.058583499827 0.034890899334 0.99481958444 0.095015415622 0.036139524085 
0.99115785254 0.12726499199 0.037546413524 0.98669203108 0.1578357857 0.039073015637 0.9830174193 0.1788970844 0.04089726814 
0.97882660652 0.20016271322 0.042817783784 0.974797848 0.21852498455 0.044899740144 0.97107120566 0.23409193528 0.047134694076 
0.96685501856 0.25049761402 0.04941981856 0.96284641128 0.26503398744 0.051805152115 0.95776815495 0.28239859428 0.054140514577 
0.95205243393 0.30068244639 0.056446695987 0.9446204 0.32289043861 0.058600892121 0.93482250269 0.34991959199 0.060524107671 
0.92212072815 0.38187851265 0.06214631356 0.90519240105 0.42025636811 0.063334841443 0.88017814246 0.47034254742 0.063752063641 
0.8472996984 0.52731588592 0.06341275542 0.79806529651 0.59941316631 0.061608753947 0.73158801557 0.67925204039 0.058272129714 
0.63779002526 0.76841356085 0.052578352693 0.51327016843 0.85708619529 0.044237857577 0.36238627405 0.93142261221 0.033587286796 
0.19297648491 0.9809733941 0.021243265759 0.020797364878 0.99974762085 0.0084949523337 -0.1318507872 0.99126570714 -0.0027690717338 
-0.26111272683 0.96523157309 -0.012171860999 -0.36477967512 0.93089016841 -0.019475188537 -0.44297133807 0.89619694858 -0.02464595304 
-0.50539481325 0.86241665043 -0.028523740891 -0.55113409502 0.83383938667 -0.031033635722 -0.58832404718 0.8079540867 -0.032939479272 
-0.61386863875 0.78867607953 -0.033990232965 -0.63434098899 0.77226805537 -0.034836193099 -0.64845485055 0.76042980939 -0.035395081502 
-0.64845485055 0.76042980939 -0.035395081502 
BinormalArray 3 319 double
0.11307681053 -0.99222020236 -0.05208363424 0.11307681053 -0.99222020236 -0.05208363424 0.11333278793 -0.99219890857 -0.051932696997 
0.11365427813 -0.99217201818 -0.051743515621 0.11472282109 -0.99208151589 -0.051116926262 0.11660250533 -0.99191826978 -0.050020014167 
0.11912040727 -0.99169162597 -0.048559731812 0.12201895336 -0.99141947436 -0.046891373145 0.12570013918 -0.9910566175 -0.044791248164 
0.12998982627 -0.99060968492 -0.04236858759 0.13474051469 -0.99008466509 -0.039715861382 0.14008510096 -0.9894565322 -0.036768673798 
0.14594870039 -0.98872211259 -0.033579173917 0.1521811346 -0.98788993 -0.03023885723 0.15879736666 -0.98694878178 -0.02674880338 
0.16575403021 -0.98589558114 -0.023140971497 0.17283113086 -0.98475769944 -0.019536468395 0.1801204609 -0.98351613503 -0.015894391975 
0.18743663587 -0.98219952818 -0.012312367097 0.19468400823 -0.98082618424 -0.0088393015841 0.20184252426 -0.97940262602 -0.005485575811 
0.2088325846 -0.97794872922 -0.0022879285453 0.21556384842 -0.97648948583 0.00071506142081 0.2220347429 -0.97503237631 0.0035267688901 
0.22824902593 -0.97358333978 0.0061532647885 0.23419788724 -0.9721509462 0.0085957787163 0.23986883868 -0.97074461854 0.010854759438 
0.24532810322 -0.96935345024 0.01296187801 0.25071546819 -0.96794500188 0.01497422286 0.25603239764 -0.96652056376 0.016894116988 
0.26134254083 -0.96506407676 0.018745775658 0.26693477407 -0.96349382115 0.020627239249 0.27273889686 -0.96182472078 0.022510011951 
0.27908404554 -0.95995425073 0.024493509882 0.28598558856 -0.95786542756 0.026571899003 0.29374934244 -0.95544779782 0.02882411251 
0.30248236899 -0.95264207503 0.031264889664 0.31242294796 -0.9493365073 0.033942561787 0.32380688447 -0.94540335991 0.036899710489 
0.33684848441 -0.94070161812 0.04016919491 0.35168207013 -0.93509607407 0.043761327786 0.368520182 -0.92839496501 0.047703924418 
0.38762966744 -0.92034538427 0.052034743905 0.40870515019 -0.91090585608 0.056662347082 0.43196029983 -0.8997855566 0.061613728241 
0.45703768995 -0.88693574747 0.066794684102 0.48368275054 -0.87226547815 0.072138287085 0.51105759293 -0.85604843915 0.077467454742 
0.53902737692 -0.83821346398 0.082750684225 0.5665542394 -0.81933449011 0.087791156412 0.59316652854 -0.79974729945 0.092507980437 
0.61854773031 -0.77975515952 0.096853479696 0.64159607459 -0.7604097695 0.10065515146 0.66276182131 -0.74157210771 0.10400758275 
0.6815134634 -0.72396321592 0.10684877728 0.69795210793 -0.70776664035 0.10922105036 0.71264434889 -0.69265129245 0.11123047726 
0.72472300705 -0.67974665904 0.11278759941 0.73495350415 -0.66846242236 0.11402340384 0.74365577464 -0.65859748771 0.11500190449 
0.75056053637 -0.65059041652 0.11571945032 0.75590037534 -0.64428687925 0.11622839492 0.76007854431 -0.63928652194 0.11659051999 
0.76254768347 -0.63630392029 0.11678335267 0.76347956319 -0.63517354167 0.11684831432 0.76343706031 -0.63522510789 0.11684569848 
0.76171035764 -0.63731159551 0.11675299261 0.75867882652 -0.64094297044 0.11661280732 0.75436007007 -0.6460509337 0.11644344441 
0.74839991576 -0.65298071706 0.11624865268 0.74148578111 -0.66085387854 0.11606458386 0.73353035322 -0.66970212408 0.115897739 
0.72421701888 -0.67978778793 0.11575090904 0.71434941816 -0.69016779076 0.11564311209 0.70397066123 -0.70076184921 0.11557741484 
0.69302096901 -0.7115959161 0.1155559981 0.68199680261 -0.72216437327 0.11558105039 0.67137753 -0.73203640776 0.11564994563 
0.66041086463 -0.74192687523 0.11576701467 0.65012502646 -0.75093273872 0.11592010992 0.64027442758 -0.75932027713 0.11610931974 
0.63093366267 -0.76706585148 0.11633010274 0.62190570665 -0.77436515244 0.11658431593 0.61352147276 -0.78098356071 0.11685923309 
0.60557393555 -0.78711771848 0.11715761106 0.59822606228 -0.79267052695 0.117469205 0.59118783694 -0.79788439607 0.11780251255 
0.58443755723 -0.80279009022 0.11815588325 0.57819510869 -0.80724519871 0.11851415718 0.57208934097 -0.81152796732 0.11889551797 
0.56632142273 -0.81550668373 0.11928493179 0.56075883679 -0.81928272957 0.11968849561 0.55542971495 -0.82284470361 0.12010172975 
0.5503978931 -0.82615849442 0.12051680949 0.54522046789 -0.82951862256 0.12096898867 0.54089498757 -0.83228752794 0.1213675544 
0.53622433927 -0.83523849148 0.12182003249 0.53214957397 -0.83778026105 0.12223364969 0.52823612676 -0.84019274989 0.1226488378 
0.52453504336 -0.8424486231 0.12305813959 0.5212622575 -0.84442261423 0.12343462834 0.51819299865 -0.84625603498 0.12380120923 
0.5155100511 -0.84784450298 0.12413333954 0.51299153234 -0.84932349305 0.12445598382 0.51060102596 -0.85071642948 0.12477238837 
0.50845767615 -0.85195628679 0.12506509091 0.50597628047 -0.8533810973 0.12541413948 0.50358038883 -0.85474618073 0.12576071929 
0.50082552878 -0.85630306833 0.12616990486 0.49746105161 -0.85818656041 0.12668200211 0.49344569199 -0.86040937108 0.12730696454 
0.48852955741 -0.86309467858 0.12808765493 0.48223819625 -0.86647470434 0.12910425558 0.47510484659 -0.87023216266 0.13027420239 
0.46612527251 -0.8748515538 0.13176490102 0.45562954272 -0.88009848126 0.13352296841 0.4431084886 -0.8861482384 0.13563247002 
0.42901427979 -0.89269200469 0.13801352286 0.41303495103 -0.89977888268 0.14071279794 0.39523936343 -0.90726694986 0.14370987193 
0.37557505914 -0.91505936569 0.14700249048 0.35468861635 -0.92279699598 0.15047155755 0.33225594287 -0.93050562548 0.1541598825 
0.3089454679 -0.9378727989 0.15794717771 0.28474809325 -0.94484421359 0.16182686871 0.26029602654 -0.95120559257 0.16569218216 
0.23535663263 -0.95700113885 0.16957616496 0.21050994928 -0.96209291081 0.17338625152 0.18569660659 -0.96650978554 0.17713160292 
0.16107927042 -0.9702418129 0.18078797845 0.13620679545 -0.97336356972 0.18442090449 0.11147135057 -0.97582837659 0.1879710548 
0.086631125651 -0.97766748388 0.19147150972 0.061208911345 -0.97889467055 0.1949838279 0.034470338731 -0.97947495116 0.19859661576 
0.0061857513291 -0.9792997277 0.20232098215 -0.024017165769 -0.97821930525 0.20617993738 -0.05721897468 -0.97596714401 0.21027154525 
-0.094646879872 -0.97208744463 0.2146810847 -0.13556794949 -0.96620646812 0.21924048903 -0.18195182498 -0.95744015057 0.22405778601 
-0.23369878994 -0.9449656865 0.2289644665 -0.29203966067 -0.92737264762 0.23386493761 -0.35404493041 -0.90436298404 0.2382850821 
-0.42034404582 -0.87448884369 0.24203335598 -0.48840338214 -0.83760192589 0.24471442552 -0.55529839983 -0.79442202769 0.24604334796 
-0.61932802718 -0.74562979695 0.24590445431 -0.67659515403 -0.69461746308 0.24438816977 -0.72891210296 -0.64055942767 0.24160042586 
-0.77290912085 -0.58820359401 0.23796643229 -0.80995321007 -0.53789870877 0.23375366651 -0.84130598633 -0.48959223608 0.22913681444 
-0.86668008468 -0.44549753457 0.22449404781 -0.88854296812 -0.4027964039 0.21965074733 -0.90579534143 -0.36504932013 0.21511344292 
-0.92097218653 -0.32791204941 0.21043744793 -0.9334231762 -0.29376577777 0.20596806052 -0.94395423371 -0.26136517031 0.20159030834 
-0.95332032443 -0.22879237299 0.1970644795 -0.96120708576 -0.19745003697 0.19259912044 -0.96792253246 -0.16656591763 0.18810041533 
-0.97355433155 -0.13600811496 0.18355859061 -0.97838440002 -0.10404393081 0.17871437061 -0.98202474552 -0.073247657217 0.17396028256 
-0.98481170913 -0.040555883279 0.16882274103 -0.98644817164 -0.0092262199057 0.16381355726 -0.98708111604 0.023826170023 0.15843984344 
-0.98659665602 0.056730886487 0.15299883935 -0.98497836244 0.089916097171 0.14742021909 -0.9821804167 0.1234793718 0.14168441622 
-0.97809873858 0.15780773264 0.13571874268 -0.97281472382 0.19185711945 0.12970103634 -0.96632088723 0.22570396382 0.12361902608 
-0.95853787694 0.2596506104 0.11741677471 -0.9493415673 0.29397492858 0.11103751599 -0.9389368433 0.32779188159 0.10464266172 
-0.92722722997 0.36140185551 0.098175164033 -0.9142715882 0.39459255637 0.091674300983 -0.89991621177 0.42768347242 0.08507443339 
-0.88498739625 0.45890987913 0.078733927368 -0.86862558344 0.49016966797 0.072272348738 -0.85145002368 0.520274382 0.065935002922 
-0.83405766927 0.54841504261 0.059906138017 -0.8165032972 0.57479473549 0.054160665678 -0.79926761754 0.59898982728 0.048810474001 
-0.78214093417 0.62156379605 0.043749360548 -0.76637220514 0.64119375662 0.039296433276 -0.75202659553 0.6581809503 0.035409550608 
-0.73950045869 0.67238827627 0.03214152345 -0.72880518829 0.68408766577 0.029445934491 -0.72047391572 0.6929400854 0.027411216833 
-0.71435251587 0.69930440245 0.025958347194 -0.7101882882 0.7035679162 0.024995651536 -0.70818302804 0.70560217592 0.024543189008 
-0.70847464053 0.70530713355 0.024607541069 -0.7096802005 0.70408493409 0.024868023601 -0.7124305261 0.70128099344 0.025450220259 
-0.71612663387 0.69747781649 0.026217165459 -0.72025588402 0.69318063002 0.027056897409 -0.72405032841 0.6891861828 0.027812359947 
-0.72799273106 0.6849888872 0.02857985191 -0.73144447386 0.68127398315 0.029235963224 -0.73368217065 0.67884558767 0.029650304764 
-0.73486472529 0.67755592756 0.029863030059 -0.73425039834 0.67822631395 0.029756001168 -0.73206271481 0.68060305749 0.029388087974 
-0.72751949048 0.68548842953 0.028653166551 -0.7203467745 0.69306708672 0.02754156444 -0.71058036443 0.70313191954 0.026096923383 
-0.6975175854 0.71615688971 0.024259583422 -0.68097597286 0.73197355405 0.022055397317 -0.66099876074 0.75013249446 0.019541726004 
-0.63678769937 0.77085887702 0.016673861251 -0.60891777954 0.79311718709 0.013574435268 -0.57692834188 0.81673054965 0.010241952616 
-0.54082843265 0.84110602983 0.0067270368547 -0.50165615906 0.86506130286 0.0031686561185 -0.46005055348 0.88789265348 -0.00035234187918 
-0.41653033487 0.90911396706 -0.0037782323467 -0.37217269423 0.92813694621 -0.007021022514 -0.32725641896 0.94488197301 -0.010064458362 
-0.2838184155 0.95879278847 -0.012786547563 -0.24095702167 0.97041574936 -0.015263914955 -0.20152039862 0.97933046968 -0.017359726473 
-0.16361490954 0.98633733383 -0.019204824247 -0.12913313318 0.9914104622 -0.020734737717 -0.09820286544 0.99492367523 -0.021979028152 
-0.070421250571 0.99725247719 -0.022985739112 -0.045558131169 0.99867835511 -0.023790748761 -0.02521587466 0.99938484781 -0.024373871741 
-0.0077853567507 0.99966183551 -0.024811345263 0.0056192438498 0.99966910475 -0.025101894498 0.01495456406 0.99956870502 -0.025273799944 
0.021138920055 0.999454644 -0.025368497014 0.021768465341 0.99944093238 -0.025376299946 0.016961475533 0.99953524977 -0.025329682355 
0.0083138393154 0.99964615849 -0.025267328499 -0.0051639615606 0.99966906957 -0.025200889956 -0.026020355486 0.99934524117 -0.02514020789 
-0.054291183646 0.99820946038 -0.025106584533 -0.09080191727 0.99555224632 -0.025114471125 -0.13602694995 0.99038528634 -0.025172474927 
-0.18864493231 0.9817199645 -0.025278465542 -0.25557750269 0.96645395466 -0.025434103837 -0.33400566844 0.94222332513 -0.025601152841 
-0.421337891 0.90653876686 -0.025726363671 -0.5200400563 0.85375402173 -0.025737331353 -0.62007014605 0.78413048099 -0.02554217619 
-0.72079439468 0.69269648602 -0.025040344741 -0.80808675769 0.58856497394 -0.024229393373 -0.88216797758 0.47036904238 -0.023078633085 
-0.9341551096 0.35620164499 -0.021785759466 -0.9687174116 0.24732491452 -0.020419674993 -0.98807970247 0.15274792324 -0.019146109463 
-0.99708551719 0.074128754342 -0.018038824739 -0.9997401846 0.014973557303 -0.017185920688 -0.99958027362 -0.023724430783 -0.016626123142 
-0.99887081187 -0.044614824602 -0.016328460437 -0.99925702763 -0.034848062121 -0.016462238743 -0.999802349 0.010252271648 -0.017033903503 
-0.99330732949 0.11406308054 -0.018170383622 -0.94436253401 0.32830784555 -0.019833378809 -0.75014460887 0.66096209507 -0.020302085181 
-0.34783707722 0.93741024833 -0.016474041271 0.0405468605 0.99912359628 -0.010391893661 0.239713358 0.97082162387 -0.0065483292305 
0.3525920398 0.93576809686 -0.0041136801134 0.40708465883 0.91338598822 -0.0028490453647 0.43410818473 0.90085808792 -0.0021884639111 
0.43816968713 0.8988898583 -0.0020851657736 0.43703967098 0.89943974409 -0.0021148868566 0.41874696366 0.90809920572 -0.002610173099 
0.39764984114 0.91753168392 -0.0031957535205 0.36637244988 0.93045932177 -0.0040839329294 0.32803681597 0.94465065973 -0.0051940769992 
0.28677418126 0.95797675524 -0.0064113476931 0.23673474593 0.97154209336 -0.0079133366346 0.18649947951 0.98240964025 -0.0094468449994 
0.13411227202 0.99090424654 -0.011075770362 0.081423726334 0.99659805673 -0.01274716066 0.031641783624 0.99939606722 -0.014363089691 
-0.014938031762 0.99976173657 -0.015916195831 -0.058003986824 0.99816475686 -0.017397001919 -0.094387947792 0.9953599752 -0.018693182996 
-0.12658843772 0.99175595316 -0.019887101771 -0.15710779063 0.98735670061 -0.021068646903 -0.17812101405 0.98376438335 -0.021921277369 
-0.19933573063 0.97966536993 -0.022826069793 -0.21764717811 0.97574099174 -0.023647894063 -0.23316412897 0.97213169291 -0.024381562805 
-0.24951738936 0.96804247137 -0.025196151171 -0.26400252141 0.96417268127 -0.025955912225 -0.2813111329 0.95923920915 -0.026910706753 
-0.29953673229 0.95367480734 -0.027966191351 -0.32167880621 0.94639510453 -0.029309584725 -0.34863149806 0.93674645925 -0.031018537202 
-0.38050167988 0.92418678536 -0.033124875359 -0.41877340128 0.90738660989 -0.035754420231 -0.46872055157 0.88247131007 -0.039311975881 
-0.52553071146 0.84966199117 -0.043496805431 -0.59741437231 0.80043657145 -0.048962872101 -0.67700561374 0.73390448144 -0.055205172643 
-0.7658755024 0.63995342096 -0.062404597844 -0.85423801433 0.51516937357 -0.069842189292 -0.92828822997 0.36392278089 -0.076427558154 
-0.97761183918 0.19407577648 -0.081299968527 -0.9962441874 0.021437327427 -0.083892550668 -0.98770745739 -0.13161307577 -0.084332537566 
-0.96167936328 -0.26120275949 -0.083342190229 -0.92738003405 -0.36511151269 -0.081607939226 -0.89274374864 -0.44345674443 -0.079716466771 
-0.85902581403 -0.50598178459 -0.077827273461 -0.83050707369 -0.55176835601 -0.076221269058 -0.80467666225 -0.58898596221 -0.074773026959 
-0.78544360535 -0.61452912125 -0.073704151527 -0.76907322069 -0.63500083249 -0.07280332383 -0.75726231016 -0.64911245982 -0.072158215888 
-0.75726231016 -0.64911245982 -0.072158215888 
