# vtk DataFile Version 4.1
vtk output
ASCII
DATASET POLYDATA
POINTS 247 float
-0.211174 8.25455 154.018 -0.113151 8.16209 153.138 -0.0151213 8.06955 152.258 
0.0829364 7.97673 151.375 0.181039 7.8834 150.487 0.279196 7.78936 149.592 
0.377403 7.69441 148.688 0.475637 7.59834 147.774 0.573857 7.501 146.846 
0.671993 7.4022 145.905 0.769951 7.30183 144.947 0.867608 7.19974 143.972 
0.964811 7.09583 142.979 1.06138 6.99003 141.966 1.15711 6.88225 140.932 
1.25176 6.77247 139.877 1.34509 6.66064 138.799 1.43682 6.54675 137.7 
1.52667 6.4308 136.578 1.61435 6.3128 135.432 1.69957 6.19276 134.265 
1.78203 6.0707 133.074 1.86145 5.94665 131.862 1.93756 5.82063 130.627 
2.01011 5.69264 129.371 2.07886 5.56271 128.094 2.1436 5.43082 126.797 
2.20414 5.29698 125.48 2.26033 5.16114 124.145 2.31204 5.02328 122.79 
2.35917 4.88334 121.418 2.40166 4.74125 120.029 2.43946 4.59693 118.623 
2.47256 4.4503 117.201 2.50097 4.30124 115.763 2.52472 4.14966 114.311 
2.54386 3.99543 112.843 2.55847 3.83845 111.361 2.56861 3.67861 109.865 
2.57437 3.51581 108.357 2.57584 3.34996 106.835 2.57311 3.18098 105.301 
2.56627 3.00882 103.756 2.5554 2.83345 102.199 2.54057 2.65485 100.634 
2.52185 2.47306 99.0588 2.4993 2.2881 97.4764 2.47294 2.10004 95.8875 
2.44283 1.90899 94.2934 2.40897 1.71504 92.6957 2.37139 1.51833 91.0956 
2.33007 1.31901 89.4949 2.28503 1.11723 87.895 2.23625 0.913149 86.2974 
2.18375 0.706934 84.7036 2.1275 0.498737 83.115 2.06753 0.288704 81.5328 
2.00383 0.0769638 79.9584 1.93644 -0.136371 78.3925 1.86537 -0.351212 76.8361 
1.79066 -0.567495 75.2898 1.71237 -0.785181 73.7541 1.63053 -1.00426 72.229 
1.54522 -1.22475 70.7148 1.45649 -1.4467 69.2111 1.3644 -1.67016 67.7177 
1.26901 -1.89525 66.2341 1.17037 -2.12205 64.7595 1.06852 -2.35071 63.2933 
0.963487 -2.58136 61.8344 0.855285 -2.81416 60.382 0.743909 -3.04925 58.9349 
0.629335 -3.28679 57.4922 0.511521 -3.52695 56.0528 0.390408 -3.76987 54.6155 
0.265921 -4.0157 53.1792 0.137969 -4.26458 51.743 0.00645253 -4.51665 50.3059 
-0.128738 -4.77202 48.8668 -0.267713 -5.0308 47.425 -0.410586 -5.2931 45.9795 
-0.557462 -5.55899 44.5296 -0.708442 -5.82855 43.0745 -0.863612 -6.10186 41.6136 
-1.02304 -6.37895 40.1463 -1.18679 -6.65988 38.672 -1.3549 -6.94467 37.1901 
-1.52737 -7.23334 35.7004 -1.70422 -7.52588 34.2023 -1.88541 -7.82228 32.6954 
-2.0709 -8.12251 31.1797 -2.26064 -8.42651 29.6547 -2.45457 -8.73421 28.1203 
-2.65258 -9.04552 26.5765 -2.8546 -9.36031 25.0233 -3.06052 -9.67844 23.4606 
-3.27025 -9.99975 21.8886 -3.48369 -10.324 20.3075 -3.70072 -10.6511 18.7176 
-3.92127 -10.9806 17.1193 -4.14522 -11.3124 15.513 -4.3725 -11.646 13.8991 
-4.60303 -11.9813 12.2784 -4.83673 -12.3179 10.6515 -5.07352 -12.6553 9.01908 
-5.31335 -12.9933 7.38191 -5.55613 -13.3314 5.74086 -5.80181 -13.6692 4.09681 
-6.05031 -14.0064 2.4507 -6.30154 -14.3424 0.803491 -6.55542 -14.677 -0.843822 
-6.81183 -15.0097 -2.49022 -7.07066 -15.3401 -4.13468 -7.33175 -15.6679 -5.77616 
-7.59493 -15.9926 -7.41364 -7.86002 -16.314 -9.04613 -8.12678 -16.6317 -10.6726 
-8.39498 -16.9454 -12.2923 -8.66432 -17.2549 -13.9041 -8.93452 -17.56 -15.5073 
-9.20524 -17.8604 -17.1012 -9.47615 -18.1561 -18.685 -9.74687 -18.4468 -20.2583 
-10.0171 -18.7325 -21.8204 -10.2863 -19.0132 -23.371 -10.5543 -19.2888 -24.9097 
-10.8206 -19.5593 -26.4363 -11.0849 -19.8247 -27.9506 -11.3468 -20.0851 -29.4525 
-11.6062 -20.3406 -30.942 -11.8625 -20.5911 -32.419 -12.1158 -20.8368 -33.8835 
-12.3657 -21.0776 -35.3357 -12.612 -21.3136 -36.7755 -12.8548 -21.545 -38.203 
-13.0939 -21.7715 -39.6183 -13.3294 -21.9934 -41.0215 -13.5611 -22.2105 -42.4125 
-13.7894 -22.4228 -43.7914 -14.0142 -22.6303 -45.1582 -14.2357 -22.8328 -46.5129 
-14.4542 -23.0303 -47.8557 -14.6698 -23.2227 -49.1863 -14.8829 -23.4098 -50.5051 
-15.0937 -23.5916 -51.8119 -15.3026 -23.7679 -53.107 -15.5099 -23.9386 -54.3906 
-15.7158 -24.1036 -55.6629 -15.9208 -24.2628 -56.9242 -16.1252 -24.4161 -58.1749 
-16.3293 -24.5634 -59.4154 -16.5334 -24.7048 -60.6464 -16.7379 -24.84 -61.8685 
-16.943 -24.9692 -63.0822 -17.1491 -25.0923 -64.2884 -17.3563 -25.2093 -65.4878 
-17.5648 -25.3203 -66.6814 -17.7749 -25.4253 -67.8698 -17.9866 -25.5244 -69.0541 
-18.2001 -25.6176 -70.235 -18.4154 -25.7051 -71.4135 -18.6325 -25.787 -72.5902 
-18.8514 -25.8633 -73.7661 -19.0719 -25.9343 -74.9417 -19.294 -26 -76.1178 
-19.5173 -26.0606 -77.2948 -19.7417 -26.1163 -78.4733 -19.9669 -26.1672 -79.6536 
-20.1926 -26.2135 -80.8361 -20.4183 -26.2554 -82.021 -20.6437 -26.2931 -83.2083 
-20.8684 -26.3267 -84.3983 -21.0919 -26.3565 -85.5909 -21.3138 -26.3826 -86.786 
-21.5336 -26.4053 -87.9835 -21.751 -26.4247 -89.1833 -21.9654 -26.441 -90.3852 
-22.1765 -26.4544 -91.589 -22.384 -26.4651 -92.7944 -22.5874 -26.4732 -94.0012 
-22.7866 -26.4788 -95.209 -22.9813 -26.4822 -96.4175 -23.1712 -26.4834 -97.6265 
-23.3563 -26.4825 -98.8355 -23.5365 -26.4796 -100.044 -23.7118 -26.4747 -101.252 
-23.8821 -26.4679 -102.459 -24.0475 -26.4593 -103.665 -24.2081 -26.4487 -104.868 
-24.3642 -26.4363 -106.07 -24.5157 -26.422 -107.269 -24.6631 -26.4057 -108.466 
-24.8064 -26.3875 -109.659 -24.9461 -26.3672 -110.849 -25.0822 -26.3449 -112.036 
-25.2152 -26.3206 -113.219 -25.3453 -26.294 -114.398 -25.4729 -26.2654 -115.574 
-25.5981 -26.2345 -116.747 -25.7213 -26.2014 -117.916 -25.8429 -26.1661 -119.083 
-25.9629 -26.1286 -120.246 -26.0817 -26.0889 -121.406 -26.1995 -26.0471 -122.564 
-26.3165 -26.0031 -123.72 -26.4328 -25.957 -124.874 -26.5486 -25.9089 -126.025 
-26.664 -25.8588 -127.175 -26.7792 -25.8068 -128.322 -26.8941 -25.753 -129.468 
-27.0088 -25.6974 -130.612 -27.1233 -25.6401 -131.754 -27.2377 -25.5812 -132.894 
-27.3519 -25.5208 -134.031 -27.4659 -25.4589 -135.164 -27.5797 -25.3957 -136.295 
-27.6933 -25.3311 -137.421 -27.8066 -25.2652 -138.543 -27.9196 -25.1981 -139.66 
-28.0323 -25.1299 -140.77 -28.1446 -25.0606 -141.874 -28.2564 -24.9902 -142.97 
-28.3678 -24.9187 -144.058 -28.4787 -24.8464 -145.137 -28.589 -24.7731 -146.205 
-28.6988 -24.699 -147.262 -28.8079 -24.6241 -148.307 -28.9164 -24.5486 -149.34 
-29.0242 -24.4724 -150.358 -29.1311 -24.3957 -151.363 -29.2372 -24.3186 -152.352 
-29.3424 -24.2411 -153.326 -29.4466 -24.1634 -154.285 -29.5497 -24.0857 -155.227 
-29.6517 -24.0079 -156.153 -29.7525 -23.9302 -157.064 -29.8521 -23.8527 -157.959 
-29.9504 -23.7755 -158.839 -30.0474 -23.6987 -159.705 -30.1432 -23.6223 -160.557 
-30.2378 -23.5463 -161.397 -30.3313 -23.4707 -162.226 -30.4237 -23.3956 -163.044 
-30.5153 -23.3208 -163.855 -30.6061 -23.2464 -164.659 -30.6963 -23.1723 -165.458 
-30.7861 -23.0983 -166.253 
LINES 1 248
247 246 245 244 243 242 241 240 239 238 237 236 235 234 233 232 231 230 229 228 227 226 225 224 223 222 221 220 219 218 217 216 215 214 213 212 211 210 209 208 207 206 205 204 203 202 201 200 199 198 197 196 195 194 193 192 191 190 189 188 187 186 185 184 183 182 181 180 179 178 177 176 175 174 173 172 171 170 169 168 167 166 165 164 163 162 161 160 159 158 157 156 155 154 153 152 151 150 149 148 147 146 145 144 143 142 141 140 139 138 137 136 135 134 133 132 131 130 129 128 127 126 125 124 123 122 121 120 119 118 117 116 115 114 113 112 111 110 109 108 107 106 105 104 103 102 101 100 99 98 97 96 95 94 93 92 91 90 89 88 87 86 85 84 83 82 81 80 79 78 77 76 75 74 73 72 71 70 69 68 67 66 65 64 63 62 61 60 59 58 57 56 55 54 53 52 51 50 49 48 47 46 45 44 43 42 41 40 39 38 37 36 35 34 33 32 31 30 29 28 27 26 25 24 23 22 21 20 19 18 17 16 15 14 13 12 11 10 9 8 7 6 5 4 3 2 1 0 

CELL_DATA 1
FIELD FieldData 2
LengthArray 1 1 double
325.55235197 
TortuosityArray 1 1 double
0.0071181955408 
POINT_DATA 247
FIELD FieldData 8
RadiusArray 1 247 double
59.471088641 59.508360435 59.530025336 59.541094798 59.537976246 59.539588864 59.601253021 59.620796553 59.620991005 
59.651042236 59.705720254 59.705125506 59.688981201 59.683159526 59.672612289 59.663104329 59.66339362 59.650895505 
59.674466315 59.668955818 59.668728469 59.621175742 59.57715238 59.577028416 59.559975853 59.468506324 59.378285674 
59.250898584 59.118511282 59.09277802 59.052832353 59.046860759 58.945136672 58.85910185 58.73256562 58.704627547 
58.558529125 58.537056111 58.490567966 58.48603931 58.216963966 58.144163853 58.143399054 58.011608966 57.851127936 
57.69919462 57.614717859 57.477234786 57.311403519 57.120031412 57.085747715 57.077232658 57.060983758 57.016579038 
56.806833848 56.723353587 56.440145179 56.406651294 56.054341293 56.017785688 55.975296297 55.907514283 55.757305925 
55.588384001 55.573834544 55.517790402 55.351150663 55.288327673 55.25058349 55.088065928 54.921276361 54.772293901 
54.751424248 54.58276886 54.524566551 54.46718344 54.313520476 54.209160778 54.036574923 53.775629644 53.744295488 
53.650938845 53.628325375 53.127637472 53.11052095 53.099922393 53.090511205 52.901465648 52.851598092 52.598469872 
52.446752104 52.140049703 51.988803549 51.753397908 51.501421233 51.315221607 51.284791589 51.118054556 51.061141641 
50.84776595 50.840132094 50.752056105 50.422100274 50.330383541 49.932655631 49.779518722 49.69094438 49.52614365 
49.483227763 49.256970372 49.225597069 49.110862447 49.041649053 48.993379621 48.643623603 48.638386268 48.468401537 
48.302798961 48.208205994 48.12740481 48.098615118 48.009898927 47.911576084 47.898758668 47.894681995 47.81986463 
47.736685071 47.687644614 47.592009409 47.570572513 47.559751799 47.499523834 47.42692787 47.432015645 47.438457527 
47.421994856 47.397283006 47.367400483 47.290922371 47.243999712 47.245012667 47.260642338 47.234509238 47.218031288 
47.190312944 47.190746909 47.182046447 47.146097795 47.131745155 47.121161392 47.120184949 47.103829969 47.107623617 
47.102958162 47.083197214 47.075136881 47.074767762 47.064079964 47.063886871 47.048506297 47.045564284 47.044429152 
47.031627341 47.022146136 47.013576608 47.031809906 47.027396542 46.906023368 46.89810943 46.897684754 46.887541152 
46.820860498 46.779695695 46.771876932 46.654263624 46.633832464 46.613750408 46.604375295 46.547208266 46.503704603 
46.494636162 46.456490847 46.42424035 46.395374432 46.314118983 46.217511611 46.156134219 46.079916989 45.973434892 
45.896880577 45.865282988 45.824931054 45.719312012 45.674540433 45.66995641 45.585850601 45.455426464 45.440511343 
45.432484648 45.297406367 45.128201336 45.121360599 44.943192461 44.666185087 44.615780894 44.536750474 44.441018818 
44.385147564 44.226859839 44.159990424 44.070687817 43.921024833 43.709848289 43.66931444 43.495145584 43.326729619 
43.291989445 43.200005918 43.094318568 42.738242085 42.706887029 42.325574101 42.085378043 41.784530866 41.522426339 
41.268894994 41.267197684 41.213477978 41.087127697 40.886485638 40.532715423 40.506269415 40.188304687 39.974373621 
39.823852043 39.362246562 39.261394396 39.104216802 39.068780744 38.814196952 38.549172124 38.517927798 38.092474313 
38.08780044 37.78997423 37.535897509 37.490317276 
EdgeArray 2 247 int
20321 20321 21075 21077 21075 21076 21377 21076 20728 
19281 20728 19963 16835 19627 18684 16835 21061 18684 
7957 19448 20307 20307 20309 18982 21381 21735 22057 
21381 22056 22057 22056 21736 22061 21736 21731 14924 
21739 22719 17507 22719 17507 11706 20317 22546 20317 
22362 21738 22362 21332 21738 19222 19222 22732 22732 
22667 16604 22666 22669 16434 22670 19589 22674 22558 
22674 22678 22558 18239 22678 16439 17809 17809 23662 
18862 23663 23663 23664 23666 23667 23668 23667 23044 
23044 23354 23349 23354 23047 23046 23046 23978 23978 
23985 23985 23556 23556 14586 14586 22177 22177 23327 
23327 23328 19416 19416 24330 19780 24330 24336 24331 
24344 19622 22649 22649 24348 24348 21432 21432 23343 
23343 25026 25026 25018 25027 24670 25014 19876 19876 
21965 8879 20401 21965 20401 20401 25829 25829 26425 
26427 26426 26426 24966 24966 25950 26205 26398 26390 
26398 26204 26397 26393 25580 26393 23311 23311 26412 
26412 27008 27008 27023 27023 26383 26383 27574 27574 
27320 27320 26999 27322 28196 28196 28194 28195 26556 
11648 28846 26556 28848 28848 28841 28841 26987 26987 
25398 19346 29130 29130 16099 16099 26358 26358 26832 
26832 27315 28979 28978 27841 28981 26364 28981 26526 
29414 26526 29416 29414 29412 29415 26048 26048 26938 
26938 29936 29936 29102 29102 29251 29251 27815 27815 
23810 29652 27522 27523 25708 27522 25708 28568 28568 
28561 29921 29921 29916 29916 29570 29563 29571 29571 
26599 26599 27157 28396 20273 21445 21445 30604 30611 
30611 30612 30612 30603 30272 30603 30606 30606 30606 
30598 30598 25220 25220 27375 27375 28581 28581 30262 
30262 23811 23811 30872 25616 30597 30621 26628 26628 
31068 31068 31461 30620 31461 26313 23213 28102 32116 
21434 21434 31199 31200 31204 31207 31795 31796 31795 
31798 31798 31799 31799 19603 28477 23865 23865 28968 
24382 30238 31211 30238 30228 31500 18198 31501 31501 
32170 32168 31511 31511 31192 31192 28121 32157 32162 
32148 32148 27514 32767 32767 32766 32764 32780 32764 
31820 31820 26702 26702 32783 21911 30784 30784 29000 
29000 32801 29645 12743 30501 30501 32706 32806 32706 
33777 32806 27490 33764 34049 34049 34046 34045 34050 
34045 34236 34050 34236 34043 33793 33793 33798 33798 
31026 31026 32697 34559 33788 33788 34224 34224 34223 
34223 34037 34037 30558 30558 33730 33185 34214 34214 
34220 34217 34203 32925 34203 34508 34508 33181 34534 
34533 34199 34534 34788 34788 35013 35013 35011 35012 
34209 32689 31985 31985 34504 34764 33478 34504 33991 
33991 23952 35005 35545 33670 34460 33670 35222 34930 
35305 35325 34412 35542 32729 32729 34399 34399 36262 
36261 34737 34737 35126 36280 36272 36033 36253 34802 
35331 34802 36813 35331 36816 36816 36279 36279 36189 
36473 34183 34183 36965 36965 37097 37450 37489 36430 
38066 35442 38066 37171 37789 38099 38098 38098 38095 
38095 38262 38262 38075 38228 38712 38712 38392 38324 
38417 38417 38415 38415 39084 39084 39676 39676 39061 
39363 39976 39976 40267 40267 40271 40271 40270 40270 
40834 40834 40152 40152 39684 39684 44054 44054 
EdgePCoordArray 1 247 double
0 0.412 0.676 0.568 0.056 0.024 0.364 0.204 0.88 
0.144 0 0.224 0.48 0.452 0.176 0.792 0.992 0.1 
0.9 0.348 0.228 0.512 0.908 0.824 0.396 0 0 
0.98 0.06 0.104 0.964 0.916 0.724 0.264 0.752 0.444 
0.932 0.424 0.972 0.968 0 0.172 0.164 0 0 
0 0 0 0 0 0.868 0.36 0.832 0.772 
0.684 0 0 0 0 0 0.988 0.952 0 
0.052 0.856 0 0 0.696 0 0 0.544 0.484 
0.472 0.8 0.7 0 0 0 0 0 0 
0 0.88 0 0.58 0.132 0.892 0 0 0 
0.088 0 0 0 0 0.756 0.596 0.172 0.256 
0.156 0.84 0.704 0 0 0 0 0 0 
0.064 0.284 0.392 0.62 0.996 0 0 0.972 0 
0 0.188 0.78 0.228 0 0 0.028 0.052 0 
0 0 0 0 0 0 0.068 0.232 0 
0 0.808 0.724 0.692 0.848 0.164 0.04 0.852 0.652 
0 0 0.432 0 0.16 0.072 0.104 0.644 0 
0.396 0 0 0.184 0.968 0.04 0 0.812 0.728 
0 0 0.916 0 0 0.1 0.98 0.12 0.924 
0.156 0.232 0 0.788 0.42 0.492 0.424 0 0 
0 0.328 0 0 0 0 0 0.884 0 
0.14 0.28 0.312 0.412 0.104 0.88 0 0 0.964 
0.964 0 0.128 0.848 0 0.228 0.376 0.476 0.32 
0.712 0.416 0 0 0.944 0 0.872 0.748 0.524 
0.504 0.62 0 0 0.008 0 0 0.536 0.756 
0.056 0.068 0.32 0 0 0 0.02 0 0.9 
0 0 0 0 0.988 0 0 0 0 
0 0 0 0 
CurvatureArray 1 247 double
0 8.7075097135e-05 0.00035537045908 0.00061408259594 0.00086629778523 0.0011111041398 0.0013434581212 0.0015630764811 0.0017727013577 
0.0019696687887 0.0021459219448 0.0023127883037 0.002463332779 0.0025966394929 0.0027129151162 0.0028160768433 0.0029003651806 0.0029697563934 
0.0030234782953 0.0030607984357 0.0030859288585 0.0030959681231 0.003092016254 0.0030780660658 0.0030509200135 0.0030136096705 0.002967457565 
0.0029123695144 0.0028498594025 0.0027807272791 0.0027063463926 0.0026277877403 0.0025458792207 0.0024622064109 0.002378107595 0.0022944867453 
0.0022129978633 0.0021345377671 0.0020604865636 0.0019916466539 0.0019290485816 0.001873019323 0.0018247993325 0.001783931851 0.0017511072728 
0.0017259174143 0.0017095683789 0.0016999575888 0.0016984670032 0.0017044005633 0.0017174098887 0.001736530631 0.0017614613248 0.0017918464602 
0.0018260718081 0.0018629389458 0.0019019321197 0.0019422972439 0.0019810314848 0.0020190627931 0.0020544409874 0.0020857643451 0.0021136037122 
0.0021369348367 0.0021545292855 0.0021687313273 0.0021770904153 0.0021820144912 0.002183799915 0.0021816714176 0.0021769379951 0.0021699844193 
0.0021614305002 0.0021515123013 0.0021396693548 0.0021275156925 0.0021131472207 0.0020970133387 0.0020792516691 0.0020574755251 0.0020326871617 
0.00200285431 0.0019679243933 0.001927295254 0.0018797847768 0.0018258810344 0.0017659966041 0.0016998757456 0.0016283443588 0.0015529895692 
0.0014739397208 0.0013934295656 0.0013119863078 0.00123199623 0.0011541432936 0.001080362179 0.0010122041339 0.00095117700463 0.00089874315585 
0.00085701012651 0.00082680843135 0.00080952077383 0.00080509077367 0.00081388002861 0.00083437924517 0.00086478404758 0.0009040737084 0.0009488175699 
0.00099802733765 0.0010482461859 0.0010987555546 0.0011471540087 0.0011921911776 0.0012313352749 0.0012644732884 0.0012900108611 0.0013069159601 
0.0013156066325 0.0013150804994 0.0013057117593 0.0012896878165 0.0012675296176 0.0012413672873 0.0012145230204 0.0011916744608 0.0011734726374 
0.0011654527975 0.0011699133859 0.0011871349871 0.0012156310613 0.0012575520793 0.0013041381767 0.0013559901508 0.0014084542495 0.0014593858554 
0.0015088899723 0.0015557972173 0.0016019391202 0.0016472678626 0.0016987208085 0.0017588061904 0.0018329697409 0.0019236883927 0.0020338990822 
0.0021628213812 0.0023127414262 0.0024819686014 0.0026630627835 0.0028531976882 0.0030497910729 0.0032438769906 0.0034317958228 0.0036066317734 
0.0037649170138 0.0039008611583 0.0040124627573 0.0040919106145 0.0041431716406 0.0041598618663 0.0041453771283 0.0040996438212 0.0040241621578 
0.0039241070707 0.0038016203305 0.0036668251122 0.0035189162701 0.0033736166871 0.0032313109161 0.0031054744001 0.0029997677689 0.0029251212776 
0.0028796871598 0.002870861941 0.0028915163888 0.0029411464508 0.003013670409 0.0030961560179 0.0031857867144 0.0032720216199 0.0033511512607 
0.0034178058027 0.003462945035 0.0034923103366 0.0034963171154 0.0034773490349 0.0034376044233 0.003376358637 0.0032975768963 0.0032014743299 
0.0030932645154 0.0029716142901 0.0028482505445 0.0027170210684 0.0025915785245 0.002462551111 0.0023440538796 0.0022322459552 0.0021302067589 
0.0020363294659 0.0019521844406 0.0018799025148 0.0018129272596 0.0017526910985 0.0016969424432 0.0016408097171 0.0015911059543 0.0015406483906 
0.001489914294 0.0014407548088 0.0013925367302 0.0013501241225 0.0013077588275 0.0012743140887 0.001243833588 0.0012211305217 0.0012098140784 
0.0012058089234 0.0012082813265 0.0012248168763 0.0012502076367 0.0012809774093 0.0013241975385 0.0013725825378 0.0014261245935 0.00148089463 
0.0015428960172 0.0015964153666 0.0016404407133 0.001681415314 0.0017107058523 0.0017219410107 0.0017121196898 0.0016846818445 0.0016381446841 
0.0015703378563 0.0014802367139 0.001369354061 0.0012416135767 0.0011108392627 0.00096849015038 0.00082603076319 0.00067721754863 0.00054520403125 
0.00041815405228 0.00029570564842 0.00017962413093 0 
TorsionArray 1 247 double
0 0 0.0038272391287 0.001726903274 0.0041493583296 0.0041751764377 0.004495543978 0.0059404167619 0.007286905271 
0.0058577258334 0.0057712431741 0.0063138435077 0.0050913211161 0.0038830948566 0.0033414988638 0.0022055685753 0.00075817621913 -0.00019767684182 
-0.0016296518306 -0.0027417089606 -0.0038790192692 -0.0056083324074 -0.006655005282 -0.0078547549076 -0.0096245157278 -0.010740408159 -0.012069910022 
-0.013649740543 -0.014901025015 -0.016363818578 -0.01775108679 -0.019021084693 -0.020335268459 -0.021482069614 -0.022557026252 -0.023187534082 
-0.023789270409 -0.024155278872 -0.023985142047 -0.023525247346 -0.022477597133 -0.021176405824 -0.019483613414 -0.017342155072 -0.014956065654 
-0.012512375699 -0.0099053448976 -0.0073861080298 -0.0051966817959 -0.0032479136097 -0.0016258887212 -0.00041229686946 0.00028631058435 0.00062945123123 
0.00062819907435 0.00025004442849 -0.00050460823895 -0.001371199223 -0.0023952862073 -0.0036349049891 -0.0047771849161 -0.0059109299019 -0.0070298641118 
-0.0078504785442 -0.0084940487315 -0.0088340159138 -0.0087777002052 -0.0084606760553 -0.0076278846791 -0.0063506774172 -0.004765013739 -0.0029138540653 
-0.00091062697178 0.0012174099232 0.0032186588936 0.0050861910504 0.0067127064291 0.0078453465353 0.0086966730955 0.0092017500108 0.0092525862826 
0.0090269616213 0.0085502747479 0.0079705508728 0.0073495632732 0.006625742505 0.0060939088223 0.0058324806908 0.0057331034821 0.0061450392315 
0.0069439030756 0.0083563719561 0.010505602111 0.013181086419 0.01700328833 0.021758054026 0.026983642623 0.032955307308 0.039515182172 
0.045455672499 0.050239831218 0.05323571728 0.054200205594 0.052797201479 0.049287792355 0.044785628828 0.040027714201 0.03529696087 
0.030852429464 0.027390741447 0.024708643843 0.022768717455 0.021498635553 0.020862686259 0.021028432521 0.021926620127 0.02337088103 
0.025667669921 0.02860578996 0.03229703877 0.037083850883 0.042195295783 0.048191103396 0.054794212963 0.060776892131 0.065659545295 
0.068813848354 0.069082021523 0.0658214749 0.05985467676 0.051323560325 0.041179976926 0.030232279517 0.019364669006 0.0079417417168 
-0.0034925401963 -0.014390965368 -0.024988125832 -0.034861460142 -0.043708229926 -0.051335964523 -0.056313014932 -0.05894580383 -0.05913779456 
-0.057145605609 -0.053486588113 -0.048312258081 -0.042871288519 -0.036977229015 -0.031628342334 -0.026440559234 -0.020880112072 -0.016247337288 
-0.012004756893 -0.0074867462431 -0.0033436034298 0.00076600048764 0.0050382824077 0.0092966979715 0.014098636424 0.0189999029 0.024083573416 
0.030431866945 0.037007370622 0.043932061486 0.051935706998 0.060652936417 0.069469642827 0.077336349867 0.084622825793 0.089740330592 
0.09163975849 0.090086113908 0.086040271942 0.079091966582 0.07075044608 0.061697167797 0.052712706197 0.044153842905 0.036169009823 
0.028957851083 0.021964844777 0.015941621761 0.009967396555 0.0041413539605 -0.00082229758509 -0.0062358027621 -0.011808549853 -0.017300229952 
-0.022724650371 -0.028396087429 -0.034364930778 -0.040315802184 -0.046014315456 -0.051304428047 -0.056392712229 -0.060442039509 -0.063575854924 
-0.065706065206 -0.065456652619 -0.064654920463 -0.062013432842 -0.058874431322 -0.053913457898 -0.047989657807 -0.042885098279 -0.03769389784 
-0.0313450542 -0.026290320348 -0.021341662407 -0.017536645976 -0.015693375246 -0.012661871488 -0.011930285997 -0.014076994334 -0.014714223658 
-0.016277414797 -0.020546337738 -0.023396462768 -0.02464450225 -0.027200241465 -0.029359284172 -0.02737473776 -0.026813335642 -0.025930385394 
-0.022542755791 -0.019643222059 -0.016461727315 -0.013284036896 -0.0092732126383 -0.0046277512161 -0.0005905481233 0.0048016738396 0.0089918992898 
0.014772777183 0.024511001111 0.029852137517 0.036801612293 0.047184824977 0.056434524443 0.066256014157 0.07420779589 0.077245680478 
0.085660694161 0.084766867998 0 0 
TangentArray 3 247 double
-0.11011936288 0.10390664703 0.98847212132 -0.11011936288 0.10390664703 0.98847212132 -0.10992311007 0.10390645722 0.98849398482 
-0.10949177048 0.10390398172 0.98854211584 -0.10882951385 0.10389920802 0.98861574511 -0.10793814045 0.10388960576 0.98871447226 
-0.10682087734 0.10387315167 0.98883753394 -0.10548236879 0.10384783306 0.98898387117 -0.10392544019 0.10380959957 0.98915270303 
-0.10215247098 0.10375360144 0.98934324825 -0.10017064999 0.10367934854 0.98955365371 -0.097985691257 0.10358475715 0.98978230051 
-0.095601832761 0.10346596429 0.99002781971 -0.093027522727 0.10332369241 0.99028788471 -0.090272466331 0.10315958582 0.99055993341 
-0.087345361275 0.10297404688 0.99084162889 -0.084257061074 0.10277001956 0.99113019868 -0.081020456156 0.10255248702 0.99142255022 
-0.077648293266 0.10232552193 0.99171580108 -0.0741554771 0.10209583393 0.99200675699 -0.070556344186 0.1018694627 0.99229250469 
-0.066865983545 0.10165314655 0.99257018797 -0.063101690799 0.10145678978 0.99283669172 -0.059279109402 0.10128733421 0.99308955443 
-0.055414723939 0.10115269828 0.99332640154 -0.051526005792 0.10106341417 0.99354479368 -0.047628846685 0.10102652509 0.99374299202 
-0.043739293845 0.10104982007 0.99391941728 -0.039873196292 0.10114169314 0.99407267648 -0.036045636387 0.10130814956 0.99420187635 
-0.032270903471 0.10155549236 0.99430632642 -0.028562078055 0.10188865238 0.9943856949 -0.02493137367 0.10231108101 0.99443997773 
-0.021389597509 0.10282547379 0.99446940982 -0.017945646088 0.10343294941 0.99447452394 -0.014606851014 0.1041335763 0.99445605141 
-0.011378195322 0.10492485929 0.99441505951 -0.008262730661 0.10580419645 0.99435265339 -0.0052612127573 0.10676802286 0.99427003824 
-0.002371858179 0.10781103152 0.99416857513 0.00040937126317 0.10892758126 0.99404960362 0.0030889141695 0.11011075942 0.99391452312 
0.0056752523896 0.11135419665 0.99376457695 0.0081786439192 0.11265147555 0.9936009032 0.010610817895 0.11399583589 0.99342456178 
0.012984632964 0.11538099818 0.99323643941 0.015313924651 0.11680191613 0.99303715746 0.017612597139 0.11825353397 0.99282722471 
0.019894069855 0.11973143556 0.99260697626 0.022171648506 0.12123310787 0.99237641626 0.024457463923 0.12275659809 0.99213539907 
0.026762070889 0.12430053965 0.9918836461 0.02909422214 0.12586435592 0.99162073907 0.031460952271 0.12744892457 0.99134604458 
0.033867075789 0.12905545447 0.99105888364 0.03631463362 0.13068515251 0.99075861758 0.03880352938 0.13233996121 0.99044455714 
0.041331818496 0.13402287078 0.990115928 0.043894824089 0.13573590553 0.98977220024 0.046486162058 0.13748100585 0.9894129622 
0.049098358959 0.13926081682 0.98903780314 0.051722286744 0.14107633974 0.98864668685 0.054348636558 0.14292830794 0.98823971004 
0.056968246704 0.14481732655 0.98781706849 0.059571894234 0.14674187722 0.98737936523 0.062152048396 0.1487002224 0.98692723477 
0.064702562232 0.15068951638 0.98646147826 0.067218940907 0.15270539455 0.98598310151 0.069699515149 0.15474394134 0.98549291738 
0.072144299459 0.1567993464 0.98499196191 0.074555290277 0.15886470136 0.98448134332 0.076936593922 0.16093313863 0.98396203454 
0.079293769351 0.16299764163 0.98343493276 0.081633283491 0.16505132916 0.98290084229 0.083961694886 0.16708690787 0.98236062574 
0.086285527233 0.16909807719 0.9818149765 0.088610498764 0.17107882174 0.98126460053 0.090940495318 0.17302317034 0.9807103593 
0.093277951957 0.17492698092 0.98015293451 0.09562293669 0.17678591411 0.97959328017 0.09797339857 0.17859614176 0.97903249758 
0.10032513288 0.18035492423 0.97847175177 0.10267165831 0.18205960796 0.97791248572 0.10500515599 0.18370820297 0.97735623668 
0.10731619553 0.18529838241 0.97680486468 0.10959452729 0.186827753 0.97626043159 0.11182993482 0.18829467187 0.97572495214 
0.11401250655 0.18969685633 0.97520062092 0.11613300015 0.19103135863 0.97468976926 0.11818373473 0.19229566827 0.97419452924 
0.12015883934 0.19348637685 0.97371704068 0.12205424149 0.19460009139 0.97325924941 0.12386826986 0.19563298664 0.97282289563 
0.12560167239 0.19658096831 0.97240945223 0.12725719904 0.19744042851 0.97202000107 0.12883991739 0.1982067076 0.97165548254 
0.13035709195 0.19887521599 0.97131646596 0.13181710262 0.1994422852 0.97100310315 0.13322958371 0.19990397303 0.97071534427 
0.13460559953 0.20025600775 0.97045291691 0.13595643934 0.20049506802 0.97021522061 0.13729330191 0.20061836737 0.97000145357 
0.13862705122 0.20062353684 0.96981067077 0.13996799076 0.2005082808 0.96964188796 0.14132549718 0.20027101162 0.96949400501 
0.142707076 0.19991150515 0.9693658136 0.1441192097 0.19942985117 0.96925610024 0.1455660465 0.19882650094 0.96916383993 
0.1470496286 0.19810305325 0.9690880182 0.14856980222 0.19726258206 0.96902759898 0.15012361321 0.19630848013 0.96898187877 
0.15170601064 0.1952446362 0.9689503694 0.15330929189 0.19407595707 0.9689328067 0.15492295753 0.19280865735 0.9689291506 
0.15653445734 0.19144992947 0.9689395689 0.15812924847 0.19000700004 0.96896464369 0.15969026053 0.18848798495 0.96900531486 
0.16119962226 0.18690151981 0.96906269337 0.16263791581 0.18525630064 0.96913828292 0.16398491434 0.1835621216 0.96923366397 
0.16522112772 0.18182824557 0.96935053931 0.16632689895 0.18006310687 0.96949091808 0.16728467879 0.17827642649 0.96965630612 
0.16807838156 0.17647683321 0.96984822781 0.1686944241 0.17467047692 0.97006825315 0.16912287882 0.17286409864 0.97031719312 
0.16935802366 0.17106353302 0.97059524391 0.16939787769 0.16927140134 0.97090244192 0.1692450291 0.16748906242 0.97123814489 
0.16890798822 0.1657172496 0.97160068171 0.16839896927 0.16395218344 0.97198840975 0.16773515646 0.16218920724 0.97239887821 
0.16693892749 0.16042267272 0.97282884443 0.16603575166 0.15864349404 0.97327507467 0.16505346797 0.15684236132 0.9737339608 
0.16402308758 0.15500680191 0.97420188775 0.16297736273 0.15312275972 0.9746752278 0.1619490456 0.15117612349 0.97515039164 
0.16097152042 0.14915332899 0.97562362316 0.16007652718 0.14704020171 0.97609153491 0.1592936629 0.14482158578 0.97655119541 
0.15865146104 0.14248275082 0.97699968251 0.15817391679 0.140010457 0.97743443973 0.15788186343 0.13739333938 0.97785294779 
0.15779250003 0.13462243646 0.97825269053 0.15791848633 0.13169012474 0.97863142333 0.15826850145 0.12858870541 0.97898724521 
0.15884504266 0.1253150049 0.97931833536 0.15964640911 0.12187005436 0.9796227406 0.16066549519 0.1182546419 0.97989919804 
0.16189207213 0.11447364208 0.98014628615 0.16331097785 0.11053576452 0.98036287632 0.16489907561 0.10645112192 0.98054905716 
0.1666321132 0.10223341185 0.98070488341 0.16848310152 0.097898937857 0.98083089392 0.17041962827 0.093464727447 0.98092889397 
0.17240723594 0.088951767993 0.98100118653 0.17440996262 0.084381690666 0.98105091367 0.17639016624 0.07977629972 0.98108218374 
0.17831008853 0.075159457515 0.98109967296 0.18013103603 0.070553110169 0.98110910122 0.18181605897 0.065980575875 0.98111644788 
0.18333137085 0.0614643314 0.9811277921 0.18464127565 0.057024741792 0.9811502322 0.18571555911 0.052680171508 0.98119036412 
0.18652797458 0.048449154772 0.98125429635 0.18705426216 0.044346887891 0.98134808123 0.18727261671 0.040385981149 0.98147742692 
0.1871662828 0.036577812815 0.98164700692 0.18672486685 0.032930875105 0.98186016396 0.18593984297 0.029450698885 0.98211966233 
0.18480731901 0.026142066392 0.98242701877 0.18332976889 0.023006701313 0.98278221775 0.18151465601 0.020044024702 0.98318394349 
0.17937260496 0.017252738568 0.98362991598 0.17691905142 0.014626544128 0.98411671739 0.17417515505 0.012159706938 0.98463960762 
0.17116710326 0.0098440661752 0.98519283246 0.16792398075 0.0076692245227 0.98577011503 0.16447851603 0.0056232570651 0.98636463681 
0.16086498398 0.003692001119 0.98696951628 0.1571220994 0.0018622363269 0.98757742884 0.15328884951 0.0001169257277 0.98818141803 
0.14940334615 -0.001559323808 0.9887751052 0.14550674119 -0.0031826427533 0.98935214108 0.14163668384 -0.0047706861528 0.989907213 
0.13782765441 -0.0063371826671 0.9904359534 0.13411260961 -0.0078974217985 0.99093462886 0.13052195812 -0.0094659629567 0.99140022897 
0.12708237815 -0.011054924215 0.99183055902 0.12381785139 -0.012673154721 0.99222403258 0.12074661142 -0.014328702466 0.99257994344 
0.11788418938 -0.016027838147 0.9928979939 0.11524152792 -0.017774100346 0.99317846916 0.11282678601 -0.019567644861 0.99342197662 
0.11064400808 -0.021405136976 0.99362957061 0.10869234316 -0.023284204428 0.99380270696 0.10696838509 -0.025198231411 0.99394306362 
0.10546672509 -0.027138796757 0.99405244108 0.10417908355 -0.029096361277 0.99413284842 0.1030914275 -0.031061010866 0.99418678888 
0.10219034381 -0.033022987581 0.99421658401 0.10146005475 -0.034970544473 0.99422478259 0.10088440267 -0.036894314607 0.99421383356 
0.10044496252 -0.038782954864 0.99418644726 0.10012150349 -0.040628884766 0.99414535067 0.099896912247 -0.042427574985 0.99409280643 
0.099755164305 -0.044172865931 0.99403101818 0.099678738035 -0.045861559599 0.99396220579 0.099653895051 -0.047492751675 0.99388809216 
0.09966810423 -0.049069045699 0.99381009139 0.099712227718 -0.05059304287 0.99372924665 0.099781214177 -0.05206939255 0.99364605754 
0.099868847482 -0.053504625713 0.99356100383 0.099973214103 -0.054904385717 0.99347413901 0.10009758412 -0.056278602953 0.99338471526 
0.10024317452 -0.057636939206 0.99329214695 0.10041265599 -0.058985770834 0.99319584038 0.10061356595 -0.060334290723 0.99309449888 
0.10085220317 -0.061692626395 0.99298683423 0.10113229891 -0.063065879185 0.99287207283 0.10146030209 -0.064459958314 0.99274907246 
0.10184296042 -0.065879981828 0.99261666287 0.10227993649 -0.067328346777 0.99247453787 0.10277220657 -0.068804517608 0.99232243344 
0.10332074442 -0.070309055452 0.99215999743 0.10392041694 -0.071839254053 0.99198773607 0.10456303111 -0.073384588549 0.99180707534 
0.10524029888 -0.074938183116 0.99161925566 0.10594331008 -0.076492957235 0.99142566163 0.10665864334 -0.078036474997 0.99122865292 
0.10737012818 -0.079553571582 0.99103122293 0.10806336895 -0.081029878233 0.99083624637 0.10872365548 -0.082453448198 0.99064655434 
0.10933888251 -0.0838105025 0.99046494559 0.10989626002 -0.08508701561 0.99029440663 0.11038154303 -0.086270887925 0.99013799485 
0.11078993034 -0.087349376499 0.98999781705 0.11112047493 -0.088317007012 0.98987491448 0.11137322014 -0.089170647178 0.98976997404 
0.11155284286 -0.08990660659 0.98968316412 0.11166705747 -0.09052268062 0.98961412306 0.11172855092 -0.091022718565 0.98956131473 
0.11175188662 -0.091415292744 0.98952249095 0.11174920462 -0.091704488396 0.98949603439 0.1117352485 -0.091895560405 0.98947988369 
0.1117352485 -0.091895560405 0.98947988369 
NormalArray 3 247 double
-0.9939090694 -0.015814373741 -0.10906267623 -0.9939090694 -0.015814373741 -0.10906267623 -0.99380240762 0.0050633101404 -0.11104565505 
-0.9938333775 0.0060805881398 -0.11071695543 -0.9938731326 0.0079321937676 -0.11024190039 -0.99386521683 0.012842601455 -0.10984989014 
-0.993904816 0.016100523658 -0.10905957032 -0.99390359108 0.021073669382 -0.10821992467 -0.993854505 0.027273609749 -0.10728174639 
-0.9937212095 0.03498680392 -0.10627361546 -0.993729195 0.039234462788 -0.10470407797 -0.99357525257 0.046412944561 -0.10321848701 
-0.99346885432 0.052319135927 -0.10140189105 -0.99340839111 0.057271561335 -0.099296207079 -0.99342912659 0.060933487916 -0.096879721783 
-0.99342709165 0.064864560351 -0.094314380598 -0.99360499557 0.066366276134 -0.091348947305 -0.99383666761 0.067194003234 -0.088168271216 
-0.99417439824 0.066636366702 -0.084716353357 -0.9946460968 0.064220384239 -0.0809622404 -0.99516059512 0.061013870811 -0.077024005871 
-0.99578447078 0.055801676044 -0.07279739495 -0.99649926543 0.048259324714 -0.068266035347 -0.99716188615 0.040246439324 -0.06362701411 
-0.99784506493 0.029397052688 -0.058660375801 -0.99843232485 0.016565999517 -0.053464571061 -0.99883846792 0.0024481033066 -0.048121947028 
-0.99899350471 -0.014324768822 -0.042506217713 -0.99877845479 -0.033091895997 -0.036695022258 -0.99808316323 -0.053729021386 -0.030711423684 
-0.99673008094 -0.077004225993 -0.024484585381 -0.99462504912 -0.10194387977 -0.018123383968 -0.99154294868 -0.1292631157 -0.011559751135 
-0.98737681453 -0.15831402547 -0.0048677997823 -0.98192418131 -0.18926446539 0.0019657799008 -0.97508305373 -0.22166196529 0.0088888395534 
-0.96692387602 -0.25457543391 0.015797671918 -0.95711802054 -0.28880152316 0.022776632212 -0.94605324346 -0.3226525163 0.029641428093 
-0.93369257855 -0.35622050655 0.036402190521 -0.92047258101 -0.38844049785 0.042944234131 -0.90680722943 -0.41866456237 0.049199927627 
-0.89293204328 -0.44679888303 0.055164519515 -0.87957087587 -0.47187472469 0.060739760613 -0.86713551165 -0.49369165688 0.065913218396 
-0.85612919272 -0.51190831424 0.070658921508 -0.84665452527 -0.52682799883 0.075022493149 -0.83932969191 -0.53785883331 0.078952794198 
-0.83376378119 -0.54591367917 0.082560354059 -0.83004249107 -0.55105072972 0.085863591193 -0.82782517984 -0.55389095726 0.088939749737 
-0.82696483819 -0.5547044461 0.09182665122 -0.82691953017 -0.55430267566 0.094618361701 -0.82730983733 -0.5532408562 0.09738063513 
-0.82786974763 -0.55190556953 0.10015948923 -0.82824346945 -0.55081852482 0.10301314493 -0.82811078321 -0.55045249741 0.10599329614 
-0.82712574453 -0.55131509548 0.10915433223 -0.82542956501 -0.5531876449 0.11246983037 -0.82261348369 -0.55664347686 0.11599610395 
-0.81868220908 -0.56162824228 0.11972116775 -0.81377861136 -0.56787800937 0.12360800202 -0.80774759559 -0.57553989174 0.12766226868 
-0.80071811045 -0.58435188466 0.13184605603 -0.79305090557 -0.59375892958 0.13609039174 -0.78468079344 -0.6037938081 0.14038906549 
-0.77618708369 -0.61368428103 0.14465550227 -0.76773907778 -0.62323049881 0.14886387676 -0.75966447437 -0.63206664272 0.15297596397 
-0.75265089053 -0.63944735715 0.156919452 -0.74692441387 -0.64520204816 0.16068054337 -0.7429145133 -0.64892842203 0.16422523864 
-0.74075727716 -0.65054262922 0.16754982514 -0.74064310008 -0.64986888113 0.17064066236 -0.7426270662 -0.64684290495 0.17349148932 
-0.74637407836 -0.64179719706 0.17613089734 -0.75191071998 -0.63462779313 0.17854364553 -0.75866678678 -0.62589543436 0.18077503113 
-0.76619521359 -0.61604130624 0.1828606127 -0.7743601649 -0.60515694322 0.18480099862 -0.78259099636 -0.59389523777 0.18665416943 
-0.79061534731 -0.58259276623 0.18844904173 -0.79820420429 -0.57156701247 0.19021356027 -0.80516768292 -0.5611153943 0.1919753022 
-0.81155886569 -0.55121874623 0.19372687298 -0.81728782649 -0.54205830805 0.19548247836 -0.82231159022 -0.53375628787 0.19725078896 
-0.82705562422 -0.52573235301 0.19895850685 -0.83156577914 -0.51793941162 0.20059192618 -0.83608685811 -0.51001382869 0.20210061908 
-0.84124778056 -0.50094811536 0.20335475756 -0.84699550305 -0.49075631171 0.20434495424 -0.85437342965 -0.47758904564 0.20482857756 
-0.863307718 -0.46127341666 0.20475990603 -0.87445234624 -0.44018169319 0.20389500029 -0.88835672155 -0.41237471687 0.201914408 
-0.90483724151 -0.37662704757 0.19854881872 -0.92318118334 -0.33208546951 0.19353486419 -0.94279720477 -0.27643494167 0.18632539735 
-0.96172463874 -0.20949745438 0.17662541113 -0.97743579263 -0.13265700577 0.16438184236 -0.98755892348 -0.048072952014 0.14972095356 
-0.99026787582 0.040274728653 0.1332196695 -0.98492938256 0.12868084296 0.11556535821 -0.97233424234 0.21207476524 0.097930664819 
-0.95430051144 0.28761283843 0.081175051851 -0.93282949542 0.35425673127 0.065812619033 -0.90955812966 0.41230709992 0.052027532323 
-0.88611191099 0.46173595868 0.040069759887 -0.86316728536 0.50404185589 0.029732894024 -0.84073655355 0.541050795 0.020641820428 
-0.81892223249 0.57376612651 0.012601952247 -0.7973063187 0.60355193182 0.0052630567317 -0.7756508901 0.63116021178 -0.0015759904615 
-0.75336382474 0.65755261507 -0.0082162030998 -0.72950981582 0.68380501554 -0.015037597898 -0.70341000537 0.71043533359 -0.022271082641 
-0.67435955893 0.73778860423 -0.030119109384 -0.64068592345 0.7668087892 -0.039061852134 -0.60204596583 0.79695196942 -0.049073551556 
-0.55624074005 0.82880458156 -0.060656448052 -0.50172890376 0.86185433603 -0.073994666064 -0.43834011954 0.89440985901 -0.088819725956 
-0.3628435542 0.92584861373 -0.1055883499 -0.27630656843 0.95309313869 -0.12356435256 -0.17906170995 0.97350388309 -0.14222198718 
-0.075376235342 0.98418508843 -0.16030637807 0.03231910858 0.98365598691 -0.17713377609 0.13554105196 0.97213537059 -0.19126276292 
0.23014665174 0.95188303433 -0.20236404732 0.31094992525 0.92688664327 -0.2102172555 0.37661188416 0.90101722986 -0.21524739304 
0.42491781692 0.87863815979 -0.21780687095 0.45808244768 0.86161428046 -0.21858934748 0.4762115949 0.85189526433 -0.21793800835 
0.47942821432 0.85056965635 -0.21605519437 0.46861856928 0.85732617214 -0.21304570188 0.44457254399 0.87105016752 -0.20887043541 
0.40694766936 0.89054298493 -0.20328990727 0.35734406351 0.91314084098 -0.19616071167 0.29594826172 0.93668393056 -0.1871839753 
0.22522229521 0.95822084333 -0.176317138 0.14938400523 0.97510876938 -0.16385147805 0.070950205177 0.98613504489 -0.15001247154 
-0.0055528606651 0.99076873778 -0.13544915641 -0.077779742189 0.98964680543 -0.12062135886 -0.14322282782 0.98398773065 -0.10609131691 
-0.20030064666 0.97537497944 -0.092321722466 -0.24973859959 0.96505587201 -0.07935865279 -0.29025422151 0.95455848756 -0.067606070115 
-0.32479931324 0.94408695973 -0.056614649934 -0.35163350009 0.93496511916 -0.046841301937 -0.37203614743 0.9274351752 -0.038119559475 
-0.38737489135 0.92142636572 -0.03023484933 -0.39765462715 0.91724069706 -0.023244379051 -0.40256876619 0.91522691478 -0.017265078805 
-0.40345754799 0.91491896699 -0.012053664336 -0.39926006677 0.91680388926 -0.0078757674595 -0.3907227248 0.92049692066 -0.0046012372134 
-0.37714616575 0.9261506267 -0.0024054767722 -0.35793860384 0.93374402908 -0.0014297021676 -0.33331118452 0.94281545076 -0.0016370945638 
-0.30240332826 0.95317466597 -0.0032067451939 -0.26283767253 0.96481740954 -0.0066124231511 -0.21628546461 0.97626269679 -0.011478007458 
-0.15955535083 0.98701742491 -0.01840361222 -0.093441468862 0.99525413015 -0.027164467766 -0.014947278382 0.99915596674 -0.038261377259 
0.072227570135 0.99608918504 -0.050887263164 0.16888278023 0.9834837392 -0.065102544314 0.27051140196 0.95938845018 -0.079983642499 
0.37431273039 0.92242769008 -0.094958603856 0.4725129962 0.87460487063 -0.10861762605 0.56340295597 0.81732124686 -0.12067762273 
0.6422182585 0.75535512601 -0.1303623491 0.70847539975 0.69218072114 -0.13765339532 0.76213189563 0.63151894826 -0.1426141355 
0.80450936273 0.57583505013 -0.14552896731 0.83752787214 0.5263143872 -0.14676589935 0.86269530374 0.48400480767 -0.14661568491 
0.88174431701 0.44876250773 -0.14539316032 0.89590388943 0.42049110167 -0.1433298794 0.90572024115 0.39989755858 -0.14054461005 
0.91279996345 0.38463004976 -0.13731697471 0.91637993167 0.37737169971 -0.13356055216 0.91782619629 0.3752612393 -0.12951477018 
0.91677705094 0.37928507983 -0.12515057767 0.91315138578 0.38940805327 -0.12048200981 0.9066068598 0.40586648741 -0.11548331553 
0.89708750668 0.42789690397 -0.11017370348 0.88395306083 0.45575179287 -0.10448583418 0.86673067552 0.48897815682 -0.098378342428 
0.84424306672 0.52805568012 -0.091710648168 0.81655825431 0.57104079044 -0.084528296934 0.78207990292 0.61844725307 -0.076642159552 
0.74203899741 0.66687206539 -0.068262542626 0.69352956362 0.71800579662 -0.059028979458 0.64071501217 0.76617952473 -0.049529880525 
0.579549274 0.81399067707 -0.039265973097 0.51658945984 0.85573893515 -0.029089600378 0.44964932854 0.89300885484 -0.018726092137 
0.38304357525 0.92368939171 -0.0086906328815 0.31745992826 0.94827120434 0.00095758890649 0.25440534524 0.96704523729 0.01007121365 
0.19752761841 0.98012691074 0.018277822597 0.1465927255 0.98886433545 0.025649540119 0.10021099851 0.99443944113 0.03237211297 
0.060833488109 0.99741598202 0.038218392741 0.028914536687 0.99864888651 0.043178131572 0.00098458195514 0.99886447515 0.047631826382 
-0.019340781657 0.99849906022 0.051240227383 -0.038804834405 0.99774898262 0.054691430003 -0.05463862064 0.99683631412 0.057723340037 
-0.067220887999 0.99590896184 0.060387845967 -0.081370280917 0.99468073951 0.063159352658 -0.098650379797 0.99291824556 0.066192599289 
-0.11408404717 0.99107057044 0.069021406722 -0.13468712627 0.988246336 0.072308764353 -0.15915125028 0.98433029486 0.075925951738 
-0.18571035807 0.97936627497 0.079707981759 -0.21246383285 0.9735962998 0.083482721228 -0.2435607578 0.96592060193 0.087610205047 
-0.27435282957 0.95724869072 0.091681344991 -0.30047847338 0.94901099518 0.095345781622 -0.32889291198 0.93914471618 0.099179909809 
-0.3523916172 0.93020970564 0.10261604001 -0.373221396 0.92168449256 0.10584651975 -0.39022513636 0.91426996614 0.1087877381 
-0.40413464608 0.90787820619 0.11150045098 -0.4146651141 0.90280918689 0.11396672858 -0.4207864303 0.89969864687 0.11610824648 
-0.42262267774 0.898601449 0.11792161849 -0.42143829642 0.89895192256 0.11947888197 -0.4137763603 0.90236611192 0.12051773197 
-0.40565360747 0.90592387621 0.12143756117 -0.38787198564 0.91366395357 0.12154629862 -0.36368391891 0.9236277633 0.12101967606 
-0.33763304776 0.93357729611 0.12015555441 -0.3015859644 0.94607581015 0.11826439668 -0.25858256381 0.95905925268 0.11550068202 
-0.20764230741 0.9718079126 0.11168730092 -0.14791806342 0.98323459982 0.10663005315 -0.087591629074 0.99101832447 0.10104646002 
-0.021077449528 0.99531773419 0.094331061343 0.052700769813 0.99487853555 0.086251541232 0.10559219328 0.99117586246 0.080129260525 
0.10559219328 0.99117586246 0.080129260525 
BinormalArray 3 247 double
0.0042997305558 -0.99446131865 0.10501522761 0.0042997305558 -0.99446131865 0.10501522761 -0.016543412223 -0.99457418579 0.10270591255 
-0.017514849978 -0.99456874525 0.10259747073 -0.019295937794 -0.99455619996 0.10239937456 -0.024109927699 -0.99450591622 0.10186605904 
-0.027249163399 -0.9944602262 0.10152015363 -0.032079923796 -0.99436991509 0.10099183364 -0.038114639939 -0.99422317276 0.1003372163 
-0.045640228579 -0.99398748168 0.099528165841 -0.049680256597 -0.99383663125 0.099099053921 -0.056630572951 -0.99353713401 0.098371446793 
-0.06228904451 -0.99325601043 0.097788407723 -0.066974984087 -0.99299757444 0.097314791569 -0.070352343706 -0.9927966609 0.096981121005 
-0.073982440083 -0.99256684132 0.096631589445 -0.075165553552 -0.9924887105 0.096520977451 -0.075659525535 -0.99245551706 0.096476333159 
-0.074752982858 -0.99251654001 0.096555214045 -0.071972962552 -0.9926994424 0.096786929483 -0.068390000781 -0.99292493177 0.097071559457 
-0.062787164337 -0.99325364875 0.097493390784 -0.054839681091 -0.99366873624 0.098056371503 -0.046412929138 -0.99404280594 0.098614096143 
-0.035134523857 -0.99443649617 0.099305691225 -0.021862374661 -0.99474205399 0.10005139978 -0.0072943785937 -0.9948807205 0.10079257921 
0.0099424202288 -0.99477823401 0.10157466917 0.029184352942 -0.99432151959 0.10233762366 0.050306176373 -0.99340316644 0.10305065514 
0.074079244942 -0.99184516491 0.10370841006 0.099524968558 -0.98955856213 0.10425273492 0.12736171927 -0.98631814828 0.10466853799 
0.15693792165 -0.98202015829 0.10491376204 0.18842201553 -0.97646330557 0.10495978729 0.2213587094 -0.96954740546 0.10477666888 
0.25481121377 -0.96134391471 0.10435096065 0.28958042412 -0.95152464615 0.10365339227 0.32396848639 -0.94047644469 0.10270577786 
0.35806779114 -0.92816147959 0.10150726454 0.39080693447 -0.91501298443 0.10010583549 0.42153423025 -0.90144084935 0.098556013782 
0.45015570373 -0.8876773068 0.096896033918 0.47569757631 -0.87443918557 0.095225661666 0.49795925032 -0.86213310882 0.09361136521 
0.51659868823 -0.85125619121 0.092134099255 0.53192254939 -0.84190829194 0.090823066577 0.5433373397 -0.83469993239 0.089780611284 
0.5517627961 -0.82924220722 0.088967289568 0.55725925836 -0.82561833 0.088410927767 0.56045276704 -0.82348990588 0.088074234787 
0.56161637081 -0.82271037025 0.087947135953 0.56156710806 -0.82274340329 0.087952688885 0.56086419171 -0.82321402239 0.088034264881 
0.55989704602 -0.8238597769 0.08814967877 0.55919048874 -0.82433023942 0.088236351196 0.55921982873 -0.82431073192 0.08823264927 
0.56049503434 -0.82346192116 0.088066911318 0.5627959467 -0.82192408012 0.087758355096 0.56669753237 -0.81929665732 0.087217510293 
0.57214403054 -0.81558576641 0.086435328114 0.57886887699 -0.81093281648 0.085432958611 0.58701792777 -0.80518651989 0.084170188681 
0.59632635902 -0.7984740552 0.082668353748 0.60623547454 -0.79114926216 0.08100243446 0.61677643866 -0.78314831364 0.079155186513 
0.62717397073 -0.77503823962 0.07725631088 0.6372270572 -0.76698422919 0.07534500471 0.6465693033 -0.75930630959 0.073498736321 
0.65445537436 -0.75267592123 0.071882686078 0.66071584562 -0.74731273488 0.070556697957 0.66495021351 -0.74363460649 0.069633221867 
0.66707657318 -0.74177224024 0.069157712 0.66692113877 -0.74190868447 0.069193197493 0.66442115735 -0.74409422894 0.069773233569 
0.65990949602 -0.74799879555 0.070832611991 0.65328282442 -0.75364421376 0.072401314747 0.64510040532 -0.76047214793 0.074347691865 
0.635801949 -0.76804535045 0.076565144142 0.6254778885 -0.77622922815 0.079029085535 0.61477845244 -0.78446916109 0.081581797685 
0.60403827719 -0.79250095902 0.084142674369 0.59357272414 -0.80010339919 0.086637011495 0.5836770679 -0.80709405303 0.088995898611 
0.57433042901 -0.81352467896 0.091225846295 0.56571162994 -0.81930957604 0.09328542414 0.55794060102 -0.82440847988 0.095146960176 
0.55043632038 -0.82922891634 0.096949788584 0.54314959379 -0.83381399959 0.098705282812 0.53571575535 -0.8383962491 0.10050054207 
0.52712809168 -0.843572171 0.10257664098 0.51739866635 -0.84928737595 0.10492651292 0.50468078468 -0.8565257953 0.10798549696 
0.48879853102 -0.86520677181 0.11177315459 0.46812252611 -0.87593227716 0.11663595661 0.44070694453 -0.8891913146 0.1229479365 
0.40531049203 -0.90476555831 0.13085369517 0.36105505699 -0.92192299885 0.14034682045 0.30558682677 -0.94001176833 0.15163959479 
0.23867771539 -0.95708325028 0.16439160626 0.16166359479 -0.97067185316 0.17793548157 0.076667606595 -0.97848927534 0.1915223646 
-0.012331860339 -0.97884020284 0.20425421054 -0.10160252422 -0.97120423701 0.21549769624 -0.18599254021 -0.95651231871 0.22470193398 
-0.26257422633 -0.93665054598 0.2318200388 -0.33024049702 -0.91363554157 0.23708924758 -0.38924867999 -0.88908429177 0.2408621748 
-0.43952484335 -0.86461267904 0.24343957632 -0.48256528195 -0.84085033224 0.2451560063 -0.52021625146 -0.81775730988 0.24626821529 
-0.55349043665 -0.79540679159 0.24693394345 -0.58377983451 -0.77334312468 0.24726810616 -0.6118533925 -0.751306601 0.24733341338 
-0.63870173887 -0.72867790067 0.24716109288 -0.6654401321 -0.7044913347 0.24674154481 -0.6926134456 -0.67805155874 0.24603393801 
-0.72059271927 -0.64864150142 0.24497007077 -0.75038020751 -0.61456031753 0.24340328735 -0.78144072257 -0.5754758952 0.24120093523 
-0.81443122365 -0.5291705346 0.23807630551 -0.84888366094 -0.47411431218 0.23369242427 -0.88310462339 -0.41018108181 0.22776677607 
-0.91656653486 -0.33415605905 0.21964861796 -0.94614844053 -0.24719161288 0.20904409823 -0.96919263095 -0.14969366389 0.19559512034 
-0.98266794136 -0.046010644157 0.17957376661 -0.9850176822 0.061384787178 0.16115853576 -0.97620937475 0.16401291174 0.14182743537 
-0.9583854184 0.25779154785 0.12264137822 -0.93538865245 0.3376400925 0.10510583617 -0.9110589476 0.40232152882 0.090049883095 
-0.88970570604 0.44973275425 0.078512460172 -0.873265481 0.48213387508 0.070386974639 -0.86370126177 0.49967482656 0.065918116693 
-0.86211658959 0.5024979115 0.065198426992 -0.86823672795 0.49147253739 0.067968589954 -0.88098113474 0.46735145805 0.073856989487 
-0.89915613995 0.42975164508 0.08265445867 -0.92015255568 0.38020124094 0.093628471474 -0.94182809225 0.31882584982 0.10634811771 
-0.96130361055 0.24801508247 0.11993284463 -0.976045814 0.17193010151 0.13332145051 -0.98490577498 0.093063115824 0.14594475286 
-0.98745667888 0.015940760131 0.15708341572 -0.98438410358 -0.057069357394 0.16652634947 -0.97695358285 -0.12342240792 0.17415110159 
-0.96677189832 -0.18149324791 0.18003415673 -0.9550621215 -0.23198028742 0.18450336126 -0.94336582806 -0.27355791615 0.18768852112 
-0.93182421255 -0.30918537763 0.19002115451 -0.9217827326 -0.33707873074 0.19155814563 -0.91345355649 -0.35851381347 0.19253686837 
-0.90673834837 -0.37486235082 0.19314187929 -0.90193361286 -0.38611565835 0.19346952312 -0.89938620113 -0.39194902625 0.19359861061 
-0.89860878694 -0.39371419434 0.19362691241 -0.90009586379 -0.39032084099 0.19358997151 -0.90345019873 -0.38251949109 0.19353701806 
-0.90882687129 -0.3695890591 0.19348810146 -0.91620563507 -0.35091928817 0.19344996109 -0.9251197625 -0.32671943532 0.1934110535 
-0.93538325595 -0.29610841279 0.19333383655 -0.94700789713 -0.25666231719 0.19313336768 -0.95850421434 -0.2100855692 0.19270112794 
-0.96940672822 -0.153131585 0.19183668303 -0.97789539057 -0.0866173767 0.19031036532 -0.98219425059 -0.0075051080871 0.1877182129 
-0.97966931191 0.080426357929 0.18379238356 -0.96778738917 0.1779755382 0.17807941251 -0.9445898349 0.28054671268 0.17042178793 
-0.90870029972 0.3852839848 0.16068608014 -0.8620450477 0.48429021461 0.14947014343 -0.80599599184 0.5758334972 0.13706292221 
-0.74523900666 0.65508852579 0.1244099929 -0.68320001259 0.72157599288 0.1120974099 -0.62355271551 0.77526508983 0.10072761023 
-0.56874116085 0.81750662958 0.090644374082 -0.51995057465 0.85025546092 0.08195761773 -0.47822968402 0.87504727023 0.074757235053 
-0.44345170689 0.89364343045 0.06893477261 -0.41553443515 0.90729475117 0.064400059904 -0.39518776979 0.91655983382 0.061193934677 
-0.38009849628 0.9230694954 0.058888367178 -0.37292842356 0.92605640813 0.057826636189 -0.37085593322 0.92690681454 0.057529418234 
-0.37486447758 0.92525816307 0.058085756543 -0.38492642749 0.92103148631 0.059436071889 -0.40128296776 0.91388335686 0.061556395624 
-0.42318326353 0.90375993949 0.064295390561 -0.45088371663 0.89001668212 0.067632681667 -0.48394027724 0.87217833637 0.071461581464 
-0.52283550204 0.84905848273 0.075780807029 -0.56564300364 0.82072924708 0.080321201543 -0.61287938602 0.78558265157 0.085080877672 
-0.66116263491 0.74486473168 0.089668844572 -0.71218166146 0.69564755577 0.094190016576 -0.76029075871 0.64213237344 0.098101871598 
-0.80808378829 0.58024362414 0.10157720092 -0.84987178358 0.51658907909 0.10418097158 -0.88723595448 0.44896592163 0.1060281203 
-0.91806032105 0.38171637367 0.10704137974 -0.94282821937 0.31552937113 0.10731339485 -0.96182132312 0.25191728519 0.10694589197 
-0.97513775923 0.19454336598 0.10610951553 -0.98411699374 0.14316640598 0.10496248297 -0.98993856511 0.096385158615 0.10359313924 
-0.99315064009 0.056657892077 0.10218458468 -0.99459946649 0.024436014999 0.10087012649 -0.99502167404 -0.0037681327463 0.099587496083 
-0.99483275135 -0.024328080309 0.098569474709 -0.99425935071 -0.044014903182 0.09752451911 -0.99350809279 -0.060051154943 0.096620537972 
-0.99272733695 -0.072818917537 0.095863651764 -0.99165731674 -0.087153513261 0.094973845246 -0.99007503565 -0.10462349872 0.093836812054 
-0.98840079732 -0.12023771307 0.092772604866 -0.98578733839 -0.14103140864 0.091287815401 -0.98211393936 -0.1656914119 0.089434703232 
-0.97741521168 -0.19244666612 0.087314286806 -0.97192148749 -0.21939220564 0.085062813597 -0.9645641318 -0.25068367426 0.082302679773 
-0.95622096626 -0.28166428972 0.079414681095 -0.94828872271 -0.30796919449 0.076834065463 -0.93875839597 -0.33656075294 0.073888656614 
-0.930131696 -0.36023123166 0.071333637503 -0.92190364817 -0.38123066213 0.068969890066 -0.91476276459 -0.39840322686 0.066962327835 
-0.90862515226 -0.41248203772 0.065260257654 -0.90378584753 -0.42318364757 0.06392763279 -0.90086775604 -0.42947951452 0.063123947345 
-0.89992317885 -0.43149352845 0.062861809318 -0.90039550788 -0.43048763021 0.062994679432 -0.90386298209 -0.42300925397 0.063991254582 
-0.90746358578 -0.41506352548 0.065054671581 -0.91513831457 -0.3974649415 0.067405381712 -0.92495941645 -0.37345560481 0.070576123088 
-0.93473499795 -0.34756800575 0.073938927393 -0.94694146922 -0.31167397665 0.078493223607 -0.95954732219 -0.26880094036 0.083755542716 
-0.97182335608 -0.21795913173 0.08973952012 -0.98267528451 -0.15828886889 0.096404974955 -0.98987091958 -0.09796706218 0.10275221313 
-0.9935125852 -0.031398284431 0.10930183336 -0.99233801909 0.042508661609 0.11600978217 -0.9881121004 0.095528088292 0.12045273507 
-0.9881121004 0.095528088292 0.12045273507 
