# vtk DataFile Version 4.1
vtk output
ASCII
DATASET POLYDATA
POINTS 337 float
-5.82998 1.74934 181.902 -5.66555 1.41485 180.929 -5.50101 1.0806 179.956 
-5.33607 0.747369 178.98 -5.17042 0.415893 177.997 -5.00377 0.0869023 177.007 
-4.83587 -0.238915 176.005 -4.6665 -0.560917 174.991 -4.49547 -0.87852 173.961 
-4.32265 -1.19121 172.915 -4.14796 -1.49853 171.85 -3.97139 -1.80013 170.765 
-3.79297 -2.09571 169.658 -3.6128 -2.38504 168.529 -3.43107 -2.66799 167.377 
-3.24798 -2.94448 166.202 -3.06382 -3.21447 165.003 -2.87893 -3.47798 163.781 
-2.69367 -3.73508 162.536 -2.50846 -3.98585 161.269 -2.32375 -4.23039 159.982 
-2.14 -4.4688 158.675 -1.95767 -4.70121 157.35 -1.77725 -4.92771 156.009 
-1.59921 -5.1484 154.654 -1.424 -5.36337 153.287 -1.25206 -5.57268 151.91 
-1.08379 -5.7764 150.526 -0.919553 -5.97457 149.137 -0.759673 -6.16723 147.746 
-0.604428 -6.35442 146.354 -0.454043 -6.53617 144.965 -0.30869 -6.71254 143.58 
-0.168487 -6.88356 142.202 -0.0334962 -7.04932 140.832 0.0962743 -7.2099 139.473 
0.220868 -7.36539 138.126 0.34038 -7.51594 136.792 0.454947 -7.66168 135.473 
0.564749 -7.80279 134.169 0.670002 -7.93946 132.883 0.770949 -8.0719 131.613 
0.867856 -8.20034 130.361 0.961006 -8.32501 129.127 1.05069 -8.44617 127.911 
1.1372 -8.56406 126.714 1.22083 -8.67894 125.533 1.30185 -8.79105 124.371 
1.38053 -8.90064 123.225 1.4571 -9.00792 122.095 1.53177 -9.11312 120.981 
1.60472 -9.21643 119.883 1.67611 -9.31803 118.798 1.74604 -9.41809 117.726 
1.81461 -9.51674 116.667 1.88185 -9.61412 115.618 1.94778 -9.71033 114.58 
2.01239 -9.80546 113.551 2.07563 -9.89962 112.528 2.13744 -9.99287 111.512 
2.19773 -10.0853 110.501 2.25641 -10.177 109.493 2.31337 -10.268 108.485 
2.3685 -10.3584 107.477 2.42168 -10.4484 106.467 2.4728 -10.538 105.451 
2.52177 -10.6274 104.429 2.56849 -10.7167 103.397 2.61287 -10.8062 102.354 
2.65484 -10.8959 101.297 2.69434 -10.9862 100.223 2.73134 -11.0772 99.1298 
2.76578 -11.1692 98.0152 2.79766 -11.2625 96.8767 2.82694 -11.3573 95.712 
2.85363 -11.4539 94.5189 2.87771 -11.5526 93.2954 2.89918 -11.6536 92.0398 
2.91804 -11.7573 90.7506 2.93427 -11.8639 89.4265 2.94787 -11.9736 88.0665 
2.95881 -12.0868 86.67 2.96706 -12.2036 85.2366 2.97258 -12.3243 83.7662 
2.97533 -12.4491 82.2592 2.97524 -12.5781 80.7161 2.97224 -12.7116 79.1378 
2.96624 -12.8496 77.5252 2.95715 -12.9923 75.8799 2.94486 -13.1399 74.2033 
2.92925 -13.2924 72.4971 2.91018 -13.4499 70.7631 2.8875 -13.6124 69.0034 
2.86108 -13.7801 67.2198 2.83073 -13.9529 65.4144 2.7963 -14.1308 63.5892 
2.75761 -14.3139 61.7462 2.71449 -14.5022 59.8871 2.66675 -14.6957 58.014 
2.61423 -14.8943 56.1283 2.55676 -15.098 54.2318 2.49417 -15.3068 52.3258 
2.42634 -15.5207 50.4118 2.35314 -15.7395 48.491 2.27447 -15.9633 46.5645 
2.19028 -16.192 44.6335 2.10052 -16.4255 42.6989 2.0052 -16.6637 40.7617 
1.90437 -16.9065 38.8231 1.79812 -17.1538 36.8839 1.68659 -17.4055 34.9453 
1.56996 -17.6615 33.0085 1.44846 -17.9215 31.0747 1.32236 -18.1855 29.1454 
1.19197 -18.4531 27.2219 1.05763 -18.7243 25.306 0.919712 -18.9987 23.3992 
0.778607 -19.2761 21.5034 0.634716 -19.5561 19.6204 0.488446 -19.8386 17.7519 
0.340196 -20.1232 15.8999 0.190351 -20.4096 14.0662 0.0392774 -20.6975 12.2522 
-0.112689 -20.9864 10.4597 -0.265245 -21.2762 8.68989 -0.418126 -21.5665 6.94393 
-0.571106 -21.857 5.22273 -0.723999 -22.1475 3.52691 -0.876663 -22.4377 1.85684 
-1.02899 -22.7273 0.212606 -1.1809 -23.0163 -1.40596 -1.33236 -23.3045 -2.99929 
-1.48335 -23.5918 -4.56804 -1.63386 -23.8782 -6.11306 -1.78392 -24.1635 -7.63539 
-1.93353 -24.4479 -9.13621 -2.08275 -24.7313 -10.6168 -2.23158 -25.0139 -12.0785 
-2.38007 -25.2957 -13.5227 -2.52823 -25.5768 -14.9508 -2.6761 -25.8574 -16.3642 
-2.82369 -26.1376 -17.7643 -2.97103 -26.4174 -19.1522 -3.11814 -26.6971 -20.5294 
-3.26506 -26.9766 -21.8969 -3.41181 -27.256 -23.2557 -3.55846 -27.5354 -24.6069 
-3.70505 -27.8147 -25.9514 -3.85166 -28.094 -27.29 -3.99838 -28.3731 -28.6233 
-4.14532 -28.6519 -29.9521 -4.29258 -28.9303 -31.2769 -4.44031 -29.2081 -32.5982 
-4.58864 -29.485 -33.9164 -4.73772 -29.7609 -35.2318 -4.88771 -30.0355 -36.5449 
-5.03875 -30.3084 -37.8557 -5.191 -30.5794 -39.1646 -5.3446 -30.8482 -40.4717 
-5.49969 -31.1144 -41.777 -5.65637 -31.3777 -43.0808 -5.81475 -31.6379 -44.383 
-5.97491 -31.8947 -45.6837 -6.13691 -32.1478 -46.983 -6.30078 -32.397 -48.281 
-6.46652 -32.6422 -49.5776 -6.63413 -32.8831 -50.873 -6.80357 -33.1195 -52.1672 
-6.97478 -33.3515 -53.4602 -7.14768 -33.579 -54.7523 -7.32216 -33.8018 -56.0434 
-7.49812 -34.02 -57.3336 -7.67542 -34.2335 -58.6231 -7.85392 -34.4424 -59.9119 
-8.03346 -34.6468 -61.2 -8.21388 -34.8466 -62.4874 -8.39501 -35.0418 -63.7742 
-8.57668 -35.2327 -65.0602 -8.75872 -35.419 -66.3454 -8.94095 -35.601 -67.6294 
-9.12321 -35.7786 -68.9121 -9.30534 -35.9517 -70.193 -9.48718 -36.1205 -71.4719 
-9.66857 -36.2848 -72.7482 -9.84938 -36.4445 -74.0214 -10.0295 -36.5997 -75.291 
-10.2088 -36.7502 -76.5562 -10.3871 -36.896 -77.8166 -10.5645 -37.0368 -79.0713 
-10.7407 -37.1728 -80.3199 -10.9159 -37.3036 -81.5617 -11.0898 -37.4293 -82.7961 
-11.2626 -37.5497 -84.0226 -11.4341 -37.6647 -85.2408 -11.6044 -37.7744 -86.4504 
-11.7735 -37.8786 -87.651 -11.9415 -37.9773 -88.8425 -12.1083 -38.0705 -90.0248 
-12.274 -38.1584 -91.1978 -12.4385 -38.2408 -92.3618 -12.6021 -38.318 -93.5168 
-12.7646 -38.3901 -94.6629 -12.9261 -38.4571 -95.8005 -13.0865 -38.5193 -96.9297 
-13.246 -38.5768 -98.0508 -13.4044 -38.6298 -99.1639 -13.5618 -38.6785 -100.269 
-13.718 -38.7232 -101.367 -13.873 -38.764 -102.457 -14.0267 -38.8011 -103.54 
-14.1791 -38.8348 -104.614 -14.33 -38.8652 -105.682 -14.4794 -38.8926 -106.741 
-14.627 -38.9172 -107.792 -14.7728 -38.9391 -108.835 -14.9166 -38.9585 -109.87 
-15.0584 -38.9756 -110.897 -15.1979 -38.9905 -111.915 -15.3352 -39.0035 -112.925 
-15.4701 -39.0147 -113.927 -15.6026 -39.0243 -114.921 -15.7324 -39.0325 -115.908 
-15.8597 -39.0394 -116.888 -15.9843 -39.0452 -117.861 -16.1062 -39.0502 -118.829 
-16.2253 -39.0544 -119.793 -16.3417 -39.0582 -120.752 -16.4554 -39.0616 -121.709 
-16.5662 -39.0648 -122.664 -16.6743 -39.068 -123.617 -16.7796 -39.0714 -124.571 
-16.8822 -39.0751 -125.525 -16.982 -39.0792 -126.481 -17.0792 -39.0837 -127.438 
-17.1737 -39.0888 -128.398 -17.2655 -39.0944 -129.36 -17.3548 -39.1005 -130.325 
-17.4416 -39.1071 -131.293 -17.526 -39.1142 -132.264 -17.608 -39.1215 -133.237 
-17.6878 -39.1289 -134.212 -17.7654 -39.1362 -135.189 -17.841 -39.1432 -136.168 
-17.9149 -39.1497 -137.147 -17.987 -39.1554 -138.126 -18.0576 -39.16 -139.104 
-18.1269 -39.1632 -140.081 -18.1951 -39.1647 -141.057 -18.2623 -39.1642 -142.031 
-18.3288 -39.1613 -143.001 -18.3948 -39.1559 -143.969 -18.4605 -39.1476 -144.933 
-18.526 -39.1362 -145.894 -18.5915 -39.1214 -146.85 -18.6572 -39.1032 -147.802 
-18.7232 -39.0813 -148.75 -18.7896 -39.0556 -149.694 -18.8564 -39.0261 -150.633 
-18.9238 -38.9928 -151.567 -18.9917 -38.9556 -152.497 -19.0602 -38.9147 -153.422 
-19.1291 -38.8701 -154.342 -19.1985 -38.822 -155.258 -19.2682 -38.7706 -156.169 
-19.3381 -38.716 -157.075 -19.4081 -38.6585 -157.977 -19.4781 -38.5983 -158.873 
-19.5478 -38.5356 -159.765 -19.6172 -38.4708 -160.652 -19.686 -38.4041 -161.533 
-19.7541 -38.3356 -162.41 -19.8214 -38.2657 -163.28 -19.8876 -38.1945 -164.146 
-19.9527 -38.1222 -165.006 -20.0165 -38.049 -165.861 -20.079 -37.9749 -166.71 
-20.14 -37.9001 -167.555 -20.1996 -37.8245 -168.394 -20.2578 -37.7482 -169.228 
-20.3144 -37.6712 -170.057 -20.3695 -37.5935 -170.882 -20.4232 -37.5149 -171.703 
-20.4755 -37.4354 -172.52 -20.5264 -37.3549 -173.333 -20.5761 -37.2733 -174.144 
-20.6245 -37.1904 -174.951 -20.6718 -37.1064 -175.757 -20.7179 -37.0209 -176.561 
-20.763 -36.9341 -177.363 -20.8071 -36.8458 -178.163 -20.8501 -36.7561 -178.963 
-20.8922 -36.6649 -179.762 -20.9332 -36.5724 -180.561 -20.9732 -36.4786 -181.358 
-21.0122 -36.3837 -182.155 -21.05 -36.2877 -182.951 -21.0866 -36.1909 -183.745 
-21.1219 -36.0934 -184.538 -21.1559 -35.9955 -185.329 -21.1884 -35.8973 -186.117 
-21.2193 -35.7992 -186.901 -21.2486 -35.7013 -187.681 -21.276 -35.6039 -188.456 
-21.3016 -35.5072 -189.224 -21.3251 -35.4113 -189.986 -21.3465 -35.3166 -190.739 
-21.3657 -35.223 -191.484 -21.3827 -35.1309 -192.218 -21.3972 -35.0401 -192.941 
-21.4092 -34.9509 -193.652 -21.4187 -34.8633 -194.349 -21.4255 -34.7772 -195.033 
-21.4296 -34.6926 -195.703 -21.4309 -34.6094 -196.357 -21.4294 -34.5275 -196.995 
-21.4249 -34.4468 -197.617 -21.4175 -34.3672 -198.223 -21.407 -34.2884 -198.811 
-21.3933 -34.2102 -199.383 -21.3765 -34.1325 -199.938 -21.3565 -34.0551 -200.477 
-21.3332 -33.9777 -200.999 -21.3065 -33.9002 -201.505 -21.2766 -33.8224 -201.996 
-21.2434 -33.7442 -202.472 -21.2068 -33.6653 -202.934 -21.1671 -33.5856 -203.383 
-21.1242 -33.5052 -203.82 -21.0783 -33.4239 -204.245 -21.0295 -33.3417 -204.659 
-20.9781 -33.2586 -205.065 -20.9242 -33.1746 -205.462 -20.8682 -33.0898 -205.852 
-20.8103 -33.0043 -206.236 -20.751 -32.9182 -206.616 -20.6905 -32.8317 -206.993 
-20.6294 -32.7448 -207.367 
LINES 1 338
337 336 335 334 333 332 331 330 329 328 327 326 325 324 323 322 321 320 319 318 317 316 315 314 313 312 311 310 309 308 307 306 305 304 303 302 301 300 299 298 297 296 295 294 293 292 291 290 289 288 287 286 285 284 283 282 281 280 279 278 277 276 275 274 273 272 271 270 269 268 267 266 265 264 263 262 261 260 259 258 257 256 255 254 253 252 251 250 249 248 247 246 245 244 243 242 241 240 239 238 237 236 235 234 233 232 231 230 229 228 227 226 225 224 223 222 221 220 219 218 217 216 215 214 213 212 211 210 209 208 207 206 205 204 203 202 201 200 199 198 197 196 195 194 193 192 191 190 189 188 187 186 185 184 183 182 181 180 179 178 177 176 175 174 173 172 171 170 169 168 167 166 165 164 163 162 161 160 159 158 157 156 155 154 153 152 151 150 149 148 147 146 145 144 143 142 141 140 139 138 137 136 135 134 133 132 131 130 129 128 127 126 125 124 123 122 121 120 119 118 117 116 115 114 113 112 111 110 109 108 107 106 105 104 103 102 101 100 99 98 97 96 95 94 93 92 91 90 89 88 87 86 85 84 83 82 81 80 79 78 77 76 75 74 73 72 71 70 69 68 67 66 65 64 63 62 61 60 59 58 57 56 55 54 53 52 51 50 49 48 47 46 45 44 43 42 41 40 39 38 37 36 35 34 33 32 31 30 29 28 27 26 25 24 23 22 21 20 19 18 17 16 15 14 13 12 11 10 9 8 7 6 5 4 3 2 1 0 

CELL_DATA 1
FIELD FieldData 2
LengthArray 1 1 double
394.84980747 
TortuosityArray 1 1 double
0.0096549911495 
POINT_DATA 337
FIELD FieldData 8
RadiusArray 1 337 double
63.974239396 64.687080899 65.17831919 65.503906419 65.571870257 65.574815766 65.567994495 65.521246784 65.49922214 
65.49161832 65.381209657 65.305651717 65.287088605 65.260760622 65.253747493 65.218521424 65.183061772 64.947219889 
64.841821665 64.576403294 64.533949382 64.241715329 64.220355498 63.852705363 63.844760517 63.832804837 63.288896124 
63.218639585 62.968852043 62.954899687 62.924762476 62.24478144 62.210515685 62.193215809 61.661140544 61.644851602 
61.47625005 61.125987739 61.0841849 61.054184406 60.782017941 60.60378128 60.401954425 60.36735754 60.261269001 
59.981570257 59.928040151 59.701826319 59.54853747 59.45255757 59.436120657 59.304032903 59.177240449 59.17014242 
58.861279871 58.849206443 58.544374708 58.415773237 58.21779708 58.103385071 57.940633519 57.833363409 57.680743849 
57.639673145 57.637372097 57.607700526 57.442077729 57.283147504 57.236329013 57.062771198 57.05559538 57.049788779 
57.027189206 56.947058664 56.674538811 56.546906181 56.32301653 56.096833091 56.051805492 55.914277929 55.783414034 
55.721230772 55.699615508 55.360744215 55.175411319 55.0960993 54.594788368 54.516382284 53.978673244 53.849465419 
53.587659566 53.443431286 53.36496577 53.34605815 53.067511918 52.636184019 52.502274391 51.801073555 51.764258449 
51.538167604 51.493160095 51.171230903 50.698813066 50.571521163 50.419057795 50.265398587 50.265390413 50.264376788 
49.689609003 49.558362902 49.499378525 49.362998885 49.254853655 49.104351049 48.775980773 48.020333812 47.697553197 
47.391596808 47.31997243 46.99746598 46.789864073 46.526570426 46.525372898 46.391001562 46.331422116 45.999878951 
45.886324039 45.794775932 45.566535983 45.550612187 45.206989854 45.136628896 44.915521842 44.893676221 44.633597857 
44.587638997 44.471616263 44.315753422 44.17075697 43.826696209 43.793330864 43.626907343 43.583937805 43.523524731 
43.169327641 43.06836359 43.025301715 42.875772847 42.851935188 42.755862312 42.704700372 42.507595092 42.377877378 
42.21043324 42.087435042 41.993172561 41.884703945 41.807607352 41.700534279 41.632238617 41.630269269 41.507014817 
41.32484888 41.317845498 41.303177451 41.195069262 41.091472496 41.070760906 40.985926059 40.963713432 40.882871821 
40.77937716 40.758959135 40.756123193 40.712255927 40.674350255 40.562125939 40.528918237 40.470200105 40.449881033 
40.435873815 40.39823786 40.370899153 40.327407262 40.287689895 40.29689422 40.293583583 40.187046621 40.158824127 
40.172834429 40.201021691 40.201423761 40.15523664 40.170919364 40.172560113 40.171561479 40.157710959 40.109171396 
40.090154167 40.090892204 40.093612932 40.090961832 40.069438739 40.070459704 40.071096501 40.075846003 40.075814792 
40.090624482 40.102357347 40.119100713 40.111726719 40.059743378 40.070055641 40.087006566 40.082735023 40.07974593 
40.080839983 40.080770346 40.080507992 40.089451804 40.097400341 40.108338322 40.130152024 40.13322855 40.133224594 
40.100841696 40.066853908 40.064404688 40.065983911 40.069571742 40.070085418 40.106951402 40.081094565 40.00787613 
39.991124832 39.968287287 39.965412205 39.919266554 39.90731894 39.876912965 39.872187867 39.823863132 39.794531094 
39.787094518 39.784817183 39.760653115 39.678733318 39.648931309 39.602731921 39.550830871 39.481788237 39.467126105 
39.443885542 39.399378113 39.377000892 39.366708737 39.284990206 39.210244983 39.196481433 39.066112044 39.012332838 
38.983313499 38.875595746 38.810771844 38.745075638 38.708395875 38.578722995 38.573832275 38.426382882 38.408120532 
38.361936421 38.2746994 38.216655303 37.949431749 37.933600767 37.930893878 37.734980282 37.719808616 37.703362214 
37.58267789 37.517678044 37.487850157 37.446633773 37.288625026 37.243196057 37.044957323 37.043923107 37.037032263 
36.803283653 36.624042303 36.619290537 36.616293953 36.419949885 36.294196789 36.291760664 36.052837086 36.005136998 
35.931978693 35.674626919 35.473808771 35.187586849 35.165645598 34.920790524 34.645148506 34.334331351 34.328302881 
34.210533388 34.000781084 33.875938936 33.713030065 33.593568484 33.185335467 33.18532854 33.184758234 32.936296095 
32.709575527 32.375328386 32.340808016 32.004199935 31.784085987 31.665412359 31.653479707 31.552068858 31.545091127 
31.126734755 31.053798664 30.947390635 30.878963878 30.87493551 30.366472947 30.172732308 29.871957637 29.866693073 
29.539986839 29.397639065 28.95374718 28.542478505 
EdgeArray 2 337 int
8606 8606 8048 8048 8874 8089 10178 8874 11002 
11903 12197 11905 12197 10346 10346 10346 10006 12505 
12505 7526 12522 8515 12457 8515 12457 12455 15044 
13806 15044 11003 9443 9443 14872 12874 9481 9481 
15050 17131 15052 15052 17488 17483 17482 17485 17486 
17900 19346 17133 19346 18239 14206 14206 18954 18954 
18238 18952 19774 19774 19776 19775 13332 13332 21005 
21005 21001 21004 12952 21003 19742 19744 19743 19746 
19737 19738 21430 14917 20536 14917 20539 20536 20535 
20535 18213 18213 20952 21415 15327 21415 18211 18211 
20961 11111 22200 20972 20971 20971 14504 20383 16393 
20938 20938 21805 20945 21804 20945 21803 21803 19718 
20947 20947 20942 18879 23326 18218 22963 15367 22186 
18883 21799 16993 24084 24084 24089 24087 23678 24070 
24070 24072 24072 24072 24467 24467 24471 24471 24065 
24065 23312 23312 24446 22958 24448 23693 24448 24445 
24444 24445 24435 24436 18877 24439 24449 24449 22633 
22633 22632 24078 24078 24076 24075 24076 22066 24074 
24073 24074 24073 24073 23333 23333 25173 25173 25174 
25174 24475 24475 24479 24093 24051 24051 20570 20570 
24106 24104 24108 25229 22564 24108 22564 22566 23607 
23607 21316 21316 19606 19606 24311 22846 25047 22435 
25052 21797 25046 25053 20432 24300 25043 25043 25034 
25034 18768 18768 25161 25161 23198 25161 23198 23198 
24630 24632 24633 24630 24633 24322 23599 23599 15744 
15744 24769 24769 26205 26205 13550 13550 22537 22537 
24295 24295 26554 16636 14770 23291 24587 24587 21215 
21215 25529 24001 15203 15203 26183 26344 26185 26206 
16617 16617 27511 27511 27514 27514 19207 15786 26534 
26534 24631 24631 25865 25865 26352 25561 27179 22558 
25124 22558 28445 28445 15766 15766 22146 22146 25136 
29147 29156 29147 29235 29230 29231 29229 29497 28459 
27543 29497 29698 27543 28607 29698 29240 29499 27243 
27243 29023 29431 26859 26508 29508 26859 30459 30460 
30459 30461 28448 26188 28465 28448 30760 30760 30918 
30918 30769 30769 31099 31099 31100 31100 30930 30930 
31599 31599 31601 31595 31602 31596 31441 30175 31428 
30753 31428 31250 30870 31891 31563 30113 32020 31276 
31681 31565 31688 31681 31687 31724 27536 27536 29611 
29611 32172 31598 31111 31178 29150 31604 30189 30189 
30013 32022 32424 31684 30906 31812 32286 32286 31054 
31054 30188 30188 32598 32598 29809 29809 32283 32283 
32297 32297 33179 33179 33008 32196 31586 31586 33584 
33584 33586 33589 33587 33586 33587 33587 33581 33581 
33573 33469 33573 33574 33460 33456 33460 33461 33517 
33455 32531 33570 32606 32531 33724 32606 33806 34054 
33942 33927 33939 33927 33939 33940 33940 34192 34048 
34193 33373 33373 34355 34204 34355 34355 34653 34464 
34652 34652 34650 34644 34658 34335 34658 34015 34661 
34015 34661 34662 34660 34812 34814 34812 34813 34814 
34973 34973 35136 35136 35268 35269 35275 35269 35275 
35274 35274 35274 35161 35161 35306 35433 35431 35431 
35530 35606 35606 35797 35792 35798 35929 35930 35929 
35931 35931 35931 35926 35926 36270 36270 36248 36246 
35724 36090 35724 35748 36685 36685 36901 36901 36903 
36903 36696 36696 37109 37109 37259 37259 37260 37260 
37269 37269 36275 37165 37664 36275 37663 37664 37663 
37665 37666 37666 37773 36916 37646 37652 37651 38076 
37342 37886 38065 38085 38053 37774 38190 37774 38097 
37216 38049 38733 38049 38736 38737 38046 38046 38738 
38740 38730 38259 38342 38490 38490 38948 38947 38946 
38949 38949 38952 38731 38937 38731 38722 39037 38722 
39652 38643 38643 38250 40147 38250 39158 39361 40151 
40151 40152 40152 40464 39895 40464 40460 40460 40458 
40459 40459 40018 39787 40018 39566 39909 39566 40131 
40131 39567 39567 39178 39148 40137 40137 39149 39149 
40128 40128 40758 34549 39892 41150 40840 40912 40761 
40840 39906 39906 40920 40920 41768 41161 41158 41768 
41648 41648 42234 41232 40252 41232 40252 40252 41774 
41774 42260 42260 42248 42260 42248 42248 42513 42513 
42851 42851 42684 42684 42123 41642 43426 43426 41505 
43760 42007 43693 43693 43444 43756 43443 43430 43756 
43752 43752 43751 43751 43916 43916 43914 43917 44437 
44543 46195 46195 48072 48072 49088 49088 49089 48952 
48954 48954 48754 48754 48595 48765 48763 48763 
EdgePCoordArray 1 337 double
0 0 0.46 0.928 0.316 0.172 0.392 0 0.64 
0.04 0.548 0.14 0.212 0.492 0.62 0 0.908 0 
0.968 0 0.232 0.948 0.088 0.032 0.488 0 0 
0.908 0 0.62 0 0 0.84 0.804 0.152 0.76 
0.448 0.916 0.468 0.928 0 0 0.9 0.744 0 
0.868 0.94 0 0.364 0.932 0.144 0.464 0.952 0.004 
0 0.996 0.104 0.088 0.888 0.436 0 0.456 0.46 
0.972 0 0 0 0 0 0.02 0.032 0.148 
0.544 0.98 0.52 0 0 0.896 0.184 0.476 0.816 
0.264 0 0 0 0 0 0.964 0 0 
0.424 0.604 0.084 0.004 0 0 0 0.292 0.252 
0.7 0.34 0.144 0 0 0 0 0.992 0 
0.312 0.176 0.3 0 0 0 0 0 0 
0 0.328 0.832 0 0 0.684 0 0.916 0.06 
0 0 0 0.98 0 0 0 0.908 0.648 
0.332 0 0 0 0.74 0.624 0.256 0.26 0.84 
0.32 0.44 0.66 0.052 0 0.032 0.78 0.492 0.736 
0.94 0.232 0.588 0 0 0 0 0 0 
0 0.092 0.18 0.624 0.44 0.48 0.44 0.304 0.612 
0.332 0.756 0.756 0 0 0.588 0.7 0.744 0 
0.872 0.752 0.36 0 0 0 0 0 0 
0 0 0.008 0 0 0.004 0.92 0 0 
0.072 0.076 0.14 0.112 0.216 0.028 0.936 0.956 0.112 
0.816 0.72 0.656 0.396 0.16 0 0.524 0 0.152 
0 0.724 0.708 0.832 0.516 0.196 0.896 0.016 0.988 
0 0 0.852 0.38 0.672 0 0 0.148 0 
0.064 0.968 0.912 0.088 0.216 0 0 0 0.132 
0.036 0.176 0 0 0 0 0 0 0 
0 0.316 0.316 0.996 0.968 0 0.148 0.62 0.556 
0.464 0.472 0.496 0.228 0.26 0.144 0.164 0.856 0.532 
0.26 0.156 0 0.068 0.984 0.008 0.052 0.456 0.96 
0.324 0.824 0.884 0.26 0 0 0.072 0.24 0.016 
0 0.02 0.664 0.992 0 0 0.996 0 0 
0 0.104 0.1 0.104 0.936 0 0 0.088 0.824 
0 0.952 0.588 0 0 0 0.988 0 0 
0 0 0.984 0 0.956 0.888 0.216 0.024 0.968 
0 0 0 0.972 0.02 0 0 0 0.004 
0 0 0.696 0 
CurvatureArray 1 337 double
0 0.0004720063793 0.0018815834322 0.003244055508 0.0045064177762 0.0056401052754 0.0066147777343 0.0074020029286 0.0079966594492 
0.0084057391389 0.0086268138164 0.0086892088457 0.0086112395158 0.0084098947648 0.0081219174518 0.007770573781 0.0073722174723 0.0069587488241 
0.0065386153897 0.0061244062931 0.0057341791161 0.0053715689322 0.0050332950938 0.0047337753616 0.0044688731647 0.0042305345352 0.0040225538789 
0.0038450106982 0.0036853839677 0.0035462432073 0.0034206227233 0.0033075965508 0.0031980697339 0.0030957646467 0.0029944731096 0.002887291491 
0.002778740681 0.0026619071184 0.0025365304 0.0024030813215 0.0022579545653 0.0021033517069 0.0019425696376 0.0017728202578 0.0016003511282 
0.0014248522026 0.0012538164182 0.0010899204152 0.00093856606541 0.00080469882944 0.000694452835 0.00061200762075 0.00056395589926 0.00055173941601 
0.00057900713564 0.00064450347169 0.00074777592893 0.00088653775301 0.0010567697653 0.00125234018 0.0014653960986 0.001691034218 0.0019160035607 
0.0021330455363 0.00233190051 0.002504887131 0.0026423659155 0.0027418200492 0.0027972541278 0.0028094331201 0.0027816929782 0.002715586772 
0.0026201776554 0.0024999339056 0.0023637628981 0.0022192362937 0.0020734219553 0.001932254271 0.00180036376 0.0016819813596 0.0015794159413 
0.0014936765339 0.0014252179093 0.0013733062081 0.001337138565 0.0013144496606 0.0013039852414 0.0013043443498 0.0013131049292 0.0013291173063 
0.0013515127815 0.001379194532 0.0014106778704 0.0014454699355 0.0014825502367 0.0015220202717 0.0015614862066 0.0016012904081 0.0016406326747 
0.0016782311946 0.0017131468518 0.001744693977 0.0017718336319 0.0017941071512 0.0018103341565 0.00182043847 0.0018241066502 0.0018213708355 
0.001811939129 0.0017967490482 0.0017768099772 0.001752517339 0.0017251244702 0.0016971467996 0.0016687690258 0.001641394673 0.0016162878397 
0.0015951499039 0.0015777261894 0.0015652807126 0.0015560183052 0.0015515847278 0.0015499729346 0.001550559586 0.0015528819836 0.0015543534735 
0.0015554455126 0.0015549361554 0.0015507807356 0.0015434439225 0.0015322688243 0.0015159969765 0.0014955326834 0.0014705484468 0.001440120574 
0.001405611298 0.0013664633872 0.0013227547614 0.0012769805519 0.0012273613206 0.0011728926425 0.0011177476546 0.0010570053097 0.00099470840087 
0.00092348296287 0.00084960669593 0.00076779749894 0.00068202924467 0.00059569741376 0.00051695403269 0.00046418505253 0.00046179795999 0.00052279235163 
0.0006388662381 0.00079098979108 0.00096612597467 0.0011517752425 0.001342581787 0.0015322726075 0.0017171704238 0.0018912357485 0.0020548440026 
0.0022010233622 0.002330990589 0.0024426814244 0.0025347434803 0.0026064901963 0.0026605840253 0.0026922006059 0.002708802512 0.0027109724379 
0.0026992716022 0.002673562892 0.002646462608 0.0026080556942 0.0025710697915 0.0025336501533 0.0024967881998 0.0024652235368 0.0024414581682 
0.0024223838578 0.0024169623431 0.0024157276577 0.0024289909431 0.0024501882764 0.0024801683413 0.0025221668598 0.00257668566 0.0026331624929 
0.0027023016189 0.0027790286342 0.0028590914697 0.0029441597537 0.0030297978718 0.0031098484107 0.0031852045562 0.0032556391424 0.0033096298973 
0.0033489981273 0.0033747732878 0.0033775477198 0.0033672769367 0.003329832892 0.0032752273203 0.0032047993983 0.0031191945263 0.0030241297294 
0.0029168979547 0.0028047164992 0.0026964273771 0.0025884836674 0.0024847079881 0.0023866779409 0.0023016475556 0.0022235127364 0.0021571158036 
0.002112829144 0.0020750088799 0.0020574488055 0.0020573627977 0.0020755861715 0.0021201415145 0.0021780922383 0.002265371786 0.00236599084 
0.0024815498023 0.0026062945411 0.0027345027931 0.002856224713 0.0029642582963 0.0030516604932 0.0031171567515 0.0031534508762 0.0031548035378 
0.0031258633285 0.0030625986911 0.0029638976985 0.0028406162092 0.0026927899087 0.0025238867135 0.0023560934629 0.0021866839899 0.002039218288 
0.0019365464614 0.0018995499519 0.001942887351 0.0020576747111 0.0022551162328 0.002500548629 0.0027866074909 0.0030839781133 0.0033883562223 
0.0036797812982 0.0039395282167 0.0041789475765 0.0043803489169 0.00452791385 0.0046259399839 0.0046759827165 0.0046689999986 0.0046103104745 
0.0044998540563 0.0043534360704 0.004152747825 0.0039339054784 0.0036895526816 0.0034303879646 0.0031737676108 0.0029255065013 0.0027089758137 
0.0025210901827 0.002367954763 0.0022674904156 0.0022155560745 0.0021915949641 0.0022104677321 0.0022386158509 0.0022899577376 0.0023442657839 
0.0024079975363 0.0024725918572 0.0025338715467 0.0026000923562 0.0026693466291 0.0027254654264 0.0027738968552 0.0028090167352 0.0028254242475 
0.0028188100658 0.0027996165974 0.0027532232169 0.0026787206637 0.0026014855886 0.0025143002348 0.0024266820562 0.0023598250528 0.0023066330542 
0.0022914091232 0.0023136224644 0.0023802223279 0.0024812554822 0.0026248488174 0.002791307778 0.0029935206273 0.0032017601375 0.003444988852 
0.0037066423998 0.0039990735486 0.0043248225465 0.0046950534921 0.0051276088216 0.0056340601859 0.0062282411221 0.0069424408846 0.0077715914925 
0.0087405350372 0.0098626006221 0.011126171829 0.012558866891 0.014120484935 0.015795661945 0.017558180347 0.019368660162 0.021141510771 
0.022797164643 0.024260383602 0.025408760175 0.026163666326 0.026338272962 0.025943633834 0.024784960784 0.022898252907 0.020226604869 
0.01688597348 0.01285378605 0.0083002440257 0 
TorsionArray 1 337 double
0 0 -0.0015525640163 -0.0017713951087 -0.0029161931968 -0.0044860355997 -0.0056496599345 -0.0068138358037 -0.0083978852322 
-0.0097917622989 -0.011312914305 -0.013090447783 -0.014601593741 -0.016278520879 -0.018198559835 -0.019919610839 -0.0217451872 -0.023588800387 
-0.025143713803 -0.026674496511 -0.028060145468 -0.028912166357 -0.029466952707 -0.029747487876 -0.029366325378 -0.02858661415 -0.027465730262 
-0.025877462767 -0.024037061813 -0.022024719268 -0.019893912176 -0.017760802913 -0.015721023886 -0.01366633752 -0.011894131505 -0.01022944188 
-0.008652199155 -0.0073648767101 -0.0062403063212 -0.0052568662976 -0.0044611030984 -0.0037999641064 -0.0034193242731 -0.0032206753967 -0.0034425088828 
-0.0046444327469 -0.0061051145479 -0.0092584425728 -0.01494074361 -0.022423439091 -0.033430619099 -0.045607741141 -0.053975346413 -0.05362600608 
-0.042702063195 -0.027138763789 -0.012820698492 -0.0030860280239 0.0018842955842 0.0029079634981 0.0035344609649 0.0023763420474 0.00034678752025 
-0.0018350196199 -0.003416403099 -0.0054760407867 -0.0075246122658 -0.0097801982705 -0.012656399024 -0.014764273169 -0.017438054696 -0.020284147206 
-0.023202232874 -0.026729084993 -0.030099733629 -0.033377893408 -0.03681386796 -0.040255724596 -0.043102607444 -0.045189755908 -0.046338480203 
-0.046422825632 -0.045245128109 -0.042865310412 -0.039293127419 -0.035043195356 -0.030635212112 -0.025919972239 -0.021216260769 -0.017060296268 
-0.013315953038 -0.0098809299735 -0.0069224581822 -0.0043994452912 -0.0023993589439 -0.00066861974014 0.00075864292902 0.0016817118338 0.0023788857883 
0.0028593229706 0.0029959082102 0.0029145396025 0.0026290913875 0.0020671148289 0.0013006162935 0.00030422570921 -0.00089015739486 -0.0021802709193 
-0.003665976992 -0.0053859232268 -0.0071151043655 -0.0088203617523 -0.010762675668 -0.01263780582 -0.014170207203 -0.015514811267 -0.016668122672 
-0.017354432847 -0.017571017639 -0.01715065411 -0.016245934182 -0.014931106676 -0.013062362519 -0.010968058366 -0.0085438792839 -0.0060317971127 
-0.0036629072407 -0.001276760358 0.00085902641081 0.0024966221175 0.0037959344631 0.0045200011474 0.004451519635 0.0038798969144 0.0026793475397 
0.00071065594516 -0.0015282797421 -0.0041827442511 -0.0069594422805 -0.008884179573 -0.010292225149 -0.01048737277 -0.0088755640799 -0.004533671068 
0.0027658540351 0.014161576647 0.032131127616 0.059130621813 0.10153782627 0.16355424555 0.2325666846 0.25899622156 0.21713120784 
0.15244649216 0.10244469189 0.069809740213 0.049771909696 0.0371235525 0.029406171435 0.023962657251 0.020713355635 0.018594739577 
0.017281652694 0.016889541296 0.016776621717 0.016938217117 0.017606551721 0.01835368861 0.019044276156 0.020276943024 0.021592030153 
0.022396614594 0.023558817266 0.024539469499 0.025014605321 0.025590964823 0.02535077052 0.02474820325 0.023549884569 0.021588159103 
0.019817305002 0.016933105661 0.013544181973 0.010207433386 0.0069206912748 0.0035060787667 0.00022565489876 -0.0023227037521 -0.0046997781751 
-0.0067063510612 -0.0080397222619 -0.0087737186345 -0.0090823974711 -0.0090597140413 -0.0083213959916 -0.0074492276228 -0.0065030461156 -0.005086367004 
-0.0031730138616 -0.0015730425996 0.00044842394469 0.002850197259 0.0052562214626 0.0078941861964 0.010716513336 0.014277491675 0.017727924406 
0.021237916546 0.025932809671 0.030506583346 0.035554243519 0.04201038637 0.047747767607 0.054216302336 0.062084718762 0.069710960824 
0.077454211458 0.085794020286 0.09350038087 0.10058993203 0.10436980084 0.10756978827 0.10699922029 0.10205608549 0.097854537938 
0.090310626996 0.079363686082 0.070888630448 0.061097940162 0.049492035414 0.040291232209 0.031175783925 0.021450875156 0.012028912583 
0.0030736893721 -0.008497020391 -0.020418071086 -0.03334626335 -0.050476230933 -0.069893079957 -0.093340156663 -0.12356793363 -0.1561918603 
-0.18539605448 -0.20496886347 -0.20334390468 -0.18438659004 -0.15597809758 -0.1254009739 -0.099718568438 -0.077771730851 -0.060381850901 
-0.047911150641 -0.037113805863 -0.028308235486 -0.021106403746 -0.014853285823 -0.0092087859971 -0.0041463207295 0.0010350036763 0.0064354486801 
0.012390415323 0.018547045752 0.02547380412 0.034677186044 0.044300539589 0.055795305991 0.069787442499 0.083530733864 0.097584342221 
0.11105382868 0.11870799777 0.11643411613 0.10988773719 0.092758806849 0.068893842364 0.046974091022 0.02317041687 0.001374570473 
-0.015948311111 -0.027237139581 -0.038310021377 -0.043523593633 -0.043609006807 -0.040768091432 -0.034350961752 -0.026719438024 -0.015525463522 
-0.0027218177419 0.0090280853683 0.025437598439 0.042971646904 0.059131466119 0.080372370514 0.098716719557 0.11670449188 0.13337893434 
0.13730418928 0.13785808614 0.1291900621 0.11099067023 0.091159959889 0.071276143195 0.048249097963 0.029234358731 0.0092325265376 
-0.01311940471 -0.028576377517 -0.042545237932 -0.057430287524 -0.069190607859 -0.076371085296 -0.082486119781 -0.083309285362 -0.083243248563 
-0.07997583076 -0.072645367426 -0.067843989198 -0.061655396016 -0.053188949286 -0.045483290715 -0.039421525575 -0.033754532746 -0.027296458049 
-0.022704664626 -0.018415644322 -0.014610448262 -0.011438712603 -0.0088596251283 -0.0064607041651 -0.0043176237361 -0.0025840375219 -0.00081499183347 
-0.0039357847816 -0.0032018255101 0 0 
TangentArray 3 337 double
-0.15790462 0.32099406875 0.9338248973 -0.15790462 0.32099406875 0.9338248973 -0.15787645195 0.31983352438 0.93422777876 
-0.1578107665 0.31729773579 0.93510315412 -0.15770164387 0.31344133845 0.9364212294 -0.15753828944 0.3083520627 0.93813681987 
-0.15730287263 0.30214287062 0.94019439054 -0.15697728992 0.29495526332 0.94252826116 -0.15654341424 0.28695045376 0.94506803805 
-0.15597978624 0.27829507232 0.94774583038 -0.15526864473 0.26916222669 0.950496367 -0.15439427072 0.25972122549 0.95326139867 
-0.15334159617 0.25012764216 0.95599294846 -0.15210375276 0.24052874729 0.95865028562 -0.15067658581 0.23105235949 0.96120308659 
-0.14905688842 0.22180178646 0.96363167836 -0.14724858536 0.21286405221 0.96592274504 -0.14525700315 0.20430279307 0.968070644 
-0.14308919834 0.19616087369 0.97007545735 -0.14075793684 0.1884687014 0.97193968527 -0.13827521944 0.18123756685 0.9736698147 
-0.13565238692 0.17446382562 0.97527473231 -0.13290632949 0.16813962398 0.97676249643 -0.13005268311 0.16224653633 0.97814230103 
-0.12710361024 0.15675663411 0.97942433599 -0.12407621842 0.15164437967 0.98061668053 -0.12098767462 0.14688283027 0.9817267526 
-0.11785107731 0.14243968848 0.98276246302 -0.11468212567 0.1382865926 0.98373005868 -0.11149749694 0.13439822772 0.98463466553 
-0.10831242785 0.13075014776 0.98548100785 -0.10514244299 0.12732075927 0.98627303063 -0.10200436409 0.12409312917 0.98701368025 
-0.098914287929 0.12105273449 0.98770552247 -0.095886908162 0.11818590788 0.98835104696 -0.092939907222 0.11548602582 0.98895154153 
-0.09008974151 0.11294748294 0.98950831455 -0.087351735042 0.11056584529 0.99002266047 -0.084741999859 0.1083405659 0.9904953888 
-0.08227429734 0.10627121871 0.99092752917 -0.079961914492 0.10435884483 0.99131999059 -0.077816817356 0.1026053118 0.99167368268 
-0.075846606786 0.10101035236 0.99199002059 -0.074056872077 0.099574001626 0.99227042579 -0.072450444447 0.098295063502 0.99251650545 
-0.071026064885 0.097170728481 0.99273014845 -0.069777907228 0.096196680759 0.99291351198 -0.068695723793 0.095364638641 0.99306922379 
-0.067764974549 0.094664962826 0.99320010725 -0.066966353655 0.094085863571 0.99330929612 -0.06627685268 0.093612101956 0.99340029855 
-0.065669327468 0.093227182465 0.99347684013 -0.065113254905 0.092912429689 0.99354292532 -0.064575965435 0.092648131997 0.99360267126 
-0.064023402857 0.092414269316 0.99366020687 -0.063421042768 0.092190655975 0.99371960546 -0.062735032813 0.09195814738 0.99378469237 
-0.0619328373 0.091698350446 0.99385901223 -0.060984674284 0.091394922128 0.99394559092 -0.059865189159 0.091034354805 0.99404673199 
-0.058554540301 0.090607831704 0.99416376249 -0.057038272484 0.090108299067 0.99429730459 -0.055308790256 0.0895335035 0.99444692642 
-0.053366126592 0.088886725896 0.99461108303 -0.051216830105 0.088175096252 0.9947874088 -0.048874794681 0.087408261401 0.99497288922 
-0.04636077661 0.08660015586 0.99516385153 -0.043700676517 0.085767360061 0.99535632354 -0.040924589923 0.084928758656 0.99554622389 
-0.03806561639 0.084106189826 0.99572946009 -0.035157316607 0.083318557143 0.9959025962 -0.03223302723 0.082585534498 0.99606257908 
-0.029323559526 0.081924985939 0.99620701942 -0.026456237227 0.08135239833 0.99633420838 -0.023654412721 0.08088205704 0.99644295452 
-0.020936005591 0.080524323615 0.99653274757 -0.018313722879 0.080286207874 0.99660359842 -0.015795119664 0.08017285192 0.99665582224 
-0.013383247945 0.080187644627 0.9966899369 -0.011076877331 0.080331463913 0.99670665629 -0.0088709282086 0.080603453224 0.99670677231 
-0.0067576951866 0.081001654083 0.99669105825 -0.0047273398933 0.081523536199 0.99666020554 -0.0027684117176 0.082166019247 0.99661481084 
-0.00086825056551 0.0829257967 0.99655534637 0.00098640624414 0.083798863797 0.99648220126 0.0028089030928 0.084781240648 0.99639562991 
0.0046127473287 0.085869938922 0.99629567707 0.0064111580904 0.087061226112 0.99618233269 0.0082168623295 0.088350698277 0.99605553926 
0.010042004558 0.089734894426 0.99591506007 0.011898216053 0.091210460058 0.99576055577 0.0137962589 0.092773133728 0.99559168784 
0.015745776969 0.094418322515 0.99540808259 0.017755424679 0.096141156337 0.99520933625 0.019832676481 0.09793718227 0.99499496143 
0.021983376083 0.099800723294 0.99476456853 0.024211574878 0.10172523381 0.9945178613 0.026519633274 0.1037052953 0.99425445474 
0.028907839836 0.10573473676 0.99397409536 0.031374168292 0.10780668692 0.99367669783 0.033914036542 0.10991475749 0.99336226232 
0.036520587807 0.11205261873 0.99303094479 0.03918482534 0.11421421779 0.99268306217 0.041895156363 0.11639419493 0.99231909548 
0.044637930599 0.11858779375 0.99193971103 0.047398013761 0.12079150021 0.99154568315 0.050159038331 0.12300282377 0.99113791988 
0.052903932505 0.12521957713 0.99071753362 0.055615249766 0.12744072932 0.99028571862 0.058276046743 0.12966712551 0.98984359317 
0.0608705363 0.13189970687 0.98939236157 0.063384464141 0.13413929217 0.98893329401 0.065805486373 0.13638907017 0.9884673285 
0.068123693387 0.13865239915 0.98799528066 0.070331971487 0.1409309061 0.98751804717 0.072425980088 0.14322623745 0.98703633282 
0.074404175079 0.14554058734 0.98655053402 0.076267894243 0.14787502534 0.98606094395 0.078021004275 0.15022962283 0.98556774669 
0.079669737745 0.15260235084 0.98507119306 0.081222284828 0.15499015296 0.9845714768 0.082688306058 0.1573894951 0.98406869215 
0.084078575892 0.15979430316 0.98356320272 0.085404305063 0.16219822193 0.98305536033 0.086676743587 0.16459291816 0.98254583273 
0.087906548629 0.16696931171 0.98203548187 0.089103248197 0.16931917395 0.98152515428 0.090274883577 0.17163278354 0.98101612271 
0.091427523719 0.17390071208 0.98050984199 0.092564841989 0.17611531243 0.98000772791 0.093688215978 0.17826905195 0.97951144113 
0.094796609702 0.18035598852 0.97902263518 0.095886496075 0.18237267816 0.97854278707 0.09695253147 0.18431618278 0.97807348978 
0.097988070778 0.18618520706 0.97761618576 0.09898526528 0.18798027945 0.97717210961 0.099936297007 0.18970177883 0.97674253089 
0.10083417234 0.19135183761 0.97632829721 0.10167290196 0.19293252826 0.97593015147 0.10244851327 0.1944423492 0.9755493196 
0.10315987195 0.19588058496 0.97518656536 0.1038085323 0.19724446548 0.9748427614 0.10439921896 0.19852887403 0.97451890144 
0.10493989606 0.19972479651 0.97421641532 0.10544104897 0.20082116167 0.97393688 0.10591601035 0.20180586665 0.97368177088 
0.10637972045 0.20266323305 0.973453116 0.10684857088 0.20337770223 0.97325273857 0.10733977852 0.20393153957 0.97308278122 
0.10787015798 0.20430666613 0.97294543279 0.10845586394 0.20448666844 0.97284249908 0.10911136889 0.20445647247 0.97277554454 
0.10984900642 0.20420187329 0.97274600525 0.1106780937 0.20371158765 0.97275482452 0.11160535017 0.20297719001 0.9728023983 
0.11263419983 0.20199405794 0.97288845074 0.11376420527 0.20076117603 0.97301215604 0.11499208861 0.199280565 0.9731721718 
0.11631060362 0.19755721398 0.97336683254 0.11770993901 0.1956009249 0.97359367728 0.11917763249 0.19342359219 0.97385009416 
0.12069867151 0.19104023318 0.97413318391 0.12225632796 0.18846917301 0.9744397165 0.12383239453 0.18572843804 0.97476688771 
0.1254081542 0.18283847236 0.97511173098 0.12696475262 0.1798212587 0.97547130481 0.12848341805 0.17669761238 0.97584320721 
0.12994577059 0.17349031574 0.97622497768 0.13133606031 0.1702217509 0.97661425076 0.13263971597 0.16690939762 0.97700970248 
0.13384340441 0.16357086609 0.97741010577 0.13493761124 0.16022521183 0.97781374636 0.13591527959 0.15688412431 0.9782200204 
0.13677147192 0.15355835629 0.97862832356 0.13750501099 0.1502580403 0.97903773843 0.13811625736 0.14698650845 0.97944824559 
0.13860917024 0.14374828142 0.97985913759 0.13898976274 0.14054424968 0.98026994228 0.13926663614 0.13737041429 0.98068046444 
0.13945061211 0.13422283826 0.98109008581 0.13955118647 0.13109312883 0.9814988833 0.13958126116 0.12797269968 0.98190633956 
0.13955510124 0.12485180456 0.98231176345 0.13948598589 0.12171778416 0.98271483186 0.13938673207 0.11856137197 0.98311471355 
0.13927052381 0.11537054605 0.98351073116 0.13915008967 0.11213098439 0.98390238077 0.1390357839 0.10883510084 0.98428856116 
0.1389376538 0.1054755877 0.9846680805 0.13886469846 0.10204193522 0.98504012049 0.13882366928 0.098529951968 0.98540338817 
0.13881905547 0.094937338551 0.98575664927 0.13885359175 0.091263656659 0.9860986893 0.13892846775 0.087514868281 0.98642791357 
0.13904123203 0.083699878318 0.98674305985 0.1391883952 0.079826725664 0.98704320296 0.13936557037 0.075909866351 0.98732716461 
0.13956547038 0.07196884217 0.98759402855 0.13977831402 0.068020573769 0.98784372472 0.13999542781 0.064086220726 0.9880760277 
0.14020648146 0.060185890912 0.98829135435 0.14039977541 0.056341399038 0.98849054109 0.14056444391 0.052576590132 0.98867453658 
0.14069017578 0.048908552663 0.98884489578 0.1407674483 0.045353255698 0.98900334059 0.14078577827 0.041923325321 0.98915206082 
0.14073727786 0.038630109729 0.9892930472 0.14061612299 0.035483019576 0.98942814862 0.14041440312 0.032483507973 0.98955980977 
0.14012664129 0.029630955201 0.98969011862 0.13974790499 0.026925834627 0.98982095476 0.1392711076 0.024367311021 0.98995443973 
0.13869237824 0.02195087707 0.99009220945 0.13800688397 0.019673331427 0.9902358608 0.13720829685 0.017534747149 0.9903870031 
0.136289374 0.015529678379 0.99054734143 0.13524345402 0.013658319918 0.99071825381 0.13406428742 0.011925050729 0.99090088304 
0.13274381928 0.010332801093 0.99109651985 0.13127535736 0.0088889253669 0.99130609176 0.12965335834 0.0075975057089 0.99153027416 
0.12787380519 0.0064688862197 0.99176934993 0.12593437166 0.0055098327964 0.99202327381 0.12383555847 0.0047231445446 0.99229151279 
0.12158131425 0.004117195483 0.99257293572 0.11917799796 0.0036939862714 0.99286603289 0.1166356221 0.0034467822253 0.99316879298 
0.11396807071 0.0033718305366 0.99347869107 0.11119351166 0.0034585232972 0.99379275585 0.10833353152 0.0036854292767 0.99410777261 
0.10540995827 0.0040324928208 0.99442067542 0.10244589976 0.0044753439486 0.99472851016 0.099467980778 0.0049835959078 0.9950282833 
0.096502049031 0.0055252393712 0.99531744999 0.093573372859 0.006068772129 0.99559389005 0.090709023408 0.0065753675843 0.99585573133 
0.087933294066 0.007008948368 0.99610170687 0.085268245061 0.0073359119366 0.9963310247 0.082737968817 0.0075190617877 0.99654297059 
0.080360597442 0.007527081055 0.99673743655 0.078153913933 0.0073304242192 0.99691435471 0.076137961709 0.0068990189409 0.99707342474 
0.074326538603 0.0062077217278 0.9972146358 0.072729201799 0.0052361759974 0.99733797966 0.071355988956 0.0039648700991 0.99744303228 
0.07021565781 0.0023848481487 0.99752898399 0.06931051403 0.00049005462032 0.99759501427 0.068641132974 -0.0017244696129 0.99763992556 
0.068202967519 -0.0042544029308 0.99766239544 0.067990805111 -0.0070898449208 0.99766075623 0.067992874314 -0.010214799084 0.99763351333 
0.068192737397 -0.013608768991 0.9975793462 0.068574631919 -0.017238853452 0.99749703849 0.069115743951 -0.021073228437 0.99738605012 
0.069791388373 -0.025080808762 0.99724626605 0.070573558107 -0.029217554092 0.99707858639 0.071431845377 -0.033436571695 0.99688489162 
0.072335695382 -0.03769557823 0.99666774331 0.073254720182 -0.04195001111 0.99643060096 0.074157589553 -0.046154809031 0.99617788849 
0.075013879035 -0.050267874865 0.99591468445 0.075795108533 -0.054254303763 0.99564630871 0.076475653496 -0.058077538408 0.99537855811 
0.077033802032 -0.061707672312 0.99511705669 0.077448421244 -0.065127081501 0.99486692844 0.077705037734 -0.068316784029 0.99463296956 
0.077792842825 -0.071267621234 0.99441902625 0.077703562395 -0.073977652447 0.9942280741 0.07743682696 -0.076454156225 0.99406151712 
0.076994627281 -0.078710055554 0.9939197928 0.076381721318 -0.080756745456 0.99380288826 0.07560844801 -0.082616531718 0.99370914823 
0.074689308161 -0.084321362284 0.99363545383 0.073637947733 -0.085895556314 0.99357908898 0.072473399305 -0.087371784566 0.99353599716 
0.071218342383 -0.088783979919 0.99350156146 0.069892338015 -0.090161376524 0.99347168418 0.068515786297 -0.091535878489 0.99344188052 
0.067109990412 -0.092935269957 0.9934079146 0.065692563808 -0.094383048718 0.99336615967 0.064279062858 -0.095892209823 0.99331409241 
0.062885048107 -0.097476472389 0.99324911682 0.061518431388 -0.09914478284 0.99316956993 0.060185621538 -0.10089422597 0.99307504557 
0.058890735388 -0.10271511579 0.99296600459 0.057631409642 -0.10459373573 0.99284377979 0.056404317661 -0.10651174706 0.9927103307 
0.055201235813 -0.10844424387 0.99256872283 0.054009314179 -0.1103671679 0.99242233058 0.052818513765 -0.11225635764 0.99227451583 
0.051616671569 -0.11407793831 0.99213000318 0.050388537046 -0.11580554626 0.9919929792 0.04912109209 -0.11741932052 0.99186683657 
0.047799976648 -0.11889418702 0.99175568288 0.046412805669 -0.12021611243 0.99166220952 0.044948634689 -0.12137144125 0.99158892364 
0.043396624591 -0.12234898096 0.99153792657 0.041749399582 -0.12315150331 0.99150930145 0.039997818101 -0.1237803154 0.99150320628 
0.038134875423 -0.1242421015 0.9915188508 0.036154307349 -0.12455366889 0.99155395699 0.034049386882 -0.12473256287 0.99160598375 
0.031812060428 -0.12479830762 0.9916720099 0.029437284138 -0.12477882393 0.99174779627 0.026917994751 -0.1247011379 0.99182914243 
0.024241114463 -0.12459802306 0.99191113565 0.021395511177 -0.12451390222 0.9919871573 0.018367314575 -0.12448547089 0.99205141464 
0.015141689499 -0.12455087387 0.99209768121 0.011699224558 -0.12475703584 0.99211834483 0.0080175376714 -0.1251513301 0.99210526844 
0.0040732557665 -0.12577767736 0.99205009171 -0.00016249552957 -0.12668502827 0.99194298082 -0.0047204012486 -0.12791762061 0.99177356294 
-0.009627567566 -0.12951997922 0.99153007263 -0.014916179128 -0.13153530663 0.99119925883 -0.020616847349 -0.13399159706 0.9907679837 
-0.026755508264 -0.13692317796 0.99022027151 -0.03335271382 -0.14035581364 0.98953920693 -0.040418648796 -0.14429313604 0.98870917044 
-0.047955081307 -0.14872871238 0.9877145743 -0.055949469151 -0.15364827405 0.98654035132 -0.064367811942 -0.1590190432 0.98517497364 
-0.073153496538 -0.16478084565 0.98361366341 -0.08222721959 -0.17086090056 0.9818580534 -0.091484277414 -0.17716686568 0.9799196542 
-0.10079780479 -0.18358834727 0.97782162039 -0.1100083486 -0.18999447641 0.97560251238 -0.11894088377 -0.19624487429 0.97331444841 
-0.12740576775 -0.20219042413 0.97102358506 -0.13519919423 -0.20767452392 0.96880982138 -0.14212412798 -0.21254933913 0.9667592827 
-0.1479976083 -0.21668033026 0.96495924391 -0.15264507371 -0.21995667814 0.96349288592 -0.15592114175 -0.22226796216 0.96243729695 
-0.15592114175 -0.22226796216 0.96243729695 
NormalArray 3 337 double
-0.02231466941 0.94428768861 -0.328363848 -0.02231466941 0.94428768861 -0.328363848 -0.023147899032 0.94463415205 -0.32730794912 
-0.025333657932 0.94535665007 -0.32505231879 -0.027878066043 0.94649619749 -0.32150857154 -0.032477629486 0.94786783493 -0.31700437076 
-0.038968189081 0.94940643937 -0.3116229984 -0.046678022732 0.95107779984 -0.30540494567 -0.056093701499 0.95273765954 -0.2985706763 
-0.067684692236 0.95422312601 -0.29133658924 -0.080689361614 0.95549475218 -0.28375870995 -0.096093194254 0.95630879542 -0.27611516768 
-0.11359908386 0.95655873092 -0.2684970064 -0.13295683553 0.95614033523 -0.26099451955 -0.15483249916 0.9547888241 -0.25378179323 
-0.1791981139 0.95232330753 -0.24691770674 -0.20564985904 0.94863777796 -0.24040487038 -0.23484401289 0.94336587804 -0.23432692923 
-0.2661496005 0.93642913746 -0.22861509282 -0.29941799994 0.92763817146 -0.22324041785 -0.33456580671 0.91677256878 -0.21815998284 
-0.37116901914 0.90373649283 -0.21329301621 -0.40809088635 0.88880719312 -0.20852722109 -0.44540900091 0.87181632651 -0.20383109363 
-0.48216493753 0.85315211438 -0.19911916721 -0.51750515003 0.83331771173 -0.19434508231 -0.55108312026 0.81264797278 -0.18950109998 
-0.58236931091 0.79169132229 -0.18458287005 -0.61091840239 0.77105063929 -0.17960962468 -0.63660321433 0.751162454 -0.17461762571 
-0.65942186157 0.73238183005 -0.16964569988 -0.67930954338 0.71512288116 -0.16473557331 -0.69664160215 0.69936742306 -0.15992399979 
-0.71141557895 0.68540919911 -0.15524852269 -0.72391713045 0.6732183504 -0.15073500231 -0.73464040616 0.66247274916 -0.14640126449 
-0.74343281579 0.65350142812 -0.14227976616 -0.7508440007 0.64582190245 -0.13837397489 -0.75695621657 0.63943137691 -0.13470263702 
-0.76209897933 0.63401377012 -0.13126951288 -0.76627379684 0.62961675648 -0.12809062505 -0.76988354515 0.62579064741 -0.1251614658 
-0.77277231146 0.62274979578 -0.12249753669 -0.77566828186 0.6196144907 -0.12006914439 -0.77803968619 0.61705162452 -0.11790478953 
-0.78127301405 0.61332898216 -0.11593117421 -0.78526311947 0.6085500152 -0.11414338436 -0.79047688176 0.60207175712 -0.11249843859 
-0.79889236306 0.59117038075 -0.11085383697 -0.811451792 0.5741476922 -0.10908903152 -0.82857262597 0.54954910981 -0.10706623837 
-0.85280762587 0.51168589067 -0.10438727201 -0.8792761624 0.46544794445 -0.10115157558 -0.90627709725 0.41134302203 -0.097256060096 
-0.9262958842 0.36497921816 -0.093627481182 -0.93979418131 0.32952613896 -0.090550651696 -0.94625896931 0.31106024678 -0.088518279847 
-0.94888529016 0.30335929665 -0.087119706439 -0.94880214894 0.30389343816 -0.086158344995 -0.94796133404 0.30677830977 -0.085184375493 
-0.94711478782 0.3097030042 -0.084009689195 -0.94592686357 0.31366359669 -0.082689279144 -0.94565638479 0.3149304488 -0.080949455362 
-0.94586205371 0.31483620713 -0.078886868526 -0.94698946337 0.31204447552 -0.076414668549 -0.9483058058 0.30868170774 -0.073700081426 
-0.95069378298 0.30199559626 -0.070569050207 -0.95333293418 0.29434332318 -0.067218484846 -0.95701222091 0.28301478584 -0.063484171421 
-0.96125897837 0.2691524286 -0.059482322406 -0.96589548249 0.25296655929 -0.055261530819 -0.97121473183 0.23274194651 -0.050726038716 
-0.97671343792 0.20956234383 -0.045983521312 -0.98251387909 0.18163703333 -0.0409202336 -0.98819377365 0.14902648964 -0.035555183812 
-0.99331938147 0.11146334242 -0.029875235363 -0.99733567026 0.068929673258 -0.023880137696 -0.99963674705 0.020503974938 -0.017491739674 
-0.99938964176 -0.033239796503 -0.010745225756 -0.99578871388 -0.091603863143 -0.0036836886577 -0.98817020884 -0.15331878627 0.0036039051171 
-0.97612648709 -0.21692356681 0.011011238003 -0.95967865505 -0.28049709494 0.018391812757 -0.93938579372 -0.3419064804 0.025579077828 
-0.91623183663 -0.39933373845 0.032431264071 -0.89176083482 -0.45084085738 0.038796066812 -0.86708121502 -0.49616076391 0.044661649345 
-0.84334753157 -0.53503555959 0.050018906077 -0.82190290738 -0.56698156486 0.054840823714 -0.80329292366 -0.59263528052 0.059193775746 
-0.7875303088 -0.61302914681 0.063176561177 -0.77499837627 -0.62842041352 0.066822905128 -0.76559736846 -0.63947859425 0.07019826853 
-0.75907524894 -0.64685583194 0.073364154271 -0.75515850504 -0.65107859465 0.076369469361 -0.75320656155 -0.65298812133 0.07928675197 
-0.75337419049 -0.65244609535 0.082106161569 -0.75489715478 -0.65032511948 0.084897141727 -0.75733888847 -0.6471067245 0.087696608372 
-0.76058013877 -0.64290426441 0.090509443267 -0.76420498304 -0.63817975386 0.093366726695 -0.76776781899 -0.63344956237 0.096302793582 
-0.77116077379 -0.62884557535 0.099319199232 -0.77399064952 -0.62485468754 0.10244556562 -0.77597300126 -0.62184665109 0.10570072774 
-0.77689441561 -0.62010744597 0.10909547395 -0.77640886594 -0.62007949508 0.11265297451 -0.77436602811 -0.62194407245 0.11637364499 
-0.77065029277 -0.62580986904 0.12025029758 -0.76483223166 -0.63212390179 0.12430217294 -0.75665469876 -0.6410578495 0.12852431849 
-0.74620374234 -0.65232268501 0.13287245589 -0.73326544193 -0.66593068672 0.13732484171 -0.71720145117 -0.6822685798 0.14188609323 
-0.69856317969 -0.70039935671 0.14645895367 -0.6774640135 -0.71989263201 0.15098711464 -0.65410073234 -0.74026922948 0.15541460628 
-0.62866450843 -0.7611035371 0.15969452607 -0.60223649295 -0.78134214247 0.16375488682 -0.57516909181 -0.80068551017 0.16758051684 
-0.54915901003 -0.818007828 0.17113613012 -0.52425416315 -0.83350003942 0.17445703396 -0.50189927233 -0.8465041462 0.17756083717 
-0.48264649456 -0.85701494459 0.18049306369 -0.46685222607 -0.86513017181 0.18329971313 -0.4552996121 -0.87068872559 0.18601990849 
-0.4475319888 -0.87413574072 0.18868446092 -0.44348713373 -0.87562513475 0.1913107044 -0.44315750705 -0.87522154935 0.19390374804 
-0.44561382376 -0.87340336758 0.19645579039 -0.45010398064 -0.87053045339 0.19895511135 -0.45622684591 -0.86677548643 0.20138848329 
-0.46257798062 -0.8628496974 0.2037449669 -0.46826788585 -0.85923235289 0.20602172416 -0.47282118296 -0.85620383028 0.20821894717 
-0.47505269904 -0.85444756315 0.21034327885 -0.47422088788 -0.8544008287 0.21240003157 -0.47052237164 -0.85594888702 0.21438330299 
-0.4627583327 -0.8596947949 0.21628588751 -0.45195575796 -0.86497179823 0.21808205132 -0.43933996496 -0.87102892093 0.21974761453 
-0.42502401001 -0.87772239244 0.22126453109 -0.41206480571 -0.88353268994 0.22264901012 -0.40210172059 -0.88778745194 0.22393670196 
-0.40070767167 -0.88809025373 0.22523113261 -0.40968240754 -0.88364708812 0.2265571641 -0.43794445568 -0.86964058718 0.22788133506 
-0.49134714355 -0.84041209428 0.22866022024 -0.58187764509 -0.78093358265 0.22707079434 -0.71636638556 -0.66281654461 0.21792987365 
-0.8754593543 -0.44422947224 0.1903446741 -0.9828137617 -0.12499705244 0.13584125546 -0.97816896786 0.19620444099 0.06847837363 
-0.90363228714 0.42813621248 0.012168533446 -0.82033707912 0.57127529463 -0.02629856208 -0.75049036267 0.65888138087 -0.051376468235 
-0.69636229018 0.71448792269 -0.067724213864 -0.65391857646 0.75245036499 -0.07879685011 -0.6202459975 0.77963888535 -0.08636035565 
-0.59155510998 0.80101124688 -0.091888705669 -0.56784752239 0.8175634328 -0.095599292152 -0.54553653124 0.83227355817 -0.098542465267 
-0.52562421315 0.84475485015 -0.10054068677 -0.50582122612 0.85656195453 -0.1022081467 -0.4862530911 0.86766104143 -0.10354829101 
-0.46624042059 0.87843477746 -0.10474832675 -0.44582496891 0.88884266061 -0.10582448568 -0.42382447983 0.89939564747 -0.10705269545 
-0.40110869537 0.90961066093 -0.10826014973 -0.37704032576 0.91968988548 -0.10959519743 -0.35085138455 0.92980373239 -0.1112129722 
-0.32305637971 0.93960849624 -0.11300641275 -0.29436411757 0.94876798432 -0.11484371213 -0.26327720344 0.95759951236 -0.11699695757 
-0.23153697882 0.96550317116 -0.1191396404 -0.19893339954 0.97247579076 -0.12131091847 -0.16529450348 0.97847718462 -0.12353188371 
-0.1330253983 0.9831458914 -0.12541291649 -0.10072638008 0.98675046302 -0.1271916667 -0.071462948902 0.98914335997 -0.12840739998 
-0.044105565553 0.99062952385 -0.12925883166 -0.019513798366 0.99136948924 -0.12963698341 0.00045057111012 0.99160531139 -0.12930082523 
0.016171438836 0.99159969797 -0.12832974537 0.027549617068 0.9915554757 -0.12672315186 0.034793890218 0.99160702713 -0.12451862896 
0.037433650932 0.99186673532 -0.12165155625 0.036340151538 0.9923210599 -0.11822989241 0.032534806359 0.99290378238 -0.11438341359 
0.025545211485 0.99359919551 -0.11003672504 0.016765141031 0.99429240754 -0.10536383801 0.006556047925 0.9949249862 -0.1004056277 
-0.0039154288017 0.99543912955 -0.095318459774 -0.014724991008 0.99582473416 -0.090090362866 -0.025001533923 0.99608001913 -0.084849978109 
-0.033849123842 0.99624114761 -0.079735892908 -0.041834855385 0.99632975473 -0.0746784086 -0.048302803557 0.99639168306 -0.069788631565 
-0.052792195667 0.99647765627 -0.065155695244 -0.054663544914 0.99664641333 -0.060891901449 -0.055355130505 0.99684912456 -0.056812255613 
-0.052524858827 0.99719743966 -0.053276688543 -0.047713431005 0.9976046456 -0.050083925303 -0.039454172431 0.99809325679 -0.047468084321 
-0.028801724191 0.9985585468 -0.045291161259 -0.014322643614 0.9989389485 -0.04377029863 0.0040493178555 0.99907030487 -0.042920029647 
0.025911295545 0.99875249245 -0.042685636674 0.051624290753 0.99773533375 -0.043117703955 0.083266960945 0.99553343641 -0.044494833466 
0.11818960579 0.99190491032 -0.046431303689 0.15989303737 0.98589780763 -0.049393618197 0.20722664777 0.97684546847 -0.053198187709 
0.25904916854 0.96414131886 -0.05766320782 0.31751657046 0.94615434174 -0.06304910064 0.38167803514 0.92170154514 -0.069196381287 
0.45006180396 0.88976826179 -0.075873664305 0.52300736628 0.84826839436 -0.083090468438 0.59749549977 0.79675723293 -0.090426984546 
0.67261097053 0.73351378571 -0.097734377253 0.74450959348 0.65938157537 -0.10450551793 0.8087554645 0.5777325343 -0.11018038594 
0.86657875487 0.48563285333 -0.11489992765 0.91111426042 0.39494377086 -0.11785678736 0.9455739945 0.30269200914 -0.11944609046 
0.96949904735 0.21390961918 -0.11964226686 0.98414393427 0.13186969185 -0.11862167172 0.99125725815 0.061705681913 -0.11662528447 
0.9934755177 -0.0046184616745 -0.11395203178 0.99223228072 -0.056511332912 -0.11082224666 0.98916570102 -0.10005645317 -0.10742402948 
0.98552067723 -0.1339736888 -0.10392326716 0.98202800328 -0.15980312928 -0.10041892577 0.97977350319 -0.17499131077 -0.097066593607 
0.97867992867 -0.18268309885 -0.093874824171 0.97932699652 -0.1806875463 -0.090943083878 0.98215568013 -0.16601762907 -0.088364963794 
0.98626358575 -0.14098088487 -0.086072815234 0.9913606324 -0.10065281452 -0.084101768475 0.99574322119 -0.041380862055 -0.082359345004 
0.99605229458 0.037224292053 -0.080586466199 0.98656778708 0.14331078053 -0.078396566734 0.95777208742 0.27755904088 -0.075057360613 
0.89765966587 0.43515612454 -0.069615167533 0.79856239522 0.59877450313 -0.061377482379 0.66050619775 0.74913852883 -0.050229745744 
0.50769617084 0.86070679769 -0.037794265852 0.35752250242 0.93356180881 -0.025298407006 0.22612712912 0.97399898007 -0.013874736105 
0.12009514641 0.99275442218 -0.0039765636802 0.033115119824 0.99943979718 0.0048456847493 -0.031625955995 0.99942299475 0.012388562109 
-0.0839333114 0.99628389699 0.019328627583 -0.124015519 0.99194822102 0.025668616141 -0.15453597305 0.98748255101 0.031572843951 
-0.17729689269 0.98345629646 0.037141954654 -0.19376703067 0.98012934968 0.042435783565 -0.2044558273 0.97772534961 0.047444234726 
-0.21021651244 0.97626133021 0.052180772683 -0.21145679827 0.97574568757 0.05662486777 -0.2076567701 0.97631707046 0.06069302899 
-0.19903569041 0.97787728386 0.064349138679 -0.18443936182 0.98052525579 0.067471064708 -0.16465244947 0.98386063365 0.070055866528 
-0.13763123475 0.98786954146 0.07191253206 -0.10109365437 0.99220808735 0.072822966397 -0.056999663133 0.99571320373 0.072844041054 
0.00021522305092 0.99744290579 0.071467498634 0.06858988162 0.99527705362 0.068695084754 0.14845166377 0.98682487438 0.064333279391 
0.23890000487 0.96929527079 0.058253460892 0.33689296887 0.94018730608 0.050506999617 0.4317368515 0.90101841927 0.042060660907 
0.51709481141 0.85526404313 0.033710125159 0.59292371373 0.80485046142 0.025635999162 0.64487163893 0.7640252674 0.020148450922 
0.68305793305 0.73018255093 0.016288106454 0.70360078725 0.71043765852 0.014975497957 0.71143241912 0.70257979934 0.015669671124 
0.7058312193 0.70813673333 0.018564933748 0.69307124724 0.72051395976 0.022624766119 0.67371056727 0.73847621865 0.027693790732 
0.64686131774 0.76185764983 0.033813562493 0.61971478181 0.78381427119 0.039859471754 0.59119851583 0.80521445385 0.045978236126 
0.56649984469 0.82245234478 0.051478796995 0.54549627529 0.83621147399 0.056428577955 0.53046270626 0.84554079059 0.060581257154 
0.52448230209 0.84904303423 0.063594345831 0.52702151685 0.84732027733 0.06554897711 0.53719125952 0.84083257891 0.06652912849 
0.5620682418 0.82448844952 0.065559806109 0.59459229922 0.80152635679 0.063367949987 0.63871119182 0.76716677857 0.059187391323 
0.6937413675 0.71829541426 0.052674594212 0.75199237269 0.65766590211 0.044531254439 0.81563590465 0.57758183095 0.033723873017 
0.87380714475 0.48578825185 0.021699035784 0.92121373817 0.38894039588 0.0095192994973 0.95797125466 0.28685020694 -0.0028344345085 
0.98066799764 0.19522961155 -0.013254326628 0.9928997448 0.11699373823 -0.021507254403 0.99817742302 0.05370777241 -0.027519217916 
0.99949126642 0.0062359937457 -0.031278118963 0.99923253126 -0.021977188061 -0.032424553644 0.99871743223 -0.039208161448 -0.032034522466 
0.99886058435 -0.037781138009 -0.029156794216 0.99947019027 -0.021677707057 -0.024277886409 0.99983130487 0.0023459930128 -0.01821697322 
0.99924602278 0.037361277853 -0.010560344412 0.99670680464 0.081074762962 -0.0015583318511 0.99140984106 0.13051850479 0.0084526299736 
0.98319413124 0.18157342291 0.018984003325 0.97143097758 0.23539010487 0.03022175252 0.95774756829 0.28463375015 0.041270131016 
0.94122160335 0.33364985508 0.052722553072 0.92454242733 0.37570551656 0.063770407631 0.9079250158 0.41242768389 0.074669747823 
0.8912041803 0.44543820579 0.085673297117 0.87580369368 0.47290293458 0.096595572409 0.86232179758 0.49482515047 0.10746714789 
0.85040914835 0.51260860066 0.11847659236 0.83984111022 0.52710413198 0.12972333492 0.83075033203 0.53844172825 0.14118920324 
0.82351881085 0.54633105781 0.15277154007 0.8168828382 0.55281609869 0.16461102541 0.81178230156 0.55666991087 0.17643158789 
0.80710063208 0.5595937274 0.18826425564 0.80352844807 0.56073149117 0.19980547531 0.80011219715 0.5615184901 0.2109916047 
0.79773667878 0.56086865446 0.22145551195 0.7953885339 0.56030974328 0.23110619146 0.79408042305 0.55861447129 0.23955407362 
0.79267968751 0.55746886784 0.24675367151 0.789886046 0.55876788028 0.25270237494 0.79082825943 0.55571576016 0.25645790689 
0.79082825943 0.55571576016 0.25645790689 
BinormalArray 3 337 double
-0.98720220143 -0.072688162509 -0.14194451211 -0.98720220143 -0.072688162509 -0.14194451211 -0.98718752053 -0.073299627998 -0.14173201419 
-0.98714435001 -0.074986339019 -0.14114914526 -0.98709320986 -0.076808043128 -0.14052586793 -0.98697866793 -0.080408786357 -0.13931093329 
-0.98678127592 -0.085656865609 -0.13757039969 -0.98649850108 -0.091936996301 -0.13552968704 -0.98607690172 -0.099751637482 -0.133048693 
-0.9854385261 -0.10959050376 -0.1300032029 -0.98457141685 -0.12075377539 -0.12663984698 -0.98332522961 -0.13423253271 -0.12269115688 
-0.98162192469 -0.14977168265 -0.11826597163 -0.9793808903 -0.16715735423 -0.11345259206 -0.97638284689 -0.18706445024 -0.10808990593 
-0.97245569564 -0.20948576432 -0.1022038872 -0.96748436142 -0.23404115344 -0.095910108489 -0.96111845922 -0.2613832223 -0.089051212553 
-0.95325226015 -0.29089754578 -0.081784756411 -0.94368218407 -0.32243909726 -0.074141513525 -0.93217256164 -0.35592274652 -0.066131035363 
-0.9186032817 -0.39092547254 -0.057838445369 -0.90321522134 -0.42632246047 -0.049511853477 -0.88583131663 -0.46218216568 -0.041115984796 
-0.86681119356 -0.4975528388 -0.032856161132 -0.84663658775 -0.53158778526 -0.024918162961 -0.82563271323 -0.56394033949 -0.017375740093 
-0.80433644036 -0.59408398847 -0.010349172002 -0.78334329363 -0.62157680938 -0.0039439020886 -0.76308889107 -0.6462910212 0.0018056103476 
-0.74392958434 -0.66822245837 0.0068934517096 -0.72628066955 -0.68730538271 0.011300440079 -0.71013068365 -0.70390773746 0.015109907068 
-0.69577570931 -0.71802539317 0.018322038324 -0.68319081455 -0.72993776712 0.021003977152 -0.67206074672 -0.74013028208 0.023270545067 
-0.66271523816 -0.74845089989 0.025095090539 -0.65467775356 -0.75543978196 0.026604037909 -0.64794759021 -0.76117661288 0.027822371209 
-0.64221186979 -0.7659849655 0.028826149868 -0.63751906677 -0.76986490468 0.02962208702 -0.63342234713 -0.77321291738 0.030297104688 
-0.63013510208 -0.77587344366 0.030824544586 -0.62678089969 -0.77856464158 0.031349683685 -0.62402338083 -0.78075948484 0.031771795917 
-0.62013528816 -0.78382741032 0.032354523835 -0.61521774752 -0.78766304827 0.033076359111 -0.60862730545 -0.79272642505 0.034023787052 
-0.59764445992 -0.80097198811 0.035566470045 -0.58056997575 -0.81332790301 0.03789756519 -0.55594494538 -0.83020030732 0.041142039749 
-0.51807981306 -0.85409966733 0.045902783829 -0.47184075097 -0.88018491888 0.051388853964 -0.41772211778 -0.9067597487 0.05740200736 
-0.37131784068 -0.92641770986 0.06223574579 -0.33580450878 -0.93963471982 0.065741350704 -0.31726688868 -0.94593087591 0.067501846971 
-0.30948510429 -0.9484537678 0.068223313908 -0.3099279782 -0.9483120512 0.068182856173 -0.31270668093 -0.9474174449 0.067931706879 
-0.31550743969 -0.9465063497 0.067681500259 -0.31932585903 -0.94524898442 0.067345031022 -0.32042930519 -0.94488230176 0.067249507099 
-0.32015157641 -0.94497476826 0.067272992219 -0.31715578599 -0.94596691152 0.067518958194 -0.31357192658 -0.9471406438 0.067803006673 
-0.30664639147 -0.94936772267 0.068329479406 -0.29874164002 -0.95184345774 0.068901846673 -0.28714593322 -0.95534796642 0.069695595888 
-0.27300583391 -0.9594181148 0.070602377009 -0.25653436417 -0.96388066581 0.071583392535 -0.23601478052 -0.96902570442 0.072706310242 
-0.21253467727 -0.97435718334 0.073872120805 -0.18430014896 -0.97999478336 0.075124428014 -0.15137217205 -0.98551976045 0.076402011075 
-0.11348255399 -0.99050076053 0.077652774166 -0.070612806106 -0.99438565203 0.078809940009 -0.021837768656 -0.9965700682 0.079819866157 
0.032268136334 -0.99622540501 0.080583557875 0.091006264034 -0.99255004315 0.08100784989 0.1531043598 -0.98488396936 0.081010011152 
0.21709770785 -0.97282213081 0.080533763391 0.28105965791 -0.95638658124 0.079562402681 0.34285079329 -0.93613498169 0.078132129113 
0.40064756045 -0.91304757684 0.076325976758 0.4525059563 -0.88866206836 0.074283832499 0.49815888693 -0.86408138366 0.072118553648 
0.53734873551 -0.84045422455 0.069950217178 0.56959152723 -0.81911674871 0.067920866414 0.59552746534 -0.80061075336 0.066101888214 
0.61619410162 -0.78494771411 0.064512907631 0.63185120814 -0.77250788724 0.063210876592 0.64317208634 -0.76319084976 0.062204454799 
0.65081244376 -0.7567448137 0.061485364007 0.65530174512 -0.75289676693 0.061041634945 0.65748501168 -0.75100920216 0.06081642615 
0.65722451284 -0.75123492218 0.060844321234 0.65539612857 -0.75281419738 0.061046694249 0.65248334619 -0.75531324551 0.061379020047 
0.64860017677 -0.75861338786 0.061834767251 0.64420990792 -0.76230198742 0.062364048351 0.63982998855 -0.76593759408 0.062906182029 
0.63559209218 -0.76941370731 0.063444774115 0.63198340478 -0.77234171965 0.063915914816 0.62937325745 -0.77444117525 0.064266390086 
0.62804659233 -0.77550221832 0.064449881584 0.62844466835 -0.77518438662 0.06439305525 0.6307466412 -0.77334072445 0.06405309152 
0.63505850138 -0.76985847097 0.063392700701 0.64182443192 -0.76431553255 0.062315048732 0.65121238411 -0.756459695 0.060754922591 
0.66292891982 -0.7463763005 0.058716823203 0.67698168467 -0.73385487038 0.056150047618 0.69375191272 -0.71826708581 0.052921423316 
0.71229814431 -0.70015444963 0.049143669796 0.73218571701 -0.67962716109 0.044844149201 0.75293207487 -0.65687724333 0.04006966233 
0.77410913609 -0.63209124598 0.034866920971 0.79466622859 -0.60633112511 0.029464416767 0.8143053719 -0.57994290601 0.023937148115 
0.83191172284 -0.5545950918 0.018632486787 0.84767948711 -0.53033549454 0.013555455333 0.86096443857 -0.50858556536 0.0089976791438 
0.87177012702 -0.48988893172 0.0050675642094 0.88020174033 -0.47459616794 0.0018367598612 0.8861091385 -0.46347633642 -0.00052937161733 
0.88993682793 -0.45607889201 -0.0021181478629 0.89184066592 -0.45234018253 -0.0029301685691 0.89188669086 -0.45224929759 -0.0029501669914 
0.89054439978 -0.45489020636 -0.002360545841 0.8881656133 -0.45952162783 -0.0013103106882 0.88491783984 -0.46574714303 0.00012447831685 
0.88149600943 -0.47218864567 0.0016334829643 0.87836835494 -0.47797486336 0.0030104888063 0.87580838977 -0.48264121849 0.0041374667812 
0.87448457455 -0.48503033977 0.0047221168437 0.87482367752 -0.4844198989 0.0045710823405 0.87671057615 -0.48100388555 0.0037185686843 
0.88073105725 -0.47361306344 0.001863044217 0.88622717959 -0.46325028635 -0.00074722579711 0.89245991357 -0.45111062029 -0.0038093230786 
0.89928451101 -0.43730332521 -0.0072917779045 0.90522173224 -0.42481126003 -0.010440729441 0.90962355366 -0.41523454379 -0.012855514752 
0.9101763456 -0.41401172313 -0.013164840738 0.9061139609 -0.42289323083 -0.010899778895 0.89274097727 -0.45055481499 -0.0037291010127 
0.8644427914 -0.50262821823 0.01017519701 0.80622688435 -0.59057620146 0.034899301176 0.68941814132 -0.72047633921 0.07494311881 
0.47109972191 -0.87230669043 0.13094307866 0.14938017064 -0.97085577678 0.18741564852 -0.17686203521 -0.95901061944 0.22140111178 
-0.41398295307 -0.88034139884 0.23155374335 -0.56106812081 -0.79507617673 0.23033982938 -0.65138963866 -0.72434493598 0.22586711218 
-0.70879693696 -0.66985476701 0.22113682025 -0.74796270024 -0.62730646293 0.21688338022 -0.77593280775 -0.59367538677 0.21325527661 
-0.79783105689 -0.56511249285 0.21003208108 -0.81467389892 -0.54159977061 0.2073068424 -0.82957012061 -0.5195267446 0.20470802779 
-0.84211104805 -0.49989286097 0.20237616041 -0.85393107303 -0.48039669948 0.20005182741 -0.86499911529 -0.46116077943 0.1977555715 
-0.87572408045 -0.44150020925 0.19540957027 -0.88607000214 -0.42145348449 0.19302049559 -0.89658508887 -0.39983174347 0.19044620062 
-0.90676673472 -0.37750437861 0.18778853248 -0.91683773483 -0.35382915379 0.18496891068 -0.92698975814 -0.32803394979 0.18188929622 
-0.9368673965 -0.30063340726 0.17860301178 -0.94611923528 -0.27233654441 0.17518903852 -0.95509797975 -0.24164135712 0.17145641897 
-0.96316363714 -0.21029374145 0.16760772775 -0.97031843974 -0.17808244641 0.16361163706 -0.9765252821 -0.14483565 0.15943966858 
-0.98137237649 -0.11296277177 0.15539520862 -0.98515787679 -0.081060703209 0.15130472625 -0.98767294738 -0.05219945127 0.1475715633 
-0.98924629181 -0.025246309898 0.14406386767 -0.9900225644 -0.001061776459 0.14090491334 -0.99021051727 0.018490390884 0.13835185914 
-0.99008224824 0.033794465207 0.13636376292 -0.98984073382 0.044749521078 0.13495481475 -0.98962655791 0.051562630188 0.13409165165 
-0.98954658454 0.053758873361 0.13381905903 -0.98960428755 0.052206861747 0.1340067075 -0.98975276568 0.047927025313 0.13450822679 
-0.98997160087 0.040441798768 0.13535394484 -0.99016944286 0.031145654136 0.13636136792 -0.99029541405 0.020399029493 0.13747317016 
-0.99031002179 0.0093723585785 0.13855764013 -0.99020344107 -0.0020109238673 0.13961769761 -0.98998676968 -0.012874133497 0.14057187677 
-0.98970792288 -0.022313811246 0.14135176411 -0.98938184515 -0.030898441805 0.14201707918 -0.98906222098 -0.037964537635 0.14252935459 
-0.98880456287 -0.04304377194 0.14287326602 -0.98867280725 -0.045487672492 0.14302780102 -0.98860360596 -0.046741621432 0.14310182077 
-0.98872811316 -0.044440126823 0.14297479976 -0.98894455434 -0.040132503367 0.14275170965 -0.98928509813 -0.032335010768 0.14237078946 
-0.98963464729 -0.022108416518 0.14189602812 -0.98993908266 -0.0080037091313 0.14126766531 -0.99003180134 0.010047920879 0.14048512955 
-0.98970784749 0.031641324836 0.13956075086 -0.98871737041 0.057141570786 0.13846588868 -0.98658522623 0.088645353515 0.13708243027 
-0.98305429224 0.12347734761 0.13549023264 -0.97719227363 0.16516813357 0.13347189966 -0.96832880523 0.21255391051 0.13099679417 
-0.9558545666 0.26448001107 0.12803269602 -0.93815634489 0.32311750438 0.12432920374 -0.91405457209 0.387503283 0.11977247138 
-0.88253587981 0.45614829761 0.11427664434 -0.84152985863 0.5293903866 0.10757934566 -0.79058579205 0.60418184758 0.099691526537 
-0.72799283016 0.67959602661 0.09041946604 -0.65457791421 0.7517558946 0.079942661729 -0.57367639424 0.81619078451 0.068760439036 
-0.48237905381 0.87413893934 0.056493921514 -0.39244278373 0.91868877189 0.044716908391 -0.30092287281 0.95307672278 0.033017951342 
-0.21281348929 0.97684477965 0.022015795531 -0.13136712464 0.99126017717 0.012080551684 -0.061686139583 0.99808843722 0.0037804326988 
0.0042041163187 0.99998365015 -0.0038761882546 0.05577727195 0.99839596747 -0.0097153520143 0.099070994135 0.99497493626 -0.014484969157 
0.13280713628 0.99097668475 -0.018096266002 0.15851131947 0.98713875984 -0.020766088446 0.17363756287 0.98455736498 -0.022288827557 
0.18130899523 0.98315632385 -0.023036734236 0.17933950425 0.98352182519 -0.022850855522 0.1647485753 0.98610086268 -0.021517331624 
0.13982802014 0.98998750737 -0.019309584157 0.099666558667 0.99489456493 -0.015855023152 0.040618542194 0.99911515251 -0.010910823279 
-0.037709426301 0.99927858735 -0.0045060000076 -0.14344325439 0.98965058736 0.0039683380069 -0.27726456561 0.96068380978 0.014525091854 
-0.43437620784 0.9003336112 0.026771227077 -0.59750193652 0.80090054118 0.039366978424 -0.74742216021 0.66240149791 0.050836699316 
-0.858670111 0.50909539471 0.059224315708 -0.93132900358 0.3584161115 0.064530443293 -0.97167634341 0.22654582986 0.06724634287 
-0.99041683701 0.1200856249 0.068219730753 -0.99713621901 0.032708193479 0.068187497534 -0.99718442023 -0.032393447538 0.067630589282 
-0.99413527742 -0.085048209936 0.066797097115 -0.98990791031 -0.12546532883 0.065884598781 -0.98556666288 -0.15631420436 0.06499401929 
-0.98167966973 -0.1794008528 0.064190030874 -0.97850585625 -0.19619580126 0.063509816912 -0.97626600174 -0.20720795448 0.063004424067 
-0.97497516126 -0.21329054953 0.062694309206 -0.97463827569 -0.21485006342 0.062607362275 -0.9753867529 -0.2113639315 0.062816962016 
-0.97711704104 -0.20304964532 0.063349267103 -0.97991694716 -0.18875034645 0.06431238902 -0.98338245119 -0.16924908592 0.065678775949 
-0.98748338546 -0.142498885 0.067606443556 -0.99185775951 -0.10621475719 0.070261015244 -0.99534565128 -0.062354093165 0.073477898393 
-0.99696952174 -0.0053456379916 0.077609257633 -0.99461428933 0.062856133101 0.08241069106 -0.98588317835 0.14258832109 0.08776633373 
-0.96798688785 0.23296223983 0.093434360754 -0.9384396412 0.33094739393 0.099019504533 -0.89882515188 0.42584071767 0.10379320559 
-0.85266315932 0.51128595168 0.1074812186 -0.80188460663 0.58722882095 0.11019704845 -0.76084701202 0.6392429601 0.11171509419 
-0.72688362741 0.67745911111 0.11264699273 -0.70714990863 0.69796078653 0.11309176447 -0.69940653418 0.70569314047 0.11325939886 
-0.70519397264 0.6999324271 0.11311966429 -0.7178695796 0.68698724436 0.11274658657 -0.73619445368 0.66742606975 0.11207215435 
-0.76001046462 0.64036806505 0.11096321434 -0.78241234129 0.61302977115 0.10966051193 -0.80427731899 0.58433726433 0.10811084903 
-0.82195486935 0.55948346317 0.10662292055 -0.83612943631 0.53834052533 0.10524753926 -0.84582969339 0.52317876408 0.10419266094 
-0.84963000086 0.51707424225 0.10374531142 -0.84813401934 0.51948766672 0.1039290593 -0.84180505778 0.52952722726 0.1047146613 
-0.82547865556 0.55426078754 0.10667693572 -0.80244687865 0.58663836801 0.10924482654 -0.76787702905 0.63060910001 0.11268110413 
-0.71863626213 0.68550409929 0.11681631992 -0.6575357959 0.74365559738 0.12092571933 -0.57681686114 0.80725968672 0.12495642001 
-0.48433233091 0.86547125962 0.12799098411 -0.38681033627 0.91299456498 0.12968688472 -0.28406205271 0.94994494172 0.13005136644 
-0.1919270947 0.97285625813 0.12928530982 -0.11332679664 0.98529125074 0.12789913362 -0.049824405917 0.99073571801 0.12633394489 
-0.0022806041394 0.99216253447 0.12493319834 0.025841725498 0.99194115163 0.12403611135 0.042882538548 0.99141935945 0.12348579516 
0.041108410427 0.99148772976 0.12354019723 0.024526941374 0.99198103065 0.12398412792 -5.9597197659e-05 0.99221865728 0.12450756039 
-0.035750737 0.99150956361 0.12502267822 -0.080241346775 0.98886933658 0.12529469841 -0.13054595411 0.98351515722 0.12512269732 
-0.1825176947 0.97530050137 0.12440346922 -0.23732220585 0.96360905047 0.12302751102 -0.28757140548 0.95006352978 0.12116920457 
-0.33765248902 0.93375711467 0.11869476598 -0.38078708968 0.91735697955 0.11600588088 -0.41862526356 0.90108249205 0.11315136428 
-0.45281260119 0.884780678 0.11010858298 -0.481513745 0.86986381695 0.10715154378 -0.50474493582 0.85692914605 0.10442695248 
-0.52393185682 0.84564306456 0.10189807051 -0.53994126206 0.83579509566 0.099548940688 -0.55291108745 0.82752247654 0.097446807028 
-0.56255251677 0.82120012675 0.095734098914 -0.57091252659 0.8155985003 0.094116806643 -0.57674961799 0.81162214857 0.092894381425 
-0.58174596883 0.80817707156 0.091768451829 -0.58501298822 0.80590464309 0.090980821419 -0.5879400804 0.80385628976 0.090230412085 
-0.58939287549 0.80283583928 0.089836815901 -0.59082845059 0.80182559432 0.089428509294 -0.59096278561 0.80173103401 0.089388674526 
-0.59140140425 0.80142254515 0.089254037342 -0.59395245248 0.79962335866 0.088447546518 -0.59184395042 0.801109822 0.08912794983 
-0.59184395042 0.801109822 0.08912794983 
