# vtk DataFile Version 4.1
vtk output
ASCII
DATASET POLYDATA
POINTS 158 float
-6.30628 -5.81711 151.714 -6.39576 -5.97712 148.641 -6.48533 -6.13719 145.569 
-6.57526 -6.29755 142.502 -6.66584 -6.4584 139.443 -6.75733 -6.61992 136.395 
-6.85001 -6.78226 133.362 -6.94414 -6.94555 130.347 -7.04 -7.10985 127.352 
-7.13786 -7.27519 124.381 -7.23796 -7.44152 121.437 -7.34058 -7.60872 118.523 
-7.44595 -7.77662 115.64 -7.55433 -7.94497 112.79 -7.66595 -8.11345 109.976 
-7.78103 -8.28168 107.199 -7.89978 -8.44919 104.46 -8.02241 -8.61549 101.76 
-8.14909 -8.78001 99.0993 -8.27998 -8.94213 96.4771 -8.41523 -9.10121 93.893 
-8.55496 -9.25655 91.346 -8.69925 -9.40745 88.8343 -8.84818 -9.55318 86.3558 
-9.00178 -9.69298 83.9079 -9.16008 -9.82611 81.4874 -9.32307 -9.95181 79.091 
-9.49071 -10.0693 76.7146 -9.66295 -10.1779 74.3541 -9.83974 -10.2769 72.0051 
-10.021 -10.3655 69.6629 -10.2066 -10.443 67.3231 -10.3965 -10.5088 64.9808 
-10.5906 -10.5623 62.6316 -10.7888 -10.6028 60.2713 -10.9911 -10.6298 57.8957 
-11.1973 -10.6427 55.5014 -11.4075 -10.6412 53.0853 -11.6216 -10.6247 50.6449 
-11.8396 -10.593 48.1781 -12.0616 -10.5458 45.6838 -12.2875 -10.4828 43.1613 
-12.5175 -10.404 40.6109 -12.7516 -10.3092 38.0332 -12.9898 -10.1986 35.4298 
-13.2324 -10.0723 32.8027 -13.4792 -9.93046 30.1546 -13.7305 -9.77345 27.4886 
-13.9862 -9.60168 24.8083 -14.2465 -9.41565 22.1176 -14.5113 -9.21595 19.4206 
-14.7806 -9.00324 16.7216 -15.0545 -8.77826 14.0251 -15.3327 -8.54182 11.3353 
-15.6153 -8.29478 8.65657 -15.9019 -8.03803 5.99312 -16.1925 -7.77253 3.34888 
-16.4867 -7.49924 0.727593 -16.7843 -7.21913 -1.86728 -17.0848 -6.93321 -4.43254 
-17.3878 -6.64246 -6.9653 -17.693 -6.34783 -9.46293 -17.9998 -6.05029 -11.9231 
-18.3076 -5.75076 -14.3438 -18.6159 -5.45011 -16.7231 -18.924 -5.1492 -19.0596 
-19.2315 -4.84883 -21.3518 -19.5375 -4.54974 -23.5986 -19.8415 -4.25265 -25.7992 
-20.1428 -3.95818 -27.9526 -20.4408 -3.66694 -30.0585 -20.7348 -3.37946 -32.1165 
-21.0242 -3.09622 -34.1264 -21.3085 -2.81764 -36.0883 -21.587 -2.54409 -38.0026 
-21.8592 -2.27588 -39.8698 -22.1247 -2.01326 -41.6907 -22.3831 -1.75645 -43.4664 
-22.6338 -1.50559 -45.1984 -22.8766 -1.26079 -46.8881 -23.1113 -1.02211 -48.5376 
-23.3374 -0.789586 -50.1488 -23.5549 -0.563187 -51.7242 -23.7636 -0.34287 -53.2663 
-23.9634 -0.128559 -54.7777 -24.1542 0.0798418 -56.2613 -24.336 0.282445 -57.72 
-24.5089 0.479374 -59.1565 -24.6729 0.670755 -60.5738 -24.8281 0.856712 -61.9746 
-24.9746 1.03736 -63.3617 -25.1125 1.21282 -64.7376 -25.2421 1.38317 -66.1046 
-25.3635 1.54848 -67.4649 -25.477 1.70882 -68.8205 -25.5827 1.8642 -70.1731 
-25.681 2.01464 -71.5242 -25.7721 2.16014 -72.8751 -25.8562 2.30065 -74.227 
-25.9337 2.43614 -75.5808 -26.0048 2.56653 -76.9373 -26.0697 2.69178 -78.2971 
-26.1289 2.81179 -79.6608 -26.1826 2.92649 -81.0289 -26.231 3.03581 -82.4017 
-26.2744 3.13968 -83.7799 -26.3131 3.23804 -85.1636 -26.3473 3.33084 -86.5533 
-26.3771 3.41805 -87.9495 -26.4028 3.49964 -89.3525 -26.4244 3.57561 -90.7629 
-26.4421 3.64597 -92.1811 -26.4559 3.71075 -93.6076 -26.4658 3.76999 -95.0431 
-26.4717 3.82375 -96.4879 -26.4735 3.8721 -97.9428 -26.471 3.91513 -99.4082 
-26.464 3.95293 -100.885 -26.4523 3.98561 -102.373 -26.4354 4.01329 -103.873 
-26.4129 4.03609 -105.386 -26.3844 4.05417 -106.913 -26.3493 4.06766 -108.453 
-26.3069 4.07673 -110.007 -26.2566 4.08155 -111.575 -26.1977 4.0823 -113.159 
-26.1294 4.07918 -114.758 -26.0509 4.07239 -116.372 -25.9612 4.06217 -118.001 
-25.8595 4.04873 -119.646 -25.7448 4.03233 -121.307 -25.6163 4.01323 -122.984 
-25.4728 3.9917 -124.676 -25.3136 3.968 -126.384 -25.1376 3.94243 -128.107 
-24.9441 3.91527 -129.844 -24.7322 3.8868 -131.596 -24.5011 3.85731 -133.361 
-24.2502 3.82706 -135.14 -23.979 3.79632 -136.931 -23.687 3.76535 -138.734 
-23.374 3.73435 -140.549 -23.0398 3.70355 -142.374 -22.6844 3.67313 -144.209 
-22.3082 3.64323 -146.053 -21.9113 3.61399 -147.906 -21.4944 3.58551 -149.768 
-21.0583 3.55784 -151.636 -20.6038 3.53104 -153.512 -20.1321 3.5051 -155.394 
-19.6443 3.48002 -157.282 -19.142 3.45576 -159.175 -18.6266 3.43225 -161.072 
-18.0999 3.40942 -162.973 -17.5637 3.38716 -164.878 -17.02 3.36538 -166.785 
-16.4706 3.34394 -168.694 -15.9177 3.32273 -170.605 
LINES 1 159
158 157 156 155 154 153 152 151 150 149 148 147 146 145 144 143 142 141 140 139 138 137 136 135 134 133 132 131 130 129 128 127 126 125 124 123 122 121 120 119 118 117 116 115 114 113 112 111 110 109 108 107 106 105 104 103 102 101 100 99 98 97 96 95 94 93 92 91 90 89 88 87 86 85 84 83 82 81 80 79 78 77 76 75 74 73 72 71 70 69 68 67 66 65 64 63 62 61 60 59 58 57 56 55 54 53 52 51 50 49 48 47 46 45 44 43 42 41 40 39 38 37 36 35 34 33 32 31 30 29 28 27 26 25 24 23 22 21 20 19 18 17 16 15 14 13 12 11 10 9 8 7 6 5 4 3 2 1 0 

CELL_DATA 1
FIELD FieldData 2
LengthArray 1 1 double
325.37566317 
TortuosityArray 1 1 double
0.0086314200146 
POINT_DATA 158
FIELD FieldData 8
RadiusArray 1 158 double
68.312736464 67.700648321 67.031188213 67.011838354 66.882345091 65.789140272 65.760277598 65.35547448 64.904997376 
64.826948935 64.160013574 63.690621659 63.573748824 62.868234021 62.592146139 62.481405333 62.3836307 62.152391566 
61.956717901 61.835262884 61.833545659 61.312515689 61.239569758 61.220756782 61.184720444 61.105248714 60.982743161 
60.964996644 60.90487095 60.864482152 60.855615438 60.777199151 60.73763125 60.69556323 60.664451879 60.56111005 
60.419758908 60.404881807 60.378651969 59.954911606 59.947774628 59.794762124 59.367517249 58.997635445 58.751352329 
58.335680887 57.741322766 56.965122866 56.727272394 56.471424152 56.43848123 56.123924707 55.837736321 55.800126835 
54.652693341 54.547054942 53.793555325 52.885412743 52.874005015 52.798370829 52.567427219 52.398253262 51.892278789 
51.892257736 51.887015353 51.186647839 51.131721558 51.013549159 50.679194844 50.61507134 50.420408871 50.397611633 
50.192994067 50.187423904 50.120514757 50.117737283 50.10618205 50.106164589 50.092609211 50.111352418 50.118086103 
50.136348363 50.162245935 50.19845389 50.246753933 50.276742445 50.277037046 50.301255128 50.335276901 50.396087188 
50.577363256 50.618796729 50.650803616 50.713092319 50.759223322 50.824383628 50.834624022 50.879728318 51.001803105 
51.094307021 51.154584416 51.194914275 51.267417098 51.311572024 51.393440664 51.519909643 51.551245218 51.554829725 
51.588432122 51.816701223 52.003020463 52.14732796 52.156397861 52.165057348 52.281655753 52.372544725 52.632301864 
52.70214253 52.719206275 53.005362192 53.019799215 53.121247146 53.310648294 53.333198048 53.349665907 53.448105078 
53.469425804 53.480437833 53.723499435 53.761122972 54.033831433 54.058898529 54.146218763 54.193039605 54.318659749 
54.412036474 54.376076712 54.342510898 54.35639627 54.432032577 54.470076968 54.547357135 54.548048426 53.729664527 
53.724193515 53.726386647 53.609309352 53.602377986 53.518150009 53.02377986 52.020628987 51.536742139 50.683872786 
50.081404885 49.776069804 49.771368909 49.610120502 49.52161011 
EdgeArray 2 158 int
16718 16718 16715 16720 12034 13613 11954 12034 11954 
12851 15745 15745 2490 3306 1997 12538 11173 13997 
13997 11019 11272 14542 13964 13686 14261 18256 18255 
18255 15203 12860 16393 15218 17147 15218 18243 16396 
11801 20404 15036 16744 18297 15036 13763 13763 18261 
18264 18293 17542 20180 21120 19050 16812 18292 19793 
19793 19406 19406 19406 20716 20716 21714 21714 20717 
20717 21415 21415 18193 18193 22572 22572 21757 19505 
18169 18169 16418 16418 22970 22970 22973 22973 22980 
22980 15188 15188 22624 22624 14558 22626 22343 22343 
22607 22607 22611 22611 17812 17812 21753 21753 22046 
16666 23833 16666 23837 20658 23854 23854 22303 22303 
11955 11955 23660 19207 23775 23775 17784 24638 24636 
24638 24426 24426 24001 21114 23671 23671 24183 24183 
22921 24183 22921 22921 25003 25003 25365 25365 20862 
20862 25373 25373 20811 20811 25973 25973 25599 25599 
25363 25363 23970 23970 24569 24569 26295 26295 26291 
26291 26649 26649 25984 25984 22182 24420 22182 22182 
25776 25776 25153 25153 26602 26602 26453 26453 24920 
18024 24920 23460 23460 24607 24607 24607 26112 26112 
6778 6778 27306 25753 27305 27305 21583 21583 27136 
27136 27183 27183 4935 4935 24399 24399 26805 26805 
27318 27317 27278 27278 26609 26554 26891 26891 27040 
27040 28066 26821 28066 28066 28067 28067 17342 26871 
26867 25951 28250 25951 28250 28250 28249 28222 28222 
28222 13616 26468 20786 13616 20786 28833 28872 28872 
28870 28869 28027 28869 15749 15749 29052 29053 29053 
29053 28617 29057 28621 29056 29051 28821 28822 29894 
29900 29894 29900 29900 29233 29233 29538 29538 29455 
29455 29079 29079 29891 29901 29891 30333 30368 30368 
30874 30874 30864 30875 30367 30367 31098 31098 31306 
31306 31314 31303 31492 31492 31445 31801 32569 31886 
32558 31886 32558 32558 32168 31890 32853 32160 32853 
32862 32862 32862 33236 33236 33228 33228 32863 32906 
32906 33582 32909 33833 33833 33836 32899 32899 35224 
35224 
EdgePCoordArray 1 158 double
0 0.908 0.012 0.852 0.1 0 0.084 0.368 0.34 
0.772 0.78 0.776 0.104 0 0.436 0.708 0.544 0.532 
0.892 0.004 0.996 0 0.584 0.136 0.556 0.708 0.984 
0.248 0 0 0 0 0 0 0 0.212 
0 0 0 0 0 0 0 0.348 0 
0 0 0 0 0.852 0.868 0.144 0 0 
0 0.952 0 0.84 0.788 0 0.788 0 0 
0.996 0 0 0 0 0 0 0 0 
0 0 0 0 0 0 0 0.344 0 
0 0 0 0 0.016 0.004 0.124 0 0 
0 0.32 0 0 0 0 0 0 0 
0.016 0 0.996 0 0 0.864 0 0 0.268 
0.716 0.452 0 0.844 0 0.964 0.624 0.172 0 
0.804 0.968 0 0.048 0 0.884 0.844 0.384 0.808 
0.436 0 0 0 0 0 0.54 0.5 0 
0 0.58 0 0 0 0.136 0 0.004 0.968 
0.096 0 0.016 0.024 0.176 0 0 0 0.32 
0.964 0.968 0.144 0 0 
CurvatureArray 1 158 double
0 1.8957534595e-05 7.6012520025e-05 0.00013321965935 0.00018997921905 0.00024592660555 0.00030083479627 0.00035422922268 0.00040577073699 
0.00045539471835 0.00050291279807 0.00054872027728 0.00059286493566 0.00063579750975 0.0006784557773 0.00072166290553 0.0007668594732 0.00081539492478 
0.00086889673709 0.00092951032776 0.00099870510642 0.0010776853702 0.001167969376 0.0012693095313 0.0013817994638 0.0015038012947 0.0016330319901 
0.0017662952321 0.0019002934259 0.0020299353386 0.0021518443592 0.0022607235283 0.0023532269861 0.0024268496363 0.0024798415481 0.0025109526073 
0.0025209029119 0.00251170681 0.0024855063868 0.0024448000921 0.0023935002324 0.0023339186228 0.0022698162699 0.0022038470156 0.0021379328236 
0.0020744341618 0.0020148231445 0.0019595442241 0.0019094622904 0.0018650711083 0.0018254141558 0.0017907991098 0.0017598899511 0.0017323452967 
0.0017069942602 0.0016826612632 0.0016584146882 0.0016335079094 0.0016063669953 0.0015761347198 0.001542818307 0.0015049693234 0.0014617960566 
0.0014132336697 0.0013589782618 0.0012985410933 0.0012304613129 0.0011565095504 0.0010744673529 0.00098371433686 0.00088455589487 0.00077620152053 
0.00065814959397 0.00053187286714 0.00040370724946 0.00029672339985 0.00027917792957 0.00039681629615 0.00059660229156 0.00083998341963 0.0011154427953 
0.0014159169403 0.0017362957911 0.0020700374571 0.0024125699131 0.0027533534838 0.0030862524712 0.0034033881189 0.0036950687695 0.0039540049723 
0.0041771019754 0.0043585366275 0.0044981673222 0.0045960833583 0.0046538815134 0.0046785664346 0.0046692720208 0.0046348574022 0.0045817915272 
0.0045128402685 0.0044327608076 0.0043489795326 0.0042592286837 0.0041714517036 0.0040835787505 0.0039977035869 0.0039160191051 0.003835531484 
0.0037586016329 0.0036839250127 0.0036118995444 0.0035432585493 0.0034768278944 0.0034169121169 0.0033625980534 0.0033161703364 0.0032813018299 
0.0032599150857 0.0032545204266 0.003267951282 0.0033014949233 0.0033577880274 0.0034343355463 0.0035346607703 0.003652435051 0.0037909730705 
0.003943049568 0.00410784661 0.0042798964793 0.0044578604095 0.004636037233 0.0048121694868 0.0049794847428 0.0051376461274 0.0052784828064 
0.0054017293139 0.005503204914 0.0055774942358 0.0056226838933 0.0056351988999 0.0056140275027 0.0055571770728 0.0054585509947 0.0053233592765 
0.0051488346662 0.0049357639769 0.0046839021507 0.0043978195309 0.0040819256644 0.0037340238023 0.0033614877221 0.0029657588293 0.0025534043276 
0.0021240152456 0.0016824231762 0.0012312945183 0.00077418120104 0 
TorsionArray 1 158 double
0 0 0.0011256233758 0.0023925374781 0.0040064853308 0.0054965791253 0.0072538204089 0.0091816929016 0.011235900483 
0.013484509548 0.015924589605 0.018631758664 0.021576271638 0.024725694355 0.027977402145 0.031400500034 0.034862830204 0.037938025027 
0.040763520867 0.043010681496 0.044543474868 0.045295000975 0.045164386531 0.044237390609 0.04265025416 0.040602847982 0.038037101804 
0.035286877454 0.03237459435 0.029329009817 0.026351434721 0.023379805401 0.020405494024 0.017530695655 0.014722684731 0.011996468084 
0.0093761983028 0.0068110587756 0.0043725499527 0.0020405621883 -0.00022486554357 -0.0023405738841 -0.0043229578835 -0.0061528514532 -0.0078268819172 
-0.0093351353861 -0.010619964282 -0.011694237492 -0.012589576707 -0.013251883406 -0.013718614766 -0.013962695355 -0.014053107809 -0.014012641441 
-0.013806623382 -0.013514598245 -0.013143776372 -0.012664249017 -0.012062308118 -0.011493625622 -0.010900066202 -0.010100956144 -0.0091869002259 
-0.0082703180276 -0.0071929672068 -0.0057085348276 -0.0040464947781 -0.0019851484185 0.00098662678499 0.0050534464035 0.010806772581 0.019904374315 
0.035979763836 0.06805816918 0.14036527476 0.30032163389 0.38922852274 0.21970730858 0.11008173312 0.06307177622 0.040873646527 
0.029123960772 0.022355935502 0.018252827876 0.015768143907 0.014155297496 0.01312846438 0.012669130608 0.012630245709 0.012760938558 
0.013209537585 0.013884086536 0.014696319303 0.015705429829 0.016763829821 0.018064479944 0.01935640384 0.020550479958 0.02172454448 
0.022722554397 0.023485162221 0.024032178589 0.023954565136 0.023440887598 0.022661743452 0.020946583842 0.018933982005 0.016286180905 
0.012916728627 0.0092794099351 0.0049917651093 0.00047061069613 -0.0045016207168 -0.0097127190988 -0.01469752477 -0.019896816193 -0.024782032612 
-0.029073306374 -0.032777618186 -0.035576148513 -0.037456512943 -0.038165883807 -0.03802635497 -0.036910325485 -0.035189652933 -0.033055861631 
-0.030491877076 -0.027871912127 -0.025315525836 -0.022784009292 -0.020406478457 -0.018219155505 -0.016197633007 -0.014365226513 -0.012716825844 
-0.01122394605 -0.0099043481298 -0.008723060679 -0.007657462627 -0.0067150806423 -0.0058726879958 -0.0051243152118 -0.0044683886075 -0.0038748042247 
-0.0033448565589 -0.0028888331019 -0.0024802433054 -0.0020982987245 -0.0017833071332 -0.0014992691729 -0.0012445996612 -0.0010179295825 -0.00081819548298 
-0.00066811169784 -0.00052320890932 -0.00039645001798 0 0 
TangentArray 3 158 double
0.029088057117 0.052001795741 0.9982232707 0.029088057117 0.052001795741 0.9982232707 0.02918922284 0.052106664507 0.99821484901 
0.029412314072 0.052336841632 0.99819625865 0.029758362454 0.052689200838 0.9981674649 0.030228834177 0.053157253219 0.99812851077 
0.030825607198 0.053731859451 0.99807949043 0.031551005633 0.054400759403 0.99802058667 0.032407571519 0.05514829805 0.99795211034 
0.033397920606 0.055956060078 0.99787449022 0.034524705373 0.056802769289 0.99778829925 0.035790512199 0.057664716443 0.99769425162 
0.037197748128 0.058515554927 0.99759323242 0.038747826839 0.059326303058 0.99748633859 0.04044131822 0.060065969834 0.9973748438 
0.04227732413 0.060701935547 0.99726019819 0.044253236391 0.061199552706 0.9971440547 0.046364269462 0.061522366514 0.99702826085 
0.048602385862 0.061634066688 0.99691476562 0.050956764469 0.061497490728 0.9968056314 0.053413352553 0.061075641471 0.99670295464 
0.055953534844 0.060332863294 0.99660882373 0.058555217588 0.059235301637 0.99652519563 0.061192538849 0.057752787778 0.99645375642 
0.063836516832 0.055859855618 0.99639579267 0.06645592639 0.053536855795 0.9963520537 0.069017470998 0.050771104512 0.99632268048 
0.07148861199 0.047559316608 0.99630692548 0.073838383886 0.043906750263 0.99630321205 0.076038855519 0.039828536063 0.99630907863 
0.078067850343 0.035349545725 0.99632114319 0.079908606043 0.03050302787 0.99633537525 0.081551558449 0.025330705974 0.99634717777 
0.082996007616 0.019879617917 0.99635157626 0.084248828133 0.014199973354 0.99634356309 0.085324209079 0.0083442529053 0.99631829893 
0.086242750262 0.002364836213 0.99627134636 0.087030054594 -0.0036892095151 0.99619885531 0.087715908894 -0.0097731629663 0.9960975879 
0.088331611914 -0.015846768028 0.99596506278 0.088909113188 -0.021875986262 0.99579948324 0.089480287401 -0.02783243876 0.99559963515 
0.090074827507 -0.033693281045 0.99536490206 0.090719955702 -0.039441699014 0.99509509195 0.091439660905 -0.045064776458 0.99479040724 
0.092254573555 -0.050553428748 0.99445132837 0.093181981339 -0.05590215989 0.99407850136 0.094234952117 -0.061107088649 0.99367283223 
0.09542275696 -0.066165539178 0.99323542973 0.096751709028 -0.0710764186 0.99276747001 0.098224263889 -0.075838422211 0.99227039042 
0.099839629702 -0.080450101119 0.99174584928 0.10159354798 -0.084909937197 0.99119576955 0.10347893562 -0.089215615265 0.99062237198 
0.10548634101 -0.093364537697 0.99002812837 0.10760312007 -0.097353345689 0.98941593611 0.10981449468 -0.1011781592 0.98878903557 
0.11210397368 -0.10483530891 0.9881509283 0.1144527787 -0.10832101483 0.98750550337 0.11683978753 -0.11163159785 0.98685705673 
0.11924426682 -0.11476422596 0.98620990528 0.12164516338 -0.11771664928 0.98556848809 0.12401927062 -0.12048746476 0.98493755708 
0.12634347012 -0.12307672524 0.98432182098 0.12859620421 -0.1254854036 0.98372578992 0.13075640395 -0.12771559268 0.9831538487 
0.13280173877 -0.12977032337 0.98261048303 0.13471222518 -0.13165351291 0.98209977544 0.1364691928 -0.13336973123 0.98162552647 
0.1380522015 -0.13492316941 0.98119178962 0.1394420494 -0.13631826364 0.98080234801 0.1406207797 -0.13755874178 0.98046080435 
0.14156985635 -0.13864687292 0.98017091387 0.14226993099 -0.13958373894 0.97993655231 0.14270079057 -0.14036933428 0.97976167223 
0.14284215698 -0.14100122276 0.97965033219 0.14267446461 -0.14147504942 0.97960645544 0.1421766386 -0.14178494624 0.97963402986 
0.14132797809 -0.14192278614 0.97973686538 0.14011100991 -0.14187968619 0.97991788408 0.13850950234 -0.14164575201 0.98017937068 
0.13650984818 -0.14121035033 0.98052266588 0.13410379632 -0.14056335937 0.98094755916 0.13128965022 -0.13969593637 0.98145202283 
0.12807189101 -0.13860070547 0.98203229844 0.12446360079 -0.13727234007 0.98268261241 0.12048663042 -0.13570892011 0.98339517026 
0.11616899644 -0.13391143743 0.98416080556 0.11154742795 -0.13188371941 0.98496896188 0.10666675396 -0.12963272853 0.98580807427 
0.10157519747 -0.12716826923 0.98666646369 0.096324358455 -0.12450175527 0.98753274928 0.090967842221 -0.12164616845 0.98839620668 
0.085557812864 -0.11861536556 0.98924731777 0.080144945085 -0.11542343409 0.99007788514 0.07477418066 -0.1120838101 0.9908814467 
0.069487666364 -0.10860882213 0.99165295743 0.064322706381 -0.10501111281 0.99238866158 0.059307540102 -0.10130120867 0.99308644176 
0.054465355362 -0.097488824967 0.99374516556 0.049814436162 -0.093584220797 0.99436437766 0.045365375593 -0.089595850324 0.99494450413 
0.04112515799 -0.085532464044 0.99548627262 0.037094180009 -0.081404592254 0.99599061952 0.033267659181 -0.077222190301 0.99645872778 
0.02963902204 -0.072996100305 0.99689171815 0.026194101871 -0.068738513159 0.99729077296 0.022917308376 -0.064461845572 0.99765698887 
0.019789251019 -0.060180036496 0.99799135705 0.01678583332 -0.055907629965 0.99829483256 0.013881797814 -0.051658959884 0.99856829889 
0.01104781011 -0.047448760616 0.99881257552 0.0082539072377 -0.043291733475 0.99902837739 0.0054668878742 -0.039201943291 0.99921635334 
0.002651805562 -0.035192463961 0.99937703516 -0.00022457160631 -0.031275676332 0.99951077115 -0.0031982944536 -0.027463287853 0.99961769629 
-0.0063054960179 -0.023765478164 0.99969767568 -0.0095809821956 -0.020191380824 0.99975022527 -0.013059508682 -0.016749462166 0.99977442693 
-0.016774447534 -0.013447257165 0.99976886788 -0.0207584029 -0.010291674258 0.99973154904 -0.025040671979 -0.0072889707971 0.99965985998 
-0.02964935998 -0.00444520612 0.99955047676 -0.034608958626 -0.0017657045719 0.99939937076 -0.039941142584 0.00074446437489 0.99920175685 
-0.045665173066 0.0030801869749 0.99895205311 -0.051794110275 0.005237606657 0.99864404951 -0.058337123235 0.0072130676013 0.99827088093 
-0.065299098614 0.0090032489279 0.99782511956 -0.072679889954 0.010606452688 0.99729892046 -0.080473544058 0.012021981299 0.99668424321 
-0.088667234466 0.013249965117 0.99597317231 -0.097242236917 0.01429242755 0.99515811501 -0.10617270873 0.015152771071 0.9942322412 
-0.11542520448 0.015836013372 0.99318993292 -0.12496204837 0.016349231814 0.99202680865 -0.13473648874 0.016700695273 0.99074071552 
-0.1446946491 0.016900393478 0.98933201466 -0.15477692531 0.016960102802 0.98780385619 -0.16491881677 0.016892865033 0.98616246886 
-0.17505227171 0.01671293983 0.98441727931 -0.18510122507 0.01643556436 0.98258201118 -0.19498806526 0.016076573601 0.98067384904 
-0.20463691923 0.015652278851 0.97871279621 -0.21396960382 0.015179222027 0.97672237604 -0.22290812017 0.014673517315 0.97472901765 
-0.23137818273 0.014150882848 0.97276096194 -0.2393137975 0.013626270949 0.97084665682 -0.2466509372 0.01311335157 0.96901566303 
-0.25333047938 0.012624797973 0.96729741171 -0.25930181647 0.012171789534 0.96571963608 -0.2645221066 0.011764028123 0.96430786721 
-0.26895473586 0.011409683528 0.96308523464 -0.27256775806 0.01111547133 0.96207237959 -0.27533695738 0.010886741056 0.96128613782 
-0.27724476122 0.010727541405 0.96073943514 -0.27724476122 0.010727541405 0.96073943514 
NormalArray 3 158 double
-0.69407279267 -0.71759618967 0.057607873113 -0.69407279267 -0.71759618967 0.057607873113 -0.69289158338 -0.71872311301 0.057778374076 
-0.6958892849 -0.71580027103 0.058035119978 -0.70203637358 -0.70974294054 0.058394250712 -0.71209453606 -0.69961484713 0.05882548249 
-0.72483252511 -0.68636501048 0.059337028309 -0.74150108501 -0.66827533861 0.059868294922 -0.76126483477 -0.64562199853 0.060399390268 
-0.78433804781 -0.6173401375 0.060868558387 -0.81016817029 -0.58299179303 0.061221769933 -0.83839147657 -0.54160162006 0.061379289413 
-0.86834164077 -0.49217024871 0.061247377065 -0.89892431529 -0.43387514956 0.060724212432 -0.92870886374 -0.36597276225 0.059697434681 
-0.95577651691 -0.28830439915 0.05806740183 -0.97815401479 -0.20027966642 0.055702590396 -0.99331109711 -0.10282509614 0.05253631083 
-0.99881722077 0.0015974161431 0.048596375926 -0.99276054045 0.11181936324 0.043851332098 -0.97395517562 0.2234477943 0.038501936425 
-0.94202694906 0.33394268095 0.032672818888 -0.89807062484 0.43904182455 0.026672628103 -0.84371596847 0.53638964822 0.020724619206 
-0.78178835326 0.62336003932 0.015140412764 -0.71462707083 0.69943297891 0.010082542058 -0.64502361139 0.76414106145 0.0057427305546 
-0.57556988587 0.81774946242 0.0022634457278 -0.50769197291 0.86153859115 -0.00034146730401 -0.44324220452 0.89639964517 -0.002006059854 
-0.38320516492 0.92365917221 -0.0027450272387 -0.3279610757 0.94468760773 -0.0026185159102 -0.27838928533 0.96046693945 -0.0016321876582 
-0.23459958698 0.97209208016 0.00014654463093 -0.19673662191 0.98045275995 0.0026621608038 -0.16488329053 0.98629567495 0.0058602113501 
-0.13901918906 0.99024233912 0.0096837435863 -0.11902096673 0.99279198094 0.014074518135 -0.10505669423 0.99428458672 0.019006620386 
-0.096628564437 0.99502134556 0.024401688581 -0.093995527699 0.99511284981 0.030253213172 -0.096808868714 0.99463326941 0.036506195535 
-0.10490259285 0.9935470271 0.043124829982 -0.11795993728 0.9917555692 0.050063401321 -0.13567177269 0.98909678329 0.05727759929 
-0.157625696 0.98537613108 0.064714915212 -0.18339830549 0.98037466468 0.07232273773 -0.21219364769 0.97394613756 0.080017354422 
-0.24357964244 0.96590350146 0.087746131864 -0.27685470528 0.95616069333 0.095436893772 -0.31128759118 0.94471547266 0.10301801442 
-0.34630702208 0.93159851902 0.11043389794 -0.38110170649 0.91702109135 0.11761720677 -0.41544585554 0.90105111828 0.12454566779 
-0.4487155802 0.88399512937 0.13117522378 -0.48057223494 0.86611096042 0.13748502189 -0.51084674901 0.84761596131 0.14346700375 
-0.53930145487 0.82880595428 0.14911281275 -0.56572272242 0.81000780164 0.15441878969 -0.58987029884 0.79161212973 0.15938402247 
-0.61226208351 0.77345169928 0.16403539244 -0.63245127394 0.75608048745 0.16836770059 -0.65027038955 0.73988529931 0.17238957142 
-0.66571532545 0.72512500273 0.17611597281 -0.67908774692 0.71175566153 0.17956533705 -0.68979088867 0.70056571067 0.18274631307 
-0.69737389241 0.69223916859 0.18567333586 -0.70209598115 0.68671770615 0.18836142205 -0.70271704496 0.68540313908 0.19081743015 
-0.69792672669 0.68966419394 0.19303259769 -0.68586689071 0.70112630074 0.19495773552 -0.66299687499 0.72238931134 0.19644038945 
-0.62099871399 0.75864972814 0.19700555123 -0.54104846241 0.81805377784 0.19507582601 -0.37126523418 0.91002175213 0.18445198978 
0.018269276976 0.99000724546 0.13982806388 0.64230033517 0.76626191152 0.017116144212 0.94414730994 0.31665293044 -0.091196374803 
0.98961352794 0.046541883986 -0.13601072885 0.98335137092 -0.095718172499 -0.15446071595 0.97013525917 -0.17959512334 -0.16304346228 
0.95760925849 -0.23464444238 -0.16711221892 0.94678568021 -0.27410485396 -0.16871100965 0.93744923091 -0.30449075686 -0.16874335084 
0.92921293056 -0.32932132565 -0.16766273929 0.92162416467 -0.3509076735 -0.16574891785 0.9145710947 -0.37006803426 -0.16312376512 
0.90772458199 -0.38789156365 -0.15992566428 0.90083511415 -0.40506793739 -0.15625640212 0.8936695188 -0.42212337872 -0.15220592726 
0.8862225582 -0.43904257401 -0.14782149893 0.87805605741 -0.45662588153 -0.1432144 0.86922175196 -0.47465175867 -0.13841695673 
0.85937684459 -0.49360531148 -0.13351118102 0.84845369004 -0.51342464791 -0.12853585795 0.83629914217 -0.53417551358 -0.12353244717 
0.822497113 -0.55627525706 -0.118559426 0.8072944548 -0.57911098702 -0.11360514054 0.79035707705 -0.60292570099 -0.10870275914 
0.77183614429 -0.62728462169 -0.10384107933 0.75167405268 -0.65205845884 -0.099024667525 0.73020382258 -0.67669988462 -0.094231861032 
0.70730364837 -0.70122520438 -0.089469334049 0.68434499797 -0.72422457296 -0.08467993669 0.66075834575 -0.74633414564 -0.079898382793 
0.63788515539 -0.76646216807 -0.075088437508 0.61654585546 -0.78417922759 -0.070243484648 0.59682914943 -0.79970012157 -0.065381051938 
0.580470997 -0.81203201475 -0.060476678606 0.56767950176 -0.82137370589 -0.055544743796 0.55925826423 -0.82744894003 -0.050581078736 
0.5562389741 -0.82977194999 -0.045570985287 0.55835693875 -0.82861068025 -0.040519989239 0.56710129011 -0.82288753855 -0.035386800535 
0.58149209425 -0.81299237047 -0.030172004766 0.6017785453 -0.79827650316 -0.024843649392 0.62777691403 -0.77815226094 -0.019370209416 
0.65829093448 -0.75263819659 -0.01374010973 0.69229922475 -0.72156688082 -0.0079385079727 0.72850654092 -0.68503604016 -0.0019604899747 
0.76522307849 -0.64375163211 0.0041804668744 0.80122496471 -0.59827148747 0.010477748126 0.83477126856 -0.55033753347 0.016897586849 
0.86546568159 -0.50041923627 0.023446576673 0.89211621917 -0.45080239974 0.030097306783 0.91505608097 -0.40163723474 0.03687682669 
0.93402620342 -0.35451016851 0.043790315756 0.94938187947 -0.30997872218 0.050864906673 0.96156448795 -0.26835519818 0.058131085786 
0.97101668891 -0.22982778847 0.065618423541 0.97812827517 -0.19463925916 0.073352819293 0.98333917711 -0.16255808462 0.081356818269 
0.98698225908 -0.13352944377 0.089643225675 0.98935231368 -0.10740267667 0.098217434579 0.99070497033 -0.083896809227 0.10707468032 
0.99123229627 -0.062896472191 0.11620055342 0.9911025748 -0.044126450038 0.12557285787 0.99044556396 -0.027384480076 0.13515796346 
0.98936535241 -0.012505178954 0.14491314626 0.98794749537 0.00067131786629 0.15478790564 0.98626242827 0.012345319482 0.16472405918 
0.98436906912 0.022616737843 0.17465972326 0.98231772124 0.031681355483 0.18452150619 0.98015462362 0.039617385268 0.19423536387 
0.97792038309 0.046552578974 0.20372673298 0.97565532868 0.05255614137 0.21291907292 0.97339214359 0.057815536687 0.22173204216 
0.97117318181 0.06228308225 0.23009447756 0.96902862632 0.066098905505 0.23793792483 0.96698855175 0.069368235237 0.24519622495 
0.96508884785 0.072073133121 0.25181139614 0.96335201883 0.074355119277 0.25772893522 0.96181143673 0.07614421103 0.26290838577 
0.96047756342 0.077653463852 0.26730654636 0.95937772921 0.07880943772 0.27089378956 0.95852030103 0.079743884289 0.27364163687 
0.95793063477 0.08029899965 0.27553760112 0.95793063477 0.08029899965 0.27553760112 
BinormalArray 3 158 double
0.71931692835 -0.69451531431 0.015219552641 0.71931692835 -0.69451531431 0.015219552641 0.72045072208 -0.69334117312 0.01512530017 
0.71754652737 -0.6963410278 0.015367304913 0.71151905809 -0.70248758456 0.01586894781 0.70143252655 -0.71254008456 0.016704448368 
0.68823512878 -0.72526957724 0.017788981157 0.6702094262 -0.74192225279 0.01925346315 0.6476307595 -0.76166324595 0.021059418911 
0.61943393971 -0.7847038129 0.023270590026 0.58517995571 -0.81048998431 0.025892175773 0.54389224232 -0.83865515298 0.028961407375 
0.49456963356 -0.86853000876 0.032503868028 0.43638707737 -0.8990176552 0.03651813719 0.3685978109 -0.92868510086 0.040983377656 
0.29103930592 -0.95561281304 0.045828745996 0.20311665227 -0.97782548032 0.05099956476 0.10575168495 -0.99279504331 0.056343438914 
0.0014027045348 -0.99809753536 0.06163880543 -0.10876542409 -0.99182381935 0.066750235087 -0.22035954632 -0.97280051873 0.07142003293 
-0.33083897774 -0.94066052934 0.07552045657 -0.43593627893 -0.89651182666 0.078905673921 -0.53329057534 -0.8419921382 0.081549993659 
-0.62026757922 -0.77993713716 0.083463718179 -0.69634169736 -0.71269019433 0.084740352999 -0.76103950584 -0.64304800222 0.085487644733 
-0.81462180479 -0.57360607398 0.085833484456 -0.85836865839 -0.50578992995 0.085905721891 -0.89317100299 -0.4414536939 0.085814891233 
-0.92035819783 -0.38158110961 0.085654214523 -0.94130555481 -0.32654997946 0.085492475713 -0.95699986893 -0.27723927132 0.085379372884 
-0.96854256309 -0.2337558309 0.085343511841 -0.97682999368 -0.1962415508 0.085395650855 -0.98261553003 -0.16477625744 0.085530726259 
-0.98652716795 -0.13933598733 0.085729980364 -0.98907015882 -0.1197934569 0.085963647018 -0.99059023331 -0.10631390269 0.08618784003 
-0.9913931848 -0.098394114731 0.086360588897 -0.99159468048 -0.096290484264 0.086418356127 -0.99127257659 -0.09964945924 0.086305643895 
-0.99039485634 -0.10830082068 0.085959064542 -0.98886568493 -0.12192310419 0.085319480963 -0.98652519406 -0.14020242226 0.084328656359 
-0.98318016336 -0.16272132967 0.082936935373 -0.97861237469 -0.18905148867 0.081100892312 -0.97267344452 -0.21839149444 0.078813231598 
-0.96517534948 -0.25030490865 0.076052596692 -0.95602854506 -0.2840860279 0.072832340262 -0.94522591456 -0.31900032827 0.069186422117 
-0.93279338269 -0.35447423121 0.065150016225 -0.91893429598 -0.38969554858 0.060804104281 -0.90371281445 -0.42443781198 0.05617555305 
-0.88742715754 -0.45807824043 0.051355288963 -0.87032861355 -0.49027964502 0.046410926753 -0.85262909626 -0.52087442079 0.041393984777 
-0.83461766089 -0.54962737209 0.036374606264 -0.81661396191 -0.57632796134 0.031427984262 -0.79900030951 -0.60074006228 0.026643629065 
-0.78161112193 -0.62337921149 0.021963896703 -0.76498878444 -0.64380516229 0.017523489626 -0.74951160164 -0.66185535784 0.013410604523 
-0.73543214032 -0.67752922455 0.0096807469118 -0.72270522916 -0.69112755101 0.0063134763972 -0.71210342839 -0.70206581773 0.0035064008871 
-0.70429635266 -0.70990463912 0.0014321297037 -0.69922374791 -0.71490289173 7.5867945717e-05 -0.69825848662 -0.71584568988 -0.0001847702868 
-0.70273741457 -0.71144854906 0.0010431742866 -0.714242622 -0.69988516302 0.0042703046346 -0.73529649807 -0.67766605007 0.010381932275 
-0.77092060096 -0.6365749246 0.021302403251 -0.82887021183 -0.55794658919 0.040862887185 -0.91749583665 -0.39007289144 0.077746569699 
-0.98957685488 -0.0020758389909 0.14399076076 -0.75305662243 0.62675951795 0.20019547964 -0.29727371321 0.93788482804 0.17888652483 
-0.026295777942 0.9887829771 0.14702637945 0.11571078697 0.9852452416 0.1261064141 0.19912984879 0.97348963662 0.11253990718 
0.25367216915 0.96177004664 0.10319306167 0.29259707373 0.95137188893 0.096324874306 0.32241582965 0.94221569948 0.090981363147 
0.3466423523 0.93398999401 0.086612762784 0.36758361113 0.92629374894 0.082838273165 0.38606046757 0.91903903019 0.079527205153 
0.40316354933 0.91192535976 0.076493729893 0.41958702128 0.90472462697 0.073621198872 0.43586350473 0.89722193956 0.070822287546 
0.45198678808 0.88942107548 0.068103552727 0.46876345636 0.8809041476 0.06533532528 0.4859818902 0.87172697428 0.062559449364 
0.50413420796 0.86155916311 0.059703507711 0.52316643971 0.85033673435 0.056783048361 0.54315059304 0.83791034139 0.053793057881 
0.56450860342 0.82387011242 0.050676173179 0.58663297954 0.8084572536 0.047524903088 0.60976905993 0.79133979061 0.044306086994 
0.63348440504 0.77266417828 0.041080118941 0.65765084998 0.75237075958 0.037862906042 0.68172161487 0.73078714394 0.034724487965 
0.70571259758 0.70779051303 0.031659426556 0.72821421681 0.68474233131 0.028844308845 0.74986110138 0.66107645275 0.026196416727 
0.76956095074 0.63812797639 0.023845939694 0.78688314071 0.61671545775 0.021839574827 0.80204099856 0.59692912982 0.020145734169 
0.8140404211 0.5805018262 0.018863260409 0.82307850117 0.56764387797 0.017950173402 0.82887724639 0.55915972986 0.01740422135 
0.83094894523 0.55608194191 0.017225686989 0.82955976395 0.55814887476 0.017332964085 0.82362991683 0.56685033875 0.017732838709 
0.813547732 0.58120985542 0.018308241881 0.7986629652 0.60147855869 0.019000301243 0.77838674008 0.62747496095 0.019729578158 
0.75273719604 0.65800527892 0.02039035598 0.72154694108 0.69205024719 0.020891796729 0.68491435163 0.72831660643 0.021148326859 
0.64354662462 0.76511633588 0.021088729503 0.59800304734 0.80122737642 0.020665106925 0.55002717563 0.83491045637 0.019865445052 
0.50009006133 0.86577181065 0.018684283421 0.45047849168 0.89262202453 0.017177015288 0.40134408405 0.91579854632 0.015360623407 
0.35427354304 0.93504708591 0.013311792853 0.30982481675 0.95072906723 0.011082583267 0.26831048354 0.96329302877 0.008719240612 
0.22991871951 0.97318966762 0.0062652424605 0.19489153625 0.98081754774 0.0037718886625 0.16299715169 0.98662573506 0.001259939987 
0.13417951332 0.9909562685 -0.001237794005 0.10828641083 0.99411286661 -0.0036961697342 0.085035390786 0.99635923187 -0.0061043741247 
0.064308296514 0.99789441048 -0.0084373297346 0.045827641171 0.99889216586 -0.010689634163 0.029388151346 0.99948545614 -0.012851440857 
0.014820863081 0.99977897417 -0.014911231268 0.0019620884151 0.99985594175 -0.0168595956 -0.00939182944 0.99978108814 -0.018696773569 
-0.019345230089 0.9996045022 -0.020410812361 -0.028096814897 0.99936287901 -0.022009203841 -0.035729094576 0.99908558521 -0.023482445251 
-0.042372817104 0.9987932036 -0.024833058874 -0.048100813393 0.99850260051 -0.026055105603 -0.05310089232 0.99821944061 -0.027170639073 
-0.057330511006 0.99795820062 -0.028153904307 -0.060929694796 0.99772003059 -0.029022626706 -0.06400356216 0.99750493129 -0.029790201076 
-0.066537087118 0.9973194463 -0.030442373094 -0.068669176373 0.9971575421 -0.031006135513 -0.070333600095 0.99702741525 -0.031456603898 
-0.071737021356 0.9969151211 -0.031844011894 -0.07280927113 0.99682772776 -0.032144847397 -0.073677624901 0.99675593391 -0.032391600784 
-0.074190574541 0.99671309338 -0.032538717532 -0.074190574541 0.99671309338 -0.032538717532 
