# vtk DataFile Version 4.1
vtk output
ASCII
DATASET POLYDATA
POINTS 444 float
27.6247 3.63379 269.148 27.6675 3.21294 268.115 27.7099 2.79257 267.08 
27.751 2.37413 266.042 27.7898 1.95904 264.996 27.8252 1.54866 263.941 
27.8565 1.14428 262.874 27.8827 0.747064 261.792 27.9031 0.358039 260.692 
27.9172 -0.0219275 259.572 27.9243 -0.392144 258.431 27.9241 -0.752101 257.267 
27.9163 -1.10148 256.078 27.9009 -1.44013 254.863 27.8778 -1.7681 253.622 
27.8471 -2.08557 252.355 27.8092 -2.39288 251.06 27.7644 -2.69048 249.739 
27.7132 -2.97891 248.391 27.6561 -3.25878 247.018 27.5936 -3.53075 245.621 
27.5266 -3.79551 244.201 27.4555 -4.05372 242.759 27.3812 -4.30604 241.296 
27.3043 -4.5531 239.816 27.2255 -4.79548 238.318 27.1454 -5.03368 236.805 
27.0647 -5.26818 235.279 26.9839 -5.49936 233.742 26.9036 -5.72755 232.195 
26.8241 -5.95303 230.639 26.746 -6.176 229.077 26.6694 -6.39662 227.511 
26.5948 -6.61498 225.941 26.5222 -6.83115 224.37 26.452 -7.04515 222.799 
26.3841 -7.25694 221.229 26.3186 -7.46649 219.663 26.2556 -7.67371 218.102 
26.1951 -7.87851 216.547 26.137 -8.08075 215.001 26.0812 -8.28029 213.465 
26.0277 -8.47699 211.941 25.9763 -8.67067 210.43 25.9269 -8.86117 208.935 
25.8795 -9.0483 207.458 25.834 -9.23191 206 25.7901 -9.41182 204.562 
25.7478 -9.58789 203.146 25.707 -9.75998 201.754 25.6676 -9.92796 200.386 
25.6294 -10.0917 199.043 25.5924 -10.2513 197.726 25.5565 -10.4065 196.435 
25.5215 -10.5574 195.169 25.4873 -10.704 193.93 25.4539 -10.8464 192.715 
25.4211 -10.9847 191.524 25.3888 -11.1189 190.356 25.3569 -11.2493 189.209 
25.3252 -11.376 188.082 25.2935 -11.4991 186.972 25.2617 -11.619 185.878 
25.2296 -11.7358 184.797 25.1971 -11.8497 183.728 25.1639 -11.961 182.667 
25.1299 -12.0699 181.612 25.0949 -12.1767 180.562 25.0586 -12.2815 179.513 
25.021 -12.3846 178.465 24.9818 -12.4861 177.415 24.9409 -12.5861 176.361 
24.8981 -12.6849 175.302 24.8533 -12.7824 174.236 24.8064 -12.8788 173.163 
24.7573 -12.9742 172.081 24.706 -13.0685 170.99 24.6523 -13.1617 169.889 
24.5964 -13.2538 168.779 24.5382 -13.3446 167.659 24.4777 -13.4342 166.53 
24.4151 -13.5225 165.393 24.3503 -13.6091 164.247 24.2836 -13.6941 163.095 
24.2149 -13.7773 161.936 24.1445 -13.8584 160.772 24.0724 -13.9374 159.605 
23.9988 -14.0141 158.434 23.9238 -14.0882 157.262 23.8474 -14.1597 156.09 
23.7697 -14.2284 154.918 23.6909 -14.2942 153.748 23.6108 -14.3569 152.581 
23.5296 -14.4164 151.418 23.4472 -14.4726 150.26 23.3636 -14.5255 149.106 
23.2786 -14.575 147.958 23.1922 -14.621 146.817 23.1043 -14.6635 145.681 
23.0147 -14.7025 144.553 22.9233 -14.738 143.431 22.8298 -14.7698 142.316 
22.7342 -14.7982 141.207 22.6361 -14.8229 140.105 22.5355 -14.8441 139.009 
22.4321 -14.8617 137.919 22.3257 -14.8758 136.833 22.2161 -14.8863 135.751 
22.1031 -14.8932 134.674 21.9865 -14.8966 133.598 21.8662 -14.8963 132.525 
21.7419 -14.8924 131.452 21.6134 -14.8847 130.378 21.4805 -14.8734 129.302 
21.3429 -14.8583 128.223 21.2005 -14.8393 127.139 21.0529 -14.8164 126.048 
20.9 -14.7895 124.948 20.7413 -14.7585 123.839 20.5766 -14.7233 122.717 
20.4057 -14.6837 121.581 20.228 -14.6397 120.43 20.0433 -14.5912 119.26 
19.8512 -14.538 118.072 19.6513 -14.48 116.862 19.4432 -14.417 115.63 
19.2266 -14.3488 114.373 19.001 -14.2755 113.092 18.766 -14.1968 111.784 
18.5215 -14.1126 110.45 18.2669 -14.0228 109.087 18.002 -13.9272 107.697 
17.7265 -13.8259 106.279 17.4403 -13.7187 104.834 17.1432 -13.6056 103.361 
16.8349 -13.4866 101.862 16.5155 -13.3616 100.336 16.185 -13.2307 98.7866 
15.8435 -13.0939 97.2134 15.4909 -12.9514 95.6182 15.1276 -12.8032 94.0026 
14.7537 -12.6494 92.368 14.3696 -12.4903 90.7162 13.9756 -12.326 89.049 
13.5721 -12.1568 87.3679 13.1595 -11.9829 85.6748 12.7383 -11.8046 83.9713 
12.3091 -11.6221 82.2592 11.8723 -11.4358 80.54 11.4286 -11.246 78.8155 
10.9785 -11.0529 77.087 10.5225 -10.8571 75.3562 10.0614 -10.6586 73.6244 
9.59565 -10.4581 71.8932 9.12585 -10.2556 70.1637 8.65261 -10.0517 68.4373 
8.17648 -9.84657 66.7155 7.69804 -9.64063 64.9993 7.21784 -9.43418 63.2901 
6.73642 -9.22755 61.5892 6.25431 -9.02105 59.8977 5.77203 -8.81498 58.2168 
5.29009 -8.60964 56.5479 4.80897 -8.40533 54.892 4.32916 -8.20232 53.2503 
3.85113 -8.00087 51.6239 3.37531 -7.80125 50.0139 2.90215 -7.60368 48.4213 
2.43208 -7.4084 46.8471 1.96549 -7.2156 45.2921 1.50278 -7.02549 43.7571 
1.0443 -6.83823 42.2428 0.59041 -6.65396 40.7499 0.141438 -6.47283 39.2787 
-0.302312 -6.29494 37.8296 -0.740556 -6.12037 36.4029 -1.17304 -5.94919 34.9986 
-1.59952 -5.78144 33.6167 -2.0198 -5.61714 32.2572 -2.4337 -5.45629 30.9197 
-2.84108 -5.29886 29.6037 -3.24183 -5.14481 28.3089 -3.63587 -4.99408 27.0345 
-4.02317 -4.84658 25.7798 -4.40374 -4.70222 24.5439 -4.77761 -4.56089 23.3258 
-5.14487 -4.42246 22.1243 -5.50566 -4.2868 20.9384 -5.86014 -4.15376 19.7668 
-6.20852 -4.02318 18.6082 -6.55105 -3.89493 17.4612 -6.88799 -3.76886 16.3244 
-7.21965 -3.64481 15.1967 -7.54633 -3.52266 14.0767 -7.86837 -3.40228 12.9631 
-8.18609 -3.28358 11.8549 -8.49981 -3.16645 10.751 -8.80985 -3.05085 9.65067 
-9.1165 -2.93671 8.55319 -9.42002 -2.82404 7.45806 -9.72064 -2.71282 6.36499 
-10.0186 -2.6031 5.27386 -10.314 -2.49493 4.18475 -10.6069 -2.38837 3.09794 
-10.8975 -2.28352 2.01385 -11.1858 -2.18048 0.933074 -11.4718 -2.07936 -0.143697 
-11.7555 -1.98029 -1.21566 -12.0368 -1.88339 -2.28193 -12.3155 -1.78876 -3.34162 
-12.5917 -1.69653 -4.3938 -12.8652 -1.60679 -5.43756 -13.1358 -1.51963 -6.47207 
-13.4035 -1.4351 -7.49654 -13.668 -1.35327 -8.51026 -13.9292 -1.27415 -9.51266 
-14.1872 -1.19776 -10.5033 -14.4416 -1.12408 -11.4818 -14.6924 -1.05307 -12.448 
-14.9397 -0.984692 -13.4019 -15.1832 -0.918864 -14.3435 -15.423 -0.855507 -15.2731 
-15.6591 -0.794523 -16.1912 -15.8915 -0.735809 -17.0983 -16.1203 -0.679254 -17.995 
-16.3456 -0.624744 -18.8821 -16.5676 -0.572165 -19.7606 -16.7863 -0.521406 -20.6315 
-17.0019 -0.472362 -21.4959 -17.2148 -0.424934 -22.355 -17.425 -0.379034 -23.2101 
-17.6329 -0.334585 -24.0623 -17.8388 -0.291521 -24.913 -18.0429 -0.249791 -25.7635 
-18.2456 -0.209357 -26.615 -18.447 -0.170194 -27.4687 -18.6475 -0.132292 -28.3258 
-18.8474 -0.0956504 -29.1874 -19.047 -0.0602828 -30.0545 -19.2464 -0.0262117 -30.928 
-19.4459 0.00653131 -31.8086 -19.6457 0.0379077 -32.6971 -19.8459 0.0678732 -33.594 
-20.0468 0.0963798 -34.4999 -20.2484 0.123378 -35.415 -20.4509 0.148816 -36.3398 
-20.6543 0.172646 -37.2744 -20.8587 0.19482 -38.2189 -21.0642 0.215295 -39.1735 
-21.2708 0.234033 -40.1383 -21.4786 0.251002 -41.1132 -21.6875 0.266176 -42.0983 
-21.8977 0.279539 -43.0937 -22.1091 0.291081 -44.0993 -22.3218 0.300801 -45.1151 
-22.5358 0.308707 -46.1412 -22.7511 0.314817 -47.1775 -22.9678 0.319158 -48.2242 
-23.1859 0.321764 -49.2813 -23.4054 0.322681 -50.3487 -23.6263 0.321962 -51.4266 
-23.8487 0.319669 -52.5149 -24.0726 0.315871 -53.6136 -24.2979 0.310646 -54.7227 
-24.5248 0.304078 -55.8422 -24.753 0.296255 -56.9719 -24.9828 0.287275 -58.1117 
-25.2139 0.277235 -59.2615 -25.4464 0.266242 -60.4212 -25.6801 0.2544 -61.5905 
-25.9151 0.241821 -62.7693 -26.1513 0.228613 -63.9574 -26.3886 0.214888 -65.1546 
-26.6269 0.200755 -66.3606 -26.8662 0.186325 -67.5754 -27.1063 0.171703 -68.7987 
-27.3472 0.156994 -70.0304 -27.5888 0.142296 -71.2705 -27.8311 0.127706 -72.5187 
-28.0739 0.113312 -73.7751 -28.3172 0.0991993 -75.0395 -28.5608 0.0854458 -76.3119 
-28.8048 0.0721229 -77.5922 -29.049 0.0592952 -78.8804 -29.2934 0.0470203 -80.1762 
-29.5377 0.0353487 -81.4796 -29.782 0.0243237 -82.7903 -30.026 0.0139813 -84.108 
-30.2696 0.00434974 -85.4324 -30.5127 -0.00455024 -86.763 -30.7551 -0.012706 -88.0992 
-30.9966 -0.0201133 -89.4405 -31.237 -0.0267765 -90.7861 -31.4762 -0.0327095 -92.1352 
-31.7138 -0.0379357 -93.4869 -31.9498 -0.0424888 -94.8403 -32.1839 -0.0464131 -96.1946 
-32.4159 -0.0497634 -97.5486 -32.6458 -0.0526056 -98.9015 -32.8733 -0.0550158 -100.252 
-33.0984 -0.0570802 -101.6 -33.3211 -0.0588941 -102.945 -33.5412 -0.0605605 -104.285 
-33.7589 -0.0621887 -105.621 -33.9742 -0.0638924 -106.952 -34.1872 -0.0657878 -108.279 
-34.398 -0.0679912 -109.6 -34.6069 -0.0706166 -110.917 -34.814 -0.0737738 -112.23 
-35.0196 -0.0775662 -113.54 -35.2239 -0.0820888 -114.847 -35.4271 -0.0874269 -116.152 
-35.6296 -0.0936549 -117.456 -35.8316 -0.100836 -118.76 -36.0334 -0.109022 -120.065 
-36.2352 -0.118252 -121.372 -36.4372 -0.128559 -122.681 -36.6396 -0.139962 -123.994 
-36.8425 -0.152476 -125.311 -37.0462 -0.166111 -126.632 -37.2507 -0.180871 -127.959 
-37.4562 -0.196761 -129.29 -37.6627 -0.213785 -130.626 -37.8702 -0.23195 -131.966 
-38.0789 -0.251266 -133.312 -38.2886 -0.271746 -134.661 -38.4995 -0.293408 -136.013 
-38.7116 -0.316274 -137.369 -38.9248 -0.34037 -138.726 -39.1392 -0.365723 -140.085 
-39.3546 -0.39236 -141.444 -39.5712 -0.420309 -142.802 -39.7889 -0.449593 -144.16 
-40.0077 -0.48023 -145.515 -40.2275 -0.51223 -146.867 -40.4482 -0.545594 -148.216 
-40.6698 -0.580313 -149.56 -40.8923 -0.616366 -150.899 -41.1155 -0.653718 -152.233 
-41.3393 -0.692325 -153.561 -41.5636 -0.732126 -154.883 -41.7883 -0.773054 -156.198 
-42.0131 -0.815028 -157.506 -42.2378 -0.857962 -158.807 -42.4624 -0.901762 -160.101 
-42.6865 -0.946332 -161.387 -42.9099 -0.991576 -162.666 -43.1325 -1.0374 -163.938 
-43.3538 -1.0837 -165.204 -43.5738 -1.1304 -166.462 -43.7921 -1.17743 -167.714 
-44.0085 -1.2247 -168.959 -44.2227 -1.27216 -170.199 -44.4346 -1.31977 -171.434 
-44.6437 -1.36749 -172.663 -44.8501 -1.4153 -173.888 -45.0533 -1.46318 -175.11 
-45.2533 -1.51114 -176.329 -45.4498 -1.55919 -177.545 -45.6427 -1.60735 -178.76 
-45.8319 -1.65565 -179.974 -46.0172 -1.70414 -181.188 -46.1987 -1.75286 -182.404 
-46.3763 -1.80188 -183.622 -46.5499 -1.85124 -184.843 -46.7198 -1.90103 -186.068 
-46.8859 -1.95131 -187.299 -47.0485 -2.00216 -188.537 -47.2077 -2.05366 -189.782 
-47.3638 -2.10591 -191.037 -47.5172 -2.15898 -192.302 -47.6682 -2.21296 -193.579 
-47.8172 -2.26795 -194.869 -47.9646 -2.32403 -196.173 -48.1111 -2.38127 -197.493 
-48.257 -2.43976 -198.83 -48.4028 -2.49957 -200.185 -48.5492 -2.56075 -201.559 
-48.6966 -2.62334 -202.953 -48.8454 -2.68739 -204.368 -48.9962 -2.75288 -205.804 
-49.1492 -2.81982 -207.262 -49.3049 -2.88818 -208.743 -49.4636 -2.95788 -210.246 
-49.6253 -3.02886 -211.772 -49.7902 -3.101 -213.319 -49.9583 -3.17416 -214.887 
-50.1295 -3.2482 -216.475 -50.3038 -3.32292 -218.081 -50.4809 -3.39813 -219.706 
-50.6606 -3.47361 -221.345 -50.8425 -3.54913 -222.998 -51.0263 -3.62445 -224.663 
-51.2117 -3.69932 -226.336 -51.3981 -3.77349 -228.017 -51.5854 -3.84674 -229.701 
-51.773 -3.91882 -231.387 -51.9607 -3.98952 -233.071 -52.1483 -4.05864 -234.752 
-52.3355 -4.12599 -236.426 -52.5221 -4.1914 -238.09 -52.7081 -4.25476 -239.742 
-52.8935 -4.31592 -241.38 -53.0783 -4.37482 -243.001 -53.2627 -4.43139 -244.602 
-53.4468 -4.48558 -246.182 -53.631 -4.53737 -247.738 -53.8154 -4.58678 -249.268 
-54.0005 -4.63381 -250.771 -54.1866 -4.67851 -252.244 -54.3741 -4.72093 -253.687 
-54.5632 -4.76113 -255.098 -54.7544 -4.79919 -256.475 -54.9479 -4.83519 -257.817 
-55.144 -4.86922 -259.125 -55.3429 -4.90136 -260.396 -55.5447 -4.93172 -261.631 
-55.7494 -4.96038 -262.828 -55.9571 -4.98745 -263.988 -56.1676 -5.01302 -265.111 
-56.3808 -5.03717 -266.195 -56.5963 -5.06 -267.243 -56.8138 -5.0816 -268.253 
-57.0329 -5.10205 -269.227 -57.253 -5.12142 -270.165 -57.4737 -5.13979 -271.067 
-57.6943 -5.15722 -271.935 -57.9143 -5.1738 -272.769 -58.1331 -5.18957 -273.571 
-58.3499 -5.2046 -274.341 -58.5644 -5.21894 -275.082 -58.776 -5.23265 -275.795 
-58.9842 -5.24576 -276.48 -59.1887 -5.25834 -277.141 -59.3893 -5.27042 -277.778 
-59.5857 -5.28206 -278.394 -59.7779 -5.29329 -278.99 -59.966 -5.30416 -279.569 
-60.1502 -5.31472 -280.132 -60.3309 -5.32501 -280.683 -60.5084 -5.33508 -281.222 
-60.6833 -5.34497 -281.753 -60.8563 -5.35473 -282.278 -61.028 -5.36441 -282.798 

LINES 1 445
444 443 442 441 440 439 438 437 436 435 434 433 432 431 430 429 428 427 426 425 424 423 422 421 420 419 418 417 416 415 414 413 412 411 410 409 408 407 406 405 404 403 402 401 400 399 398 397 396 395 394 393 392 391 390 389 388 387 386 385 384 383 382 381 380 379 378 377 376 375 374 373 372 371 370 369 368 367 366 365 364 363 362 361 360 359 358 357 356 355 354 353 352 351 350 349 348 347 346 345 344 343 342 341 340 339 338 337 336 335 334 333 332 331 330 329 328 327 326 325 324 323 322 321 320 319 318 317 316 315 314 313 312 311 310 309 308 307 306 305 304 303 302 301 300 299 298 297 296 295 294 293 292 291 290 289 288 287 286 285 284 283 282 281 280 279 278 277 276 275 274 273 272 271 270 269 268 267 266 265 264 263 262 261 260 259 258 257 256 255 254 253 252 251 250 249 248 247 246 245 244 243 242 241 240 239 238 237 236 235 234 233 232 231 230 229 228 227 226 225 224 223 222 221 220 219 218 217 216 215 214 213 212 211 210 209 208 207 206 205 204 203 202 201 200 199 198 197 196 195 194 193 192 191 190 189 188 187 186 185 184 183 182 181 180 179 178 177 176 175 174 173 172 171 170 169 168 167 166 165 164 163 162 161 160 159 158 157 156 155 154 153 152 151 150 149 148 147 146 145 144 143 142 141 140 139 138 137 136 135 134 133 132 131 130 129 128 127 126 125 124 123 122 121 120 119 118 117 116 115 114 113 112 111 110 109 108 107 106 105 104 103 102 101 100 99 98 97 96 95 94 93 92 91 90 89 88 87 86 85 84 83 82 81 80 79 78 77 76 75 74 73 72 71 70 69 68 67 66 65 64 63 62 61 60 59 58 57 56 55 54 53 52 51 50 49 48 47 46 45 44 43 42 41 40 39 38 37 36 35 34 33 32 31 30 29 28 27 26 25 24 23 22 21 20 19 18 17 16 15 14 13 12 11 10 9 8 7 6 5 4 3 2 1 0 

CELL_DATA 1
FIELD FieldData 2
LengthArray 1 1 double
563.72809829 
TortuosityArray 1 1 double
0.008290476908 
POINT_DATA 444
FIELD FieldData 8
RadiusArray 1 444 double
53.312372031 54.635822836 54.939233174 56.1064526 57.209931675 57.45100767 57.455158396 57.465469984 57.455924193 
57.453962302 57.431566714 57.419477122 57.41944033 57.414878158 57.327157699 57.263180635 57.063108319 57.033946598 
56.86538449 56.666971322 56.666888877 56.646359851 56.345594178 56.131667881 55.981691245 55.777530488 55.655732157 
55.564401769 55.409920939 55.344509812 55.19257168 54.928744999 54.928065913 54.768320453 54.52903383 54.482731897 
54.102489955 54.006296567 53.875147903 53.398034582 53.373735533 53.005045933 52.835567069 52.655744621 52.357865931 
52.085812231 51.841017988 51.768809585 51.663458045 51.567399057 51.245166639 51.223417651 50.95411661 50.819670203 
50.698413949 50.615771604 50.480520522 50.409670818 50.397655843 50.345298858 50.178095355 50.052306852 49.877074251 
49.798763315 49.606071129 49.596954197 49.51508857 49.503504832 49.381384217 49.211164655 49.208294628 49.058187345 
48.958213825 48.926382178 48.692960977 48.650581961 48.638619141 48.50194477 48.313616586 48.305774377 47.846835603 
47.715504423 47.709439759 47.483304182 47.295327856 47.107074729 46.886923728 46.86656563 46.792834195 46.495118686 
46.490758989 46.368817224 46.180928912 45.925165819 45.867355448 45.771817071 45.633661077 45.619696271 45.41246817 
45.290280588 44.948129721 44.870436733 44.862634943 44.826123062 44.505704351 44.359752138 44.200384925 44.139823777 
43.851991297 43.840631698 43.691015275 43.651759865 43.532339599 43.18826407 43.035729498 42.93553794 42.839551857 
42.603986266 42.595973955 42.431849899 42.421465406 42.229182989 42.213438503 41.883935057 41.690895416 41.690860399 
41.688706849 41.51835354 41.3184006 41.073473293 40.822307308 40.429544473 40.384661392 39.975097345 39.781449759 
39.581807866 39.502204538 39.490714119 39.309882285 38.907881358 38.522755904 38.47311087 38.162113408 37.995832772 
37.447961476 37.431402819 36.724894258 36.586867501 36.504882849 36.35662521 36.234842052 36.152943293 35.895296862 
35.710319918 35.279234345 35.278417996 35.201955458 34.950691421 34.940956842 34.662575374 34.460946906 34.359176834 
34.210221762 34.174764939 34.016961854 33.986023037 33.848371203 33.820828111 33.795575196 33.78192387 33.743724484 
33.754582294 33.735093435 33.722587698 33.691099175 33.689758879 33.68806242 33.715236917 33.801646456 33.828248963 
33.941011696 33.956450857 33.956190874 33.94420834 33.971464326 33.984581385 34.068425443 34.073876475 34.091657519 
34.108802542 34.113719663 34.140483189 34.140770395 34.234941041 34.240598609 34.34657794 34.349563965 34.358453446 
34.497811509 34.529795764 34.577614777 34.587813152 34.714037697 34.718475136 34.754547904 34.809940961 34.850782293 
34.858540795 34.867951621 34.887265727 34.917792604 34.972262629 34.961446487 34.967130639 34.977988284 34.999939893 
35.03032832 35.042370983 35.088076181 35.141348083 35.147652356 35.181019422 35.190095691 35.254948209 35.259026548 
35.267533986 35.260606934 35.242606791 35.240067802 35.218431992 35.210266077 35.208606109 35.19660208 35.136522766 
35.135966101 35.121784707 35.110007389 35.091719219 35.089453504 35.070584583 35.068880257 35.062126324 35.031300088 
35.016429738 35.015482442 34.96086264 34.896713438 34.819471573 34.794905324 34.732852712 34.701988597 34.641084609 
34.62521176 34.52604232 34.431880646 34.42950166 34.35409381 34.205888176 34.175958999 34.144265116 34.013146022 
33.963565772 33.819785451 33.810272909 33.600162935 33.569180094 33.330762388 33.172762246 33.141607774 32.841250751 
32.679593705 32.597563732 32.568183411 32.46188258 32.280051733 32.269578394 32.007727314 31.807073494 31.52463578 
31.227578222 31.192257336 31.038583418 30.931164646 30.901939305 30.723824216 30.637325266 30.243780509 30.070538588 
29.972724995 29.856945887 29.722959148 29.419691267 29.271851754 29.095643324 28.844928396 28.305673299 27.982570644 
27.971913382 27.638918625 27.209269301 26.87526273 26.863934428 26.526610655 26.515071376 26.301640734 26.127554602 
26.107703002 25.901273284 25.694514473 25.569680354 25.396711318 25.393131738 25.032954729 24.924844723 24.913648059 
24.524853221 24.16602619 24.140906617 23.594325421 23.503859832 23.253881742 23.228551986 22.865081567 22.857174903 
22.562660663 22.238602866 22.174450023 21.977809606 21.639480158 21.610288661 21.037995087 21.007859119 20.897768817 
20.490878856 20.418310381 20.15686289 20.098386623 19.950258973 19.920674869 19.910376661 19.906760072 19.461864138 
19.349363868 19.141853833 18.954153603 18.676764585 18.429363754 18.404760144 18.335868794 18.165934149 18.062046078 
18.028308771 17.983892732 17.946865207 17.783490594 17.526289904 17.493670644 17.431349571 17.200892548 16.973335711 
16.96778255 16.699996515 16.641195708 16.599312895 16.578521687 16.576062254 16.324384526 16.162364509 16.139917804 
16.13568401 16.132524989 15.785144705 15.782310187 15.603056197 15.459516297 15.362609591 15.315947441 15.293510827 
15.24596822 15.230176631 15.134602618 15.125731006 15.013555574 14.828389698 14.613907162 14.448276519 14.434110675 
14.358295731 14.127390214 13.878065797 13.846536945 13.882220925 13.892445005 13.504038269 13.251677759 13.253944614 
13.27486554 13.295819979 13.305318815 13.2814324 13.015291905 12.851673261 12.752021236 12.709613054 12.692114756 
12.657885645 12.647789439 12.558649372 12.187983414 12.118974608 12.080189466 11.929226429 11.91663918 11.874571032 
11.866004219 11.660249628 11.625387867 11.456342011 11.407435346 11.144799455 11.035180428 10.875255292 10.456724502 
10.330611951 10.216859663 9.8899624479 9.8039835456 9.5473140693 9.3575347592 9.0844895073 9.0349816182 8.5471584137 
8.0525194518 8.0474360303 7.6539681736 7.3840751003 7.3825984301 7.2610192565 6.9997288905 6.4572454879 6.4036005362 
6.1114075615 6.1094781371 5.580336242 
EdgeArray 2 444 int
51579 51579 52112 52112 51843 45397 51837 47446 43755 
51721 51721 51732 40375 41039 40375 40741 40127 40741 
39297 40917 40104 40104 39611 39611 40034 39611 40034 
40034 40082 40082 38980 38980 39296 39296 39130 39130 
39000 39307 39317 39317 39308 39317 39308 39308 38990 
38990 38511 38511 37355 37355 38500 38500 38318 38318 
37281 38032 38063 38063 38064 38060 38061 38061 37570 
37173 35346 37173 35346 37172 36983 36983 37147 37147 
36954 36954 36931 36931 36778 36784 35107 35107 36589 
36589 35986 35986 36184 36183 35230 35230 35991 35991 
35239 35239 35581 35581 35396 35041 33682 34822 34683 
35005 35213 35238 34956 35388 35002 34669 34807 34661 
34675 34862 34864 34857 34654 34632 34677 34456 34461 
34453 33707 32929 33977 32929 34230 34230 33979 34001 
33514 34001 33848 33981 33848 33269 33269 32900 32900 
33968 33967 33968 33973 33973 33972 33804 33538 33538 
33649 33649 33190 33190 33454 33485 33457 33485 33457 
33489 33458 33343 27994 27994 32927 32772 31947 31994 
31558 32573 31558 23428 32860 32860 32724 32724 23615 
23615 30702 32522 32073 27024 31382 31382 32780 32780 
32782 32781 31606 32664 32381 32381 31579 31579 28264 
31003 31302 29154 30507 29154 31213 31213 30355 30355 
31757 31757 31012 31012 31419 30997 30997 31153 30591 
30591 31252 31252 28440 28440 31253 31253 31257 31257 
29742 29742 30292 30102 30679 30679 26694 26694 30264 
30264 30247 30247 30358 30358 30599 30599 29775 29775 
27715 27715 30287 30125 30107 30331 30163 28727 29494 
29494 27967 29690 29300 29300 28461 28461 24636 28461 
24636 24636 30329 30329 29415 29415 23236 23236 28318 
28318 28086 28086 26197 27186 26712 26712 27883 27883 
27882 27454 24192 28317 28057 28317 27255 27255 27395 
27395 28233 28233 28263 27956 24802 24802 25584 25584 
27523 27523 25037 27247 18412 26747 26747 24577 27407 
27404 23642 27404 23642 20852 26607 23895 26775 26775 
22353 22353 21904 21904 24520 24520 23321 23321 27091 
27091 27090 27090 26070 26070 23533 23533 26419 26419 
24037 24037 25717 25717 25613 25613 24894 26427 22632 
22632 26022 26022 25900 26347 26348 25727 26336 26496 
26337 24543 25947 25876 24842 24313 25943 25370 26081 
25370 25902 26081 25286 24257 24804 24804 25372 25372 
25844 25844 23930 25334 25334 25463 25463 25467 25466 
25467 25464 25465 23350 23350 25138 25135 25138 25089 
24918 24578 23797 24901 24393 24901 24393 24904 23464 
23980 24695 23980 23170 24519 24419 24519 23964 23989 
24011 24011 24203 23656 24202 24202 23992 24206 24207 
23390 23390 21402 23831 21286 23408 23411 23668 23408 
23037 23668 21875 23203 23230 23403 22979 22979 23195 
23195 23197 22319 22768 22729 22725 22768 22725 22725 
22720 22721 22720 22722 22272 22272 20910 20910 22277 
22277 22000 22000 22008 21998 21342 21342 20300 21540 
21540 21230 20703 21440 21328 21315 21166 21315 21166 
21166 21326 21323 21326 20919 20919 20919 21151 20720 
20720 20967 20920 20920 20319 20319 20933 20933 20935 
20935 19792 19792 20532 20532 20534 20534 20515 20515 
20340 20340 20149 20149 20326 20326 19921 19921 19271 
19271 19640 19640 19643 19666 19642 19642 19476 19476 
19472 19472 18747 18837 18741 17825 18749 18741 17584 
17584 18218 18218 17799 17467 18023 18022 18018 18018 
17257 17257 17335 17234 17589 17234 17387 17387 17345 
17345 17086 17086 17169 17169 16199 16199 16847 14549 
16851 16054 15564 16205 16205 16245 15773 16245 16157 
16157 15879 15879 15185 15185 16134 16134 15741 15741 
15941 15550 15949 15941 15949 15437 15931 14425 15930 
14425 15929 15936 14192 14192 14954 14954 15416 14736 
15273 15424 15406 15406 15066 15066 14768 14768 14955 
14955 14436 14769 14342 14342 14633 14633 14648 14648 
14649 14649 14470 14470 7474 7474 13570 13570 13843 
14179 13922 13995 14078 13995 13982 13662 13352 13352 
13536 13536 13464 13619 13587 13534 13587 13845 13677 
13677 13468 13281 13681 11447 11159 13847 11159 13252 
13490 13490 13376 13733 13373 13370 13372 13372 13381 
13381 13364 13286 13186 13177 13185 13185 10691 13205 
13204 13204 13202 13200 12603 12494 12853 13073 13096 
13096 13098 13100 12039 12039 12693 12953 12944 12992 
12871 12871 12456 12456 13000 11640 12691 13000 11219 
12444 12306 12881 12306 12149 9377 12149 12779 12437 
11647 12413 11986 11986 12172 12172 2313 2313 11535 
11535 12420 12422 12422 12422 12415 12415 11399 11399 
8601 12130 11272 11280 11221 11108 10872 10872 8499 
8499 12113 12113 12116 12116 11705 11705 10014 10014 
10686 11933 10239 10239 11356 11699 11703 11699 11703 
11701 11701 11701 4772 10773 11345 11345 11348 11343 
11344 11343 11344 11494 9907 9907 10828 10828 4033 
11317 11313 11317 11313 11312 10770 11312 11329 11330 
11331 11329 9292 6830 11334 11335 11334 11334 5900 
5900 10013 10013 10454 10454 7317 7317 10648 9807 
10755 10755 10896 10896 10898 11080 10446 11078 10662 
10964 10656 10660 10442 8759 10512 10512 10525 10525 
10523 10523 10305 10304 9786 9786 9733 9733 6750 
6750 10036 9499 10034 10034 10033 10033 9136 9136 
6129 6129 5761 5761 8777 8777 7343 7343 7296 
5046 8756 5517 6399 8780 6399 7878 7888 7888 
7403 3248 7396 7396 3720 6394 6897 5798 5560 
5541 5914 5914 4485 538 4485 4505 3697 3697 
4453 4453 3394 3329 4792 4056 4795 4507 447 
4795 3725 447 357 1786 1786 1238 2736 2736 
1122 1848 1848 1040 1022 1766 605 605 644 
605 644 644 1019 1019 821 821 692 692 
424 424 14 440 423 423 
EdgePCoordArray 1 444 double
0 0 0.06 0.364 0.436 0.352 0.104 0.404 0.764 
0.588 0 0 0.992 0 0 0 0 0 
0.948 0 0.996 0 0 0 0 0 0 
0.02 0 0.012 0 0.832 0.996 0.408 0 0 
0 0 0.1 0 0 0 0.172 0 0 
0 0 0.952 0.596 0.632 0.92 0.824 0.716 0.576 
0.448 0.548 0.68 0.412 0.388 0.412 0.444 0 0.672 
0.48 0.024 0.124 0.584 0.064 0.2 0 0.004 0 
0 0 0.72 0.168 0.02 0.372 0 0.144 0.708 
0.164 0.176 0 0 0 0.328 0.392 0 0 
0.984 0.812 0 0 0.664 0.288 0.032 0 0 
0 0 0.848 0.388 0 0 0 0 0 
0 0.948 0 0 0 0 0 0 0 
0 0.012 0.024 0.056 0 0.988 0 0 0.984 
0 0 0 0 0 0 0.42 0 0 
0.08 0.896 0.828 0 0 0 0.204 0 0 
0 0.948 0.1 0.64 0.768 0.528 0.44 0.36 0 
0 0 0 0 0 0 0 0 0 
0 0 0 0.624 0 0 0.732 0.608 0.076 
0.948 0.264 0.376 0.896 0.696 0.692 0.648 0 0 
0 0.992 0.02 0.204 0.188 0.196 0 0.74 0.66 
0.236 0.348 0.012 0.008 0.988 0.96 0.776 0.08 0.08 
0 0.32 0 0.996 0.888 0.2 0.628 0.388 0.528 
0.488 0.408 0.636 0 0 0.76 0.16 0.476 0 
0.836 0.748 0 0 0 0 0.788 0 0.044 
0.66 0.288 0.972 0.876 0 0.048 0.124 0 0.98 
0.084 0 0 0 0 0 0 0 0 
0 0 0 0 0 0 0.392 0 0 
0 0.888 0.024 0.972 0 0 0.028 0.964 0 
0 0.732 0.616 0 0 0 0 0 0.384 
0.212 0.708 0.404 0.96 0 0 0 0 0 
0.404 0.612 0.544 0.548 0.524 0.868 0 0 0.204 
0.284 0 0 0 0 0.768 0 0 0 
0 0 0 0 0.884 0.956 0.86 0.316 0 
0 0.968 0.54 0.48 0 0.996 0.632 0.036 0.072 
0 0.172 0.18 0 0 0.156 0.356 0 0.012 
0 0.316 0.504 0.588 0 0.744 0 0.064 0.04 
0 0 0.336 0.548 0.856 0.056 0.876 0.996 0.332 
0.916 0 0 0 0 0.264 0 0 0 
0.032 0.132 0.292 0 0 0 0 0 0 
0.016 0 0.684 0.2 0.856 0 0.46 0 0.912 
0.372 0.004 0 0 0.184 0.268 0.684 0.94 0.616 
0.94 0.884 0.08 0 0 0 0 0 0.996 
0 0 0.804 0.644 0.244 0.836 0.12 0 0 
0 0.092 0 0 0 0.576 0 0 0 
0 0 0 0 0.356 0.732 0.184 0.168 0 
0.948 0 0.004 0.896 0.392 0 0.536 0.272 0 
0 0.868 0.096 0.356 0.384 0.928 0.756 0.1 0 
0.984 0.112 0.164 0 0.988 0 0 0 0 
0 0.004 0 
CurvatureArray 1 444 double
0 0.0007159876224 0.0028532947467 0.0049066191356 0.0068206834714 0.0085186451164 0.0099405086725 0.011069659651 0.011886110459 
0.012366454246 0.012535607796 0.01244125925 0.012102927695 0.011558047499 0.010879022501 0.010085768063 0.0092319115588 0.0083539311078 
0.0074773540063 0.0066275804114 0.0058231891486 0.0050784047323 0.0043973974199 0.0037902611474 0.0032534505143 0.0027957845195 0.00240685029 
0.0020920645553 0.0018398912514 0.0016487199743 0.0015072420639 0.0014053515095 0.0013327723862 0.0012788924456 0.0012363820914 0.0011981267728 
0.0011598620272 0.0011206708251 0.0010768051922 0.0010333133839 0.00098375819406 0.0009363364391 0.00088591001594 0.00083852084341 0.00079213580482 
0.00075168752935 0.00071613289987 0.00068703917416 0.0006677081879 0.0006583449143 0.00065974119056 0.00067343724453 0.00069749876997 0.0007348030535 
0.00078390918672 0.00084054377108 0.00091026010059 0.00098888613044 0.0010730816191 0.0011631956186 0.0012597355953 0.0013616695728 0.0014624928803 
0.0015664209516 0.0016674290684 0.0017628577737 0.0018562059259 0.0019408399152 0.0020154521257 0.0020785330524 0.0021289204093 0.0021649645868 
0.0021915018535 0.0022009352421 0.002201369204 0.00219237547 0.0021741709729 0.0021517342867 0.0021268310996 0.0020999285358 0.0020757788601 
0.0020576297761 0.0020449266175 0.0020383390972 0.0020423267461 0.0020558548838 0.0020791805474 0.0021125877141 0.002155368773 0.0022082131375 
0.0022678698882 0.0023378512199 0.0024164290614 0.0025032414339 0.0025972512556 0.0027020548908 0.0028152601823 0.0029368027582 0.0030683645506 
0.0032057515402 0.0033524993503 0.0035013612683 0.0036558198775 0.0038103147845 0.0039624256769 0.0041067080573 0.0042445643579 0.0043701259038 
0.0044805025781 0.0045765266647 0.004649278652 0.0047021423356 0.0047342853346 0.0047451355237 0.0047302038083 0.0046933516198 0.0046362017305 
0.0045627912415 0.0044695804979 0.0043646176212 0.0042504487281 0.0041308477993 0.0040045335647 0.0038792858027 0.0037575656104 0.0036402611545 
0.0035289900936 0.0034252184213 0.0033284757782 0.0032410007012 0.0031609625135 0.0030870069498 0.0030188709055 0.0029556641398 0.0028956961255 
0.0028379194961 0.0027802063054 0.0027222682702 0.0026636322453 0.002601439516 0.0025381245204 0.0024706571409 0.0023987887464 0.0023230342885 
0.0022448335435 0.0021627599527 0.0020770451445 0.0019908688849 0.001901051394 0.0018123591075 0.0017223103314 0.0016356673369 0.0015491609767 
0.0014652734918 0.0013873965824 0.0013124300225 0.0012430542275 0.001179085104 0.00112083931 0.0010686530645 0.0010228325775 0.00098247262134 
0.00094744906333 0.00091705545326 0.00089122192156 0.00086808837926 0.0008470421445 0.00082719853323 0.00080747368402 0.00078643596954 0.00076265283297 
0.00073635516592 0.00070422344849 0.00066747573341 0.00062519111561 0.00057924333203 0.00053004706183 0.00048321143606 0.00044680271173 0.00043348172866 
0.0004553153092 0.00051761046651 0.00061596031106 0.00074232001851 0.00088772767139 0.0010442683502 0.0012070702396 0.001370048953 0.0015274283257 
0.0016750432631 0.0018065076741 0.0019193911478 0.0020084805749 0.0020729509607 0.0021111119448 0.0021229856878 0.0021089281167 0.0020747376331 
0.0020193981114 0.0019515228236 0.0018742908067 0.001794019533 0.0017136232323 0.0016419023101 0.0015801239994 0.0015339822024 0.0015034944341 
0.0014895959838 0.0014921497783 0.0015074417422 0.0015329833997 0.001565082126 0.0016007434671 0.0016367989993 0.0016716819879 0.001704271697 
0.0017339726382 0.0017610193264 0.0017883613333 0.0018171038414 0.001851471254 0.0018925556216 0.0019452926768 0.0020103379011 0.0020873355407 
0.0021751814365 0.0022696527573 0.0023703986616 0.002467196171 0.00255659031 0.0026387022653 0.0027034579252 0.0027524482748 0.0027846086236 
0.0027996416551 0.0028024012371 0.0027865328778 0.0027636650714 0.002735674099 0.0026948766238 0.0026542018943 0.0026109838148 0.0025671490888 
0.0025221708209 0.0024762218814 0.0024284568107 0.0023841428662 0.0023325900878 0.0022824077861 0.0022289044879 0.0021712544231 0.0021110750577 
0.0020464082973 0.00197763426 0.0019038035523 0.0018259695293 0.001744947017 0.0016588161207 0.001570264173 0.0014784266679 0.0013851411095 
0.0012909700989 0.0011977371724 0.0011033339951 0.0010131604531 0.000925202303 0.000840089435 0.0007640086398 0.00069178470839 0.0006322646882 
0.00058035070688 0.00054508589833 0.00052260090318 0.00051457481979 0.00052276078888 0.00053884723411 0.00056907795771 0.00060191051805 0.00064071609383 
0.0006797364562 0.00072016169462 0.00076127295089 0.00080145670628 0.00083762074359 0.00087615423918 0.00090836558443 0.00094150394511 0.00097071369079 
0.00099881673538 0.0010221541294 0.0010470314725 0.0010636389852 0.0010800690341 0.0010898745501 0.0010973958763 0.0010965464367 0.0010918209169 
0.0010818403079 0.0010610675171 0.001040568541 0.0010046482464 0.00096985857041 0.00092763465956 0.00088087895795 0.00083344100355 0.00078587608297 
0.00073843131661 0.00069991581047 0.00066504670518 0.00064318205196 0.00062646144995 0.0006178800852 0.00061520740579 0.00061331609616 0.00061335420923 
0.00061264709207 0.00061091591456 0.00060763050534 0.00060411392374 0.00060158992452 0.0006011805965 0.000604330435 0.00061340035339 0.00062915436859 
0.00065241126206 0.00068430736923 0.00072103877345 0.00076845837346 0.00081863469765 0.0008730911557 0.00093215931815 0.00098567262943 0.0010410476503 
0.0010875033563 0.0011283631599 0.001156955685 0.0011772625749 0.0011790169344 0.001169840639 0.0011410753411 0.0010950975305 0.0010320532788 
0.00095391165677 0.0008610237773 0.00075542852963 0.00064085460996 0.00053343076622 0.00044597274146 0.00041599041726 0.00047185135995 0.00059255508977 
0.00076569799325 0.0009518797656 0.0011602508345 0.0013691120001 0.0015838014145 0.001793941042 0.0019981912645 0.0021895979089 0.0023696319587 
0.0025280792901 0.0026641256193 0.0027702739802 0.0028424065165 0.0028826087798 0.0028878672207 0.0028471720831 0.0027715464647 0.0026517210939 
0.0024995557074 0.0023154457157 0.0021005420345 0.001863698677 0.0016170304435 0.0013612916639 0.0011079159346 0.00086441208951 0.00063779735159 
0.00044158814374 0.00028601978133 0.00020570311058 0.00022003136654 0.0002786976193 0.00033392060074 0.00037360175106 0.00039471428545 0.00039625514574 
0.00038997455412 0.0003751756089 0.00035735473165 0.00034693929062 0.00034280352565 0.00035296956928 0.00037372321514 0.00040165209915 0.00043385523883 
0.00046828829154 0.00050270068446 0.00053893069441 0.00057948691626 0.00063136714361 0.0007002101982 0.00079477680577 0.00091976108511 0.0010836256693 
0.0012864645964 0.0015329951427 0.0018157024174 0.0021422066326 0.0025093876486 0.0029105690513 0.0033512351689 0.0038294828614 0.0043288748969 
0.0048655541957 0.0054073177703 0.0059802612476 0.006549206654 0.0071116525793 0.0076659376462 0.008197429485 0.0086874327197 0.0091230266073 
0.009498440512 0.0097947734737 0.0099787222781 0.010058201459 0.010014535622 0.0098563518469 0.009522770494 0.0090351645437 0.0084542395664 
0.0076887227745 0.0068358944789 0.0058461734569 0.0048898033758 0.0038852953088 0.0028966016849 0.0020164466171 0.0013267222537 0.0007089287415 
0.00031035738941 0.00015276407823 0 
TorsionArray 1 444 double
0 0 -9.8172028319e-05 0.00035467716454 0.00047139911046 0.00049407691638 0.00080943213727 0.001171572535 0.0014091082921 
0.0015489205294 0.0021408070993 0.0027280461081 0.0031380800515 0.0039779066962 0.0049673804095 0.0059625785177 0.0074241175735 0.0093276280927 
0.011433877575 0.014121697509 0.017496277553 0.021762467617 0.027006708325 0.032963320836 0.040366151996 0.048764976732 0.057334221582 
0.065405526393 0.071890815026 0.074976427715 0.073233593213 0.068044535522 0.060027424088 0.050272994011 0.040110616031 0.031247213647 
0.023058275339 0.015059541234 0.0086209066213 0.0028798232196 -0.0029982507085 -0.0086739014308 -0.014818833763 -0.020884684274 -0.027170073829 
-0.034579754954 -0.042532594533 -0.049877943663 -0.055884313928 -0.062387070254 -0.066012879322 -0.067303741822 -0.067411661598 -0.064670697462 
-0.062436003313 -0.058549291223 -0.056228449971 -0.05546737946 -0.052357144655 -0.052088775582 -0.051202796986 -0.050656268115 -0.049443853721 
-0.048132588147 -0.047065019577 -0.044020427806 -0.040540987727 -0.03650783646 -0.033033206044 -0.027940183106 -0.022100134356 -0.017394032372 
-0.012500791241 -0.006221602261 -0.00097833773906 0.0036345193272 0.009701839968 0.014085848655 0.018444284366 0.022247195032 0.025272554065 
0.027244909564 0.028482379928 0.028778037139 0.027397255822 0.025319083597 0.021695103457 0.018232178014 0.01305344622 0.0076334319446 
0.0020836378259 -0.0037727629101 -0.0085042735582 -0.013863251382 -0.018420119602 -0.021755463866 -0.024355583084 -0.026936665751 -0.028020776106 
-0.027959118569 -0.027267003141 -0.026130812181 -0.024534486504 -0.021943967371 -0.01943618714 -0.016834760587 -0.014200763327 -0.011323592569 
-0.0089716566425 -0.0063437502839 -0.0040160659271 -0.0025934324026 -0.0010301027402 0.0003413004794 0.001216396136 0.0016530401667 0.0016916274197 
0.0012256316036 0.0009103127219 6.5228927512e-05 -0.0013697116249 -0.0024842702348 -0.0035122023962 -0.00495415039 -0.0064010611799 -0.0073509102833 
-0.0082638704335 -0.0089781174255 -0.0092910229643 -0.009534263497 -0.0094787258352 -0.0092073662339 -0.0087778620233 -0.0082923775735 -0.0078689477173 
-0.007161840897 -0.0065598063598 -0.0061144521733 -0.00555356316 -0.0051712026264 -0.0048316875003 -0.004502281091 -0.0042339504714 -0.0042404201121 
-0.0041666698635 -0.0041464102887 -0.0044683573983 -0.0046259160211 -0.0050019690825 -0.0054795372149 -0.0060400192801 -0.0069669673479 -0.0077517750893 
-0.0087219868912 -0.010024171109 -0.011270285067 -0.012678471294 -0.014242528691 -0.015805091614 -0.017203852873 -0.018770296806 -0.020236518659 
-0.021442728946 -0.022783601524 -0.023567119868 -0.024681379147 -0.025915063688 -0.026782777399 -0.028124730266 -0.030154681294 -0.032604882685 
-0.03646636837 -0.042074335464 -0.049802131063 -0.061293502842 -0.078354105621 -0.10392652234 -0.13888256397 -0.18233357526 -0.21718982883 
-0.21914228787 -0.18738598175 -0.14539290692 -0.10818212517 -0.080189207245 -0.060150131799 -0.045390771258 -0.034475508513 -0.025744023981 
-0.018742493753 -0.012724660026 -0.0072938247226 -0.0024148430821 0.0024196216646 0.007313172519 0.012513007539 0.017942326283 0.023935065349 
0.030625599163 0.037659292121 0.04545422619 0.053752197314 0.061923488588 0.06939771375 0.075394674885 0.079031079735 0.079916681626 
0.076619261082 0.07046770122 0.061806775687 0.050984322089 0.039653368722 0.027901821591 0.015403149397 0.0027247857113 -0.0092645832041 
-0.021198056543 -0.033614451868 -0.045230488261 -0.056221769005 -0.064981964462 -0.071690786292 -0.076147675272 -0.076234530003 -0.073087730715 
-0.066934929881 -0.059364732318 -0.049636331774 -0.038359441532 -0.02831492173 -0.017937426913 -0.0075679237056 0.0015211905837 0.0098909845111 
0.016852138985 0.023542881375 0.029071051163 0.031894462978 0.035427353702 0.037781524526 0.037562497484 0.036909659623 0.035588628673 
0.033943372411 0.031968525864 0.028250283359 0.025814703249 0.023887362007 0.020069849247 0.018210110828 0.015842984866 0.013285609474 
0.011370605919 0.0096962500318 0.0081016555436 0.00546779411 0.0037126580867 0.0020360692773 -0.00037831341711 -0.0027743702386 -0.0062514055143 
-0.010866321214 -0.014621063071 -0.020090857766 -0.02821365835 -0.034373380568 -0.045602967103 -0.057842787942 -0.071275549644 -0.086530099589 
-0.10127563247 -0.11399866319 -0.11894826729 -0.11766927829 -0.10780735364 -0.094191274128 -0.0778698311 -0.062926364503 -0.049300701266 
-0.038014990035 -0.028038068086 -0.019882930081 -0.013866980564 -0.0080908911203 -0.003716041588 -0.00023020928074 0.003127887753 0.0056262749486 
0.0076568667216 0.0099256436677 0.011412568536 0.012734667241 0.014306817107 0.015812277211 0.017320482548 0.019039557287 0.021470320223 
0.023713614001 0.027095540546 0.030647229843 0.035311269529 0.041006961272 0.047615659148 0.055539394342 0.064440599888 0.074503793922 
0.084667279109 0.093479264194 0.099868394556 0.10137556602 0.10084926907 0.093489097094 0.086430116612 0.078463257998 0.068211451881 
0.059564690143 0.05437699122 0.052191028297 0.050479346794 0.049008580737 0.046924223 0.048647306865 0.050598495438 0.049845278748 
0.048800239146 0.04379672959 0.041304967485 0.037354601143 0.031269247831 0.028576265671 0.023073391587 0.019411796584 0.016300699756 
0.01286086255 0.0099657800464 0.0077439780287 0.0050756655127 0.0021759677965 -0.00064679989951 -0.0051644420367 -0.010342470321 -0.016664808221 
-0.025836660693 -0.040985749302 -0.06607985832 -0.10643173363 -0.17543395067 -0.27924299159 -0.34664885728 -0.28323205814 -0.18494001642 
-0.11073803557 -0.069511403997 -0.044375427636 -0.028952450329 -0.019133487921 -0.012359497107 -0.0078138525137 -0.0045596414952 -0.0021615271568 
-0.00041640652632 0.00093948059758 0.0021315608504 0.0030992548768 0.0038697593124 0.0048223190075 0.0058889776316 0.0070174305671 0.0083468823865 
0.0098597718929 0.011877819581 0.014755677521 0.018366548267 0.023042405227 0.030461691283 0.041442490762 0.059663990331 0.093813563001 
0.16301364472 0.32169592651 0.50388802655 0.35579230556 0.18515953579 0.11195096 0.082938395374 0.072438932777 0.072723667367 
0.078747762673 0.090634885764 0.10306927574 0.11175821439 0.11250836872 0.098337884537 0.078343495683 0.053344008352 0.026915615814 
0.0043402202879 -0.01835528612 -0.039762763963 -0.057951024656 -0.072807626868 -0.081997540981 -0.082717132916 -0.078527204619 -0.070452968467 
-0.060849539997 -0.050689699952 -0.042189495707 -0.035240358583 -0.029241077952 -0.024572010093 -0.020813762386 -0.017515526993 -0.0151550878 
-0.012906516325 -0.011265695987 -0.0098713797029 -0.0085759746998 -0.0075986137173 -0.0067940777976 -0.0061050746657 -0.005417385418 -0.0049046059322 
-0.0044506401598 -0.003916361022 -0.0034966144028 -0.003215341511 -0.0029788312736 -0.0024381974749 -0.001841432145 -0.0016062431772 -0.0010445754955 
-0.00042524339814 0.00058246825242 0.0018873149185 0.0027480900993 0.0052774427934 0.009878912163 0.016005233719 0.025989122951 0.065086627711 
0.12008640617 0 0 
TangentArray 3 444 double
-0.038156783119 0.37651427277 0.92562468761 -0.038156783119 0.37651427277 0.92562468761 -0.037342262465 0.37483536088 0.92633903495 
-0.035567672999 0.37117033008 0.92788335835 -0.032874149992 0.36559282144 0.93019416208 -0.029331095821 0.35822532711 0.93317431482 
-0.025035210324 0.34924893844 0.93669547733 -0.020104201121 0.33887887111 0.94061518796 -0.01466772608 0.32735288969 0.94478830614 
-0.0088682569819 0.3149427092 0.94906925139 -0.0028512065969 0.30193704964 0.95332360124 0.0032422812039 0.28860420559 0.95744300098 
0.0092814701687 0.27519919522 0.96134242456 0.015147635149 0.2619691923 0.96495735213 0.020738628802 0.24911729402 0.96825124998 
0.025971030411 0.23681169417 0.971208385 0.030780949123 0.2251910451 0.97382828383 0.03512215109 0.21434809379 0.97612567285 
0.038963559502 0.20434265371 0.97812367363 0.042291613183 0.1952057882 0.9798500496 0.045105418322 0.18693982708 0.98133531593 
0.047414799568 0.17952316851 0.98261043591 0.049236529102 0.17291855777 0.98370469989 0.050594529592 0.16707534281 0.98464512562 
0.051520648154 0.16193569524 0.98545545481 0.052047367949 0.157434103 0.98615697265 0.052209992652 0.15350377666 0.98676780816 
0.052046983721 0.1500792018 0.98730306627 0.051597241284 0.14709614208 0.98777550571 0.050898735552 0.14449597294 0.98819544247 
0.049989203454 0.14222273178 0.98857158269 0.04890794471 0.14022671208 0.98891075541 0.047690478423 0.1384639226 0.98921856048 
0.046370394984 0.13689613916 0.98949948638 0.04497984305 0.13548982948 0.98975720246 0.043548882449 0.13421614903 0.98999470715 
0.042104158767 0.13305317715 0.99021416465 0.040669224705 0.13198169698 0.99041751086 0.03926657199 0.13098503634 0.99060640851 
0.037912564954 0.13004990318 0.99078234749 0.036621327615 0.12916630565 0.99094648889 0.035404371742 0.12832478724 0.99110003503 
0.034269433879 0.12751694725 0.99124418488 0.033222977289 0.12673539278 0.9913800351 0.032267680783 0.12597337191 0.9915087021 
0.031404010422 0.12522466729 0.99163126757 0.030630969396 0.12448166535 0.99174898977 0.029947862726 0.12373789116 0.9918629239 
0.02935129178 0.12298644037 0.99197421194 0.028836430803 0.12222030473 0.99208399713 0.02840084128 0.12143171264 0.99219339414 
0.028041044505 0.12061320772 0.9923034586 0.027754405589 0.11975841311 0.99241504194 0.027539804252 0.11886038217 0.99252897627 
0.027395622451 0.1179117598 0.99264610853 0.027323629032 0.11690850119 0.99276675088 0.027324885193 0.11584576701 0.99289128756 
0.027403314273 0.11471805581 0.99302005319 0.027566208116 0.1135245466 0.99315269797 0.027817303455 0.1122659915 0.99328875197 
0.028164314899 0.11094331141 0.99342757815 0.028614923644 0.10955754662 0.99356848286 0.029175769916 0.108114 0.99371028849 
0.029852291745 0.10661828675 0.99385179056 0.030648725662 0.10507638788 0.99399175466 0.031567775914 0.10349784839 0.99412859877 
0.032608181311 0.10188885389 0.99426121717 0.033766757479 0.10025505925 0.9943886208 0.035036239191 0.098603150679 0.99450986954 
0.0364085958 0.096939976816 0.99462407725 0.037871365985 0.095269464708 0.99473086246 0.039408702895 0.093593761213 0.99483021767 
0.041007078986 0.091914065941 0.99492222005 0.04265071642 0.090231541239 0.99500712829 0.044320629419 0.088543952469 0.99508575022 
0.046001676994 0.086847895742 0.99515892636 0.047678974062 0.085141272582 0.99522745096 0.049336128855 0.083417928206 0.9952926181 
0.050961784085 0.08167286591 0.99535543377 0.052544619048 0.079901106219 0.99541693588 0.054075879603 0.078097409586 0.99547807302 
0.055550437785 0.076255222905 0.99553969777 0.056965698052 0.074368991488 0.99560241178 0.058319865397 0.072434585782 0.99566662296 
0.059614524561 0.070446912897 0.99573256496 0.060855482927 0.068401422693 0.99580010824 0.062049681673 0.066294318255 0.99586891726 
0.0632079278 0.064123085627 0.99593824495 0.064340747301 0.061884585321 0.99600731239 0.065463579784 0.059577482709 0.99607481811 
0.066592838644 0.057201936225 0.99613921333 0.067746336098 0.054758226759 0.99619876056 0.068944555923 0.052246638542 0.99625144264 
0.070205361698 0.049667860688 0.99629529297 0.071549265049 0.047025449956 0.99632791275 0.072996359237 0.044321931351 0.99634687631 
0.074564211416 0.041558985362 0.99634985277 0.07626834694 0.038739709657 0.99633446902 0.078125194277 0.035868031703 0.99629811719 
0.080146612718 0.032947305298 0.99623842304 0.082340312933 0.029979460935 0.99615325367 0.084711328055 0.026966614583 0.99604055771 
0.087261495548 0.023911113963 0.99589843359 0.08999071927 0.020814106504 0.99572508426 0.092892311696 0.017675787641 0.99551925394 
0.095956772614 0.014497882152 0.995279915 0.099172573659 0.011281413367 0.99500629664 0.10252629296 0.0080269867533 0.99469790727 
0.10600030418 0.0047355934288 0.99435482081 0.10957793879 0.0014090419763 0.99397720795 0.11323876891 -0.0019506421023 0.99356588922 
0.1169612229 -0.0053397220741 0.99312212729 0.12072843094 -0.0087528156472 0.99264698367 0.12452266466 -0.012185316147 0.99214193745 
0.12832513626 -0.015630537126 0.99160896815 0.13211871555 -0.01907961443 0.99105025771 0.1358901847 -0.022523883066 0.99046783511 
0.13962997437 -0.025954783368 0.98986353579 0.14333023173 -0.02936141946 0.9892392793 0.14698391287 -0.032734736804 0.98859706977 
0.15058968986 -0.036066722952 0.9879382252 0.15415029416 -0.039348760628 0.98726357263 0.15766737144 -0.042573869463 0.98657410549 
0.16114416065 -0.045737198542 0.98587051288 0.16458913763 -0.048835492659 0.98515253156 0.16801147155 -0.051866123179 0.98441965172 
0.17141898924 -0.054828924961 0.98367134711 0.17482043172 -0.057724383226 0.98290676681 0.17822383051 -0.060553707796 0.98212499953 
0.1816364486 -0.063320022437 0.98132501002 0.18506537446 -0.066026437498 0.98050564339 0.18851476943 -0.068675718622 0.9796661816 
0.19198701143 -0.071270716116 0.97880614652 0.19548304929 -0.073814398389 0.97792525892 0.19900196978 -0.076308811519 0.97702363396 
0.20254121604 -0.078754504206 0.97610183069 0.20609484938 -0.081152330725 0.97516112119 0.20965556219 -0.083501599687 0.97420327863 
0.21321571556 -0.085800633623 0.97323034781 0.21676477441 -0.088047144351 0.97224520207 0.22029231293 -0.090237876047 0.97125095757 
0.2237874152 -0.09236926509 0.970251056 0.22723681329 -0.094436602694 0.96924979172 0.23062755067 -0.096435213019 0.96825161118 
0.23394906919 -0.098359919893 0.96726064697 0.23719057904 -0.10020649538 0.96628116379 0.24034080822 -0.10197021591 0.96531775648 
0.24339222374 -0.10364637987 0.9643742289 0.2463369822 -0.10523177775 0.96345439132 0.24916929985 -0.10672319144 0.96256159305 
0.25188556774 -0.10811851827 0.96169852177 0.25448430797 -0.10941675627 0.96086716587 0.25696616872 -0.11061645818 0.96006894925 
0.25933082876 -0.11171743131 0.95930534075 0.26158297285 -0.11272145773 0.95857614266 0.26372810154 -0.11362970886 0.95788087867 
0.26577110313 -0.11444415506 0.95721902202 0.26771898916 -0.11516746328 0.95658925263 0.26957892258 -0.11580222575 0.95599008834 
0.271358401 -0.11635151722 0.955419773 0.27306514934 -0.11681920548 0.95487627337 0.27470645525 -0.11720831218 0.95435767666 
0.27628859097 -0.11752185028 0.95386226951 0.27781688006 -0.11776311584 0.95338849883 0.2792960557 -0.11793462437 0.95293501229 
0.28072905722 -0.11803981717 0.9525008126 0.28211690162 -0.11808090878 0.95208558061 0.28345947238 -0.11805981567 0.95168934398 
0.28475508531 -0.11797947765 0.95131245353 0.2860002109 -0.11784223568 0.9509558806 0.28718915176 -0.11764999791 0.95062130689 
0.28831541365 -0.11740523773 0.95031059786 0.2893699776 -0.11710994823 0.95002646073 0.2903420152 -0.11676638824 0.94977214361 
0.29122028726 -0.11637724285 0.94955098949 0.29199286393 -0.11594508461 0.94936658082 0.2926464738 -0.11547260147 0.94922290305 
0.29316696598 -0.11496263058 0.94912418768 0.29354101655 -0.11441845867 0.94907433214 0.29375508483 -0.11384269186 0.94907733702 
0.29379647815 -0.11323828842 0.94913682863 0.29365434059 -0.11260839714 0.94925574907 0.2933197934 -0.11195577578 0.94943636073 
0.29278536367 -0.11128289266 0.94968039288 0.29204662556 -0.11059173782 0.94998854521 0.29110326488 -0.10988437942 0.95036009614 
0.28995827875 -0.10916243048 0.95079322692 0.2886184136 -0.10842657433 0.95128496746 0.28709493027 -0.10767756827 0.95183088955 
0.28540328202 -0.10691506372 0.95242539643 0.28356333495 -0.10613847054 0.95306162453 0.28159865519 -0.10534652101 0.95373177986 
0.27953610312 -0.10453716633 0.9544273403 0.27740485619 -0.10370842499 0.95513931358 0.27523506768 -0.10285743078 0.95585877955 
0.27305760085 -0.10198105493 0.95657692375 0.27090332014 -0.10107588238 0.9572852538 0.26880015642 -0.10013823733 0.95797641377 
0.26677431769 -0.099164437759 0.95864376997 0.26484905813 -0.098150805824 0.95928170822 0.26304240656 -0.097093869072 0.95988617707 
0.26136893742 -0.095990210368 0.96045414157 0.25983983777 -0.094837008823 0.96098345483 0.25846126737 -0.09363193654 0.9614732621 
0.2572351877 -0.092373003565 0.96192374252 0.25616000495 -0.091059207978 0.96233584185 0.25523075464 -0.089690065322 0.96271125166 
0.2544402617 -0.08826620337 0.96305203939 0.2537769907 -0.086789214413 0.96336123612 0.25322775089 -0.085261423019 0.96364215138 
0.25277748763 -0.083686373741 0.96389840367 0.25240868428 -0.082068691546 0.96413411202 0.25210328263 -0.080413707542 0.96435344689 
0.25184229087 -0.078727738715 0.96456073095 0.25160495288 -0.077018016242 0.96476068165 0.25136975875 -0.075292076021 0.96495821032 
0.25111634422 -0.073557710691 0.96515793778 0.25082477299 -0.07182315941 0.96536437008 0.25047472136 -0.070096227109 0.96558217305 
0.25004766966 -0.068384060571 0.96581560515 0.24952648455 -0.066693233907 0.96606860318 0.24889731093 -0.065029085908 0.96634432093 
0.24814880065 -0.063395596504 0.96664531814 0.2472711879 -0.06179507788 0.96697379902 0.2462600203 -0.060227967633 0.96733065408 
0.24511447921 -0.058692893909 0.96771588614 0.24383785445 -0.057186737212 0.96812849241 0.24243556669 -0.055704741043 0.96856697127 
0.24091776326 -0.054240487992 0.96902868936 0.23930041467 -0.052786288026 0.96950962828 0.23759859241 -0.051333921855 0.97000605016 
0.23583070027 -0.049874774571 0.97051346599 0.23401811811 -0.048400237217 0.97102674393 0.23218062069 -0.046902208453 0.97154122003 
0.23033790843 -0.045373557706 0.97205230734 0.2285068102 -0.043808366259 0.97255614991 0.22670495528 -0.042202221329 0.97304873247 
0.2249471396 -0.040552223623 0.97352673386 0.22324064885 -0.038856906999 0.97398857975 0.22159630309 -0.037116400846 0.97443186075 
0.22002163174 -0.035332188028 0.97485492154 0.21851763215 -0.033506881635 0.97525757281 0.21708488264 -0.031644257478 0.97563968487 
0.21572255816 -0.02974869284 0.97600143093 0.21442929116 -0.027825222913 0.97634309342 0.21320320793 -0.025879583854 0.97666505992 
0.2120378176 -0.02391769536 0.97696873428 0.21093047081 -0.021945933002 0.9772546815 0.20987921663 -0.019970912283 0.97752333839 
0.20887775324 -0.017999512033 0.97777610002 0.20792444294 -0.016038780937 0.97801338617 0.20701623894 -0.014095930736 0.97823595393 
0.20614980235 -0.012178403312 0.97844465632 0.20532321225 -0.010293725052 0.9786400859 0.20453514919 -0.008449475476 0.97882275163 
0.20378436628 -0.0066531418663 0.97899319087 0.2030674614 -0.0049121298353 0.97915242792 0.20238322776 -0.0032335867405 0.97930106353 
0.20173051014 -0.0016242586596 0.97943971895 0.20110706663 -9.042456663e-05 0.97956926227 0.20051091354 0.0013622163445 0.9796905215 
0.19993865857 0.0027286312709 0.97980461694 0.19938570343 0.00400450164 0.97991290696 0.19885017142 0.0051863057239 0.98001617923 
0.1983281356 0.0062712482177 0.98011561669 0.19781385735 0.0072573062405 0.98021273678 0.19730615468 0.0081432850774 0.98030809863 
0.19679884 0.0089286249341 0.98040323145 0.19628758682 0.0096134019127 0.98049924312 0.19576847475 0.010198386341 0.98059711258 
0.19523720864 0.010684931638 0.98069784572 0.19469005134 0.011074862325 0.98080228963 0.19412187041 0.011370536095 0.98091152014 
0.19353078326 0.01157489403 0.98102592104 0.19291245587 0.011691295109 0.98114631834 0.19226503234 0.011723563144 0.98127300758 
0.19158525679 0.011676014004 0.98140652131 0.1908701308 0.011553334981 0.98154730585 0.19011875594 0.011360601491 0.98169536791 
0.18932939854 0.011103247014 0.9818508526 0.18850131286 0.010787017974 0.98201369405 0.18763201297 0.010417869855 0.98218414551 
0.18671957692 0.010001849118 0.98236233774 0.18576473264 0.0095451372494 0.98254788914 0.1847654839 0.009053919315 0.98274093357 
0.18372145996 0.0085343033696 0.98294129571 0.18263329719 0.0079923692781 0.98314861582 0.18150013208 0.007434104386 0.9833628202 
0.18032284431 0.0068653569855 0.98358351892 0.17910325541 0.0062919654321 0.98381016211 0.1778415669 0.0057197214305 0.98404251019 
0.17654092889 0.0051544606224 0.98427980369 0.17520603179 0.0046021393418 0.98452103418 0.17384070742 0.0040688361151 0.98476537968 
0.17245060109 0.0035608617682 0.98501173112 0.17104288337 0.0030847324014 0.9852587561 0.16962614954 0.0026471592078 0.98550492741 
0.16820707866 0.0022550483856 0.98574910269 0.16679751502 0.0019153787167 0.98598931044 0.16540592448 0.0016350767093 0.98622421724 
0.16404436499 0.0014208453952 0.98645193878 0.16272506638 0.0012789215788 0.98667062241 0.16145559479 0.0012148414328 0.98687923024 
0.16024845669 0.00123315572 0.98707594007 0.15911292526 0.0013371447554 0.98725948416 0.15805684176 0.0015285502622 0.98742883202 
0.1570892195 0.001807363614 0.98758276137 0.15621446199 0.0021716916408 0.9877207731 0.15543585607 0.0026176892611 0.987842519 
0.15475354322 0.0031396109856 0.98794811792 0.15416556809 0.0037300255989 0.98803798739 0.15367086413 0.0043801748493 0.98811238206 
0.15326279066 0.0050803097801 0.98817240776 0.15293734294 0.0058202286294 0.98821874809 0.15268932417 0.0065898607507 0.9882522674 
0.15251060917 0.007379733619 0.98827428056 0.15239389142 0.0081815152111 0.98828597312 0.15233467903 0.0089883948515 0.98828809278 
0.15233089689 0.0097953581655 0.98828100701 0.15238066635 0.010599324364 0.98826503876 0.1524824717 0.011399128764 0.98824043415 
0.15263469031 0.012195518673 0.98820742794 0.15284083848 0.012990813565 0.9881654299 0.15310637138 0.013788607844 0.98811351237 
0.15343555522 0.01459342734 0.98805089053 0.15383427311 0.015410334447 0.98797648657 0.15430471846 0.016244405578 0.98788975759 
0.15485276307 0.017100232956 0.98778955441 0.15548321423 0.017981947305 0.98767485524 0.15619512166 0.018892528538 0.98754552115 
0.15699209616 0.019833541623 0.98740068481 0.15786960724 0.020805126721 0.9872407679 0.15882266564 0.021805565386 0.98706629878 
0.15984512955 0.022831680371 0.98687803144 0.16092564207 0.023878548627 0.9866776336 0.16205147115 0.024939930738 0.98646709046 
0.16320887618 0.026008365541 0.98624866421 0.16438024565 0.027074918705 0.98602539704 0.16554615247 0.028130481029 0.98580076458 
0.16668712898 0.029165631504 0.9855783921 0.16777891067 0.030170538841 0.985362865 0.16879885881 0.03113641992 0.98515860074 
0.16972589732 0.032054974709 0.98496984643 0.17053918532 0.03291915897 0.98480085055 0.17121674615 0.033723491174 0.98465605771 
0.17173578528 0.03446333952 0.98454004402 0.17207922857 0.035136660227 0.98445627338 0.17222896989 0.035742736708 0.9844082683 
0.17216879335 0.036282070192 0.98439906439 0.17188423736 0.036757073214 0.98443116901 0.17136421545 0.037171818312 0.98450625269 
0.17059757747 0.037531115682 0.98462575729 0.16957691004 0.037841109794 0.98479019186 0.16829864607 0.038108205026 0.98499915251 
0.16675838701 0.03833933482 0.98525211787 0.16495801041 0.038541873928 0.98554724836 0.16289990787 0.038722616151 0.98588243671 
0.16059214573 0.038888678224 0.9862544466 0.15804663197 0.039046282768 0.98665933834 0.15527770168 0.039201360664 0.98709274574 
0.15230418934 0.039359309715 0.98754963351 0.14915097274 0.039524610336 0.9880241862 0.1458474139 0.039701091748 0.98851016948 
0.14242961667 0.039892186166 0.98900071677 0.13893469909 0.040100544759 0.98948931055 0.13540036726 0.040327805686 0.98996990289 
0.13187332219 0.040575442902 0.99043579314 0.12840084242 0.040844551604 0.99088089409 0.12503018231 0.041135394303 0.99129981986 
0.12180814646 0.041447437727 0.99168789715 0.11877537759 0.041779485448 0.99204177547 0.11597326674 0.042129571016 0.99235845371 
0.11343883201 0.042495682145 0.99263575817 0.111197394 0.042874768778 0.99287305018 0.10926775168 0.043262334621 0.99307045513 
0.10766255108 0.043653890186 0.99322863076 0.10638345641 0.044043693194 0.99334924034 0.1054244663 0.044425095016 0.99343449348 
0.1047692816 0.044791805912 0.9934873385 0.10439438787 0.045136459925 0.99351120364 0.1042734644 0.045451820331 0.99350952519 
0.1043710871 0.045730366011 0.99348649201 0.10464904567 0.04596414272 0.99344646299 0.10506951626 0.046146691332 0.99339361767 
0.10559347593 0.046271532294 0.99333225214 0.10618404064 0.046332436566 0.99326645712 0.10680362926 0.046324349993 0.99320040242 
0.10742232945 0.046243515085 0.99313744288 0.10801641315 0.046086670717 0.99308029548 0.10856248899 0.045851415976 0.99303163778 
0.10904677908 0.045536915216 0.99299304596 0.10945989748 0.045143587744 0.99296555193 0.10979894981 0.044672627953 0.99294941811 
0.11006998007 0.04412580798 0.99294386174 0.11028124754 0.043506293822 0.99294775736 0.11044829875 0.042818679719 0.99295907971 
0.11059441611 0.042067808601 0.99297491137 0.11074508146 0.041259026866 0.99299205416 0.11093209269 0.040398937374 0.99300654412 
0.11119200523 0.039494688527 0.99301385063 0.11156301072 0.038553008079 0.99300924477 0.11208705258 0.037581243902 0.99298748368 
0.11280800652 0.036587770695 0.99294294333 0.11376855548 0.035579856777 0.99286997617 0.11501344322 0.034564719557 0.99276240261 
0.1165886111 0.033549761839 0.99261347424 0.11853812762 0.032541895564 0.99241611098 0.12090004092 0.031547313481 0.99216326636 
0.12370888119 0.030571574269 0.99184751427 0.12699983358 0.02961971977 0.99146039481 0.13079690294 0.028696327234 0.99099378958 
0.13511950697 0.027805597653 0.99043907817 0.13998573413 0.026950432727 0.98978667824 0.14539733079 0.026133145444 0.98902814667 
0.15135203748 0.025356597202 0.98815464566 0.15783511244 0.024621819198 0.98715846919 0.16482440766 0.023929853067 0.98603259417 
0.17229216928 0.02328164886 0.98477072115 0.18018682976 0.022677028032 0.98337096702 0.18845617924 0.022115980742 0.98183254779 
0.19704111653 0.021598140913 0.98015729284 0.20586844938 0.021123275245 0.97835166929 0.21485403805 0.020689927971 0.97642699124 
0.22391149554 0.020296962549 0.97439810934 0.23295156806 0.019942957899 0.97228382963 0.2418710058 0.019625493692 0.97010991983 
0.25056678308 0.019342470151 0.96790606779 0.25894491159 0.019092315506 0.96570337902 0.26691935012 0.018873294898 0.96353404676 
0.27439755888 0.018681874584 0.96143484815 0.28128476037 0.018514639417 0.95944572109 0.28752902768 0.018369830267 0.95759574329 
0.29307928934 0.018244655744 0.95591404566 0.29789235305 0.018136932822 0.95442715681 0.30194928489 0.018043855934 0.95315321361 
0.305269075 0.017963063821 0.95209669687 0.30789844165 0.017893935316 0.95125094308 0.30987235148 0.017835065113 0.9506108753 
0.3112649735 0.017784687162 0.95015673506 0.31219032088 0.017742431437 0.94985388859 0.31274278653 0.017708201787 0.94967276946 
0.31301433537 0.017681817519 0.94958379261 0.31313539121 0.017664014383 0.94954421138 0.31313539121 0.017664014383 0.94954421138 

NormalArray 3 444 double
-0.41026457477 0.83872659139 -0.35807915827 -0.41026457477 0.83872659139 -0.35807915827 -0.40701553984 0.84090588452 -0.35667302072 
-0.40777632811 0.84227262526 -0.35255537291 -0.40722781002 0.84503952862 -0.34651653036 -0.40716689313 0.84833034956 -0.33845345196 
-0.40680211632 0.85234253085 -0.328670425 -0.4060538194 0.85695233255 -0.31741612354 -0.40482856182 0.86203795336 -0.30496623174 
-0.40339377718 0.86732424581 -0.29158551603 -0.40167132893 0.87269547171 -0.27760179603 -0.3986888566 0.87843462877 -0.26343841519 
-0.3953580357 0.8840599849 -0.24925883476 -0.39111128519 0.88972799147 -0.23540616768 -0.38547558829 0.89557388467 -0.22216207581 
-0.37850880296 0.90153030201 -0.20970026379 -0.37007246635 0.9076176919 -0.19818298363 -0.35895433148 0.91425675883 -0.18784665779 
-0.3452116861 0.9213492261 -0.17873023064 -0.32797015571 0.92909396404 -0.17093853561 -0.30631053551 0.93760524811 -0.16453040616 
-0.27891458072 0.94696863628 -0.15955268272 -0.24412238411 0.95711049118 -0.15602489945 -0.20035766171 0.96756252421 -0.15388167253 
-0.14649674348 0.97731687324 -0.15293931291 -0.078614874313 0.98507677723 -0.15311252235 0.0023084717449 0.98809427921 -0.15383226692 
0.097466555488 0.98315969762 -0.15458744949 0.20275376976 0.96695091458 -0.15458602021 0.31459459834 0.93678461514 -0.15318232119 
0.42287864908 0.89369272143 -0.1499565531 0.52093565204 0.8411829083 -0.14504261863 0.60466914691 0.784266782 -0.13892745385 
0.67166835873 0.72893895143 -0.1323239244 0.72272956076 0.67957196853 -0.12587264032 0.75989099665 0.6388708914 -0.12004023213 
0.78739137892 0.60565808978 -0.11486119751 0.80508583004 0.58273437326 -0.11071339793 0.81570240585 0.56839709113 -0.10749107816 
0.82074960566 0.56153477879 -0.10511316296 0.82078415357 0.56177319883 -0.10355793703 0.8152393746 0.56990688296 -0.10291213175 
0.80506029092 0.58418506433 -0.10298416676 0.78795363911 0.60688990367 -0.10398897751 0.7658378306 0.63431775923 -0.10551491623 
0.73516873708 0.6692583429 -0.10779702446 0.69612557646 0.70935935303 -0.11053727905 0.64562268801 0.75514475644 -0.11370022671 
0.58700163196 0.80113142877 -0.11669412115 0.51811606831 0.84693549927 -0.11939849176 0.43953070623 0.88997187147 -0.1215023715 
0.35775393277 0.9257288066 -0.12263074742 0.27246990278 0.95429844565 -0.12277877957 0.18894169052 0.97438902021 -0.12193061502 
0.11007338389 0.98662432374 -0.12023432935 0.0330621211 0.99248850196 -0.11778569361 -0.034091908765 0.99279235077 -0.11489599647 
-0.10221577865 0.98850762099 -0.11137602002 -0.16510303064 0.98040200508 -0.1074844068 -0.22256917139 0.96942493234 -0.10333568847 
-0.28078440361 0.9546868736 -0.09865643446 -0.33331955111 0.93813175008 -0.09384506559 -0.38647301018 0.91804154643 -0.088534351659 
-0.43335911984 0.8973679063 -0.083250909906 -0.48017425371 0.87373758804 -0.07755845094 -0.52215510161 0.84981496047 -0.071892856506 
-0.56017122674 0.82572371748 -0.06624604997 -0.59351388201 0.80252714745 -0.060757299651 -0.62239649025 0.7807332935 -0.055480927807 
-0.64812187753 0.75987129813 -0.050335297226 -0.66751868899 0.74318533443 -0.045764162082 -0.6829804679 0.72925374512 -0.04155304675 
-0.69446355095 0.71853653622 -0.037757416738 -0.70212148438 0.71122570852 -0.034400766138 -0.70384072898 0.70964583752 -0.03179643883 
-0.70341394451 0.71016960229 -0.029461138049 -0.69792856921 0.71562816719 -0.027785582758 -0.68781438243 0.72539530456 -0.026702573649 
-0.6749552064 0.73740226481 -0.025949358313 -0.65699250344 0.75345555607 -0.025798748927 -0.63687748955 0.77053140704 -0.025853705014 
-0.61242111749 0.79009256836 -0.026345934562 -0.58741181041 0.80884403328 -0.026808483875 -0.55907979164 0.82865643428 -0.027537256694 
-0.53207102283 0.84623612546 -0.028015114242 -0.50495482398 0.86267847694 -0.028398435837 -0.48088778309 0.8763229336 -0.028373510914 
-0.46021175096 0.88736989044 -0.027925290028 -0.44266029854 0.89627999515 -0.027092995289 -0.43236288357 0.9013391774 -0.025495571889 
-0.42610422238 0.90437019033 -0.02344675916 -0.42739246224 0.90383109712 -0.020616282201 -0.43353135634 0.90097340383 -0.017247859515 
-0.44464807101 0.89560638133 -0.013315504368 -0.4616650929 0.88701152058 -0.0087123101381 -0.48177193323 0.87628889499 -0.003684679729 
-0.50484484744 0.86320827534 0.001775779715 -0.52924669478 0.84843463029 0.0075242396272 -0.5560778149 0.83101752029 0.013687393686 
-0.58139351866 0.81337976872 0.019872802691 -0.60652802664 0.7946296398 0.026220000965 -0.62929590382 0.77648602539 0.032497966198 
-0.65093292589 0.75814137947 0.038832650385 -0.66980459733 0.7411700369 0.045041955965 -0.68603399008 0.72577084003 0.051127802697 
-0.69994974565 0.71190477916 0.057113387035 -0.71136268058 0.69999895029 0.062965119453 -0.72067347803 0.68986086508 0.068714808395 
-0.727372303 0.68220998928 0.074290398839 -0.73287425607 0.6756638177 0.079835645177 -0.73559156795 0.67205166925 0.085156321056 
-0.73755762577 0.66919767535 0.090461151754 -0.7381560495 0.66781272606 0.095665090293 -0.73780959747 0.66744029296 0.10079907349 
-0.73637934632 0.66824074286 0.10582895584 -0.73471720495 0.66925863342 0.11083099897 -0.73259406178 0.67074936163 0.11576370124 
-0.73083077535 0.67180091774 0.12070586035 -0.72934720792 0.67250905873 0.12563525073 -0.72801416747 0.67302180555 0.13052594082 
-0.72781120594 0.67226160892 0.13548128169 -0.72868317461 0.67028584276 0.14049099626 -0.73023285189 0.66752365969 0.14550651456 
-0.73278019632 0.6635995254 0.15056179385 -0.73671116013 0.65803764708 0.15570202816 -0.74167190326 0.65118129454 0.16089036503 
-0.74723578264 0.64347111337 0.16608314602 -0.75380467947 0.63437004277 0.17132762195 -0.76062842709 0.62472037256 0.17654702492 
-0.76779628065 0.61437249941 0.18175616467 -0.77509298157 0.60356030085 0.18693804629 -0.7822123113 0.59266736398 0.19206586301 
-0.78908044589 0.58179830373 0.19713645956 -0.79548795591 0.57126247447 0.20213385979 -0.80154246969 0.56093793329 0.20707077119 
-0.8072277131 0.55087420223 0.21194582451 -0.8120625816 0.54183798294 0.21671632107 -0.81671544908 0.53286201966 0.22143609287 
-0.82077001779 0.52462443293 0.2260658804 -0.82445425373 0.51680851257 0.23061687891 -0.8278366953 0.50933396552 0.23508576625 
-0.83093102817 0.50220571404 0.23946408334 -0.83373753569 0.49545199077 0.2437397104 -0.83636638085 0.48890993994 0.24790794181 
-0.83918795831 0.48194318641 0.25198082409 -0.84167184962 0.47549631673 0.25591356026 -0.84447267459 0.46840658651 0.25973288506 
-0.84748233591 0.46085056401 0.26342066733 -0.85052436303 0.45314696608 0.26695717827 -0.85413371975 0.44425462458 0.27035794297 
-0.85788845856 0.43494107447 0.27359395901 -0.86231714722 0.42409799666 0.27667675516 -0.86740141668 0.41163545728 0.27959083079 
-0.87279859472 0.39814866512 0.28231233327 -0.87903631228 0.38231430863 0.28483491904 -0.88589281129 0.36434959971 0.28712940654 
-0.89324646831 0.34423009701 0.2891649826 -0.90117878546 0.32133345824 0.29089792927 -0.90944425 0.29577457077 0.29228164401 
-0.91787426361 0.26740549744 0.29325950305 -0.92602404718 0.23697592173 0.29380584842 -0.93405063342 0.20305529643 0.29379918448 
-0.941211855 0.16765151889 0.29328009176 -0.94756021353 0.12958617842 0.29212508298 -0.95269691532 0.089829074459 0.29034346027 
-0.95635902027 0.049399401468 0.28798806134 -0.95855965748 0.0063383018324 0.28482136328 -0.95898103329 -0.037453337301 0.28098509804 
-0.95750450718 -0.082443678025 0.2763840782 -0.95388233088 -0.12943681651 0.27084056077 -0.94765765611 -0.17945628406 0.26408409443 
-0.93838994254 -0.23211372963 0.25602252293 -0.92441074967 -0.29179892882 0.24559753872 -0.90445927763 -0.35761100286 0.23252480673 
-0.87445744881 -0.43491129448 0.21488679846 -0.82969429519 -0.5244768321 0.19113196781 -0.75814770382 -0.63296550575 0.15673776736 
-0.64509774101 -0.7564817865 0.10762997367 -0.46736275563 -0.8832455987 0.038069239824 -0.21465379922 -0.97538071669 -0.050558916022 
0.077841958533 -0.98682564892 -0.14183006776 0.33840819941 -0.91648079702 -0.21340768324 0.52849899516 -0.80858133801 -0.25862140656 
0.65416952339 -0.70107223203 -0.28383086539 0.73441151866 -0.61035499404 -0.29682739513 0.78675169555 -0.53769538754 -0.30315909976 
0.82163744412 -0.48103913465 -0.30579938089 0.84547635249 -0.43738727614 -0.30636923484 0.86218536396 -0.40392233637 -0.30575013386 
0.87366443417 -0.37953521719 -0.30440675975 0.88170788323 -0.36193861403 -0.30264112133 0.88673924405 -0.3511806081 -0.30060887138 
0.88953764415 -0.34593076556 -0.29842031612 0.89022232271 -0.34613434297 -0.29613380889 0.88885795013 -0.35160511437 -0.29377778683 
0.885284863 -0.36247164966 -0.29135032955 0.87915330235 -0.37904566768 -0.28881456468 0.87018174512 -0.40116178361 -0.28609955231 
0.85738744666 -0.42984144347 -0.28306024056 0.84015483825 -0.46477115838 -0.27951318056 0.81735987691 -0.50615872504 -0.27518389611 
0.78763210849 -0.55398091928 -0.26970502915 0.74964965087 -0.60748746188 -0.26264878566 0.70284400095 -0.66458156362 -0.25365657024 
0.64642509611 -0.72346811879 -0.24233958862 0.58211954614 -0.78025359796 -0.22878189806 0.51106389867 -0.83271519317 -0.21307064215 
0.43748377073 -0.87760166553 -0.1960185374 0.36624800954 -0.91318732475 -0.17874928093 0.29987525554 -0.94012578383 -0.16198253514 
0.24301737004 -0.95882255042 -0.14697576219 0.1970647472 -0.97115416773 -0.13425746873 0.16283178576 -0.97880715952 -0.12418677069 
0.14089126092 -0.98308424981 -0.11702568252 0.13227035954 -0.9847390741 -0.11310839015 0.13606088714 -0.98432116682 -0.11224649455 
0.15128201706 -0.98187262407 -0.11419238777 0.1780975688 -0.97679715588 -0.11894777108 0.21634477757 -0.96810025905 -0.12639946854 
0.26358182616 -0.95502173735 -0.13586059806 0.31956302051 -0.93606770645 -0.14716223996 0.37912419626 -0.91158428258 -0.15899352048 
0.44198677067 -0.88053080881 -0.17121094967 0.50351818393 -0.84444178056 -0.18272251559 0.56045028257 -0.80542777665 -0.19282525085 
0.61109185521 -0.76555778541 -0.20121635545 0.65372684447 -0.72768736071 -0.20763505939 0.68930922142 -0.69264057153 -0.21237192832 
0.71615795611 -0.66392876379 -0.21521240326 0.73561667045 -0.64186342864 -0.21651663477 0.74934075142 -0.62573625306 -0.21666236376 
0.75659325416 -0.61732867013 -0.21557356238 0.75873038124 -0.6154131827 -0.21352944324 0.75615767201 -0.61956882681 -0.2106182421 
0.74921882243 -0.62917559121 -0.20690391864 0.73884218529 -0.64271884973 -0.20254556387 0.72388833185 -0.66109586194 -0.19732699851 
0.70638257386 -0.68140423527 -0.19160356864 0.68689180803 -0.70269489749 -0.18547108966 0.66343963749 -0.72661382622 -0.17855025891 
0.63937011494 -0.74953587448 -0.17146961536 0.61423926443 -0.77185892146 -0.16414606727 0.58920725377 -0.79261939572 -0.15680977532 
0.56410181788 -0.81207062605 -0.14943372235 0.53979133852 -0.82970183417 -0.14219766957 0.51608633935 -0.84581929277 -0.13507262607 
0.49634810228 -0.85852410741 -0.12874361484 0.47515581227 -0.87138521637 -0.12212599543 0.45780260399 -0.88141426205 -0.11629993305 
0.44208653158 -0.89009943799 -0.11082639164 0.42721818453 -0.89796624249 -0.1055521206 0.41513720669 -0.90414833933 -0.10088052391 
0.40429645449 -0.90952277656 -0.096502309833 0.39533165561 -0.91386349824 -0.092554787327 0.3872174226 -0.91769876517 -0.088834925797 
0.38101858567 -0.92059923497 -0.085568019385 0.3777389143 -0.92218758984 -0.082966027819 0.37463586616 -0.92367318162 -0.080472488101 
0.37466810948 -0.92381276366 -0.078700606325 0.37614986948 -0.92332796777 -0.077309375982 0.38102683939 -0.92137681804 -0.076702717276 
0.38947687878 -0.91781860521 -0.076920535827 0.40380203773 -0.91147759462 -0.078437929811 0.41955205375 -0.90416860675 -0.080344288857 
0.44544099037 -0.89132118074 -0.084432676476 0.47690945623 -0.87435615947 -0.089770134004 0.51440202999 -0.85210736516 -0.096455117976 
0.56673027166 -0.81701452415 -0.10632058367 0.62385612376 -0.77268413366 -0.11731481766 0.69439605865 -0.70751796887 -0.13127237888 
0.76661899801 -0.62532881127 -0.14580531434 0.84099602077 -0.51649826583 -0.16110628304 0.90432805422 -0.38956110434 -0.17445032629 
0.95011707669 -0.25149524168 -0.18446594263 0.9751747388 -0.11307304496 -0.19039095386 0.98123127557 0.012794038194 -0.19240970982 
0.97407408216 0.12031119788 -0.19158522418 0.95962158459 0.20828690535 -0.18905813776 0.9427556414 0.27694166948 -0.18578243273 
0.92611474546 0.33026070586 -0.18231660487 0.91163342065 0.36995094694 -0.1790553077 0.90017188877 0.39830618784 -0.17618953261 
0.89170400085 0.4179440922 -0.17374323197 0.88555496068 0.43166985248 -0.17162036615 0.88298530542 0.43751906602 -0.17004122231 
0.88168692915 0.44067531383 -0.16862214192 0.88306914061 0.43828917116 -0.16760517693 0.88571518541 0.43324613121 -0.16675251162 
0.88993207423 0.42476535251 -0.16611832702 0.89484244769 0.414545041 -0.16555785333 0.90132933524 0.4003843717 -0.16522041137 
0.90765748131 0.38599546625 -0.16481928481 0.9150060295 0.36835440964 -0.16455696545 0.92242284221 0.34949731315 -0.16427942133 
0.93042789908 0.32769195023 -0.16407897601 0.93834980601 0.30438796388 -0.16385240004 0.94661040933 0.27773795475 -0.16367761434 
0.95498169836 0.24752800183 -0.16352322192 0.96302174531 0.21427308413 -0.16332839152 0.97099357596 0.17480385973 -0.16314130702 
0.97792938805 0.13093954322 -0.16281568721 0.98357260199 0.078982832942 -0.16231650782 0.98669948246 0.018926038786 -0.16144948548 
0.98580648025 -0.050915432887 -0.15997875542 0.97870870159 -0.13154914352 -0.15755665733 0.96252231347 -0.22342708708 -0.15372421033 
0.93346149623 -0.3267727365 -0.14788243217 0.88898997513 -0.43611616587 -0.1396406602 0.82518355404 -0.55008149558 -0.1283839957 
0.74654248485 -0.65534894146 -0.1148567945 0.65193332941 -0.75180105825 -0.098884290018 0.55082199893 -0.8305866113 -0.081981745642 
0.45157404011 -0.88982889401 -0.065463162741 0.35096498553 -0.93511568788 -0.048808085607 0.26134959069 -0.96464707469 -0.033947205169 
0.1795392402 -0.98354005747 -0.020362135958 0.10841139383 -0.9940698815 -0.0084876610127 0.037877295975 -0.9992771129 0.0032499344631 
-0.028488241499 -0.99949187065 0.014297573397 -0.094896112 -0.99516549682 0.02530537224 -0.15718754358 -0.98692555111 0.035637518347 
-0.21741164947 -0.97501364385 0.045613254477 -0.28274709618 -0.95753956481 0.05632105672 -0.34626221578 -0.93576287079 0.066710775471 
-0.40720271628 -0.91011347829 0.076677274928 -0.46510619116 -0.8810517837 0.086162552092 -0.51174499972 -0.85398227365 0.093975164538 
-0.55953404213 -0.82251245468 0.10195546874 -0.59578607598 -0.79581059144 0.10827951895 -0.62712591786 -0.77054068272 0.11393041482 
-0.65545814543 -0.74576621127 0.11919470504 -0.67453743742 -0.72788724157 0.12320474454 -0.69347565395 -0.70915387704 0.12724895309 
-0.70612125542 -0.69596679597 0.13047218692 -0.71746311795 -0.68367220497 0.13356268392 -0.72440907938 -0.67580441991 0.13608773547 
-0.73117143467 -0.66796327279 0.13861240687 -0.73319017205 -0.66535103249 0.1404997337 -0.73455833726 -0.66345943968 0.14228710782 
-0.73143245218 -0.66665861463 0.14343242113 -0.72465093397 -0.67389832586 0.14402107586 -0.71192067278 -0.68739883043 0.14370735398 
-0.69319876695 -0.70653067353 0.14244253885 -0.66169230293 -0.73673807089 0.13921318597 -0.61044777705 -0.78082885561 0.13289021692 
-0.51903128206 -0.84626728632 0.12015909596 -0.36597774722 -0.92555396842 0.097005876551 -0.079923134083 -0.9955396904 0.050130005688 
0.31295254555 -0.9495636774 -0.019736432969 0.6696776069 -0.73725138305 -0.089399670031 0.84855476729 -0.51331175162 -0.12831933819 
0.92723700104 -0.34418745162 -0.14753488418 0.95814751625 -0.24019216129 -0.15575963133 0.97242340553 -0.17008914816 -0.15956942706 
0.97888579832 -0.1262381691 -0.16076852461 0.98228748497 -0.096468390135 -0.16063980383 0.98415017171 -0.077357357377 -0.15957530755 
0.98531752742 -0.06499448332 -0.15787681053 0.98613680156 -0.057396546529 -0.15569150607 0.98677284024 -0.053253477028 -0.15311247155 
0.98730417302 -0.051654003322 -0.1502076359 0.98776967077 -0.051875832813 -0.14703732681 0.98817455639 -0.053643333738 -0.14364344343 
0.9885099549 -0.056827583606 -0.14006675128 0.98877848203 -0.061011781185 -0.13636229696 0.98896491834 -0.066135512106 -0.13256879091 
0.98901055138 -0.072757826409 -0.12870286691 0.98890074387 -0.080589772157 -0.12482230328 0.98855382924 -0.090191752689 -0.12094120243 
0.98792143181 -0.10147827357 -0.11710424657 0.98686474094 -0.11515091517 -0.11330600084 0.9851920389 -0.13190347756 -0.10953592604 
0.98248916207 -0.15342835573 -0.10571086071 0.97841335615 -0.17983769218 -0.1018121259 0.97182920637 -0.21453497178 -0.097584525001 
0.96078750931 -0.26134570452 -0.09265950936 0.9413723771 -0.32612964484 -0.086356831761 0.90298569912 -0.42272902298 -0.076922040558 
0.81710603258 -0.57332294077 -0.060320287748 0.58882898766 -0.80786565482 -0.025169566161 0.0066298179796 -0.9989647367 0.045005559088 
-0.60134085614 -0.79275225579 0.099664615962 -0.85766608421 -0.50151306258 0.11354970741 -0.94524309195 -0.30574258118 0.11417955675 
-0.98016703214 -0.1636150318 0.11181551984 -0.99311045626 -0.044849883479 0.10825945511 -0.99223238581 0.069042987409 0.10347926572 
-0.97741191719 0.18777980145 0.096977782471 -0.94320302635 0.32042639207 0.087721025734 -0.88067868805 0.46779045952 0.07468021421 
-0.78584682221 0.61568929328 0.058064327743 -0.65443525169 0.75517214299 0.037809202533 -0.512000346 0.85879706343 0.017979142005 
-0.37807605314 0.92577421955 0.00076971943572 -0.27060699239 0.96261357979 -0.012122362366 -0.20388056043 0.97880094393 -0.019530213758 
-0.17898247783 0.98361211403 -0.021736645382 -0.18693501355 0.98216946339 -0.019961109348 -0.23624540044 0.97160462329 -0.013136466972 
-0.3133580656 0.94963126203 -0.002681210578 -0.41494088565 0.90977824452 0.011296336385 -0.52730001589 0.84923790769 0.027380091004 
-0.63787432021 0.76887465913 0.04413740089 -0.73132378311 0.67943436751 0.059451362538 -0.80712008767 0.58584314925 0.073109291834 
-0.8625836874 0.49881513834 0.08445614245 -0.9023151372 0.4207077264 0.093980860411 -0.92905700312 0.35562472256 0.10190260869 
-0.94761432437 0.30026632513 0.10893679931 -0.96017375474 0.25446310124 0.11539016779 -0.96863702013 0.21670913577 0.12157085877 
-0.97435706187 0.18524207953 0.12772504828 -0.97813560993 0.15903677562 0.13400758409 -0.98047724098 0.13755936363 0.14050552085 
-0.98190540371 0.11896237822 0.1473422232 -0.98249809831 0.10406226309 0.15449444071 -0.98259822989 0.090782393805 0.16204714003 
-0.98220471576 0.079935813398 0.16995341151 -0.98145997055 0.070552317393 0.1782096987 -0.98040672237 0.062599661651 0.1867724313 
-0.97910536189 0.055602124336 0.19560443267 -0.97757953744 0.049628468062 0.20463446224 -0.97586501869 0.044526771869 0.21378688425 
-0.97400048482 0.039998473691 0.22298694508 -0.97201019313 0.036122666543 0.23214507839 -0.96992747089 0.032903077947 0.24115988199 
-0.96779515137 0.030065178528 0.24993725217 -0.96564875044 0.027558360807 0.25838542435 -0.96352425445 0.025318256807 0.2664207142 
-0.9614510204 0.023868341534 0.27393838295 -0.95948123245 0.022692772436 0.28085726386 -0.95764659097 0.021688201424 0.28712824437 
-0.9559680262 0.021439798855 0.29268663775 -0.95448270348 0.021296709368 0.29750498974 -0.95318789215 0.022608042021 0.30153228467 
-0.95210917363 0.02391001548 0.30482196877 -0.95121517999 0.026495603087 0.30738845844 -0.95047659568 0.030991148432 0.30924713384 
-0.94978492884 0.039467392214 0.31040443602 -0.94911164666 0.04952634647 0.31102125839 -0.94744854012 0.076688479422 0.3105803293 
-0.94266411373 0.12767517859 0.30835599144 -0.93823794814 0.16067877076 0.30641782798 -0.93823794814 0.16067877076 0.30641782798 

BinormalArray 3 444 double
-0.91116795301 -0.39341416764 0.12246735937 -0.91116795301 -0.39341416764 0.12246735937 -0.91265760599 -0.39035335994 0.12116248851 
-0.91238884631 -0.390908443 0.12139679699 -0.91273479227 -0.39019236791 0.12109960782 -0.91288269123 -0.38988489715 0.12097503471 
-0.9131731908 -0.38927803574 0.12073663275 -0.91362799697 -0.38832178724 0.12037471788 -0.914274955 -0.38695045235 0.11987766297 
-0.91498350507 -0.38543448541 0.11935427476 -0.91577945715 -0.38371425789 0.1187912209 -0.91708052167 -0.3808677139 0.11791141282 
-0.91848020007 -0.37776096417 0.11700758962 -0.92021873038 -0.37383986341 0.11593638248 -0.92248494844 -0.36862988338 0.11460160982 
-0.92523326338 -0.3621647913 0.11304898178 -0.92849281247 -0.35428677446 0.11127433946 -0.93269406689 -0.34378695964 0.10905184073 
-0.93771569935 -0.33069575661 0.10644051742 -0.94374095833 -0.31413230691 0.10331455529 -0.95086242805 -0.29317213334 0.09955271548 
-0.95914466763 -0.26649921927 0.09497195736 -0.96849368907 -0.2324622121 0.089338089133 -0.97841555638 -0.18949562414 0.082428195777 
-0.98786857778 -0.13648648245 0.074075050767 -0.99554546507 -0.069557502669 0.063647315702 -0.9986334601 0.010309507129 0.051234035926 
-0.99387694512 0.10427483956 0.036542793927 -0.97786943583 0.20825141965 0.020067702325 -0.9478605158 0.31867773477 0.002223499826 
-0.90480645869 0.42554202405 -0.015467969404 -0.85219367481 0.52225260555 -0.031908566519 -0.79504769734 0.60477545981 -0.046322803913 
-0.73939935241 0.67075140862 -0.058147618011 -0.68966571302 0.7209885198 -0.067355464464 -0.64859013872 0.75751568265 -0.074167529901 
-0.61501386669 0.78452223062 -0.079264200255 -0.5917624696 0.80187373188 -0.082557238895 -0.57713752383 0.81226083683 -0.084525803976 
-0.57002870299 0.81716933061 -0.08544918298 -0.57006337508 0.81714560426 -0.085444776495 -0.57804090907 0.81162731209 -0.084438224152 
-0.59220227447 0.80154054095 -0.082639139217 -0.61483761791 0.78461632983 -0.079698924457 -0.64222364795 0.76273959508 -0.076007210886 
-0.67715634542 0.73240156551 -0.071043864528 -0.71726628633 0.69376770122 -0.064926506419 -0.76306911237 0.64377428585 -0.057273018396 
-0.80905351229 0.58571560447 -0.048678998888 -0.85482407548 0.51745768637 -0.038901706836 -0.8977784529 0.43955023281 -0.028097016549 
-0.93339478433 0.35843915906 -0.017191446741 -0.96176392376 0.27381088204 -0.006144577064 -0.98160205622 0.19088804793 0.004376801339 
-0.9935458369 0.11255781046 0.014050241073 -0.99907973428 0.036041307139 0.023253144622 -0.99904509028 -0.030710039276 0.031077340325 
-0.99438473086 -0.09845024587 0.038814380399 -0.98589101499 -0.1610095828 0.045769212405 -0.97451996469 -0.21820093427 0.051953736223 
-0.95935754026 -0.27616037918 0.058039253267 -0.9423795748 -0.32849043131 0.063362240657 -0.92183913285 -0.38145914857 0.068567711955 
-0.90072676985 -0.42820950676 0.072992495445 -0.87663752012 -0.4749121813 0.077233919772 -0.85226611184 -0.51681982193 0.080868697785 
-0.82773480249 -0.55479636251 0.084000552967 -0.80411508999 -0.58813187356 0.086601508966 -0.78191756015 -0.61703560926 0.088724213325 
-0.76066579128 -0.64280498689 0.090494766735 -0.74362931591 -0.66226828988 0.091739591978 -0.72937276794 -0.67781205587 0.092661655002 
-0.7183584035 -0.68938889649 0.093296053111 -0.71077868396 -0.69714866456 0.093687789678 -0.70897384298 -0.69897264165 0.093772790236 
-0.7092902568 -0.69865340405 0.093759013572 -0.71457849654 -0.6932728828 0.093542943375 -0.72420806521 -0.68325917584 0.093164246989 
-0.73609670962 -0.67049790665 0.092704861071 -0.75206376952 -0.65262587924 0.092084462966 -0.76906622767 -0.63259951421 0.091405645755 
-0.78857753183 -0.60822600602 0.090590296889 -0.8072807902 -0.58330145116 0.0897615889 -0.8270602033 -0.55505111901 0.088823844834 
-0.84459844608 -0.52813033659 0.087930725286 -0.86099781413 -0.50110586785 0.087038343681 -0.87458377362 -0.47714062855 0.08625568681 
-0.88555626707 -0.45657738384 0.08559900948 -0.89437806789 -0.43914971069 0.085061173692 -0.89932021918 -0.42899674921 0.084763981372 
-0.90221980997 -0.42289773863 0.084598564713 -0.90152432977 -0.42437116358 0.084634498644 -0.89849719603 -0.43071709317 0.084767767297 
-0.8929497747 -0.44206596038 0.084961088388 -0.88416403719 -0.45934645901 0.085175031111 -0.87325101539 -0.47974299257 0.085318961526 
-0.85998363844 -0.50313449903 0.085345283963 -0.84503318001 -0.52788058594 0.085211570032 -0.82745025095 -0.55508861028 0.084868821915 
-0.80966542283 -0.58079930002 0.084344983074 -0.79078683965 -0.60635383026 0.083613436488 -0.77253521366 -0.62955718888 0.082747142525 
-0.75410328032 -0.65165167641 0.081721081982 -0.73706408937 -0.67099459713 0.080639808948 -0.72161512101 -0.68770942577 0.079544722215 
-0.70771650493 -0.70212633965 0.078459873941 -0.69579302764 -0.71405475932 0.077445873913 -0.68565158595 -0.723897475 0.076513713615 
-0.67800698252 -0.73114096089 0.075759005874 -0.67148194326 -0.73720853227 0.075070499046 -0.66789372387 -0.74050168727 0.074667427784 
-0.66507805632 -0.74306524524 0.074331825733 -0.66373962708 -0.74427787225 0.074163038758 -0.66342377397 -0.74456361273 0.074121000581 
-0.66428767692 -0.74378087895 0.07424207967 -0.66538355386 -0.74278452454 0.074403470032 -0.66696311619 -0.74134200513 0.074647391658 
-0.66812412623 -0.74027689154 0.074834990474 -0.66896120588 -0.73950623592 0.074976209926 -0.66962011717 -0.73889788622 0.075092026265 
-0.66903930663 -0.73943459526 0.074985902066 -0.66727694239 -0.74105908269 0.07465198002 -0.6647563328 -0.74337045233 0.074157862683 
-0.66110947911 -0.74668854187 0.073419875204 -0.65587123913 -0.75139972697 0.072328196409 -0.64938042267 -0.75714782368 0.070938281249 
-0.64207025727 -0.76350423394 0.069333033205 -0.633416389 -0.77087128914 0.067387934552 -0.62424407257 -0.77849708065 0.065281186281 
-0.61440790356 -0.78647123707 0.062975561195 -0.60413713434 -0.79457880213 0.060521484782 -0.59380643459 -0.80251420009 0.058007558873 
-0.58351781237 -0.81020443026 0.055459389134 -0.57357239251 -0.81744150852 0.052953665563 -0.56385094245 -0.82433342786 0.050463000403 
-0.5544010056 -0.83086421357 0.04800191248 -0.5459663695 -0.83655597509 0.045769246289 -0.5376061946 -0.84207217675 0.043520439817 
-0.52997701511 -0.84699908834 0.041435586283 -0.52276975436 -0.85156130825 0.039435037952 -0.51590474197 -0.85582477021 0.037500132221 
-0.50938474577 -0.85980075579 0.035634830228 -0.50323468906 -0.86348656788 0.033849591113 -0.49729489225 -0.86698749721 0.032100931848 
-0.49094949196 -0.87066416673 0.03020769951 -0.48510733531 -0.87399193993 0.028442260382 -0.47864621358 -0.87760887916 0.026466156615 
-0.47173500586 -0.8814046662 0.024328967465 -0.46467881284 -0.88520285815 0.022124665374 -0.45647590166 -0.88952121332 0.019538737273 
-0.44786276183 -0.89394443213 0.0168017505 -0.43777491318 -0.8989821259 0.013574340067 -0.42612576839 -0.90461055128 0.0098275138338 
-0.41348534957 -0.91049264467 0.0057454062432 -0.39858438254 -0.91713120238 0.00092065889507 -0.38162994559 -0.92430387777 -0.0045745139946 
-0.36259683892 -0.93188420723 -0.010740424717 -0.34088610925 -0.93993684044 -0.017759406059 -0.31660442297 -0.94821265958 -0.025581078235 
-0.28960568779 -0.95653365041 -0.034233334986 -0.2606048508 -0.9644665291 -0.043467527989 -0.22822308747 -0.97212692492 -0.053697897533 
-0.19438327733 -0.97881641942 -0.064292756778 -0.1579475321 -0.98455028866 -0.075586415406 -0.1198428171 -0.98895002996 -0.087267046662 
-0.081047028148 -0.99177936089 -0.099020596504 -0.039666571196 -0.99298374856 -0.1113994534 0.002470893126 -0.99229991809 -0.12383362725 
0.045822048442 -0.98958773376 -0.13644213818 0.091172244637 -0.98456046946 -0.14942658326 0.13952547413 -0.9767056466 -0.16302981926 
0.19052175201 -0.96557714693 -0.17709386026 0.24845478855 -0.94928322705 -0.19269554453 0.31249788691 -0.9265419479 -0.20943994239 
0.38796251688 -0.89292133096 -0.22842193899 0.47575996463 -0.84349320682 -0.24934246752 0.58272643716 -0.7655199193 -0.27278041096 
0.7056217362 -0.64383142224 -0.29593760345 0.83390990296 -0.45473687852 -0.31274373705 0.93146749627 -0.18887111748 -0.3109598115 
0.95269316095 0.11555184406 -0.28111121005 0.89400616263 0.38390402132 -0.2310209592 0.79665068312 0.57763494015 -0.17800439602 
0.69738007248 0.70435349312 -0.13246581157 0.61265691031 0.78436996932 -0.097032270281 0.54431668974 0.83594802074 -0.070073161 
0.49075055477 0.86987637898 -0.049789339117 0.44929850736 0.892712747 -0.034565917194 0.41738818765 0.9084339753 -0.023126031603 
0.3940246478 0.91897888336 -0.014912707977 0.37707166921 0.92613987321 -0.0090493942538 0.3666002052 0.93036245141 -0.005477092565 
0.36136179472 0.93241830007 -0.0037103934928 0.36131808966 0.93243529492 -0.0036957926569 0.36630206388 0.93048062445 -0.0053484123734 
0.37644422954 0.92639849289 -0.0086933547883 0.39204701516 0.91984131665 -0.013823534077 0.41295303167 0.91051719193 -0.020693884066 
0.44013433146 0.89744233673 -0.029648313704 0.47328091465 0.87997397101 -0.040632329153 0.51257343275 0.85695748182 -0.053780576262 
0.55796231076 0.82697703752 -0.069188432437 0.60869422509 0.78864752926 -0.086754912988 0.66272775979 0.74132611296 -0.10595994831 
0.7183067961 0.68414991728 -0.12638922962 0.77169870148 0.61879927563 -0.14686242069 0.8207746057 0.54638914635 -0.16669717269 
0.86247788585 0.47119464556 -0.18468216597 0.89524277964 0.3981915898 -0.19995955419 0.91975569435 0.32999090945 -0.21249814678 
0.93650739431 0.27139621896 -0.22203151292 0.94734119593 0.22388459609 -0.22895489976 0.95390237679 0.18833528641 -0.23366659038 
0.95745762994 0.1653701936 -0.23649013921 0.95874892421 0.1560678734 -0.23757802764 0.95828006312 0.15950844441 -0.23718426758 
0.95606188763 0.17468661456 -0.235436305 0.95150837581 0.20176409499 -0.23221339481 0.94364047771 0.24055853212 -0.22731968997 
0.93166559656 0.28854306689 -0.22077616434 0.91412034735 0.34544067724 -0.21226099282 0.89124349783 0.40593757369 -0.2022367767 
0.8620150041 0.46973023437 -0.19048264917 0.82784442868 0.53207090467 -0.1776911768 0.79072845097 0.5896258886 -0.16458987915 
0.7526524009 0.64068433835 -0.15178254845 0.71636883905 0.68352087178 -0.14005321948 0.68269890381 0.71912865365 -0.12952291779 
0.65503924558 0.74582609641 -0.12110747572 0.63372188355 0.76499996521 -0.11476771119 0.61809008012 0.77834373517 -0.11020745337 
0.60987747013 0.78512280562 -0.10785013458 0.60791753468 0.78671725009 -0.10729510444 0.61181511459 0.78353982138 -0.10838641001 
0.62097955205 0.7759377009 -0.11092826624 0.63395336021 0.76484855184 -0.11449816515 0.65160612817 0.74911363213 -0.11932401222 
0.67113519036 0.73078299469 -0.12463454953 0.69162363808 0.71042946294 -0.13017957376 0.71466280571 0.68604279774 -0.13639044614 
0.7367471328 0.6610201278 -0.14232376103 0.75826128114 0.6349103041 -0.14808354154 0.77827306637 0.60889501106 -0.15342066245 
0.79702755094 0.5828004063 -0.15840066115 0.81403033724 0.55751289074 -0.16289256186 0.8295777736 0.53284141273 -0.16697528685 
0.84183046112 0.51221509236 -0.17016807539 0.854245451 0.49010833569 -0.17337395632 0.86392562771 0.47192166862 -0.1758477992 
0.87231277808 0.4554108124 -0.17796462892 0.87991593282 0.43977196916 -0.17985707188 0.88589241809 0.42698604804 -0.18132164334 
0.89109294458 0.41547563757 -0.18257425534 0.89529618595 0.40589105165 -0.18356795365 0.89901503902 0.39718708787 -0.18442986973 
0.90182967873 0.39045202557 -0.18506876099 0.90336975749 0.38671167571 -0.18541079021 0.90481434389 0.38316758406 -0.18572454232 
0.90494674375 0.38284114131 -0.18575266217 0.90447068689 0.38401231198 -0.18565376595 0.90255964967 0.3886681149 -0.18526514849 
0.89907301912 0.39699063277 -0.18457015953 0.89285455456 0.41133023044 -0.18335262729 0.88568317333 0.42714427632 -0.18197000767 
0.87306831046 0.45332904628 -0.17956753901 0.85640355464 0.48523049977 -0.17642084258 0.83454228944 0.52330366438 -0.17231494997 
0.800054383 0.57654795723 -0.16584763265 0.75648841373 0.63471789962 -0.15766568362 0.69245131094 0.70662176349 -0.14559143291 
0.61170069826 0.78028822241 -0.13027872318 0.50479845181 0.85621661326 -0.10987098904 0.38014138131 0.92093043 -0.085905024994 
0.24458817736 0.96778931862 -0.059669575586 0.10871528494 0.99351789119 -0.03321425445 -0.01481017172 0.99984942399 -0.0090436806504 
-0.12031114595 0.99266756085 0.011676549117 -0.20662770278 0.97799953247 0.028668919247 -0.27398295429 0.96081957122 0.041941534525 
-0.32629106193 0.94382444558 0.05224518002 -0.36522836884 0.9289886636 0.059902433098 -0.39304554237 0.91719335405 0.065357118217 
-0.41231028905 0.90841768962 0.069119655197 -0.42577444231 0.90198116877 0.071736291093 -0.4315074349 0.89916355209 0.072843944237 
-0.43459703648 0.89762599865 0.073436928294 -0.43224295443 0.89879848936 0.072988381783 -0.42727779301 0.9012449855 0.072049730895 
-0.41893266175 0.90527745039 0.070485195145 -0.40887530828 0.91000704401 0.068616048609 -0.3949402569 0.9163294384 0.06604963131 
-0.38077709626 0.92248627717 0.063465513415 -0.36340997841 0.92967405536 0.060326929158 -0.34484128033 0.93692853125 0.057003672785 
-0.32336467773 0.94477791359 0.053197548656 -0.30040634747 0.95254314961 0.049168836954 -0.27414540364 0.96065322622 0.044605791384 
-0.24436925847 0.96887811569 0.039482432137 -0.21158380619 0.97677191644 0.033895666613 -0.17266254829 0.98460191811 0.027325945042 
-0.1293969022 0.99138933685 0.020090407752 -0.078137631023 0.9968751559 0.011594574508 -0.018873850113 0.99982014843 0.0018570314363 
0.050060120064 0.99870220688 -0.0093747724418 0.12966246352 0.99130874852 -0.022239844249 0.22038337245 0.97471944697 -0.036785443482 
0.32244784412 0.94510121792 -0.053019578474 0.43045774007 0.89988775612 -0.070058264315 0.54305782085 0.83510687694 -0.087662462304 
0.64709014764 0.75531973877 -0.10376142372 0.74243916358 0.65937944745 -0.11833356524 0.82035382062 0.55687224316 -0.13004965896 
0.87897178754 0.4562660735 -0.13867179552 0.92381478017 0.35429475755 -0.14505680511 0.95309095145 0.2634627014 -0.14901356731 
0.97185707556 0.1805394552 -0.15132524507 0.98235587826 0.10843492754 -0.15237714705 0.98760288376 0.036938602875 -0.15256501434 
0.98791888227 -0.030332350176 -0.15197444056 0.98375548814 -0.097638559288 -0.15063814687 0.97572597176 -0.16077318319 -0.14869704637 
0.96407200249 -0.2218099719 -0.14616945774 0.94693915206 -0.28800906338 -0.14267803515 0.92555978573 -0.352360219 -0.13849678371 
0.90035741694 -0.4141020267 -0.1337012836 0.87178623949 -0.47276873419 -0.12836851876 0.84516691199 -0.52004845503 -0.12346050098 
0.81421267337 -0.56848996819 -0.1178001638 0.7879491873 -0.60527857398 -0.11302179485 0.76309643369 -0.63711076638 -0.10850670138 
0.73873412087 -0.66591244826 -0.10407934434 0.72116324964 -0.68538114233 -0.10087743608 0.70275662805 -0.70471646497 -0.097508080386 
0.68981324082 -0.71771089812 -0.095124967855 0.6777533564 -0.72939847207 -0.092888410597 0.67005283852 -0.73665893457 -0.091448388192 
0.66238296767 -0.7437396259 -0.090000961136 0.65985703485 -0.74603951125 -0.089519501863 0.65804142769 -0.74768325375 -0.08916967819 
0.66122762263 -0.74479235863 -0.089790721112 0.66837957855 -0.73820781965 -0.091202817866 0.68167140246 -0.72561241119 -0.093865477103 
0.70047740098 -0.70695607075 -0.097696083607 0.73012305984 -0.67537644605 -0.1038603563 0.77332938476 -0.62383413212 -0.11310454573 
0.83732511505 -0.53164269799 -0.12744682568 0.91457587309 -0.37698178557 -0.14640937713 0.98180928625 -0.08731083326 -0.16860410382 
0.93403351697 0.31146819089 -0.17483979878 0.72248717065 0.67461790352 -0.15133728055 0.50058876592 0.85739681687 -0.11950558923 
0.33335868139 0.93815052817 -0.093517784593 0.23064476729 0.96998751335 -0.076988409889 0.16145676234 0.98469154886 -0.065683083856 
0.11821266517 0.9912588058 -0.05858110383 0.088882797385 0.99458955035 -0.053772434111 0.070086086607 0.99625117227 -0.050710375724 
0.057961477695 0.99712756849 -0.048755299809 0.05055166405 0.99758760229 -0.047576307267 0.04656390364 0.99781126497 -0.046951915523 
0.045098823187 0.99788912645 -0.046726731831 0.045442984451 0.99787108544 -0.046778542265 0.047324179399 0.99777062297 -0.047055350224 
0.050614952001 0.99758670762 -0.047527754097 0.054902302907 0.99733119317 -0.048127209235 0.060125958058 0.99699536715 -0.048837557685 
0.066839779679 0.99652392451 -0.049724357441 0.074756554482 0.99591014215 -0.0507390021 0.084432104144 0.99507453343 -0.051941242837 
0.095781104758 0.99397397848 -0.053307692433 0.10950065192 0.99246901278 -0.054907794512 0.12628082946 0.9903668875 -0.056802995155 
0.14780621708 0.98724559085 -0.059156280614 0.17419082662 0.98276149633 -0.061946729127 0.2088266077 0.97575771393 -0.065485354343 
0.25553108821 0.96425762149 -0.070079257686 0.32015716116 0.94429847392 -0.076156315015 0.41653632386 0.9051666057 -0.08468120712 
0.5668872279 0.81810421079 -0.096666287447 0.80148751399 0.58763575772 -0.11091429652 0.99452656583 0.0018939017498 -0.1044668512 
0.792146357 -0.60782612199 -0.055240877291 0.50344559312 -0.8639282063 -0.013060977092 0.30899173756 -0.95099524548 0.011495616092 
0.16769796345 -0.98543851491 0.028077150559 0.049563809202 -0.9979187308 0.041250885367 -0.063779913156 -0.99653756602 0.053338561945 
-0.18200655829 -0.98112195138 0.065370706433 -0.31416636609 -0.94615165066 0.078080396843 -0.46110653259 -0.88264926989 0.091164861479 
-0.60873111633 -0.78667215757 0.10292397446 -0.74815308071 -0.65397025234 0.11220462056 -0.85193886889 -0.51036453654 0.11716741663 
-0.91920786416 -0.37549301923 0.11858286122 -0.95635239431 -0.26736173697 0.1179313338 -0.97274554246 -0.20028797477 0.11683679549 
-0.97761656479 -0.17532115846 0.11631140805 -0.97611004894 -0.18341438842 0.11648319398 -0.96534044854 -0.23313597288 0.11732619726 
-0.94310288977 -0.31087077017 0.11796738345 -0.90298269975 -0.41330038879 0.11749481936 -0.84225363513 -0.52667126963 0.11500516452 
-0.76183377798 -0.63835185719 0.11007361692 -0.67247471331 -0.73287312275 0.10331866199 -0.57907605024 -0.80968702882 0.09527771726 
-0.49229714401 -0.86605881512 0.087095641453 -0.41445881035 -0.90661239456 0.079232951126 -0.3496230328 -0.93409626041 0.07230429603 
-0.29448803875 -0.95336536167 0.066115672838 -0.24887226239 -0.96662878206 0.060756849056 -0.21126877055 -0.97581436312 0.056141208699 
-0.17991952319 -0.98229945572 0.052122398889 -0.15380091948 -0.98690474625 0.048624057743 -0.13237823125 -0.9901487162 0.04562371864 
-0.11381712929 -0.99257493196 0.042902978139 -0.098922010151 -0.99426596614 0.040615569535 -0.085636635018 -0.99558320552 0.03847658555 
-0.074761652956 -0.9965280882 0.036639659994 -0.065337834248 -0.99725028098 0.034969193668 -0.057331729796 -0.99779364889 0.033479949247 
-0.050274135565 -0.99821937673 0.032102760236 -0.044231544502 -0.99854435174 0.030866617408 -0.039053906649 -0.99879391942 0.029757333684 
-0.034448479467 -0.99899357126 0.028725369426 -0.030491825038 -0.99914835304 0.027799590173 -0.027186720567 -0.99926584424 0.026993606019 
-0.024265864887 -0.99936077264 0.026252883895 -0.021680026108 -0.99943785211 0.025572567914 -0.019366765733 -0.99950126794 0.024942810049 
-0.017830172805 -0.99954053937 0.024511122033 -0.016572512446 -0.9995710311 0.024147580103 -0.015494032249 -0.99959600402 0.0238277928 
-0.015154637915 -0.99960365524 0.023724868552 -0.014930329758 -0.99960867435 0.023655515539 -0.016108122801 -0.9995815603 0.024025667125 
-0.017289110282 -0.99955271972 0.02440178616 -0.019703578232 -0.99948876437 0.025178937804 -0.023945079969 -0.99936052512 0.026555112012 
-0.031979762739 -0.99906257554 0.029176444622 -0.04152451943 -0.99861521475 0.032301194314 -0.067329141497 -0.99689783665 0.040761378681 
-0.11578598593 -0.99165840999 0.05663217601 -0.14715902774 -0.98684867899 0.066887258352 -0.14715902774 -0.98684867899 0.066887258352 

