# vtk DataFile Version 4.1
vtk output
ASCII
DATASET POLYDATA
POINTS 283 float
25.706 -0.934716 278.801 25.7956 -1.50197 274.137 25.8852 -2.0688 269.475 
25.975 -2.63397 264.825 26.0653 -3.19622 260.195 26.1561 -3.75432 255.593 
26.2475 -4.30705 251.027 26.3395 -4.85324 246.506 26.4319 -5.39174 242.037 
26.5246 -5.92145 237.629 26.6171 -6.44133 233.289 26.7092 -6.95039 229.024 
26.8 -7.44772 224.841 26.889 -7.9325 220.746 26.9753 -8.40398 216.745 
27.058 -8.86151 212.843 27.1362 -9.30453 209.042 27.2087 -9.7326 205.346 
27.2745 -10.1453 201.757 27.3324 -10.5425 198.274 27.3815 -10.924 194.896 
27.4206 -11.2896 191.622 27.4487 -11.6394 188.447 27.4649 -11.9734 185.366 
27.4681 -12.2918 182.374 27.4576 -12.5947 179.462 27.4326 -12.8822 176.623 
27.3924 -13.1544 173.847 27.3363 -13.4116 171.124 27.2638 -13.6537 168.444 
27.1743 -13.8808 165.796 27.0673 -14.0929 163.17 26.9424 -14.2898 160.556 
26.799 -14.4713 157.942 26.6367 -14.6372 155.321 26.455 -14.7871 152.684 
26.2535 -14.9206 150.023 26.0316 -15.0371 147.333 25.7889 -15.1362 144.607 
25.5248 -15.2172 141.843 25.239 -15.2796 139.039 24.9309 -15.3228 136.193 
24.6001 -15.3464 133.306 24.2464 -15.3499 130.381 23.8693 -15.3328 127.42 
23.4688 -15.2951 124.428 23.0448 -15.2366 121.411 22.5973 -15.1573 118.375 
22.1266 -15.0576 115.327 21.6329 -14.9377 112.276 21.1168 -14.7982 109.23 
20.579 -14.6399 106.197 20.0203 -14.4637 103.185 19.4415 -14.2707 100.203 
18.8439 -14.0621 97.2599 18.2286 -13.8391 94.3623 17.597 -13.6033 91.5177 
16.9504 -13.356 88.7323 16.2904 -13.0988 86.0117 15.6183 -12.8332 83.3604 
14.9358 -12.5607 80.7823 14.2443 -12.2827 78.28 13.5452 -12.0007 75.8554 
12.84 -11.7159 73.5092 12.13 -11.4295 71.2414 11.4165 -11.1424 69.0511 
10.7005 -10.8558 66.9367 9.98314 -10.5703 64.8956 9.26533 -10.2866 62.9248 
8.54788 -10.0052 61.0209 7.83152 -9.72652 59.1799 7.11685 -9.4509 57.3976 
6.40438 -9.17851 55.6693 5.69457 -8.90949 53.9905 4.98778 -8.6439 52.3565 
4.28432 -8.38175 50.7626 3.58447 -8.12303 49.2042 2.88848 -7.86771 47.6771 
2.19657 -7.61575 46.1769 1.50898 -7.36712 44.7 0.825939 -7.12179 43.2426 
0.147703 -6.87978 41.8017 -0.525445 -6.6411 40.3743 -1.19319 -6.40581 38.9581 
-1.85517 -6.17399 37.551 -2.51099 -5.94575 36.1514 -3.16021 -5.72121 34.758 
-3.80233 -5.50052 33.37 -4.43682 -5.28385 31.9868 -5.06311 -5.07138 30.6085 
-5.68058 -4.86328 29.2351 -6.28858 -4.65974 27.8671 -6.88644 -4.46092 26.5052 
-7.47348 -4.26699 25.1504 -8.04899 -4.07811 23.8038 -8.61229 -3.89439 22.4665 
-9.16271 -3.71595 21.1399 -9.69961 -3.54286 19.8253 -10.2224 -3.37519 18.5239 
-10.7305 -3.21293 17.237 -11.2236 -3.05609 15.9658 -11.7011 -2.90463 14.7111 
-12.163 -2.75846 13.4738 -12.609 -2.61749 12.2544 -13.0391 -2.48158 11.0533 
-13.4535 -2.35058 9.87046 -13.8523 -2.22433 8.70569 -14.2359 -2.10263 7.5585 
-14.6049 -1.98528 6.42815 -14.9598 -1.87208 5.31362 -15.3014 -1.76284 4.21367 
-15.6305 -1.65737 3.12684 -15.9481 -1.55549 2.0515 -16.255 -1.45704 0.98585 
-16.5523 -1.3619 -0.0720121 -16.841 -1.26997 -1.12408 -17.1221 -1.18117 -2.17242 
-17.3967 -1.09548 -3.21909 -17.6658 -1.0129 -4.2662 -17.9302 -0.933471 -5.31579 
-18.191 -0.857275 -6.36992 -18.4489 -0.784427 -7.43056 -18.7048 -0.715072 -8.49965 
-18.9592 -0.649386 -9.57908 -19.2129 -0.587568 -10.6707 -19.4664 -0.529837 -11.7762 
-19.7202 -0.476423 -12.8974 -19.9748 -0.427563 -14.0359 -20.2304 -0.383497 -15.1934 
-20.4874 -0.344454 -16.3714 -20.746 -0.310652 -17.5717 -21.0066 -0.282288 -18.7956 
-21.2692 -0.259531 -20.0448 -21.5341 -0.242519 -21.3207 -21.8014 -0.231348 -22.6248 
-22.0711 -0.226071 -23.9585 -22.3434 -0.226691 -25.3233 -22.6184 -0.233159 -26.7204 
-22.896 -0.245368 -28.1511 -23.1765 -0.263156 -29.6167 -23.4598 -0.286301 -31.1183 
-23.746 -0.314523 -32.6569 -24.0351 -0.347486 -34.2335 -24.3272 -0.384803 -35.849 
-24.6224 -0.426034 -37.5039 -24.9206 -0.470702 -39.1989 -25.2219 -0.518288 -40.9344 
-25.5265 -0.568248 -42.7106 -25.8343 -0.620016 -44.5275 -26.1453 -0.673015 -46.3851 
-26.4598 -0.726665 -48.2829 -26.7777 -0.780393 -50.2205 -27.099 -0.833641 -52.1969 
-27.4239 -0.885873 -54.2112 -27.7523 -0.936586 -56.2621 -28.0843 -0.985314 -58.3481 
-28.4198 -1.03163 -60.4674 -28.7588 -1.07516 -62.618 -29.1012 -1.11558 -64.7978 
-29.447 -1.1526 -67.0044 -29.7959 -1.186 -69.235 -30.1479 -1.21561 -71.4869 
-30.5027 -1.24131 -73.7571 -30.8599 -1.26301 -76.0426 -31.2193 -1.28068 -78.3401 
-31.5805 -1.29434 -80.6464 -31.9431 -1.30404 -82.9582 -32.3067 -1.30987 -85.2721 
-32.6707 -1.31196 -87.5848 -33.0346 -1.31045 -89.893 -33.398 -1.30555 -92.1936 
-33.7602 -1.29746 -94.4835 -34.1207 -1.28642 -96.7596 -34.479 -1.2727 -99.0191 
-34.8344 -1.25658 -101.259 -35.1865 -1.23835 -103.478 -35.5348 -1.21834 -105.672 
-35.8786 -1.19685 -107.84 -36.2177 -1.17422 -109.98 -36.5516 -1.15077 -112.089 
-36.8798 -1.12682 -114.167 -37.2021 -1.10269 -116.212 -37.5182 -1.07868 -118.223 
-37.8278 -1.05508 -120.198 -38.1308 -1.03213 -122.138 -38.4269 -1.01009 -124.04 
-38.7161 -0.98916 -125.905 -38.9982 -0.969528 -127.733 -39.2733 -0.951346 -129.523 
-39.5414 -0.934739 -131.276 -39.8025 -0.919804 -132.992 -40.0566 -0.90661 -134.673 
-40.3039 -0.895199 -136.317 -40.5445 -0.885592 -137.928 -40.7785 -0.877788 -139.507 
-41.0062 -0.87177 -141.054 -41.2277 -0.867506 -142.572 -41.4432 -0.864952 -144.063 
-41.653 -0.864058 -145.53 -41.8573 -0.864766 -146.974 -42.0563 -0.867022 -148.397 
-42.2503 -0.870769 -149.804 -42.4395 -0.875957 -151.195 -42.6242 -0.882543 -152.574 
-42.8046 -0.890494 -153.944 -42.9809 -0.899791 -155.306 -43.1533 -0.910427 -156.664 
-43.3221 -0.922415 -158.019 -43.4875 -0.935783 -159.374 -43.6497 -0.950578 -160.731 
-43.8088 -0.966866 -162.092 -43.9651 -0.984729 -163.458 -44.1188 -1.00427 -164.831 
-44.2701 -1.0256 -166.213 -44.4192 -1.04885 -167.604 -44.5663 -1.07416 -169.007 
-44.7117 -1.10167 -170.421 -44.8557 -1.13153 -171.849 -44.9986 -1.16387 -173.29 
-45.1405 -1.19885 -174.747 -45.282 -1.23658 -176.219 -45.4232 -1.27719 -177.708 
-45.5645 -1.32075 -179.214 -45.7063 -1.36735 -180.739 -45.8489 -1.41703 -182.281 
-45.9927 -1.4698 -183.843 -46.138 -1.52567 -185.424 -46.285 -1.58458 -187.025 
-46.4342 -1.64646 -188.645 -46.5857 -1.71123 -190.285 -46.7399 -1.77873 -191.945 
-46.8968 -1.84882 -193.624 -47.0567 -1.92132 -195.322 -47.2198 -1.99603 -197.038 
-47.3861 -2.07272 -198.771 -47.5557 -2.15116 -200.521 -47.7287 -2.2311 -202.287 
-47.9052 -2.31228 -204.066 -48.0852 -2.39445 -205.859 -48.2688 -2.47733 -207.664 
-48.4562 -2.56066 -209.48 -48.6474 -2.64417 -211.306 -48.8428 -2.7276 -213.141 
-49.0424 -2.81069 -214.982 -49.2466 -2.89317 -216.831 -49.4559 -2.97478 -218.686 
-49.6706 -3.05527 -220.545 -49.8913 -3.13435 -222.41 -50.1186 -3.21176 -224.278 
-50.3532 -3.28721 -226.15 -50.5959 -3.3604 -228.026 -50.8474 -3.43102 -229.905 
-51.1087 -3.49873 -231.787 -51.3804 -3.56316 -233.673 -51.6637 -3.62394 -235.561 
-51.9591 -3.68063 -237.451 -52.2678 -3.7328 -239.344 -52.5902 -3.77997 -241.239 
-52.9273 -3.82163 -243.136 -53.2796 -3.85724 -245.033 -53.6477 -3.88625 -246.93 
-54.0318 -3.9081 -248.827 -54.4324 -3.92221 -250.721 -54.8495 -3.928 -252.612 
-55.2832 -3.9249 -254.499 -55.7332 -3.91238 -256.38 -56.1994 -3.88993 -258.254 
-56.6814 -3.85712 -260.12 -57.1785 -3.81355 -261.976 -57.6902 -3.75894 -263.821 
-58.2156 -3.6931 -265.654 -58.7541 -3.61593 -267.474 -59.3046 -3.5275 -269.281 
-59.8663 -3.42799 -271.073 -60.438 -3.31775 -272.852 -61.0188 -3.19728 -274.616 
-61.6075 -3.06723 -276.367 -62.2033 -2.92842 -278.105 -62.8048 -2.78184 -279.833 
-63.4112 -2.62859 -281.55 -64.0213 -2.46994 -283.259 -64.6341 -2.30726 -284.962 
-65.2486 -2.142 -286.661 
LINES 1 284
283 282 281 280 279 278 277 276 275 274 273 272 271 270 269 268 267 266 265 264 263 262 261 260 259 258 257 256 255 254 253 252 251 250 249 248 247 246 245 244 243 242 241 240 239 238 237 236 235 234 233 232 231 230 229 228 227 226 225 224 223 222 221 220 219 218 217 216 215 214 213 212 211 210 209 208 207 206 205 204 203 202 201 200 199 198 197 196 195 194 193 192 191 190 189 188 187 186 185 184 183 182 181 180 179 178 177 176 175 174 173 172 171 170 169 168 167 166 165 164 163 162 161 160 159 158 157 156 155 154 153 152 151 150 149 148 147 146 145 144 143 142 141 140 139 138 137 136 135 134 133 132 131 130 129 128 127 126 125 124 123 122 121 120 119 118 117 116 115 114 113 112 111 110 109 108 107 106 105 104 103 102 101 100 99 98 97 96 95 94 93 92 91 90 89 88 87 86 85 84 83 82 81 80 79 78 77 76 75 74 73 72 71 70 69 68 67 66 65 64 63 62 61 60 59 58 57 56 55 54 53 52 51 50 49 48 47 46 45 44 43 42 41 40 39 38 37 36 35 34 33 32 31 30 29 28 27 26 25 24 23 22 21 20 19 18 17 16 15 14 13 12 11 10 9 8 7 6 5 4 3 2 1 0 

CELL_DATA 1
FIELD FieldData 2
LengthArray 1 1 double
578.9998384 
TortuosityArray 1 1 double
0.010945374514 
POINT_DATA 283
FIELD FieldData 8
RadiusArray 1 283 double
69.814690675 68.921808391 68.681324659 68.582977049 67.805454156 67.719053787 67.566029406 66.209927887 65.950273069 
64.879201699 64.592502286 64.309616027 63.468423364 62.671527065 61.966031006 61.863625505 61.016936034 60.827065849 
60.768344661 60.674381907 60.519132932 59.993011418 59.891296868 59.774237096 59.693235696 59.517945489 59.380285039 
59.228043047 59.156161759 59.064172901 59.060058571 58.818180152 58.555215798 58.280257501 57.867147075 57.864927619 
57.615740016 57.479386092 57.479291222 57.475433182 56.631400866 56.130244799 55.576217491 55.206651847 54.419600644 
54.035319172 53.924077671 53.493495878 51.996011682 51.798162771 51.069726434 50.197160056 49.668015906 48.971564242 
48.875229256 48.202195857 48.197906087 46.922551837 46.587324187 46.218649104 46.156909518 45.718480826 45.641465645 
45.583619212 45.346836136 45.131081169 44.849862321 44.680962816 44.639028763 44.407971096 44.395745371 44.346588103 
44.255971753 44.254360127 44.231729601 44.226808597 44.158785741 44.144495934 44.143094648 44.222510205 44.247637062 
44.274094469 44.412088068 44.590201352 44.60274175 44.745943316 44.879000793 44.879072526 44.896934113 45.029967073 
45.298236436 45.631821872 45.940450525 46.001631615 46.600716228 46.725916631 46.858856465 47.184348644 47.264856808 
47.446252002 47.727138429 48.131780848 48.189034325 48.382180079 48.679440399 48.693387902 48.717235253 48.801957872 
49.002523494 49.035452657 49.249435024 49.25353483 49.303414029 49.329413298 49.561588711 49.619948876 49.795698363 
49.816839675 49.884954685 50.032690513 50.112598717 50.115797408 50.159208473 50.176186495 50.230162854 50.243679528 
50.316061945 50.330473351 50.339299797 50.354475083 50.390628995 50.41655479 50.41710921 50.416741539 50.421142018 
50.439067238 50.44060479 50.401187123 50.401566684 50.383562997 50.35989394 50.247023726 50.102169152 49.985346781 
49.978968685 49.976769431 49.810539804 49.642351352 49.611000391 49.563632961 49.511398777 49.497806388 49.275075732 
49.102195728 48.941864658 48.874843746 48.399411535 48.062440229 47.756651072 47.28887011 47.096555152 47.081468589 
46.749279236 46.534052175 45.969411312 45.882916672 45.422102251 44.737424253 44.402098222 44.356248053 43.737878348 
43.587391347 42.827432667 42.814444627 42.562914839 42.258296876 42.000628299 41.688778314 41.079508258 40.816580428 
40.445106953 40.418692989 39.812167018 39.738843116 39.097706525 39.097292209 38.726547761 38.325085784 37.656607135 
37.50975074 37.388023349 36.956794701 36.887274799 36.641536406 36.600548187 36.580076981 36.439624604 36.308687292 
36.292970392 36.261227093 36.173951352 36.076999542 36.033586758 35.923319704 35.879545028 35.72560889 35.664729886 
35.522526136 35.496020273 35.310271542 35.207242336 35.101152922 35.018022647 34.83363801 34.797821196 34.71747627 
34.441017135 34.406639209 34.34558768 34.045190571 34.036312884 33.905645113 33.663484477 33.487145147 33.200792537 
33.027723166 32.799095346 32.790192522 32.340279861 32.214762153 32.155471986 31.790058992 31.158098791 30.916877845 
30.569515756 30.558245195 30.106671391 30.006352894 29.56338028 29.138674147 28.59479478 28.469562598 28.396217904 
27.971865919 27.958404732 27.948981281 27.434899615 27.342517527 27.333893056 27.314037011 26.985407739 26.936742499 
26.574549745 26.530463806 26.456440105 26.448184551 26.371775716 26.275981387 26.213074194 26.127089793 25.97983878 
25.980522971 25.990795931 25.974868365 26.238126714 26.309421072 26.361642542 26.314016916 26.247681019 26.225818472 
26.128994487 26.015734064 26.010049473 25.989412117 26.110823935 26.081228292 26.031313433 26.023905222 26.024158864 
25.893308459 25.101338786 24.059125096 22.828569507 
EdgeArray 2 283 int
51141 51141 45045 45045 45060 44523 44384 44523 44524 
44524 43763 43763 42832 42832 24736 43376 43376 41394 
43071 43071 42424 42424 42425 42125 41404 41404 41657 
41657 39418 39418 40932 40586 40607 40606 40610 40610 
40609 40609 40006 40006 39414 39414 39788 39788 39847 
39845 39848 39848 39615 39615 39649 39649 35718 36989 
36989 39413 38350 39413 36569 39412 36942 39412 36525 
36525 38670 38670 38463 38463 37960 38841 37960 38453 
38000 36667 38110 38110 37052 38110 37052 37052 37334 
37334 34343 34343 35964 35964 34103 34103 26288 26288 
35316 35316 28621 28621 25731 25731 35035 35035 35039 
35039 33032 33032 32680 32680 27632 27632 33739 26382 
26382 27938 32547 33203 32547 33260 29573 31750 28441 
28807 29806 29806 30955 29476 30459 29476 30946 30459 
30231 28077 30110 27933 26957 27933 29796 29516 30610 
27903 23573 23573 27631 30763 30763 29088 31568 29088 
31568 31567 31567 31569 30779 30779 22508 22508 27692 
27692 31334 31330 30123 31334 30753 30753 30767 30767 
31093 31095 30809 30809 28829 28829 26768 31140 30807 
30807 31076 31076 31074 31076 31074 31074 29366 29366 
30372 29843 30372 27996 30700 30700 30804 30804 28389 
28389 30126 29762 29760 28151 28934 28151 29486 29488 
29487 24769 28131 28131 28154 28135 28631 28634 28375 
28362 27838 27639 27838 25001 25001 25001 27772 25771 
27772 27820 27814 27820 27814 27814 25922 27073 27073 
27073 26603 26603 26760 26760 27556 27556 27000 27000 
26358 25772 26786 26786 26396 26396 25797 24909 24909 
26005 26005 25794 25794 25794 24499 25175 25175 25175 
25159 25477 25478 25477 25479 25479 25123 25123 25077 
25077 23667 23667 24202 24629 23068 23952 23717 23717 
23716 23716 23710 23710 23115 23115 22285 22182 22196 
22021 22525 22872 22169 22169 22630 22630 22174 22188 
22187 22188 21923 22187 21911 21911 21232 20253 21220 
21219 21219 21223 20953 20924 20760 20754 20762 20762 
20554 20343 20336 20539 20336 20335 20295 20295 19579 
19579 19312 19312 18835 18835 18484 18484 19185 18734 
18842 18843 18841 18841 18676 18676 18679 18679 18173 
18173 17967 17967 17977 17977 17947 17975 17613 17613 
17664 17664 17374 17374 17375 17377 17375 17376 11203 
16992 12084 16343 12084 16593 15945 16269 16382 16382 
15806 15806 12428 12428 15208 15208 11345 11345 14388 
14388 11633 12914 13522 13522 15191 15191 15643 15643 
14355 14355 15595 15595 12931 12931 13176 16110 14748 
15181 15247 15186 14925 15186 14370 14127 14080 15182 
14408 15182 13552 14408 15008 15961 15006 15006 15015 
15022 15274 15274 15664 15664 15796 15796 15799 15799 
14238 14238 14779 15234 14162 14162 14978 14978 14587 
14587 14822 14822 13573 13573 12783 12783 14215 14739 
14462 14210 12483 14496 14211 14211 13570 12614 13059 
13570 12771 12374 13622 13622 13260 13260 13371 13371 
13008 13008 13566 13566 11128 9280 12696 13868 13866 
12286 13866 10611 14156 14156 11670 12686 11670 11097 
12296 10404 12709 12296 12685 11919 10548 12685 10356 
10390 11255 11255 9066 9066 12412 7765 7765 12680 
12680 12680 12683 12683 12465 12465 12165 12164 9473 
12167 12460 9473 12459 12114 9056 9056 11922 9169 
11318 11318 11044 11626 11909 11909 11039 11908 11335 
11630 11336 11336 11333 9806 10899 10896 9819 10544 
9819 9063 7608 9063 5493 10406 10165 10165 9550 
9872 7181 7181 8766 9175 8647 8766 8647 8647 
8161 8161 6924 6924 6413 6413 6882 7719 5932 
5932 6385 6874 6380 6231 3986 5798 3986 4940 
3983 3131 2660 5577 2783 4808 4806 4806 
EdgePCoordArray 1 283 double
0 0 0.84 0.92 0 0 0 0.808 0.208 
0 0 0.152 0 0 0 0.164 0.132 0 
0 0 0 0 0.272 0 0 0 0.236 
0.584 0.656 0.984 0.98 0 0 0 0.004 0.004 
0.148 0 0.976 0 0 0 0 0 0 
0 0 0 0 0 0 0 0 0.7 
0.256 0.036 0.024 0.9 0.404 0 0.176 0.324 0.368 
0.096 0.428 0.732 0.516 0.856 0 0.964 0.252 0.98 
0.988 0.04 0 0 0 0.72 0.352 0 0 
0.12 0 0 0.876 0 0 0.996 0 0 
0.3 0.468 0 0 0 0.048 0.284 0.892 0.148 
0.716 0 0.324 0.088 0.06 0.02 0.34 0 0.94 
0.176 0.992 0 0.032 0 0 0 0 0 
0.896 0 0 0.604 0.044 0.44 0 0.752 0 
0.748 0.844 0 0 0 0 0.968 0.588 0 
0 0 0 0.976 0.888 0.088 0 0 0.772 
0.164 0.32 0 0.236 0.604 0.224 0.244 0.38 0 
0.212 0.248 0.152 0 0 0 0 0 0.984 
0.86 0 0 0 0 0 0 0.964 0 
0 0 0.996 0.944 0.924 0.624 0.208 0.992 0 
0 0 0 0 0 0.984 0 0 0 
0 0 0 0.024 0.856 0.92 0.912 0.264 0.832 
0.572 0.728 0.188 0 0.2 0 0 0 0 
0 0.96 0 0 0 0 0 0 0.664 
0.8 0.724 0 0.028 0.956 0.12 0 0 0 
0 0 0.996 0.764 0.088 0.176 0 0.316 0.316 
0.024 0.988 0.236 0.86 0.284 0 0 0.944 0.144 
0 0 0 0.324 0.18 0.572 0.06 0 0.072 
0 0.94 0 0.988 0.9 0 0.184 0.864 0.012 
0.036 0.824 0.676 0 0.86 0 0.052 0.284 0 
0 0 0 0.672 0 0.584 0.128 0.156 0.132 
0.204 0.952 0.048 0 
CurvatureArray 1 283 double
0 6.1026335071e-06 2.4847011277e-05 4.3284116281e-05 6.0519169544e-05 7.6189400018e-05 8.9367580561e-05 9.9561326688e-05 0.00010643860944 
0.00011002877573 0.00011116651919 0.00011261090746 0.00011953158875 0.00013911007498 0.00017674684287 0.00023493526202 0.00031434809342 0.00041504458688 
0.00053800992412 0.00068452101491 0.0008545876795 0.001049185419 0.0012661910098 0.0015046809232 0.0017593216329 0.0020250672354 0.002294397521 
0.0025577658044 0.0028056959534 0.0030295310938 0.0032201802099 0.0033727069833 0.0034836274805 0.003553524539 0.0035851837385 0.0035837372956 
0.0035556909064 0.0035077557311 0.0034478212351 0.003381111595 0.0033141389197 0.0032504347733 0.0031941950037 0.0031475872724 0.0031125971517 
0.0030913456019 0.0030830684711 0.0030892694391 0.0031105740529 0.0031464061481 0.0031969626434 0.0032623533141 0.0033426043849 0.0034379488509 
0.0035467869389 0.0036703139093 0.0038071444854 0.0039564776771 0.0041167026262 0.0042855936941 0.0044614401295 0.0046396440015 0.0048160918259 
0.0049852433507 0.0051398568476 0.0052733277889 0.0053758334613 0.0054381646149 0.0054527272052 0.0054094538392 0.00530209509 0.0051241129107 
0.0048740861609 0.0045511063737 0.0041612921785 0.0037094157331 0.0032092685174 0.0026719175516 0.0021155917807 0.0015602216516 0.0010389667137 
0.00063727838919 0.00059813470823 0.00091531266425 0.001313762481 0.0017048170127 0.0020652186012 0.0023878172193 0.0026747863914 0.002927676607 
0.0031511698818 0.0033500452973 0.0035300140271 0.0036959047887 0.0038537103164 0.0040063877476 0.0041614322299 0.0043196924291 0.0044856621835 
0.0046604156935 0.0048448272825 0.0050375725487 0.0052375502047 0.005439811951 0.0056399118758 0.0058318596509 0.0060053630573 0.0061544914779 
0.0062691772672 0.0063404305067 0.0063645645294 0.0063364985894 0.0062534492025 0.006124609126 0.0059504984421 0.0057498510438 0.0055312364108 
0.005312595544 0.0051089311037 0.0049308455989 0.004793370074 0.0046910235741 0.0046268637244 0.0045930456162 0.0045790959813 0.0045763372295 
0.0045735965284 0.0045609757148 0.0045340741524 0.0044865355644 0.004413313895 0.0043148210934 0.0041897237471 0.0040389130497 0.0038634909196 
0.0036683035717 0.0034528279093 0.0032256611216 0.0029874023976 0.0027444896217 0.0025011263443 0.0022605136153 0.0020273695636 0.0018078965835 
0.0016025748057 0.0014169848837 0.0012540221048 0.0011152413649 0.0010040763853 0.00091818230919 0.00085874709447 0.00082083891776 0.00079959532239 
0.00079148204322 0.00079076699145 0.00079333092863 0.00079748781375 0.00080065624821 0.00080205011137 0.00080101947555 0.0007973385635 0.00079080161208 
0.00078146105418 0.00076926595136 0.00075438738871 0.00073658079878 0.00071597692143 0.00069264387341 0.00066603489492 0.0006367232517 0.0006044079111 
0.00056887451175 0.00053058194998 0.00048956345493 0.0004461499738 0.00040085196555 0.00035469319547 0.00030904126537 0.00026664131532 0.0002301967396 
0.00020880500952 0.00020577114355 0.00022478194703 0.00026230755438 0.00031083868593 0.00036705312886 0.00042914203201 0.00049258024443 0.00055617193611 
0.00062437646295 0.00069018684534 0.00075866018325 0.00082748478339 0.00089803771147 0.00097131633379 0.0010462059639 0.0011243709781 0.0012069305223 
0.0012906909043 0.001377416802 0.0014683198019 0.0015550226093 0.0016422664197 0.0017252460696 0.0017981898569 0.0018645265433 0.0019190145586 
0.0019549888349 0.001985631924 0.0019944239064 0.0019871753688 0.0019711137423 0.0019346448309 0.00189122967 0.0018367470475 0.0017692080764 
0.0016966788781 0.0016185155022 0.0015361353592 0.0014491891977 0.0013658234154 0.0012802142346 0.0011969177879 0.0011193242382 0.0010451896774 
0.00097668186622 0.00091426795003 0.00085869286374 0.00080934379596 0.00076531909378 0.00072951798239 0.0006979597148 0.00067687532332 0.00065946586178 
0.00065117663431 0.0006548323346 0.00066804879406 0.00069232502932 0.00073032250703 0.00078357355823 0.00085211478412 0.00093410543638 0.0010347133693 
0.0011499382635 0.0012865089747 0.0014386027573 0.0016085888853 0.0017966819205 0.0019996737158 0.002216319393 0.0024457300318 0.0026832996037 
0.0029247932201 0.0031699942676 0.0034135909286 0.0036508796157 0.0038828802401 0.0041032515794 0.0043123339128 0.0045094960119 0.0046891688869 
0.0048563872325 0.0050053938802 0.0051397221075 0.00525574958 0.0053549705203 0.0054311628386 0.0054859937352 0.0055117816627 0.005514321532 
0.0054745483127 0.0053974828489 0.0052675064469 0.0050849531856 0.0048472421276 0.0045332352952 0.0041583651699 0.0037050245842 0.0031801686643 
0.0025881241942 0.0019381455792 0.0012399268657 0 
TorsionArray 1 283 double
0 0 -0.0023628256983 -0.0024473703642 -0.0043123773493 -0.0064985624182 -0.009352977671 -0.013544468567 -0.019876288914 
-0.029056592444 -0.042673598205 -0.060073542326 -0.074290476743 -0.07441509169 -0.060817674309 -0.043877882879 -0.030131967143 -0.020227607154 
-0.013257947061 -0.0081311613068 -0.0041714166051 -0.0010690813595 0.0014835698151 0.0037315536339 0.0056005313443 0.0071322324765 0.0085767962513 
0.0098070858559 0.010697679235 0.011341687498 0.011753551696 0.011836371804 0.011541977445 0.010941860696 0.010061181012 0.0088506666228 
0.0074091411832 0.0057843214111 0.0040702960122 0.0023105844163 0.00058556440813 -0.0010272428753 -0.0025259900973 -0.0038265292111 -0.0049797368682 
-0.005917634549 -0.0066669164232 -0.0072910751452 -0.0077519508412 -0.0080956662924 -0.0083602017685 -0.0085316399948 -0.0086650130137 -0.0087334321947 
-0.0087560261695 -0.008787277793 -0.0087668000851 -0.0087143471464 -0.0086536351558 -0.0085519727998 -0.0084385027731 -0.008306262252 -0.0081261776532 
-0.007920432836 -0.0077107203819 -0.007490717643 -0.0072655179116 -0.007065673707 -0.006884481575 -0.0067871555851 -0.0068530974042 -0.0070647526213 
-0.0075697932776 -0.0085554840489 -0.010246367783 -0.013051356264 -0.017851726257 -0.02661301419 -0.043400530442 -0.080688678718 -0.18099829835 
-0.46866022978 -0.50725508764 -0.20183826328 -0.089681044285 -0.048108261067 -0.029418104078 -0.019785523369 -0.014423021642 -0.011430130165 
-0.0097682576274 -0.0089470959732 -0.0087478666001 -0.0089350753604 -0.0093356571612 -0.0099306604592 -0.010557280595 -0.011167200828 -0.011626472121 
-0.011908570734 -0.01197845289 -0.011726628576 -0.011164763911 -0.010246343333 -0.0089504784571 -0.0072629248123 -0.0051751365368 -0.0026176529562 
0.00045830085804 0.0040671276664 0.0082946614405 0.013271228066 0.01893729883 0.025416031764 0.032603843111 0.040221906174 0.04810392127 
0.055389144806 0.06148943933 0.065098453972 0.065809568753 0.063699301809 0.058268625077 0.050941077452 0.042347115166 0.03334685295 
0.02509844227 0.017362777998 0.010309000065 0.0046471060272 -0.00026494390231 -0.0046855770965 -0.0084095668302 -0.011618591686 -0.014771250179 
-0.017527393417 -0.020349993621 -0.023499344465 -0.026580534123 -0.030283285512 -0.0342412259 -0.038677412892 -0.044179331838 -0.050376989426 
-0.057288130335 -0.065227616889 -0.073447482286 -0.081430859192 -0.087749861211 -0.09127151246 -0.090663510025 -0.086352365445 -0.0790731984 
-0.070144147408 -0.061604428618 -0.053529904993 -0.046284436228 -0.040418045544 -0.035155075917 -0.030456923369 -0.026664257481 -0.023095883054 
-0.019685259213 -0.016715066739 -0.013598487736 -0.010608993007 -0.007970624007 -0.004720562073 -0.0015512306173 0.0010124790498 0.0046911196552 
0.0087105620751 0.012576478631 0.017705638724 0.024481871654 0.033109533957 0.044716795716 0.062559786399 0.086703391156 0.12097487498 
0.15499726276 0.16416292381 0.14272966142 0.10834239823 0.078986845107 0.056260764762 0.04040582568 0.029896047715 0.019595974394 
0.011946966169 0.0057177768595 -0.00068462274066 -0.0060929187747 -0.011483013079 -0.015909782089 -0.019661276759 -0.023105224617 -0.025014798165 
-0.025889528351 -0.026546088965 -0.025325204199 -0.023363675425 -0.021059562868 -0.017475828498 -0.013757247426 -0.0098312686176 -0.0049573969997 
-0.00076162510118 0.0037487861085 0.0090998698638 0.013451465806 0.018240367054 0.023081242359 0.027143974675 0.032092598891 0.036807087381 
0.040753053525 0.045045688231 0.04987116442 0.053728015332 0.057249700638 0.062349590302 0.065551290545 0.068211212611 0.072463172606 
0.074573877467 0.076037127619 0.078416892134 0.077848352287 0.078552388541 0.079080262581 0.079189742185 0.077891054585 0.075892654656 
0.074646467906 0.071106423097 0.066131658638 0.059660015818 0.05202483252 0.043918216243 0.03582449527 0.028050013701 0.021289757567 
0.015775178924 0.01125979755 0.0080173701939 0.0056663359036 0.0041294646364 0.0032607869742 0.002776247729 0.0027325101041 0.0030491668936 
0.003423334732 0.0039097134554 0.0046051313373 0.0052701844885 0.0059866888909 0.0067489265843 0.0074027931737 0.0081398259468 0.0088009851482 
0.0093988758886 0.0099536469623 0.010386787244 0.010745021402 0.011030963568 0.011219929267 0.011305937483 0.011122089157 0.010904431409 
0.010693790907 0.010312658766 0.009920595359 0.0091140936977 0.0085514685339 0.0079049120181 0.0069846424774 0.0064277485744 0.0055953206923 
0.0046371148502 0.0034817635041 0 0 
TangentArray 3 283 double
-0.01907116685 0.12070359119 0.99250538219 -0.01907116685 0.12070359119 0.99250538219 -0.019132034198 0.12066429079 0.99250898948 
-0.019264871907 0.12057672502 0.99251706187 -0.019464946078 0.12044169908 0.99252955271 -0.019723441668 0.12026006526 0.99254647375 
-0.020027417283 0.12003283621 0.99256789228 -0.020359675078 0.11976187478 0.99259386306 -0.020699087291 0.1194487701 0.99262457108 
-0.021020390059 0.1190947309 0.99266035897 -0.021294785983 0.11870097188 0.99270167289 -0.021489906067 0.11826789087 0.99274915761 
-0.021570415711 0.11779428098 0.99280371904 -0.021498723608 0.11727729637 0.99286647674 -0.021234518174 0.11671185323 0.99293878893 
-0.020735252413 0.11609044087 0.99302218447 -0.019956761505 0.11540147245 0.99311843595 -0.018854634321 0.11462974869 0.99322934083 
-0.017384973265 0.11375576615 0.99335662698 -0.015504477198 0.11275486239 0.99350186321 -0.013173302094 0.11159768496 0.99366615159 
-0.010356719352 0.11024912335 0.99385002348 -0.0070275666266 0.10867010639 0.9940530274 -0.0031683737295 0.10681816344 0.99427352442 
0.0012253941649 0.10464798698 0.99450857072 0.0061428448684 0.10211592924 0.99475353855 0.011558536567 0.099182889769 0.99500208774 
0.017428386203 0.095815044673 0.99524656672 0.02369140309 0.09198829042 0.99547821264 0.030275416406 0.087692447402 0.99568741773 
0.037098917564 0.082932034627 0.99586442247 0.044076258981 0.077725862409 0.9959999868 0.051125079033 0.072106967009 0.99608574511 
0.058172326506 0.066121283702 0.99611442931 0.065158334141 0.059822474375 0.99608014891 0.072039090161 0.053268187287 0.99597834801 
0.078789059319 0.046517469483 0.99580540728 0.085399333364 0.039626927231 0.99555846664 0.091877030608 0.032647512835 0.99523502307 
0.098241086931 0.025623339078 0.99483271626 0.10452006541 0.018591414332 0.99434899067 0.11074873334 0.01158126001 0.993780958 
0.11696474824 0.0046157216013 0.99312534092 0.12320767949 -0.0022880907094 0.9923782708 0.12951552454 -0.0091178067648 0.99153547314 
0.1359262105 -0.015865090806 0.99059192617 0.14247364175 -0.02252386859 0.98954228649 0.149187747 -0.029089404222 0.98838090972 
0.15609726505 -0.035558616522 0.98710142773 0.16322673702 -0.041928850728 0.9856972171 0.17059665452 -0.048196741176 0.98416149874 
0.17822481131 -0.054358373701 0.98248719271 0.18612559456 -0.060409712571 0.98066708402 0.19431091675 -0.066345696754 0.97869378058 
0.20278772644 -0.072159824261 0.97656034006 0.21155917942 -0.077845132326 0.97426015467 0.2206260633 -0.083393301755 0.97178685802 
0.22998340408 -0.088795238429 0.96913520186 0.2396208538 -0.094041315486 0.96630123533 0.24952199426 -0.099120509631 0.96328287587 
0.2596644819 -0.1040222622 0.96008006218 0.27001890161 -0.10873528844 0.95669557845 0.28054721994 -0.11324759401 0.9531360028 
0.29120316978 -0.11754813366 0.94941200234 0.30193108905 -0.12162598037 0.94553939017 0.31266705234 -0.12547043724 0.94153942231 
0.32333846868 -0.12907128825 0.93743951123 0.3338635249 -0.13241874777 0.9332740337 0.34415541681 -0.13550416921 0.92908324127 
0.35412296062 -0.13832035677 0.92491318926 0.36367260673 -0.14086077915 0.920815115 0.37271213102 -0.14311911513 0.91684381782 
0.38115334734 -0.14509111083 0.91305569128 0.38891569988 -0.14677360907 0.90950650689 0.39592998933 -0.14816434903 0.90624873474 
0.40214004023 -0.14926242458 0.90332946185 0.40750507798 -0.15006913882 0.90078791344 0.41200137964 -0.1505873922 0.89865360428 
0.41562153345 -0.1508209108 0.89694581431 0.41837512643 -0.15077665551 0.89567217984 0.42028668924 -0.15046333857 0.89482952711 
0.42139370678 -0.14989178557 0.89440471628 0.42174339523 -0.14907493406 0.89437641551 0.42139086792 -0.14802759049 0.89471647402 
0.42039707171 -0.14676708352 0.89539138107 0.41882413329 -0.14531167008 0.89636536296 0.41673319926 -0.14368038747 0.89760202032 
0.41418461301 -0.14189427485 0.89906458117 0.41123437563 -0.13997431299 0.90071831335 0.40793259868 -0.13794102231 0.90253158909 
0.40432327788 -0.13581523226 0.9044760415 0.4004435571 -0.13361683726 0.90652716362 0.39632365609 -0.13136449302 0.90866436576 
0.39198700412 -0.12907597766 0.9108707815 0.38745053896 -0.12676757656 0.91313310169 0.38272626356 -0.12445403903 0.9154407678 
0.37782033884 -0.12214840461 0.91778622718 0.37273474004 -0.11986178185 0.92016409777 0.36746925241 -0.11760392812 0.92257014076 
0.36202157236 -0.11538225708 0.92500125184 0.35638947869 -0.11320242899 0.92745444608 0.35057204392 -0.11106851557 0.92992635562 
0.34457087282 -0.10898215701 0.93241289301 0.33839166288 -0.10694301639 0.93490869808 0.33204576268 -0.10494853394 0.93740675094 
0.32555011786 -0.10299345029 0.93989864877 0.31892986824 -0.10107034416 0.94237387733 0.31221763787 -0.099169330178 0.94482040122 
0.30545280068 -0.097277584908 0.94722524145 0.29868279734 -0.09537991908 0.94957425071 0.29195943285 -0.093458716461 0.95185353804 
0.28533701405 -0.09149408022 0.95405011488 0.27887263866 -0.089464564678 0.95615173643 0.27261943737 -0.087347638488 0.95814875276 
0.26662630601 -0.085120166575 0.96003383804 0.26093422566 -0.082759464475 0.96180257897 0.25557319776 -0.080244019022 0.96345380688 
0.25056367988 -0.077554218626 0.96498869708 0.24591273576 -0.074673324971 0.96641131043 0.24161703557 -0.071588001701 0.96772742347 
0.237659281 -0.06828914285 0.96894512699 0.23401429242 -0.06477227462 0.9700731227 0.23065187711 -0.061037731394 0.97112002705 
0.22753382418 -0.057091146783 0.97209513928 0.2246210413 -0.052943373838 0.9730068792 0.22187317292 -0.048610485782 0.97386308884 
0.21925055134 -0.044113674293 0.9746708057 0.21671895569 -0.039478816779 0.97543545008 0.21424637774 -0.03473622918 0.97616181241 
0.21180385326 -0.029920031826 0.97685409322 0.20937085401 -0.025067596336 0.97751494163 0.20693125372 -0.020218718064 0.97814654305 
0.20447241967 -0.015414761738 0.97875094621 0.20198748305 -0.010697862589 0.97932967505 0.19947478593 -0.0061099876324 0.97988391038 
0.19693470257 -0.0016919717804 0.98041514684 0.19437329426 0.0025173448249 0.98092440354 0.19179827306 0.0064819416717 0.9814129645 
0.18921828906 0.010169391687 0.98188238733 0.18664569973 0.013551451966 0.98233382357 0.18409203246 0.016604618883 0.98276874707 
0.18157137435 0.019310465377 0.98318815185 0.17909908203 0.021655936416 0.98359266937 0.17668782139 0.0236334674 0.98398316703 
0.17435138369 0.025240923126 0.98435993966 0.17210435239 0.026481429159 0.98472271518 0.16995871653 0.027363060496 0.98507121448 
0.16792671843 0.027898551814 0.98540463163 0.16601864303 0.028104697683 0.98572203797 0.16424421552 0.028001855416 0.98602217711 
0.16261147095 0.02761328745 0.98630371381 0.16112579654 0.026964466234 0.98656545411 0.1597926213 0.026082462636 0.98680597045 
0.1586139932 0.024995146637 0.98702423669 0.15758935571 0.023730594895 0.98721955706 0.15671828155 0.022316519473 0.98739118549 
0.15599719388 0.020779717446 0.98753889991 0.15542019878 0.019145689115 0.98766290018 0.15498096352 0.017438118059 0.98776354103 
0.15467044013 0.015678846217 0.98784170226 0.15447750251 0.013887654172 0.98789869636 0.1543911873 0.012082047131 0.98793592172 
0.1543987068 0.010277524038 0.98795516692 0.15448595929 0.0084877077711 0.98795852504 0.15463923405 0.0067243391972 0.98794812139 
0.15484339507 0.004997682703 0.98792638702 0.15508349619 0.0033168485649 0.98789579801 0.15534610042 0.0016898648174 0.98785866066 
0.15561587791 0.0001241034812 0.98781763658 0.15587900478 -0.0013735201642 0.98777520181 0.15612512445 -0.0027963180521 0.98773332743 
0.15634183491 -0.0041376748901 0.98769434052 0.15651844018 -0.0053910864214 0.98766032322 0.15664775576 -0.0065500060855 0.98763281539 
0.15672289593 -0.0076079560218 0.98761331142 0.1567380222 -0.0085586108599 0.9876031301 0.15668974175 -0.0093959771443 0.98760317964 
0.15657693556 -0.01011470741 0.98761397112 0.15639842334 -0.010710045261 0.98763597955 0.15615671036 -0.011178258336 0.98766903786 
0.15585302252 -0.011516803796 0.98771311554 0.15548847225 -0.011724332196 0.98776812817 0.15506809677 -0.011801062824 0.98783329579 
0.15459446959 -0.01174857823 0.98790815407 0.15407126876 -0.011570006219 0.98799199344 0.1535019877 -0.01126987747 0.98808407012 
0.15288657054 -0.010854020532 0.98818413607 0.15222556361 -0.01032946761 0.98829179896 0.15152161045 -0.009704289315 0.98840630731 
0.15077027653 -0.0089873587218 0.98852797183 0.1499675232 -0.0081882320136 0.98865701577 0.14910992985 -0.0073169945296 0.98879355298 
0.14818966338 -0.0063839314632 0.98893835454 0.14719944952 -0.0053995811671 0.98909209206 0.14612947022 -0.0043743741793 0.9892558025 
0.14497063377 -0.0033185770096 0.9894303929 0.14371424861 -0.0022421050113 0.98961668726 0.14235013029 -0.0011541929414 0.98981569408 
0.14087135612 -6.3186215658e-05 0.9900279072 0.13927348929 0.0010237513385 0.9902534257 0.13755031229 0.0021008266189 0.99049255329 
0.13570217586 0.0031639824075 0.99074462334 0.13373266168 0.0042111670051 0.99100849707 0.1316451072 0.0052424350287 0.99128304869 
0.12945064861 0.0062600592206 0.99156610533 0.12716165874 0.0072683582719 0.99185537429 0.12479139471 0.0082736760256 0.99214850405 
0.12236169809 0.0092841060216 0.99244214956 0.11988944151 0.010308715132 0.99273372674 0.11739439158 0.011357397049 0.99302042595 
0.11490479781 0.012440259704 0.99329860937 0.11244017849 0.013566677609 0.99356587679 0.11002466606 0.014745049288 0.99381947877 
0.10768215885 0.015982051234 0.99405690315 0.10543089385 0.017282226432 0.9942764461 0.10329539347 0.018647643768 0.99447590573 
0.1012965865 0.020077543651 0.9946536552 0.099450191014 0.021568028712 0.99480876536 0.09777222237 0.023112536199 0.99494040183 
0.096278898568 0.024701865942 0.99504783378 0.094978769986 0.026324322337 0.99513117894 0.093878226749 0.027965873598 0.99519083017 
0.092985576459 0.029610909609 0.99522704776 0.092299261024 0.031243412509 0.99524102387 0.091814996238 0.032846486229 0.99523420098 
0.091530233614 0.034403566722 0.99520782299 0.091434694179 0.035898837922 0.99516379061 0.09151607136 0.037317869776 0.99510410776 
0.091763350281 0.038647964313 0.99503056355 0.092158787107 0.039877963108 0.99494547892 0.092688419714 0.04099919726 0.99485070371 
0.09333866957 0.042004431006 0.99474796835 0.094097063527 0.042888912298 0.99463877053 0.094951456992 0.043650069711 0.99452445532 
0.095889586231 0.044285886708 0.99440632917 0.096908850926 0.044796579219 0.99428463787 0.09800815004 0.045183270327 0.99415938089 
0.099187797935 0.045446945078 0.99403035966 0.10045413009 0.045589914077 0.99389663823 0.10182015357 0.045614610124 0.99375649113 
0.10330338616 0.045522373928 0.99360763075 0.10492257454 0.045314017365 0.99344747882 0.10670225829 0.044990472604 0.99327261386 
0.10867011258 0.044551533313 0.99307903387 0.11085790305 0.043995205724 0.99286199807 0.11329932133 0.043318803307 0.99261611163 
0.11602540963 0.042518512755 0.99233576999 0.11906976174 0.041588587251 0.99201450657 0.1224630714 0.040522092385 0.99164547908 
0.12623163358 0.039310875169 0.9912215846 0.13039940661 0.037945634479 0.990735143 0.13498460062 0.036415539298 0.99017830015 
0.13999626154 0.034708623465 0.98954351001 0.14543878408 0.032812597566 0.98882298392 0.15131048217 0.030714572655 0.98800898428 
0.15759889946 0.028401098391 0.98709470898 0.16428700694 0.025858863173 0.98607357664 0.17135134508 0.02307464587 0.98493973281 
0.17876108944 0.02003587912 0.98368848547 0.18648395435 0.016731395155 0.98231552731 0.19447988028 0.013151326622 0.98081834137 
0.20270703034 0.009287955171 0.97919538078 0.21112182123 0.0051361526576 0.97744626274 0.21967789508 0.00069417639606 0.97557221185 
0.22832890467 -0.0040353871292 0.97357569143 0.2370272006 -0.009045189996 0.9714609054 0.24572239524 -0.014321674909 0.96923443712 
0.25436259368 -0.019844265457 0.96690530874 0.26289449896 -0.025584620251 0.96448530814 0.27126919334 -0.031505657826 0.96198774331 
0.27943214154 -0.037560347211 0.95943050743 0.28732316487 -0.043691180916 0.95683670479 0.2948824237 -0.049830193271 0.95423336141 
0.30204577045 -0.05589849019 0.95165314656 0.30875888838 -0.06180917393 0.9491299041 0.31495496613 -0.067465080701 0.94670577911 
0.32057082607 -0.072763929659 0.94442562228 0.32554924318 -0.077600999647 0.94233527745 0.32982673738 -0.081869540152 0.94048482269 
0.33335118076 -0.085468666075 0.9389207088 0.33607880531 -0.088306977039 0.93768486947 0.33797436693 -0.090306665651 0.93681269923 
0.33797436693 -0.090306665651 0.93681269923 
NormalArray 3 283 double
0.8448683473 0.53276598048 -0.048558066037 0.8448683473 0.53276598048 -0.048558066037 0.83761540233 0.54396853165 -0.049986741768 
0.83164953886 0.55295085754 -0.051033260393 0.824971082 0.56276732328 -0.052111934438 0.81053222072 0.58314823685 -0.054549546521 
0.79004147181 0.61031635075 -0.057865575528 0.75794981137 0.64928355943 -0.062792856955 0.70890512826 0.70185383467 -0.069675776951 
0.62967109641 0.77279539235 -0.079382566783 0.50487194194 0.85829897183 -0.091799766896 0.30529973745 0.94632385391 -0.10612838379 
0.027015038901 0.99274084124 -0.11719987118 -0.28006011074 0.95262954643 -0.11858870787 -0.52937552074 0.84120041073 -0.11019721882 
-0.69123300056 0.71593799217 -0.098131189223 -0.78539800764 0.61284716047 -0.086996134906 -0.83965284774 0.53749734061 -0.07797245741 
-0.87074815171 0.48658217159 -0.070960880661 -0.8887369085 0.45373356526 -0.065364816366 -0.8982777409 0.43520358646 -0.060786006129 
-0.90220035175 0.42755672304 -0.05683109967 -0.90211275969 0.42820957499 -0.053189554416 -0.89880205745 0.43553329032 -0.049654954903 
-0.89259180017 0.44850328053 -0.046094312335 -0.8840781557 0.46541916973 -0.042317975671 -0.87342772721 0.48544969839 -0.038243897242 
-0.86046001657 0.50839057054 -0.033876063353 -0.84556936651 0.53306996331 -0.029135213135 -0.82902994835 0.55868907734 -0.02399707499 
-0.81101768142 0.58472964634 -0.018481372319 -0.79184224996 0.61059551932 -0.012608051615 -0.77206292572 0.63551408917 -0.0063781811932 
-0.75231419853 0.65880445142 0.00020366249998 -0.7330649314 0.68012153522 0.007106593423 -0.71499989488 0.6989776357 0.014332309846 
-0.69889922807 0.71488469963 0.021902859113 -0.68519378707 0.727750575 0.029808971102 -0.67456875006 0.73722868834 0.038090189506 
-0.66708053742 0.74351890166 0.046724720025 -0.66325416227 0.74631384346 0.055763458362 -0.66271843604 0.74602840555 0.065160514389 
-0.66561626192 0.74252188801 0.074941561867 -0.67143980313 0.73616133833 0.08505924249 -0.67987774184 0.7270814645 0.095492408713 
-0.69053778634 0.71545547284 0.10621220279 -0.70275270032 0.70172180409 0.11715439325 -0.7161775819 0.68602545904 0.12829162374 
-0.73040200131 0.66860143981 0.13958879313 -0.74492150963 0.64983967307 0.15099782714 -0.7595182588 0.62986110422 0.16250231981 
-0.77387888448 0.60894146762 0.17407401062 -0.78776217268 0.58732356365 0.18569273242 -0.80109497768 0.56506411425 0.19735598174 
-0.81360202161 0.54254471959 0.20903822061 -0.82528272068 0.51979014364 0.22074110972 -0.83610828715 0.49687468649 0.23246177769 
-0.84591279875 0.47413696578 0.24418369025 -0.85475620627 0.45155715466 0.25590616232 -0.86258878814 0.42932759558 0.26761613974 
-0.86940414227 0.40758714107 0.27930119913 -0.87526170475 0.38635101261 0.29094646114 -0.88016102199 0.36577789669 0.30252785931 
-0.88412772932 0.34599332032 0.31401716599 -0.88723296172 0.32702678439 0.32537847797 -0.88955610087 0.30888903406 0.33656724148 
-0.89117234816 0.29160710711 0.34753005762 -0.89217294918 0.2751691155 0.3582029964 -0.89267895318 0.25946605282 0.3685127596 
-0.89277441197 0.24450008911 0.37838281641 -0.89264329099 0.22991909667 0.38771789233 -0.89243656581 0.21542830773 0.3964184913 
-0.89227474486 0.20079309413 0.40438584673 -0.89241062166 0.1851568425 0.41148538981 -0.89303215137 0.16770579861 0.41757435474 
-0.89443680495 0.14675106871 0.42242978799 -0.89682733715 0.12019869886 0.42573818261 -0.90054619457 0.082963176581 0.42677120659 
-0.90533286119 0.02611486328 0.42389907333 -0.90827305588 -0.071101589787 0.41229191102 -0.8891387948 -0.26509230133 0.37303924104 
-0.6982744092 -0.68292487538 0.21453779164 0.018408548832 -0.98478066431 -0.17282409711 0.47780505038 -0.80230909192 -0.35777430714 
0.63106667003 -0.66175573493 -0.4047643824 0.69574527294 -0.58299111924 -0.41959488804 0.7298216184 -0.53579232901 -0.42460214966 
0.75090302452 -0.50496376282 -0.42562453641 0.76549040051 -0.48344550787 -0.42462323023 0.77671030326 -0.46716739186 -0.42246388343 
0.78611500444 -0.45386023921 -0.41956415845 0.79453949609 -0.44218332501 -0.41615008859 0.80250940946 -0.43120360145 -0.41236161537 
0.8104019408 -0.42017401701 -0.40829216228 0.81834130878 -0.40879847241 -0.40398182051 0.82642365303 -0.39681042098 -0.39945642506 
0.83470701805 -0.38399933109 -0.39472611739 0.84309393023 -0.37049517941 -0.38977679107 0.85155839355 -0.35627369468 -0.38460025593 
0.85989432973 -0.34177471837 -0.37917249845 0.86805872367 -0.32707909666 -0.37348804103 0.87587086509 -0.31267453396 -0.36753892785 
0.88322146368 -0.2989300486 -0.36133180338 0.89000775438 -0.28625743118 -0.35488431952 0.89612974724 -0.27511844546 -0.34822595694 
0.90151557048 -0.26592958512 -0.34139585811 0.9060898904 -0.25913210691 -0.33444231442 0.90978456855 -0.25512606539 -0.32741827926 
0.91247716514 -0.25444647961 -0.32037854503 0.91403430934 -0.25756092912 -0.31337461471 0.91426519837 -0.26497108541 -0.30644652216 
0.91287889946 -0.27727809755 -0.29961470514 0.90944152667 -0.29520022894 -0.29287016647 0.90349502295 -0.3190781734 -0.28615705962 
0.89418416435 -0.34984899092 -0.27935705429 0.88081799259 -0.38732075805 -0.27229082671 0.86225229451 -0.43180903354 -0.26469215925 
0.83764742711 -0.48236371528 -0.25626555374 0.80639105292 -0.53745825006 -0.24672271724 0.7683829119 -0.59494467721 -0.23585701551 
0.72531890949 -0.65102394337 -0.22378629248 0.67840358266 -0.70384320854 -0.21064974916 0.63097551979 -0.75036687809 -0.19702649999 
0.58591715577 -0.78932180513 -0.18349979434 0.54532272266 -0.82069337136 -0.17054476933 0.51138394433 -0.84457798034 -0.15866473017 
0.4845334246 -0.8621592171 -0.14801636669 0.46451125745 -0.87465329625 -0.13860340204 0.45182895501 -0.88249764572 -0.13056990739 
0.44551981093 -0.88667715755 -0.12375668206 0.44435503246 -0.8880522389 -0.11794840444 0.44848541122 -0.88659200829 -0.11320533008 
0.45704468561 -0.88269209492 -0.10938382385 0.46964299581 -0.87641681299 -0.10643789926 0.48569281432 -0.86788670363 -0.10428403417 
0.50580054741 -0.85646997752 -0.10307756232 0.52842602316 -0.84276340093 -0.10254651678 0.55533816568 -0.82521152476 -0.10307987751 
0.58527447989 -0.80407825856 -0.10446021874 0.61912173553 -0.77798471016 -0.10690213916 0.65686997864 -0.74587146665 -0.11044268381 
0.69822334185 -0.70657172495 -0.11506764269 0.7431583159 -0.65811548008 -0.12082935232 0.79173577158 -0.5973411843 -0.12782009836 
0.84176342091 -0.52251400995 -0.13569617763 0.89136998344 -0.429716771 -0.14423262236 0.93629515753 -0.31625347802 -0.15275835696 
0.97034008975 -0.18101085071 -0.16023477196 0.98590842893 -0.025563176073 -0.16532118377 0.97557843583 0.14318135064 -0.16657075486 
0.93536667252 0.31387869473 -0.1630010826 0.86700217534 0.4737325915 -0.15454662632 0.77728951508 0.61289351112 -0.14206531519 
0.67641450577 0.72547664743 -0.12707104481 0.57256433334 0.81232125577 -0.11092457625 0.4707220534 0.87720188726 -0.094538867337 
0.37611976882 0.92321078557 -0.078840122423 0.28876670668 0.95526075845 -0.063958365193 0.20931103665 0.97656578462 -0.050081515997 
0.13853192338 0.9896516 -0.037398085868 0.075933056107 0.99677684614 -0.025886096506 0.019768932914 0.99968726836 -0.015315181262 
-0.028030754885 0.99958894652 -0.0060178713769 -0.069409373436 0.99758564874 0.002283049459 -0.10393220883 0.99453902269 0.0094988585235 
-0.1311141934 0.99124553311 0.015535809544 -0.1519087603 0.98818129554 0.020529385768 -0.16693658408 0.98566155936 0.024565571503 
-0.17266476176 0.98460840619 0.02707704759 -0.17331396644 0.98444780128 0.0287192546 -0.16726952383 0.98547783258 0.029229230073 
-0.15100195589 0.98813565834 0.028041577058 -0.12693005091 0.99158312989 0.02552760634 -0.093148849187 0.99542270466 0.021375943185 
-0.045862169629 0.99883556929 0.014972205165 0.018134713157 0.9998188085 0.0057863942151 0.10303204866 0.99465421745 -0.0068836522019 
0.21567837681 0.97616462499 -0.02419633626 0.36993443259 0.92779000142 -0.048520396258 0.55690126524 0.8268425608 -0.078691552379 
0.7715546359 0.62578353157 -0.11444830904 0.93149806887 0.3346037984 -0.14265919453 0.98765512207 0.024285744291 -0.15474999992 
0.96212554843 -0.22545864818 -0.15324107487 0.90521249131 -0.39915162859 -0.14583663108 0.84619282113 -0.51487651142 -0.13733130542 
0.7973055374 -0.58944741205 -0.12982922809 0.75783339062 -0.64066758744 -0.12342444836 0.72744028829 -0.6759221193 -0.11815208677 
0.71020265855 -0.69460129516 -0.11463518024 0.69839085061 -0.70693185686 -0.11179252905 0.69601233674 -0.70952153649 -0.11020896685 
0.69982278056 -0.70588570797 -0.10942322923 0.70983091323 -0.69581857542 -0.10943758364 0.725165901 -0.67971095635 -0.11012461966 
0.7437010696 -0.65920275724 -0.11117753335 0.76496309909 -0.634168175 -0.11252636509 0.78792077889 -0.60512826943 -0.1140202777 
0.81018418662 -0.57472022557 -0.11531802148 0.83166092194 -0.54294521841 -0.11640704755 0.85199012042 -0.51026365119 -0.11723412891 
0.86909986846 -0.48047657403 -0.11750608685 0.88409914844 -0.45231602233 -0.11738360907 0.89633145364 -0.42773115865 -0.11677320382 
0.90554631793 -0.40818183955 -0.11564364201 0.91247424232 -0.39290040453 -0.11410534261 0.91686629692 -0.38312348576 -0.11212755339 
0.91840605389 -0.38013310333 -0.10967745405 0.91833484864 -0.38108185686 -0.1069472961 0.91516296453 -0.3895070579 -0.1037352409 
0.90925731542 -0.40401302753 -0.10012296409 0.90088082693 -0.42327860689 -0.09617149583 0.88843913002 -0.44974404122 -0.091685383999 
0.8727107109 -0.48045768373 -0.086812609831 0.8525401727 -0.51627975885 -0.081427664385 0.82648039861 -0.55789542982 -0.075384614455 
0.79489980148 -0.60282909805 -0.068785057603 0.7567257044 -0.65082960609 -0.061538866914 0.71073402869 -0.70141970509 -0.053549395599 
0.65504706683 -0.7542672822 -0.044656547461 0.59240457028 -0.80486910319 -0.035249848914 0.51811112257 -0.85495226382 -0.024849371351 
0.4325590394 -0.90150314855 -0.01359229878 0.33950837862 -0.94060099227 -0.0019581062313 0.23568517684 -0.97177456522 0.010329173012 
0.12096425085 -0.99238616446 0.023180824096 0.0038687258228 -0.999355257 0.035694583113 -0.12041117092 -0.99155044205 0.048258375388 
-0.24603228782 -0.9673863733 0.060263737855 -0.36545735917 -0.92811246606 0.07105046773 -0.48583620123 -0.87027647509 0.08112978792 
-0.59529766886 -0.79849669951 0.089575143421 -0.69829548325 -0.7092553736 0.09664488135 -0.78470275718 -0.61146320246 0.10175625242 
-0.85813860026 -0.50253937327 0.10513001978 -0.91551895072 -0.38786430628 0.10670675136 -0.95611054521 -0.27290330898 0.10666025166 
-0.98097902247 -0.16304498082 0.10533988658 -0.99264757688 -0.063205615507 0.10322711985 -0.99462301092 0.023660273098 0.10082290226 
-0.99045939624 0.096308824232 0.09856365848 -0.98321831448 0.15464058011 0.096788620447 -0.97533263882 0.19888441766 0.095766549761 
-0.96788402763 0.23255984616 0.095479982237 -0.96173683666 0.25660066613 0.096012265644 -0.95683905354 0.27385892049 0.097264162395 
-0.95306575746 0.28605864826 0.099177173296 -0.95014702667 0.29475465326 0.10168737432 -0.94774627655 0.30134548259 0.10472772038 
-0.94558057752 0.30685397894 0.10824974374 -0.94352813231 0.31169707505 0.11224792628 -0.94123112782 0.3169790113 0.11665449164 
-0.93858247918 0.32297189745 0.12145815423 -0.93557538334 0.32962662542 0.1266688198 -0.93203922248 0.33736108269 0.13225122924 
-0.92781637663 0.34650726476 0.13816470871 -0.92300975599 0.35664223793 0.14442750595 -0.91736730956 0.36830163387 0.15096730053 
-0.91096514355 0.38111294177 0.15778286619 -0.90377222074 0.39499591247 0.16484538864 -0.89558413781 0.41026590157 0.17207830228 
-0.88660644853 0.42627457448 0.17949649741 -0.87661646396 0.44336160046 0.18701354591 -0.86581824503 0.46095089068 0.1946356672 
-0.85412548872 0.47910763605 0.20230057489 -0.84171039182 0.49741664174 0.21000071623 -0.82848803731 0.5159746569 0.2176642494 
-0.81473868947 0.53426770017 0.22529734228 -0.80038819465 0.55242528369 0.23281976678 -0.78616145997 0.56937591715 0.24033564825 
-0.77143936106 0.58614188688 0.24762673656 -0.75701937176 0.60166557113 0.2547944491 -0.74253998265 0.61657734287 0.26166152646 
-0.72860526498 0.63021074822 0.26826997721 -0.715732505 0.64210239052 0.27464795897 -0.70289783524 0.65367841297 0.28042675627 
-0.69175932583 0.66312250214 0.28589785289 -0.68119311828 0.67192970143 0.29066546397 -0.67184604823 0.67951100557 0.29476716368 
-0.66384297701 0.68588256516 0.29812347894 -0.65762664232 0.69070737673 0.30074992775 -0.65342114981 0.69387331377 0.30262290961 
-0.65342114981 0.69387331377 0.30262290961 
BinormalArray 3 283 double
-0.53463423602 0.83761032295 -0.11213911251 -0.53463423602 0.83761032295 -0.11213911251 -0.5459252724 0.83038446849 -0.11147749302 
-0.55496658388 0.82444320758 -0.1109301052 -0.56483964958 0.81779382302 -0.11031515441 -0.58536185819 0.80341499274 -0.10897634799 
-0.61272618304 0.78301090046 -0.10705397881 -0.65199506675 0.75105788911 -0.1039926927 -0.70500004746 0.70223442388 -0.099205579478 
-0.77657739701 0.62338088408 -0.091234970368 -0.86293154673 0.49923236497 -0.078206083098 -0.9520137889 0.30080536817 -0.05644356676 
-0.99940227378 0.024292581148 -0.024596049722 -0.95974170445 -0.28061180128 0.012364373288 -0.8481218387 -0.5279774733 0.043921912673 
-0.72233440195 -0.68844447917 0.065400388797 -0.61866929555 -0.78172940207 0.078405641922 -0.54279609251 -0.83543798666 0.086114879116 
-0.49142183407 -0.86619709995 0.090593405074 -0.45815534336 -0.8839752218 0.093174506106 -0.43923065048 -0.89338893828 0.09451264802 
-0.43119283815 -0.89724042452 0.095038712881 -0.43144313892 -0.89712171296 0.095023418249 -0.43834327066 -0.89381241487 0.09462845284 
-0.45086403348 -0.88763371172 0.093957528386 -0.46729870541 -0.87917992097 0.093137460153 -0.48681660363 -0.86862036858 0.092240174079 
-0.50921980641 -0.85577947218 0.091305442133 -0.53333963274 -0.84105562756 0.090411655832 -0.55838404696 -0.82472816706 0.089614209598 
-0.58384414936 -0.80697801601 0.088952183385 -0.60913310087 -0.78811915476 0.088459388012 -0.63348643634 -0.76871478961 0.088161823949 
-0.65623115373 -0.74940287604 0.088068168206 -0.67703042608 -0.73065447982 0.088169344323 -0.69540313474 -0.7131569007 0.08844046123 
-0.71086718389 -0.69769333612 0.088836116519 -0.72333700861 -0.68469614226 0.089301538299 -0.7324722607 -0.67485405904 0.089757374689 
-0.73847968518 -0.66822383029 0.090136935856 -0.7410596954 -0.66533450713 0.090335604672 -0.74063418271 -0.66581340669 0.090296815472 
-0.73707139379 -0.66980589796 0.089921185049 -0.73074513922 -0.67680222266 0.089164415048 -0.72179774525 -0.68649064784 0.087969343386 
-0.71040948117 -0.6984781781 0.086293706519 -0.69702216866 -0.71209492696 0.084148151454 -0.68178639421 -0.72699578823 0.081513413444 
-0.66494102018 -0.74277028716 0.078394771492 -0.64687632266 -0.75891394162 0.074837506639 -0.62771713058 -0.77521098001 0.070845892252 
-0.60773957317 -0.7913504004 0.066461680563 -0.58718653113 -0.80709460301 0.061727461058 -0.56611845436 -0.82237509405 0.056648921601 
-0.54491181712 -0.83692185239 0.051312031279 -0.52359444663 -0.85073987914 0.045722133662 -0.50224204558 -0.86380617221 0.039897675342 
-0.48118517304 -0.87596206728 0.033930604735 -0.46040598852 -0.88727243114 0.02782011288 -0.44009016912 -0.89769312142 0.021626437559 
-0.42036983032 -0.90722218414 0.015398518169 -0.40125645286 -0.91592004679 0.0091502421312 -0.38289663455 -0.92378650821 0.0029418539452 
-0.36540234284 -0.93084427192 -0.0031732128959 -0.34879118266 -0.93715559177 -0.0091710256267 -0.33306044163 -0.94278562464 -0.015033569146 
-0.3182201762 -0.94779000714 -0.020736967561 -0.3042409826 -0.95223276205 -0.02627149388 -0.29100057669 -0.95619871761 -0.031665072363 
-0.27847940335 -0.95973287186 -0.03690577975 -0.26632722385 -0.96296181123 -0.042123152252 -0.25424917582 -0.96597492882 -0.047431987957 
-0.24200806907 -0.96882955307 -0.052928173953 -0.22879654879 -0.97168639558 -0.058971924727 -0.21385280024 -0.97463946708 -0.065915772317 
-0.1956174583 -0.97784704961 -0.074491325464 -0.17216369757 -0.98134169705 -0.085604526003 -0.13882152072 -0.98510940948 -0.10142995979 
-0.087356461637 -0.98821610328 -0.12568922718 0.0015197204781 -0.98600758825 -0.16669351027 0.18108368902 -0.95241107486 -0.24519755719 
0.57865377675 -0.71494480011 -0.3924458427 0.90652834148 0.08935159341 -0.41258048772 0.77079963042 0.57826287575 -0.26735739426 
0.65193646935 0.73521341832 -0.18558035849 0.58354508014 0.79937842942 -0.14307084267 0.54193527838 0.83203517139 -0.11842139849 
0.51438871888 0.85139744714 -0.10259938054 0.49488456738 0.86411089139 -0.091660418672 0.47990842851 0.87334237407 -0.083432594908 
0.46748891618 0.88066174321 -0.076739867704 0.45645585408 0.88691625754 -0.070905609015 0.44598902156 0.89264036659 -0.06547494613 
0.43542494525 0.89821667064 -0.060099331329 0.42449921344 0.90377751161 -0.054650043949 0.41297040197 0.90942436847 -0.049018008194 
0.40064446282 0.91521816032 -0.043124626815 0.38763570319 0.92106811653 -0.037041683641 0.3739179735 0.92695111552 -0.030773016132 
0.35989182104 0.93267195553 -0.024513272322 0.34563071586 0.93819213096 -0.018301192719 0.33158629299 0.94334427473 -0.012333273637 
0.31810495076 0.94803149499 -0.0067472075295 0.3055769619 0.95216588594 -0.0016870142881 0.29444369174 0.95566502824 0.0026955891448 
0.28510839507 0.95847472839 0.0062767913127 0.27800152815 0.9605390865 0.0089338483544 0.2735181629 0.96180878282 0.010567868773 
0.2721837792 0.96218192692 0.011042185089 0.27446287167 0.96154305095 0.010251499665 0.28085376375 0.95971651659 0.0080852441265 
0.29195017269 0.95642338423 0.0044053108426 0.30845771345 0.95123757101 -0.0009604764933 0.33071949727 0.94369460595 -0.0080687554725 
0.35964578849 0.93293099466 -0.017165839094 0.39506074698 0.9182230129 -0.028169216718 0.43726801987 0.8983884772 -0.041168225999 
0.48535000791 0.87253113947 -0.055899735849 0.53782933739 0.83997769255 -0.07195192748 0.59262881201 0.80057228848 -0.088741772032 
0.64608865158 0.75597911223 -0.10519047567 0.6964236426 0.70739613388 -0.12076762726 0.74072235353 0.6581974959 -0.13456021466 
0.77777210378 0.61131962909 -0.14614672648 0.80756951153 0.56891070421 -0.15547377489 0.83021609032 0.53322139472 -0.16253057432 
0.84685096456 0.50471325335 -0.16765433401 0.85863973001 0.48313873203 -0.17121559413 0.86599600752 0.46903230132 -0.17337708983 
0.86985701458 0.46141999305 -0.17447167165 0.87104101546 0.45905864179 -0.17479334308 0.86950577465 0.46211017548 -0.17439579573 
0.8656218487 0.46969889364 -0.17344095354 0.85943965069 0.48143444584 -0.17200104992 0.85106539108 0.49672460953 -0.17015393733 
0.8398705431 0.51619406704 -0.16781286003 0.82642904143 0.53827828586 -0.16514092904 0.80920513109 0.56478661797 -0.16187381495 
0.78844798324 0.59443648743 -0.15809819779 0.7627920158 0.62813704628 -0.15359749906 0.73118530808 0.66588290402 -0.1482160699 
0.69247093868 0.70737790708 -0.14177621684 0.64470088903 0.75260549778 -0.13396166759 0.5847528382 0.80163892667 -0.12425437403 
0.51091676251 0.85225700655 -0.11234792643 0.41933237952 0.90257533239 -0.097560877656 0.30735226152 0.94828002223 -0.079369936261 
0.17389861258 0.98308531813 -0.057467641432 0.020551884126 0.9992780644 -0.031952622141 -0.14584427728 0.9893002562 -0.0038012976931 
-0.31408071805 0.94906146869 0.025211727451 -0.47153547655 0.8802558431 0.052952290272 -0.6085123893 0.78973492336 0.077662235986 
-0.71923919356 0.68779275707 0.098163668266 -0.80457173649 0.58272724005 0.11442589108 -0.86825118985 0.47960277517 0.12696869447 
-0.91334483904 0.3837317406 0.13620262939 -0.9447001381 0.29514458483 0.14293817937 -0.96548940485 0.21451149234 0.14769911568 
-0.97820548003 0.14263198941 0.15089782782 -0.98507404402 0.079012986677 0.15292506573 -0.98781200164 0.021894967978 0.15410405511 
-0.98761091332 -0.026763977563 0.15462332744 -0.98555386827 -0.06892628129 0.1547021024 -0.98248908557 -0.10414852667 0.15449362813 
-0.97919997513 -0.13193678887 0.15414309083 -0.97615205668 -0.1532537949 0.15375446853 -0.97365279539 -0.1687259161 0.15340077984 
-0.9726101884 -0.17477491542 0.15324212983 -0.97245257206 -0.175671967 0.15321669329 -0.97347103291 -0.16978110053 0.15339011047 
-0.97609202434 -0.15352784885 0.15386214496 -0.97948493611 -0.12935931624 0.15451675393 -0.98325214086 -0.0953453537 0.15532060719 
-0.98657721203 -0.047640576568 0.15619148561 -0.9874737083 0.017002951493 0.15686483056 -0.98225898916 0.10283337654 0.15682019923 
-0.96382908289 0.21679556639 0.15502638926 -0.91579913123 0.37294906918 0.14906690792 -0.81576716199 0.56232235078 0.13534220049 
-0.6167765229 0.77991174812 0.1064160982 -0.32883838383 0.9422859641 0.062948226222 -0.022164052353 0.9996354023 0.01542132429 
0.2245328017 0.97418189722 -0.023551052857 0.39604594395 0.91681192856 -0.051024483691 0.510288986 0.85719027517 -0.069498078513 
0.58389175074 0.8077338291 -0.081464622669 0.63444143137 0.76774888114 -0.089697969121 0.66923226801 0.7369091636 -0.09535751704 
0.68766307702 0.71933877148 -0.098342383288 0.69982852312 0.7072342629 -0.10029823332 0.70237671938 0.70464576267 -0.10070398807 
0.69877600093 0.70829698058 -0.10013734478 0.68881956758 0.71819729505 -0.098591321636 0.67288973388 0.73346702767 -0.096153654963 
0.6526041943 0.75195791896 -0.093097012226 0.62783570444 0.77319189001 -0.089423875167 0.59909705941 0.79612715402 -0.085230675396 
0.56899634865 0.81834996079 -0.080910425092 0.53753419063 0.83976749267 -0.076469289041 0.50516605813 0.86001546079 -0.071976808096 
0.47565779517 0.87700185349 -0.067951533239 0.44775469951 0.89184779083 -0.06421251475 0.42339047103 0.90389079694 -0.061007673642 
0.40401534086 0.91287918013 -0.058508177456 0.38887101929 0.91955230579 -0.056594056866 0.37918768621 0.92366007868 -0.055396368833 
0.37624185707 0.92488519781 -0.0550403112 0.37721032275 0.92448382829 -0.055154543339 0.38561030223 0.92095345234 -0.056119813231 
0.40006002274 0.91466863591 -0.057734432381 0.4192504525 0.90589798885 -0.059815481851 0.44561248311 0.89303576687 -0.062583016707 
0.47621483361 0.87687227587 -0.065684427914 0.51191755249 0.85624560451 -0.069165628761 0.55340781744 0.82970172638 -0.073039939996 
0.59822513084 0.7976176846 -0.077024165337 0.64612372485 0.75891741578 -0.081046210363 0.69663314089 0.71237364352 -0.085006229346 
0.7494289252 0.65610264808 -0.088800907987 0.80002241117 0.59286824572 -0.092040126283 0.85014571881 0.51795225311 -0.094750832646 
0.89679783675 0.4317583435 -0.096635256564 0.93606351668 0.33807339811 -0.097424176828 0.96748255999 0.23361357567 -0.096964907965 
0.98842797732 0.1182628225 -0.094994939143 0.99580355978 0.00058629256391 -0.091514625061 0.9884968177 -0.12423806772 -0.086249312616 
0.96490807899 -0.25033964849 -0.079261967551 0.92625464997 -0.37015807217 -0.070960024085 0.86912141984 -0.49085427851 -0.06074565694 
0.79806552251 -0.60053197137 -0.049525479729 0.70959788663 -0.70364576047 -0.036789714207 0.61255677589 -0.7900679866 -0.023806991918 
0.50438410959 -0.8634193295 -0.010184863737 0.39042761876 -0.92062725704 0.0034246329653 0.27612864368 -0.96097984164 0.016453452773 
0.16685903697 -0.98557136191 0.028410427144 0.067525964295 -0.99695868014 0.038905452617 -0.018913552595 -0.99867887673 0.047778433504 
-0.091206330948 -0.99430997372 0.055037090657 -0.1492414132 -0.9869310669 0.06077885957 -0.19323786306 -0.97898970668 0.06510209287 
-0.22669652773 -0.97156115548 0.068393022163 -0.2505449707 -0.9655156757 0.070758021751 -0.26762340967 -0.96079382437 0.072477152589 
-0.27964936308 -0.95726831444 0.073713010407 -0.28817185767 -0.95466752526 0.074611638854 -0.29458409909 -0.95265358875 0.075308355525 
-0.29990489508 -0.95094442041 0.075906279077 -0.30454992744 -0.94942354207 0.076447887257 -0.30961770237 -0.94773319816 0.07706272437 
-0.3153790997 -0.94577188841 0.077791764086 -0.32178605032 -0.94354100137 0.078639154147 -0.32925374066 -0.94087412278 0.079673454503 
-0.33811145818 -0.93761724231 0.080960167782 -0.34794075602 -0.93388309403 0.082459668804 -0.35927139586 -0.92941996277 0.084276906159 
-0.37173509405 -0.92431135943 0.086380152169 -0.38525252471 -0.91853050551 0.088781769866 -0.40013326314 -0.91187111623 0.091566582934 
-0.41573893885 -0.90454614092 0.094643614052 -0.43240160929 -0.89632812696 0.098105744534 -0.44955576849 -0.88742537405 0.10186175199 
-0.46726390917 -0.87774688193 0.10594739475 -0.48512031752 -0.86746462121 0.11028784371 -0.50321772277 -0.85648411723 0.11492119224 
-0.52105713585 -0.84508238041 0.11972982711 -0.53876267529 -0.83316969048 0.12475194016 -0.55530458633 -0.82147334619 0.1296856118 
-0.57166335416 -0.80933732693 0.13481135244 -0.58682797284 -0.79755226865 0.13979738576 -0.60139731489 -0.78571580874 0.14481691042 
-0.61473792823 -0.77440930497 0.14962455673 -0.62641434381 -0.76412312235 0.15401598543 -0.63776014498 -0.75375924226 0.15845820324 
-0.64707293299 -0.74496574263 0.16224260137 -0.65573899219 -0.73653822792 0.16588493884 -0.66320223973 -0.72908310342 0.16911717096 
-0.6694695603 -0.72267573222 0.17190198923 -0.67422417335 -0.71772222868 0.17405908918 -0.67735819791 -0.71441201738 0.17550310865 
-0.67735819791 -0.71441201738 0.17550310865 
