# vtk DataFile Version 4.1
vtk output
ASCII
DATASET POLYDATA
POINTS 273 float
8.23797 -44.4828 -195.64 8.18922 -44.3595 -194.312 8.14055 -44.2362 -192.984 
8.09221 -44.113 -191.656 8.04443 -43.9898 -190.329 7.99747 -43.8667 -189.002 
7.95154 -43.7436 -187.675 7.90689 -43.6206 -186.348 7.86372 -43.4976 -185.021 
7.82223 -43.3745 -183.694 7.78263 -43.2513 -182.365 7.74508 -43.1278 -181.036 
7.70974 -43.0038 -179.704 7.67677 -42.8792 -178.369 7.64629 -42.7538 -177.03 
7.61843 -42.6272 -175.685 7.59329 -42.4993 -174.334 7.57095 -42.3697 -172.976 
7.55152 -42.2381 -171.608 7.53504 -42.1043 -170.229 7.52159 -41.9678 -168.839 
7.51123 -41.8285 -167.435 7.50399 -41.6859 -166.017 7.49994 -41.5399 -164.584 
7.49911 -41.3901 -163.135 7.50154 -41.2364 -161.669 7.50727 -41.0786 -160.186 
7.51634 -40.9166 -158.685 7.52877 -40.7504 -157.167 7.54459 -40.5798 -155.632 
7.56383 -40.4052 -154.081 7.58652 -40.2264 -152.514 7.61265 -40.0438 -150.933 
7.64224 -39.8576 -149.34 7.67527 -39.668 -147.735 7.71173 -39.4756 -146.122 
7.7516 -39.2806 -144.501 7.79482 -39.0835 -142.875 7.84134 -38.8849 -141.248 
7.89109 -38.6852 -139.62 7.94399 -38.485 -137.996 7.99993 -38.2848 -136.377 
8.05881 -38.0851 -134.766 8.12049 -37.8866 -133.166 8.18484 -37.6898 -131.579 
8.25173 -37.4951 -130.008 8.321 -37.303 -128.454 8.39251 -37.1141 -126.92 
8.46609 -36.9286 -125.408 8.54161 -36.7469 -123.919 8.61891 -36.5694 -122.454 
8.69784 -36.3963 -121.015 8.77827 -36.2279 -119.602 8.86008 -36.0642 -118.216 
8.94315 -35.9053 -116.857 9.02737 -35.7513 -115.525 9.11264 -35.6022 -114.219 
9.19889 -35.4579 -112.94 9.28604 -35.3183 -111.686 9.37402 -35.1831 -110.457 
9.4628 -35.0523 -109.25 9.5523 -34.9255 -108.066 9.64252 -34.8024 -106.902 
9.73339 -34.6828 -105.757 9.82491 -34.5662 -104.63 9.91704 -34.4523 -103.519 
10.0098 -34.3407 -102.422 10.103 -34.2311 -101.338 10.1968 -34.1228 -100.265 
10.2911 -34.0156 -99.2024 10.3859 -33.9091 -98.1484 10.4811 -33.8027 -97.102 
10.5767 -33.6962 -96.062 10.6726 -33.5891 -95.0274 10.7688 -33.4811 -93.9973 
10.8653 -33.3717 -92.9711 10.9619 -33.2608 -91.948 11.0588 -33.148 -90.9274 
11.1557 -33.033 -89.9089 11.2528 -32.9156 -88.8919 11.35 -32.7956 -87.876 
11.4472 -32.6728 -86.8607 11.5446 -32.547 -85.8455 11.6421 -32.4181 -84.8298 
11.7398 -32.286 -83.8131 11.8379 -32.1506 -82.7945 11.9363 -32.0117 -81.7732 
12.0353 -31.8692 -80.7482 12.135 -31.723 -79.7183 12.2356 -31.5731 -78.6824 
12.3372 -31.4192 -77.6389 12.4403 -31.2612 -76.5864 12.5449 -31.0991 -75.5231 
12.6514 -30.9326 -74.4473 12.76 -30.7615 -73.3572 12.871 -30.5857 -72.251 
12.9847 -30.405 -71.1266 13.1014 -30.2192 -69.9825 13.2213 -30.0282 -68.8166 
13.3447 -29.8317 -67.6276 13.4718 -29.6296 -66.4137 13.6028 -29.4218 -65.1739 
13.7378 -29.2081 -63.907 13.877 -28.9886 -62.6122 14.0204 -28.7631 -61.2892 
14.1681 -28.5318 -59.9377 14.32 -28.2946 -58.5579 14.476 -28.0517 -57.1505 
14.6359 -27.8032 -55.7163 14.7996 -27.5494 -54.2566 14.9668 -27.2906 -52.7731 
15.1371 -27.027 -51.2677 15.3103 -26.7589 -49.7426 15.4858 -26.4869 -48.2005 
15.6633 -26.2113 -46.644 15.8422 -25.9326 -45.0762 16.0221 -25.6512 -43.5001 
16.2023 -25.3677 -41.919 16.3824 -25.0824 -40.3361 16.5617 -24.7959 -38.7545 
16.7398 -24.5086 -37.1773 16.9161 -24.2209 -35.6077 17.09 -23.9333 -34.0483 
17.2612 -23.6462 -32.5018 17.429 -23.3598 -30.9704 17.5932 -23.0745 -29.4564 
17.7534 -22.7906 -27.9613 17.9091 -22.5082 -26.4866 18.0601 -22.2275 -25.0333 
18.2062 -21.9487 -23.6022 18.3471 -21.6717 -22.1936 18.4828 -21.3967 -20.8077 
18.6129 -21.1237 -19.4442 18.7376 -20.8525 -18.1026 18.8568 -20.583 -16.7821 
18.9703 -20.3153 -15.4818 19.0784 -20.0491 -14.2003 19.1808 -19.7842 -12.9364 
19.2779 -19.5205 -11.6887 19.3695 -19.2578 -10.4554 19.4559 -18.9958 -9.23493 
19.537 -18.7344 -8.02564 19.6131 -18.4733 -6.82581 19.6842 -18.2124 -5.63374 
19.7504 -17.9514 -4.44781 19.812 -17.6902 -3.26643 19.8689 -17.4286 -2.0881 
19.9213 -17.1665 -0.911415 19.9694 -16.9038 0.26492 20.0134 -16.6403 1.4421 
20.0532 -16.3761 2.62119 20.0892 -16.1111 3.80316 20.1214 -15.8452 4.98885 
20.15 -15.5786 6.179 20.1752 -15.3113 7.37423 20.1971 -15.0434 8.5751 
20.216 -14.775 9.78207 20.232 -14.5062 10.9955 20.2453 -14.2372 12.2159 
20.2562 -13.9681 13.4434 20.2648 -13.6992 14.6784 20.2714 -13.4307 15.9211 
20.2761 -13.1627 17.1719 20.2793 -12.8954 18.431 20.2811 -12.6291 19.6987 
20.2817 -12.3639 20.9755 20.2815 -12.1001 22.2616 20.2805 -11.8376 23.5575 
20.279 -11.5767 24.8636 20.2773 -11.3176 26.1803 20.2754 -11.0601 27.5082 
20.2735 -10.8046 28.8476 20.2719 -10.5509 30.1989 20.2705 -10.299 31.5625 
20.2695 -10.0491 32.9389 20.269 -9.80095 34.328 20.269 -9.55466 35.7302 
20.2696 -9.31015 37.1454 20.2707 -9.06738 38.5735 20.2723 -8.82633 40.0141 
20.2743 -8.58697 41.4667 20.2767 -8.3493 42.9308 20.2793 -8.11335 44.4054 
20.2821 -7.87917 45.8895 20.2847 -7.64685 47.3817 20.2871 -7.41651 48.8807 
20.289 -7.18831 50.3849 20.2902 -6.96246 51.8926 20.2904 -6.73919 53.4017 
20.2894 -6.51877 54.9106 20.2869 -6.3015 56.4171 20.2827 -6.08773 57.9192 
20.2764 -5.87778 59.4152 20.2677 -5.67204 60.903 20.2565 -5.47084 62.381 
20.2423 -5.27457 63.8476 20.225 -5.08355 65.3016 20.2043 -4.89812 66.7417 
20.18 -4.71855 68.1671 20.1517 -4.54509 69.5773 20.1194 -4.37795 70.972 
20.0828 -4.21728 72.3512 20.0417 -4.06316 73.7152 19.9961 -3.91561 75.0647 
19.9457 -3.77461 76.4004 19.8904 -3.64006 77.7234 19.8302 -3.51179 79.0349 
19.765 -3.38959 80.3363 19.6948 -3.27319 81.6291 19.6194 -3.16226 82.9147 
19.539 -3.05644 84.1949 19.4535 -2.95535 85.471 19.3629 -2.85855 86.7445 
19.2672 -2.7656 88.0168 19.1666 -2.67606 89.2891 19.061 -2.58948 90.5624 
18.9505 -2.50539 91.8378 18.8353 -2.42337 93.1159 18.7154 -2.343 94.3974 
18.5908 -2.26387 95.6827 18.4617 -2.18562 96.9722 18.3283 -2.10791 98.2659 
18.1905 -2.03043 99.5639 18.0485 -1.95289 100.866 17.9024 -1.87506 102.173 
17.7523 -1.79673 103.483 17.5984 -1.71772 104.797 17.4406 -1.6379 106.115 
17.2791 -1.55715 107.436 17.114 -1.47539 108.76 16.9454 -1.39256 110.087 
16.7733 -1.30862 111.417 16.5978 -1.22358 112.749 16.4189 -1.13742 114.084 
16.2367 -1.05018 115.422 16.0512 -0.961892 116.762 15.8624 -0.872597 118.104 
15.6704 -0.782351 119.45 15.4753 -0.691214 120.799 15.277 -0.59925 122.152 
15.0755 -0.506528 123.509 14.871 -0.413117 124.87 14.6635 -0.319086 126.237 
14.453 -0.224505 127.609 14.2396 -0.129444 128.987 14.0234 -0.0339696 130.372 
13.8046 0.0618527 131.765 13.5833 0.15796 133.166 13.3596 0.254294 134.576 
13.1338 0.350797 135.996 12.9062 0.44742 137.426 12.6768 0.544117 138.866 
12.446 0.640849 140.318 12.2141 0.737583 141.782 11.9814 0.834296 143.258 
11.7481 0.930972 144.747 11.5146 1.0276 146.249 11.2811 1.12419 147.764 
11.0479 1.22074 149.294 10.8153 1.31726 150.837 10.5835 1.41379 152.394 
10.3526 1.51035 153.964 10.123 1.60696 155.549 9.89461 1.70365 157.146 
9.66759 1.80046 158.757 9.44196 1.89739 160.38 9.21769 1.99448 162.014 
8.99475 2.09172 163.658 8.773 2.18913 165.312 8.55232 2.28668 166.973 
8.33253 2.38437 168.641 8.1134 2.48216 170.314 7.8947 2.58003 171.989 

LINES 1 274
273 272 271 270 269 268 267 266 265 264 263 262 261 260 259 258 257 256 255 254 253 252 251 250 249 248 247 246 245 244 243 242 241 240 239 238 237 236 235 234 233 232 231 230 229 228 227 226 225 224 223 222 221 220 219 218 217 216 215 214 213 212 211 210 209 208 207 206 205 204 203 202 201 200 199 198 197 196 195 194 193 192 191 190 189 188 187 186 185 184 183 182 181 180 179 178 177 176 175 174 173 172 171 170 169 168 167 166 165 164 163 162 161 160 159 158 157 156 155 154 153 152 151 150 149 148 147 146 145 144 143 142 141 140 139 138 137 136 135 134 133 132 131 130 129 128 127 126 125 124 123 122 121 120 119 118 117 116 115 114 113 112 111 110 109 108 107 106 105 104 103 102 101 100 99 98 97 96 95 94 93 92 91 90 89 88 87 86 85 84 83 82 81 80 79 78 77 76 75 74 73 72 71 70 69 68 67 66 65 64 63 62 61 60 59 58 57 56 55 54 53 52 51 50 49 48 47 46 45 44 43 42 41 40 39 38 37 36 35 34 33 32 31 30 29 28 27 26 25 24 23 22 21 20 19 18 17 16 15 14 13 12 11 10 9 8 7 6 5 4 3 2 1 0 

CELL_DATA 1
FIELD FieldData 2
LengthArray 1 1 double
372.48334445 
TortuosityArray 1 1 double
0.0050015841181 
POINT_DATA 273
FIELD FieldData 8
RadiusArray 1 273 double
58.071684478 58.106171554 58.823739752 59.161558708 59.347562697 59.436458612 59.496580196 60.209332485 60.360615946 
60.560675555 60.77380809 60.923074946 61.197646114 61.239187776 61.466233745 61.893204424 62.000747993 62.186485122 
62.301727276 62.515062393 62.565565372 62.697427607 63.128550323 63.345583976 63.348954231 63.73739412 64.032886643 
64.046218975 64.438498241 64.512284455 64.766403923 64.874812638 65.306698027 65.560575394 65.669803379 65.952559161 
66.081273021 66.168784959 66.64264415 67.013059088 67.189778433 67.33236388 67.570439355 67.654917058 67.924760665 
67.948304908 68.122795348 68.294019096 68.621182087 68.688661943 68.816570804 68.880915849 68.891192473 68.901036419 
69.082301274 69.110729261 69.159755317 69.297642425 69.383974893 69.426674165 69.433339756 69.449227009 69.45454437 
69.456087586 69.475030638 69.483683354 69.484081506 69.483423268 69.477780439 69.464128991 69.457793453 69.413370424 
69.412174191 69.38305569 69.342963075 69.215605056 69.17670696 69.136396365 69.090714958 69.052654272 68.996286503 
68.859716675 68.803436945 68.621812308 68.605178963 68.356466742 68.327741204 68.199733527 68.132026426 68.116978626 
68.059374388 68.018695769 67.914024825 67.843807461 67.646432761 67.62971385 67.564577266 67.310468083 67.297094291 
67.027131249 66.896725997 66.850264971 66.766999436 66.626647921 66.418165224 66.400067731 66.163066277 66.10149323 
65.965625051 65.757760028 65.456586621 65.211519614 65.018658854 64.982730883 64.703245302 64.401259773 64.390690761 
64.155711889 64.057067158 64.033475631 64.033474049 64.033080123 63.975473147 63.90911136 63.908940063 63.93632449 
63.963474465 63.969452976 63.973815828 64.079589975 64.08408379 64.106509465 64.197496968 64.328717062 64.34761165 
64.454249141 64.462564882 64.52885063 64.558565785 64.78146392 64.809257847 64.927691064 64.956998219 65.144594081 
65.299234446 65.46656789 65.583565307 65.608922847 65.731217147 65.821905567 66.050854462 66.176505948 66.263037935 
66.580431075 66.739133799 66.802746256 66.888606339 67.084785656 67.150151497 67.311462015 67.911398745 67.960092917 
68.063787963 68.096749254 68.122015157 68.452765149 68.678563722 68.91907537 69.078598939 69.100746311 69.563806219 
69.609522848 70.195750659 70.259798247 70.41357701 70.446631993 70.585266656 70.729249711 71.256860112 71.280411413 
72.067010199 72.097294174 72.169512347 72.854964304 73.235729425 73.312288673 74.189927406 74.360219485 74.582715967 
74.651871462 75.372036792 75.606457675 76.135609615 76.735224314 77.111188135 77.239333739 78.149714024 78.457236266 
78.829839187 79.080193971 79.187979056 79.395380734 79.609675323 79.670707497 79.921709291 80.000492131 80.180479672 
80.342939042 80.539967555 80.606379044 81.045782267 81.426886225 81.888180936 82.015822431 82.140387139 82.455738881 
82.986088014 83.022020585 83.217762345 83.526771884 83.543772121 83.766969144 84.0493667 84.10794863 84.204367289 
84.496081362 85.033351868 85.162337314 85.595969378 85.812370036 86.074006677 86.415187002 86.549591367 86.837506125 
86.949244313 87.042093949 87.226648836 87.41495174 87.828750683 87.890520647 88.29908494 88.601902337 88.760428858 
88.977070861 89.112088064 89.202241071 89.316073073 89.766273708 89.93003326 90.080384921 90.43619402 90.814837877 
91.185845642 91.382795186 91.429607947 91.71197557 91.715621155 91.947402664 92.464257554 92.698602955 92.836524703 
93.084413586 93.145907331 93.378033338 93.38739387 93.698870113 93.720762331 94.027423993 94.156964869 94.766111491 
94.827717291 95.397350348 95.512704841 
EdgeArray 2 273 int
34503 34503 36076 36569 38004 38004 35058 37086 35336 
37485 35964 37485 35964 37090 35525 35525 35721 35735 
35721 36566 36566 36566 36567 36567 36217 35927 36228 
35927 36228 35063 34271 34271 35521 35741 35123 35521 
35123 35096 35096 35909 35909 35650 35650 36203 36202 
36202 36895 36895 36894 36901 35908 35905 35904 35905 
35250 35904 35481 35483 35480 35482 35118 35118 34693 
34807 35120 35120 34249 34385 34366 34198 34050 33522 
34196 33912 32641 34397 33914 33914 33735 32019 34042 
31949 34044 34041 33617 32571 33468 33617 32793 32890 
32793 33000 33474 33470 33002 33002 32794 32794 32581 
32800 31815 32581 31295 31815 31295 31295 31539 31048 
31194 31245 28079 31194 31676 31676 31848 31639 28940 
28940 30971 30971 31244 31244 31217 31217 31218 31218 
31220 28871 30510 30510 30354 30354 30958 30962 28196 
28196 29307 29307 25625 25625 29941 29941 29850 29850 
29348 25663 30729 30729 30136 30136 28839 28839 29329 
29329 29490 30033 29146 29146 28772 29957 26865 26865 
26855 26855 23884 23884 28052 28796 28104 28104 27507 
27507 28304 27946 27946 27511 27632 27360 28313 27632 
28313 26069 24840 26069 27216 27216 27935 27935 25490 
25490 23320 27304 27755 26327 27672 27672 26427 22730 
22533 22533 27637 27866 26322 26849 26849 26475 25330 
25856 26378 18950 26378 24438 26894 27509 27071 17647 
25497 26895 26885 25327 25701 25701 24727 25075 26681 
26681 22733 26887 23611 23611 26019 26019 20493 26048 
19821 19821 25885 25885 25498 25498 25022 25498 25022 
25022 21649 21649 23821 25015 23821 24166 23728 17723 
22781 25215 22100 24728 24418 15970 24418 22868 22868 
23506 24719 24745 18973 18973 27005 27005 27000 27001 
21009 27001 21009 22844 22844 22844 26759 26759 26764 
26764 26765 26746 26746 26746 26745 26745 15635 15635 
26500 23787 26500 26500 25342 25342 26165 26165 22491 
22491 26779 26779 26778 26778 22745 26782 22433 26352 
26364 26353 26353 26353 26358 26358 22760 26354 22758 
26356 20731 26355 21673 20731 21673 21673 21676 21672 
21676 21676 21383 21383 21378 21378 21364 19922 21364 
21364 19453 19453 21372 21372 21379 20653 20653 20653 
20105 20105 19925 19934 19449 19937 19449 19933 19933 
19933 19923 19923 19930 19930 19481 19481 19324 15041 
19324 19324 19081 16843 19081 19081 19079 19079 19077 
19077 19078 19078 15000 15000 18671 16974 16974 16974 
15399 15399 13491 13491 18668 18668 18666 18666 15490 
12714 15490 15490 17701 17701 17700 17700 17697 17691 
17697 17697 17698 17698 14232 14232 13456 13456 7212 
7212 11631 11631 10883 10883 8912 8912 15146 15146 
16963 13590 16963 13470 13470 13470 14042 14042 12289 
12289 14461 16967 15796 16967 10836 15796 10836 10836 
11042 11042 16152 16151 16151 16151 16150 16150 8469 
16145 8469 8469 16552 16552 16554 16554 16548 16551 
16548 16548 13490 13490 16495 16495 16496 16496 14728 
14728 6527 6527 10433 10433 15420 15420 15419 15419 
15416 15416 9286 15408 9286 9286 9597 9597 9607 
9607 10930 5593 5593 5593 5442 5442 8979 8979 
14768 14768 14767 14767 9093 9093 9580 9580 13000 
13000 14758 14758 14759 14759 7753 7753 10309 10309 
10421 10421 9202 7180 9202 11311 11311 11311 10088 
12486 12486 12486 13696 13696 13698 13698 13371 13371 
13373 13373 12785 12785 6787 12783 6787 6940 12169 
12168 12168 12168 4705 8780 8780 8780 12418 12418 
12702 10518 12701 12701 10906 10906 
EdgePCoordArray 1 273 double
0 0.004 0 0.116 0.956 0.392 0.004 0 0.248 
0.512 0 0 0.936 0.824 0.484 0 0.644 0.304 
0.34 0.868 0.284 0.076 0 0 0.008 0.652 0.032 
0.992 0.296 0.24 0 0.04 0 0.532 0.62 0.732 
0.028 0.496 0 0.616 0.452 0.448 0.276 0.876 0.384 
0.528 0.732 0 0 0.308 0.264 0.432 0 0.98 
0.256 0.656 0 0.052 0 0 0 0 0 
0.088 0 0 0.404 0 0 0 0 0 
0.02 0 0 0 0 0.908 0 0.384 0 
0 0 0.96 0 0 0.12 0.964 0.208 0.812 
0.62 0.844 0 0 0 0.988 0.992 0 0.968 
0 0.248 0.304 0.472 0.292 0.112 0.132 0.66 0.56 
0.552 0.9 0 0.72 0 0.24 0 0 0.908 
0 0 0 0.996 0 0 0.012 0.016 0.492 
0.14 0.912 0.704 0.956 0.044 0.788 0 0 0.068 
0.58 0.004 0 0 0 0.068 0 0 0 
0.992 0 0 0 0 0 0 0.844 0.644 
0.532 0 0 0.996 0.84 0.62 0.888 0 0.86 
0 0 0 0.82 0 0 0 0.016 0 
0 0.764 0.276 0.824 0 0 0 0 0.988 
0 0.868 0 0 0 0 0 0.148 0 
0 0 0 0 0.872 0 0 0 0.856 
0 0 0 0 0 0 0 0 0 
0.904 0.232 0 0 0 0.112 0.196 0.764 0 
0 0.044 0 0 0.992 0 0 0 0.968 
0 0 0 0 0 0 0 0 0 
0 0.916 0 0 0 0.004 0 0 0 
0 0 0 0 0 0 0 0 0 
0 0.352 0.056 0 0.008 0 0 0 0 
0 0 0.1 0.004 0.896 0 0.604 0 0 
0.968 0 0 
CurvatureArray 1 273 double
0 4.5632101243e-05 0.00018065350443 0.00031508622928 0.00044929170992 0.00058147688171 0.00071005670424 0.00083521500257 0.00095534258744 
0.0010706714986 0.0011788744042 0.0012810650249 0.0013747245173 0.0014608072057 0.0015386009256 0.0016069935105 0.001667225156 0.0017179914315 
0.0017590214766 0.0017921484189 0.0018164221425 0.0018307070131 0.0018355872265 0.0018333037622 0.0018197516896 0.0017998647149 0.0017725336401 
0.0017397921864 0.0016998828491 0.0016557543823 0.0016091383712 0.0015604607785 0.0015109335546 0.0014618141062 0.0014152278946 0.0013707959182 
0.0013313892343 0.001296349575 0.0012678654016 0.0012454758301 0.0012309697296 0.0012242375223 0.0012260416242 0.0012371338857 0.0012559237532 
0.0012836442962 0.0013192308964 0.0013633154543 0.0014143019337 0.0014713599198 0.0015350487313 0.0015996685091 0.001670170887 0.0017382635568 
0.0018062853282 0.0018679705181 0.0019232880309 0.0019667076378 0.0019964074525 0.002008512113 0.0019993645512 0.0019652982322 0.0019080275556 
0.0018261544765 0.0017177845123 0.0015899669896 0.0014483482187 0.001309315506 0.001185171993 0.0011047015063 0.0010901009709 0.0011474279958 
0.001275457118 0.0014468994283 0.0016507460988 0.0018584169873 0.0020585357083 0.0022539230287 0.002426035434 0.0025797944732 0.0027001539019 
0.0027924360807 0.0028597013457 0.0028932610282 0.0028991450968 0.0028723896079 0.0028248018804 0.0027446166144 0.0026433814843 0.00252739945 
0.0023959022262 0.0022552018537 0.0021080247445 0.0019626382377 0.0018176429339 0.0016806190945 0.0015512179182 0.0014320681332 0.0013210346818 
0.0012224933613 0.001127692377 0.001041655734 0.0009628407932 0.0008880268954 0.00081628843214 0.00075097325826 0.00068848383953 0.00062933630264 
0.00057636300905 0.00052906046492 0.00048713153831 0.00045532812749 0.00043407177424 0.00042674300619 0.00043324950209 0.000455853124 0.00049118533219 
0.00054114115146 0.00060259961331 0.00067344979962 0.00075358545644 0.00084293590503 0.00093908304811 0.001043739221 0.0011565124965 0.0012724013999 
0.0013971678927 0.0015276448816 0.0016612923418 0.0018001779477 0.0019409498136 0.0020831117172 0.002226192931 0.0023630951257 0.0024989942021 
0.0026286655407 0.0027476562104 0.0028554408774 0.002950305745 0.0030306294998 0.0030918687567 0.003137539416 0.0031633399833 0.0031676822403 
0.0031539598143 0.0031227532586 0.003073295761 0.0030068525347 0.0029254069823 0.0028335077339 0.0027292016688 0.0026185062438 0.0025018034393 
0.0023825607121 0.0022667838339 0.0021508103864 0.0020473700873 0.0019543122688 0.0018788261455 0.0018225123148 0.00178877955 0.0017787590554 
0.0017906577881 0.0018218164968 0.0018679736161 0.0019235035673 0.0019832274531 0.0020394794784 0.0020904471155 0.0021294190835 0.0021559845263 
0.0021668633076 0.0021586019113 0.0021352044106 0.0020937651007 0.0020380225442 0.0019673583949 0.0018877259913 0.0017995386588 0.0017074026142 
0.001614640286 0.0015250857289 0.0014413599521 0.0013691725119 0.0013123498366 0.0012737825063 0.0012577531289 0.0012664246556 0.0013010588502 
0.0013632075511 0.0014502963609 0.0015633274351 0.0016991767952 0.0018571998604 0.0020349642577 0.0022298044815 0.0024401863543 0.0026628491454 
0.0028946967624 0.0031291612814 0.0033630818538 0.0035864522931 0.0037960446634 0.0039835749683 0.0041390158897 0.0042599228607 0.0043381641517 
0.0043710765498 0.0043571708681 0.0042983377482 0.0041950150935 0.0040561227595 0.00388568937 0.003693801561 0.0034877594274 0.0032772561303 
0.0030689893319 0.0028719003595 0.0026911736652 0.0025273566129 0.0023886894562 0.0022679869824 0.0021702601106 0.0020916704186 0.0020274226773 
0.0019740882403 0.0019321868407 0.0018940852376 0.001860533325 0.001828761276 0.001796355575 0.0017615873565 0.0017270391822 0.001686664892 
0.0016448839436 0.0015971234309 0.001544573578 0.0014849080221 0.0014205185272 0.0013476311015 0.0012662385266 0.0011775099397 0.0010788545224 
0.00097131457485 0.00085623938485 0.00073442402564 0.00061074541275 0.00048766686567 0.00037809399335 0.00030675717348 0.00030704605475 0.00038081812573 
0.00049188335805 0.00061871222889 0.00074456964357 0.00086300535966 0.0009749818777 0.0010666138898 0.0011462805397 0.0012032146931 0.0012399096755 
0.0012557292655 0.0012483682138 0.0012172098685 0.0011636348499 0.0010901308568 0.00099695818131 0.0008822557606 0.00075466179147 0.00061055927169 
0.00045529228322 0.00029011656934 0 
TorsionArray 1 273 double
0 0 0.0026126530483 -0.00042549466496 0.0090392419446 0.0087735006219 0.011877979755 0.016067069511 0.018165156749 
0.02081173888 0.022612105273 0.025196174887 0.027859021264 0.029329150098 0.030171226456 0.03128509396 0.031668002161 0.030648033991 
0.029926657983 0.029221660691 0.026847093692 0.02399110114 0.021511746067 0.017892602391 0.014402729428 0.011160203706 0.0075878778302 
0.0036686285618 -0.00052055342616 -0.0041781807715 -0.007790873819 -0.011804800449 -0.015677784605 -0.019112695447 -0.023116887783 -0.026440083489 
-0.029693365508 -0.033025147297 -0.035908779072 -0.038584213703 -0.040218357452 -0.04159993488 -0.041946765036 -0.042618916547 -0.042358773543 
-0.040886695756 -0.039346100339 -0.036726030684 -0.034732904161 -0.03331594245 -0.029718330799 -0.02709963618 -0.024324799836 -0.021248921203 
-0.018441072003 -0.014784451166 -0.011682300342 -0.0081050380715 -0.0039535904521 0.00050350080205 0.0072720730991 0.01406804858 0.021683409329 
0.034139398565 0.050068097043 0.072014475593 0.10084315853 0.139536682 0.18760207904 0.23270340694 0.24994297006 0.22917888253 
0.18507675444 0.14084557254 0.10380045963 0.075938472305 0.056364345589 0.041226125384 0.030346260938 0.021699016526 0.01427837079 
0.0080588134289 0.0032009593204 -0.00158124883 -0.0062030851092 -0.010766832658 -0.015687344922 -0.019983500231 -0.024600996457 -0.029283777148 
-0.034221495231 -0.039468855061 -0.043406905873 -0.046941851367 -0.050765803249 -0.052662826773 -0.052777244316 -0.051967211674 -0.049581823887 
-0.045711251322 -0.040701981213 -0.033884842366 -0.026828081236 -0.02008978381 -0.011161952507 -0.0011988371093 0.0079029466593 0.018914106299 
0.031661214536 0.044749347926 0.060287512198 0.075228794315 0.087283270156 0.094704312101 0.095084540989 0.088217000398 0.078091925945 
0.065518683114 0.054827476866 0.045839536341 0.038256180858 0.032008629594 0.027842213075 0.02516174347 0.022769693634 0.021080270573 
0.019960142557 0.019727647509 0.019223795793 0.019044127539 0.019348902309 0.019810079409 0.020246097163 0.020531500093 0.021049812707 
0.021621053891 0.022052179752 0.022711342656 0.023279558679 0.02380196554 0.024334326124 0.024726436951 0.025463859877 0.025831212438 
0.026761373938 0.027676619648 0.028356469434 0.030319148547 0.03205202113 0.034271742005 0.036989590317 0.040397189932 0.045257235209 
0.050223803952 0.056249812285 0.063395116223 0.070819439835 0.078380115973 0.08481410391 0.089716193537 0.092002254353 0.090865678454 
0.087162032899 0.080298732068 0.072026746115 0.064037533056 0.054836087306 0.047336677557 0.040266178186 0.033407322876 0.028266530956 
0.022927914929 0.018615154122 0.014604138247 0.010547157124 0.0066205435809 0.0023640586412 -0.001549379554 -0.0062909453852 -0.011829187834 
-0.017399056294 -0.024089739657 -0.0313317431 -0.038450610161 -0.045608027141 -0.05114372562 -0.054990699105 -0.055250060644 -0.052689306721 
-0.047910623792 -0.041289556281 -0.034289811778 -0.027707733456 -0.021547821724 -0.016176741309 -0.012106338037 -0.0089243375325 -0.0065470867282 
-0.0046593073725 -0.003628144992 -0.0029211247374 -0.0027196009569 -0.0031987011281 -0.0036018384168 -0.0045388975798 -0.0058772264501 -0.0074091502242 
-0.0092916515732 -0.011684507872 -0.014313627136 -0.017263284884 -0.020841481291 -0.024728665594 -0.028946231264 -0.033485767683 -0.038198893818 
-0.042954401587 -0.047475096995 -0.051125784314 -0.053918474178 -0.055124724307 -0.05476846784 -0.052985259308 -0.049488352516 -0.044676152257 
-0.039212585666 -0.033247729326 -0.027251238436 -0.021118183917 -0.015310711817 -0.010060689598 -0.004955037705 -0.00038936627025 0.0037785324688 
0.0075799759939 0.010830971482 0.013963773238 0.016827706259 0.019485241111 0.022312813327 0.025360500846 0.028983782127 0.033833757706 
0.040511377595 0.050480646195 0.066223625582 0.093247099881 0.14354737057 0.23681156729 0.35592113858 0.3532921122 0.22964205552 
0.13738727603 0.086716076529 0.059125569886 0.043416433208 0.032999522109 0.026342605286 0.021584065261 0.018138286141 0.015434412695 
0.013216572557 0.011484177564 0.010189656312 0.008820495651 0.0075265953945 0.0066992530455 0.0056778356022 0.0046749203415 0.0040582467451 
0.0031148982674 0 0 
TangentArray 3 273 double
0.036501590713 -0.092379510386 -0.99505460148 0.036501590713 -0.092379510386 -0.99505460148 0.036351041021 -0.092370744245 -0.99506092649 
0.036021012882 -0.092354350232 -0.99507444979 0.0355122501 -0.092328561493 -0.99509512954 0.034825978404 -0.092300999683 -0.99512194061 
0.033965804214 -0.092276810893 -0.99515391489 0.032936384051 -0.092263291036 -0.99518977071 0.031743296934 -0.092272876118 -0.99522765206 
0.030393416428 -0.092315860476 -0.99526580477 0.028895324696 -0.092404753009 -0.99530217614 0.027258738318 -0.092550992869 -0.9953347552 
0.025494977722 -0.092768032192 -0.99536129034 0.023617138203 -0.093069933753 -0.99537943429 0.021638473785 -0.093467877872 -0.99538712683 
0.019573679758 -0.09397056706 -0.99538254133 0.017438022365 -0.094586585223 -0.99536389992 0.015246659264 -0.095321556764 -0.99532976455 
0.013014414498 -0.096175242761 -0.99527933149 0.010755197752 -0.097147082913 -0.99521192216 0.0084820918884 -0.098235541752 -0.99512704337 
0.0062064954608 -0.09943173685 -0.99502502939 0.0039383774727 -0.10072341728 -0.99490667019 0.0016855457054 -0.1020991087 -0.99477280368 
-0.00054614646888 -0.10354169159 -0.99462496441 -0.0027520262891 -0.1050336334 -0.99446486223 -0.0049298155289 -0.10655875871 -0.99429418577 
-0.0070787769399 -0.10809955242 -0.99411487147 -0.0091992296677 -0.10963688367 -0.99392913626 -0.011292409114 -0.11115098669 -0.9937393721 
-0.013360557852 -0.11262576319 -0.99354765007 -0.015406136339 -0.11404622226 -0.9933559836 -0.017432353885 -0.11539696122 -0.99316647868 
-0.019442166045 -0.11666454405 -0.99298106041 -0.021438344514 -0.11783867173 -0.99280131186 -0.023424356165 -0.11890825529 -0.9926288966 
-0.02540261669 -0.11986588678 -0.99246505039 -0.027375570571 -0.12070507517 -0.99231087012 -0.029345683577 -0.1214198297 -0.99216735272 
-0.03131487671 -0.12200568066 -0.99203527779 -0.033284946597 -0.12245880803 -0.99191529511 -0.035257388963 -0.12277817602 -0.9918076608 
-0.037233639574 -0.1229626146 -0.99171258513 -0.039215766991 -0.12301310061 -0.99162992124 -0.041204808562 -0.12292817789 -0.99155979488 
-0.04320150756 -0.12270806417 -0.99150207298 -0.045206924264 -0.1223557835 -0.99145619986 -0.047222246274 -0.1218735535 -0.9914216542 
-0.049249134744 -0.12126634328 -0.99139749683 -0.051287538743 -0.120537383 -0.99138303782 -0.053337065771 -0.1196879367 -0.9913778065 
-0.055397291281 -0.11872685622 -0.99138038801 -0.057467297924 -0.11766128949 -0.99138959578 -0.059545600649 -0.11649907248 -0.99140419989 
-0.061629089248 -0.11525186373 -0.99142264613 -0.063713580826 -0.11393139869 -0.99144350117 -0.065794685628 -0.1125542559 -0.99146487523 
-0.067865866349 -0.11113698148 -0.9914851464 -0.069919265594 -0.10969940689 -0.99150256501 -0.071946751336 -0.10826386185 -0.99151530557 
-0.07393807457 -0.10685463774 -0.99152168283 -0.075883734079 -0.10550194674 -0.99151953997 -0.077772683455 -0.10423372844 -0.99150730686 
-0.079593324252 -0.10307592885 -0.99148386554 -0.081335222738 -0.10206077386 -0.99144751751 -0.082987335055 -0.10121845721 -0.99139695689 
-0.084540041428 -0.10057745118 -0.9913310031 -0.085985447982 -0.10016038593 -0.99124890912 -0.087316505246 -0.09998759771 -0.99114999279 
-0.088528771618 -0.10007573089 -0.99103355376 -0.089619887868 -0.10043819896 -0.99089880608 -0.090588247148 -0.10108119747 -0.99074535628 
-0.091434702834 -0.10200433591 -0.99057297085 -0.092163403604 -0.10320434742 -0.99038112346 -0.092779807271 -0.10467423046 -0.99016928494 
-0.093290764867 -0.10640242231 -0.98993704735 -0.093704660018 -0.10836702668 -0.98968481054 -0.094031346976 -0.1105494419 -0.98941241486 
-0.094282901003 -0.11292760639 -0.98911985638 -0.094470846611 -0.11547581021 -0.98880766401 -0.094607662278 -0.1181653656 -0.98847677596 
-0.094707740564 -0.1209640089 -0.98812861128 -0.094785864819 -0.12384484685 -0.98776418934 -0.094854857218 -0.12677892909 -0.98738526382 
-0.094928416698 -0.129736289 -0.98699396706 -0.095020084938 -0.13268772368 -0.98659269785 -0.095142845736 -0.13560739539 -0.98618379282 
-0.095309663871 -0.13846903317 -0.98576995025 -0.095529624633 -0.14124583018 -0.9853546094 -0.095811191483 -0.14391915688 -0.9849403494 
-0.096160707203 -0.14647232464 -0.9845298251 -0.096582808524 -0.14889016087 -0.98412574455 -0.097080448675 -0.15116090933 -0.98373053525 
-0.097651633141 -0.15327819541 -0.98334630388 -0.098292450908 -0.15523850265 -0.98297487322 -0.098998810299 -0.1570407951 -0.98261763888 
-0.099763052032 -0.15868894435 -0.9822754972 -0.10057513233 -0.16018936947 -0.98194908659 -0.10142464236 -0.16154986621 -0.98163877401 
-0.10230100715 -0.16278129122 -0.98134436115 -0.10319231516 -0.16389405833 -0.98106578971 -0.10408581252 -0.16489877508 -0.98080300653 
-0.10497035127 -0.16580986743 -0.98055510463 -0.10583513951 -0.16663970283 -0.98032144355 -0.10666977342 -0.16739841575 -0.98010169362 
-0.10746450201 -0.1680993296 -0.97989489038 -0.1082104817 -0.16875545384 -0.97969999921 -0.10889967132 -0.16937618513 -0.97951649782 
-0.10952524727 -0.16997262368 -0.97934341648 -0.11008122701 -0.17055616434 -0.97917961492 -0.11056149738 -0.17113538611 -0.97902443019 
-0.11095992515 -0.17172009982 -0.97887695975 -0.11127180128 -0.17232009316 -0.97873610934 -0.11149282693 -0.17294422151 -0.97860086133 
-0.11161813014 -0.1736011225 -0.97847025672 -0.11164298865 -0.17429906845 -0.9783433333 -0.11156305906 -0.17504511884 -0.97821924446 
-0.11137336288 -0.17584613044 -0.97809718967 -0.11106960659 -0.17670989911 -0.97797604983 -0.11064674067 -0.17764118991 -0.97785525842 
-0.1100992988 -0.17864401057 -0.97773435139 -0.10942202496 -0.17972278581 -0.97761267418 -0.10861042788 -0.18088051601 -0.97748964899 
-0.10765912632 -0.18211866135 -0.97736498081 -0.10656060146 -0.18343793287 -0.97723864179 -0.10531090111 -0.18483568753 -0.97711073207 
-0.10390573667 -0.1863089963 -0.97698134874 -0.10233917386 -0.18785546112 -0.97685056136 -0.1006070835 -0.18946766398 -0.9767191096 
-0.098706768409 -0.19113863137 -0.97658742439 -0.096636150323 -0.19286041651 -0.97645599706 -0.094394234661 -0.19462211389 -0.97632574546 
-0.091980465227 -0.19641239541 -0.97619760548 -0.089398374649 -0.19821734385 -0.97607264853 -0.086653134551 -0.20002389869 -0.97595167617 
-0.083749015125 -0.2018191871 -0.97583559998 -0.080695333405 -0.20358782244 -0.97572550531 -0.077504284004 -0.20531485693 -0.9756223119 
-0.074188519009 -0.20698540557 -0.97552709113 -0.070762412269 -0.20858552669 -0.97544080244 -0.067243774151 -0.21010157363 -0.97536434403 
-0.063650859747 -0.21152143117 -0.97529854517 -0.060002585616 -0.21283513442 -0.97524401832 -0.056320891657 -0.21403174692 -0.97520170656 
-0.052627561202 -0.21510421558 -0.97517204443 -0.048941928727 -0.21604536836 -0.97515592929 -0.0452840739 -0.21684971865 -0.97515411714 
-0.041675028438 -0.21751452762 -0.97516697149 -0.038133926607 -0.21803381357 -0.97519590841 -0.034677531687 -0.21840521585 -0.9752418318 
-0.031322373523 -0.21862630656 -0.97530582229 -0.028083784071 -0.21869536716 -0.97538896726 -0.024975062306 -0.21861030479 -0.97549258373 
-0.022009110013 -0.21836667743 -0.97561856956 -0.019195388829 -0.21796238573 -0.97576838207 -0.01654478128 -0.21739445237 -0.9759436061 
-0.014065891161 -0.21665903074 -0.97614600092 -0.011764545034 -0.21575219126 -0.97637727721 -0.0096470841501 -0.21467064232 -0.97663885295 
-0.0077175168701 -0.21341215577 -0.97693177433 -0.005979251842 -0.21197531087 -0.9772567299 -0.0044337474852 -0.21035959438 -0.97761402554 
-0.0030806693144 -0.20856688677 -0.97800325317 -0.0019194794812 -0.20660068876 -0.97842346201 -0.00094581414863 -0.20446755549 -0.97887288459 
-0.00015378789794 -0.20217678627 -0.97934903045 0.00046179481161 -0.19973928472 -0.97984897045 0.00091195414217 -0.19717109703 -0.98036866884 
0.0012062201182 -0.19448997602 -0.98090376402 0.001356945444 -0.19171579285 -0.98144954708 0.0013805996205 -0.18887073308 -0.98200098785 
0.0012913091545 -0.18597707471 -0.9825532353 0.0011078098312 -0.18306004937 -0.98310110929 0.000847701022 -0.18014365688 -0.98363994647 
0.00052944645798 -0.1772505288 -0.98416562109 0.00017291751929 -0.17440245689 -0.98467444017 -0.00020208574733 -0.17161915333 -0.98516334959 
-0.00057523963944 -0.16891680594 -0.98563014451 -0.00092903079832 -0.16630798646 -0.98607342046 -0.0012447287749 -0.16380214467 -0.98649242676 
-0.0015036772861 -0.16140394546 -0.98688728097 -0.0016903842287 -0.15911430394 -0.98725872034 -0.0017884320521 -0.15693093332 -0.98760796052 
-0.0017828451648 -0.15484732005 -0.98793680412 -0.0016604258023 -0.15285243492 -0.98824762895 -0.0014075871038 -0.15093279642 -0.98854302368 
-0.0010125881239 -0.14907213399 -0.98882580545 -0.00046275857538 -0.14725181107 -0.98909892831 0.00025198302963 -0.14545110749 -0.98936540865 
0.0011418123298 -0.14364737781 -0.98962827724 0.0022171099058 -0.14181768928 -0.98989031081 0.003486617927 -0.13993794593 -0.99015413688 
0.0049592392383 -0.1379838833 -0.99042205847 0.0066432738665 -0.13593258392 -0.99069581585 0.0085454701967 -0.13376151388 -0.99097670626 
0.010669960468 -0.13145019706 -0.99126535178 0.013020377918 -0.12898156668 -0.99156150854 0.015598599083 -0.12634175346 -0.9918641263 
0.018404117658 -0.12352104724 -0.9921712752 0.021431990734 -0.12051479158 -0.99248015335 0.024674885587 -0.11732499875 -0.99278698354 
0.028120495501 -0.11396030005 -0.99308725082 0.031752511072 -0.11043640518 -0.99337584954 0.035553645609 -0.10677651511 -0.99364717788 
0.039498796596 -0.10301053135 -0.99389570655 0.043561024296 -0.09917503077 -0.99411606487 0.047711930329 -0.095311813542 -0.99430338926 
0.05191982838 -0.091466564297 -0.9944537189 0.056153081718 -0.087686587594 -0.99456417278 0.060381923324 -0.084019605997 -0.99463296202 
0.064576981023 -0.080511192081 -0.99465962091 0.06871176513 -0.077202237549 -0.99464491546 0.072764770308 -0.074128970034 -0.99459046044 
0.076717690848 -0.071320694404 -0.99449874533 0.080556743411 -0.068798780293 -0.99437283698 0.084272437116 -0.066577010991 -0.99421610224 
0.087859259034 -0.064661616168 -0.99403200451 0.091315876886 -0.063051822308 -0.99382386686 0.094645152568 -0.061740475803 -0.99359469038 
0.097849915995 -0.060715139587 -0.99334740437 0.10093676507 -0.059959045994 -0.99308442857 0.10391262781 -0.059451786938 -0.99280796271 
0.10678426615 -0.059170608428 -0.99252000463 0.10956182768 -0.059091906139 -0.99222192706 0.11225322789 -0.059190743033 -0.991915152 
0.11486483487 -0.059441445929 -0.99160112153 0.11740493099 -0.059819347132 -0.99128085217 0.11988049385 -0.060300532338 -0.99095535368 
0.12229672817 -0.060862192639 -0.99062571327 0.12465973563 -0.061482471876 -0.99029281324 0.12697356221 -0.06214101145 -0.98995768051 
0.12924017364 -0.062819401995 -0.98962149343 0.13146253446 -0.063500642542 -0.98928523209 0.13364106866 -0.064169504949 -0.98895011977 
0.13577472265 -0.064812338238 -0.98861751224 0.13786166043 -0.065417329753 -0.98828879157 0.13989690668 -0.06597444391 -0.98796570196 
0.14187403607 -0.066474761844 -0.98765017285 0.14378573465 -0.066911306803 -0.98734418494 0.14562289526 -0.067278718228 -0.98704992095 
0.14737314254 -0.067572371972 -0.98677004991 0.14902402491 -0.067789411881 -0.98650718986 0.15056129226 -0.067928055209 -0.98626420222 
0.15196871076 -0.067987441188 -0.9860442276 0.15323045889 -0.067968129617 -0.98585027252 0.15433054173 -0.067871860636 -0.98568529178 
0.15525432594 -0.067701674775 -0.98555191518 0.15598738697 -0.067461332397 -0.98545263901 0.15651565396 -0.067155494084 -0.98538976536 
0.15682704304 -0.066788964065 -0.98536516726 0.15691355168 -0.066368472521 -0.98537980655 0.15676935292 -0.065901514892 -0.9854340974 
0.15639191698 -0.065395559975 -0.98552777183 0.15578248614 -0.064858642958 -0.98565976556 0.15494616885 -0.064299196717 -0.98582822949 
0.15389490442 -0.063726873945 -0.9860300421 0.15264067127 -0.063149614509 -0.98626211103 0.15120352348 -0.06257606124 -0.98652001047 
0.14960706372 -0.062014319102 -0.98679884004 0.14787715544 -0.061471407516 -0.98709351784 0.14604640222 -0.060954565178 -0.98739809063 
0.14414708412 -0.060468903346 -0.98770700608 0.14221476112 -0.060018620687 -0.98801453779 0.14028822335 -0.05960754136 -0.98831480582 
0.13840662182 -0.059238803086 -0.98860223105 0.13660713061 -0.058913202365 -0.98887194644 0.1349254844 -0.058630515703 -0.98911959655 
0.13339905571 -0.058391374803 -0.98934075994 0.13206011697 -0.058194475985 -0.98953197446 0.13093690683 -0.058038237394 -0.9896904008 
0.13005585115 -0.057921659944 -0.98981339498 0.12943753358 -0.057842987695 -0.98989904216 0.12943753358 -0.057842987695 -0.98989904216 

NormalArray 3 273 double
0.99375618532 -0.10169690185 0.045895362403 0.99375618532 -0.10169690185 0.045895362403 0.99805800012 -0.047045953304 0.040827768374 
0.99786115544 -0.051027012595 0.04085778319 0.99792276193 -0.05027758908 0.040278099035 0.99875985526 -0.032234577459 0.037943161871 
0.99903236767 -0.024702033645 0.036388705455 0.99943727734 -0.0032859700962 0.033381597555 0.99938291516 0.017911868666 0.030215126082 
0.99867403365 0.044196341669 0.026398066068 0.99709864703 0.072814922003 0.022187276193 0.99444313873 0.10379637625 0.017582835846 
0.9902030222 0.13908346132 0.012400226022 0.98417916912 0.17704564411 0.0067972763465 0.97638053723 0.21605593667 0.00093741895167 
0.96669209594 0.25589038187 -0.0051482144467 0.9547262363 0.29726260905 -0.011521934485 0.94110871725 0.33762896661 -0.017918237149 
0.92641084136 0.37573608041 -0.024194026039 0.91001692983 0.41344586728 -0.030523798233 0.89273203763 0.44908898279 -0.036723214978 
0.87613551966 0.48018604763 -0.042519535038 0.8599727294 0.50807456057 -0.048032755411 0.84472724337 0.53254371583 -0.053226638439 
0.83230475978 0.5512916585 -0.057847161737 0.82135952427 0.56701381617 -0.062159988404 0.81349483979 0.57781971653 -0.065958478069 
0.80815735108 0.58486909365 -0.069353004214 0.80700391284 0.58612542302 -0.072122625793 0.80913232151 0.58289847876 -0.074392538255 
0.81463805867 0.57495140771 -0.076129574659 0.82329022227 0.56232859057 -0.077328947628 0.83580857018 0.54347810898 -0.077817601276 
0.85068388786 0.51989774215 -0.077738411653 0.86797112733 0.49061282969 -0.07697514833 0.88761733444 0.45437200449 -0.075376051554 
0.90733355123 0.41398574549 -0.073223147639 0.92795919788 0.36602512852 -0.070123693344 0.94720726967 0.31367039277 -0.066402356727 
0.9650656732 0.2546207156 -0.06177813195 0.97973257191 0.192147709 -0.05659810472 0.99067055022 0.12642909424 -0.050867917747 
0.99726969237 0.058758711085 -0.044727782721 0.99922533567 -0.0080994622122 -0.038511391354 0.99650643616 -0.077209055662 -0.031838411123 
0.98957762391 -0.14171030021 -0.025579622352 0.97878645627 -0.20395692056 -0.019458869073 0.96523037952 -0.2610315614 -0.013886627019 
0.94987811569 -0.31249196722 -0.0089630215627 0.93272973463 -0.36054922386 -0.0044158033252 0.91440467488 -0.40480116745 -0.00032464493193 
0.89777152827 -0.44045387624 0.0025818477036 0.88016132574 -0.47464493792 0.005312585829 0.86520501692 -0.50137010266 0.0069497380724 
0.85059484141 -0.52575703085 0.0082438022887 0.83873471918 -0.54447124906 0.0086677441738 0.82897074474 -0.55922776846 0.0084739217938 
0.82143091197 -0.570256122 0.0076949449152 0.8168523111 -0.57681337825 0.0062151849194 0.81537591246 -0.57891773748 0.0040465557251 
0.81720713688 -0.57634288541 0.0011721256588 0.82509449599 -0.56498663105 -0.0030297555864 0.8356156242 -0.54925917534 -0.0078030062449 
0.85236444338 -0.5227586913 -0.014078576907 0.87590644761 -0.48196802557 -0.02224224274 0.90577589364 -0.42249465136 -0.032684860039 
0.94143250047 -0.33399402271 -0.046398705309 0.97544925243 -0.21093049494 -0.063301518518 0.99585310546 -0.03427212678 -0.084273445885 
0.97652120512 0.18744649315 -0.10616095404 0.89083586069 0.43683464435 -0.12484775852 0.75038759415 0.64714108103 -0.13463610139 
0.58814570128 0.79717360053 -0.13637772797 0.44509286835 0.88544875027 -0.13368937571 0.32733847845 0.93597485744 -0.12961707743 
0.23939225211 0.96270780684 -0.12603582143 0.17268640387 0.97722235958 -0.1233526078 0.12320932652 0.98488358883 -0.12175293963 
0.086854504353 0.98882427165 -0.12117283057 0.059951823254 0.99078724687 -0.12143479864 0.041302680853 0.99160958053 -0.12249297266 
0.029812168554 0.99180037702 -0.12427086045 0.024044806951 0.99165724083 -0.12664029359 0.022591562944 0.9913278509 -0.12945544913 
0.026697629543 0.99078294309 -0.13280209436 0.034840943159 0.99002649549 -0.13650511679 0.048430870511 0.98887415772 -0.14064974577 
0.06694577344 0.98714444523 -0.1451347914 0.089548433255 0.98464874506 -0.14982632266 0.11791767486 0.98088394172 -0.15479701173 
0.15053007899 0.97559724143 -0.15984591904 0.18959051627 0.96789305104 -0.16504083701 0.23337600406 0.95738538886 -0.17014363908 
0.280659334 0.94372387813 -0.17497308389 0.33194361248 0.92607394183 -0.17944495644 0.38670419147 0.90378292379 -0.1834020037 
0.44097471547 0.87790453666 -0.18661437465 0.4947621243 0.84821642172 -0.18904851833 0.54582315272 0.81591738752 -0.19067223892 
0.59281881551 0.78222382732 -0.19155087038 0.63466573053 0.74860270802 -0.19181604736 0.67000235748 0.71718577296 -0.19168048423 
0.69756421877 0.69047613233 -0.19143372581 0.71907580647 0.66811121124 -0.19119987962 0.73374921678 0.65195905958 -0.19121054236 
0.73853972587 0.6463312661 -0.1918722694 0.7350537961 0.64991803804 -0.1931384495 0.72240239462 0.66339938302 -0.19502830271 
0.6960180214 0.69028671377 -0.19764404035 0.65433026265 0.72912730211 -0.20056242098 0.59340288064 0.77884549729 -0.20315686698 
0.50584111708 0.8380706613 -0.20435833954 0.39409809509 0.89645120742 -0.20263742044 0.25857529441 0.94577287293 -0.19660236505 
0.1105205638 0.97634612202 -0.18583179218 -0.036012253256 0.98456099881 -0.17129727739 -0.16821480898 0.97348576496 -0.15501368799 
-0.28119737915 0.94957393042 -0.13869889917 -0.37097550435 0.92030544457 -0.12415741567 -0.44550255262 0.8883758997 -0.11097628772 
-0.50389717534 0.85795357777 -0.10001647401 -0.55187174034 0.82898957729 -0.090630364387 -0.58978706065 0.80327079931 -0.083109843403 
-0.62314438562 0.77836659086 -0.076397152457 -0.6517923847 0.75509794499 -0.070666687385 -0.67706815711 0.73298332472 -0.065682237371 
-0.69958128331 0.71191379202 -0.061357809457 -0.72043994798 0.69113503557 -0.057433822455 -0.74057892262 0.66982413128 -0.053651584591 
-0.75874854858 0.64942950296 -0.050417861088 -0.77669214107 0.62811003981 -0.047192116726 -0.79376798748 0.60661402232 -0.044179293505 
-0.8107074828 0.58400590904 -0.041115392898 -0.82683537204 0.56114356069 -0.038225277406 -0.84237830186 0.53772170914 -0.035414122627 
-0.85749512941 0.51345827669 -0.032599097069 -0.8720440406 0.48851872315 -0.029810206161 -0.88589595691 0.46309293595 -0.027079257745 
-0.89937824478 0.43649999736 -0.024218280755 -0.91202622374 0.40957217138 -0.021419702136 -0.92415284775 0.38157561681 -0.018481413929 
-0.93539888935 0.35325150123 -0.015565817938 -0.9459395227 0.32410088204 -0.012531466348 -0.95581131236 0.29383408269 -0.0092880032847 
-0.96461120794 0.26360603926 -0.0060888075587 -0.97297632862 0.23089320783 -0.0023217517758 -0.98014846144 0.19825981521 0.0014280103904 
-0.98651070523 0.16359858155 0.0056685610468 -0.99197000357 0.12602730594 0.010612736472 -0.99607900367 0.087022169659 0.015929859609 
-0.99879566502 0.043714097246 0.022277729479 -0.99957153033 -0.001908967616 0.029208074267 -0.9978470685 -0.053741468164 0.03759098947 
-0.99270501793 -0.11093509635 0.047224482793 -0.98297438443 -0.17426078382 0.058262670468 -0.9668909738 -0.24511633591 0.070991736471 
-0.94254149332 -0.32302209333 0.085277550316 -0.90749064412 -0.40774117872 0.10103396467 -0.85995204583 -0.49662815269 0.11765609563 
-0.79876199644 -0.58643920164 0.13441850995 -0.72421704421 -0.67296978384 0.15040393249 -0.63886381435 -0.7515042988 0.16460351028 
-0.54724852259 -0.81821014185 0.17621355878 -0.45291303295 -0.87213961876 0.1850466697 -0.36343553931 -0.91186697967 0.19082248337 
-0.27900702789 -0.94044949488 0.19419017992 -0.20263031412 -0.95954109239 0.19550408645 -0.13720701704 -0.97112179573 0.19518373994 
-0.077898396634 -0.97794207665 0.1938069517 -0.029359676292 -0.98103499603 0.1915942222 0.012447619427 -0.98192259757 0.18887315624 
0.047756989737 -0.98142147369 0.18582561964 0.075465394871 -0.98028301315 0.18262033925 0.099184626045 -0.97877486683 0.17933814433 
0.11603159935 -0.97750734272 0.17611377822 0.12863482011 -0.97648992989 0.17297543144 0.13451226476 -0.97621479961 0.17003268995 
0.13515020951 -0.97660039823 0.16729041528 0.12980213927 -0.97775162614 0.16478216596 0.11657470139 -0.97979096573 0.16254230979 
0.094857238285 -0.98246141627 0.16053557202 0.064948986182 -0.98519307859 0.15867018338 0.02270913233 -0.98736122243 0.15685060329 
-0.029042984573 -0.98751360659 0.15483340027 -0.09299702739 -0.98394268738 0.15234283983 -0.16582689129 -0.97482223254 0.14907399864 
-0.24494303746 -0.95866715731 0.14477634438 -0.32656621079 -0.93484874997 0.13932811863 -0.40275020788 -0.90559076854 0.13303243963 
-0.47242422237 -0.87230784474 0.12607290799 -0.53103878154 -0.83894932052 0.11900357184 -0.578756585 -0.80775586247 0.11212172832 
-0.61609782364 -0.78055071957 0.10566004867 -0.64493149396 -0.75771698496 0.099641049781 -0.66593395526 -0.74004596552 0.094148479303 
-0.68118911195 -0.72667386616 0.089030814858 -0.69230238675 -0.71668589533 0.084135205098 -0.70015708067 -0.70956337594 0.079371770205 
-0.70585634222 -0.7044154588 0.074603522439 -0.70959584177 -0.70114165686 0.069814886378 -0.71291842333 -0.69824676133 0.064798008978 
-0.71516736891 -0.69640208852 0.059663770868 -0.71786499313 -0.69406810258 0.054215501699 -0.72091008936 -0.69132979776 0.048494884139 
-0.72423070589 -0.68824370345 0.042549844992 -0.72881408884 -0.6837499839 0.036276485951 -0.73440187266 -0.67806224117 0.02975712568 
-0.74148522946 -0.67057607256 0.02296487324 -0.75008725477 -0.66114673575 0.015940640813 -0.76089588482 -0.64881679276 0.0086152124898 
-0.7733932841 -0.63392556097 0.00110057667 -0.78830353497 -0.61525003642 -0.0067029427078 -0.80548395262 -0.59243339047 -0.01477429991 
-0.82492112287 -0.56477428729 -0.023133211012 -0.84631372555 -0.53173640286 -0.031772249306 -0.86934054087 -0.49253435722 -0.040705416717 
-0.89320687165 -0.44687088976 -0.049878776269 -0.9170915556 -0.39424887681 -0.05925286303 -0.9396799415 -0.33508747111 -0.068687657238 
-0.95954117138 -0.27055383319 -0.077983099291 -0.97559112855 -0.20163228913 -0.086984883018 -0.98674715838 -0.13124504114 -0.095418994955 
-0.99277552339 -0.061278683093 -0.10315853411 -0.99390199367 0.0059915584747 -0.11010416983 -0.9909217767 0.067651687977 -0.11617780157 
-0.98499874818 0.12258759976 -0.12144853422 -0.97740097046 0.16973618748 -0.12600384758 -0.96925533665 0.20893098436 -0.12996898148 
-0.96153313051 0.24009075893 -0.1334558594 -0.95504069955 0.26315137743 -0.13655993104 -0.95006995749 0.27917697476 -0.13938182323 
-0.94685109653 0.28864421818 -0.14197716828 -0.94561490482 0.29149572572 -0.14436998881 -0.94596369447 0.28924231136 -0.14660004795 
-0.94803760896 0.28130035394 -0.14864320658 -0.95126847408 0.26913627608 -0.15051230889 -0.95553830606 0.25256778914 -0.15217114559 
-0.96053143185 0.23192656824 -0.15358852615 -0.96592211107 0.20749410971 -0.1547277279 -0.97142596048 0.17927545114 -0.15553750646 
-0.97681773976 0.14667221137 -0.15593064386 -0.98168679866 0.1095865256 -0.15582625817 -0.98569504442 0.06611760612 -0.15502819601 
-0.98807111981 0.014702393443 -0.15329481995 -0.98747054309 -0.048605995471 -0.15013122173 -0.98097499094 -0.1294442513 -0.14467982913 
-0.96178455532 -0.23812668235 -0.13515232996 -0.91145965858 -0.39431766824 -0.11728114636 -0.77952148114 -0.62105192956 -0.081490865884 
-0.45171375759 -0.89208974798 -0.011426406328 0.059271825483 -0.99530815043 0.076475724165 0.46697746879 -0.87424709086 0.13275566944 
0.67748617264 -0.71897155147 0.15521724791 0.78566397435 -0.59667480359 0.16343591457 0.84552009296 -0.50748590605 0.16599345636 
0.88232300463 -0.44033450293 0.16616750893 0.90690526537 -0.38760724736 0.16517706086 0.92398444455 -0.34569534009 0.16354656238 
0.93665931088 -0.31076630167 0.16153526265 0.94632074616 -0.28125710708 0.15928429017 0.95390167716 -0.2558482833 0.15688609321 
0.9599277026 -0.23387191051 0.15441092987 0.96478328228 -0.21474357349 0.1519158184 0.96879330497 -0.19775234856 0.14944410624 
0.97217244953 -0.18237735365 0.14703478926 0.9748269001 -0.16957113291 0.14476928448 0.9770662581 -0.15808832918 0.14265205029 
0.97896020007 -0.1477655144 0.14072057216 0.98037214587 -0.13976255679 0.13905712253 0.98159804546 -0.1323762837 0.13762919989 
0.98250710203 -0.1266699714 0.13650828844 0.98314700928 -0.12249143646 0.13571221808 0.98314700928 -0.12249143646 0.13571221808 

BinormalArray 3 273 double
-0.10543376125 -0.99051691869 0.088090611155 -0.10543376125 -0.99051691869 0.088090611155 -0.050584881233 -0.99461265017 0.090481190892 
-0.054549070501 -0.99441787895 0.090318773955 -0.053749802962 -0.99445844597 0.090351302772 -0.035579527048 -0.99520925311 0.091063932385 
-0.02794015918 -0.99542694343 0.091348496429 -0.0063500598771 -0.995729224 0.092103144419 0.015038350411 -0.99557263989 0.092784517691 
0.041550147375 -0.99474844322 0.093536730569 0.070422640549 -0.99305556177 0.094240665018 0.10168483183 -0.99028310396 0.094866058099 
0.13728794896 -0.98592590137 0.095405115589 0.17559497102 -0.97979223682 0.095778801517 0.21497167948 -0.97189690196 0.095935337532 
0.25519259924 -0.96212766564 0.095849320816 0.29697429029 -0.95009911017 0.09548796654 0.3377601541 -0.9364403247 0.094855661825 
0.37628922125 -0.92172269179 0.093987772656 0.41443155424 -0.90533140844 0.092852182196 0.45050811657 -0.88807030345 0.091507229374 
0.48202492737 -0.8715128739 0.090095948961 0.51032479253 -0.85540343354 0.088620381473 0.53519439762 -0.8402219723 0.087143525413 
0.55431803919 -0.8278626851 0.08587715675 0.57040420601 -0.81698425207 0.084709938235 0.58155123812 -0.80917835249 0.083836455735 
0.58892409258 -0.80389217564 0.083221290086 0.59047443538 -0.80276817465 0.083085491736 0.58751797231 -0.8049067161 0.083353527802 
0.57981577148 -0.81039886244 0.084067561539 0.56741154454 -0.81901160884 0.085229828738 0.54874415446 -0.83145359846 0.086975666433 
0.52531792766 -0.84622439215 0.089136709676 0.49615171017 -0.86337309362 0.091762637882 0.45998561624 -0.88284025076 0.094901656934 
0.41964334129 -0.90235689819 0.098242019519 0.37167499944 -0.9227436752 0.10198923799 0.31927608607 -0.94173675178 0.10580487328 
0.26013001537 -0.95931376779 0.10977007802 0.19752518792 -0.97369558809 0.11358125671 0.13163881437 -0.984348111 0.11717516344 
0.063771598378 -0.99067028283 0.12043908816 -0.0032942634162 -0.99237199466 0.12323543337 -0.072643557529 -0.98940761307 0.12568010481 
-0.13736723048 -0.98227334373 0.12755125318 -0.19983344822 -0.97130357603 0.12898044879 -0.25709992982 -0.95760605726 0.12996255297 
-0.30871684123 -0.94214820724 0.13057820465 -0.35691011546 -0.92491891346 0.13092048354 -0.40127203738 -0.90653781644 0.13103411533 
-0.43696386938 -0.88989005867 0.13098954283 -0.47118313885 -0.872277481 0.1308374786 -0.49787006352 -0.85735406121 0.13064996589 
-0.52219754033 -0.84279093043 0.13043456773 -0.54080000967 -0.83100583351 0.13024843262 -0.55540846565 -0.82133783698 0.13009840056 
-0.56625566756 -0.81391432391 0.12999227782 -0.57259374617 -0.80947660052 0.12993858184 -0.57444389313 -0.80816656046 0.12992699565 
-0.57158171469 -0.81019193086 0.12993605581 -0.55987563939 -0.81832722427 0.12992237084 -0.54378114928 -0.82912585785 0.12981669203 
-0.5168556456 -0.84622615391 0.12946635874 -0.47557594197 -0.87022435082 0.12859666659 -0.41555160056 -0.90069589401 0.12674294372 
-0.32643196604 -0.93719377351 0.12292274988 -0.20274431848 -0.97235601679 0.11583832668 -0.025542518806 -0.99439826108 0.10256548202 
0.19638989932 -0.97716357908 0.081131665553 0.44539841155 -0.89391703289 0.050324877569 0.65476119924 -0.75563947274 0.017226700392 
0.80356974133 -0.59507089164 -0.012895919592 0.89072905284 -0.4531328429 -0.035670451522 0.94034112315 -0.33614635461 -0.052575663553 
0.96643064046 -0.2487412374 -0.064339832135 0.98050948114 -0.18246382507 -0.072856776832 0.98791576951 -0.13335343019 -0.078989208189 
0.99174947928 -0.097334040861 -0.083420949633 0.99372080487 -0.07075287054 -0.08667752466 0.99465746807 -0.052415514597 -0.088933317924 
0.99505863068 -0.041227669123 -0.090324973375 0.99520725836 -0.035754308995 -0.091017263742 0.9952347348 -0.034586054481 -0.091168127597 
0.99512603839 -0.038957091846 -0.090589804696 0.99486546434 -0.047344547899 -0.089449436254 0.99428481316 -0.061143556634 -0.087516717233 
0.99319400491 -0.079825879938 -0.084814488743 0.99139052291 -0.10254981384 -0.081414782214 0.98839042769 -0.13097316201 -0.077009046815 
0.98391758482 -0.16357224896 -0.071765630084 0.97710142628 -0.20252101554 -0.065253666753 0.96752830822 -0.24609672221 -0.057666074116 
0.95482694599 -0.29307172614 -0.049137221693 0.93816418192 -0.34393031497 -0.039495648101 0.91687463912 -0.39813893974 -0.028745100529 
0.89195775335 -0.45177587746 -0.017604623888 0.8631889035 -0.50484479578 -0.006053846131 0.83173921867 -0.55514003411 0.0054235280678 
0.79881184012 -0.60135524875 0.016477526899 0.76586601738 -0.64244277814 0.026767895686 0.73502583941 -0.67709154554 0.035833704142 
0.70879149688 -0.70409502096 0.043183508486 0.68682523818 -0.72516109855 0.049116935451 0.67099452034 -0.73954523529 0.053284131285 
0.665590305 -0.74431076161 0.054690365158 0.66931786805 -0.74103180811 0.053716392996 0.68284379022 -0.72884358165 0.050113786971 
0.70962182471 -0.7032876794 0.042700186219 0.74815374813 -0.662785012 0.031336831745 0.79727609806 -0.60341724452 0.015441906692 
0.85546049545 -0.51783180087 -0.0061291707309 0.91230766614 -0.40826586706 -0.031838720147 0.95953539104 -0.27496175929 -0.060727788247 
0.98758624839 -0.1288832816 -0.089791434573 0.99309564529 0.016108207894 -0.11619623461 0.97941689892 0.14725716212 -0.13805023112 
0.95316525745 0.25959100346 -0.15520471294 0.92197652772 0.34901504302 -0.16777300761 0.88841700478 0.42335784919 -0.17743550135 
0.85671802893 0.48166583424 -0.18447829963 0.82671905909 0.52959984989 -0.1898936448 0.80022184302 0.56748415124 -0.19392457308 
0.77466159528 0.6008146498 -0.19728448846 0.75087384124 0.62942642004 -0.20002713889 0.72834629452 0.65465350705 -0.20233749275 
0.70695800861 0.67710243733 -0.20431021372 0.68592490467 0.69788443767 -0.2060687672 0.6643952695 0.71793985643 -0.20770481077 
0.64386148658 0.73600770668 -0.20912924668 0.62242330648 0.75384523453 -0.21049130605 0.60085115504 0.7708058515 -0.21174567004 
0.5781807428 0.78762889049 -0.21295013388 0.55529379444 0.80363411382 -0.21405843352 0.53187407423 0.81905177094 -0.21509106372 
0.50762998877 0.83404413182 -0.21606059494 0.48272917296 0.84847006764 -0.21695872854 0.45736357473 0.86220110311 -0.21777928807 
0.43083040336 0.87557112457 -0.21854145911 0.40398124736 0.88811188174 -0.21921778508 0.37605822533 0.9001429761 -0.21982455218 
0.34781817932 0.91130239824 -0.22034167355 0.31874458287 0.92176994083 -0.22077605639 0.28853542645 0.93158571434 -0.22112296244 
0.2583709684 0.94034144464 -0.22136488019 0.22565848437 0.94869000489 -0.22150738825 0.19302421142 0.9558604737 -0.22152293023 
0.15830293893 0.9622488942 -0.22139838558 0.1205873777 0.96776979406 -0.22108891886 0.081388495719 0.97197032037 -0.22056656385 
0.037764115846 0.97482901874 -0.21973223653 -0.0082496564774 0.97579131592 -0.2185480518 -0.060642181298 0.97433125232 -0.21679745526 
-0.11854259342 0.96954081842 -0.21433211369 -0.18273723374 0.96027369933 -0.21090643843 -0.25465293045 0.94480560643 -0.20614133759 
-0.33379287601 0.92125761414 -0.19966653277 -0.41990752115 0.88724186282 -0.19099620556 -0.51028365901 0.84099761788 -0.17981544446 
-0.60159763379 0.78137335157 -0.16593966517 -0.68954617062 0.70864528335 -0.14949227726 -0.76930707042 0.62529203572 -0.13105915256 
-0.83696449387 0.53575369109 -0.11161728577 -0.89155263455 0.44349593097 -0.091898090451 -0.93161886746 0.35593767733 -0.073448319611 
-0.9602890475 0.27327512635 -0.056264114493 -0.97925519786 0.1984568219 -0.040916345102 -0.99054197428 0.13433546203 -0.027938876614 
-0.99696057336 0.076177056625 -0.0163300707 -0.99956799074 0.028555058092 -0.0069599245864 -0.99992157228 -0.012484332781 0.00099534904061 
-0.99885814931 -0.047163743098 0.007614386715 -0.99714780596 -0.074392422017 0.012728731752 -0.99506868675 -0.097713985381 0.017037772787 
-0.99324538138 -0.11428755386 0.020049124543 -0.99169201527 -0.12669332996 0.022265376454 -0.99091190819 -0.13248219213 0.023282160088 
-0.99082495425 -0.13311188846 0.023390920974 -0.99153948058 -0.12784135174 0.022495493794 -0.99318114644 -0.11479773898 0.02031476011 
-0.99548975047 -0.093372008279 0.016787637431 -0.99788715384 -0.06385323941 0.01199966757 -0.99974051474 -0.022147203219 0.0053295937886 
-0.99957657361 0.02896867734 -0.0027366444686 -0.99566500184 0.0921570458 -0.01258105825 -0.98615387279 0.16413685116 -0.023656569222 
-0.9695369426 0.24235259512 -0.035543446322 -0.94517421454 0.3230707644 -0.047654856698 -0.91530989646 0.39843360209 -0.058808657284 
-0.88137055226 0.4673804177 -0.068858512611 -0.84734461521 0.52540630051 -0.077170735764 -0.81549289317 0.57266730126 -0.083806343772 
-0.78765403424 0.60967288124 -0.088882507954 -0.76421151196 0.6382689898 -0.092700925869 -0.74596175651 0.65912049454 -0.095400374741 
-0.73202974373 0.67428920941 -0.097296024426 -0.72149003809 0.6853649268 -0.098625767665 -0.71381842656 0.69322260267 -0.099527267891 
-0.70811588925 0.69895737517 -0.10015225958 -0.7042829056 0.70276351786 -0.10054365647 -0.70081272227 0.70617724755 -0.10087231207 
-0.69838733678 0.70854582147 -0.10108385975 -0.69545785615 0.71138826908 -0.10131683436 -0.69211601726 0.71460610587 -0.10155556168 
-0.68842554406 0.71812912146 -0.10178818789 -0.68332456496 0.72294555313 -0.10206500935 -0.67703579014 0.72879850116 -0.10234883276 
-0.66895738722 0.73618041167 -0.10263730102 -0.65895063673 0.74511479395 -0.10289801845 -0.64605841515 0.75629192461 -0.10310697828 
-0.6306287669 0.76919199885 -0.10320381417 -0.61143783829 0.78454267392 -0.10313371277 -0.58813339497 0.80220170385 -0.10281797537 
-0.56001744343 0.82215774822 -0.10216212648 -0.52655834343 0.84411084918 -0.10106030503 -0.48697554388 0.86774270873 -0.099385165391 
-0.44097872402 0.8922585294 -0.097017945151 -0.38807794226 0.9168382032 -0.093825475701 -0.32870032347 0.94016195432 -0.089730691518 
-0.26401919318 0.96078837169 -0.08473234601 -0.19502235603 0.97762433111 -0.078847624346 -0.12462829215 0.98956567453 -0.072301898933 
-0.054716365599 0.99636527544 -0.065286730956 0.012451220965 0.99823456555 -0.058075117224 0.073981384762 0.99595165799 -0.051059275902 
0.12877707788 0.99067602923 -0.044468745427 0.17579370047 0.98367233994 -0.03853962256 0.21487847628 0.97606951063 -0.033399863185 
0.24596249554 0.9688406582 -0.029158700338 0.26899295998 0.96279346602 -0.025913881808 0.28503471786 0.95822685804 -0.023590213136 
0.29456744308 0.95537335008 -0.022176190784 0.29754000373 0.95446210521 -0.021726387166 0.29545347097 0.95510269602 -0.022047370381 
0.28773236989 0.95742857263 -0.023251056638 0.2758304784 0.96087784753 -0.025125869551 0.2595677198 0.96532734585 -0.027707655949 
0.23927207591 0.9704592588 -0.030946739868 0.21522113711 0.9759452195 -0.03479641772 0.18741818395 0.98149573952 -0.03924968323 
0.1552683488 0.98687447883 -0.044390346947 0.11867126581 0.99166294125 -0.050216945612 0.075740191911 0.99549698215 -0.057001595179 
0.024919332742 0.99757784031 -0.064942123371 -0.037714095543 0.99650278001 -0.074564444857 -0.11777160541 0.98926113658 -0.086557799298 
-0.22553616875 0.96887159438 -0.10208462272 -0.38066944438 0.91649470546 -0.1229968657 -0.60650565579 0.78088708557 -0.14955349911 
-0.87827100588 0.44689497182 -0.17007329123 -0.98583212973 -0.070405337425 -0.15224355638 -0.87026169261 -0.48098754086 -0.10628062812 
-0.71871694997 -0.69195616112 -0.068136751553 -0.59871857865 -0.79985782186 -0.04199438512 -0.51096717816 -0.85925762636 -0.024266734101 
-0.44477238436 -0.89556932231 -0.011537549347 -0.39271320975 -0.91965903898 -0.0018939125221 -0.35126947023 -0.93625796039 0.0055489537165 
-0.31668132534 -0.94846113783 0.011593455498 -0.28741849676 -0.95766158207 0.016580167285 -0.26218703001 -0.96479334415 0.020778940665 
-0.24033398413 -0.97038520248 0.024333821509 -0.22128755039 -0.97482458053 0.027365255858 -0.20434956971 -0.97843801523 0.030005061352 
-0.18900882364 -0.98144244104 0.032348098888 -0.17621295841 -0.98375549069 0.034265548535 -0.16473202766 -0.98568278001 0.035955754196 
-0.15440731398 -0.98729721974 0.037451051874 -0.14639187516 -0.98847348507 0.0385951837 -0.13899929345 -0.98949890476 0.039637279263 
-0.1332864211 -0.9902523919 0.04043427131 -0.12910415579 -0.99078253758 0.041013170939 -0.12910415579 -0.99078253758 0.041013170939 

