# vtk DataFile Version 4.1
vtk output
ASCII
DATASET POLYDATA
POINTS 91 float
4.12799 2.14388 65.8002 4.07469 2.26432 64.7695 4.02144 2.38477 63.7379 
3.96833 2.50523 62.7027 3.91549 2.62571 61.6611 3.86303 2.74622 60.6106 
3.81105 2.86676 59.5486 3.75968 2.98729 58.4727 3.70902 3.10781 57.3808 
3.65917 3.22825 56.271 3.61024 3.34857 55.1415 3.56234 3.46867 53.9909 
3.51554 3.58848 52.818 3.46995 3.70786 51.6221 3.42565 3.8267 50.4024 
3.38272 3.94485 49.1587 3.34123 4.06216 47.8908 3.30123 4.17846 46.5989 
3.26279 4.29361 45.2832 3.22593 4.40742 43.9443 3.1907 4.51974 42.5829 
3.15712 4.63044 41.1995 3.12517 4.73936 39.7949 3.09488 4.84641 38.37 
3.0662 4.9515 36.9254 3.03912 5.05455 35.4621 3.01359 5.15556 33.9806 
2.98956 5.25451 32.4817 2.96695 5.35146 30.9658 2.9457 5.44647 29.4336 
2.92572 5.53967 27.8855 2.9069 5.6312 26.3219 2.88915 5.72125 24.7431 
2.87235 5.81004 23.1495 2.85638 5.8978 21.5415 2.84111 5.98481 19.9193 
2.8264 6.07136 18.2834 2.81211 6.15775 16.6343 2.79808 6.2443 14.9725 
2.78416 6.33133 13.2985 2.77017 6.41916 11.6131 2.75594 6.50812 9.91696 
2.74126 6.59851 8.21089 2.72594 6.69062 6.49576 2.70976 6.78474 4.77241 
2.69247 6.88112 3.0417 2.67383 6.98002 1.30444 2.65355 7.08163 -0.438648 
2.63135 7.18616 -2.18695 2.60691 7.29378 -3.94001 2.57988 7.40461 -5.69755 
2.5499 7.51879 -7.4595 2.51658 7.6364 -9.22602 2.47949 7.75753 -10.9975 
2.4382 7.88221 -12.7746 2.39223 8.0105 -14.5582 2.34108 8.14239 -16.3493 
2.28424 8.27792 -18.1493 2.22116 8.41705 -19.9595 2.15129 8.5598 -21.7814 
2.07403 8.70612 -23.6167 1.9888 8.85601 -25.4668 1.89498 9.00944 -27.3334 
1.79197 9.16638 -29.2177 1.67915 9.32682 -31.1211 1.5559 9.49075 -33.0445 
1.42162 9.65816 -34.9888 1.27572 9.82905 -36.9545 1.11762 10.0034 -38.9418 
0.946799 10.1814 -40.9507 0.762735 10.3628 -42.9808 0.564974 10.5479 -45.0315 
0.353108 10.7367 -47.1019 0.126797 10.9291 -49.191 -0.114228 11.1254 -51.2973 
-0.370151 11.3255 -53.4195 -0.641063 11.5296 -55.5561 -0.926948 11.7375 -57.7054 
-1.22768 11.9495 -59.8658 -1.543 12.1654 -62.0357 -1.87252 12.3853 -64.2136 
-2.21573 12.6091 -66.3981 -2.57196 12.8366 -68.5878 -2.9404 13.0677 -70.7816 
-3.32008 13.3022 -72.9784 -3.70992 13.5398 -75.1774 -4.10868 13.7801 -77.378 
-4.51499 14.0228 -79.5795 -4.92739 14.2674 -81.7816 -5.34431 14.5135 -83.984 
-5.76408 14.7605 -86.1866 
LINES 1 92
91 90 89 88 87 86 85 84 83 82 81 80 79 78 77 76 75 74 73 72 71 70 69 68 67 66 65 64 63 62 61 60 59 58 57 56 55 54 53 52 51 50 49 48 47 46 45 44 43 42 41 40 39 38 37 36 35 34 33 32 31 30 29 28 27 26 25 24 23 22 21 20 19 18 17 16 15 14 13 12 11 10 9 8 7 6 5 4 3 2 1 0 

CELL_DATA 1
FIELD FieldData 2
LengthArray 1 1 double
153.12406416 
TortuosityArray 1 1 double
0.0019239774741 
POINT_DATA 91
FIELD FieldData 8
RadiusArray 1 91 double
63.119345951 63.536634806 63.597005927 63.820170174 63.890728368 63.94145067 64.347449289 64.388430618 64.654363086 
64.79743683 64.989415576 65.181265226 65.300838597 65.54483368 65.756109286 65.853309391 66.140519041 66.156835074 
66.207152926 66.26850286 66.340363864 66.388221003 66.435615898 66.443951557 66.442942493 66.44102359 66.421097422 
66.412280305 66.296507573 66.258217756 66.19790412 66.184059953 66.078287351 66.004767145 65.922499713 65.917868838 
65.889637362 65.78044765 65.73419817 65.396393503 65.351470378 65.072215585 64.957208476 64.57953688 64.519795509 
64.361511383 64.089779425 64.068208477 63.818576846 63.341194163 63.270757308 63.226781533 62.92496256 62.780660192 
62.486186321 62.413140993 62.31151257 62.259377852 62.240551024 61.88992476 61.768119101 61.604993373 61.388008828 
60.930602777 60.804362919 60.221231082 59.970732671 59.466460562 59.084265368 58.65187705 58.255649684 57.838540692 
57.517662769 56.864511333 56.805634248 56.083448079 55.350553772 54.383329982 54.160182616 53.360314856 52.893115384 
51.999690355 51.189808127 50.823885527 49.294333166 49.074766245 48.793336864 46.861182236 45.835248905 45.418370343 
42.854700232 
EdgeArray 2 91 int
14052 14052 17767 15802 17942 14305 18418 16686 16686 
18426 16493 18426 15218 15218 13889 10626 14515 15315 
17293 17733 17734 16478 15357 4229 13405 17398 17740 
15859 16035 17270 19136 14044 13110 13110 19905 19901 
19903 20159 17732 17275 19640 19133 17384 17384 16499 
21188 14051 17255 8228 17255 15783 8228 11769 11769 
13500 6648 17723 19883 19396 4048 21328 19396 21328 
21328 19395 21761 21760 21761 21760 21760 3888 12978 
17264 22139 22139 22141 22141 22142 21326 21326 20134 
20928 21323 22130 21757 22128 21887 21887 21886 21886 
17236 22634 22341 22635 22341 22340 22342 22342 21628 
22121 22121 21178 22122 21178 21457 18666 21618 3522 
21617 3522 21617 19369 15110 19369 22428 22424 22424 
7848 21619 18383 22334 22115 22256 22115 22119 22119 
22421 22421 22328 22328 22332 22332 22418 22534 22417 
22417 22529 22529 22530 22532 22326 22326 22482 22482 
21869 21869 22221 21377 16756 16756 22102 22102 7825 
7825 21158 21158 18019 18019 21610 21610 21314 21314 
20637 20637 20912 20912 16333 16333 21307 21307 21304 
21306 11191 11191 16982 16982 20421 20421 20422 20422 
16334 16334 
EdgePCoordArray 1 91 double
0 0.208 0.712 0.844 0.616 0.924 0 0.136 0.388 
0.588 0.612 0.6 0.392 0.648 0.744 0.172 0 0.024 
0.12 0.316 0.56 0 0.24 0.74 0.408 0.904 0 
0.924 0.612 0.3 0.168 0 0.808 0.54 0 0.124 
0.752 0.7 0.044 0 0.084 0.812 0.896 0 0 
0.04 0.04 0.228 0 0.74 0.676 0.96 0.06 0.376 
0.184 0.416 0.416 0.904 0.028 0.208 0.444 0.656 0 
0 0 0 0.692 0 0 0.444 0 0 
0 0.056 0 0 0 0 0 0 0 
0 0 0 0 0.044 0 0 0 0 
0 
CurvatureArray 1 91 double
0 0.00012290646742 0.00048685702021 0.0008376968824 0.0011661913479 0.0014615660395 0.0017195189228 0.0019356697005 0.002109863281 
0.0022425172859 0.0023372272626 0.0023977983846 0.0024297886099 0.0024368308182 0.0024249237418 0.0023972080984 0.0023584825112 0.0023099748371 
0.0022559108145 0.0021955764077 0.0021309817053 0.0020625559192 0.001989735303 0.0019118549752 0.001830023939 0.0017416319263 0.001647242979 
0.0015465430036 0.0014383413906 0.0013236378058 0.0012018406651 0.0010736587534 0.00093991689207 0.00080204737789 0.00066036734529 0.00051637495945 
0.00037198751721 0.00022877298967 9.1282575552e-05 7.3391233794e-05 0.0002028813303 0.00033527762021 0.00046463066759 0.00058960979666 0.00071024706688 
0.00082630556348 0.00093800518304 0.001045980489 0.001149923512 0.0012505830326 0.0013487485003 0.0014446432244 0.0015385404108 0.0016313293604 
0.0017228492671 0.0018133250819 0.0019027602271 0.0019909367273 0.002077106193 0.0021609414133 0.0022415114196 0.0023184498373 0.0023908804849 
0.00245861476 0.0025212612902 0.0025787900867 0.0026316798926 0.0026796039549 0.0027229528959 0.0027617248549 0.0027959399279 0.0028250230297 
0.0028483864437 0.0028646862731 0.0028725724973 0.0028700784579 0.0028550990073 0.0028250259943 0.0027771249799 0.0027089921105 0.0026176665894 
0.0025010963317 0.0023574097234 0.0021845531155 0.0019826728504 0.0017517752251 0.0014925612924 0.0012071074111 0.00089938739701 0.00057269054386 
0 
TorsionArray 1 91 double
0 0 -3.9776469094e-05 0.0010988921246 0.0015708971296 0.0020727273342 0.002658305222 0.0033449724431 0.0039814079656 
0.0045550735626 0.0052091558247 0.0058694168879 0.0063933278058 0.0070022667479 0.0075198813267 0.0079236206049 0.0082740596764 0.0085173600147 
0.0087064076386 0.0087000295263 0.0086297964245 0.0084269241164 0.0080480955682 0.0076264497246 0.0070626114541 0.0063721558948 0.005604233956 
0.0046632160605 0.003641983077 0.0025312415353 0.0011197013861 -0.00056282870161 -0.0024706206581 -0.0050952797443 -0.0090190193252 -0.015657011269 
-0.029534722005 -0.073799434901 -0.43684720507 -0.65728137569 -0.091218697588 -0.03960362841 -0.026659122052 -0.022390687546 -0.021371214372 
-0.02155794573 -0.022313398755 -0.023576439966 -0.024994591039 -0.026402558215 -0.02764219314 -0.028758731499 -0.029674079153 -0.030123223487 
-0.030177605327 -0.029808196028 -0.028918414122 -0.027565821985 -0.025817020598 -0.023739714177 -0.021290027646 -0.018690062477 -0.016015177544 
-0.013254699359 -0.010625773027 -0.0079777841487 -0.0055276845403 -0.003421428197 -0.0014022702697 0.00030985160912 0.0017250071385 0.0029419822242 
0.0038219082526 0.0045281499522 0.0050071161863 0.0052626794016 0.0054454635036 0.0054000353497 0.0052822987391 0.0050986985841 0.0048028747321 
0.0045233620389 0.0041685486825 0.0037807168745 0.0033981201781 0.0029848557183 0.0025318075008 0.0021384438275 0.001757664352 0 
0 
TangentArray 3 91 double
0.051251616265 -0.11586779956 0.99194149266 0.051251616265 -0.11586779956 0.99194149266 0.051049713286 -0.11562533487 0.99198019572 
0.050609449392 -0.11509694343 0.99206420016 0.049940220963 -0.11429204583 0.99219116232 0.049057027697 -0.11322617742 0.99235741584 
0.047979328831 -0.11191963044 0.99255830072 0.046729658546 -0.11039550848 0.99278858309 0.045332755781 -0.10867875713 0.99304273272 
0.043814151726 -0.10679507139 0.9933152233 0.042199033281 -0.10476994201 0.99360077538 0.040511537646 -0.1026272977 0.99389458852 
0.038773902367 -0.10038888668 0.99419246423 0.037006046176 -0.098074655085 0.99449078154 0.035225788239 -0.095701870842 0.99478655789 
0.033448320151 -0.093285530238 0.99507739384 0.031686313244 -0.090838572595 0.99536140737 0.029950560126 -0.088372463924 0.99563711842 
0.028249791827 -0.085897178132 0.99590342105 0.026591422645 -0.083421915347 0.99615946529 0.024981704733 -0.08095630174 0.99640453212 
0.023425664168 -0.078509308213 0.99663811225 0.021927716779 -0.076090696733 0.99685976 0.020491869123 -0.07371164381 0.99706904318 
0.019121521406 -0.07138336101 0.99726565327 0.017819866164 -0.069118453085 0.99744929285 0.016590172536 -0.066931133192 0.99761966179 
0.015435185904 -0.06483565577 0.99777657458 0.014357624671 -0.062847548293 0.99791985865 0.013360156031 -0.060982498177 0.99804941819 
0.012445372954 -0.059255916374 0.99816524136 0.01161558403 -0.057683316581 0.99826735557 0.010872911765 -0.056279053254 0.9983558724 
0.010219514144 -0.055055559922 0.99843099253 0.0096574369 -0.054023897023 0.99849294062 0.0091888650293 -0.053193554126 0.99854194231 
0.0088158610129 -0.05257120009 0.99857826409 0.0085408122273 -0.052160702588 0.99860218087 0.008366628951 -0.051964129401 0.99861390376 
0.0082965945536 -0.051980719116 0.99861362466 0.0083346573987 -0.052207163498 0.99860149487 0.0084854404196 -0.052638015636 0.9985776067 
0.0087546588788 -0.053265296114 0.99854201923 0.0091489776179 -0.054079121647 0.9984947395 0.0096758390074 -0.05506772721 0.99843573832 
0.010344048879 -0.056217436118 0.99836496359 0.011163151898 -0.057512840876 0.99828235343 0.012143387496 -0.058937452359 0.99818781542 
0.01329583091 -0.060472838459 0.99808128762 0.014631729988 -0.06209896385 0.99796274037 0.016162558229 -0.063795149789 0.99783212545 
0.017899236662 -0.065540087596 0.99768938766 0.019851745072 -0.067311530985 0.99753449365 0.022029285414 -0.069087091995 0.9973673768 
0.024439126475 -0.070845262856 0.99718788492 0.027086357111 -0.072565423941 0.99699578159 0.029974060388 -0.074228693194 0.99679067853 
0.033102889199 -0.075818956933 0.99657196654 0.036470908964 -0.077323166684 0.99633879815 0.040073980747 -0.07873182707 0.99609004386 
0.043906044115 -0.080039281483 0.99582426799 0.047959251098 -0.081244775905 0.99553965095 0.05222462165 -0.08235147749 0.99523405441 
0.056692464091 -0.083366246026 0.99490503745 0.061352643476 -0.084299994141 0.99454982989 0.066194978919 -0.085165830095 0.99416548228 
0.071209559011 -0.085980408931 0.9937487449 0.076386499049 -0.08676159251 0.99329629458 0.081715819096 -0.0875264996 0.9928049339 
0.087187061157 -0.088293728787 0.99227145168 0.092789050905 -0.089080510974 0.99169292354 0.098509215293 -0.089902170062 0.99106686673 
0.10433271611 -0.090772604577 0.99039134619 0.11024198864 -0.091701959982 0.98966532448 0.1162157548 -0.092697923354 0.98888876692 
0.12222868703 -0.093764404805 0.9880629456 0.12825086058 -0.094900961776 0.98719072332 0.1342470013 -0.096104188042 0.98627669935 
0.14017654716 -0.097365172708 0.98532764032 0.14599373306 -0.098671412061 0.98435246855 0.15164765892 -0.10000660977 0.98336242838 
0.15708301546 -0.10135027181 0.9823711359 0.16224107647 -0.10267961751 0.98139427819 0.16706011505 -0.10396870006 0.98044960471 
0.17147745084 -0.10518977945 0.97955632516 0.17543149349 -0.1063147497 0.97873436901 0.17886233367 -0.10731528143 0.97800393453 
0.18171369894 -0.10816406509 0.97738460528 0.18393598388 -0.10883688279 0.97689410213 0.18548739335 -0.10931295974 0.976547543 
0.18548739335 -0.10931295974 0.976547543 
NormalArray 3 91 double
0.6335152775 -0.7640543424 -0.12198096177 0.6335152775 -0.7640543424 -0.12198096177 0.63555602905 -0.76242244009 -0.12157531322 
0.63533160603 -0.76271687885 -0.12089959924 0.6342189599 -0.7637990435 -0.11990551297 0.63291633421 -0.76508496583 -0.11858292017 
0.63103001625 -0.76688823083 -0.11697674983 0.62867084918 -0.76910458926 -0.11511339702 0.62556831039 -0.77193693222 -0.11303831962 
0.62197235928 -0.7751639805 -0.11077539272 0.61772211186 -0.77889429561 -0.10836544094 0.61276173826 -0.78314776604 -0.105842471 
0.60706464979 -0.78791803743 -0.10323602695 0.60083392196 -0.79302300425 -0.10056397438 0.59364179821 -0.79875654162 -0.097864205021 
0.58601939366 -0.8046927589 -0.095135871413 0.57759918529 -0.81107339836 -0.092407378676 0.56881017518 -0.81756522465 -0.089677689814 
0.55940744376 -0.82431803733 -0.08696600021 0.54972204504 -0.83108594544 -0.084272323407 0.53985209395 -0.83779496511 -0.081604614372 
0.52984588219 -0.84440917148 -0.078971464799 0.51999076334 -0.85075041916 -0.076376242056 0.51045640924 -0.85672852212 -0.073827458689 
0.50123443485 -0.86236589135 -0.071338003557 0.4927529788 -0.86743621133 -0.068912416605 0.48497436474 -0.87199117975 -0.066567619629 
0.4782361212 -0.87587334545 -0.064312480163 0.47273465088 -0.87900970004 -0.062160253372 0.46858641237 -0.8813692 -0.060125763436 
0.46601556096 -0.88285887446 -0.058221170889 0.46578318492 -0.8830966186 -0.056448090015 0.46791501131 -0.88207160846 -0.054819884543 
0.47322343372 -0.87932662931 -0.053331611201 0.4831628237 -0.87398728801 -0.051960621472 0.5003725848 -0.86432749605 -0.050648355814 
0.531090035 -0.84588453825 -0.049221160739 0.59481811999 -0.80248490193 -0.047004109417 0.80803983361 -0.58794178339 -0.037364242815 
0.13983861493 0.98889522117 0.050313053212 -0.27083166016 0.96119337881 0.052511907152 -0.36455576316 0.92972255587 0.052106282268 
-0.41452714181 0.90854441517 0.052098890209 -0.45159604941 0.89068376309 0.052377880075 -0.48437712412 0.87326103765 0.052857939325 
-0.51646320969 0.85463801924 0.05347531302 -0.54852358206 0.83437631681 0.054203707217 -0.58136433387 0.81178204957 0.055003775249 
-0.6154098062 0.78622721498 0.055834907215 -0.65026586077 0.75758972827 0.056675514381 -0.68572306268 0.7255880462 0.057496682617 
-0.72102174166 0.69045606397 0.05829298219 -0.75595363332 0.65195763515 0.059036821031 -0.78969282033 0.61058717747 0.059737326902 
-0.82151617036 0.56697553969 0.060414561431 -0.85094421088 0.52169152851 0.061089271223 -0.87747919241 0.4756159101 0.061804311675 
-0.90074750628 0.42980546717 0.062619408529 -0.92066769514 0.38513282788 0.063590093711 -0.93726044904 0.34255799236 0.064783273564 
-0.9507580803 0.30276964878 0.066254150939 -0.96131418115 0.26690538569 0.068092291835 -0.96947317859 0.23490057024 0.070309871999 
-0.97550074967 0.20753945197 0.072977142041 -0.97982768169 0.18478477413 0.076107170827 -0.9828053055 0.16655505197 0.079706625455 
-0.98461541423 0.1533187001 0.083820416782 -0.98559883263 0.14416217242 0.088386702366 -0.98589322596 0.13889722657 0.093392223769 
-0.98554803426 0.13757246218 0.098837694297 -0.98473328111 0.13911192231 0.10463382889 -0.98342863162 0.14352114647 0.11076916099 
-0.98170215353 0.1501031277 0.11717479599 -0.97961002898 0.15824509387 0.12378481889 -0.97712194763 0.16788141666 0.13057001726 
-0.97435632001 0.17815745183 0.13743974686 -0.97131030807 0.1889911478 0.1443559195 -0.96801741169 0.20015304365 0.15126483326 
-0.96464576142 0.21088288081 0.15807265909 -0.96111031633 0.22163070623 0.16476282926 -0.9576156658 0.23162764762 0.17123337721 
-0.95412138555 0.24117373703 0.17744748577 -0.95072791916 0.25001351737 0.18332938898 -0.94749274689 0.25808413332 0.18881227374 
-0.94448300974 0.26529804038 0.19382671149 -0.94169945159 0.27179505287 0.1983168982 -0.9392789992 0.27725261619 0.20220274103 
-0.93719224683 0.28189710221 0.2054378647 -0.93547452792 0.28572019999 0.20796964908 -0.93413121481 0.288791683 0.20975756804 
-0.93413121481 0.288791683 0.20975756804 
BinormalArray 3 91 double
0.7720308705 0.63466181143 0.034245001227 0.7720308705 0.63466181143 0.034245001227 0.77036514765 0.63666537897 0.034564931718 
0.7705792847 0.63640840373 0.034524044639 0.77153890714 0.63525455481 0.034341889428 0.77266443035 0.63389654346 0.034129902788 
0.77427327385 0.63194654658 0.033829863613 0.77626625742 0.62951645133 0.03346244322 0.77885122475 0.62634040299 0.032991958044 
0.78181244835 0.62266814281 0.032460430256 0.78526341702 0.61834208616 0.031850123535 0.78922865346 0.61330841696 0.031159561127 
0.79370592506 0.60754196375 0.030391887276 0.79851684438 0.60124527171 0.029579933746 0.80395805814 0.59399422483 0.028675801909 
0.80960637357 0.58631678607 0.027751508845 0.81570531365 0.57784798711 0.02676835976 0.8219233228 0.56901442078 0.025780620267 
0.82841128742 0.5595725584 0.024764707891 0.83492428965 0.54985173941 0.023759108277 0.84138910802 0.53994969547 0.022774882568 
0.84777035769 0.52991455882 0.021816987999 0.85389038013 0.52003262415 0.020911445236 0.85965943115 0.51047314617 0.020070612269 
0.86510023046 0.50122797727 0.019290050762 0.86998675522 0.49272412029 0.018600726456 0.87437099204 0.48492433003 0.01799339968 
0.87809564822 0.47816547394 0.017487484615 0.88108785514 0.47264376957 0.017089722446 0.88331663653 0.46847568582 0.016800340004 
0.88468899035 0.46588511907 0.016626671151 0.88482263921 0.46563182581 0.016610235934 0.88370658138 0.46774175109 0.016743127071 
0.88088316098 0.47302596578 0.017067290186 0.87547725254 0.48293647506 0.017661861547 0.86576142276 0.50010841361 0.01867440747 
0.84726952932 0.53076889214 0.020462839974 0.80381494055 0.59438812511 0.024172258188 0.58906843984 0.80723242539 0.037069995729 
-0.99013954991 0.13922731912 0.015473374471 -0.96259064266 -0.27089056945 -0.006128135256 -0.93114289604 -0.36447936624 -0.011300386607 
-0.90999483771 -0.41437887722 -0.014125914524 -0.89217560175 -0.45139548377 -0.016273071878 -0.87480579546 -0.48413087646 -0.018224014126 
-0.85624689996 -0.5161719248 -0.020193820054 -0.83606056238 -0.54818649662 -0.022232879927 -0.81355273304 -0.58097872655 -0.024406348741 
-0.78809516641 -0.61497138327 -0.026762033689 -0.75956581202 -0.64977036121 -0.029295987836 -0.72768307182 -0.68516579459 -0.03201844645 
-0.69268121483 -0.72039913981 -0.034897191614 -0.65432408826 -0.75526180876 -0.037941899641 -0.6131068097 -0.78892982731 -0.041106781323 
-0.56966122471 -0.82068245145 -0.044344142106 -0.52455722208 -0.85004247443 -0.047618404369 -0.47867715904 -0.87651560578 -0.050877993747 
-0.43307981788 -0.89973259703 -0.054065933629 -0.38863976628 -0.91961613338 -0.057142797347 -0.34631911113 -0.93619192545 -0.060064565203 
-0.3068082985 -0.94969692702 -0.062804576055 -0.2712470375 -0.96029203968 -0.06530117281 -0.23957116874 -0.96852462863 -0.067569955237 
-0.21256587661 -0.97466786389 -0.069557912568 -0.19019349973 -0.97915683026 -0.071262433458 -0.17237156448 -0.98234728892 -0.072676321511 
-0.1595671795 -0.98442914701 -0.073739878932 -0.15086432274 -0.98574321915 -0.074500080648 -0.14607214628 -0.98643128109 -0.074941682409 
-0.14523597533 -0.98654854676 -0.07502317217 -0.14727714388 -0.98626190012 -0.074812480614 -0.15219744089 -0.98555531572 -0.074274212567 
-0.15929710013 -0.98449448211 -0.073450994386 -0.16796099268 -0.98313236179 -0.072386905835 -0.17811961656 -0.98143921103 -0.071066709856 
-0.1889177327 -0.97952445541 -0.069583988991 -0.2002698235 -0.9773822965 -0.067940005071 -0.21194346723 -0.97503986799 -0.06616058145 
-0.22317950308 -0.97265021139 -0.064362067075 -0.2344201138 -0.97012565294 -0.062477417895 -0.24489839558 -0.96765040736 -0.0606421057 
-0.25490646891 -0.96517529546 -0.058816163906 -0.26418602695 -0.96278249739 -0.057057916905 -0.27266905315 -0.96051188933 -0.055394024203 
-0.28026296254 -0.95841121658 -0.053857327809 -0.28709917096 -0.95646464819 -0.05243512944 -0.29285359356 -0.95478501098 -0.051208940195 
-0.29774288255 -0.95332814853 -0.050145958022 -0.30175314655 -0.95211265103 -0.049259905453 -0.30494802906 -0.95113092719 -0.048545431381 
-0.30494802906 -0.95113092719 -0.048545431381 
