# vtk DataFile Version 4.1
vtk output
ASCII
DATASET POLYDATA
POINTS 281 float
46.7718 25.5491 -225.532 46.5917 25.3925 -224.679 46.4116 25.2361 -223.826 
46.232 25.08 -222.97 46.0533 24.9247 -222.111 45.8758 24.7705 -221.247 
45.6998 24.6177 -220.377 45.5257 24.4665 -219.499 45.3536 24.3172 -218.612 
45.184 24.17 -217.715 45.0168 24.0251 -216.807 44.8524 23.8825 -215.887 
44.6908 23.7426 -214.954 44.5321 23.6051 -214.007 44.3761 23.4703 -213.046 
44.223 23.3379 -212.071 44.0725 23.2081 -211.081 43.9244 23.0805 -210.075 
43.7785 22.955 -209.054 43.6345 22.8315 -208.018 43.4921 22.7097 -206.966 
43.3509 22.5894 -205.899 43.2105 22.4701 -204.816 43.0704 22.3517 -203.718 
42.9302 22.2338 -202.605 42.7894 22.1161 -201.478 42.6477 21.9983 -200.337 
42.5045 21.88 -199.181 42.3594 21.7609 -198.012 42.212 21.6408 -196.829 
42.0619 21.5194 -195.634 41.9089 21.3965 -194.427 41.7526 21.2717 -193.208 
41.5928 21.145 -191.977 41.4293 21.0161 -190.736 41.2619 20.8849 -189.485 
41.0905 20.7513 -188.225 40.9152 20.6152 -186.955 40.7357 20.4765 -185.678 
40.5523 20.3353 -184.392 40.3649 20.1915 -183.1 40.1737 20.0452 -181.801 
39.9789 19.8965 -180.496 39.7805 19.7453 -179.187 39.579 19.5919 -177.874 
39.3744 19.4363 -176.558 39.1671 19.2787 -175.24 38.9575 19.1193 -173.921 
38.7459 18.9583 -172.602 38.5326 18.7958 -171.285 38.3181 18.6322 -169.97 
38.1028 18.4676 -168.659 37.8872 18.3024 -167.354 37.6716 18.1367 -166.056 
37.4566 17.9709 -164.766 37.2427 17.8052 -163.486 37.0303 17.6399 -162.217 
36.82 17.4752 -160.96 36.6121 17.3114 -159.717 36.4071 17.1487 -158.488 
36.2056 16.9873 -157.274 36.0078 16.8275 -156.076 35.8142 16.6695 -154.894 
35.6251 16.5132 -153.728 35.441 16.3589 -152.578 35.262 16.2067 -151.443 
35.0885 16.0565 -150.324 34.9207 15.9085 -149.218 34.7588 15.7625 -148.125 
34.6031 15.6185 -147.044 34.4537 15.4765 -145.973 34.3108 15.3363 -144.911 
34.1744 15.1977 -143.856 34.0449 15.0606 -142.807 33.9223 14.9246 -141.761 
33.8068 14.7897 -140.718 33.6984 14.6554 -139.674 33.5974 14.5216 -138.63 
33.5039 14.3877 -137.582 33.4182 14.2535 -136.529 33.3402 14.1185 -135.469 
33.2704 13.9823 -134.401 33.2088 13.8445 -133.323 33.1557 13.7046 -132.232 
33.1113 13.5621 -131.128 33.0759 13.4164 -130.008 33.0497 13.267 -128.87 
33.0328 13.1134 -127.713 33.0256 12.955 -126.536 33.0282 12.7912 -125.336 
33.0409 12.6216 -124.112 33.0638 12.4455 -122.862 33.097 12.2624 -121.585 
33.1407 12.0719 -120.28 33.195 11.8733 -118.946 33.2598 11.6664 -117.581 
33.3351 11.4507 -116.184 33.4209 11.2258 -114.756 33.517 10.9914 -113.295 
33.6231 10.7472 -111.801 33.7391 10.4931 -110.275 33.8645 10.2289 -108.716 
33.9989 9.95464 -107.125 34.1419 9.6702 -105.502 34.2929 9.37569 -103.848 
34.4512 9.07125 -102.163 34.6162 8.7571 -100.449 34.7871 8.43351 -98.7063 
34.9632 8.10084 -96.936 35.1436 7.75949 -95.1393 35.3274 7.40994 -93.3174 
35.5137 7.05271 -91.4715 35.7016 6.68838 -89.6029 35.8901 6.31757 -87.7129 
36.0784 5.94094 -85.8028 36.2654 5.55918 -83.8738 36.4503 5.17301 -81.9273 
36.6321 4.78314 -79.9645 36.81 4.39031 -77.9868 36.983 3.99526 -75.9954 
37.1506 3.5987 -73.9916 37.3117 3.20134 -71.9767 37.4659 2.80387 -69.952 
37.6124 2.40696 -67.9188 37.7508 2.01122 -65.8782 37.8804 1.61727 -63.8315 
38.0009 1.22564 -61.7798 38.1119 0.836871 -59.7243 38.2131 0.451432 -57.6661 
38.3042 0.0697627 -55.6062 38.3851 -0.307736 -53.5455 38.4556 -0.680704 -51.4849 
38.5155 -1.04882 -49.425 38.5649 -1.41179 -47.3665 38.6037 -1.76936 -45.3097 
38.632 -2.12131 -43.2551 38.6496 -2.46745 -41.2028 38.6568 -2.80759 -39.1528 
38.6535 -3.14161 -37.1048 38.6398 -3.46936 -35.0587 38.6159 -3.79075 -33.0139 
38.5817 -4.10569 -30.9699 38.5375 -4.4141 -28.9261 38.4832 -4.71592 -26.8818 
38.4192 -5.01108 -24.8361 38.3454 -5.29955 -22.7884 38.2621 -5.58127 -20.738 
38.1694 -5.85621 -18.6843 38.0676 -6.12434 -16.6268 37.9567 -6.38563 -14.5652 
37.8372 -6.64004 -12.4993 37.7093 -6.88757 -10.4291 37.5732 -7.1282 -8.35495 
37.4292 -7.36193 -6.2773 37.2778 -7.58878 -4.19686 37.1193 -7.80877 -2.11454 
36.954 -8.02194 -0.031443 36.7824 -8.22838 2.05116 36.6048 -8.42818 4.13185 
36.4216 -8.62145 6.20915 36.2333 -8.80836 8.28151 36.0402 -8.98909 10.3474 
35.8428 -9.16385 12.4052 35.6413 -9.33286 14.4535 35.4362 -9.49641 16.4911 
35.2279 -9.65475 18.5166 35.0165 -9.80818 20.529 34.8024 -9.95699 22.5276 
34.586 -10.1015 24.5115 34.3674 -10.2418 26.4803 34.1468 -10.3784 28.4337 
33.9246 -10.5113 30.3713 33.7009 -10.6407 32.2932 33.476 -10.7668 34.1992 
33.2499 -10.8895 36.0895 33.0229 -11.0087 37.9641 32.7952 -11.1245 39.8231 
32.567 -11.2366 41.6665 32.3383 -11.3447 43.4942 32.1094 -11.4484 45.3062 
31.8805 -11.5475 47.1023 31.6515 -11.6414 48.8822 31.4227 -11.7296 50.6458 
31.1942 -11.8116 52.3925 30.9659 -11.8869 54.1221 30.7381 -11.9548 55.8342 
30.5106 -12.0148 57.5284 30.2836 -12.0665 59.2043 30.0568 -12.1094 60.8617 
29.8304 -12.143 62.5003 29.6042 -12.167 64.1201 29.378 -12.1812 65.7209 
29.1519 -12.1855 67.303 28.9254 -12.1797 68.8664 28.6987 -12.1639 70.4113 
28.4713 -12.1383 71.9382 28.2433 -12.1032 73.4474 28.0143 -12.0588 74.9393 
27.7842 -12.0056 76.4144 27.5528 -11.9441 77.8733 27.32 -11.875 79.3163 
27.0856 -11.7987 80.7441 26.8493 -11.7161 82.1572 26.6111 -11.6278 83.556 
26.3708 -11.5345 84.9412 26.1281 -11.4369 86.3132 25.8828 -11.3358 87.6725 
25.6348 -11.2319 89.0199 25.3838 -11.1257 90.3559 25.1295 -11.0179 91.6811 
24.8718 -10.9091 92.9965 24.6101 -10.7998 94.3028 24.3443 -10.6905 95.6009 
24.0739 -10.5815 96.892 23.7986 -10.4732 98.177 23.5179 -10.3658 99.4574 
23.2314 -10.2597 100.734 22.9387 -10.155 102.009 22.6393 -10.0518 103.284 
22.3328 -9.95023 104.559 22.0187 -9.85028 105.837 21.6967 -9.75199 107.119 
21.3663 -9.65534 108.407 21.0272 -9.56028 109.703 20.6791 -9.46676 111.007 
20.3217 -9.3747 112.322 19.9547 -9.28402 113.648 19.578 -9.19466 114.987 
19.1916 -9.10653 116.34 18.7954 -9.01956 117.708 18.3894 -8.93371 119.092 
17.9739 -8.84894 120.492 17.5489 -8.76521 121.909 17.1148 -8.68253 123.342 
16.672 -8.60091 124.793 16.2207 -8.52038 126.26 15.7616 -8.44099 127.744 
15.2951 -8.36282 129.244 14.8218 -8.28594 130.76 14.3422 -8.21047 132.29 
13.8569 -8.13652 133.836 13.3666 -8.06421 135.395 12.8717 -7.99367 136.968 
12.3728 -7.92504 138.553 11.8704 -7.85848 140.151 11.3649 -7.79412 141.76 
10.8567 -7.73211 143.381 10.346 -7.67261 145.013 9.83305 -7.61575 146.657 
9.3179 -7.56167 148.311 8.80057 -7.51051 149.977 8.28098 -7.46238 151.654 
7.75895 -7.41741 153.343 7.23423 -7.37568 155.045 6.70648 -7.33728 156.758 
6.1753 -7.30227 158.485 5.64025 -7.2707 160.225 5.10082 -7.24259 161.978 
4.55648 -7.21792 163.746 4.00669 -7.19666 165.528 3.45091 -7.17875 167.325 
2.88861 -7.16409 169.136 2.31926 -7.15256 170.962 1.7424 -7.144 172.803 
1.1576 -7.13824 174.659 0.564516 -7.13506 176.528 -0.0371543 -7.13425 178.412 
-0.647609 -7.13556 180.309 -1.26696 -7.13874 182.219 -1.89522 -7.14355 184.142 
-2.53229 -7.14972 186.075 -3.17797 -7.15701 188.02 -3.83193 -7.16521 189.974 
-4.49373 -7.17409 191.937 -5.16283 -7.18349 193.907 -5.83856 -7.19323 195.885 
-6.52015 -7.20319 197.868 -7.20672 -7.21329 199.856 -7.89733 -7.22344 201.847 
-8.59094 -7.23361 203.842 -9.28646 -7.24378 205.838 
LINES 1 282
281 280 279 278 277 276 275 274 273 272 271 270 269 268 267 266 265 264 263 262 261 260 259 258 257 256 255 254 253 252 251 250 249 248 247 246 245 244 243 242 241 240 239 238 237 236 235 234 233 232 231 230 229 228 227 226 225 224 223 222 221 220 219 218 217 216 215 214 213 212 211 210 209 208 207 206 205 204 203 202 201 200 199 198 197 196 195 194 193 192 191 190 189 188 187 186 185 184 183 182 181 180 179 178 177 176 175 174 173 172 171 170 169 168 167 166 165 164 163 162 161 160 159 158 157 156 155 154 153 152 151 150 149 148 147 146 145 144 143 142 141 140 139 138 137 136 135 134 133 132 131 130 129 128 127 126 125 124 123 122 121 120 119 118 117 116 115 114 113 112 111 110 109 108 107 106 105 104 103 102 101 100 99 98 97 96 95 94 93 92 91 90 89 88 87 86 85 84 83 82 81 80 79 78 77 76 75 74 73 72 71 70 69 68 67 66 65 64 63 62 61 60 59 58 57 56 55 54 53 52 51 50 49 48 47 46 45 44 43 42 41 40 39 38 37 36 35 34 33 32 31 30 29 28 27 26 25 24 23 22 21 20 19 18 17 16 15 14 13 12 11 10 9 8 7 6 5 4 3 2 1 0 

CELL_DATA 1
FIELD FieldData 2
LengthArray 1 1 double
441.48445575 
TortuosityArray 1 1 double
0.012041657188 
POINT_DATA 281
FIELD FieldData 8
RadiusArray 1 281 double
43.455479702 43.467725464 43.943245615 43.994712016 44.124761093 44.149391401 44.455160849 45.009932165 45.171115917 
45.743302245 45.780892362 45.86229609 45.971911161 46.005853758 46.11995651 46.148314274 46.179451805 46.557973777 
46.75533156 46.910974701 47.085835497 47.088116894 47.22969998 47.426994562 47.491240532 47.757744118 47.852575777 
48.112688407 48.122834678 48.331730605 48.455362729 48.533939342 48.677466495 48.850678406 49.081386322 49.167010556 
49.315949833 49.328774766 49.578015573 49.803019068 49.835618507 50.010700514 50.112771494 50.157866733 50.179758571 
50.227393802 50.387536397 50.407842195 50.420953144 50.68875789 50.728086365 50.860263391 51.05077794 51.055227376 
51.466829548 51.51294492 51.612990771 51.784846958 51.926863903 52.026586527 52.066014651 52.068331788 52.073496972 
52.133955432 52.182304631 52.316505476 52.335321319 52.5715124 52.603438917 52.662417091 52.766349783 52.785075008 
52.941018421 53.011216792 53.03193709 53.141552452 53.270689926 53.28026435 53.318303692 53.364432669 53.434649363 
53.535415584 53.545039992 53.569577769 53.603875285 53.675205571 53.686758662 53.703566274 53.742250854 53.773934883 
53.78791119 53.791488722 53.781443246 53.784060889 53.783668018 53.765278825 53.72714484 53.725879868 53.612388687 
53.533628867 53.310126925 53.287274565 53.041477147 53.028839461 52.868266967 52.799581843 52.785115741 52.510666963 
52.321680744 52.315194209 52.269821533 51.823840055 51.791240768 51.695927404 51.395713345 51.162205992 51.116204526 
50.832618235 50.808071876 50.633654286 50.544464119 50.304032323 50.285729032 50.179803646 50.056118112 49.998774332 
49.959492351 49.878372552 49.900571685 49.906257025 49.929820764 49.927722205 49.927389098 49.976307063 50.001933888 
50.081179784 50.141090824 50.163316943 50.333196078 50.340153929 50.556266559 50.561338295 50.631383187 50.980795171 
51.022617448 51.208942884 51.398597451 51.453709437 51.465509364 51.584458447 52.063083216 52.159758771 52.355676796 
53.302603255 53.330454703 53.575629787 54.328429464 54.814824772 55.106403109 55.294070468 55.660076646 56.112963412 
56.588449053 57.522041218 57.652530792 57.776953706 57.894712276 58.109554221 58.896220102 58.942210811 59.131967422 
59.260499942 59.277144104 59.516547257 59.874404366 60.336130086 61.242486022 61.370340347 61.543343348 61.959377213 
62.45138513 63.021155161 63.039043501 63.977009475 64.65384619 64.732705722 65.263699257 65.528548905 66.034223083 
66.099355724 66.513861603 66.536199921 66.630275978 66.652581819 66.868793821 67.298080195 67.690484057 68.28712558 
68.365472623 68.453008186 68.785684757 68.93851914 69.24570826 69.535200579 69.64889601 70.203174602 70.235224069 
70.253446618 70.265307136 70.525315961 70.565718405 70.948334381 71.386874441 71.394921312 71.606487417 71.656026382 
71.765481395 71.896569353 72.133515055 72.149172211 72.431665613 72.507187456 72.529033558 72.925840161 72.938283278 
73.262932978 73.303729461 73.542671506 73.564747391 73.582181541 73.752989314 74.207298891 74.342879948 74.504683306 
74.697895818 75.039796096 75.281637257 75.795695246 75.906829972 76.38708152 76.474964632 76.572497408 76.663320167 
77.005224112 77.085844163 77.246651014 77.626560843 77.645828055 77.734428486 78.013814045 78.571108628 78.682078482 
79.112112264 79.273661797 79.502783277 79.879427685 80.210152128 80.556617652 80.644921718 80.956199087 81.166849842 
81.302874821 81.734592379 81.832327863 82.169480758 82.17456359 82.248386346 82.462048902 82.599431141 82.913497377 
83.057989096 83.442068384 83.538729589 83.638321877 83.865725081 83.993100694 84.07420351 84.062869645 83.912633452 
82.73253799 82.202713641 
EdgeArray 2 281 int
40711 40711 39571 40184 40825 40900 40238 40900 40238 
40244 39131 40244 38612 38726 38814 38578 38815 38808 
37636 38265 38265 38265 38266 38266 37116 38173 38173 
38173 38165 38165 38168 38167 38168 37595 37595 37595 
37954 37954 37842 38015 38014 38010 38010 38010 38012 
38009 36750 36750 37157 37157 37444 37444 37538 37026 
37538 37538 37076 36409 37076 35425 37357 35425 36647 
37165 36473 37164 36780 37178 36626 36542 36542 36192 
32880 36531 36298 36531 36284 36319 36320 36320 36321 
36323 36289 33165 33165 34754 36303 34754 35397 35521 
35508 35397 35508 35217 34541 35217 34541 34191 35283 
35283 35025 35025 33419 33419 34867 34414 34233 34867 
29945 29945 34189 33355 34802 33628 34095 34801 34046 
32689 33854 33887 22643 33975 33975 34035 34032 34035 
34032 33976 33976 33976 34041 34041 34031 34031 34029 
34029 33585 33443 33855 34027 33855 33855 33856 33856 
33480 33480 33069 33069 33434 32838 32838 32838 27578 
27578 33074 33639 33677 33074 33677 33677 33273 33678 
33273 33273 32839 32435 32839 32839 33113 32431 33113 
33113 31933 32394 32970 32969 32970 32970 32740 32870 
32356 32870 32871 32599 32599 32582 32468 32468 32322 
32322 32316 32316 25587 32000 32000 32056 30090 30090 
31320 31320 29856 29856 28832 28832 30797 30797 23749 
29944 30500 20239 27928 30733 16261 29107 27340 27340 
20240 26673 28682 20240 29448 29730 29693 29693 27196 
29414 25962 29691 19905 19905 28889 28889 27679 27679 
16521 16521 25416 25416 26704 26704 28896 28897 29482 
29482 28675 29481 29483 29053 29051 29051 29278 28396 
25958 25958 28894 29059 28402 28402 28639 28644 28656 
28656 26897 26897 28432 27774 28210 28210 28207 28207 
28218 28218 28217 28217 28219 27954 27947 27947 27778 
27778 27779 27777 27242 27779 25219 27520 27526 27526 
27509 27509 26881 26881 26922 20548 26922 26922 26298 
24197 25210 26298 25210 25210 27298 27294 25690 27293 
25690 25690 27288 25534 26003 25534 26003 26003 22321 
22321 24122 25043 24122 24122 26397 26397 25998 25998 
23268 23959 26857 25065 26860 25064 26860 26859 26859 
26859 26855 26855 25037 25037 18959 18959 26532 26536 
26532 26532 20906 20906 24226 24226 23423 23423 24157 
24157 24612 24612 24611 24611 24000 17618 17221 16580 
17221 17221 22494 22494 24316 24315 23998 24316 23998 
23120 24591 23120 23468 23468 19541 20029 24574 24575 
24574 24583 24583 24583 24582 24584 24584 24584 22184 
24585 22184 22184 19773 19773 23657 23657 22182 22182 
23654 23107 23866 23654 23866 23866 22180 22180 21029 
21029 15732 15732 18537 18537 14220 20828 16019 14220 
17164 16019 17164 17164 21797 21797 21031 21031 16293 
16293 21196 21196 21197 20455 20455 20455 20454 20454 
19756 19756 19757 19757 18847 18847 18845 18845 18839 
18839 17730 17730 17731 17731 17975 17975 17423 17974 
17423 17423 17732 17732 17421 17421 17422 17422 16945 
16941 16941 16941 15410 15410 11588 11588 16380 16380 
15084 13599 13599 13599 15409 15409 17407 17407 11979 
11979 15098 15098 13603 13603 13101 13101 15078 15078 
12473 12473 13675 13675 12465 12465 12796 12796 13867 
13867 13097 13097 9832 9832 11240 12793 13375 11688 
12474 11681 11838 11960 10503 11838 10503 9310 10023 
9310 10023 10431 10431 10431 11870 11001 11001 11001 
11352 11352 10686 10686 7370 7370 8847 8847 8288 
8288 5696 5696 8368 8368 8363 8363 7141 7141 
7138 7138 7354 7354 6611 7353 6609 6611 5221 
6615 6612 6616 5711 6099 6099 5573 5416 5573 
5574 5574 4120 4120 
EdgePCoordArray 1 281 double
0 0.996 0.82 0.664 0.156 0.172 0.844 0.448 0.464 
0.932 0 0 0.416 0 0 0.84 0.032 0 
0 0.964 0.976 0 0.952 0 0 0 0.92 
0 0.968 0.312 0.904 0.276 0.484 0.976 0.712 0.576 
0.972 0.84 0.084 0 0.12 0.6 0.432 0.532 0.584 
0.48 0.928 0.556 0.02 0 0 0 0.044 0.952 
0 0.8 0.94 0.16 0.576 0.132 0.088 0.956 0.868 
0.328 0 0 0 0 0.004 0.64 0 0 
0 0 0.072 0 0 0.84 0.8 0 0.844 
0 0.736 0 0.988 0 0.004 0.744 0 0.164 
0.988 0.284 0.292 0 0 0 0.96 0.088 0 
0 0 0 0 0.04 0.188 0.056 0.988 0 
0.08 0.832 0.928 0 0.868 0.86 0 0 0 
0 0 0 0.72 0 0.872 0.272 0 0.684 
0 0.116 0 0.744 0 0 0.996 0 0 
0 0 0.08 0 0 0.36 0.988 0.004 0 
0 0 0.46 0 0.968 0.928 0 0.996 0.856 
0 0.092 0.8 0 0 0.728 0 0 0 
0.856 0.928 0.56 0.024 0 0 0 0 0.636 
0 0 0 0 0 0 0 0.984 0.672 
0 0 0.992 0.92 0.88 0.828 0 0.88 0.044 
0.128 0 0.036 0 0.968 0 0 0 0 
0.98 0.952 0 0 0 0 0 0.744 0.072 
0.424 0 0 0 0 0 0.016 0 0 
0 0 0 0 0 0 0 0 0.992 
0 0 0 0 0.072 0 0 0 0 
0.096 0 0 0 0 0 0 0 0 
0 0 0 0 0 0 0 0.8 0.74 
0.356 0.484 0.636 0.528 0.232 0.76 0 0.176 0 
0 0 0 0 0 0 0 0 0 
0 0 0.896 0.192 0.396 0.348 0.976 0.224 0.892 
0 0 
CurvatureArray 1 281 double
0 0.00037322304508 0.0014802097456 0.0025648842791 0.0035744953074 0.0045093862583 0.0053174647203 0.0060024914618 0.0065362625029 
0.0069341839511 0.0071726127029 0.0072759370588 0.0072433304775 0.0070875059765 0.00682366744 0.006469512742 0.006036290196 0.0055572126513 
0.0050168602294 0.0044575980661 0.003881253719 0.0033001460102 0.0027239606268 0.0021705671758 0.0016494965816 0.0011700027326 0.00075104889781 
0.00047595900655 0.00049973943137 0.00072629059939 0.00098536213608 0.0012243395354 0.001429358161 0.0016041007522 0.0017365856344 0.0018436182701 
0.0019130497299 0.0019580295648 0.0019711097452 0.0019665578207 0.0019407973106 0.0018984137129 0.0018389117632 0.0017711276862 0.0016952536767 
0.0016060427378 0.0015175392392 0.0014229864718 0.0013249105213 0.001226973334 0.0011245991505 0.0010289093657 0.00092563193921 0.00082458492525 
0.0007283546305 0.0006438253371 0.00057855593484 0.00055359229881 0.00058788934701 0.00069563309089 0.00086245996407 0.0010831369045 0.0013419127126 
0.0016456092892 0.0019771939525 0.0023462724705 0.0027397046103 0.0031518479593 0.0035772874539 0.004020675635 0.0044556950217 0.004885422382 
0.0053001362703 0.0056915344 0.0060585839484 0.0063895091373 0.0066836217214 0.0069472589459 0.0071620772177 0.0073408508169 0.0074752481535 
0.007571933909 0.0076200000443 0.0076333782768 0.0075952679733 0.0075226570162 0.00740360751 0.0072444352433 0.0070525464853 0.0068204272341 
0.0065648354594 0.0062783219482 0.0059730744036 0.0056538705334 0.0053207532767 0.0049842743827 0.0046442823134 0.0043061558339 0.0039728915709 
0.0036466445474 0.0033269662886 0.0030169612676 0.0027216189462 0.002431909395 0.002155580294 0.0018908873548 0.0016410636886 0.0014055809411 
0.0011904528008 0.0010022977233 0.00085324232849 0.00075815984967 0.00073376316604 0.00077822746284 0.00087514391109 0.0010048695103 0.001149517803 
0.0012999334056 0.0014499347277 0.001593839288 0.0017320677812 0.0018604491649 0.0019786003956 0.0020869799577 0.0021834386981 0.0022710689746 
0.0023464470558 0.0024151271406 0.0024725616336 0.0025234297878 0.0025675906561 0.0026062873824 0.0026403124237 0.0026698247573 0.0026971512643 
0.0027202984252 0.0027424913626 0.0027614298141 0.0027762271692 0.0027899079854 0.0027976858672 0.0028027992291 0.0027999328188 0.0027923284475 
0.0027775703721 0.0027556558411 0.0027243894314 0.0026886266634 0.0026420730378 0.0025900380496 0.0025328142334 0.0024685068523 0.0024004182387 
0.0023279779257 0.0022534869323 0.0021765510332 0.0020985974387 0.0020192810935 0.0019395309643 0.0018611952099 0.0017818542528 0.0017041884009 
0.0016272929982 0.001551835192 0.001478291929 0.0014082528019 0.0013407029733 0.001277640877 0.0012191064887 0.0011647424994 0.0011176691585 
0.0010768945632 0.0010455747304 0.0010252362951 0.0010174777441 0.0010272571618 0.0010592928553 0.001115409881 0.0012006812649 0.0013151686121 
0.0014594546047 0.0016309875767 0.0018262290358 0.0020436406819 0.0022779853605 0.0025242939226 0.0027783867402 0.0030345960187 0.0032865451206 
0.0035288590409 0.0037544687199 0.0039584107718 0.0041331194817 0.0042746283472 0.0043778707504 0.004440128414 0.0044606169264 0.0044384158204 
0.0043762396198 0.0042766099993 0.0041468896035 0.0039930782864 0.0038246049719 0.003649936336 0.0034828041113 0.003333340332 0.0032115584157 
0.0031278173506 0.0030905106897 0.003098010576 0.0031522563178 0.0032390643635 0.0033560081148 0.0034860407272 0.0036209506296 0.0037485591631 
0.0038606655211 0.0039494159014 0.0040079107854 0.0040339887193 0.0040231642671 0.0039762910333 0.0038936745701 0.0037766593285 0.0036327045403 
0.0034630052962 0.0032712726615 0.0030658357029 0.0028499042578 0.002630444881 0.002406769153 0.0021905949339 0.0019769035625 0.0017762519893 
0.0015882218609 0.001413031246 0.0012613213124 0.0011300016827 0.0010248070468 0.00095011811632 0.0009058300166 0.00089119986309 0.00090143530528 
0.00092977105582 0.000970104919 0.0010152569527 0.0010592174288 0.0011000331166 0.0011327472798 0.0011561348292 0.0011698880036 0.0011749010218 
0.0011707959651 0.0011585141875 0.0011423243584 0.0011232801023 0.0011052983644 0.0010901100423 0.0010815564457 0.0010798630932 0.0010857595626 
0.0010994474733 0.0011178835907 0.0011424019198 0.0011661928977 0.0011891513755 0.0012057791478 0.0012192050942 0.0012199327287 0.0012120207397 
0.0011889106067 0.0011511081216 0.0010983655989 0.0010285609733 0.00094216183642 0.00083793831323 0.0007205090989 0.00058509419172 0.00043882184864 
0.00028006820928 0 
TorsionArray 1 281 double
0 0 -0.0035021002307 0.00025689914149 0.00010225569218 -0.00055352757017 7.9100525907e-06 0.00013942054177 4.4673855088e-05 
0.00036354144257 0.00068635064416 0.0006222017439 0.0012693013106 0.002241716614 0.0026526029823 0.0037785258287 0.0050563966641 0.0065703678091 
0.0089584758229 0.011988540963 0.016271935913 0.021882744412 0.032214991374 0.048080643503 0.076118861402 0.14147427248 0.31329874508 
0.6898027783 0.56220238582 0.23493552095 0.11234879361 0.064496682457 0.040568639812 0.028625325167 0.022080008669 0.017253472358 
0.014262608906 0.012543830508 0.011824154564 0.010361469195 0.010208926534 0.010587709734 0.010403396437 0.011419871125 0.012599430091 
0.013834874421 0.015722752607 0.018876845093 0.02281482697 0.027400867149 0.034146732749 0.044105046168 0.059294060303 0.08089465645 
0.1104618755 0.15580798011 0.2178385976 0.26136730088 0.25970483611 0.2099066463 0.15668713941 0.10927608175 0.07950886702 
0.058956728695 0.04342701668 0.033213888882 0.024406317138 0.017659152484 0.012165414744 0.0073925596959 0.0028169570886 -0.00078162620994 
-0.0042200643453 -0.0078753335241 -0.010627245199 -0.013541769482 -0.016038710437 -0.018077861547 -0.020271059069 -0.021601373986 -0.022598169651 
-0.023869058353 -0.024131236212 -0.024175688886 -0.024394563719 -0.023978802982 -0.023778813129 -0.023205514991 -0.022657587546 -0.022217661902 
-0.021692141985 -0.021389623557 -0.020946204671 -0.020862396762 -0.020841043044 -0.020888795781 -0.021248933743 -0.021731722808 -0.022338652197 
-0.023344508116 -0.024829833631 -0.026293482046 -0.02858867325 -0.031982274483 -0.036137589828 -0.042008862177 -0.050544990753 -0.063378924362 
-0.080762316135 -0.10622492072 -0.13814552286 -0.16507540627 -0.16862785431 -0.14332204664 -0.1086280899 -0.079610199236 -0.058191025228 
-0.043596798616 -0.033634352466 -0.02627405484 -0.021064397116 -0.01732374819 -0.014289289523 -0.012085722663 -0.010442699085 -0.00906537543 
-0.0079731264358 -0.0072532421767 -0.0067912595225 -0.0063378188662 -0.0061472521635 -0.0060767381681 -0.0061426911112 -0.0062821048809 -0.0064900173638 
-0.006756041047 -0.0070287109077 -0.0074499903926 -0.007728786797 -0.0079979787708 -0.0082654670247 -0.0085287222052 -0.0087489301422 -0.0087955643986 
-0.008878957772 -0.0089504966897 -0.0087722949611 -0.008668459533 -0.0085894601004 -0.0080762325474 -0.0077234390737 -0.0072843558317 -0.0066462081775 
-0.0059109981916 -0.004997264617 -0.0040111769824 -0.0028852062807 -0.0016182881296 -6.1847820991e-05 0.0014266146169 0.0030001414988 0.0048199943567 
0.0064737746457 0.0081187617859 0.0096363612242 0.010792535452 0.011519260875 0.011427147762 0.010057125772 0.007697253445 0.0037575764918 
-0.001926655408 -0.0088058194624 -0.017472071811 -0.026242861323 -0.033821864036 -0.040004141209 -0.042384781619 -0.041265038194 -0.037554816609 
-0.032295547141 -0.026684345633 -0.020980146435 -0.015711385221 -0.011327885413 -0.0076860105207 -0.0045575173003 -0.0017755284423 0.00045227799933 
0.0023176724233 0.0042051434493 0.0059379090232 0.0074826945194 0.0091666906982 0.011080489148 0.013224024327 0.015546091319 0.018273728785 
0.02162839433 0.02574678593 0.030669252826 0.036480343557 0.043272081993 0.051014456506 0.059629959373 0.068264272146 0.075626533701 
0.081057258293 0.08326602032 0.081572397623 0.076322384456 0.06866273431 0.059903188691 0.050703080945 0.042182410134 0.034649392804 
0.028041542697 0.022674635972 0.018220564191 0.014661865853 0.01181476828 0.0097649807324 0.0084792749928 0.0073996080081 0.0068790247966 
0.0072713769356 0.0078378000284 0.0089170409483 0.010678843588 0.013202919026 0.016166663319 0.02021446571 0.025713099329 0.031701134028 
0.040190468871 0.05014230752 0.061053984994 0.073843894759 0.085714162683 0.09417914925 0.095271387871 0.089825534022 0.07861885705 
0.063808839716 0.049124388683 0.034545975087 0.022428487237 0.011817026553 0.0014676161185 -0.0072111585651 -0.014567847248 -0.022033521037 
-0.030120521662 -0.037036592153 -0.043847076298 -0.050625752513 -0.055318343613 -0.060496119524 -0.06384732528 -0.064094838548 -0.063302927075 
-0.060535844695 -0.057055936214 -0.052585951975 -0.047538781783 -0.042511272999 -0.03806477145 -0.033653243964 -0.029737751249 -0.026188707461 
-0.022759999672 -0.019919112473 -0.017318073702 -0.014875095941 -0.01277507657 -0.01078854614 -0.0089097138368 -0.007327237754 -0.0056342400335 
0 0 
TangentArray 3 281 double
0.20327619852 0.17665638882 -0.96305311764 0.20327619852 0.17665638882 -0.96305311764 0.20268336097 0.17613081947 -0.96327430653 
0.2013842259 0.17498368958 -0.96375572732 0.19940401376 0.17323632065 -0.96448287518 0.19678245749 0.17092171336 -0.96543380525 
0.1935711046 0.16808956763 -0.96657960082 0.18983959001 0.1647987634 -0.96788547755 0.18566545779 0.16111671765 -0.96931405699 
0.18113101581 0.15711657932 -0.97082744894 0.1763258298 0.15287476023 -0.97238804468 0.17134261307 0.14846999918 -0.97396014718 
0.16626857116 0.14397958229 -0.97551250229 0.16119411155 0.13947743023 -0.97701714666 0.15620544917 0.13503142113 -0.97845100693 
0.15137823888 0.13070610568 -0.97979617407 0.14678421097 0.12655731669 -0.98103906191 0.14248085376 0.12263001046 -0.98217161782 
0.1385219677 0.11896620402 -0.98318803225 0.13495339292 0.1155998626 -0.98408549096 0.13180559662 0.11255188862 -0.98486514664 
0.12910325274 0.1098403221 -0.98552902229 0.12686137706 0.10747807656 -0.9860804501 0.12508699473 0.10546639 -0.98652424417 
0.12377343091 0.10380081216 -0.98686652045 0.12290625094 0.1024744289 -0.9871134914 0.12247272501 0.10147644052 -0.98727046125 
0.1224491382 0.10079215079 -0.98734348172 0.12280400369 0.10039978059 -0.98733938478 0.12350700613 0.10027845712 -0.98726402268 
0.12452208635 0.10040637479 -0.98712350287 0.12581082862 0.10075882592 -0.98692415838 0.12733321929 0.10131199065 -0.98667225147 
0.12905371617 0.10203949884 -0.9863737015 0.13093345325 0.10291660741 -0.98603478779 0.13293622778 0.10392122199 -0.98566137135 
0.13502904849 0.105030186 -0.98525926339 0.13717881875 0.10622096391 -0.98483454372 0.13935450898 0.10747333593 -0.984393114 
0.14152782799 0.10876989782 -0.98394053846 0.14367801428 0.11009310832 -0.98348163974 0.14578277697 0.11142836786 -0.9830214142 
0.14782154533 0.1127628331 -0.98256467177 0.14977960141 0.11408418235 -0.98211550764 0.15164528064 0.11538580857 -0.98167704671 
0.15340447041 0.11665870217 -0.98125318632 0.15504834646 0.11789621849 -0.98084682388 0.15657142914 0.11909520576 -0.98045995305 
0.15796494791 0.12025207166 -0.98009515584 0.15922341081 0.12136530697 -0.97975423843 0.16034141172 0.12243202729 -0.97943914072 
0.16131554405 0.12345268453 -0.97915102509 0.16213881503 0.12442696012 -0.9788916877 0.16280003797 0.12535147087 -0.978663965 
0.16329083284 0.12622582244 -0.97846979803 0.16360425182 0.12704840067 -0.97831096931 0.16372710035 0.12781631922 -0.97819038288 
0.16364103149 0.12852509686 -0.97811191195 0.16333256225 0.12916917548 -0.97807862578 0.16278200605 0.12974428689 -0.97809428918 
0.1619668686 0.13024510784 -0.97816304641 0.160864136 0.13066124652 -0.97828951155 0.15945298128 0.1309882047 -0.9784767943 
0.15771043334 0.13122063868 -0.97872803332 0.15561349123 0.13135098814 -0.97904614767 0.15314173342 0.13137775126 -0.97943223143 
0.15027434015 0.13129731716 -0.97988705329 0.14699902749 0.13111189556 -0.98040856624 0.1433073415 0.13082701144 -0.98099301677 
0.13918870032 0.13045025582 -0.98163599998 0.13464125258 0.12999395263 -0.98233054792 0.12967250074 0.12947631176 -0.98306710211 
0.12429037578 0.1289165297 -0.98383557105 0.11850956561 0.12833725153 -0.98462431045 0.11234654579 0.12776713625 -0.98542062722 
0.10582290439 0.12723259761 -0.98621162993 0.098965268774 0.1267637468 -0.98698370203 0.091796274386 0.12638936519 -0.98772423903 
0.084345116115 0.12613626977 -0.98842073169 0.076644054357 0.12603298005 -0.989060856 0.068723895949 0.12610114597 -0.98963403696 
0.060617701503 0.12635886821 -0.99013076444 0.052362355468 0.12682572209 -0.99054198293 0.043994222783 0.12751075177 -0.99086099759 
0.035553613501 0.12841915911 -0.99108246889 0.027082305329 0.12955499905 -0.99120232594 0.018621448196 0.13091423638 -0.99121879743 
0.010217950883 0.13249117028 -0.99113151664 0.0019127705598 0.1342743468 -0.99094235004 -0.0062498981836 0.13624941732 -0.99065485163 
-0.014228884377 0.13840025673 -0.99027415789 -0.021985382316 0.14070809076 -0.98980698935 -0.029480757525 0.14315304826 -0.98926138594 
-0.036684529352 0.14571374511 -0.98864642304 -0.043566012748 0.14836985814 -0.98797185574 -0.05009963837 0.15110045205 -0.98724803349 
-0.056264790838 0.1538849223 -0.98648553157 -0.062042728399 0.15670366675 -0.98569501403 -0.067419598564 0.15953767366 -0.98488696225 
-0.072385159053 0.16236780068 -0.98407168746 -0.076929591434 0.16517582668 -0.98325926603 -0.081044919828 0.16794441245 -0.98245936063 
-0.084731143926 0.17065622988 -0.98168074467 -0.087984416331 0.17329410915 -0.98093215577 -0.090800461804 0.17584057017 -0.98022210239 
-0.093180207222 0.17827895131 -0.97955809654 -0.095125627109 0.18059285958 -0.9789470538 -0.096637765721 0.18276668038 -0.97839536118 
-0.097717465034 0.18478543419 -0.97790880983 -0.098371204364 0.1866338125 -0.9774921617 -0.098603182986 0.18829890248 -0.97714939269 
-0.09841932906 0.18976859375 -0.97688357366 -0.097828852689 0.19103249691 -0.97669652436 -0.096840148161 0.19208198734 -0.97658921551 
-0.095465658038 0.19291070285 -0.97656119566 -0.093718649402 0.19351550975 -0.97661075267 -0.091613573621 0.19389337302 -0.97673553894 
-0.089168073835 0.19404582136 -0.97693156046 -0.086400288952 0.19397614331 -0.97719406767 -0.083331342069 0.19368854033 -0.97751758898 
-0.079982250678 0.19319152071 -0.97789563651 -0.076374721734 0.19249408869 -0.97832148484 -0.072533252052 0.19160593684 -0.97878807324 
-0.068480660274 0.19053920724 -0.97928811372 -0.064241045612 0.1893057304 -0.97981448678 -0.05983733954 0.18791667826 -0.98036055349 
-0.055292331161 0.18638433251 -0.98091979219 -0.050626494302 0.18472033537 -0.98148629933 -0.045859844811 0.18293435307 -0.98205493589 
-0.041012554699 0.18103493616 -0.98262114889 -0.036099852355 0.17902993822 -0.9831811033 -0.031136468558 0.17692490681 -0.98373172038 
-0.026135271903 0.17472387562 -0.98427054962 -0.02110840462 0.17242947422 -0.98479567001 -0.016065611755 0.17004277096 -0.98530571508 
-0.011016285773 0.16756413568 -0.98579962563 -0.0059685912882 0.16499290414 -0.98627669419 -0.00092954636136 0.16232794635 -0.98673642569 
0.0040904091022 0.1595682089 -0.98717843132 0.0090839416492 0.15671318861 -0.98760237875 0.014042459905 0.15376344958 -0.98800790022 
0.018956380305 0.15072060994 -0.98839463444 0.023814557645 0.14758772712 -0.98876222099 0.028604724144 0.14436993024 -0.98911025321 
0.033316729856 0.14107408723 -0.98943827368 0.037938451316 0.13770872875 -0.98974591686 0.042456266169 0.13428460927 -0.99003288288 
0.046860901868 0.13081400672 -0.99029881931 0.051141415634 0.12731013288 -0.99054363138 0.055286329002 0.12378760882 -0.99076740445 
0.059291845655 0.12026173655 -0.99097002566 0.063151774426 0.11674801236 -0.99115173157 0.06686182321 0.11326219613 -0.9913128525 
0.07042114138 0.10981985169 -0.99145371199 0.073830830388 0.10643599422 -0.99157470098 0.077094386834 0.10312517409 -0.99167618404 
0.080216241576 0.099901121079 -0.99175859996 0.083202056667 0.096776894702 -0.99182238854 0.086058220992 0.093765032608 -0.9918679858 
0.088794093291 0.090876487114 -0.99189569668 0.091417123667 0.08812084414 -0.99190605721 0.093934395014 0.085506661506 -0.9918996624 
0.096354324325 0.083040940645 -0.99187703187 0.09868297347 0.080728576535 -0.99183898274 0.10092599526 0.078572256585 -0.99178644071 
0.10308891837 0.076571398825 -0.99172047261 0.10517552304 0.074722531297 -0.99164240161 0.10718842903 0.073019125467 -0.99155375447 
0.10912939619 0.071449887035 -0.99145634726 0.11099710608 0.069999315102 -0.99135247936 0.11279137341 0.068647801851 -0.99124446298 
0.11451167017 0.067370740358 -0.99113483479 0.11615696173 0.066139052072 -0.99102632964 0.11772839642 0.064920087338 -0.99092149383 
0.11922506073 0.063676918396 -0.99082321075 0.12064795676 0.062370763418 -0.99073405029 0.12200172218 0.060960797775 -0.99065602553 
0.12328953685 0.059404146432 -0.99059115557 0.12451807137 0.057659463269 -0.99054057776 0.12569676872 0.055686416983 -0.99050459126 
0.12683625716 0.053446641649 -0.99048272088 0.12794875255 0.05090525391 -0.99047350891 0.12904611948 0.04803258657 -0.99047461839 
0.13014300598 0.044804180724 -0.99048239933 0.1312557165 0.041201609372 -0.99049198092 0.13239953144 0.037214888006 -0.99049755991 
0.13358904337 0.032841718959 -0.9904924982 0.13483894515 0.028088329729 -0.99046933552 0.13616384757 0.022971183536 -0.99041997725 
0.13757586108 0.017515821011 -0.99033634613 0.13908431492 0.011757002882 -0.99021074839 0.14069862724 0.0057387208528 -0.99003583944 
0.14242566188 -0.00048646620854 -0.98980538198 0.14426846979 -0.0068590989475 -0.9895148111 0.14622895773 -0.013314256325 -0.98916117114 
0.14830826418 -0.019782717362 -0.98874329473 0.15050645104 -0.026194246374 -0.98826194385 0.15282133083 -0.032479342556 -0.98771996697 
0.15525003523 -0.038570901229 -0.98712193377 0.15779055294 -0.044405825112 -0.98647365099 0.16044223267 -0.049927186457 -0.98578170303 
0.16320550883 -0.055086125011 -0.98505303447 0.16608145625 -0.059841922409 -0.98429461759 0.16907220353 -0.064162482125 -0.98351297189 
0.17218175075 -0.068025357595 -0.98271358769 0.17541723744 -0.071416544805 -0.98190043789 0.17878529953 -0.074329106135 -0.98107644995 
0.18229146014 -0.076765410679 -0.98024328372 0.18594353926 -0.078734538424 -0.97940077224 0.18974815019 -0.080250525129 -0.97854764458 
0.19371025518 -0.081333454289 -0.97768154644 0.1978312056 -0.082007429654 -0.97679967013 0.20210928129 -0.08230057295 -0.97589879296 
0.20654023094 -0.082242814287 -0.9749755138 0.21111368224 -0.081867989067 -0.97402702506 0.21581546692 -0.081210850649 -0.97305111992 
0.22062626083 -0.080306659887 -0.97204675475 0.22552272335 -0.079191945058 -0.97101397368 0.2304764575 -0.077901837838 -0.96995458976 
0.23545631803 -0.076470870534 -0.96887178112 0.24042854376 -0.074931824075 -0.96777029149 0.24535763012 -0.073315836241 -0.96665630992 
0.25020801298 -0.071650330633 -0.9655372496 0.25494355217 -0.069958851379 -0.96442187051 0.25953244543 -0.068263154444 -0.96331876942 
0.26394593333 -0.066580499112 -0.96223675954 0.26815511113 -0.064922929389 -0.96118564784 0.27213693118 -0.06330042437 -0.9601742274 
0.27587328202 -0.061719024417 -0.9592104536 0.27935016875 -0.060180951734 -0.95830148506 0.28255539103 -0.058685792332 -0.95745413926 
0.28548298647 -0.057231864129 -0.95667339158 0.28812895112 -0.055814316698 -0.95596363403 0.29049129726 -0.054426524059 -0.95532850878 
0.29257417998 -0.053061993768 -0.95476948738 0.29437815923 -0.051712698269 -0.95428889557 0.29590965404 -0.050369948889 -0.95388696652 
0.29717764038 -0.049025359048 -0.95356277414 0.29818898313 -0.047671215321 -0.95331567991 0.29895424935 -0.046298863818 -0.95314362611 
0.29948522449 -0.044900153993 -0.95304384814 0.29979769653 -0.043468704275 -0.95301196892 0.2999072345 -0.041997995671 -0.95304345077 
0.2998311089 -0.040482267267 -0.95313298766 0.29959017885 -0.038916612403 -0.95327394909 0.29920610097 -0.037297000725 -0.95345930321 
0.29870583755 -0.035621206519 -0.95368021488 0.298116327 -0.033887907819 -0.95392780926 0.29746639993 -0.032097382518 -0.95419259007 
0.29679004571 -0.030251620366 -0.95446346616 0.29611983279 -0.028354422437 -0.95472984208 0.29548596492 -0.026411275174 -0.95498193128 
0.29491994211 -0.024429214635 -0.95520963208 0.2944554489 -0.022417920753 -0.95540223228 0.29412023201 -0.020388610717 -0.95555093725 
0.29393997268 -0.018353904424 -0.95564764775 0.29393809533 -0.016327807081 -0.95568498933 0.29412946586 -0.014325545371 -0.95565822136 
0.29453026613 -0.012363113241 -0.95556217787 0.29515112646 -0.010456590942 -0.95539335996 0.2959930186 -0.0086220174574 -0.95515118895 
0.29705497535 -0.0068747131961 -0.9548356298 0.29832982329 -0.00522871582 -0.95444851986 0.2998078952 -0.0036963972624 -0.95399243321 
0.30147448547 -0.0022883374541 -0.95347149833 0.3033083791 -0.0010127268071 -0.95289191494 0.30528459504 0.00012513975205 -0.95226115135 
0.30737753965 0.0011230381964 -0.95158698336 0.30955704391 0.0019817389453 -0.95087880893 0.31178922003 0.0027044310256 -0.95014744557 
0.31403927393 0.0032973857016 -0.94940426672 0.3162676404 0.0037700999645 -0.94866251427 0.31843650197 0.0041337120326 -0.94793518061 
0.3205068985 0.0044012579251 -0.94723595632 0.32243928647 0.00458740164 -0.94657903119 0.32419445601 0.0047069512452 -0.94597875204 
0.32573745095 0.0047754129353 -0.94544820508 0.32703401003 0.004807511957 -0.9450003408 0.32805299714 0.004816521189 -0.94464704107 
0.32876942557 0.0048142733851 -0.9443979498 0.32876942557 0.0048142733851 -0.9443979498 
NormalArray 3 281 double
0.7224445346 0.63682693168 0.26930531653 0.7224445346 0.63682693168 0.26930531653 0.72035163422 0.63952986864 0.26850525171 
0.72341727422 0.63678511229 0.266781124 0.72263162582 0.63877659609 0.2641363164 0.72401326388 0.63864773702 0.26064125101 
0.72498994958 0.63927242822 0.25635977752 0.72588385538 0.64023323912 0.2513842239 0.72688342554 0.64125971058 0.24581795959 
0.72804403281 0.64223172349 0.23977134865 0.7287749526 0.6437623712 0.23336040343 0.72954833636 0.64526167734 0.2267081663 
0.73034496048 0.6467043424 0.21993119884 0.73021228857 0.64912270316 0.2131425107 0.7296266688 0.65193732622 0.2064525293 
0.7287884932 0.6548915355 0.19996101848 0.72639680519 0.65940043205 0.19374919775 0.72363317038 0.66411651975 0.18789433979 
0.71860785443 0.67105677876 0.18244328222 0.71213217726 0.67924909786 0.17744978207 0.70180999064 0.69106324343 0.17289977041 
0.68821052535 0.70560190324 0.16879640676 0.66733929905 0.72624334478 0.16501170897 0.63422556757 0.75614482323 0.16125425805 
0.58116105269 0.79852392671 0.15688011126 0.48285073553 0.86281391575 0.14969072778 0.25228172193 0.95890104805 0.12985650858 
-0.30509485261 0.95048066346 0.059191547487 -0.90188351586 0.42646385352 -0.068809196036 -0.99206613226 -0.01105216775 -0.12523034302 
-0.96842271093 -0.20426818263 -0.142940416 -0.94032636698 -0.30493371796 -0.15100248742 -0.91808176348 -0.3644450502 -0.15590279326 
-0.90161736783 -0.40203056896 -0.15955420285 -0.88750344865 -0.43106852197 -0.16284212599 -0.8761646499 -0.45256822638 -0.1658840159 
-0.86629067507 -0.47014120191 -0.16884228308 -0.85778087345 -0.48447794705 -0.17173552915 -0.8493996249 -0.49802516657 -0.17461732639 
-0.84133736703 -0.51054987946 -0.17745493915 -0.83447488202 -0.52074802523 -0.18020312287 -0.82618395316 -0.53287695301 -0.18292683916 
-0.81845131233 -0.54379457916 -0.18553949717 -0.81003374647 -0.55541089316 -0.18805336832 -0.80035076923 -0.56847708618 -0.19045327165 
-0.78963810164 -0.58252646258 -0.19270337008 -0.77753995826 -0.5979073319 -0.19477791397 -0.76300920104 -0.61575104649 -0.19664080927 
-0.74472725368 -0.63725288044 -0.19821726464 -0.72227638254 -0.66223217252 -0.19941257962 -0.69397734235 -0.69164227971 -0.20006600216 
-0.65674111939 -0.72714507705 -0.19987781023 -0.6045192215 -0.77153954129 -0.19820001784 -0.53040807519 -0.82526123486 -0.19393598948 
-0.42130796991 -0.88787976233 -0.18484891704 -0.26625093669 -0.94918721527 -0.1677917432 -0.028817245814 -0.99052815137 -0.134251807 
0.27535716026 -0.95802277366 -0.079817287867 0.57009417802 -0.82147193093 -0.013285137656 0.78208230462 -0.62134392284 0.047738855832 
0.89628321892 -0.43412829671 0.09060360627 0.95231338181 -0.28092912159 0.11907162326 0.97506182229 -0.17588202127 0.1353512368 
0.98487469591 -0.092924984488 0.14624219844 0.98772566407 -0.034242821511 0.15239895573 0.98774915807 0.0097252147389 0.15574665627 
0.98661767013 0.04351433072 0.15713712486 0.9853872164 0.066808817304 0.15667997861 0.98430487702 0.08430960525 0.15503483332 
0.98376055708 0.095222527083 0.15214413122 0.98367250814 0.10193693812 0.14831472404 0.98428246949 0.10306507024 0.1434071531 
0.98520894515 0.10184325897 0.13780887124 0.98669200594 0.0959591333 0.13126587579 0.98846158872 0.087025578161 0.1239767574 
0.99038095531 0.075427252414 0.11600126273 0.99238762059 0.060487242678 0.1072758313 0.99423113784 0.043630188193 0.097983933468 
0.9958157689 0.024340427597 0.088082336405 0.99697980465 0.0027770498591 0.077611578443 0.99757559664 -0.019576481074 0.066780913286 
0.99751017393 -0.043485514401 0.055519932882 0.996656305 -0.068939198674 0.04385882559 0.99507463281 -0.093783001915 0.032112671788 
0.99258957461 -0.11984480352 0.020078830807 0.98930806103 -0.14562144957 0.0079971121987 0.98519958594 -0.17136151321 -0.0041240325604 
0.98021408856 -0.19727084601 -0.016265112719 0.97457087693 -0.22229285805 -0.028239884823 0.96801420715 -0.24765896952 -0.040168763582 
0.96083055937 -0.27224212138 -0.051854252703 0.95272919288 -0.29713190557 -0.063401228078 0.94391912198 -0.32162245122 -0.074670543185 
0.93426101925 -0.34614258692 -0.085683472363 0.92354837228 -0.37115124304 -0.096463251341 0.91190636736 -0.39622593429 -0.1069195313 
0.89898056448 -0.4220418338 -0.11710950089 0.88466372004 -0.44859882451 -0.12700077593 0.8686775503 -0.47617261851 -0.13659777081 
0.85089026136 -0.50468855184 -0.14586030563 0.83039264213 -0.53521982554 -0.15487994783 0.80689364626 -0.56759278925 -0.16358810838 
0.78010977714 -0.60156132052 -0.17190902615 0.74749401944 -0.63941397209 -0.18000684211 0.70848592169 -0.68031454137 -0.18766945295 
0.65956118693 -0.72595265303 -0.19486350675 0.59770522341 -0.77604763074 -0.20124249237 0.51386943952 -0.83269234955 -0.20630475064 
0.39913317364 -0.89284960165 -0.20859601754 0.23951938501 -0.94894036842 -0.20528672968 0.014142476213 -0.98157019745 -0.19057790493 
-0.2690308087 -0.950170544 -0.15747495446 -0.56027514189 -0.82167635279 -0.104593196 -0.78238998235 -0.62119002741 -0.044596696828 
-0.90861698068 -0.41758240148 0.0063340663384 -0.96800957193 -0.2470353538 0.043943175061 -0.99090158906 -0.11486707109 0.070139837332 
-0.99601536006 -0.015828231254 0.087765993548 -0.99310830155 0.061195716329 0.099954918359 -0.98673009375 0.12113627789 0.10811902825 
-0.97918508098 0.16836935991 0.11335049994 -0.97134502607 0.20711688594 0.11658231374 -0.96376256009 0.23912978747 0.11823143621 
-0.95677208961 0.26556833097 0.11857752795 -0.95013853088 0.28861596417 0.11805760189 -0.94406272253 0.30841155185 0.11673855667 
-0.93839662233 0.32592506985 0.11482433558 -0.93321263369 0.34130180544 0.11237107245 -0.92807170665 0.35589770313 0.10963453936 
-0.92315456115 0.36935935806 0.10658011469 -0.9183362026 0.38208509307 0.103293759 -0.91337539958 0.39467327084 0.099891885193 
-0.90833541201 0.40698936902 0.096366139269 -0.90292251298 0.4196583413 0.092832171863 -0.89729606248 0.43231491763 0.089238939088 
-0.89114148871 0.44555967508 0.085693774834 -0.88464902474 0.45896644556 0.082133457775 -0.8775635062 0.47296816209 0.078634663103 
-0.86980411128 0.48763022595 0.075216824794 -0.86169647562 0.50232104544 0.071782666543 -0.85286192101 0.51763199141 0.068437308313 
-0.84366976429 0.5329030697 0.065081849456 -0.83367643879 0.54878054583 0.061834520512 -0.82341989787 0.56440199071 0.058566754116 
-0.81270373405 0.58004350251 0.055336930422 -0.80164012164 0.59552955786 0.052131191188 -0.7901184252 0.61099334895 0.048989812163 
-0.77892837941 0.62544119195 0.045759099231 -0.76702979751 0.64019041282 0.042679328306 -0.75552510542 0.65392521672 0.039542711235 
-0.74447652275 0.66665780612 0.036360371588 -0.73344136038 0.67893948018 0.033240835314 -0.72323925523 0.68994352652 0.030048459194 
-0.71365358699 0.6999842057 0.026845289079 -0.70532822353 0.70849017977 0.023532153668 -0.6982141481 0.71560571375 0.020136182058 
-0.69270241004 0.72103239764 0.016602791239 -0.68889385373 0.72474695495 0.012927086984 -0.68719619748 0.72641554001 0.0090470654332 
-0.68811440984 0.72558580937 0.0048777249157 -0.69087773163 0.72297140441 0.00055528989911 -0.69651753794 0.71752801588 -0.0041067947923 
-0.70455131865 0.70959553105 -0.0090344726176 -0.71478030418 0.69920475118 -0.014206783329 -0.72713340071 0.68621546541 -0.019630399987 
-0.74099266564 0.67103956707 -0.025214457898 -0.75570492006 0.65418491808 -0.030857199293 -0.77050060809 0.63639757222 -0.036427228893 
-0.7839239515 0.61945860021 -0.041644698315 -0.79437923746 0.60566435393 -0.046177023296 -0.80146692325 0.59595157051 -0.049924909079 
-0.80234083252 0.59457174107 -0.052284158081 -0.79634555977 0.60250400859 -0.053128797025 -0.78137266896 0.62188698034 -0.052089690823 
-0.75449141639 0.65449872475 -0.048724961756 -0.71658348511 0.69614745991 -0.043437575185 -0.66699705249 0.74417315117 -0.036349044659 
-0.60727809357 0.79399693822 -0.02796746605 -0.54478968004 0.83834166275 -0.019684029497 -0.48239227821 0.87587344912 -0.011974600239 
-0.42640740414 0.90451264946 -0.0057959170824 -0.37757420362 0.92597857335 -0.0011842557594 -0.33782092635 0.94120899148 0.0016297466988 
-0.30690798558 0.95173528818 0.0027257345021 -0.28424827459 0.95874815122 0.0022138047643 -0.2679370613 0.96343634166 0.00038307432629 
-0.25735831802 0.96631235413 -0.0026702804434 -0.25141737501 0.96785501734 -0.0067800410802 -0.24988098418 0.96820345605 -0.011897959675 
-0.25115820661 0.96778285585 -0.017773552722 -0.25540549825 0.9665261274 -0.024398289277 -0.26241922462 0.96443302033 -0.031703309648 
-0.27178775946 0.96154291241 -0.039580821019 -0.28318735774 0.95786630698 -0.04792763687 -0.29719092573 0.95312930542 -0.056763375714 
-0.31375959419 0.94720483453 -0.066014532444 -0.33338417617 0.93974858575 -0.075680820897 -0.3558497122 0.93060922828 -0.085658896582 
-0.38218513356 0.91908353782 -0.0960206967 -0.41266970843 0.90460636175 -0.1067288247 -0.44844551285 0.8860052905 -0.11786113528 
-0.48957147841 0.86231783454 -0.12933568632 -0.53692833951 0.83173364191 -0.14116340586 -0.59012499793 0.79265082624 -0.15315728672 
-0.64899382569 0.7426592582 -0.16511886757 -0.71186583949 0.67974559178 -0.17661527973 -0.77554336114 0.60295852859 -0.18701205253 
-0.83539896104 0.51366933014 -0.19558219543 -0.88776266802 0.41370607462 -0.20180368951 -0.92850810228 0.30931938888 -0.20541231625 
-0.95645208501 0.20614071299 -0.20665288656 -0.97230584504 0.11008240095 -0.20616306337 -0.97850691168 0.02468518641 -0.20473120274 
-0.97794153355 -0.049094837272 -0.20302722458 -0.973263525 -0.1098611403 -0.20171425521 -0.96637242816 -0.16045705784 -0.20094243626 
-0.9587817938 -0.2008143839 -0.20102501112 -0.95114747922 -0.23360735983 -0.20185656842 -0.94401001416 -0.25971549518 -0.20345258593 
-0.93747181264 -0.28080165583 -0.20566241899 -0.93163585845 -0.29769681909 -0.20840161024 -0.92641484532 -0.31147204528 -0.21151997394 
-0.92163394433 -0.32315668799 -0.21485024472 -0.9170745332 -0.33369727345 -0.2182210582 -0.91293886459 -0.3426382692 -0.22167915102 
-0.90859483108 -0.35197383455 -0.22487741711 -0.90393331873 -0.36199844793 -0.22773159416 -0.89887992187 -0.37286822021 -0.23018291948 
-0.89291163478 -0.3858696496 -0.23197721009 -0.8857460254 -0.40146037203 -0.23298830053 -0.87650369642 -0.42133894477 -0.23284064032 
-0.86524978879 -0.4446388956 -0.23160106975 -0.84955241321 -0.47554566544 -0.22829151821 -0.8291668193 -0.51262802789 -0.22292350886 
-0.80138985188 -0.55834177998 -0.21454314724 -0.76217931722 -0.61511472851 -0.20178344623 -0.70950422181 -0.68020686973 -0.18418027473 
-0.63693809034 -0.75418646891 -0.15972676415 -0.54119971529 -0.8311379022 -0.12772100726 -0.42117353254 -0.90267606945 -0.088254003438 
-0.28291683691 -0.95814551073 -0.043763496837 -0.14239579775 -0.98980973556 0.0003523717786 -0.0076233067105 -0.99910406153 0.041628829394 
0.1049878563 -0.99163045187 0.075143841714 0.19509622843 -0.97555529933 0.10114009884 0.26130808422 -0.95783355927 0.11946948507 
0.30491611892 -0.94336274555 0.1307397825 0.33250267944 -0.93308983552 0.13705957471 0.34317186079 -0.92904488169 0.13823415556 
0.33859782706 -0.9312249717 0.13480194209 0.32200606773 -0.93808112971 0.12773365427 0.29375201933 -0.94867840372 0.11712829488 
0.25218764192 -0.96223747694 0.1024716118 0.19579449724 -0.97710308669 0.083271080444 0.12912171492 -0.98975923883 0.060862401268 
0.046931348011 -0.99833255385 0.033608934742 -0.045112859757 -0.99897679648 0.0031921735441 -0.14478942994 -0.98901552906 -0.029737253573 
-0.25381344173 -0.96501611262 -0.065746780812 -0.36137746733 -0.92687906986 -0.10149638394 -0.46420223281 -0.87523336691 -0.13595161087 
-0.55916577454 -0.8118319401 -0.16811465619 -0.64157640593 -0.74146991343 -0.19647412767 -0.71279086951 -0.66550653521 -0.22142770364 
-0.77033249517 -0.58987276827 -0.24215277025 -0.81650758058 -0.51580389074 -0.25934864016 -0.85213840626 -0.44631526639 -0.27324498084 
-0.8798646477 -0.38053560049 -0.2846591971 -0.90025672433 -0.32132639973 -0.29374678746 -0.91549446654 -0.26676239729 -0.30117719887 
-0.92625698282 -0.21843118778 -0.30714136481 -0.93370516644 -0.17568033964 -0.31197929486 -0.93875334544 -0.13753758046 -0.3159518482 
-0.94190558705 -0.10455699143 -0.31918912986 -0.94374274639 -0.075946482848 -0.32184120368 -0.94466406404 -0.051325147644 -0.32399928292 
-0.94495477207 -0.031051071462 -0.32572428479 -0.94489644768 -0.014012454329 -0.32706934172 -0.94465634305 -0.00083789444793 -0.32806049971 
-0.94438556026 0.0089023732355 -0.32871973067 -0.94438556026 0.0089023732355 -0.32871973067 
BinormalArray 3 281 double
0.66087266667 -0.75049582236 0.0018273151808 0.66087266667 -0.75049582236 0.0018273151808 0.66333474073 -0.74831776776 0.0027459395725 
0.66038764443 -0.75092305141 0.0016522531563 0.6618470916 -0.74963566984 0.002188573113 0.66112136416 -0.7502765063 0.0019250836031 
0.66099909264 -0.75038434137 0.0018814229147 0.66110026362 -0.75029512001 0.0019168538865 0.66118743444 -0.75021822617 0.0019467060898 
0.66116823986 -0.75023515903 0.0019402964319 0.66166174909 -0.74979951795 0.0021006381605 0.6621185195 -0.74939577467 0.0022447810109 
0.66253377344 -0.74902828612 0.0023718446337 0.66393258093 -0.74778724428 0.0027866238902 0.66576631172 -0.74615295884 0.0033136368931 
0.66779634693 -0.74433392417 0.0038792214898 0.67141795986 -0.74106296345 0.0048587416102 0.67531788147 -0.73750330761 0.0058847454774 
0.68147957857 -0.73179904481 0.0074660568121 0.68895235238 -0.72474639345 0.0093445885497 0.70006429828 -0.71397735674 0.012095963201 
0.71393180552 -0.70004361134 0.015502235072 0.73386950539 -0.67898384901 0.020407886521 0.76296210469 -0.6458497092 0.027694402461 
0.80432081201 -0.5929459755 0.038511056808 0.86703472864 -0.49502640153 0.056565370276 0.95987205627 -0.26497417244 0.091838573223 
0.94441693095 0.29398546005 0.14713670451 0.41415613058 0.89891516046 0.14292037575 -0.023469313174 0.99489802524 0.098117840952 
-0.21599005294 0.97375205749 0.071799913395 -0.31616128631 0.94702855641 0.056382216988 -0.37538264055 0.92569740517 0.04660672954 
-0.41283321132 0.90992272326 0.040117045422 -0.44180771774 0.89643075655 0.034897553829 -0.46331788828 0.88565364567 0.030889388258 
-0.48094451068 0.87631952523 0.02750395158 -0.49537253137 0.86833071214 0.02465419871 -0.50901925115 0.86047685357 0.021885758675 
-0.52165247891 0.85294075405 0.019255163925 -0.53198524368 0.84658195216 0.017049891374 -0.54421269507 0.83882410062 0.014376047458 
-0.55523530154 0.83160808025 0.011906333704 -0.56693156605 0.82371326267 0.0092228154461 -0.58003651183 0.8145673193 0.0061422533747 
-0.59408647258 0.80439646171 0.002755992625 -0.60941908697 0.79284759199 -0.0010355223392 -0.62713821977 0.77888829797 -0.0055382835515 
-0.64840449788 0.76121495363 -0.011108622989 -0.67302654679 0.73940449819 -0.017783570376 -0.70191600636 0.7117874371 -0.02593384662 
-0.73666029983 0.67529213797 -0.036223349481 -0.77991506942 0.62389475701 -0.049878017908 -0.8319635938 0.55066405638 -0.067865127984 
-0.89209623831 0.44242125784 -0.091802680852 -0.94991793724 0.28792765456 -0.12146430851 -0.98608468346 0.050169411792 -0.15849298775 
-0.94731201149 -0.25626873518 -0.19216214056 -0.8051801676 -0.55542703463 -0.20781171022 -0.60153909874 -0.77272126253 -0.20261432111 
-0.41284758077 -0.89138590626 -0.18705090529 -0.25927196642 -0.95079254693 -0.16962187397 -0.15436706083 -0.97565752435 -0.15576651021 
-0.071758292633 -0.98698839469 -0.14389112619 -0.013507549058 -0.99074433992 -0.13506738699 0.02998683424 -0.99128467489 -0.12827892695 
0.063270812225 -0.99038755926 -0.12300116582 0.086042545776 -0.9891138725 -0.11937515463 0.10298987791 -0.98781384053 -0.11669148001 
0.11332110143 -0.98687152208 -0.11507791655 0.11941578549 -0.98626083412 -0.1141465604 0.11988770919 -0.9862116791 -0.11407655848 
0.11796286229 -0.98641192155 -0.11435158131 0.11132999718 -0.9870771979 -0.11525726494 0.10159695507 -0.98797879919 -0.11651588338 
0.089146375528 -0.98900080672 -0.11802681064 0.07329860902 -0.99008698909 -0.11981263683 0.055478721582 -0.99102075409 -0.12165515364 
0.035168960601 -0.99171426582 -0.12355549027 0.012528289828 -0.99202216504 -0.12543949147 -0.0109524023 -0.99182420941 -0.12714079798 
-0.036040909733 -0.99103100177 -0.12868024854 -0.06272474333 -0.98952646407 -0.13001147439 -0.088831207913 -0.98739341538 -0.13100862478 
-0.11619757719 -0.98445200119 -0.13172843434 -0.14330425366 -0.9808210314 -0.13211356947 -0.17039664762 -0.97647155335 -0.13216765102 
-0.19767633662 -0.97135488011 -0.13188541553 -0.22407129924 -0.96568953865 -0.13128506315 -0.25081753034 -0.95921902144 -0.13034352834 
-0.27677097938 -0.95222350122 -0.12910549442 -0.30302430265 -0.94441191431 -0.1275241472 -0.32885798772 -0.93598408301 -0.12564322612 
-0.35469789008 -0.92679707272 -0.12343659413 -0.38099922126 -0.91664231846 -0.1208571612 -0.40732886395 -0.90563439775 -0.11793868831 
-0.43435954921 -0.8934204616 -0.11459345882 -0.46208311189 -0.87988809259 -0.11079775375 -0.49076869434 -0.86475856056 -0.10648342875 
-0.52033273188 -0.84789513676 -0.10162521926 -0.55184227625 -0.82840611093 -0.095986548626 -0.58511055758 -0.80599820094 -0.089512767228 
-0.61987851138 -0.78038479538 -0.082159614626 -0.65841585141 -0.74907871685 -0.073277845062 -0.69985925364 -0.71151403267 -0.062807693902 
-0.74585286061 -0.66423592276 -0.049941458085 -0.79605249888 -0.60426508578 -0.03411927794 -0.85240796651 -0.52270430604 -0.013448683417 
-0.91167099698 -0.41069932084 0.01349300294 -0.96589521707 -0.25432262426 0.04864599092 -0.99502633265 -0.032610900075 0.094122933043 
-0.95808979727 0.24731319847 0.14456874568 -0.82250913731 0.53698655141 0.18741441419 -0.61521370371 0.75975486835 0.21043915697 
-0.40657286009 0.88792477086 0.21514671911 -0.23275369689 0.94948685165 0.21047668547 -0.098595100948 0.97427455878 0.20265263431 
0.0015675256473 0.98086476454 0.19468399153 0.079188960532 0.97909567466 0.18735199065 0.13935425906 0.97355572595 0.18102386295 
0.18654601783 0.96660684612 0.1757036945 0.22506830563 0.95919164997 0.17115968107 0.25671122903 0.95189500982 0.16731776707 
0.28266157807 0.9450758023 0.16411630081 0.30513908336 0.93854364079 0.16132567725 0.32429164146 0.93250717784 0.15895060414 
0.34110780893 0.92684072495 0.15688127119 0.35574026816 0.92162436779 0.15510443676 0.36956701957 0.91644522333 0.15345478382 
0.38223504103 0.91148231826 0.15197485617 0.39415151865 0.90661969032 0.15061645817 0.40592597819 0.90162663372 0.14931012556 
0.41742511527 0.89656635047 0.14807110573 0.42928471999 0.89115372018 0.14683213611 0.44113679553 0.88554461663 0.14563330522 
0.4535917642 0.87943097306 0.14441494061 0.46621934639 0.87299893668 0.14322142861 0.47945951709 0.86599697199 0.14201343592 
0.49338025553 0.85834419055 0.14078769125 0.50734274994 0.85036141953 0.13960225737 0.52194765352 0.84167328759 0.13840781748 
0.53652771081 0.83264495197 0.13726033472 0.55173948766 0.82283520545 0.1361093767 0.56671107414 0.81277777783 0.13502163646 
0.58172384873 0.80227653407 0.13397659014 0.59660186833 0.79144226052 0.1329863112 0.61148208447 0.78016329781 0.13204124026 
0.62535960505 0.76922754179 0.13120348058 0.63957004725 0.75759379973 0.13039090943 0.65278268735 0.74636347636 0.12967777088 
0.66501066467 0.73559804531 0.12905941119 0.67681284287 0.72485245661 0.12850405391 0.68735323982 0.71494727437 0.12804654847 
0.69695008474 0.705664022 0.12766701779 0.70502560632 0.69764822389 0.12738072902 0.71172569077 0.69084995542 0.12717263929 
0.71674871867 0.68566175886 0.12704025633 0.72007129929 0.68218478724 0.12696944516 0.72135661692 0.68082933389 0.12694900294 
0.72014871239 0.68210460879 0.12696115435 0.71716864784 0.68523504379 0.12697269519 0.7113646384 0.69126128003 0.12695744943 
0.70308127807 0.69969878125 0.12687920217 0.69235163574 0.7103489374 0.1267028004 0.67903678917 0.72314226507 0.12638949094 
0.66355297028 0.73745692776 0.12591558808 0.64641177522 0.75263446392 0.12527242546 0.62836251767 0.76789734821 0.12447573658 
0.61119065205 0.78177103827 0.12361242078 0.59719449892 0.79263534256 0.1228329931 0.5873064592 0.80008074899 0.12223713866 
0.58577834192 0.80121509475 0.12213969901 0.59358344795 0.79537069686 0.12265457551 0.61285950828 0.78041140813 0.12394053886 
0.64538987247 0.75337684419 0.12607633856 0.68698775783 0.71518431326 0.12868262766 0.73500374948 0.66519929511 0.13145107848 
0.7848649611 0.6050124044 0.13396635157 0.82927646441 0.54208730182 0.13580096754 0.86688985013 0.47931693491 0.13695715991 
0.89559437781 0.42308429829 0.13751504273 0.91709696187 0.37412877038 0.13769831405 0.93232189761 0.33439274063 0.13768578086 
0.94279917606 0.30363222265 0.13761245215 0.94972356782 0.28125506204 0.13755266191 0.95429560161 0.26534028656 0.13752976793 
0.95703744108 0.25526820356 0.13754083254 0.95844027587 0.24993541395 0.13756644373 0.9586547347 0.24910719064 0.13757436975 
0.95811921894 0.25117631246 0.13754280192 0.95677770919 0.25629868892 0.13743142746 0.95464131842 0.26426504948 0.1372003527 
0.95175960444 0.2746543117 0.13681617017 0.94815163821 0.28713253163 0.13624749627 0.94355426213 0.30227017341 0.13541822875 
0.93784837571 0.32001819563 0.13427128746 0.93070016615 0.34086134575 0.13270547726 0.92196346087 0.36457037255 0.13065917604 
0.91095112396 0.39217054465 0.12794652659 0.89710972191 0.4239285942 0.12441339911 0.87929227904 0.46097928506 0.11976304423 
0.85655340138 0.50336216689 0.1137664253 0.82711843657 0.55194029862 0.10600471043 0.78940932146 0.60629023045 0.096151337195 
0.74105361407 0.66620550653 0.083724334218 0.68005574726 0.72996274397 0.068400095253 0.6054488514 0.79430233336 0.050154676337 
0.51853485848 0.85454718477 0.029507787896 0.42107296931 0.90699953489 0.0070283878322 0.31916820566 0.94756602349 -0.015820480935 
0.21834776416 0.97513633696 -0.037859981821 0.12443535585 0.99053351608 -0.057958569095 0.040939738908 0.99630179025 -0.075542574183 
-0.031168733868 0.99540233898 -0.090568722955 -0.09049377922 0.99056961503 -0.10287231749 -0.13981421365 0.98369625918 -0.11310904179 
-0.17905732298 0.97633212771 -0.12130149006 -0.21085059647 0.96910073639 -0.1280069869 -0.23606290623 0.96253787729 -0.13339842233 
-0.25633361621 0.9567145008 -0.13780580959 -0.27248622459 0.95171520196 -0.14138398694 -0.28557865416 0.94742279536 -0.14434292197 
-0.29662572864 0.94362915657 -0.14689176962 -0.30655845407 0.94008078845 -0.14923144921 -0.31493735772 0.93698407576 -0.15124583461 
-0.32370971133 0.93363882574 -0.15339675961 -0.33316271049 0.92991512351 -0.15575773306 -0.34344777878 0.92572260782 -0.1583706937 
-0.35581279453 0.92048648852 -0.16156076165 -0.37069861304 0.91389705259 -0.16545306148 -0.38974827924 0.90500247038 -0.1704899042 
-0.41211923933 0.89387961507 -0.17645669817 -0.44186242738 0.87791860792 -0.18443566123 -0.47759521772 0.85688404029 -0.19404264867 
-0.52170360791 0.82791236345 -0.20587973175 -0.57656238845 0.78673989832 -0.22049069055 -0.63956331655 0.73128755125 -0.23701747089 
-0.71133347955 0.65482767526 -0.25535347381 -0.7862481787 0.55401917183 -0.27363581405 -0.85629388196 0.42782277738 -0.28935870278 
-0.91118969688 0.28273867163 -0.29965343292 -0.94331584209 0.13559925933 -0.30293243955 -0.95393790987 -0.0052194445656 -0.29995869968 
-0.94819768834 -0.12259785053 -0.29307151155 -0.93390748278 -0.21628073243 -0.28467430231 -0.91771117148 -0.28489262272 -0.27684363684 
-0.90432349468 -0.32984520605 -0.27092647898 -0.89474500487 -0.35804324956 -0.26690149438 -0.89092469653 -0.36857206328 -0.26534471785 
-0.89289819144 -0.36318713021 -0.26613516899 -0.89923586282 -0.34525327053 -0.2686541312 -0.90906424178 -0.31513763796 -0.2725627881 
-0.92164180732 -0.27111298648 -0.27762227496 -0.93539323467 -0.2115821231 -0.28332402248 -0.94700626812 -0.14128323929 -0.28847560458 
-0.95467101194 -0.054728841692 -0.29258847013 -0.95475925028 0.042175381484 -0.29437393091 -0.94473481903 0.1471158116 -0.29297279684 
-0.92132006335 0.261898942 -0.28736437679 -0.88447280267 0.37521440478 -0.27734817791 -0.83480801385 0.48362404227 -0.263065326 
-0.77401032177 0.58385069954 -0.24500282128 -0.70666755401 0.6709657428 -0.22455720895 -0.63406971408 0.74638286974 -0.20215887178 
-0.56187274493 0.8074929602 -0.17959437001 -0.49124270786 0.85670608769 -0.15727454115 -0.42504288325 0.89487578318 -0.13614653897 
-0.36243240728 0.92476558951 -0.11597997502 -0.3061245937 0.94696642895 -0.097684776619 -0.25427812332 0.96375853275 -0.080697748147 
-0.20839226521 0.97584678277 -0.065541745085 -0.16783754584 0.98444004622 -0.052041844668 -0.13168276513 0.99048792339 -0.039916450011 
-0.10044497546 0.99450915756 -0.02936566761 -0.073365763022 0.99710134264 -0.020158802717 -0.050077547944 0.99867090367 -0.012192840627 
-0.030912647743 0.99950639137 -0.0056019476255 -0.014814163887 0.99989026346 -3.994815917e-05 -0.0023716248591 0.99998804946 0.0042750835077 
0.0068248363814 0.99994878395 0.0074733584028 0.0068248363814 0.99994878395 0.0074733584028 
