# vtk DataFile Version 4.1
vtk output
ASCII
DATASET POLYDATA
POINTS 278 float
-17.3232 -8.04532 -169.741 -17.4154 -7.84636 -168.804 -17.5073 -7.64782 -167.868 
-17.5984 -7.45094 -166.932 -17.688 -7.25693 -165.996 -17.7754 -7.06697 -165.062 
-17.8601 -6.88216 -164.128 -17.9414 -6.70352 -163.196 -18.0189 -6.53191 -162.265 
-18.0922 -6.3681 -161.334 -18.1609 -6.21268 -160.404 -18.2246 -6.06608 -159.474 
-18.2832 -5.92859 -158.543 -18.3366 -5.80032 -157.611 -18.3845 -5.68123 -156.676 
-18.427 -5.57114 -155.738 -18.4641 -5.46976 -154.795 -18.4959 -5.37666 -153.846 
-18.5226 -5.29134 -152.891 -18.5442 -5.21322 -151.927 -18.561 -5.14169 -150.955 
-18.5731 -5.07608 -149.972 -18.5808 -5.01575 -148.979 -18.5842 -4.96004 -147.975 
-18.5835 -4.90832 -146.959 -18.5789 -4.86001 -145.93 -18.5706 -4.81454 -144.889 
-18.5586 -4.77144 -143.836 -18.5432 -4.73024 -142.771 -18.5244 -4.69056 -141.693 
-18.5023 -4.65208 -140.604 -18.477 -4.6145 -139.505 -18.4486 -4.57759 -138.396 
-18.417 -4.54118 -137.277 -18.3824 -4.50511 -136.15 -18.3447 -4.46927 -135.015 
-18.304 -4.43359 -133.873 -18.2602 -4.39802 -132.725 -18.2134 -4.36251 -131.572 
-18.1636 -4.32707 -130.414 -18.1108 -4.29168 -129.252 -18.0549 -4.25636 -128.086 
-17.9961 -4.22113 -126.917 -17.9341 -4.186 -125.745 -17.8692 -4.15102 -124.569 
-17.8012 -4.11621 -123.391 -17.7301 -4.08162 -122.209 -17.6561 -4.04727 -121.024 
-17.5789 -4.01321 -119.835 -17.4987 -3.9795 -118.642 -17.4155 -3.94616 -117.445 
-17.3292 -3.91326 -116.244 -17.2398 -3.88085 -115.037 -17.1475 -3.84899 -113.825 
-17.0521 -3.81775 -112.607 -16.9536 -3.7872 -111.382 -16.8522 -3.75741 -110.151 
-16.7477 -3.72848 -108.912 -16.6402 -3.7005 -107.666 -16.5297 -3.67357 -106.412 
-16.4161 -3.64783 -105.15 -16.2995 -3.62338 -103.879 -16.1797 -3.60037 -102.599 
-16.0568 -3.57895 -101.31 -15.9307 -3.55928 -100.012 -15.8013 -3.54153 -98.7032 
-15.6685 -3.52589 -97.3846 -15.5323 -3.51256 -96.0556 -15.3926 -3.50174 -94.7159 
-15.2492 -3.49364 -93.3651 -15.1021 -3.4885 -92.0029 -14.9511 -3.48655 -90.6291 
-14.796 -3.48803 -89.2434 -14.6369 -3.49316 -87.8456 -14.4735 -3.50221 -86.4356 
-14.3057 -3.5154 -85.0131 -14.1334 -3.53296 -83.5781 -13.9566 -3.55511 -82.1307 
-13.7751 -3.58207 -80.671 -13.5888 -3.61401 -79.1993 -13.3979 -3.6511 -77.716 
-13.2021 -3.69349 -76.2216 -13.0016 -3.74127 -74.7169 -12.7964 -3.79453 -73.2027 
-12.5865 -3.85331 -71.6802 -12.3721 -3.91762 -70.1505 -12.1532 -3.98741 -68.6152 
-11.9301 -4.06262 -67.0757 -11.703 -4.14315 -65.534 -11.472 -4.22883 -63.9917 
-11.2375 -4.31949 -62.451 -10.9998 -4.41492 -60.9138 -10.759 -4.51488 -59.3823 
-10.5156 -4.61911 -57.8585 -10.2698 -4.72732 -56.3446 -10.022 -4.83923 -54.8424 
-9.77257 -4.95453 -53.3539 -9.52178 -5.07293 -51.8808 -9.26997 -5.19414 -50.4246 
-9.01745 -5.31786 -48.9866 -8.7645 -5.44384 -47.568 -8.51138 -5.57183 -46.1697 
-8.25833 -5.7016 -44.7921 -8.00556 -5.83295 -43.4357 -7.75325 -5.96572 -42.1007 
-7.50155 -6.09976 -40.7867 -7.25057 -6.23497 -39.4935 -7.00039 -6.37126 -38.2205 
-6.75107 -6.50857 -36.9669 -6.50264 -6.64687 -35.7318 -6.2551 -6.78616 -34.5141 
-6.00844 -6.92643 -33.3127 -5.76264 -7.06771 -32.1264 -5.51765 -7.21004 -30.954 
-5.27343 -7.35344 -29.7942 -5.02992 -7.49795 -28.6457 -4.7871 -7.6436 -27.5075 
-4.54491 -7.79042 -26.3784 -4.30333 -7.93841 -25.2575 -4.06236 -8.08759 -24.1438 
-3.82199 -8.23792 -23.0366 -3.58225 -8.38936 -21.9353 -3.3432 -8.54186 -20.8393 
-3.1049 -8.69533 -19.7483 -2.86744 -8.84966 -18.6621 -2.63095 -9.00472 -17.5806 
-2.39556 -9.16035 -16.5037 -2.16144 -9.3164 -15.4317 -1.92876 -9.47265 -14.3648 
-1.69774 -9.6289 -13.3033 -1.46859 -9.78491 -12.2476 -1.24155 -9.94045 -11.1983 
-1.01687 -10.0953 -10.1559 -0.794804 -10.2491 -9.12095 -0.575629 -10.4017 -8.09419 
-0.35962 -10.5527 -7.07624 -0.147057 -10.702 -6.06777 0.0617765 -10.8492 -5.06946 
0.266598 -10.994 -4.08198 0.467129 -11.1363 -3.10595 0.663094 -11.2758 -2.14199 
0.85423 -11.4123 -1.19064 1.04028 -11.5455 -0.252376 1.22101 -11.6753 0.67238 
1.39619 -11.8014 1.58332 1.56562 -11.9238 2.48022 1.72911 -12.0423 3.36299 
1.88652 -12.1568 4.23166 2.03772 -12.2673 5.0864 2.18261 -12.3736 5.92752 
2.32113 -12.4758 6.75549 2.45325 -12.5738 7.57092 2.57897 -12.6677 8.37458 
2.69833 -12.7575 9.1674 2.81142 -12.8433 9.95042 2.91835 -12.9251 10.7248 
3.01924 -13.0032 11.4919 3.11429 -13.0776 12.2531 3.20369 -13.1483 13.0098 
3.28765 -13.2157 13.7635 3.36643 -13.2797 14.5157 3.44028 -13.3405 15.268 
3.50947 -13.3983 16.0217 3.57428 -13.4532 16.7783 3.63496 -13.5053 17.539 
3.6918 -13.5547 18.3051 3.74506 -13.6015 19.0776 3.79497 -13.6458 19.8573 
3.84179 -13.6877 20.645 3.88573 -13.7271 21.4412 3.92697 -13.7642 22.2462 
3.9657 -13.799 23.0603 4.00207 -13.8315 23.8833 4.0362 -13.8618 24.7151 
4.0682 -13.8897 25.5554 4.09816 -13.9154 26.4037 4.12613 -13.9388 27.2593 
4.15216 -13.96 28.1217 4.17627 -13.979 28.99 4.19847 -13.9957 29.8635 
4.21875 -14.0101 30.7414 4.2371 -14.0224 31.6228 4.25349 -14.0325 32.507 
4.26789 -14.0405 33.3934 4.28024 -14.0464 34.2814 4.29053 -14.0502 35.1706 
4.29869 -14.052 36.0606 4.3047 -14.0519 36.9514 4.30852 -14.0499 37.8429 
4.3101 -14.0461 38.7356 4.30944 -14.0406 39.6298 4.3065 -14.0333 40.5261 
4.30128 -14.0245 41.4256 4.29378 -14.014 42.3291 4.284 -14.002 43.238 
4.27196 -13.9885 44.1537 4.2577 -13.9736 45.0777 4.24126 -13.9572 46.0117 
4.22268 -13.9394 46.9574 4.20204 -13.9201 47.9168 4.17942 -13.8993 48.8917 
4.15489 -13.8771 49.8838 4.12857 -13.8534 50.8952 4.10056 -13.828 51.9274 
4.071 -13.801 52.982 4.04 -13.7723 54.0606 4.00773 -13.7418 55.1644 
3.97432 -13.7095 56.2945 3.93995 -13.6751 57.4517 3.90478 -13.6387 58.6365 
3.86899 -13.6002 59.8492 3.83274 -13.5594 61.0899 3.79623 -13.5163 62.3583 
3.75962 -13.4708 63.654 3.7231 -13.4228 64.9761 3.68682 -13.3722 66.3237 
3.65096 -13.319 67.6957 3.61566 -13.263 69.0907 3.58105 -13.2043 70.5073 
3.54726 -13.1428 71.944 3.51438 -13.0785 73.3993 3.48251 -13.0112 74.8716 
3.45169 -12.941 76.3594 3.42196 -12.8678 77.8613 3.39332 -12.7917 79.3758 
3.36576 -12.7126 80.9016 3.33923 -12.6306 82.4376 3.31366 -12.5456 83.9827 
3.28895 -12.4576 85.5358 3.26499 -12.3667 87.0961 3.24161 -12.273 88.6627 
3.21865 -12.1765 90.2348 3.19593 -12.0772 91.8117 3.17324 -11.9753 93.3925 
3.15037 -11.8708 94.9767 3.12707 -11.7637 96.5633 3.1031 -11.6543 98.1519 
3.07822 -11.5425 99.7414 3.05215 -11.4284 101.331 3.02464 -11.3123 102.921 
2.9954 -11.194 104.51 2.96417 -11.0737 106.097 2.93064 -10.9516 107.682 
2.89453 -10.8275 109.265 2.85552 -10.7015 110.846 2.81331 -10.5737 112.424 
2.76757 -10.444 114 2.71797 -10.3123 115.574 2.66414 -10.1788 117.146 
2.60573 -10.0432 118.717 2.54237 -9.9055 120.289 2.47368 -9.76557 121.862 
2.39926 -9.62329 123.438 2.31872 -9.4785 125.016 2.23168 -9.33107 126.6 
2.13775 -9.1808 128.19 2.03657 -9.02751 129.787 1.92779 -8.87103 131.392 
1.81109 -8.71113 133.007 1.6862 -8.54764 134.633 1.55287 -8.38034 136.27 
1.41094 -8.20905 137.918 1.26027 -8.03358 139.579 1.10081 -7.85379 141.253 
0.93257 -7.66952 142.939 0.75565 -7.48067 144.637 0.570218 -7.28719 146.348 
0.37653 -7.08905 148.07 0.174923 -6.88629 149.803 -0.0341802 -6.67902 151.547 
-0.250277 -6.4674 153.3 -0.472785 -6.25167 155.062 -0.701049 -6.03216 156.832 
-0.934342 -5.80926 158.608 -1.17188 -5.58343 160.389 -1.41282 -5.35522 162.175 
-1.65627 -5.1252 163.964 -1.90131 -4.89404 165.755 
LINES 1 279
278 277 276 275 274 273 272 271 270 269 268 267 266 265 264 263 262 261 260 259 258 257 256 255 254 253 252 251 250 249 248 247 246 245 244 243 242 241 240 239 238 237 236 235 234 233 232 231 230 229 228 227 226 225 224 223 222 221 220 219 218 217 216 215 214 213 212 211 210 209 208 207 206 205 204 203 202 201 200 199 198 197 196 195 194 193 192 191 190 189 188 187 186 185 184 183 182 181 180 179 178 177 176 175 174 173 172 171 170 169 168 167 166 165 164 163 162 161 160 159 158 157 156 155 154 153 152 151 150 149 148 147 146 145 144 143 142 141 140 139 138 137 136 135 134 133 132 131 130 129 128 127 126 125 124 123 122 121 120 119 118 117 116 115 114 113 112 111 110 109 108 107 106 105 104 103 102 101 100 99 98 97 96 95 94 93 92 91 90 89 88 87 86 85 84 83 82 81 80 79 78 77 76 75 74 73 72 71 70 69 68 67 66 65 64 63 62 61 60 59 58 57 56 55 54 53 52 51 50 49 48 47 46 45 44 43 42 41 40 39 38 37 36 35 34 33 32 31 30 29 28 27 26 25 24 23 22 21 20 19 18 17 16 15 14 13 12 11 10 9 8 7 6 5 4 3 2 1 0 

CELL_DATA 1
FIELD FieldData 2
LengthArray 1 1 double
338.86429222 
TortuosityArray 1 1 double
0.0089295373072 
POINT_DATA 278
FIELD FieldData 8
RadiusArray 1 278 double
48.027856314 48.900100756 50.775791539 50.784974354 50.806523224 50.839614387 50.920057902 50.957512686 50.991336551 
51.019769487 51.114043073 51.11728177 51.122031853 51.128662251 51.152695488 51.221041636 51.22688968 51.272684959 
51.292566675 51.324288689 51.341681353 51.374525198 51.427986912 51.468064637 51.502284611 51.503572778 51.52002432 
51.532123958 51.565899711 51.565918157 51.567436894 51.664129321 51.741883994 51.749078085 51.750583091 51.786153826 
51.834491986 51.840362427 51.847935384 51.86321068 51.888696207 51.894129333 51.914855506 51.922387922 51.945012188 
51.971103902 51.993598899 52.013817591 52.019662813 52.041178162 52.129370658 52.158204005 52.163386753 52.191443657 
52.200559635 52.214994117 52.224112516 52.22912621 52.255948265 52.300483159 52.291143977 52.294677585 52.287496421 
52.284714554 52.248027386 52.234266037 52.209289251 52.210503355 52.187506092 52.184041656 52.110866759 52.089747586 
52.061449591 52.0580267 51.993132365 51.977595301 51.917717471 51.914609176 51.876679549 51.862023885 51.834475395 
51.787546384 51.747808911 51.676087101 51.67382571 51.62237153 51.595055056 51.567174811 51.568132096 51.585107207 
51.592108296 51.591885256 51.570333668 51.563177259 51.571949445 51.571352363 51.577066701 51.587902 51.605890123 
51.635767287 51.69561147 51.696016241 51.721729753 51.745238071 51.778761645 51.826520795 51.866200282 51.875084892 
51.896570706 51.93316891 52.159819133 52.164978708 52.174295081 52.22964695 52.327642753 52.336244674 52.342627886 
52.422980886 52.533642771 52.764984245 52.79094441 52.94303142 52.987454237 53.000947275 53.255825634 53.440417937 
53.501882613 53.519819926 53.528523522 53.780830058 53.992125391 54.202568813 54.431165131 54.453371074 54.560005802 
54.794970682 54.90286936 54.941355331 55.135856854 55.22264928 55.289491207 55.848645931 55.899732563 55.916778137 
56.364196805 56.46609557 56.469871973 57.005967007 57.020257602 57.035075825 57.055170644 57.182390062 57.343129405 
57.472571555 57.601297029 57.701160503 57.727327638 57.810145373 57.825756325 57.925195941 57.946517624 57.962119792 
58.178997641 58.199299566 58.381020981 58.415845013 58.417987144 58.476632714 58.605786609 58.629103964 58.680462504 
58.707147445 58.921462395 58.934316698 58.99283274 59.086559261 59.101560681 59.17701655 59.358402921 59.394926512 
59.459861302 59.638995103 59.720253478 59.746290717 59.752800961 59.86517612 59.995172522 60.008036026 60.083105874 
60.108759786 60.162579854 60.185832107 60.192824471 60.212770619 60.268375541 60.34686924 60.465986819 60.537737091 
60.600386273 60.628530272 60.658356023 60.689620159 60.689928381 60.696169795 60.703687439 60.718739564 60.729443883 
60.789859041 60.909384926 60.921488505 60.946493114 60.970837218 60.992187042 61.036109022 61.19371858 61.268363173 
61.43693631 61.550401494 61.576052243 61.712599224 61.727093334 61.758365477 61.800897539 61.894089057 61.956808797 
62.008508194 62.009064698 62.09798502 62.126815704 62.138681027 62.265248812 62.297951084 62.3647387 62.645957956 
62.766055577 62.833442588 63.060005882 63.091822706 63.247749373 63.260558817 63.444201855 63.465149124 63.593996074 
63.808307088 63.83586887 63.972413933 64.047894469 64.060801427 64.193733039 64.194507294 64.375984097 64.433490428 
64.619443932 64.6634531 64.770816433 64.820902328 64.946282083 65.062632374 65.088616919 65.24210293 65.642371464 
65.841192792 65.938357249 66.046244485 66.052265893 66.064581166 66.075175765 66.31073126 66.314003676 66.455927877 
66.539080705 66.551174075 66.677281314 66.974792221 67.058918647 66.989399333 66.97313818 65.52123417 
EdgeArray 2 278 int
30778 30778 32076 32956 32763 31899 30634 30946 30634 
30636 30636 30636 30637 30637 29704 30088 30088 30088 
29912 29917 29917 29917 29921 29922 29549 29922 29196 
29549 29196 29196 30954 30781 30781 27559 27559 27559 
29174 29173 29173 29173 28986 28985 28986 28986 29733 
29733 29737 29737 29744 29744 29743 29741 28991 28991 
28988 28990 29375 29375 29373 29375 29373 29373 28618 
28618 27784 27784 27783 27783 26825 26825 27338 27338 
28236 28237 28237 26833 27358 27358 27801 27801 27799 
27799 27353 27351 27351 27351 26314 26314 26310 24917 
25937 25937 26855 26855 27346 27346 26304 26303 25427 
25427 24920 24920 24903 24903 24214 24214 22263 22263 
24687 24897 25271 24897 25271 25272 25272 25272 24684 
24684 23223 23223 23224 23224 23415 23415 23411 23411 
23249 23249 21824 21824 22792 22792 21629 21629 18274 
18274 22236 22236 21281 21281 19629 19629 20556 20556 
19966 19966 19329 13998 18048 18048 19327 22988 22991 
22991 20573 22989 21869 21869 22981 22981 20793 21318 
21877 21318 22972 21877 23435 23435 18962 18962 16385 
16385 21325 21325 22477 22477 16383 16383 22487 22487 
14037 14037 15785 15784 14223 14223 14713 14713 14715 
14715 14714 14714 10125 10125 10366 10366 10616 10790 
10790 10790 12722 12722 12721 12723 12723 12723 10627 
11036 10627 10627 11910 11910 11909 11909 11914 11913 
11913 11913 9167 9167 11048 11048 9693 3247 5502 
9902 9902 9902 10635 10636 10636 10636 9382 9382 
10630 10630 10617 10617 9377 9377 7703 10632 7703 
7703 7295 8276 8276 8525 8525 8525 3160 3160 
9790 9790 9791 8873 6169 8873 6169 6169 9491 
9491 9097 9097 8396 8855 9380 9381 9381 9381 
9495 9495 9688 9688 9483 9483 9692 9692 9691 
9691 9484 9484 9479 9479 9770 9770 9765 9768 
9765 9765 9774 9774 9775 9773 9775 9775 9777 
9777 10108 10108 10107 10107 7877 7877 8397 8397 
8178 8178 4973 4973 10114 10114 10115 10115 8863 
8863 11731 11731 11730 11730 12156 12156 12154 14082 
14082 14082 14080 14080 14077 14077 14564 14564 14562 
14559 14558 14559 15105 14553 15105 15105 15104 15102 
15102 15102 14557 14557 14572 14572 12593 12593 10884 
10884 15110 13054 13054 13054 3732 3732 15123 15123 
15113 15122 15113 15113 15118 15118 15119 15119 10861 
10861 16244 16244 16246 16246 16250 16250 16242 16242 
16214 16214 16218 16218 16219 16219 15649 15647 15652 
15652 15650 15650 10373 10373 11626 11626 18795 18795 
18796 18796 11286 10041 11286 11286 10043 12047 12047 
15634 15634 15634 15632 15632 6956 15625 6956 6956 
16262 16262 19439 16261 19439 19439 19438 16258 16258 
16258 16887 12045 17552 17546 17550 17553 17488 16891 
14901 13078 16911 9818 7128 19440 19452 20051 19455 
20050 20057 19456 20054 7665 14879 11767 14879 20068 
20070 20062 20063 20062 20060 20063 20100 19524 20098 
20100 20656 18814 20662 20664 20665 20665 20661 1368 
1368 20084 20091 20085 20086 21177 21179 21179 21158 
911 21157 21163 9189 9189 22035 22035 11558 11558 
22832 22832 22836 22836 10713 10713 17216 18402 21686 
18402 21687 21690 22828 21690 22828 22825 22825 22824 
20076 20076 23107 19804 23105 23108 23105 12815 20405 
20405 20270 23106 23786 20270 23787 23787 16569 16569 
21112 21112 15707 22043 21241 21241 25325 23557 24247 
22603 24247 24247 25328 25328 25333 25333 25042 25042 
22278 25043 22278 22278 21921 21921 24259 24259 24497 
24258 24497 25522 25522 11395 20916 20916 
EdgePCoordArray 1 278 double
0 0.34 0.968 0.748 0.044 0 0 0.324 0 
0.084 0 0.34 0.648 0.984 0 0.772 0.064 0 
0.2 0 0.796 0 0 0 0 0.016 0 
0.988 0 0.988 0 0 0 0 0 0 
0.22 0.38 0 0 0 0.056 0 0 0.104 
0 0 0 0.868 0 0 0 0 0 
0.028 0.392 0.092 0 0 0 0 0 0 
0 0 0 0 0 0 0 0 0 
0 0.848 0 0.016 0 0.864 0 0 0.528 
0.372 0.688 0 0 0 0 0 0 0 
0 0.156 0 0 0 0 0 0 0.176 
0 0 0.012 0 0.652 0 0 0 0.024 
0 0 0 0.932 0.1 0 0.796 0 0 
0 0 0 0.94 0 0.108 0.024 0 0 
0 0.392 0.984 0 0 0 0.992 0.112 0 
0 0 0 0 0 0 0 0 0.984 
0 0 0.996 0 0 0 0 0 0 
0 0 0 0 0 0 0 0 0.028 
0 0 0 0 0.016 0.98 0.204 0 0.324 
0 0 0 0 0 0.064 0 0 0 
0.94 0 0 0 0 0 0 0 0 
0 0 0 0.032 0 0 0 0 0 
0 0.628 0 0.968 0.02 0 0 0.972 0 
0 0.208 0 0.184 0 0.844 0.156 0.644 0.392 
0.516 0.488 0.448 0.772 0.32 0.64 0.148 0.796 0.504 
0.996 0.992 0.928 0.304 0.872 0.892 0.048 0 0.824 
0.664 0.58 0.672 0 0.952 0.084 0 0 0 
0 0 0 0.968 0.916 0.996 0.992 0.74 0.756 
0 0.828 0.244 0.252 0 0.188 0.896 0 0 
0 0.928 0 0.964 0.396 0 0 0 0 
0.16 0 0 0 0.364 0.824 0.004 0 
CurvatureArray 1 278 double
0 0.00046771415106 0.0018815786649 0.0032763701489 0.004654606085 0.0059921449785 0.0072575232627 0.0084285375888 0.0094956711991 
0.010411323229 0.011167384197 0.011732350397 0.012091696065 0.012239802927 0.012179993431 0.011913619026 0.011469768871 0.010871337685 
0.010150684958 0.0093544962781 0.0085055821558 0.0076509381484 0.0068196210643 0.006033004497 0.0053125977175 0.0046708219013 0.004112370473 
0.0036434187376 0.0032547175534 0.0029473377536 0.0027047400467 0.0025223958079 0.0023889372232 0.0022915302811 0.0022234463493 0.0021764675515 
0.0021460975966 0.0021252984372 0.0021133198866 0.0021040447899 0.0021006538651 0.0020930664173 0.0020872388291 0.0020799580295 0.0020687914524 
0.002051977056 0.0020344170934 0.0020093220019 0.0019797261811 0.001948560532 0.0019143023068 0.0018750928686 0.0018377412976 0.0018015337987 
0.0017672973391 0.0017328739521 0.001709572048 0.001689107929 0.0016761444082 0.0016748486465 0.0016801060528 0.0016957827611 0.001723700037 
0.0017575190489 0.0018017777242 0.0018538301124 0.0019117133649 0.0019765808882 0.0020439560312 0.0021137628341 0.0021856941451 0.0022548576912 
0.0023238513942 0.0023876462663 0.0024469041363 0.0024998124293 0.0025460503508 0.0025840118381 0.0026151503446 0.0026369840322 0.0026514731379 
0.0026595618816 0.0026601613885 0.0026554612338 0.0026465147651 0.0026335900356 0.0026184608534 0.0026024909583 0.0025869958196 0.0025710004113 
0.0025579156999 0.0025464683788 0.0025382262448 0.0025328430307 0.0025315987733 0.002532176333 0.0025368012056 0.0025427782539 0.0025505589565 
0.0025588869669 0.002567583863 0.0025740955346 0.0025782973198 0.0025782716402 0.0025729182754 0.0025626235041 0.0025434608816 0.0025174690993 
0.0024833990033 0.0024399383358 0.0023879282738 0.0023278923988 0.0022599144185 0.0021849197315 0.0021043413547 0.0020167771237 0.0019254665065 
0.0018296284407 0.0017306847518 0.0016289866577 0.0015252135106 0.0014196580024 0.0013134046226 0.0012074922914 0.001102627392 0.0010010361462 
0.00090770373755 0.00082362828592 0.00076180814795 0.00072636133097 0.00072994791671 0.00077518777262 0.00086304873846 0.00098688749113 0.0011420888491 
0.0013239888357 0.0015293720128 0.0017575879146 0.0020090309018 0.0022827106207 0.0025806064387 0.002904793773 0.0032552330525 0.0036350106511 
0.0040446817978 0.0044833107365 0.0049529450823 0.0054502446462 0.0059708607328 0.0065099903561 0.0070590331328 0.0076072094522 0.0081444055581 
0.0086495814208 0.0091109028843 0.0095099434496 0.009828867462 0.010055489867 0.010181784276 0.010195757742 0.010104146266 0.0099103461459 
0.0096242280309 0.0092649144259 0.0088435142516 0.0083862157344 0.0079064371526 0.0074255816613 0.0069525570861 0.0065057683889 0.0060889322278 
0.0057073286375 0.0053664506861 0.005064879698 0.0048028176694 0.0045778379846 0.0043865602829 0.0042271414931 0.0040944690891 0.0039875906315 
0.0039009373913 0.003833247775 0.0037816913044 0.003742000966 0.0037102127929 0.003685667744 0.0036639855257 0.0036396391192 0.0036098259852 
0.0035698699126 0.0035168311511 0.0034467469945 0.0033560006925 0.0032431413799 0.0031057380338 0.0029470198656 0.0027662898597 0.0025665914674 
0.0023552869799 0.0021339567311 0.001913300879 0.0016979860079 0.0014948276899 0.001313507288 0.001159578654 0.0010386910877 0.00095351588547 
0.00090504504635 0.00088811990755 0.00089596757155 0.00091866294484 0.00094952824879 0.00098542972919 0.0010207033148 0.0010550735986 0.0010851078522 
0.001113202105 0.0011360943011 0.0011562301152 0.0011707157163 0.001180740864 0.0011865271426 0.0011865508067 0.001182160269 0.0011715610136 
0.0011558363352 0.0011350344333 0.0011101593939 0.0010813513707 0.0010511183158 0.001018995339 0.00098995160763 0.00096457494716 0.00094576850909 
0.0009361859778 0.000938378354 0.00095372926205 0.00098236828724 0.0010265133593 0.0010829704359 0.0011529702853 0.0012340158724 0.001325671546 
0.0014267960796 0.0015352427462 0.0016517024101 0.0017719500566 0.0018971961356 0.0020242118215 0.0021510781868 0.0022761322759 0.0023962749582 
0.0025096025452 0.0026138860977 0.0027063332384 0.0027852252571 0.0028492410521 0.0028967634507 0.0029267784816 0.0029392549594 0.0029333301953 
0.0029105118938 0.0028680935314 0.0028093187682 0.0027332729569 0.0026388276758 0.0025275187758 0.0023984851285 0.0022523151158 0.0020867764491 
0.0019058337934 0.0017049883488 0.0014887525291 0.0012536773774 0.0010074045167 0.00074394213438 0.00047242539795 0 
TorsionArray 1 278 double
0 0 8.8461469351e-05 0.00095079854138 0.0015725181961 0.0014409554736 0.0021569286044 0.0027791881339 0.0034036606094 
0.0041641202219 0.004856060135 0.0058369348597 0.0069094539426 0.0081117419945 0.0094702608414 0.011178098485 0.013181143946 0.01543352028 
0.018247312123 0.021388862144 0.025213697825 0.029870424348 0.034970534404 0.040675059434 0.047109009027 0.053566238481 0.059715871669 
0.064812659416 0.068146509607 0.068958336597 0.06642314581 0.061656098687 0.054507469728 0.045953307964 0.037027354754 0.028731247059 
0.020768167596 0.013934260964 0.0082944479642 0.0034930890421 -0.00036211526213 -0.0037294741555 -0.0062757335841 -0.0086119930421 -0.01074209466 
-0.012364879969 -0.014014668966 -0.015727949987 -0.017292380943 -0.018981784828 -0.02099329729 -0.022850964776 -0.024658765383 -0.026689693337 
-0.02893939814 -0.030738342137 -0.032015327314 -0.033683689345 -0.034147713346 -0.03416491329 -0.034066708637 -0.032504879861 -0.030926961411 
-0.02928224372 -0.02670773262 -0.024460478934 -0.02182903878 -0.019447168869 -0.017448400245 -0.015111007413 -0.013520685872 -0.011742926 
-0.010039659519 -0.0089058013463 -0.0075005478484 -0.006274713494 -0.0052384293329 -0.0040550874571 -0.0030140271588 -0.0020385362144 -0.00077755333219 
0.00021634823406 0.0012032721664 0.0023895243859 0.0033837126332 0.0043377064652 0.0054154040444 0.0064762478514 0.0071726480043 0.0078883853163 
0.0086713896213 0.0090972841229 0.0094360647636 0.0096675603159 0.0095163460397 0.0092858639453 0.008826880285 0.008026694114 0.0071420361882 
0.0060391575442 0.0046259531678 0.002983390554 0.0011904414595 -0.00086988201577 -0.0030896494951 -0.0054834482512 -0.0079650120509 -0.010582765053 
-0.013396041178 -0.016255969482 -0.01913548729 -0.021906234497 -0.02472485044 -0.027548018169 -0.030257011929 -0.032840466413 -0.035354114553 
-0.038328439581 -0.0410667416 -0.044362270591 -0.048704432188 -0.053471812348 -0.060473736483 -0.069920842602 -0.0825532083 -0.099685252712 
-0.12326308951 -0.15329772554 -0.18458660141 -0.21183153706 -0.21926272959 -0.20363869778 -0.17218948568 -0.13779593696 -0.10737306355 
-0.082173421698 -0.063130464734 -0.049224513598 -0.037525562428 -0.028382375763 -0.021817592398 -0.016214070325 -0.011698632228 -0.0084536511317 
-0.0054321438269 -0.0033270301849 -0.0019370524603 -0.00058747617194 0.00026330357111 0.00069248366755 0.00083003221544 0.00033378415099 -8.0404420122e-05 
-0.00066167329879 -0.0017558228764 -0.0028265546199 -0.0042598237088 -0.0060054871564 -0.0075752369877 -0.0094205795956 -0.011661912275 -0.013772773373 
-0.016155328248 -0.018375782652 -0.02059072251 -0.022829624913 -0.024802670737 -0.026391366386 -0.027431770295 -0.028046155146 -0.027665018134 
-0.026538438049 -0.0245324256 -0.021798919569 -0.018224175363 -0.013962490306 -0.0090969571551 -0.0041931319566 0.00089212958069 0.0060471654965 
0.010632857769 0.014866820727 0.018633653717 0.021863867092 0.024259551497 0.025908910209 0.027061012596 0.027149673099 0.026874768465 
0.025607479341 0.023621645292 0.021480408803 0.018076372324 0.014422322145 0.0097409278438 0.0038056928833 -0.0021300993339 -0.0097774427056 
-0.019213446947 -0.030083920449 -0.043340348509 -0.058840966271 -0.077281677956 -0.098673468967 -0.11997749213 -0.13701531053 -0.14580638483 
-0.1425092316 -0.12767819172 -0.10635757987 -0.084361972353 -0.064265695597 -0.047696680215 -0.034624414876 -0.024376389227 -0.016098587488 
-0.0096649181192 -0.004350511588 0.00013392472318 0.0035480788107 0.0070066787295 0.01010338464 0.013128691191 0.016134446048 0.019157893333 
0.02256704814 0.026383644751 0.030558099262 0.0353975201 0.040503951961 0.046218305486 0.052328847747 0.058128307079 0.063249172134 
0.067086302149 0.068944827041 0.068535128012 0.06571960631 0.061110935127 0.055511220817 0.049331957149 0.043439226046 0.037762126945 
0.032834480595 0.028370863272 0.024738898821 0.021563945039 0.018529442709 0.016108243711 0.013775146351 0.011643551733 0.009675685795 
0.0076181493066 0.0056960672514 0.003773940152 0.0018616373039 -2.5702636638e-06 -0.0017436491887 -0.0034507173122 -0.0050191437965 -0.0065099662571 
-0.0077813565733 -0.0088097084379 -0.0098098532886 -0.010415292645 -0.010822546669 -0.01107059389 -0.0110633564 -0.010794723882 -0.010412693918 
-0.0098322994362 -0.0090780784929 -0.0081915429188 -0.0072564962473 -0.0062233864188 -0.0049535256991 0 0 
TangentArray 3 278 double
0.095739164705 -0.20663783198 -0.97372214658 0.095739164705 -0.20663783198 -0.97372214658 0.095217890577 -0.20566969128 -0.97397819863 
0.09407335345 -0.20354527308 -0.97453554372 0.092312376535 -0.20028217018 -0.97537965811 0.089944238995 -0.1959089979 -0.97648845278 
0.086992926617 -0.19047620474 -0.97782976338 0.083490265922 -0.18405806346 -0.97936306076 0.079472851611 -0.17674151533 -0.98104357835 
0.074989008089 -0.16863559615 -0.98282179686 0.070096474191 -0.15987060411 -0.98464606547 0.064861681476 -0.15059035661 -0.98646617112 
0.059358544992 -0.1409561856 -0.98823474786 0.05366536864 -0.1311357516 -0.98991082571 0.047861736414 -0.1212963388 -0.99146177555 
0.042028321526 -0.11160300073 -0.99286373205 0.036240564294 -0.10220963817 -0.99410251552 0.03056584497 -0.093250898289 -0.99517335128 
0.025064356701 -0.084840842483 -0.99607921847 0.019781332029 -0.077064690849 -0.99682984121 0.014752213061 -0.069981522427 -0.99743920052 
0.0099993195696 -0.063624609493 -0.99792380605 0.0055291286435 -0.057998891199 -0.99830133595 0.0013403447812 -0.053088540101 -0.9985889096 
-0.0025769220447 -0.04885996986 -0.99880231418 -0.0062413540031 -0.045266388933 -0.99895545423 -0.0096749399605 -0.042251544675 -0.9990601596 
-0.012903886895 -0.039753631339 -0.99912618748 -0.015955077373 -0.037709211714 -0.99916137378 -0.018855934795 -0.036056223316 -0.99917185833 
-0.02163284102 -0.034735524823 -0.99916238095 -0.02430858325 -0.0336917516 -0.9991366066 -0.026906981033 -0.032875358564 -0.99909720507 
-0.02944699374 -0.032242540714 -0.99904619169 -0.031944368871 -0.031754634954 -0.9989850852 -0.034412647831 -0.031378243836 -0.99891499913 
-0.036863154686 -0.031085708118 -0.99883671667 -0.039303892469 -0.030852682131 -0.99875087787 -0.041740702301 -0.030659123626 -0.99865796543 
-0.044177096516 -0.030488846559 -0.99855836804 -0.046615726276 -0.030328119032 -0.99845239208 -0.049055860975 -0.030166031374 -0.99834038937 
-0.051494715872 -0.029993118888 -0.99822277426 -0.053931334099 -0.029802099275 -0.99809981769 -0.056361618287 -0.029586534402 -0.99797194598 
-0.058779032615 -0.02934093493 -0.99783973406 -0.061179030387 -0.029061325822 -0.99770364617 -0.06355585929 -0.028743969744 -0.99756425204 
-0.065901470212 -0.028385672448 -0.99742230265 -0.068211248604 -0.027983578969 -0.9972783688 -0.070481159589 -0.027534676418 -0.99713301406 
-0.07270476584 -0.027035900423 -0.99698699947 -0.074878374409 -0.026484594605 -0.99684090772 -0.077001519981 -0.025877579228 -0.99669509722 
-0.079073270607 -0.02521126279 -0.99654995364 -0.08109123953 -0.024481907273 -0.996405965 -0.08305834747 -0.023685234999 -0.99626317836 
-0.084978919032 -0.02281681682 -0.99612146658 -0.086854346262 -0.021871728402 -0.99598089843 -0.08869164068 -0.020844660457 -0.99584099785 
-0.090497031859 -0.019730250483 -0.99570126265 -0.092275698651 -0.01852266271 -0.99556120174 -0.094037442487 -0.017215998354 -0.99541979527 
-0.095789219366 -0.015804661797 -0.99527616174 -0.097537157294 -0.014282862371 -0.99512938997 -0.099289976882 -0.012645177935 -0.9949781907 
-0.10105377126 -0.010886713514 -0.99482139843 -0.10283560776 -0.0090033584043 -0.99465761813 -0.10464103185 -0.0069917666312 -0.99448547986 
-0.10647327458 -0.0048498542144 -0.99430373665 -0.10833718798 -0.0025767094622 -0.99411086619 -0.11023393328 -0.0001725201468 -0.99390565457 
-0.11216511713 0.0023604776338 -0.99368677894 -0.11413190534 0.0050183601286 -0.99345293006 -0.11613232106 0.0077957857886 -0.99320315632 
-0.11816557584 0.010685333118 -0.99293641304 -0.1202299111 0.01367812793 -0.99265184093 -0.12232245255 0.016763962216 -0.99234882333 
-0.12444130356 0.019931270361 -0.99202676699 -0.12658378089 0.023167473899 -0.9916853405 -0.12874685742 0.026459049205 -0.99132445013 
-0.13093014352 0.029792515107 -0.99094384481 -0.1331318454 0.033154431846 -0.99054363629 -0.13535042577 0.036531331346 -0.99012409529 
-0.13758648609 0.039910520608 -0.98968535868 -0.13983986692 0.043280239669 -0.98922779605 -0.1421106915 0.046629725644 -0.98875184958 
-0.14440065532 0.049949413485 -0.98825781395 -0.14671208566 0.053231199703 -0.98774592042 -0.14904518958 0.056468351636 -0.98721672227 
-0.15140094775 0.059655461627 -0.98667065372 -0.15378133981 0.062788173285 -0.98610797828 -0.15618640792 0.065863622936 -0.98552919244 
-0.1586161909 0.068880106646 -0.98493473636 -0.16107054506 0.071836970718 -0.98432501195 -0.1635471351 0.074734608923 -0.98370070287 
-0.16604328813 0.077573878409 -0.98306252083 -0.16855542987 0.080356549319 -0.98241126421 -0.17107774535 0.083084783881 -0.98174809586 
-0.17360420841 0.085761029216 -0.98107421977 -0.17612780029 0.088388173324 -0.98039100811 -0.17863972974 0.090969264865 -0.97970017853 
-0.18112988256 0.093507195387 -0.97900376407 -0.18358764032 0.096004712818 -0.97830397803 -0.18600110573 0.098464227894 -0.97760338813 
-0.18835869736 0.10088840549 -0.97690456584 -0.19064793306 0.1032787181 -0.97621046502 -0.19285649587 0.10563568855 -0.97552420437 
-0.19497336422 0.10796014452 -0.97484870336 -0.19698714638 0.11025156889 -0.97418717694 -0.19888747879 0.11250838558 -0.97354282595 
-0.20066579032 0.11472861963 -0.97291859086 -0.20231524337 0.11690913832 -0.97231722996 -0.20383036869 0.11904612994 -0.97174132347 
-0.20520756745 0.12113561386 -0.97119308961 -0.20644453453 0.12317215505 -0.97067464909 -0.207540864 0.12514974068 -0.97018778191 
-0.20849791399 0.1270624139 -0.96973386186 -0.20931715155 0.12890396621 -0.96931424087 -0.21000212595 0.13066779994 -0.96892983913 
-0.21055650654 0.13234731852 -0.96858151171 -0.2109837414 0.13393612482 -0.9682700942 -0.21128852021 0.13542754013 -0.96799614803 
-0.21147430946 0.13681563988 -0.96776035108 -0.21154412377 0.13809437284 -0.96756344902 -0.21150074508 0.13925752644 -0.96740621052 
-0.2113464136 0.14030025697 -0.96728926974 -0.21108169922 0.14121648703 -0.96721374062 -0.21070639635 0.14200150652 -0.96718063808 
-0.2102200364 0.14265126703 -0.9671908562 -0.20962030256 0.14316096659 -0.96724571149 -0.20890413585 0.1435269325 -0.96734641245 
-0.20806726418 0.14374552928 -0.96749430819 -0.20710435396 0.14381353492 -0.96769078416 -0.20600912866 0.14372764553 -0.96793729281 
-0.20477397932 0.14348475646 -0.96823537534 -0.20339023392 0.14308288351 -0.96858644487 -0.20184815108 0.14251987437 -0.96899195524 
-0.20013680239 0.14179193717 -0.96945361255 -0.198243917 0.14089719152 -0.96997285054 -0.19615626042 0.13983415627 -0.9705509416 
-0.19385965629 0.13859941481 -0.97118928942 -0.19133904976 0.13719040169 -0.97188896574 -0.18857861221 0.13560473003 -0.97265074112 
-0.18556245221 0.13383856492 -0.97347512288 -0.18227492481 0.13188984245 -0.97436180203 -0.17870119917 0.12975584875 -0.97530984878 
-0.17482825967 0.12743313126 -0.97631750813 -0.1706457064 0.12492097663 -0.97738160024 -0.1661469274 0.12221960183 -0.97849760728 
-0.16133022312 0.1193304966 -0.97965952845 -0.1562001279 0.11625755472 -0.98085967448 -0.15076832971 0.11300518784 -0.98208896658 
-0.14505485015 0.10958262288 -0.98333653406 -0.13908846976 0.10600323118 -0.98459012414 -0.1329065229 0.10228157632 -0.98583687054 
-0.12655506728 0.098437279685 -0.98706327908 -0.12008788265 0.094492156281 -0.98825610691 -0.11356343891 0.090468921864 -0.98940321382 
-0.1070437692 0.086394502658 -0.99049362511 -0.10059179652 0.08229587955 -0.99151837032 -0.094267635367 0.078197442238 -0.99247104388 
-0.088126706534 0.074124018572 -0.99334752905 -0.082216790837 0.07009650338 -0.9941463069 -0.076576678592 0.066134178278 -0.99486797253 
-0.071234980292 0.062252395028 -0.99551505106 -0.066209391857 0.058461793554 -0.99609162988 -0.061507581028 0.054769615805 -0.99660278279 
-0.057127884446 0.051180302492 -0.99705415172 -0.053060002961 0.047695158992 -0.99745165692 -0.049286629214 0.044312005091 -0.99780121988 
-0.045786074714 0.041028872275 -0.99810834432 -0.042532282445 0.037841634365 -0.9983781927 -0.039496729627 0.034745206956 -0.99861543096 
-0.036650239299 0.031734187514 -0.99882415935 -0.033963078857 0.028803128687 -0.99900795245 -0.031406288817 0.025947327789 -0.99916984602 
-0.028951667129 0.02316265527 -0.9993124098 -0.026573503169 0.020445323481 -0.99943776078 -0.024247770157 0.017792438858 -0.99954763506 
-0.02195246043 0.01520233828 -0.99964342562 -0.019668992759 0.01267383918 -0.99972621478 -0.017380773217 0.010206118842 -0.9997968513 
-0.015074277434 0.0077996528707 -0.99985595541 -0.012739509822 0.0054564937821 -0.99990396117 -0.010369512281 0.0031784151048 -0.99994118372 
-0.0079601852622 0.00096714282912 -0.99996784953 -0.005511348975 -0.0011739138538 -0.99998412335 -0.0030273772328 -0.0032417095545 -0.9999901631 
-0.00051556903768 -0.0052325453886 -0.99998617723 0.0020126975025 -0.0071437712627 -0.99997245741 0.0045427191263 -0.0089733903554 -0.99994941971 
0.0070571607755 -0.010718760419 -0.99991764894 0.009535110729 -0.012379571024 -0.99987790649 0.01195415306 -0.013955439608 -0.99983115771 
0.014290850406 -0.015448433389 -0.99977853423 0.016521335688 -0.016862830847 -0.99972130637 0.018622847598 -0.018201647011 -0.9996608873 
0.020574701588 -0.019471122801 -0.99959869799 0.022358068689 -0.020678780232 -0.99953614483 0.023958018042 -0.021832438394 -0.99947454095 
0.025363956714 -0.022941330519 -0.99941501142 0.026568736107 -0.024013650826 -0.99935851767 0.027569785682 -0.025058542677 -0.99930574718 
0.02836802607 -0.02608597766 -0.99925711249 0.028967923105 -0.027104349015 -0.999212797 0.029377403545 -0.028120646452 -0.99917275654 
0.029606570875 -0.029141855923 -0.99913672898 0.029667031209 -0.030174778914 -0.99910427383 0.029571712893 -0.031225608269 -0.9990748096 
0.029334230832 -0.032299186912 -0.99904767926 0.028968480665 -0.033398831332 -0.99902219455 0.028488510438 -0.034528757959 -0.9989975824 
0.02790786753 -0.035692271378 -0.99897307906 0.027239666758 -0.036891812211 -0.99894794396 0.026496733941 -0.038128856888 -0.99892147507 
0.025691666264 -0.039405088898 -0.99889297588 0.024836379845 -0.040721414154 -0.9988618126 0.023942883765 -0.042078169573 -0.99882739548 
0.023023254469 -0.043475021274 -0.99878919311 0.022089244094 -0.044909536594 -0.99874681417 0.021152966259 -0.04638016842 -0.99869987083 
0.020226874077 -0.047883865896 -0.99864809065 0.019323684357 -0.049416891015 -0.99859129082 0.018456335758 -0.05097454467 -0.9985293984 
0.01763789411 -0.05255075502 -0.99846247943 0.016881509561 -0.054139559191 -0.99839066641 0.01620030486 -0.055734776703 -0.99831417139 
0.01560702703 -0.057329727007 -0.99823330094 0.015114198459 -0.05891821909 -0.998148388 0.014733252153 -0.060493557469 -0.9980598483 
0.014474892129 -0.062050212796 -0.9979680599 0.014349173746 -0.063584475261 -0.99787329643 0.014364800773 -0.065092389606 -0.99777584322 
0.014529375176 -0.06657157731 -0.99767586036 0.014849749676 -0.068021240694 -0.99757335357 0.015332068293 -0.069441861179 -0.99746817272 
0.015981727443 -0.070834191763 -0.99736006621 0.016803701335 -0.072201179584 -0.99724852734 0.01780270731 -0.073545978378 -0.99713291625 
0.018983377865 -0.074871914643 -0.99701245116 0.020350476925 -0.076183221993 -0.99688613932 0.021909008333 -0.077483460601 -0.99675288246 
0.023664070078 -0.078776884578 -0.9966113657 0.025620508189 -0.080066570173 -0.99646020186 0.027783219485 -0.081356088579 -0.99629778659 
0.030156381744 -0.08264734974 -0.99612248656 0.032743091789 -0.083941829496 -0.99593255756 0.03554532227 -0.085242264295 -0.99572600972 
0.038562776589 -0.08654948777 -0.99550092839 0.041792974368 -0.087865163947 -0.99525527392 0.045230546074 -0.089190982656 -0.99498701816 
0.048867041787 -0.090528673857 -0.99469421001 0.052690839431 -0.091881671567 -0.99437489604 0.056686877063 -0.093253543804 -0.994027351 
0.060836528077 -0.094648707297 -0.99365010897 0.065118461787 -0.096072535197 -0.99324199162 0.069508634158 -0.097530756629 -0.99280224682 
0.073980384742 -0.099028530339 -0.99233071748 0.078505303128 -0.10057097625 -0.99182780568 0.083053445184 -0.1021618976 -0.99129464435 
0.087594276955 -0.10380412543 -0.99073303477 0.092095757692 -0.10549740449 -0.99014578172 0.096525793367 -0.1072382483 -0.98953662353 
0.10085331823 -0.10902175747 -0.98890993756 0.10504623463 -0.1108372676 -0.98827141449 0.10907307063 -0.11267047434 -0.98762767756 
0.11290344742 -0.1145038096 -0.98698616462 0.11650792418 -0.11631559202 -0.98635520309 0.11985726938 -0.11807980446 -0.98574408178 
0.12292470299 -0.11976875821 -0.98516240385 0.12568458927 -0.12135221042 -0.98462024408 0.12811260955 -0.12279839716 -0.9841278946 
0.13018641402 -0.12407538617 -0.98369547938 0.13188734705 -0.12515370494 -0.98333223166 0.13319857162 -0.12600547426 -0.98304667284 
0.13410563446 -0.12660596625 -0.98284617724 0.13410563446 -0.12660596625 -0.98284617724 
NormalArray 3 278 double
0.46031523824 -0.85814490261 0.22737019938 0.46031523824 -0.85814490261 0.22737019938 0.46211369571 -0.85747531209 0.22624548921 
0.46219298256 -0.85806500886 0.22383495581 0.46374300041 -0.85819254176 0.22010904306 0.46561671072 -0.85844449757 0.21511420988 
0.46727622018 -0.85907372244 0.20891451234 0.47024777654 -0.85920811694 0.20156497823 0.47328106269 -0.85946900782 0.19317882984 
0.47728231429 -0.85930078365 0.18385797693 0.48167298652 -0.85895349419 0.17375278091 0.48678860077 -0.85817459828 0.16301293513 
0.49273967621 -0.8568321189 0.15181018249 0.49952219688 -0.85486040279 0.14032557344 0.50730816784 -0.85209478115 0.12873580225 
0.51615699196 -0.84843502591 0.11721760305 0.52655020645 -0.84351953266 0.10592298198 0.5384593679 -0.83727990271 0.094994071623 
0.55230475912 -0.82934489798 0.084536934194 0.5685176976 -0.81927984339 0.074620142892 0.58712352364 -0.80685976543 0.065293850543 
0.60908163883 -0.79108957943 0.056540556678 0.63444375522 -0.77145640235 0.048333639701 0.66346663554 -0.74710301669 0.040609185736 
0.69613088006 -0.717142851 0.033285568728 0.73261172716 -0.68014071467 0.02624243641 0.77123151321 -0.63625785477 0.019439528644 
0.81157239488 -0.58411253026 0.012759305038 0.8505944047 -0.52578508911 0.0062608922497 0.88730153991 -0.46118972974 -0.00010222475023 
0.91863701235 -0.39505461638 -0.0061554549356 0.94403485451 -0.32963269283 -0.011852480399 0.96316906321 -0.26835168885 -0.017109259876 
0.97655140796 -0.2141704104 -0.021871966684 0.98531342197 -0.16874235773 -0.026143396754 0.9907389449 -0.13243142383 -0.02997100346 
0.99396687531 -0.10446111974 -0.033432398151 0.99566783716 -0.085500218818 -0.036541355148 0.9965696825 -0.072766571937 -0.039419461395 
0.9968947008 -0.066565620403 -0.042071055405 0.99689915635 -0.064848135292 -0.044573438437 0.99661033138 -0.067568473193 -0.046929189362 
0.99606754771 -0.073701033712 -0.04916907604 0.99527701354 -0.082402004429 -0.051318378696 0.99413597839 -0.094057113288 -0.053356498382 
0.9926323786 -0.10780826899 -0.055302243104 0.990724084 -0.12328226877 -0.057160052364 0.98825470439 -0.1410087433 -0.058899690685 
0.98517538272 -0.16051884813 -0.060524083463 0.98135627026 -0.18191669099 -0.062017645591 0.97662119557 -0.20541832461 -0.063358916366 
0.97068237967 -0.23154805557 -0.064507486035 0.96359593866 -0.25921686645 -0.065494145902 0.95489634657 -0.28945286923 -0.066257103841 
0.94451840527 -0.32159221381 -0.066808907468 0.93179479355 -0.35673570568 -0.067067868596 0.91741353715 -0.39222692298 -0.067159829804 
0.90045990545 -0.42975155686 -0.066974308941 0.8812284244 -0.46797951417 -0.066570551686 0.8604059512 -0.50531046496 -0.066052502896 
0.83758667301 -0.54237824917 -0.065378895821 0.81348734713 -0.57797853219 -0.064646364063 0.789612395 -0.61025495138 -0.064040299627 
0.76476734698 -0.64117742864 -0.063422472254 0.74086025355 -0.66869640889 -0.063017437671 0.7179345972 -0.69326903997 -0.062832733195 
0.69595500441 -0.71532816862 -0.062866867438 0.67618351709 -0.73401183302 -0.063265157966 0.65735491299 -0.75086799776 -0.063888718202 
0.64036777386 -0.76532668238 -0.064839674847 0.6253572094 -0.77753100442 -0.066135450571 0.61092755279 -0.78879333774 -0.067620969901 
0.59905681532 -0.79768326365 -0.069515055272 0.58786188143 -0.80578591546 -0.071606332178 0.57808333623 -0.81261787448 -0.073971930124 
0.56972901122 -0.81825439354 -0.076606796221 0.56251179446 -0.82296099381 -0.079471276374 0.55636526349 -0.82682733721 -0.082548458626 
0.55179483096 -0.82954582415 -0.085884749279 0.54804076115 -0.83166210953 -0.08938377752 0.54576412002 -0.83275003596 -0.093106943451 
0.54507430689 -0.83275101828 -0.09705535286 0.54525252314 -0.83214850929 -0.10113626698 0.54703322445 -0.83044648069 -0.10541960941 
0.5502102784 -0.82776623087 -0.10987136374 0.55451314593 -0.82426711421 -0.1144504059 0.56010100925 -0.81980897544 -0.11916418603 
0.56710361886 -0.81425611643 -0.12401799197 0.57530065898 -0.8077087771 -0.12897939049 0.58394102873 -0.80066723757 -0.13395838772 
0.59374755063 -0.79254989518 -0.13902701092 0.60410055141 -0.78376910677 -0.14411284139 0.614649664 -0.77456620697 -0.1491743328 
0.62547370322 -0.76485282964 -0.15421671628 0.63617059781 -0.75494592876 -0.15919678116 0.64622533699 -0.74530287029 -0.16406232156 
0.65594174575 -0.73568470254 -0.16884443912 0.66454617342 -0.72683327786 -0.17346979445 0.67209471889 -0.71876535258 -0.17794678073 
0.67844173745 -0.71168558824 -0.18226473156 0.68336911876 -0.70587481425 -0.18640652922 0.68658031696 -0.70169467545 -0.19034718492 
0.68803791749 -0.69923926994 -0.19408314574 0.687619511 -0.69866540319 -0.1976007654 0.68504884022 -0.70025693743 -0.20086888284 
0.68040608579 -0.70390237026 -0.20388479972 0.67334907401 -0.7098708234 -0.20660212636 0.66411590577 -0.71781602901 -0.20902203759 
0.6521988002 -0.72806941467 -0.21107262361 0.63770679968 -0.74032073701 -0.21273279955 0.62036096047 -0.75457453545 -0.21393819008 
0.60029048971 -0.77043590383 -0.21466216728 0.57740661482 -0.78768003806 -0.21485287712 0.55153113355 -0.80611859003 -0.21444399624 
0.52264784386 -0.82541263599 -0.2133851252 0.49075154451 -0.84520868756 -0.21162513092 0.45597398651 -0.8650732318 -0.2091316027 
0.41806120148 -0.88479578083 -0.20581850753 0.37615536202 -0.90438156108 -0.20149723471 0.3315603133 -0.92278478459 -0.19630588368 
0.28140349854 -0.94065104446 -0.18970420017 0.22646243836 -0.95691985698 -0.18171172589 0.16478242213 -0.97124376704 -0.17184963876 
0.093395004971 -0.98279451154 -0.15934968195 0.010163788238 -0.9896036051 -0.14346219778 -0.089128813361 -0.98842147773 -0.12279673041 
-0.20765777593 -0.97349633336 -0.095828685823 -0.35174695146 -0.93419387055 -0.059631320326 -0.51369441681 -0.85785834842 -0.014039237272 
-0.68242210487 -0.72982529299 0.040683073794 -0.82771723817 -0.55259366913 0.097593086196 -0.92528941609 -0.34918750643 0.14801210029 
-0.97025141393 -0.1555024449 0.18555641568 -0.97757195502 0.0082225741234 0.21044111299 -0.96473063338 0.1358200697 0.22549437616 
-0.9438728971 0.23297873177 0.23414710046 -0.92224542452 0.30419610168 0.23859612039 -0.90208206349 0.35826980958 0.24060485088 
-0.88467032919 0.39909268914 0.24100505 -0.87083135223 0.42885871606 0.24027683541 -0.85992571278 0.45111579068 0.23879345029 
-0.85142259613 0.46800889134 0.2367429839 -0.84547692172 0.47991754753 0.23419633306 -0.84131593427 0.48858850273 0.23123315884 
-0.8385851492 0.49481869944 0.22788023657 -0.83741342844 0.49850088296 0.22413303986 -0.83689768027 0.50119224439 0.22001956032 
-0.83713979372 0.50273827639 0.21552538416 -0.83798983235 0.50338908553 0.21064773783 -0.839120885 0.50367637236 0.20539292171 
-0.84043158081 0.50375514009 0.19976365237 -0.84175042207 0.50389355232 0.19377181136 -0.84270263397 0.50469521605 0.18744335037 
-0.84367440202 0.50549983089 0.18078557557 -0.84418534745 0.5070781049 0.17384733155 -0.84425152336 0.50937374128 0.16666660431 
-0.84386755862 0.51236086254 0.15929183925 -0.84273424829 0.51648732606 0.15178876366 -0.84086108296 0.52168431496 0.14421551473 
-0.83834114195 0.52774587846 0.13663241739 -0.83480844405 0.53518645 0.12911361462 -0.83022949064 0.54397049328 0.12171727615 
-0.82465597514 0.55392544762 0.11449507041 -0.81767951334 0.56554764868 0.10749916531 -0.80973869097 0.57807588845 0.10075474949 
-0.80020203879 0.59227108703 0.094295581001 -0.78956071982 0.60731194618 0.088125307031 -0.77733145175 0.6236911617 0.082250525462 
-0.76426657798 0.64032804443 0.076658941372 -0.74994630334 0.6576405664 0.071340223815 -0.73520338693 0.67459892057 0.066274250035 
-0.72018560664 0.69105523421 0.061443919672 -0.70568352983 0.70624421179 0.056831936892 -0.69200150772 0.71999027446 0.052420587467 
-0.67994827393 0.7316744408 0.048196031707 -0.66996977653 0.74107480557 0.044143301598 -0.66277968617 0.74773189321 0.040250508897 
-0.65869440921 0.75152460224 0.036502705467 -0.65766489195 0.75259263046 0.03288194739 -0.66015162826 0.7505577606 0.029374746121 
-0.66583180392 0.7456500573 0.025961527954 -0.67425619097 0.73815091508 0.022623340062 -0.68531787933 0.72798706529 0.0193452071 
-0.69835281637 0.71557235077 0.0161107007 -0.71313535073 0.70090747217 0.012910732 -0.72861365741 0.68485576062 0.0097326966035 
-0.74474289625 0.66731911585 0.0065738956783 -0.76082758259 0.64894500138 0.0034314352697 -0.77620992377 0.63047447256 0.00030606814026 
-0.7911217688 0.61165230971 -0.0027926591859 -0.80427445586 0.59422909187 -0.0058639594073 -0.816313705 0.57754037182 -0.008891228804 
-0.82660049082 0.56266405493 -0.011865490898 -0.83466089207 0.55056594554 -0.014776158326 -0.84096539139 0.54080249633 -0.017603137738 
-0.84413821925 0.53573946701 -0.020344294048 -0.84450929652 0.53504757784 -0.022981243106 -0.8416978045 0.5393463942 -0.025500450147 
-0.83402214744 0.55102508644 -0.027900030264 -0.82073474254 0.57051272011 -0.030161541495 -0.79967474998 0.59956586611 -0.032265561154 
-0.76798291772 0.63955809296 -0.034171388951 -0.72216583487 0.69079300607 -0.035798459612 -0.65619814273 0.75368081438 -0.037003074501 
-0.5642160667 0.82477289776 -0.037548597859 -0.44383904369 0.89533596787 -0.037153841463 -0.29795714091 0.95391491108 -0.03560736709 
-0.13783914724 0.98990615675 -0.032957097987 0.019156868721 0.99937781311 -0.029614203357 0.15716543061 0.98722460236 -0.026203280739 
0.26994256578 0.9625970186 -0.023194632218 0.35706282561 0.93384727791 -0.020866243291 0.42164229011 0.90655662583 -0.019309669879 
0.46912416019 0.88293966898 -0.018440804607 0.50259974493 0.86432731415 -0.01821511472 0.52607843033 0.85023483192 -0.018499073739 
0.54032920648 0.84123261491 -0.019288240877 0.54890353495 0.83563627481 -0.020418754505 0.55080566611 0.83434495882 -0.021945566089 
0.5487218412 0.83566824462 -0.023726059807 0.54231238494 0.83978171396 -0.025767228092 0.53151743609 0.84658252206 -0.02805794852 
0.516941569 0.85547541974 -0.03054865727 0.4978319699 0.86663576261 -0.033253341468 0.47456395569 0.87947939256 -0.036125476061 
0.44632809173 0.89401176143 -0.039168928473 0.41240365763 0.91001520078 -0.042374019471 0.37186286753 0.92716070216 -0.045727892272 
0.32400181551 0.94477657411 -0.049193988958 0.26703828602 0.96224084829 -0.052755129497 0.20131483942 0.97790726139 -0.056300297944 
0.12449428552 0.99041815072 -0.059775075027 0.037495332168 0.99730834141 -0.063009302635 -0.058871030926 0.99609266362 -0.065830138925 
-0.16181511444 0.98447217453 -0.06804708892 -0.26782826781 0.96095587925 -0.069511273175 -0.37166217854 0.92571318874 -0.070159227694 
-0.46920132232 0.88030936641 -0.070039549894 -0.55570098832 0.82848506986 -0.069346237026 -0.63083660025 0.77290641303 -0.068270494922 
-0.69307929551 0.71773205036 -0.067095409782 -0.74440242981 0.66446389766 -0.065975383244 -0.78580215523 0.61504402084 -0.065083217982 
-0.8190278246 0.57011544174 -0.064512057959 -0.84589845657 0.52945481083 -0.064291558236 -0.86723565913 0.49370252015 -0.064499094035 
-0.88495580422 0.46110940463 -0.065048762744 -0.89904996534 0.43283709887 -0.066039425051 -0.91053446363 0.40789833361 -0.067423586259 
-0.919946587 0.38589069533 -0.069185607728 -0.92741240675 0.36717034975 -0.071359386665 -0.93344466472 0.35102703458 -0.073899112979 
-0.93808155895 0.33778749514 -0.076828359864 -0.94144025564 0.32751551954 -0.080148796055 -0.94374999254 0.31985781546 -0.083826782559 
-0.94493721157 0.3152310358 -0.087880943657 -0.94516337188 0.31329291289 -0.092269990686 -0.94435618844 0.31429886615 -0.096992845603 
-0.94269078571 0.31770004345 -0.1019841406 -0.93996311067 0.32398509808 -0.10725207131 -0.93641622686 0.33229941231 -0.11270204367 
-0.93174563973 0.34328433975 -0.11834663039 -0.92635048173 0.35564739407 -0.12405529444 -0.91994814782 0.36991950622 -0.12982667001 
-0.91270133365 0.38547998378 -0.13557823444 -0.90482037765 0.40169033545 -0.1412266214 -0.89626571772 0.41854236388 -0.14673122665 
-0.88725357556 0.4355122967 -0.15202016998 -0.8779364714 0.45229050386 -0.15703774165 -0.86861619017 0.46835149061 -0.1617182594 
-0.85925447841 0.48385251033 -0.16603761495 -0.85036490337 0.49800113125 -0.16992470213 -0.84186401579 0.51108641588 -0.17336566677 
-0.83430017015 0.52236109165 -0.17630120822 -0.8272920132 0.53257768106 -0.17874266006 -0.82181439636 0.5403692689 -0.18061603242 
-0.81723781307 0.54682454139 -0.18194855818 -0.81723781307 0.54682454139 -0.18194855818 
BinormalArray 3 278 double
-0.8825779817 -0.46998737485 0.012960466683 -0.8825779817 -0.46998737485 0.012960466683 -0.88169409976 -0.47163128314 0.013395790693 
-0.88177539716 -0.47148039447 0.01335614399 -0.88114746479 -0.47264427805 0.013657661473 -0.88040394852 -0.47401762534 0.014006366149 
-0.87982109816 -0.47509068066 0.014271663689 -0.87857635078 -0.47737201538 0.01481738093 -0.87731927003 -0.47966181978 0.015343959276 
-0.87554453977 -0.48287078906 0.016048674187 -0.87354314053 -0.48645686834 0.016795739902 -0.87110838616 -0.49077378023 0.017643021538 
-0.86814985724 -0.49595370123 0.018594397373 -0.86463726674 -0.502013054 0.019628820076 -0.86043458614 -0.50913817588 0.02075188759 
-0.85546220246 -0.51740001647 0.021946369086 -0.84937123897 -0.52728359342 0.023248882225 -0.84209692924 -0.53876398775 0.024619652046 
-0.83326540254 -0.5522581567 0.02607100472 -0.82243317444 -0.56819149204 0.027606194 -0.80936292243 -0.58658324682 0.029184830867 
-0.79304449487 -0.60838243431 0.030842223907 -0.7729492546 -0.63363329134 0.03253155264 -0.74820466919 -0.66258485446 0.034221099458 
-0.71791027106 -0.69521135966 0.03586095504 -0.6806181769 -0.73168269234 0.037407686351 -0.63648122405 -0.77031860241 0.03874147928 
-0.58410935412 -0.81069858813 0.039800271815 -0.52558024526 -0.84978118091 0.040464186268 -0.46080411347 -0.88656865608 0.040688905944 
-0.39450989815 -0.91800070446 0.040455492456 -0.32894875932 -0.94350789805 0.039819091576 -0.26754694925 -0.96275987759 0.038885062112 
-0.21326092511 -0.97626402877 0.037793173265 -0.1677409246 -0.98514854711 0.036678636149 -0.13134729817 -0.99069537386 0.035644964141 
-0.10330033209 -0.99404303388 0.03474893058 -0.084266019787 -0.99586034392 0.034079514695 -0.071460350542 -0.99687764753 0.033591280915 
-0.065186959324 -0.99731612261 0.033334845405 -0.063395947258 -0.99743417053 0.033257019201 -0.066040668439 -0.99725849807 0.033378408151 
-0.072095316395 -0.99682925842 0.033670386169 -0.080716030181 -0.99615347439 0.034105394395 -0.092287726506 -0.99512707551 0.034714249441 
-0.10595275494 -0.99373864103 0.035461627789 -0.12133802215 -0.99194602754 0.036334045072 -0.13897227062 -0.98959098547 0.03736829517 
-0.15838706231 -0.98662452483 0.038543293806 -0.17968610516 -0.98291568145 0.03987062532 -0.20308482591 -0.97828684623 0.041369070323 
-0.22910638319 -0.97244771481 0.04307791932 -0.25666339054 -0.96545594534 0.044930185378 -0.28678168218 -0.95684240468 0.046998716756 
-0.31879836884 -0.94654257181 0.049241849873 -0.35381163573 -0.93388450705 0.051740254291 -0.38917054458 -0.91956351087 0.054306875275 
-0.42655661055 -0.90265884599 0.05706545147 -0.46464264394 -0.8834686196 0.059920043526 -0.50183203566 -0.86268582585 0.062751684099 
-0.53875676555 -0.83990270391 0.065609416555 -0.57421557929 -0.81584172932 0.068401324613 -0.60635734107 -0.79201799457 0.070980780585 
-0.63714623945 -0.76722989883 0.073504774637 -0.66453938007 -0.7433983539 0.075804351853 -0.68899304397 -0.72056792718 0.07791307768 
-0.71093935547 -0.69870386478 0.079863271876 -0.72952086262 -0.6790769975 0.081570475505 -0.74628062605 -0.66041529748 0.083167674218 
-0.76065271708 -0.64362376288 0.084592528345 -0.77278160844 -0.62883932585 0.085846886424 -0.78397449269 -0.61465847474 0.087057189478 
-0.79281140161 -0.60307200153 0.088058176488 -0.80086972508 -0.5921856757 0.0890157792 -0.80767130714 -0.5827447261 0.089864586038 
-0.81329315162 -0.57475696699 0.090601757325 -0.8180007638 -0.5679331928 0.091250418835 -0.82188497442 -0.56220594448 0.091812661471 
-0.82464345416 -0.55808285236 0.092231791761 -0.82681791861 -0.55479852534 0.092578214219 -0.82798899269 -0.55301654255 0.092773550436 
-0.82810101889 -0.55284550066 0.092793075817 -0.82763252579 -0.55356087483 0.092707929069 -0.82609618907 -0.55589936547 0.09241743276 
-0.82361314243 -0.55965187159 0.091930268358 -0.82034138175 -0.56454454676 0.091265941706 -0.81614423407 -0.57073541373 0.090386264 
-0.81088959558 -0.57835286197 0.089252623662 -0.80467677716 -0.5871737143 0.087876695031 -0.79799649525 -0.59644220168 0.086361412868 
-0.7902794437 -0.60688210514 0.08457252105 -0.78192955137 -0.61787023926 0.082598693241 -0.77318277046 -0.62905419019 0.080493659852 
-0.76395258398 -0.64051204509 0.078235347057 -0.75454837486 -0.6518405436 0.075898983628 -0.7454160908 -0.66252424088 0.073596751385 
-0.73632197621 -0.67286723195 0.071271561808 -0.72798863346 -0.68209692213 0.069111058234 -0.72043118608 -0.69027044455 0.067123911486 
-0.71384759417 -0.69724362267 0.065367751518 -0.70850945335 -0.7028003112 0.063922430197 -0.70476614229 -0.70664642877 0.062892840478 
-0.70270604789 -0.70874596844 0.062316630859 -0.70247774799 -0.70897796123 0.062251619062 -0.70435195405 -0.70706790155 0.062795759536 
-0.70821505176 -0.70309528713 0.06394104845 -0.71432092938 -0.69671868101 0.065792776022 -0.72232709744 -0.68817239832 0.068281143051 
-0.7325449558 -0.67694869423 0.071542666444 -0.74466509372 -0.66315141402 0.075525494239 -0.75868046601 -0.6464975898 0.080279616775 
-0.77419930804 -0.6271091308 0.085729630272 -0.79099313743 -0.6048904124 0.091855568798 -0.8088674734 -0.57965579247 0.098653802426 
-0.82748358628 -0.55138021673 0.10606965178 -0.84648896964 -0.52004893491 0.11404178875 -0.8654562458 -0.48578374409 0.12247301979 
-0.88416822589 -0.44832083288 0.13135820919 -0.90260371908 -0.4067895764 0.14081465421 -0.91976457082 -0.36248333394 0.15046250988 
-0.93620405284 -0.31250567968 0.16081719934 -0.95089464447 -0.25761502631 0.17156303024 -0.96343339914 -0.19581860576 0.18289658021 
-0.97291109023 -0.12408234675 0.1950578933 -0.97731559954 -0.040182694926 0.20794126556 -0.9733054451 0.060252167606 0.22146373708 
-0.95509734664 0.18061208937 0.23487939803 -0.91198607357 0.32762740425 0.24686369841 -0.83169757765 0.49387713674 0.25370162225 
-0.70007685798 0.66858481716 0.25077227756 -0.52052233611 0.8210634412 0.23433165199 -0.31654155888 0.92599573703 0.20575066585 
-0.12377482516 0.97732093626 0.17182427131 0.038221189553 0.98957064247 0.13888514759 0.16387508634 0.98025265752 0.11067828829 
0.25917478949 0.96183836231 0.087723390765 0.32877924157 0.94180253778 0.07008701837 0.3814515364 0.92267590678 0.056248523705 
0.42107442214 0.90588082661 0.045565985071 0.4498356426 0.89231619008 0.037679060109 0.47122233606 0.88144254046 0.031757799988 
0.48733766165 0.87278741962 0.027278630764 0.49855605792 0.86652059483 0.024164351003 0.50658227936 0.86191219518 0.021949078352 
0.51219285808 0.85862779668 0.020415261663 0.51528108995 0.85679749016 0.019582114179 0.51736655688 0.85555230926 0.019028713727 
0.51829725581 0.85499416519 0.018786487286 0.51831755109 0.85498197535 0.018781322169 0.51794916631 0.85520318103 0.01887273878 
0.51734641884 0.85556472076 0.01901818875 0.51677630266 0.8559062267 0.01915160843 0.51683767418 0.85586947978 0.019137714712 
0.51688740923 0.85583968693 0.019126851608 0.51769247313 0.85535671536 0.018957656889 0.51920633805 0.8544453586 0.018652283808 
0.52141284838 0.85310986895 0.018226163452 0.52476460169 0.85106525862 0.017607906891 0.52920315995 0.84832826766 0.01682753078 
0.53453321804 0.84499720572 0.015936158006 0.5412727152 0.84071567842 0.014865928682 0.54939294298 0.83545272905 0.013643010528 
0.5587273094 0.82926004869 0.012311189452 0.56977242192 0.8217313048 0.01081896203 0.58177251967 0.81329855383 0.0092842714352 
0.5954849072 0.80333031736 0.0076240742084 0.61009030983 0.79230954728 0.0059493811761 0.62607717703 0.77974971882 0.0042124103009 
0.64236516297 0.76639452774 0.0025348081156 0.65936725593 0.75182049535 0.00087439777192 0.67605237077 0.73685327072 -0.00067037064111 
0.69226897038 0.72163653934 -0.0020923033162 0.70724943314 0.70695623912 -0.0033339601772 0.72081476238 0.69311382562 -0.0043935256051 
0.73234357015 0.6809151592 -0.0052384373192 0.74161108932 0.67080437709 -0.0058719563711 0.74815555376 0.66349359609 -0.0062861220267 
0.75185336087 0.65929831157 -0.0065007785947 0.75284177542 0.65816891549 -0.0065528511922 0.75074088296 0.6605652709 -0.0064536445862 
0.74577885353 0.66616430478 -0.0062466530564 0.73823554484 0.6745165679 -0.0059732704735 0.72803661515 0.68551489255 -0.0056585423664 
0.71559493432 0.6984950796 -0.0053398265906 0.70091060516 0.71323133844 -0.0050379990186 0.6848464145 0.72867172638 -0.0047857835659 
0.66730401912 0.74477128184 -0.0045917110395 0.6489306701 0.76083441504 -0.0044697084078 0.63046727847 0.77620321486 -0.0044249311903 
0.6116584677 0.7911093935 -0.0044549295559 0.59425461605 0.80426410644 -0.0045495493359 0.57759094412 0.81631280597 -0.0047014978342 
0.5627449023 0.82661615606 -0.0048893219254 0.55068164751 0.8346998777 -0.0050830365401 0.54095684552 0.84103383147 -0.0052712059155 
0.53593510652 0.84424200879 -0.0053844404716 0.53528599231 0.84465361799 -0.0054011167736 0.53962764518 0.84188726508 -0.0052761206261 
0.55134720388 0.83426148748 -0.0049021709306 0.57087178872 0.8210283943 -0.0042162307859 0.59995525468 0.80002757254 -0.0030944398768 
0.63996789591 0.76840037811 -0.0013968261619 0.69120952627 0.72265369807 0.0010116588862 0.75408481247 0.65676274215 0.004335449361 
0.82513967616 0.56486209723 0.0086790513538 0.8956381874 0.44456592188 0.013906055124 0.95412709339 0.29875670981 0.019644795873 
0.99001203046 0.13869590135 0.02529083822 0.99937624629 -0.018261143917 0.030226627049 0.98712944502 -0.15624514676 0.034101508672 
0.96242948525 -0.26900509718 0.036955968529 0.93363106509 -0.35610922426 0.038977617902 0.90631461644 -0.42066952472 0.040385232478 
0.88269115395 -0.46812776324 0.041385070154 0.86408998197 -0.50157480818 0.042085803415 0.85002318099 -0.5250208766 0.04258721531 
0.84106140496 -0.53923550197 0.042904388008 0.83551664469 -0.54777165192 0.043106308111 0.8342900314 -0.54963434876 0.04315351859 
0.83568790271 -0.54751119391 0.043095496367 0.83988650569 -0.54106358816 0.042905141162 0.8467831878 -0.53023288593 0.042559599729 
0.85578168233 -0.51562480701 0.042056754357 0.8670582016 -0.49648809236 0.04134790413 0.88002750845 -0.47319931726 0.040422648519 
0.89469555672 -0.4449509957 0.039223362989 0.91084479348 -0.41102462516 0.037689782546 0.92814630198 -0.37049516467 0.035745979915 
0.94592771619 -0.3226616299 0.033320089162 0.96356738986 -0.26574648322 0.030276919388 0.97941577826 -0.2000947716 0.026586005072 
0.99211473649 -0.12337608283 0.022061092802 0.99919377564 -0.03651145928 0.01669467169 0.99816223842 0.059685729354 0.010476616583 
0.98671412577 0.1624277152 0.003531478174 0.96335222214 0.2682105683 -0.0039480568129 0.92824143019 0.37179688017 -0.011615815578 
0.88294660287 0.46908201489 -0.019166632081 0.83121239596 0.5553372657 -0.026200651178 0.77571144596 0.63024333852 -0.032635668313 
0.7206113526 0.69228238478 -0.038267195137 0.66742106693 0.74342709487 -0.043188818346 0.61808977356 0.78467647204 -0.047411665758 
0.57326558794 0.81777905668 -0.051029208639 0.53272825223 0.84455132919 -0.054163286816 0.49712212207 0.86581696013 -0.056838255625 
0.46469755456 0.88348601151 -0.059233860625 0.43662002904 0.89755546631 -0.061295474041 0.41190231926 0.90903944129 -0.063117141676 
0.39014252437 0.91847567057 -0.064739889209 0.37169823123 0.92599440993 -0.06614210215 0.35585847693 0.93210782081 -0.067377702441 
0.34295043516 0.93685866989 -0.068416603862 0.33303741605 0.94036766368 -0.069244036717 0.32576456154 0.9428651836 -0.069876290606 
0.32154717079 0.94428333474 -0.070259523792 0.32004028869 0.94478442976 -0.070403088736 0.3214964061 0.9443007859 -0.070257288682 
0.32536285162 0.9430058497 -0.069849711626 0.33212387442 0.94070140584 -0.069098459348 0.34092048239 0.93762468358 -0.068067447657 
0.35238800417 0.93347767281 -0.066649297729 0.3652302786 0.92864698822 -0.064973955242 0.37997128384 0.92285400634 -0.062946854083 
0.39598596408 0.9162529337 -0.060627367959 0.41263224883 0.90904343929 -0.058091761101 0.42989629971 0.90118125471 -0.055330982735 
0.44725149996 0.89287060485 -0.052423074796 0.46438502968 0.88425334784 -0.049422272693 0.48077037051 0.87561637777 -0.046430699116 
0.49655942115 0.86691533197 -0.043434415738 0.51096273361 0.8586434151 -0.04060259305 0.52426342442 0.85071218938 -0.037902937317 
0.53571888495 0.84364932791 -0.035511798446 0.54607110579 0.83707679682 -0.033298403071 0.55396682072 0.83193970556 -0.031576698007 
0.56048018314 0.8276193873 -0.030134930918 0.56048018314 0.8276193873 -0.030134930918 
