# vtk DataFile Version 4.1
vtk output
ASCII
DATASET POLYDATA
POINTS 187 float
-2.00351 18.3632 252.913 -1.32107 16.9934 248.846 -0.638917 15.6275 244.78 
0.0420698 14.2769 240.722 0.721022 12.9529 236.676 1.39708 11.6664 232.648 
2.06939 10.4278 228.643 2.73714 9.24663 224.667 3.39952 8.1314 220.723 
4.05578 7.08953 216.816 4.70519 6.12715 212.951 5.34708 5.24905 209.13 
5.98082 4.45866 205.357 6.60589 3.75798 201.634 7.22178 3.14767 197.964 
7.82811 2.6271 194.349 8.42454 2.19445 190.789 9.01086 1.84684 187.286 
9.58692 1.58049 183.839 10.1527 1.39086 180.448 10.7081 1.27283 177.113 
11.2534 1.22088 173.831 11.7886 1.22923 170.603 12.314 1.29204 167.425 
12.83 1.40347 164.296 13.3367 1.55789 161.212 13.8346 1.74991 158.172 
14.324 1.97449 155.173 14.8051 2.22701 152.211 15.2784 2.50329 149.283 
15.744 2.7996 146.387 16.2021 3.11271 143.52 16.653 3.43982 140.678 
17.0966 3.7786 137.858 17.5331 4.12714 135.059 17.9622 4.48392 132.278 
18.3838 4.84776 129.511 18.7977 5.21782 126.757 19.2034 5.59355 124.014 
19.6005 5.97464 121.278 19.9884 6.36102 118.549 20.3664 6.75278 115.823 
20.7338 7.15021 113.1 21.0895 7.55372 110.376 21.4326 7.96383 107.65 
21.762 8.38114 104.919 22.0765 8.80632 102.181 22.3746 9.24008 99.434 
22.6551 9.68314 96.6757 22.9162 10.1362 93.9037 23.1565 10.5999 91.1159 
23.3742 11.0749 88.3102 23.5675 11.5618 85.4848 23.7348 12.0608 82.638 
23.874 12.5723 79.7685 23.9835 13.0965 76.8751 24.0615 13.6333 73.9575 
24.1062 14.1825 71.0155 24.116 14.7436 68.0495 24.0893 15.316 65.0606 
24.0249 15.8989 62.0504 23.9216 16.4913 59.0211 23.7785 17.092 55.9755 
23.5949 17.6994 52.9169 23.3705 18.312 49.8494 23.1052 18.9281 46.7772 
22.7994 19.5458 43.7052 22.4537 20.1633 40.6384 22.0691 20.7783 37.5819 
21.6469 21.389 34.5412 21.1888 21.9933 31.5214 20.6968 22.5893 28.5276 
20.1732 23.175 25.5646 19.6206 23.7486 22.6366 19.0416 24.3086 19.7472 
18.4392 24.8535 16.8997 17.8164 25.382 14.0962 17.1763 25.893 11.3383 
16.522 26.3858 8.62652 15.8567 26.8596 5.96066 15.1832 27.3142 3.33955 
14.5046 27.7494 0.761206 13.8235 28.1653 -1.77716 13.1426 28.562 -4.27904 
12.4642 28.9402 -6.74858 11.7904 29.3003 -9.19042 11.1231 29.6431 -11.6096 
10.4642 29.9695 -14.0115 9.81501 30.2805 -16.4016 9.17688 30.577 -18.7853 
8.55089 30.8601 -21.1682 7.93791 31.131 -23.5554 7.33867 31.3905 -25.952 
6.75373 31.6399 -28.3625 6.18351 31.88 -30.7911 5.62833 32.1119 -33.2415 
5.08835 32.3364 -35.717 4.56368 32.5543 -38.2204 4.05431 32.7663 -40.7539 
3.56015 32.973 -43.3194 3.08105 33.175 -45.9181 2.61677 33.3727 -48.5512 
2.16705 33.5664 -51.2191 1.73152 33.7564 -53.9222 1.30981 33.9427 -56.6605 
0.901475 34.1254 -59.4339 0.50604 34.3044 -62.242 0.123001 34.4796 -65.0843 
-0.248172 34.6506 -67.9602 -0.608024 34.8171 -70.869 -0.957108 34.9787 -73.81 
-1.29598 35.1348 -76.7823 -1.62517 35.2847 -79.7852 -1.94522 35.4279 -82.8177 
-2.25662 35.5636 -85.879 -2.55984 35.691 -88.968 -2.8553 35.8092 -92.0838 
-3.14337 35.9176 -95.2251 -3.42439 36.0151 -98.3907 -3.69862 36.101 -101.579 
-3.96626 36.1745 -104.79 -4.22747 36.2347 -108.02 -4.48234 36.281 -111.269 
-4.73089 36.3127 -114.534 -4.97309 36.3291 -117.814 -5.20887 36.3299 -121.107 
-5.4381 36.3145 -124.411 -5.66062 36.2827 -127.724 -5.87623 36.2343 -131.045 
-6.08468 36.1692 -134.371 -6.28575 36.0874 -137.702 -6.47917 35.9892 -141.036 
-6.66467 35.8748 -144.372 -6.84199 35.7446 -147.71 -7.01087 35.5991 -151.049 
-7.17107 35.439 -154.389 -7.32236 35.2651 -157.732 -7.46451 35.0782 -161.076 
-7.59735 34.8792 -164.424 -7.72071 34.6694 -167.777 -7.83443 34.4498 -171.137 
-7.93839 34.2217 -174.505 -8.0325 33.9866 -177.883 -8.11669 33.7458 -181.274 
-8.19091 33.5009 -184.677 -8.25515 33.2537 -188.096 -8.30943 33.0057 -191.532 
-8.35382 32.759 -194.985 -8.38841 32.5153 -198.455 -8.41335 32.2767 -201.944 
-8.42885 32.0452 -205.449 -8.43518 31.823 -208.971 -8.43267 31.6123 -212.506 
-8.42172 31.4151 -216.053 -8.40282 31.2338 -219.609 -8.37652 31.0706 -223.169 
-8.34347 30.9276 -226.731 -8.30439 30.8071 -230.289 -8.26005 30.711 -233.838 
-8.21132 30.6413 -237.374 -8.1591 30.5999 -240.89 -8.10434 30.5884 -244.382 
-8.048 30.6083 -247.843 -7.99106 30.6609 -251.268 -7.9345 30.7473 -254.652 
-7.87923 30.8683 -257.99 -7.82613 31.0244 -261.278 -7.77602 31.2159 -264.51 
-7.72961 31.4428 -267.684 -7.68751 31.7047 -270.796 -7.65023 32.0013 -273.844 
-7.61815 32.3315 -276.826 -7.59152 32.6944 -279.74 -7.57047 33.0886 -282.587 
-7.555 33.5127 -285.367 -7.54503 33.9648 -288.081 -7.54034 34.4432 -290.73 
-7.54064 34.9457 -293.318 -7.54556 35.4704 -295.846 -7.55469 36.0149 -298.32 
-7.56757 36.577 -300.743 -7.5837 37.1543 -303.121 -7.60258 37.7447 -305.46 
-7.6237 38.3457 -307.765 -7.64658 38.9551 -310.043 -7.67071 39.5705 -312.302 
-7.69562 40.1897 -314.548 
LINES 1 188
187 186 185 184 183 182 181 180 179 178 177 176 175 174 173 172 171 170 169 168 167 166 165 164 163 162 161 160 159 158 157 156 155 154 153 152 151 150 149 148 147 146 145 144 143 142 141 140 139 138 137 136 135 134 133 132 131 130 129 128 127 126 125 124 123 122 121 120 119 118 117 116 115 114 113 112 111 110 109 108 107 106 105 104 103 102 101 100 99 98 97 96 95 94 93 92 91 90 89 88 87 86 85 84 83 82 81 80 79 78 77 76 75 74 73 72 71 70 69 68 67 66 65 64 63 62 61 60 59 58 57 56 55 54 53 52 51 50 49 48 47 46 45 44 43 42 41 40 39 38 37 36 35 34 33 32 31 30 29 28 27 26 25 24 23 22 21 20 19 18 17 16 15 14 13 12 11 10 9 8 7 6 5 4 3 2 1 0 

CELL_DATA 1
FIELD FieldData 2
LengthArray 1 1 double
578.23302073 
TortuosityArray 1 1 double
0.018178005071 
POINT_DATA 187
FIELD FieldData 8
RadiusArray 1 187 double
75.108546468 78.138763196 81.341657636 84.375564742 89.362686752 91.381402578 94.204136761 94.130840417 94.099586312 
93.863293462 93.583389577 92.598202543 91.957391267 90.963186942 90.048481908 90.002311844 89.670545327 88.576746918 
88.327166995 87.972012948 87.53807855 86.402231678 86.12631933 85.827375789 85.377968647 85.306507035 85.0291682 
84.459700115 83.929699149 83.661716971 83.145578322 82.698687794 82.459515396 82.099332769 81.607773847 81.564848127 
80.695319255 80.674659576 80.098718861 79.604034489 79.484277996 79.40726819 79.184112708 78.549429767 78.373769843 
78.077378609 77.820788143 77.638793517 77.271289647 77.1981639 77.091645512 76.557030085 76.201206102 75.945081022 
75.814761912 75.32278896 75.319714292 74.799101523 74.373284856 73.522259792 73.476813356 72.939881984 72.872896842 
72.464413455 71.779028338 71.431407625 71.36541107 70.902669709 70.267780231 69.083823273 68.869537948 68.410713925 
68.03652851 67.991700973 67.96070943 67.676132911 67.69108075 67.531394919 67.462000758 67.341447138 67.339444649 
67.331167908 67.32567153 67.32243332 67.312317797 67.325349608 67.225264529 67.187185582 67.20125575 67.230482185 
67.23087806 67.140241698 67.260342417 67.487509676 67.495530924 67.479559485 67.452658576 67.29050441 67.070594696 
66.973183083 66.860585386 66.864723355 66.802423692 66.79076249 66.788955708 66.775833801 66.427175652 65.897889067 
65.626593205 65.121183101 64.535432485 64.51711654 63.672253087 63.371171325 62.744587507 62.517166178 61.396950952 
61.272208687 60.778039211 60.139298169 59.767854017 58.842978099 57.647398976 57.523523276 57.172653805 56.190710795 
55.628222644 55.12778003 54.73626176 54.265846479 53.481141064 53.388401064 52.56604818 52.476870175 52.43126518 
51.639274238 51.060272505 51.016294104 50.672754883 49.638208336 49.5561971 48.772931747 47.989834602 47.909198515 
47.179369826 47.179346225 47.173469496 46.56386328 46.345666805 44.886267675 44.627876699 43.85924694 43.336628245 
42.919222212 42.005879134 41.130200782 40.56372971 40.298946291 40.225791775 39.381103331 38.799625369 38.51176444 
38.328029648 37.78306256 37.492076509 37.36864571 37.294178752 37.129574838 37.152033456 36.712235375 36.175805649 
35.606255547 35.52057689 33.822663743 32.878806971 32.503662242 30.719794217 30.672160963 29.880725068 28.743963946 
28.172680952 26.58883279 26.435648577 24.814536162 21.772507403 21.287690569 20.209646568 
EdgeArray 2 187 int
44165 44165 44676 43845 44670 44653 44706 44706 44411 
44411 28493 44571 44570 38799 44564 44570 44564 44564 
44572 44572 44412 44412 44585 44585 23532 23532 23266 
23266 19898 19898 44476 44477 44484 44484 35694 35694 
39612 43200 39612 44538 41239 41239 44401 42342 44401 
44402 44404 44402 43358 43342 43342 27077 44216 19803 
44217 16455 43963 16455 43964 43964 43022 37877 43020 
43022 43021 43019 42746 43019 44266 44266 39600 39600 
40229 40229 40240 40239 33494 34379 39597 39597 37548 
23779 40236 37548 39585 39585 27082 38316 31716 40866 
41220 41222 41221 41222 41226 41221 41224 41211 41211 
38309 41212 37356 39919 38916 37681 38917 39579 38917 
39579 39580 37089 37089 36502 37353 38303 37084 19908 
19908 36492 36492 13211 13211 28230 28230 28232 28232 
31588 31588 35184 35184 32251 32251 32247 32247 19722 
19722 19406 19406 19405 19405 17441 17441 8577 8577 
19096 19096 14788 14788 16604 16604 17141 16525 18627 
16525 17654 17654 12644 12644 16699 16699 17106 17106 
16695 16695 32958 32958 32954 32954 17780 17780 22066 
22066 23521 22059 28211 22057 14377 19869 25082 22055 
22056 20699 10980 28210 22730 16707 19066 22272 22272 
23519 23519 18960 20511 18960 18126 18279 18126 17754 
19065 15046 19273 19273 20694 7484 11186 11727 20501 
20500 16502 22542 22541 30978 30981 16501 28542 28542 
8990 8990 5559 5559 27651 27651 34511 34511 34868 
34870 34871 34869 34866 36433 27454 34189 36887 36886 
36885 36888 36885 36884 36884 36764 36763 36763 35585 
35585 38028 38028 38234 38238 38236 38236 35672 35672 
35676 35676 35849 35849 35301 35301 27635 27635 32920 
32920 28644 28644 31686 31686 31689 31689 32917 32917 
23502 23502 28185 28185 28186 27625 27627 27627 24162 
24162 24163 24163 21436 21436 18392 18392 18383 18383 
18102 18102 21663 18102 21663 21663 20651 20651 20883 
20883 20881 20881 16918 16918 15431 15431 9946 9946 
17823 17823 17824 17824 3143 3143 15809 15809 16231 
16231 15808 15808 10265 10265 1726 1726 13109 13109 
13110 5619 15703 15704 15712 15703 15712 15712 15711 
3839 9797 9797 12688 12688 15803 15803 7409 7409 
6205 6205 15443 15443 14075 14075 14169 14169 14170 
14168 9895 9895 11307 5991 10282 10282 8926 11935 
12205 12205 12209 12208 11936 12202 11923 11923 11684 
11684 6767 11683 6767 6767 
EdgePCoordArray 1 187 double
0 0.844 0.176 0 0 0.08 0.128 0.188 0 
0 0 0 0 0 0 0.032 0 0 
0.696 0.476 0 0.216 0.44 0.58 0.72 0.56 0.92 
0.596 0.176 0 0.6 0.588 0.624 0.56 0 0 
0 0.972 0.684 0 0.036 0.608 0 0.912 0.552 
0.68 0.468 0.668 0.724 0.256 0.376 0.204 0.768 0.316 
0.092 0 0.004 0.944 0 0 0 0 0 
0 0 0 0 0 0 0 0 0 
0 0 0 0.808 0.544 0 0 0 0 
0 0 0 0 0 0.128 0.268 0.52 0.28 
0.768 0.612 0.356 0.736 0.46 0.696 0.908 0.712 0.556 
0.744 0 0.652 0.62 0.224 0.864 0.132 0.52 0 
0 0 0 0 0.504 0.448 0.328 0.66 0.392 
0.612 0.808 0.792 0 0 0 0.544 0 0 
0 0 0 0 0 0 0 0 0 
0 0 0.012 0 0 0 0 0 0 
0 0.996 0 0 0 0 0 0 0 
0 0 0 0 0 0 0 0 0 
0.176 0.124 0.296 0 0.004 0 0 0 0 
0 0 0 0 0.08 0 0.976 0 0.208 
0 0.992 0.924 0 0 0.404 0 
CurvatureArray 1 187 double
0 0.00016177228512 0.00065015856778 0.0011422262519 0.0016383444385 0.0021338246719 0.0026268155715 0.0031120627104 0.0035850734165 
0.0040391774388 0.0044668926427 0.0048608271632 0.0052120235196 0.0055129681705 0.0057552006803 0.0059320703009 0.0060395926977 0.0060736121695 
0.006034359631 0.005923758079 0.0057463972174 0.0055087875439 0.0052196921814 0.0048890068971 0.0045277668233 0.0041469679497 0.0037580213873 
0.0033711952179 0.002996416503 0.0026423670404 0.0023165161906 0.0020249759766 0.0017734022966 0.0015662732355 0.0014072246289 0.0012985536201 
0.0012401776346 0.0012300248717 0.0012621935991 0.0013312302862 0.001430136471 0.0015533787069 0.0016971389885 0.0018570659763 0.0020298891633 
0.0022118215211 0.002399683076 0.0025902979723 0.0027796861639 0.0029638872846 0.0031410245543 0.0033064203205 0.0034589535572 0.0035957894803 
0.0037159467536 0.0038189817175 0.0039044678564 0.0039732086679 0.0040260832924 0.0040647973774 0.004090649027 0.0041046960863 0.0041097284721 
0.0041067174447 0.0040969366984 0.0040809614703 0.0040602416384 0.0040345593299 0.0040037801467 0.0039672727283 0.0039243002363 0.0038727967542 
0.0038110624956 0.0037372151891 0.0036482669247 0.003542272732 0.0034168093683 0.0032707639875 0.003104235909 0.0029201666784 0.0027245214459 
0.0025283139006 0.0023493308943 0.0022087402936 0.0021329094518 0.002137879366 0.0022276830542 0.0023841638544 0.0025826480937 0.002795120785 
0.0029986635032 0.0031758719122 0.0033164407106 0.0034136500713 0.003466756664 0.003476869486 0.0034483560282 0.0033858043695 0.0032961671431 
0.0031842177184 0.0030561497865 0.0029175327338 0.0027718959386 0.0026244464715 0.0024770703098 0.0023337806013 0.0021960321967 0.0020664994823 
0.0019466626023 0.0018382309502 0.0017430968591 0.0016616432191 0.0015948720261 0.0015431866852 0.0015065123596 0.0014832713155 0.0014728463784 
0.0014721324514 0.0014811297555 0.0014956166122 0.001514981769 0.0015363727718 0.0015586775451 0.0015806825909 0.0015999792513 0.0016171292345 
0.0016300750126 0.0016385003165 0.0016417857325 0.0016389444993 0.0016294178858 0.0016133002327 0.0015884359459 0.0015561282125 0.0015151981394 
0.0014658958703 0.0014084233535 0.0013439829501 0.0012732709147 0.0011985185734 0.001122494604 0.0010488547283 0.00098113013626 0.00092526094781 
0.00088614433587 0.0008681154421 0.00087410406252 0.00090436486215 0.00095671285615 0.00102728191 0.0011132335462 0.0012104639831 0.0013172594592 
0.0014319863406 0.0015537869583 0.0016821015736 0.0018173720155 0.0019600295423 0.0021096435306 0.0022675797324 0.0024336884441 0.0026081528529 
0.0027913075827 0.0029824899257 0.0031811526344 0.0033864552927 0.0035954986467 0.0038076674887 0.0040182387556 0.0042245244037 0.0044205175638 
0.0046018466786 0.0047608244905 0.0048893175447 0.0049803762859 0.0050225121122 0.0050088301716 0.004926837627 0.0047700352621 0.0045289188227 
0.0041989318455 0.0037795668834 0.0032689013882 0.0026753542869 0.0020080301793 0.0012846593298 0 
TorsionArray 1 187 double
0 0 3.0701120381e-05 -5.6159412817e-05 -7.7867692886e-05 -0.00010407276897 -0.00013562987931 -0.00016746299501 -0.0002063189032 
-0.00023284247368 -0.00026620890964 -0.000299663978 -0.0003376353134 -0.00037762581129 -0.0004053478644 -0.00046175336542 -0.00051513698631 -0.00056092156951 
-0.00063782405602 -0.0007476794621 -0.00088419030111 -0.0010540749492 -0.0013150342972 -0.0016627670056 -0.0021484317812 -0.0028435667279 -0.0037946478483 
-0.0051339882847 -0.0069881807262 -0.0094970608906 -0.012869996486 -0.017338213396 -0.02277626216 -0.028887649782 -0.034855549816 -0.039209666572 
-0.04046528623 -0.038016776491 -0.03299137775 -0.026755686886 -0.020679728626 -0.015672090884 -0.011854758189 -0.0091280208642 -0.0073264603017 
-0.0061690587253 -0.0055450805707 -0.0052342289252 -0.0051245334975 -0.0051937605639 -0.0052950843516 -0.0054628135583 -0.0056693912791 -0.0058293697174 
-0.0059906588311 -0.0061596894984 -0.0062750452105 -0.0063714649334 -0.006478649847 -0.0065573303198 -0.0066153598768 -0.0066909718109 -0.0067529084447 
-0.0068322918961 -0.0069543475747 -0.0070887090317 -0.0072773835091 -0.0075475884627 -0.0078847766925 -0.0083345952994 -0.0089404408603 -0.0097121464264 
-0.01071285616 -0.011996063666 -0.013650558549 -0.015830581053 -0.018658031157 -0.022343237529 -0.027231688884 -0.033673155303 -0.042098254528 
-0.052780010791 -0.065305620579 -0.077985403246 -0.087037648291 -0.088737838806 -0.082329173053 -0.07106203045 -0.058755676426 -0.047762738528 
-0.038704251461 -0.031540190707 -0.025960765198 -0.021529010585 -0.017923199118 -0.014953780849 -0.012480749639 -0.010280316754 -0.008253460917 
-0.006447664183 -0.0046229455003 -0.0028497240277 -0.00096958725859 0.0009433644354 0.0029158718801 0.00511546213 0.0073237184983 0.009687274826 
0.011993148432 0.014416847766 0.016639009396 0.018390478399 0.019861905835 0.020706796274 0.020795956104 0.02027397786 0.019085564857 
0.017496771372 0.015608080141 0.013505839775 0.011395005116 0.0093417393118 0.0073961852324 0.0055526050001 0.0038873324657 0.0023269154734 
0.00085243363571 -0.00049519572693 -0.0018006307693 -0.0030903577926 -0.0043207909971 -0.0056495112124 -0.007063305459 -0.008524509162 -0.01021660256 
-0.012145790856 -0.014385780561 -0.017037852071 -0.02024689379 -0.024098089797 -0.028599740627 -0.033922963114 -0.039790026995 -0.045432174262 
-0.050242961111 -0.052764302874 -0.05222941688 -0.048955356219 -0.043835528285 -0.038201089817 -0.032800461963 -0.028101062881 -0.024171983048 
-0.020936085675 -0.018337724643 -0.016221462946 -0.014467979937 -0.013004405691 -0.011777859066 -0.010715576776 -0.0097579448153 -0.0089081203394 
-0.0081359705633 -0.0074107896896 -0.0067194576394 -0.0060674361893 -0.0054392582658 -0.0048257361044 -0.004240487666 -0.0036743153388 -0.0031176956664 
-0.0025767425129 -0.0020748131868 -0.0015837197428 -0.0011309435605 -0.00071772326514 -0.00033913539643 -1.0785256244e-05 0.0002663217401 0.00048193833121 
0.00064680203646 0.00074285755654 0.00077798803289 0.00076164006436 0.00069056094223 0 0 
TangentArray 3 187 double
-0.15705181557 0.31485060791 0.93605759541 -0.15705181557 0.31485060791 0.93605759541 -0.15715073307 0.31318012984 0.93660122431 
-0.15736675009 0.30949901232 0.93778785839 -0.15769470969 0.30380604312 0.93959260677 -0.15812505647 0.29611676018 0.94197204356 
-0.1586449231 0.28646752012 0.94486408985 -0.15923739216 0.27491589325 0.94819022595 -0.15988260224 0.26154480872 0.95185706203 
-0.16055772399 0.24646380563 0.95575980758 -0.16123903933 0.22981296603 0.95978537853 -0.16190199935 0.21176181064 0.9638177619 
-0.16252257155 0.19250945204 0.96774300546 -0.16307828313 0.17228164045 0.97145484194 -0.16354937452 0.15132681556 0.97485988582 
-0.16392105363 0.12991148692 0.97788184038 -0.16418118041 0.10830919137 0.98046604177 -0.16432298294 0.086794328963 0.98258063371 
-0.1643458596 0.065633028069 0.98421681761 -0.16425216634 0.045072472668 0.98538809515 -0.16404699523 0.025333847146 0.98612716196 
-0.16373831945 0.0066062396529 0.98648168779 -0.16333617766 -0.010958169797 0.98650961049 -0.16284922325 -0.027246681138 0.98627468225 
-0.16228562967 -0.04218645266 0.98584160879 -0.16165136055 -0.055743193811 0.98527231463 -0.16094896716 -0.067918193719 0.98462304916 
-0.16017823769 -0.078744606973 0.98394218277 -0.15933492652 -0.088282332905 0.98326934809 -0.1584110701 -0.096613520453 0.98263511058 
-0.1573957766 -0.10383698484 0.98206132705 -0.15627464742 -0.11006262563 0.98156225122 -0.15502901656 -0.1154068392 0.98114589409 
-0.15363873615 -0.11998908825 0.98081484361 -0.15208131097 -0.12392758821 0.98056780884 -0.15033149192 -0.12733638905 0.98040088054 
-0.14836190773 -0.13032246889 0.98030852207 -0.14614331918 -0.1329851182 0.98028418767 -0.14364576437 -0.13541443808 0.98032077625 
-0.14083672916 -0.13768965772 0.98041143092 -0.13768266396 -0.13987993748 0.98054938026 -0.13415072219 -0.14204382421 0.98072786018 
-0.13020692892 -0.14422914884 0.98094042035 -0.12581779778 -0.14647341334 0.98118062606 -0.12095207824 -0.14880412693 0.98144175914 
-0.11558130707 -0.15123868146 0.98171677315 -0.10968129132 -0.15378571623 0.98199794695 -0.10323172516 -0.15644486506 0.98227705619 
-0.096218448597 -0.15920791663 0.98254508774 -0.088635453397 -0.16205946229 0.98279218916 -0.080482563619 -0.16497750656 0.98300812778 
-0.071768090025 -0.16793576545 0.98318203805 -0.06250830898 -0.17090342638 0.98330296967 -0.052725995558 -0.17384649427 0.98336024214 
-0.042451849294 -0.17673055348 0.98334335405 -0.031721521305 -0.17952092875 0.98324258514 -0.020575551165 -0.18218295247 0.98304934694 
-0.0090585118325 -0.18468484787 0.98275604823 0.0027827582408 -0.18699748359 0.98235645129 0.014900641945 -0.18909390057 0.98184594903 
0.027247127314 -0.19095099057 0.98122133754 0.039773155333 -0.19254932552 0.98048092962 0.052431452822 -0.19387222082 0.97962467545 
0.065176756715 -0.19490684613 0.97865382629 0.077964129285 -0.19564282561 0.97757121446 0.090749007351 -0.19607131039 0.97638141057 
0.10348794095 -0.19618628172 0.97509034912 0.11613802417 -0.19598289683 0.97370563493 0.12865501081 -0.19545669782 0.97223688856 
0.1409932208 -0.19460463413 0.9706956001 0.15310514806 -0.1934239313 0.9690954527 0.16493975093 -0.19191150828 0.96745276451 
0.17644150601 -0.19006516285 0.96578653378 0.18755109581 -0.18788300885 0.96411854118 0.19820381821 -0.18536430545 0.96247354286 
0.20832953776 -0.1825098956 0.96087925449 0.21785288713 -0.17932166816 0.95936638408 0.2266937564 -0.17580481431 0.95796795775 
0.23476895634 -0.17196881999 0.95671848633 0.24199401206 -0.16782712762 0.95565315537 0.2482859631 -0.16339872831 0.95480622962 
0.25356617756 -0.15870890971 0.95420945058 0.25776525174 -0.15378887749 0.95388996019 0.26082619514 -0.14867741976 0.95386829321 
0.26270854038 -0.14341889303 0.95415682355 0.26339264766 -0.13806293656 0.95475805244 0.26288188692 -0.13266253676 0.95566404393 
0.26120459031 -0.12727263941 0.95685622601 0.25841436659 -0.12194845172 0.95830610468 0.25458804668 -0.11674135893 0.95997728182 
0.24982243697 -0.11169869043 0.96182750665 0.24423118972 -0.10686075255 0.96381113582 0.23793853954 -0.10225943764 0.96588211435 
0.23107374021 -0.097918729076 0.96799630634 0.22376659273 -0.093853039246 0.97011345677 0.21614256681 -0.090066876694 0.97219871865 
0.20831881169 -0.086556467096 0.97422340903 0.20040133529 -0.083311726806 0.9761651812 0.19248344815 -0.080315098713 0.97800797906 
0.18464562792 -0.077543381957 0.97974130055 0.17695524614 -0.074971561552 0.98135931535 0.16946658837 -0.072569554786 0.9828604861 
0.16222278392 -0.070306601599 0.98424628531 0.15525665269 -0.068148936961 0.98552072235 0.14859169305 -0.066063562922 0.98668947213 
0.14224367187 -0.064017935882 0.98775930352 0.13622182601 -0.06197829877 0.98873773297 0.13052958344 -0.059913804206 0.98963243879 
0.12516557821 -0.057793983408 0.99045112626 0.12012403544 -0.05559194532 0.99120116612 0.11539615907 -0.053280204708 0.9918895837 
0.11097005573 -0.050834946613 0.992522773 0.10683105764 -0.048237731753 0.99310636206 0.1029632005 -0.045470767207 0.99364530325 
0.099348195096 -0.04251992692 0.99414384872 0.095966370244 -0.039376086756 0.99460543914 0.092797458401 -0.036033115553 0.99503278654 
0.089820257358 -0.032489827497 0.99542791425 0.08701291684 -0.02874731116 0.99579231992 0.084353683027 -0.024810000652 0.99612695979 
0.08182064503 -0.020687103275 0.99643234884 0.079392110932 -0.016390042507 0.99670871333 0.077047227824 -0.011933663809 0.99695602328 
0.07476528251 -0.0073342741344 0.99717418787 0.072526758031 -0.0026122132502 0.99736304609 0.070313469798 0.0022109049945 0.99752249492 
0.068107847435 0.007111909346 0.99765261583 0.065893734079 0.012064470108 0.99775370927 0.063656720188 0.017041531621 0.99782634169 
0.0613838533 0.02201370317 0.99787144434 0.059063816638 0.026949263434 0.99789037613 0.056687609067 0.03181623242 0.99788488431 
0.054247781308 0.036578936627 0.99785728419 0.051738879825 0.041200122375 0.99781042199 0.049158071295 0.045642883204 0.9977475689 
0.046504485289 0.049867794938 0.99767255945 0.043779487004 0.053835120717 0.99758966329 0.040986558706 0.05750572372 0.99750348057 
0.038131463023 0.06084103043 0.9974188491 0.035222017816 0.063803387125 0.99734073278 0.032267461269 0.066357968507 0.99727399994 
0.029278866955 0.068474045312 0.99722317114 0.026268650722 0.070122611038 0.99719244753 0.023250104594 0.071279119229 0.99718539891 
0.020237071085 0.071925038385 0.9972047181 0.017244028149 0.072043555241 0.9972524102 0.01428596157 0.071622702783 0.99732948405 
0.011377715406 0.070654716872 0.99743594209 0.0085341139658 0.069134183941 0.99757086641 0.0057702052265 0.067059112405 0.9977323189 
0.0031005671122 0.064428357081 0.99791751828 0.00053969456316 0.061241911372 0.99812280658 -0.0018974749941 0.05750068431 0.99834366372 
-0.0041966163478 0.053204782504 0.99857480417 -0.0063437547963 0.04835436543 0.99881009813 -0.0083244184004 0.042949231358 0.99904257546 
-0.010124546957 0.036988327035 0.99926440806 -0.011731059604 0.030469319797 0.99946685928 -0.01313112099 0.02339080162 0.99964015729 
-0.01431256007 0.015751292999 0.99977349804 -0.015264431973 0.0075493502945 0.9998549917 -0.015977838286 -0.0012140622543 0.99987160913 
-0.01644558648 -0.010536340856 0.99980924591 -0.016662569375 -0.020411734987 0.99965279965 -0.01662671192 -0.030830074446 0.99938634119 
-0.016339408883 -0.041776670574 0.99899336009 -0.015805437873 -0.053229269133 0.99845722645 -0.015033538966 -0.065158802708 0.99776165648 
-0.014036813216 -0.077528068677 0.99689135137 -0.012832314365 -0.090289108962 0.99583292199 -0.011441211584 -0.10338351336 0.99457576275 
-0.0098890363648 -0.11674099946 0.99311315871 -0.0082050469554 -0.13027974557 0.9914433242 -0.0064212272689 -0.14390244185 0.98957104599 
-0.004572356787 -0.15750013697 0.98750837992 -0.0026946156466 -0.17095001189 0.98527601842 -0.0008245844949 -0.18411692783 0.9829040019 
0.0010012888088 -0.1968546409 0.98043217398 0.00274799388 -0.20900675241 0.97791033637 0.0043829990988 -0.22041124965 0.97539718594 
0.0058769609773 -0.23090189506 0.97295928804 0.007204654859 -0.24031727381 0.97066765726 0.0083451240927 -0.2485007979 0.96859574248 
0.0092817497037 -0.25530700597 0.96681548489 0.010002363233 -0.26060953822 0.9653924701 0.010499159041 -0.2643064524 0.96438159817 
0.010499159041 -0.2643064524 0.96438159817 
NormalArray 3 187 double
0.057132234156 0.94912886878 -0.30966158668 0.057132234156 0.94912886878 -0.30966158668 0.055887682917 0.94968567764 -0.30817800147 
0.055565089479 0.95089053174 -0.30449912557 0.054175514871 0.95272648864 -0.29896028403 0.05263559591 0.95514533635 -0.29142216885 
0.050493716327 0.95808534392 -0.28199797585 0.048000364813 0.96146526534 -0.27070372833 0.045013466002 0.96518991939 -0.25764744786 
0.041620679717 0.96915168607 -0.24292535565 0.03789143664 0.97323479604 -0.22666775422 0.033775295508 0.97732045064 -0.20905493579 
0.029379220899 0.98129195555 -0.19027075276 0.024655377084 0.98504016329 -0.17055201284 0.019716655496 0.98846939988 -0.1501316056 
0.014642356702 0.99150178771 -0.12926641622 0.0092501803472 0.994079139 -0.10826402716 0.0038386602441 0.9961700457 -0.087352760276 
-0.0017272328778 0.99776323025 -0.066824793575 -0.0074337716804 0.99887059942 -0.046928292641 -0.013427367883 0.99952020839 -0.027911624987 
-0.019644298936 0.9997574629 -0.0099557467824 -0.026294593799 0.99963144573 0.0067503373529 -0.033689095068 0.9991892939 0.022040867027 
-0.041982556598 0.99847617492 0.035816100617 -0.051845298576 0.99750431907 0.04792909821 -0.063801381229 0.99625873362 0.058291675481 
-0.078817307839 0.99465044172 0.066770732864 -0.098139975603 0.99247642674 0.073205789079 -0.1233999755 0.98933560738 0.077378950692 
-0.15648627944 0.98451434209 0.079016166503 -0.20002779788 0.97670670297 0.077671722319 -0.256611005 0.96376791903 0.072816140742 
-0.3271146115 0.94280822685 0.064098972865 -0.41134146591 0.91004121041 0.051217123931 -0.50409597484 0.86294685047 0.034784787109 
-0.59756853548 0.80165547838 0.016135035924 -0.68140109765 0.73190660478 -0.0022947751132 -0.74976344915 0.66144743833 -0.018494773356 
-0.8013364717 0.59739901645 -0.031213366718 -0.8382399201 0.54382359548 -0.040121482398 -0.86402353694 0.50138487894 -0.045568967374 
-0.88232743039 0.46815269503 -0.048284155997 -0.89552338991 0.44233049641 -0.048801537536 -0.90556496936 0.42151823027 -0.047691380923 
-0.91363079856 0.40401036802 -0.045325339997 -0.92048398573 0.38852032993 -0.041966477746 -0.92675291507 0.37375791282 -0.03786894517 
-0.9326036681 0.35938158304 -0.033094954519 -0.93829297011 0.34472405215 -0.027778230836 -0.94390465137 0.32948554715 -0.021983706471 
-0.94938253867 0.31372900237 -0.01571331732 -0.95482183077 0.29704039629 -0.0090705273913 -0.96012928578 0.27954876707 -0.0020594683785 
-0.96522908177 0.26135170772 0.005301375579 -0.97010837678 0.24232649532 0.012946310656 -0.97470394666 0.22252632779 0.020838661395 
-0.97891651323 0.20219529559 0.028974515739 -0.98273721994 0.18121218837 0.037278671373 -0.98611387328 0.15965498507 0.045713396953 
-0.98899537384 0.13764162661 0.054248807861 -0.99135002199 0.11522181174 0.062841610366 -0.99316571693 0.092306359496 0.071424048511 
-0.99439575135 0.069125660582 0.079992079274 -0.99504458535 0.045422447949 0.088448145241 -0.99508034485 0.021276495308 0.096759588848 
-0.99448039835 -0.003366485064 0.10486850849 -0.99321585942 -0.028689245403 0.11269065529 -0.99123896347 -0.054891545539 0.12013423961 
-0.9884868458 -0.082050118159 0.12712802125 -0.98485352912 -0.11062156694 0.13351552385 -0.98019303134 -0.14091238388 0.13915933808 
-0.97429041088 -0.17337236218 0.1438757078 -0.96682406254 -0.20860759256 0.14742491111 -0.95734061913 -0.24726739228 0.14952516739 
-0.94514852956 -0.2902739456 0.14978415665 -0.92917169674 -0.3388777877 0.14765433617 -0.90791995574 -0.39417195028 0.14251255237 
-0.87899087958 -0.45779643249 0.13340712128 -0.83879140256 -0.53126577753 0.11910355415 -0.78195433344 -0.61558523339 0.097991024323 
-0.70084301293 -0.71005368768 0.068138328756 -0.5861171299 -0.80974810274 0.027833795173 -0.42994150213 -0.9025607556 -0.023116816384 
-0.23345384632 -0.9689575723 -0.081366606921 -0.014633560043 -0.9901637808 -0.13914577289 0.19687265165 -0.96228681465 -0.18773717103 
0.37707437581 -0.89905517801 -0.22251899245 0.51761323092 -0.82010358349 -0.24393986048 0.62268225043 -0.7397256801 -0.25509357733 
0.70016574273 -0.66529989656 -0.25912155517 0.75756904912 -0.59941952594 -0.25842865115 0.80073500547 -0.54219235116 -0.25465840917 
0.83384684361 -0.49269988929 -0.24889005703 0.85952494334 -0.4502670608 -0.24181903511 0.87975677962 -0.41388747449 -0.23393410861 
0.89580334583 -0.38295251378 -0.22557424009 0.90871401526 -0.35658845423 -0.21698735625 0.91888664671 -0.33501302309 -0.20835931669 
0.92692934438 -0.31760059304 -0.19982956196 0.93312818722 -0.30429829617 -0.19150543899 0.93752710433 -0.29560034297 -0.18347579102 
0.94043658903 -0.29099394448 -0.17578835651 0.94148452143 -0.29191253551 -0.16850509642 0.94103976474 -0.29719447636 -0.1616156069 
0.93842753374 -0.30868045168 -0.15514555317 0.93363202647 -0.32575378415 -0.1490493585 0.92602063951 -0.34922213788 -0.14328179794 
0.91507753939 -0.37902003407 -0.1377567083 0.9002966315 -0.41466345845 -0.1323638604 0.88041574864 -0.45688823933 -0.12696946996 
0.85566564817 -0.5030802728 -0.12143532295 0.82541655954 -0.55255490205 -0.11563123909 0.78981191699 -0.60350301416 -0.10945888586 
0.74984997781 -0.65355876693 -0.10288804083 0.70697628999 -0.70069772014 -0.095954314003 0.66259669839 -0.74370244405 -0.088725926274 
0.61912178115 -0.78106915282 -0.081358457602 0.57738411535 -0.81311902079 -0.073925918127 0.53938033905 -0.83942574857 -0.066582749185 
0.50571326189 -0.86065465404 -0.059394134554 0.4770165391 -0.87732947802 -0.052423357724 0.45338236006 -0.89014410532 -0.045693624811 
0.43487459581 -0.8996364146 -0.03922253762 0.42140070821 -0.90627330476 -0.033017271356 0.41243920043 -0.91058332703 -0.027053844073 
0.40812915512 -0.91267437289 -0.021356071733 0.40799807865 -0.91284419626 -0.015907267728 0.41183191778 -0.91119687599 -0.010710960749 
0.4196065803 -0.90768762186 -0.005787822593 0.43120834734 -0.90225164135 -0.0011562328098 0.44628636946 -0.89488455463 0.0031796731116 
0.46565098388 -0.88493977036 0.0071248896526 0.48871024038 -0.8723807844 0.01068025994 0.51603954455 -0.8564543197 0.013754516863 
0.54790445877 -0.83638275211 0.016266407826 0.58469114029 -0.8110538341 0.018109352526 0.62667721106 -0.77904331906 0.019161945741 
0.67425955589 -0.73824339374 0.019254684707 0.72743941935 -0.68593073382 0.018191195212 0.78551758599 -0.6186389302 0.015747893122 
0.84621654983 -0.53270994416 0.011733123954 0.90623007893 -0.4227443244 0.0058549324417 0.95778668947 -0.2874743107 -0.0017827427511 
0.9917705448 -0.12756098008 -0.01092624456 0.99854332168 0.049759912579 -0.020861107925 0.97290245167 0.22920921863 -0.030396605397 
0.91747691493 0.39592044573 -0.03851118313 0.84142302451 0.53853989847 -0.044520462536 0.75560772234 0.65324303086 -0.048275382635 
0.66834635432 0.74216834054 -0.049993049195 0.58499072836 0.80949822169 -0.049984765738 0.50771033643 0.86015726252 -0.04857672293 
0.43732737821 0.89812438042 -0.046014797194 0.37365589041 0.92659392268 -0.042485032816 0.31591516243 0.94802120809 -0.038123472555 
0.26367534159 0.96404639198 -0.033013154056 0.21621410909 0.97596659568 -0.027215127207 0.17307982122 0.98468882928 -0.020767401988 
0.13370359112 0.99092669706 -0.013697838654 0.097843116392 0.99518364137 -0.0060203433216 0.065276724344 0.99786465285 0.0022547402434 
0.035653262081 0.99930238027 0.01111745 0.0088572039218 0.99974935917 0.020561341653 -0.015268145361 0.99941579573 0.030576968156 
-0.036801916455 0.99847485927 0.041153060024 -0.055964985685 0.99706362192 0.052269056087 -0.072754082465 0.99530065456 0.063901882015 
-0.08735877847 0.9932723328 0.076016555537 -0.09986622851 0.99105112141 0.08856868045 -0.11042710287 0.98868770122 0.10150115467 
-0.11907045473 0.98623295995 0.11474657081 -0.12598767056 0.98371057167 0.12822097354 -0.13134424064 0.98113945476 0.1418240486 
-0.13516241871 0.97855384219 0.15544612734 -0.13775198347 0.97595006947 0.16895518029 -0.13913107028 0.97336570013 0.18221349867 
-0.13956747942 0.97080922229 0.19506504709 -0.13914208028 0.96832131057 0.20734830838 -0.13811627843 0.96592466671 0.21889137005 
-0.13659319163 0.96367092536 0.22952265164 -0.13477454653 0.96160270717 0.23907332591 -0.13282672797 0.95977063918 0.24738104315 
-0.13090551574 0.95822622871 0.25429557715 -0.12910872272 0.95702306098 0.25968788663 -0.12766989435 0.95618731594 0.26345059291 
-0.12766989435 0.95618731594 0.26345059291 
BinormalArray 3 187 double
-0.98593642546 0.0048461473247 -0.16705053071 -0.98593642546 0.0048461473247 -0.16705053071 -0.98599199489 0.0039140733947 -0.16674671222 
-0.98597577394 0.0041902284671 -0.16683589298 -0.98600070594 0.0037584580402 -0.16669877585 -0.98601519286 0.0035001129382 -0.16661869238 
-0.9860436973 0.0029721521279 -0.1664601854 -0.98607272446 0.00240732101 -0.16629728467 -0.98610919344 0.0016530410769 -0.16609011432 
-0.98614853662 0.00077583063395 -0.16586278004 -0.98618771602 -0.00018004407894 -0.165631387 -0.98622866112 -0.0012931823548 -0.16538245269 
-0.98626734465 -0.0024917564978 -0.16513786977 -0.98630501669 -0.0038617439896 -0.16488632745 -0.9863381041 -0.0053329536651 -0.16464721077 
-0.98636478524 -0.0068709924265 -0.16443022805 -0.98638682785 -0.0087054280644 -0.16421096602 -0.986399119 -0.010582272921 -0.16402680736 
-0.98640126475 -0.012682349788 -0.16386489222 -0.98639037145 -0.015033223845 -0.16373160137 -0.98636113526 -0.017819910394 -0.16362811997 
-0.98630819943 -0.021008878417 -0.16356883188 -0.98621999949 -0.024837295186 -0.16356412004 -0.98607564383 -0.029637363458 -0.16363511643 
-0.98585031285 -0.035575712697 -0.1638094299 -0.98548511031 -0.043333933394 -0.16413795286 -0.98489837736 -0.053438325563 -0.16468008877 
-0.98393636184 -0.066856455596 -0.1655277928 -0.98233442695 -0.084833790809 -0.16680018452 -0.97963175679 -0.10899946619 -0.16864381831 
-0.97505826177 -0.14124231236 -0.17120746287 -0.96724718384 -0.18420161458 -0.17465008027 -0.95400041726 -0.24048421925 -0.17902665767 
-0.93241148089 -0.31099078134 -0.1841020484 -0.89870433029 -0.39555903256 -0.18937681611 -0.85046322124 -0.48898688867 -0.19391784864 
-0.78797245493 -0.58340770314 -0.19681174299 -0.71717130058 -0.66830208754 -0.19757946607 -0.64592620685 -0.73766538233 -0.19654291903 
-0.58139906677 -0.79003542534 -0.19447146799 -0.52763369907 -0.82745966675 -0.19212802896 -0.48524932906 -0.85348506441 -0.189990351 
-0.45226591873 -0.87179757212 -0.18821405897 -0.42685798561 -0.88481030234 -0.18682341659 -0.40659891912 -0.89452764818 -0.18573531061 
-0.38976881015 -0.90216544146 -0.18487236372 -0.3750723215 -0.90851632166 -0.18417070051 -0.36120942032 -0.91423740177 -0.18356940887 
-0.34783963027 -0.91950949808 -0.18305702541 -0.33429038071 -0.92460913826 -0.18261402687 -0.32026015375 -0.9296352492 -0.18224087732 
-0.30581389197 -0.93454357403 -0.18195101462 -0.29053051957 -0.93944612503 -0.18174981533 -0.27453911192 -0.94426155447 -0.18165459743 
-0.25793537989 -0.9489265495 -0.18168033316 -0.24058986342 -0.95344119158 -0.18184172187 -0.22255081007 -0.95775331128 -0.18215304463 
-0.2040598037 -0.9617736581 -0.1826226358 -0.18498598004 -0.96550198545 -0.18326511745 -0.16540072487 -0.96889307073 -0.18408915694 
-0.14541576457 -0.97190148772 -0.18509930738 -0.12507289878 -0.97449920028 -0.18630104308 -0.10427272637 -0.97667450975 -0.18770748665 
-0.08324109611 -0.9783828312 -0.18930915333 -0.06170792266 -0.97962272636 -0.19113201268 -0.039745753879 -0.98035878738 -0.19317588633 
-0.017291135654 -0.98056086483 -0.1954518022 0.0058494388411 -0.98018754907 -0.19798523358 0.029886543674 -0.97917495756 -0.20080636694 
0.054905986621 -0.97744402115 -0.2039326314 0.081377759976 -0.97485899069 -0.20743097274 0.10961979687 -0.97124336449 -0.21135237655 
0.14009493289 -0.96634220538 -0.21576874629 0.17342381194 -0.95978270838 -0.22077439648 0.21027169428 -0.95105147651 -0.22646612021 
0.25158112165 -0.93937807858 -0.23297159637 0.29863033595 -0.92358301432 -0.2404461231 0.35254970541 -0.90206493163 -0.2489730193 
0.41504044471 -0.87226667445 -0.25863541501 0.48771700925 -0.83041599747 -0.26933508874 0.57175300694 -0.77094466469 -0.28061151623 
0.66672577933 -0.68602860188 -0.29127562991 0.76813005737 -0.56626583093 -0.29886321904 0.86436103607 -0.40407809555 -0.29933408095 
0.93620698804 -0.20137587791 -0.28803512172 0.96457771697 0.022678464245 -0.26282221211 0.94452859806 0.23749681618 -0.22685014821 
0.88858712409 0.41892894643 -0.18684608838 0.81565835882 0.55906948358 -0.14880441597 0.73989981855 0.66270458978 -0.11563254388 
0.66884727905 0.73817304895 -0.087999244927 0.60534309427 0.79326982262 -0.065442545261 0.54973512023 0.83400867007 -0.047125744826 
0.50130267103 0.86467262105 -0.032200783049 0.45950558621 0.8879477355 -0.020085697772 0.42345058688 0.90586153257 -0.010221755714 
0.39260621276 0.91970394704 -0.0022386397752 0.36616682438 0.93053953731 0.0042457314094 0.34437980876 0.93878419207 0.0093160098776 
0.32666187813 0.94504861632 0.01323367527 0.3129834294 0.94962193104 0.016110897424 0.30384865325 0.95255136185 0.017941542918 
0.29876879085 0.9541380959 0.018913052818 0.29916929606 0.95401404287 0.018839806158 0.30391556381 0.95252876538 0.018007809305 
0.31483408603 0.94900900029 0.016168352806 0.33132288372 0.94342098906 0.013490149371 0.35418611358 0.93512257725 0.009897599099 
0.38336232853 0.92358197755 0.0054457144125 0.41837326805 0.90827515206 0.00023819313123 0.45994764486 0.88792699956 -0.0058144166289 
0.50549178556 0.86274332644 -0.012329128367 0.5543235773 0.8320794442 -0.019213802008 0.60464511503 0.79606313897 -0.026225248032 
0.6541062199 0.75568048406 -0.033046317626 0.70069606904 0.71237085059 -0.039405457111 0.74320538682 0.66753897961 -0.045138273216 
0.78014135993 0.62359874088 -0.050040672451 0.81182284745 0.58138717747 -0.054153616914 0.83782653695 0.54290779743 -0.057426626957 
0.85881283106 0.50876871979 -0.059957576466 0.87530115626 0.47960854195 -0.061834717891 0.88797981974 0.45552284183 -0.063172623017 
0.89738187995 0.436578206 -0.064072081194 0.90396975198 0.42268412962 -0.06462827617 0.90826753873 0.41331962986 -0.064938137152 
0.91038009307 0.40862563528 -0.0650628645 0.91060177006 0.40812978562 -0.065072993348 0.90903371416 0.41161856054 -0.065022051221 
0.90562814683 0.41906870319 -0.064954458529 0.90031707012 0.43036695143 -0.064911172853 0.89309293548 0.44516217409 -0.064928016649 
0.88330421681 0.4642667167 -0.065039036962 0.87091066664 0.4870875865 -0.065270926276 0.85515301115 0.51420105551 -0.065655175169 
0.83524729087 0.5458727828 -0.066218336587 0.81007384045 0.58248901961 -0.06698443891 0.77820034383 0.62432731701 -0.067967831292 
0.737509351 0.67178498094 -0.069172946829 0.68526732057 0.72486423294 -0.07057296341 0.61799751863 0.78286812048 -0.072087258953 
0.53203411427 0.84352321872 -0.073541013957 0.42196801068 0.90353198925 -0.074652142338 0.28653811285 0.95513235096 -0.074953999426 
0.12641854063 0.98921938174 -0.073914595126 -0.051126101131 0.99615946376 -0.071080549623 -0.23077419879 0.97073854489 -0.066407429044 
-0.39762627952 0.91556262027 -0.060319401506 -0.54030959896 0.83975903828 -0.05357513328 -0.65499898829 0.75417280386 -0.046901036836 
-0.74384375856 0.66710954206 -0.040759314822 -0.81103979955 0.58391956412 -0.035389068551 -0.86152574765 0.50677722426 -0.030825818672 
-0.89929258458 0.4365109946 -0.027036991498 -0.92754570364 0.37294176193 -0.023945978111 -0.94875092316 0.31529534177 -0.021460038589 
-0.96455834856 0.26314714091 -0.01951344273 -0.97627549456 0.21577957426 -0.01803701914 -0.98482026236 0.17274484044 -0.016978543917 
-0.99091800889 0.13347725585 -0.016288702315 -0.99508478116 0.097737031207 -0.015929564954 -0.99773927353 0.065304369283 -0.015864470047 
-0.99922889649 0.035829294061 -0.016058458793 -0.99982193851 0.0091967334793 -0.016477602156 -0.99974518563 -0.014750381488 -0.017087716582 
-0.99918899246 -0.036092453503 -0.017851950525 -0.99830762218 -0.055052509066 -0.018738002417 -0.99723659991 -0.071630562403 -0.019703460079 
-0.99607801487 -0.086020180531 -0.020715135585 -0.99491812131 -0.098313536995 -0.021734312329 -0.99381837054 -0.10866682388 -0.022728127046 
-0.99283655944 -0.1171157024 -0.023653297496 -0.99199787503 -0.1238575758 -0.024485033097 -0.99131602342 -0.12906377315 -0.025200876372 
-0.99081290571 -0.13276326597 -0.025762396762 -0.99046308871 -0.13526845653 -0.02617851354 -0.99027363155 -0.13660223534 -0.026419007491 
-0.99021205613 -0.13703176371 -0.026502445632 -0.99026861509 -0.13663827041 -0.026420693287 -0.99040632215 -0.13567762999 -0.026208734581 
-0.99060979267 -0.13424851015 -0.025876170376 -0.99085009691 -0.13254373414 -0.025460635986 -0.99110414147 -0.1307198287 -0.024998142799 
-0.99135139838 -0.12892178757 -0.024527079273 -0.991579997 -0.12723808131 -0.02407447233 -0.99176114349 -0.12588850642 -0.02370481415 
-0.99176114349 -0.12588850642 -0.02370481415 
