# vtk DataFile Version 4.1
vtk output
ASCII
DATASET POLYDATA
POINTS 112 float
-3.80256 -0.818567 186.076 -4.03506 -0.581631 182.789 -4.26779 -0.344822 179.498 
-4.50148 -0.10852 176.2 -4.73683 0.1269 172.886 -4.9745 0.361073 169.55 
-5.21512 0.593652 166.188 -5.45926 0.824315 162.792 -5.70741 1.05277 159.358 
-5.95994 1.27876 155.88 -6.21715 1.50209 152.356 -6.47919 1.72258 148.781 
-6.7461 1.94013 145.153 -7.01775 2.1547 141.469 -7.29389 2.36631 137.728 
-7.57411 2.57504 133.93 -7.85784 2.78107 130.075 -8.14437 2.98461 126.165 
-8.43283 3.18599 122.2 -8.72222 3.38556 118.184 -9.01139 3.58378 114.12 
-9.2991 3.78115 110.011 -9.58398 3.97821 105.862 -9.86461 4.17556 101.677 
-10.1395 4.37385 97.4608 -10.4071 4.5737 93.2196 -10.6658 4.77577 88.9583 
-10.9141 4.9807 84.6825 -11.1504 5.18909 80.3978 -11.3734 5.40153 76.1095 
-11.5815 5.6185 71.8232 -11.7734 5.84045 67.5443 -11.948 6.06772 63.278 
-12.1042 6.30056 59.0293 -12.2409 6.5391 54.8031 -12.3573 6.78338 50.6042 
-12.4528 7.03331 46.437 -12.5266 7.28867 42.306 -12.5785 7.54916 38.2153 
-12.6079 7.81436 34.1688 -12.6146 8.08375 30.1701 -12.5986 8.35673 26.2225 
-12.5596 8.63265 22.3292 -12.4977 8.9108 18.4925 -12.4128 9.19044 14.7147 
-12.3049 9.47082 10.9972 -12.1741 9.75118 7.34091 -12.0203 10.0308 3.74606 
-11.8434 10.309 0.212045 -11.6435 10.5852 -3.26249 -11.4204 10.8587 -6.67977 
-11.1739 11.1292 -10.0429 -10.9037 11.3961 -13.3556 -10.6098 11.6591 -16.6227 
-10.2916 11.9181 -19.8495 -9.94894 12.1728 -23.0421 -9.58142 12.4231 -26.2069 
-9.18868 12.669 -29.3507 -8.77038 12.9104 -32.4807 -8.32622 13.1475 -35.604 
-7.85594 13.3804 -38.7275 -7.35936 13.6091 -41.8579 -6.83638 13.8338 -45.0015 
-6.28704 14.0545 -48.1639 -5.71147 14.2715 -51.3499 -5.10994 14.4847 -54.5638 
-4.4829 14.6943 -57.8088 -3.8309 14.9002 -61.0871 -3.15469 15.1026 -64.4003 
-2.45514 15.3014 -67.7487 -1.73327 15.4965 -71.1322 -0.990208 15.6879 -74.5497 
-0.227226 15.8755 -77.9994 0.554331 16.0591 -81.4792 1.35304 16.2387 -84.9865 
2.16745 16.4141 -88.5184 2.99605 16.5851 -92.072 3.83736 16.7516 -95.6442 
4.68992 16.9134 -99.2323 5.55229 17.0704 -102.834 6.42312 17.2223 -106.446 
7.30113 17.3691 -110.066 8.1851 17.5106 -113.695 9.07393 17.6466 -117.329 
9.96661 17.7769 -120.968 10.8622 17.9013 -124.612 11.7599 18.0197 -128.26 
12.659 18.1319 -131.913 13.5588 18.2376 -135.571 14.4586 18.3366 -139.234 
15.358 18.4288 -142.902 16.2565 18.5139 -146.576 17.1536 18.5916 -150.256 
18.0488 18.6618 -153.942 18.9419 18.7242 -157.634 19.8325 18.7788 -161.333 
20.7201 18.8252 -165.038 21.6047 18.8636 -168.749 22.4858 18.8937 -172.464 
23.3633 18.9156 -176.184 24.2371 18.9295 -179.907 25.107 18.9354 -183.633 
25.973 18.9335 -187.361 26.8352 18.9243 -191.09 27.6937 18.9082 -194.82 
28.5486 18.8856 -198.549 29.4002 18.8572 -202.279 30.2488 18.8236 -206.008 
31.0949 18.7856 -209.735 31.939 18.7441 -213.462 32.7814 18.7 -217.189 
33.6229 18.6543 -220.914 
LINES 1 113
112 111 110 109 108 107 106 105 104 103 102 101 100 99 98 97 96 95 94 93 92 91 90 89 88 87 86 85 84 83 82 81 80 79 78 77 76 75 74 73 72 71 70 69 68 67 66 65 64 63 62 61 60 59 58 57 56 55 54 53 52 51 50 49 48 47 46 45 44 43 42 41 40 39 38 37 36 35 34 33 32 31 30 29 28 27 26 25 24 23 22 21 20 19 18 17 16 15 14 13 12 11 10 9 8 7 6 5 4 3 2 1 0 

CELL_DATA 1
FIELD FieldData 2
LengthArray 1 1 double
412.80380503 
TortuosityArray 1 1 double
0.0088769650885 
POINT_DATA 112
FIELD FieldData 8
RadiusArray 1 112 double
110.64722236 110.63932449 110.3644629 110.09918536 109.32746094 109.07848775 108.92948838 108.42691656 108.29297802 
108.18833019 107.52148507 107.30291168 107.23906152 106.23651119 106.19550943 104.8732799 104.28990208 103.2031822 
102.38615449 101.6064877 100.55784883 99.806728435 99.733346173 97.78194895 96.839344453 96.311993626 94.55603029 
94.089570715 93.573411851 92.089491874 90.904905902 90.36405578 89.929575053 89.419763581 88.404113841 88.316206891 
85.807753359 85.174273784 83.148580378 82.904611204 82.003828321 81.18367086 80.394895959 80.310273829 79.505084239 
79.194529921 78.339602327 78.196967733 77.644108184 77.503448623 77.341718487 77.010330032 76.970314514 76.266261958 
76.237340455 75.844945826 75.70981695 75.708090328 75.670657683 75.648848147 75.633216785 75.248558551 75.153055465 
74.871932209 74.783520535 74.640765734 74.622751582 74.656401282 74.758589031 75.028725821 75.392870402 75.544716286 
75.621475449 75.855966785 76.027349706 75.889103181 76.022830634 76.125759086 76.088490029 75.959583844 75.978455127 
75.969148092 75.96957301 75.890074238 75.515926151 75.473353796 75.467104302 75.203284478 74.903279494 74.873166861 
74.544550801 73.629511305 73.328348908 72.766813682 72.75312053 71.947509721 71.855119104 70.819102726 70.043967495 
69.85033753 69.356369987 69.281657625 69.098058364 68.529519994 68.306867881 67.796431754 67.028187327 66.86646218 
66.304671262 66.201477974 65.042875026 64.672680598 
EdgeArray 2 112 int
15727 15727 13202 13188 14853 13149 11093 11093 12984 
12756 12974 12802 12774 12802 12674 12763 12763 12728 
12599 12731 12676 12675 12624 12675 12679 12624 12547 
12546 12548 12546 12174 12450 12138 12138 12331 12331 
5114 5114 12180 12179 11996 12176 11944 11944 12130 
12130 11945 11945 4281 11886 11739 11609 11724 11745 
10811 11461 11155 10582 10985 9797 10989 10989 10622 
10614 10609 10616 10120 10609 10120 10120 9029 9029 
5766 5766 6008 6008 9053 9053 6124 8148 8754 
8754 8019 8019 7948 7948 8145 8145 3954 3954 
8454 8454 6566 6566 8237 8237 8684 8684 8936 
9855 9848 9848 3584 3584 7224 5821 8938 8938 
5981 9078 8914 6935 8914 5683 8918 5683 6615 
8402 8580 8402 8580 8662 7622 7622 9617 9130 
6404 6404 6759 6759 7220 7220 9347 9347 7573 
7573 7566 7566 7817 7817 7509 3204 3204 5667 
5667 5667 7995 8027 8043 9144 6397 6397 7361 
6443 5655 5655 6613 6613 6213 5958 6440 6440 
2934 2934 6217 6217 6429 6429 6161 6161 3201 
2704 2704 5887 5887 3930 5415 5415 5703 5416 
3370 3370 5079 1261 4535 5079 4161 4161 3208 
3208 3530 3530 4700 2431 4193 4193 3618 2162 
3618 4572 4328 3352 2209 4332 4332 4522 4327 
4333 4110 3920 3920 4111 3915 3915 2719 2719 
3748 3748 3908 3912 754 754 3066 3066 
EdgePCoordArray 1 112 double
0 0.268 0.724 0 0.144 0.364 0.584 0.824 0.072 
0.136 0.492 0.152 0.956 0.692 0.612 0.1 0 0 
0 0.412 0.016 0 0 0 0.12 0.016 0.216 
0.7 0.972 0.604 0 0.212 0.512 0.664 0 0 
0 0 0 0.992 0 0 0 0 0 
0 0 0 0 0.332 0 0 0.944 0 
0.036 0.668 0.992 0.968 0.692 0.376 0.02 0 0.56 
0 0 0 0 0 0 0 0.98 0.668 
0 0.6 0.208 0 0.9 0 0 0.284 0 
0 0 0 0 0.984 0.028 0.032 0 0.764 
0 0.544 0.372 0 0 0 0.82 0 0.216 
0.32 0.184 0.368 0.316 0.524 0.608 0.584 0 0 
0 0.988 0 0 
CurvatureArray 1 112 double
0 2.706590045e-05 0.00010741975236 0.00018502774595 0.0002569976512 0.00032121599392 0.00037569956721 0.00041923697805 0.00045100180382 
0.00047097777511 0.00047950705355 0.0004774921014 0.00046616662573 0.00044720489873 0.00042247441335 0.00039445331517 0.00036612543303 0.00034089741567 
0.00032325876074 0.0003172770622 0.00032631554465 0.0003508191854 0.00038928315548 0.00043852960312 0.00049594185803 0.00055909297078 0.00062590967865 
0.00069494511138 0.00076507557196 0.00083528109023 0.00090494400633 0.0009731974633 0.0010397072377 0.0011040513257 0.0011662786132 0.0012262550836 
0.0012843061748 0.0013409135199 0.0013968067368 0.0014528113184 0.0015099401126 0.0015694067564 0.0016322912709 0.0016998926706 0.0017729872437 
0.0018524305369 0.0019384968644 0.0020306085528 0.0021282971501 0.002229394057 0.002331205849 0.0024305103598 0.0025227221392 0.0026033213709 
0.002667072109 0.0027099346642 0.0027278408153 0.0027184699006 0.0026806228031 0.0026156216185 0.0025253629286 0.0024141732563 0.0022865880635 
0.0021478990268 0.0020032988023 0.001857308271 0.0017140625876 0.0015764109415 0.0014466508346 0.0013259056512 0.0012148865182 0.001113450319 
0.0010211795489 0.00093738699234 0.00086141404728 0.00079252931416 0.00072970120443 0.00067287689397 0.00062105226238 0.00057514888895 0.00053463679926 
0.00050094778954 0.00047424531331 0.00045556767214 0.0004457144436 0.00044453842969 0.00045153652694 0.00046518730494 0.00048439605723 0.00050689007338 
0.00053090276511 0.0005550911845 0.00057806870342 0.00059882927168 0.00061630864433 0.00063001737525 0.00063890174856 0.000642961969 0.00064136027382 
0.0006340062509 0.00062053813423 0.00060056134983 0.00057366958713 0.00054024393953 0.00049950770816 0.00045250260749 0.0003986831345 0.00033891933215 
0.00027339258402 0.00020303919699 0.00012918074738 0 
TorsionArray 1 112 double
0 0 -0.00072716277416 -0.0010250937244 -0.0017601186585 -0.0026831098344 -0.0035360524802 -0.0044716905935 -0.0056392932289 
-0.0070564545128 -0.0087912569575 -0.010922566813 -0.013633384709 -0.017121517222 -0.02156924987 -0.027292905956 -0.034316436919 -0.042191166003 
-0.04931781283 -0.053201927844 -0.051692208353 -0.04546936897 -0.037150545414 -0.029133392532 -0.022412484712 -0.017162474777 -0.013117378842 
-0.010007648214 -0.0076147403204 -0.0057038493667 -0.004148770227 -0.0028737018875 -0.0017778196893 -0.00080073405137 6.838173935e-05 0.00088114548952 
0.0016614563246 0.0024090479053 0.0031433344888 0.0038621164346 0.0045550217926 0.0052212529162 0.00584945907 0.006413793721 0.0069076961868 
0.0073069085168 0.007617571108 0.0078186597639 0.0079090111081 0.0079311844499 0.0078614990663 0.0077301638543 0.0075687302567 0.0073803709249 
0.0071851235244 0.0069901689944 0.0068118267779 0.0066571925169 0.0065198090217 0.0064065702062 0.0063158566487 0.0062428092644 0.0061823095307 
0.0061374875143 0.006132082941 0.0061235710831 0.0061297951493 0.0061800117329 0.0062970030546 0.0064601609513 0.0066858161815 0.0071053045468 
0.0076364036733 0.0083628325548 0.0094382211625 0.010694858301 0.012368920891 0.014519870981 0.01700531711 0.02000126258 0.023418038783 
0.026785556823 0.029918181115 0.032218368026 0.0331184525 0.032388083816 0.030131963623 0.026806823662 0.022915857031 0.019105936934 
0.015473174283 0.012310034895 0.0096181297074 0.0073305466617 0.0054754737939 0.0039630423161 0.002715366933 0.0017119505716 0.00095891164811 
0.00033521494838 -4.898145847e-05 -0.0004764674337 -0.00075813948173 -0.00077904113079 -0.00087642395971 -0.00093140135503 -0.00097193657684 -0.00075144246388 
-0.00080800211114 -0.00075133289695 0 0 
TangentArray 3 112 double
0.070366549194 -0.071654006577 0.99494434623 0.070366549194 -0.071654006577 0.99494434623 0.070431275172 -0.071441087573 0.99495507762 
0.070571788747 -0.070976698231 0.99497835702 0.070782770414 -0.070270939613 0.99501346446 0.071055244491 -0.069340369896 0.99505932754 
0.071376122442 -0.068206860038 0.99511470363 0.071729892014 -0.066897181921 0.9951781698 0.072098978964 -0.06544182274 0.99524826303 
0.072463880291 -0.063873635398 0.9953236382 0.072803869194 -0.06222663694 0.99540315565 0.073097576653 -0.060535121951 0.99548593325 
0.073323670203 -0.05883274501 0.99557136736 0.073460999132 -0.057151748791 0.99565915815 0.073488899878 -0.055522546866 0.99574927988 
0.073387748297 -0.053973312789 0.99584191512 0.073138607681 -0.05252939849 0.99593745103 0.072723663893 -0.051213758197 0.9960363546 
0.072126268035 -0.050046466016 0.99613912316 0.071331118941 -0.049044693158 0.99624619926 0.070323900766 -0.048222952887 0.99635791551 
0.069091646838 -0.047592919058 0.99647441432 0.067622947938 -0.047163615266 0.99659557008 0.065908236404 -0.0469412725 0.99672093452 
0.06393973074 -0.046929364815 0.99684971061 0.061710905137 -0.047128526824 0.99698077521 0.059217675487 -0.047536866276 0.99711258805 
0.056458343437 -0.04814948659 0.99724324134 0.053433257741 -0.048958592419 0.9973705145 0.05014509608 -0.049953996456 0.99749188848 
0.04659842182 -0.051122694657 0.99760465976 0.042799890241 -0.052449053415 0.99770600188 0.03875812331 -0.053915434503 0.99779303155 
0.034482910162 -0.055502212947 0.9978629331 0.029984562789 -0.057187989012 0.99791305228 0.025273666814 -0.058950483726 0.99794092121 
0.020360553515 -0.060766492705 0.99794432772 0.015254188804 -0.062612355266 0.99792134093 0.009961693658 -0.064464659787 0.99787026827 
0.0044877783561 -0.066300322407 0.99778962066 -0.0011655215088 -0.068096917248 0.99767802994 -0.0069993050746 -0.06983314012 0.99753413088 
-0.01301773786 -0.071488723322 0.99735645631 -0.019228002132 -0.073044502894 0.99714331193 -0.025639525993 -0.074482607381 0.99689265014 
-0.032263160727 -0.075786230026 0.99660199468 -0.039110349361 -0.076939880773 0.99626835507 -0.046190901217 -0.077928877143 0.99588829231 
-0.053512142588 -0.078739943771 0.99545792068 -0.061076882155 -0.079361478422 0.99497304999 -0.068880601599 -0.07978283297 0.99442956628 
-0.076910720061 -0.079995780787 0.99382363435 -0.085144615401 -0.079994660531 0.99315217804 -0.093548576852 -0.079776520339 0.99241340709 
-0.10207762284 -0.079342064582 0.99160727897 -0.11067674905 -0.078695962229 0.9907358895 -0.11928281921 -0.077847191254 0.98980372997 
-0.12782669588 -0.076808898407 0.98881784417 -0.13623673673 -0.07559806129 0.98778767187 -0.14444312386 -0.074235091513 0.98672454878 
-0.15238111502 -0.072742805887 0.98564115173 -0.15999430571 -0.071145445592 0.98455073395 -0.16723753104 -0.069467458172 0.98346625792 
-0.17407770937 -0.067732637795 0.98239973579 -0.180494525 -0.065962896751 0.98136161668 -0.1864793021 -0.064177206583 0.9803605235 
-0.19203404585 -0.062392020528 0.97940296151 -0.19716938235 -0.060620663962 0.97849341835 -0.20190225506 -0.058873052468 0.97763461635 
-0.20625374242 -0.057155688748 0.9768278359 -0.21024731481 -0.05547271382 0.97607317586 -0.21390711062 -0.053826100207 0.97536992929 
-0.21725583133 -0.052214920064 0.97471714147 -0.22031461414 -0.050637283049 0.97411361574 -0.22310223648 -0.049089801484 0.97355820754 
-0.22563444007 -0.047566933919 0.97305009442 -0.22792431191 -0.046063813527 0.97258862482 -0.22998193795 -0.044574179587 0.97217357027 
-0.23181433795 -0.043091224137 0.97180515492 -0.23342732852 -0.041608502001 0.97148361533 -0.23482481386 -0.040118751715 0.97120944835 
-0.23600934313 -0.038614506998 0.97098326958 -0.23698402502 -0.037088874907 0.97080532922 -0.23775128249 -0.035535681046 0.97067581769 
-0.2383147056 -0.033948387395 0.97059446119 -0.23867897005 -0.032321097306 0.97056050606 -0.23885009182 -0.030648598189 0.9705726645 
-0.23883569253 -0.028926973664 0.97062904457 -0.23864525751 -0.027152654778 0.97072713695 -0.23829030545 -0.025323138133 0.97086377469 
-0.2377834655 -0.023438220912 0.97103536153 -0.23713951705 -0.021498688035 0.97123769278 -0.23637404738 -0.019506770756 0.97146631214 
-0.23550341036 -0.01746643763 0.97171655706 -0.23454490098 -0.015383537822 0.97198355757 -0.2335157995 -0.01326586251 0.97226250996 
-0.23243360491 -0.011123575893 0.9725486545 -0.23131584552 -0.0089686611993 0.97283736705 -0.2301796409 -0.0068149616091 0.97312429279 
-0.2290413873 -0.004678692136 0.97340544109 -0.22791703733 -0.0025773507591 0.97367714431 -0.22682126508 -0.00053082906344 0.9739362566 
-0.22576964707 0.0014397023476 0.97417965167 -0.2247761651 0.0033121713963 0.97440479531 -0.22385307051 0.0050627291637 0.97460975349 
-0.22301246948 0.0066681676306 0.97479278516 -0.22226549123 0.00810593702 0.97495248356 -0.22162238262 0.0093538748363 0.97508770095 
-0.22109120489 0.010391018159 0.97519777782 -0.22068030672 0.011199077625 0.97528189919 -0.22039508966 0.011763112281 0.97533975293 
-0.22039508966 0.011763112281 0.97533975293 
NormalArray 3 112 double
-0.28695652772 -0.95670969447 -0.048605675582 -0.28695652772 -0.95670969447 -0.048605675582 -0.29140052268 -0.95539747332 -0.047972943939 
-0.28804548155 -0.95642320832 -0.047795890463 -0.28469603228 -0.95744696789 -0.047365312989 -0.27752307017 -0.95956619096 -0.047049661987 
-0.26749448542 -0.96242317209 -0.046779676034 -0.25432248986 -0.96599590194 -0.046604598313 -0.23757408596 -0.97025159281 -0.046587555533 
-0.2159167079 -0.97528629505 -0.046868090894 -0.18854663811 -0.98091335823 -0.047530504967 -0.15358521744 -0.98693274731 -0.048737390847 
-0.10946157911 -0.99270220332 -0.050601365732 -0.052781679258 -0.99718023989 -0.053344760845 0.019571575687 -0.99817647663 -0.05710231975 
0.11215415757 -0.99175367709 -0.06201684381 0.22924848311 -0.97098635832 -0.06804869537 0.37219797936 -0.925138932 -0.074743699837 
0.534546003 -0.84125179088 -0.080969099172 0.69731416855 -0.7117119691 -0.084964836102 0.83419689668 -0.5448378569 -0.085248151055 
0.92697087958 -0.366115425 -0.081758693708 0.97660414083 -0.20124653823 -0.07579038834 0.99557950989 -0.063892436662 -0.068841818809 
0.9970936038 0.044468535837 -0.061861899294 0.99027768654 0.1276568452 -0.055261500211 0.98033118074 0.19115225709 -0.049107949327 
0.97002686169 0.23909546129 -0.043373355868 0.960593484 0.27535472805 -0.037946438925 0.95258650752 0.30250146535 -0.032738496617 
0.94622195665 0.3223318333 -0.027680281672 0.94148993934 0.33627507996 -0.022710454175 0.93828396126 0.34540843916 -0.017782524864 
0.93654807859 0.35030244862 -0.012879867295 0.93616504488 0.35147007234 -0.0079873020161 0.93697988538 0.34936962565 -0.0030917752126 
0.93893187507 0.34409839834 0.0017961724655 0.94187707967 0.33589132328 0.0066772557984 0.94569323926 0.32485534777 0.011545572101 
0.95024635099 0.31106760649 0.016395628151 0.95536867135 0.29465248305 0.021227718618 0.96087002972 0.27577219545 0.026047691038 
0.96656400699 0.25456145931 0.030862336536 0.97223397982 0.23127334722 0.035689316963 0.97766260754 0.20623104488 0.040553445528 
0.98266116712 0.17974579222 0.045480554296 0.98704369354 0.15229421109 0.050509606048 0.99070232367 0.12413860259 0.055664290369 
0.99352324104 0.095872799316 0.060991604873 0.99548361544 0.067739360782 0.066511280167 0.99658495833 0.039999290574 0.072239030926 
0.99685319303 0.013020412374 0.078193224873 0.99634849449 -0.013168606747 0.084357959429 0.99513467359 -0.038442072744 0.090714874516 
0.99327849934 -0.062811990862 0.09722384763 0.99084456737 -0.086286352566 0.10383500696 0.98788912584 -0.10894212294 0.11048388524 
0.98445841832 -0.13088167611 0.11709658171 0.98058678339 -0.15223124489 0.12359291369 0.97631156646 -0.17303628157 0.12990061764 
0.97164136151 -0.19347883299 0.13593750691 0.96660586705 -0.2135640628 0.14164564544 0.96119609418 -0.23346282194 0.14695978805 
0.95544420971 -0.25311652194 0.1518498879 0.94931253705 -0.27273818105 0.15626769212 0.94278736756 -0.29238770661 0.16019178692 
0.93588669011 -0.31199773302 0.16362615276 0.928542452 -0.33176797492 0.1665500695 0.92071219026 -0.35176770029 0.16896315498 
0.91222635935 -0.37237320702 0.17082524402 0.90308855676 -0.39343327813 0.17216653075 0.8929961953 -0.41552324044 0.17291105179 
0.88156417849 -0.43923604074 0.17296329011 0.86863103277 -0.46453137397 0.17230998667 0.8533401607 -0.49261279326 0.17071381332 
0.8348967087 -0.52414831808 0.16797626752 0.81272054261 -0.55910296399 0.16397925259 0.78464288603 -0.59944060746 0.15813443498 
0.74949808449 -0.64474309897 0.15019639701 0.7049407643 -0.6953924219 0.13959906298 0.64823540471 -0.75099086936 0.12571226755 
0.57707911603 -0.80950592969 0.10807332526 0.49083749759 -0.86692671614 0.086698441747 0.38910864106 -0.91912612615 0.061657357162 
0.27681060144 -0.96030934859 0.034377986416 0.15913742499 -0.98723660386 0.0062584314086 0.045097008468 -0.99877345824 -0.020441109167 
-0.060104408707 -0.99719931429 -0.044508287303 -0.15083385259 -0.98644132732 -0.064673461801 -0.22695690879 -0.97052896583 -0.081019059764 
-0.28861056527 -0.95285322599 -0.093673215623 -0.33716837908 -0.93578881137 -0.10303778266 -0.37520549822 -0.92041847329 -0.10977553523 
-0.40415426507 -0.90752595907 -0.11426269573 -0.42591884379 -0.89716763448 -0.1169759554 -0.44194634682 -0.88920957208 -0.11827833045 
-0.45339076663 -0.88340455837 -0.11846180388 -0.46101758559 -0.87954714805 -0.11772680293 -0.46578344721 -0.87722052572 -0.11631822539 
-0.46842045389 -0.87606399275 -0.11442971203 -0.46905733083 -0.87602249401 -0.11211516575 -0.46916421479 -0.87626575055 -0.10974185152 
-0.46687084669 -0.87784032955 -0.10690167601 -0.46519792825 -0.87903775467 -0.10432407877 -0.46259345397 -0.88072092718 -0.10167568423 
-0.46029168481 -0.88220005714 -0.09927045924 -0.45709571896 -0.88412806471 -0.096855918309 -0.4546304817 -0.88561699834 -0.094834895284 
-0.45279788631 -0.88672795128 -0.093207374012 -0.44930465593 -0.88868454165 -0.091460983935 -0.44945928398 -0.88866949475 -0.090845369399 
-0.44945928398 -0.88866949475 -0.090845369399 
BinormalArray 3 112 double
0.9553556929 -0.28208556121 -0.087881944706 0.9553556929 -0.28208556121 -0.087881944706 0.95400480652 -0.28655163404 -0.088107832602 
0.95501278693 -0.28322597849 -0.087941013831 0.95600102961 -0.27992373732 -0.087776606604 0.95808772967 -0.27280879435 -0.087425762644 
0.96091214448 -0.26284874369 -0.0869389931 0.96445575002 -0.2497532472 -0.086304239603 0.968689987 -0.23308628121 -0.0855014304 
0.97371913882 -0.21151075952 -0.084464414411 0.97936191568 -0.1842195139 -0.083146911019 0.98542799091 -0.14932933835 -0.081439692016 
0.99128290719 -0.10526653614 -0.079228494138 0.99590038455 -0.048633802905 -0.07627042201 0.99710397403 0.023684769055 -0.072268227423 
0.99097713563 0.11623908758 -0.0667292378 0.97061623573 0.23329413675 -0.058974305402 0.92529991509 0.37615835426 -0.048217835429 
0.84205603859 0.53832218567 -0.033924213781 0.7132074185 0.70075722694 -0.016567651688 0.54696442896 0.83715366362 0.001912314265 
0.36871578859 0.92935160711 0.018821732395 0.20413595721 0.97840452996 0.032451297788 0.066914451754 0.99685218236 0.04252273125 
-0.04142530744 0.99790790359 0.049636275695 -0.12466702739 0.99069805281 0.054548147978 -0.18826588376 0.98040861938 0.057921464574 
-0.23634792799 0.96980151956 0.060205229036 -0.27277288255 0.96009521922 0.061742405018 -0.30010733919 0.95183898938 0.062754468065 
-0.3201446483 0.94524529056 0.063393570902 -0.33431252373 0.94030216813 0.063772792631 -0.34368738108 0.93690241545 0.063975370336 
-0.34883896772 0.934990748 0.064059938758 -0.35027979493 0.93445081313 0.064076072753 -0.34846798442 0.93512871047 0.064065268998 
-0.3435001919 0.93696516777 0.064061630791 -0.33561119845 0.93981738222 0.064096891992 -0.32490777441 0.94356415291 0.06419990239 
-0.31146706451 0.94807236614 0.064397641908 -0.295413851 0.95317507526 0.064714237547 -0.27691116936 0.95868296572 0.065170357696 
-0.25609482401 0.96441061062 0.065784612522 -0.23321957983 0.97014284487 0.066569423339 -0.20861073924 0.97566443889 0.067531193913 
-0.18258181481 0.98078942568 0.068673017864 -0.15561210623 0.98533584529 0.069986744297 -0.12796603659 0.98920002904 0.071470245736 
-0.100239813 0.99227437113 0.073099605227 -0.072677271927 0.99454167069 0.07486574251 -0.045539911716 0.99600941578 0.076755196072 
-0.019195121623 0.99671016044 0.078742640215 0.0063302441446 0.99670830341 0.080823795545 0.030913511355 0.99607123934 0.082984582725 
0.054570886547 0.99486656924 0.085220465556 0.077315590475 0.99315739482 0.087525359638 0.099230459494 0.99099517086 0.089899317272 
0.12042407736 0.98841812002 0.092345338849 0.14102876231 0.98544943108 0.094869947783 0.16109596261 0.98211384088 0.097470479532 
0.18081222411 0.9784040195 0.10016243926 0.20018721221 0.97433501254 0.10293863908 0.21939388492 0.96988111799 0.1058155954 
0.23837641082 0.96506181983 0.10877670093 0.25734691265 0.95982434896 0.1118471533 0.27636470372 0.95414396984 0.11502971512 
0.29536253742 0.94803198805 0.11830604855 0.31453640409 0.94141125228 0.12170334666 0.33395290403 0.93423415091 0.12522782903 
0.35398087948 0.92632144633 0.12894229339 0.37446912458 0.91767806647 0.13281506335 0.39598174604 0.90798853935 0.13694987845 
0.41909963369 0.89685299946 0.14145739429 0.44378102675 0.8841077243 0.14632816588 0.47120692081 0.86886295082 0.15179331498 
0.50203245438 0.8502975523 0.15797938883 0.53622367316 0.82781761321 0.16487016588 0.57571160282 0.79917713971 0.17283532551 
0.62009252057 0.76318378044 0.18175748459 0.66975383622 0.71742463863 0.19165512452 0.7243260087 0.65909270963 0.20235768636 
0.78184351618 0.5858404814 0.21333458829 0.83840152841 0.49705380413 0.22365239314 0.88998246788 0.39235746407 0.23235065582 
0.93090385756 0.27686361626 0.23825311322 0.95797057848 0.15594625569 0.240776112 0.97000870793 0.038887562869 0.2399392923 
0.96919810773 -0.068969252419 0.23642815017 0.95932142162 -0.16185252882 0.23131400505 0.94430307205 -0.23965029766 0.22552038257 
0.92744971031 -0.30252500643 0.219808224 0.91108854323 -0.35190496859 0.21466382899 0.89629690607 -0.39044758922 0.21024399217 
0.88385376264 -0.41963264549 0.20666632309 0.87383169314 -0.4414222269 0.20387395535 0.8661141945 -0.45730772333 0.20178168467 
0.86047163349 -0.46847908417 0.2002895795 0.85671218352 -0.47572720909 0.19931848169 0.85443730795 -0.48003927501 0.19874400929 
0.85330083868 -0.48217215852 0.19846331717 0.85325204042 -0.48226335882 0.1984515262 0.85348523904 -0.48182782468 0.19850666009 
0.85502027986 -0.47895123246 0.19886185644 0.85619306418 -0.47674065841 0.19912755075 0.85784444928 -0.47360850626 0.19949406918 
0.8593002987 -0.47082756368 0.19981091544 0.86119774449 -0.46717433468 0.20021634772 0.86266716909 -0.46432212663 0.20052510589 
0.8637666081 -0.46217482315 0.20075278222 0.86569366891 -0.45838233614 0.20114697494 0.86568606117 -0.45839738032 0.201145433 
0.86568606117 -0.45839738032 0.201145433 
