# vtk DataFile Version 4.1
vtk output
ASCII
DATASET POLYDATA
POINTS 155 float
-3.48926 -4.12794 156.942 -2.77755 -4.17284 154.533 -2.0664 -4.21755 152.126 
-1.35746 -4.26149 149.727 -0.652378 -4.30409 147.343 0.0472529 -4.34479 144.98 
0.73992 -4.38306 142.643 1.42422 -4.41838 140.337 2.09886 -4.45027 138.067 
2.76273 -4.47827 135.837 3.41487 -4.50198 133.649 4.05451 -4.52104 131.505 
4.6811 -4.53512 129.407 5.29426 -4.54396 127.355 5.89384 -4.54732 125.346 
6.47989 -4.54503 123.381 7.05265 -4.53696 121.455 7.61256 -4.523 119.565 
8.1602 -4.50312 117.707 8.69633 -4.47728 115.875 9.2218 -4.44551 114.063 
9.73759 -4.40783 112.265 10.2447 -4.36432 110.473 10.7443 -4.31505 108.682 
11.2374 -4.26011 106.884 11.725 -4.19962 105.071 12.2083 -4.13371 103.238 
12.6881 -4.06248 101.376 13.1653 -3.98609 99.4814 13.6408 -3.90466 97.5469 
14.115 -3.81834 95.5679 14.5886 -3.72727 93.5399 15.0617 -3.63161 91.4593 
15.5346 -3.53149 89.3233 16.0073 -3.42706 87.1298 16.4796 -3.31845 84.8778 
16.9513 -3.2058 82.5667 17.4217 -3.08923 80.1972 17.8904 -2.96884 77.7706 
18.3565 -2.84473 75.2888 18.8193 -2.71696 72.7546 19.2778 -2.58557 70.1713 
19.7308 -2.45058 67.543 20.1774 -2.31195 64.8739 20.6162 -2.16964 62.1689 
21.0461 -2.02356 59.4329 21.4658 -1.87359 56.6712 21.874 -1.71956 53.889 
22.2694 -1.56129 51.0916 22.6507 -1.39858 48.2841 23.0166 -1.23121 45.4714 
23.3659 -1.05894 42.6581 23.6973 -0.881542 39.8486 24.0095 -0.69881 37.0468 
24.3015 -0.510546 34.2561 24.5722 -0.316591 31.4794 24.8204 -0.116824 28.7195 
25.0453 0.0888227 25.9782 25.2459 0.300362 23.2572 25.4216 0.517746 20.5577 
25.5715 0.740862 17.8805 25.6953 0.969531 15.2261 25.7924 1.20352 12.5945 
25.8627 1.44252 9.98586 25.906 1.68619 7.39981 25.9224 1.93412 4.836 
25.9123 2.1859 2.29398 25.876 2.44106 -0.226721 25.8142 2.69912 -2.72658 
25.7277 2.95961 -5.20605 25.6175 3.22204 -7.66549 25.4847 3.48596 -10.1052 
25.3307 3.75093 -12.5255 25.1569 4.01651 -14.9265 24.9649 4.28234 -17.3082 
24.7563 4.54806 -19.6708 24.533 4.81336 -22.0142 24.2966 5.07798 -24.3384 
24.049 5.34168 -26.6435 23.7922 5.60426 -28.9295 23.5279 5.86557 -31.1966 
23.2579 6.12548 -33.4448 22.9839 6.38388 -35.6747 22.7078 6.64071 -37.8865 
22.431 6.89591 -40.0811 22.1551 7.14945 -42.259 21.8816 7.40133 -44.4214 
21.6118 7.65154 -46.5693 21.347 7.90011 -48.7041 21.0881 8.14708 -50.8274 
20.8364 8.39248 -52.9409 20.5926 8.63639 -55.0466 20.3577 8.87888 -57.1466 
20.1322 9.12005 -59.2432 19.917 9.36001 -61.3389 19.7124 9.59886 -63.4362 
19.519 9.83675 -65.538 19.337 10.0738 -67.6468 19.167 10.3102 -69.7654 
19.009 10.546 -71.8967 18.8632 10.7814 -74.0432 18.7298 11.0165 -76.2075 
18.6089 11.2515 -78.392 18.5005 11.4863 -80.5987 18.4046 11.7211 -82.8295 
18.3211 11.9558 -85.0859 18.2501 12.1905 -87.3688 18.1915 12.4249 -89.6791 
18.1451 12.659 -92.0168 18.1109 12.8926 -94.3819 18.0888 13.1254 -96.7737 
18.0786 13.357 -99.1909 18.0804 13.5873 -101.632 18.0938 13.8157 -104.096 
18.119 14.0418 -106.579 18.1557 14.2652 -109.08 18.2039 14.4854 -111.595 
18.2637 14.702 -114.123 18.3349 14.9144 -116.66 18.4176 15.1224 -119.204 
18.5119 15.3253 -121.753 18.6179 15.523 -124.304 18.7356 15.7149 -126.855 
18.8654 15.9009 -129.405 19.0074 16.0806 -131.954 19.1619 16.2538 -134.501 
19.3292 16.4203 -137.046 19.5097 16.5799 -139.59 19.7039 16.7323 -142.135 
19.912 16.8775 -144.683 20.1347 17.0153 -147.236 20.3724 17.1453 -149.797 
20.6254 17.2675 -152.37 20.8944 17.3814 -154.958 21.1797 17.4869 -157.566 
21.4816 17.5835 -160.196 21.8006 17.6708 -162.854 22.137 17.7486 -165.543 
22.4907 17.8162 -168.266 22.8621 17.8734 -171.026 23.251 17.9196 -173.826 
23.6574 17.9546 -176.667 24.0809 17.9779 -179.552 24.5211 17.9895 -182.48 
24.9776 17.9891 -185.452 25.4495 17.9769 -188.467 25.9362 17.9529 -191.523 
26.4365 17.9177 -194.618 26.9493 17.8718 -197.75 27.4734 17.8159 -200.914 
28.0074 17.7512 -204.107 28.5496 17.6787 -207.325 29.0985 17.6 -210.562 
29.6523 17.5165 -213.814 30.2093 17.4299 -217.076 
LINES 1 156
155 154 153 152 151 150 149 148 147 146 145 144 143 142 141 140 139 138 137 136 135 134 133 132 131 130 129 128 127 126 125 124 123 122 121 120 119 118 117 116 115 114 113 112 111 110 109 108 107 106 105 104 103 102 101 100 99 98 97 96 95 94 93 92 91 90 89 88 87 86 85 84 83 82 81 80 79 78 77 76 75 74 73 72 71 70 69 68 67 66 65 64 63 62 61 60 59 58 57 56 55 54 53 52 51 50 49 48 47 46 45 44 43 42 41 40 39 38 37 36 35 34 33 32 31 30 29 28 27 26 25 24 23 22 21 20 19 18 17 16 15 14 13 12 11 10 9 8 7 6 5 4 3 2 1 0 

CELL_DATA 1
FIELD FieldData 2
LengthArray 1 1 double
379.61575232 
TortuosityArray 1 1 double
0.0092109916356 
POINT_DATA 155
FIELD FieldData 8
RadiusArray 1 155 double
64.444042855 64.595620269 64.540674373 64.466342171 64.162417366 63.89799268 63.820985796 63.707905009 63.444065257 
63.434329799 63.269915032 63.139825175 63.129405794 63.089803648 63.056468425 62.977824289 62.898943191 62.883711578 
62.81949041 62.76904049 62.630660434 62.526346904 62.51812371 62.463886415 62.406872234 62.141637123 61.944711399 
61.867058668 61.804811343 61.792009063 61.769718539 61.289782296 61.105423335 60.879420609 60.43068552 60.203573335 
59.998445051 59.673343576 59.552237659 58.557321097 58.047343875 57.603842392 57.30965637 56.912203771 56.737195219 
56.379931634 55.770655584 55.627971742 55.365818995 55.3540249 55.313050918 55.292443888 55.321531414 55.406609707 
55.546541086 55.534657354 55.444340775 55.264414279 55.208116831 55.109995256 55.067080109 54.786168582 54.582490993 
54.290280496 54.02544185 53.996905262 53.481704395 53.202894635 52.779123709 52.112758543 51.998598779 51.552175563 
51.056281934 50.993727155 50.658813452 50.328250904 50.100553201 50.100542765 50.097944199 49.846870858 49.812670809 
49.642657467 49.390777315 49.351170441 49.285476138 49.201103592 49.189212161 49.110870576 49.007083384 49.050122981 
49.048695566 49.025745774 49.073131939 49.089437813 49.165700245 49.220831199 49.238086828 49.26642006 49.344283969 
49.377956946 49.45766659 49.49165765 49.653012227 49.772614803 49.908093676 50.062720776 50.202027252 50.299333526 
50.482156991 50.508829474 50.695292393 50.933764378 51.092686387 51.149753118 51.448515427 51.568453848 51.574652466 
52.083713609 52.089250152 52.097369137 52.111060133 52.797601858 53.031695622 53.226529398 53.398190874 53.514547294 
53.579657121 53.564133433 53.56163268 53.539696355 53.399987863 53.318200205 53.26127455 53.070442132 52.868815394 
52.75090097 52.62961957 52.130246422 51.988785256 51.288803618 51.259914594 50.507435376 49.978816452 49.788748844 
48.799801428 47.741687193 47.083997729 46.826057612 46.789302411 46.059090927 45.154471491 43.765843961 42.763915179 
42.612731969 39.694322592 
EdgeArray 2 155 int
9192 9192 9205 9205 7890 7890 10942 10942 10952 
10952 10330 10330 10938 10938 11878 11876 12040 12040 
11871 12041 11853 11853 9961 10079 11643 11445 12044 
12043 11704 11673 10724 10764 12062 12063 12062 12065 
12065 12065 12060 12060 11659 11659 11234 11650 11650 
11649 11859 11649 11859 11859 12181 12181 12373 12373 
12375 12236 12542 9583 12030 9583 12030 12337 12760 
12176 10344 12761 10402 11010 10013 12392 10013 12215 
12215 11852 11852 7472 13619 13619 14386 14386 13929 
13929 13080 13080 14151 14980 13454 14203 11680 14203 
14401 14033 15648 15650 15639 14347 14987 16024 14987 
15326 15410 14166 15029 13755 15409 14986 19118 19118 
19766 19766 20050 19819 20051 20051 19895 19895 19744 
21226 21227 21227 21225 21232 20413 20413 21615 21615 
19010 19010 21880 21880 21882 21881 21113 21113 22302 
22302 20720 20720 21516 21516 22963 22963 22959 22959 
23403 23403 23095 23095 23577 23577 23770 23770 23772 
23772 21761 23772 21761 21761 23768 23768 24167 23348 
24166 24166 21967 21967 24300 24697 24699 24634 23292 
23836 23387 8511 14698 24260 22645 22645 22381 22381 
23876 24685 23876 24841 25523 24958 25524 25524 25021 
25365 25021 25534 25355 25389 25389 22376 25520 20653 
25520 20659 20659 25281 25281 25688 22384 22384 25279 
24491 25945 25945 25948 17945 25954 17551 25530 21080 
21545 21545 22957 20500 20496 20496 25632 26076 25103 
25103 18149 18149 25969 25969 25625 25625 25753 26194 
20794 20794 26520 26520 25622 26158 26717 26158 27098 
27098 27099 27099 24570 18148 27507 27506 27508 27507 
27248 18549 24543 27263 27263 27987 27648 27987 28129 
28036 28170 28036 28234 28234 28042 28339 28639 28621 
28623 28638 28623 28479 28990 28990 29212 29212 29509 
29509 29503 29714 29715 29510 29699 29703 30938 29681 
30937 30605 29452 29452 31455 31455 31452 31452 31175 
31454 31141 31141 31535 31535 31646 31646 32140 32140 
34650 32149 32494 32494 
EdgePCoordArray 1 155 double
0 0 0 0 0 0 0 0.18 0 
0.988 0 0.144 0.112 0.084 0.084 0.76 0.076 0.172 
0 0 0 0.3 0.756 0.508 0 0 0 
0.652 0.548 0.68 0.508 0.212 0.628 0.372 0.58 0.808 
0.796 0.988 0 0 0 0 0.94 0.512 0.704 
0.456 0.44 0.5 0.092 0.344 0.188 0.928 0.868 0 
0 0.232 0 0 0.208 0 0.076 0 0 
0 0 0.98 0 0 0 0 0 0 
0 0 0 0 0 0.996 0 0 0.948 
0 0 0.268 0.404 0.744 0.804 0.972 0 0 
0.296 0.576 0.208 0 0.84 0.732 0.78 0.372 0.084 
0.324 0.352 0.592 0 0.156 0 0.276 0.612 0.528 
0 0.988 0 0.068 0 0 0 0 0.004 
0 0 0.012 0.076 0 0 0.056 0.448 0.38 
0.688 0.976 0.132 0.86 0.884 0.208 0 0.972 0.328 
0.512 0.536 0 0 0 0.012 0.96 0.172 0.94 
0.984 0 0 0 0.984 0 0 0 0 
0.96 0 
CurvatureArray 1 155 double
0 2.6542234676e-05 0.00010593820796 0.00018744301893 0.00027080801735 0.00035632554351 0.00044513803009 0.00053724634306 0.00063276159952 
0.00073317964596 0.00083785434315 0.00094846955396 0.0010654434186 0.0011902976521 0.0013244574347 0.0014690849737 0.0016252332388 0.0017936412067 
0.001971846733 0.0021572896666 0.0023435967184 0.0025252721558 0.0026911449164 0.0028344608275 0.0029481310932 0.0030251309063 0.003064224336 
0.0030664182513 0.0030344703767 0.0029724947005 0.0028881542693 0.0027870452704 0.0026758968458 0.0025603204133 0.0024446839042 0.0023334463073 
0.0022295773181 0.0021350866201 0.0020514891171 0.0019795011449 0.0019206305658 0.0018754181133 0.0018434444599 0.0018266987604 0.0018248146206 
0.0018384458996 0.0018675378506 0.0019130881605 0.0019747648823 0.002052655074 0.0021467825421 0.0022559690264 0.0023802052612 0.0025168190572 
0.0026654924878 0.0028235 0.0029876013056 0.0031557172267 0.0033229504812 0.0034864089793 0.0036415137921 0.0037830872649 0.0039075789717 
0.0040105820921 0.0040883374664 0.0041379333711 0.0041567657244 0.0041428721631 0.004096013021 0.0040166071686 0.0039043194118 0.0037619677345 
0.0035902840796 0.0033929981079 0.003171919634 0.0029302899635 0.0026699409732 0.0023949649113 0.0021069405823 0.0018092050776 0.0015027154808 
0.0011910114561 0.00087537606714 0.00055806063912 0.00024243925961 8.4155089498e-05 0.00038821007747 0.00069222747834 0.0009871527718 0.0012709951685 
0.0015399921561 0.0017926326286 0.002024230178 0.0022333144013 0.0024162814435 0.0025715983086 0.0026971887164 0.0027916871371 0.0028558362059 
0.0028893760017 0.0028954618124 0.0028757342224 0.0028332253997 0.0027730014494 0.0026980610763 0.0026125283741 0.0025212647121 0.002428041685 
0.002335902839 0.0022480526549 0.0021665191148 0.0020941136982 0.0020315075593 0.0019802067805 0.0019406992491 0.0019140772245 0.001898571269 
0.0018966067263 0.0019055777556 0.0019259617274 0.0019565398972 0.0019973440675 0.0020456455206 0.0021006019251 0.0021602430775 0.0022225202659 
0.0022845336165 0.0023431660149 0.0023967464203 0.0024404983563 0.0024734728311 0.0024923217452 0.0024964705633 0.0024848850483 0.0024574778128 
0.0024148757327 0.0023595032681 0.0022920196361 0.0022134968534 0.0021272973934 0.0020332765398 0.0019335942894 0.0018281762809 0.0017173732123 
0.0016011843401 0.0014798614477 0.0013522891939 0.0012192276625 0.0010800774615 0.00093409964076 0.0007820001215 0.00062405938687 0.00045991100685 
0.0002909997981 0 
TorsionArray 1 155 double
0 0 -0.0003059591629 -0.0031941636904 -0.0072907266009 -0.0091294780513 -0.011722703976 -0.015717091787 -0.018594289696 
-0.022725731663 -0.026990003858 -0.031334140355 -0.035718010213 -0.040006825032 -0.044284567106 -0.047660423189 -0.050353665519 -0.051683944487 
-0.051776653032 -0.050717534655 -0.04885501817 -0.046064815042 -0.042742138417 -0.039353564576 -0.035737167415 -0.032163658213 -0.028785548139 
-0.025570380225 -0.022482410365 -0.019602201753 -0.016909922744 -0.014347204014 -0.011929898131 -0.0096114660558 -0.0074183686554 -0.005331205257 
-0.0033204985685 -0.0014010203206 0.0004298098646 0.0021522144353 0.0037311640341 0.0051588073278 0.0063626569647 0.0073147451331 0.0080118985686 
0.0083899415301 0.0084349235094 0.0081638621645 0.007619565971 0.0068084772854 0.0058085377518 0.0046760930508 0.0034760850249 0.0022534855627 
0.0010371403296 -0.00010473742307 -0.0011719942331 -0.002130559337 -0.0029794033571 -0.0037174908934 -0.0043197660885 -0.0048131451739 -0.00519321824 
-0.0054631935008 -0.0056366226024 -0.0057134619232 -0.0056940845415 -0.0055970944238 -0.0054347345458 -0.0051941914608 -0.0048956062532 -0.0045334346609 
-0.0041204848968 -0.0036686508528 -0.0031518297023 -0.0025817455394 -0.0019755274077 -0.0012828394196 -0.00050282167854 0.00042618604816 0.0016530416512 
0.0035014658847 0.0071913426408 0.017629369159 0.090039829048 0.73677871244 0.036404272799 0.012909921714 0.0076939938157 0.0058389076507 
0.0048321600326 0.0043173426998 0.0040833782379 0.0038861674417 0.003662552352 0.0035649126601 0.0034790525202 0.0034505177536 0.0034625340824 
0.0034619570371 0.003601473482 0.0037961218654 0.0040047384655 0.0043244955433 0.0047106185726 0.005140956008 0.0056181189344 0.0061302527265 
0.0066202741329 0.0070374798773 0.0074159545516 0.0076939485214 0.0077577370639 0.0076532057708 0.0074155321393 0.0069275878764 0.0063136921906 
0.0055657680729 0.0047558431612 0.0039470203564 0.003167895121 0.002556049523 0.0020904362315 0.0018147781534 0.0018294390956 0.0019949101112 
0.0024050518795 0.0031198474194 0.0039589144424 0.0049059984447 0.0059702853451 0.0071285956924 0.0082486992642 0.0093519255667 0.010359685542 
0.011112758631 0.01176392916 0.012204097654 0.012373157403 0.012254758385 0.011943988906 0.011397670298 0.010657596324 0.0099303372127 
0.0089954539509 0.0080057211881 0.0071085417472 0.0061249948385 0.0052319437451 0.0044780728246 0.0037244331252 0.0029267647915 0.0022508517488 
0 0 
TangentArray 3 155 double
-0.28328957522 0.017839700599 0.95886847985 -0.28328957522 0.017839700599 0.95886847985 -0.28335267724 0.01768715675 0.95885266063 
-0.28349077863 0.017349999746 0.95881799938 -0.28370205504 0.016825215865 0.95876485964 -0.28397703563 0.016108288852 0.95869576314 
-0.28430534044 0.015194489516 0.95861337404 -0.28467279201 0.014078398366 0.95852136136 -0.28505698597 0.012754151454 0.9584257125 
-0.28543402439 0.011216538266 0.95833272249 -0.2857725484 0.0094611634463 0.95825076935 -0.28603486025 0.0074854552414 0.95818997421 
-0.28617919257 0.0052897285837 0.95816151484 -0.28615840279 0.0028780111607 0.95817800307 -0.28592207666 0.00025907738216 0.95825283666 
-0.28541505906 -0.0025521887608 0.9584006106 -0.28458338835 -0.0055339226379 0.95863531688 -0.28337406073 -0.0086571180233 0.95897038328 
-0.28174082313 -0.011885411821 0.95941693 -0.279647314 -0.015175772426 0.95998285178 -0.27706951105 -0.018480173988 0.9606721445 
-0.27399737982 -0.021747500431 0.96148451994 -0.27043892629 -0.024926610288 0.96241438645 -0.26642071332 -0.027969307699 0.96345094392 
-0.2619824369 -0.030832882328 0.96457997912 -0.25717867234 -0.033483027618 0.96578362864 -0.25207366816 -0.035895328886 0.96704208346 
-0.24673448966 -0.038055990687 0.96833559946 -0.24122811141 -0.039961520985 0.9696453347 -0.23561900227 -0.041617976743 0.97095397923 
-0.22996416907 -0.043039188515 0.97224693838 -0.2243113037 -0.044244934752 0.97351262179 -0.21869891687 -0.045259409221 0.97474220676 
-0.21315527963 -0.046109417294 0.97592968415 -0.20769986327 -0.046823223128 0.97707131396 -0.20234341369 -0.047429143989 0.97816543551 
-0.1970886177 -0.047954984144 0.97921213037 -0.19193210039 -0.048427753615 0.98021264097 -0.18686557314 -0.048873261119 0.98116902821 
-0.18187711176 -0.049316127558 0.98208382319 -0.17695095439 -0.049779786391 0.98295998525 -0.17206767121 -0.050286424326 0.98380078881 
-0.16720672131 -0.050857117239 0.9846092961 -0.1623445353 -0.051511515363 0.98538866223 -0.15745467403 -0.052268070075 0.98614201537 
-0.1525096054 -0.053144070421 0.98687209305 -0.14748034646 -0.054155004885 0.98758127911 -0.14233589295 -0.055314341308 0.9882716313 
-0.13704358195 -0.056633364817 0.98894475004 -0.13157025933 -0.058120831508 0.98960155406 -0.12588155951 -0.059782271764 0.99024235062 
-0.11994366803 -0.061619633028 0.99086655879 -0.11372330133 -0.063631070818 0.99147269128 -0.10718980578 -0.065810404182 0.99205813148 
-0.10031564542 -0.068146972167 0.9926191422 -0.093076466846 -0.070625611171 0.99315094239 -0.085455349869 -0.073226496163 0.9936474543 
-0.077441952009 -0.075925680912 0.99410162209 -0.069034842621 -0.078695608288 0.99450550111 -0.060242650698 -0.08150572123 0.99485056187 
-0.051083575825 -0.08432364231 0.99512812825 -0.041588471051 -0.087116141812 0.99532968252 -0.031799275489 -0.089850247583 0.99544750695 
-0.021767880773 -0.092494829488 0.99547519602 -0.011556260921 -0.095021568332 0.99540813458 -0.0012343305394 -0.09740596762 0.99524396703 
0.0091216928788 -0.099628320533 0.99498291064 0.019430644108 -0.10167429711 0.99462796431 0.029609614287 -0.10353511124 0.99418496845 
0.039577095307 -0.10520744882 0.99366244079 0.049252916108 -0.10669322627 0.99307134976 0.058561331371 -0.10799889098 0.99242471252 
0.067432399469 -0.10913483834 0.99173709145 0.075803106815 -0.11011431904 0.99102407929 0.083618704497 -0.110952373 0.99030171321 
0.09083198173 -0.11166531691 0.98958597812 0.097403269406 -0.11226953018 0.98889238833 0.10330131961 -0.11278045388 0.98823550158 
0.10850280386 -0.11321249451 0.98762850943 0.11299121469 -0.11357798119 0.98708309052 0.11675595087 -0.11388695938 0.98660924809 
0.11979221772 -0.11414698919 0.98621513344 0.12210109607 -0.11436314243 0.98590688911 0.12368757513 -0.11453828111 0.98568877741 
0.12456167265 -0.11467253809 0.98556308713 0.12473709884 -0.11476384775 0.98553027119 0.12423138488 -0.11480886753 0.98558890362 
0.12306552322 -0.11480300141 0.98573584081 0.12126433346 -0.1147409869 0.98596626076 0.11885669887 -0.11461698628 0.98627381167 
0.11587530491 -0.11442481744 0.98665083736 0.11235614135 -0.11415999048 0.98708844288 0.10833946364 -0.11381880458 0.98757675162 
0.10386987132 -0.11339789959 0.98810524045 0.098995101863 -0.112895692 0.98866300251 0.093766327532 -0.11231298485 0.98923893436 
0.088237096505 -0.11165117066 0.98982232289 0.08246357332 -0.11091320226 0.99040295872 0.076502207334 -0.11010284458 0.99097163223 
0.070409208499 -0.1092245924 0.99152031334 0.064238450889 -0.10828409393 0.99204232593 0.058040348254 -0.10728577435 0.99253265971 
0.051862187656 -0.10623396122 0.99298774362 0.045744623362 -0.10513282947 0.99340551519 0.039722012296 -0.10398493028 0.99378533699 
0.033823234679 -0.10279199781 0.99412765477 0.028069371374 -0.10155460077 0.99443389597 0.022473743336 -0.10027200738 0.99470621562 
0.017043516436 -0.098942340159 0.99494720054 0.011779740311 -0.097563232125 0.99515961205 0.0066780031414 -0.096132097538 0.99534618304 
0.0017285675837 -0.094645425923 0.99550954561 -0.0030824409799 -0.093099319973 0.99565205528 -0.0077722856789 -0.091490894736 0.99577558102 
-0.012361283485 -0.089817196321 0.99588155416 -0.016872423515 -0.088074770255 0.99597096151 -0.021329198838 -0.086261716945 0.99604416642 
-0.025756862244 -0.084375798693 0.99610105343 -0.030181433349 -0.082414977322 0.99614098028 -0.034627280791 -0.080377936606 0.99616280734 
-0.039118444778 -0.078262972245 0.99616497351 -0.043678087342 -0.076068162743 0.99614550107 -0.048326047606 -0.073790827642 0.99610215685 
-0.053077993319 -0.071428303528 0.99603249148 -0.057946181619 -0.068976963411 0.99593394287 -0.062937352858 -0.066431427111 0.99580407466 
-0.068052667136 -0.063786525334 0.99564055446 -0.073285849847 -0.061036534257 0.99544147276 -0.078624007025 -0.058173408278 0.99520556675 
-0.084046915322 -0.055190052449 0.994932246 -0.089527708374 -0.0520805661 0.99462173919 -0.095034168374 -0.048839655558 0.99427521084 
-0.1005290026 -0.045463500947 0.99389485848 -0.10597307041 -0.04195107757 0.99348367648 -0.1113255549 -0.038304396989 0.99304551457 
-0.11654625595 -0.034529506002 0.99258484949 -0.12159982516 -0.030637355714 0.99210626193 -0.12645429301 -0.026641841511 0.9916146046 
-0.1310810789 -0.022562605234 0.99111486701 -0.13545879821 -0.018423136023 0.99061168075 -0.13957250883 -0.014251260756 0.99010929515 
-0.14341180309 -0.010078322031 0.98961178356 -0.14697176995 -0.0059388991485 0.98912285805 -0.15025078409 -0.0018712156178 0.98864614521 
-0.15324839237 0.0020854490513 0.98818549936 -0.1559679006 0.0058891704664 0.98774456802 -0.15841295721 0.0094963339336 0.98732727838 
-0.16058661716 0.012863665743 0.98693792332 -0.16249311951 0.015948209469 0.98658078267 -0.164134429 0.018707098995 0.98626058101 
-0.16551097058 0.021099769601 0.98598220995 -0.16662346445 0.023089048867 0.98575023049 -0.16747171367 0.024640265642 0.98556891308 
-0.16805422012 0.025723971629 0.9854420614 -0.16805422012 0.025723971629 0.9854420614 
NormalArray 3 155 double
0.39922603182 0.91127319515 0.10099375883 0.39922603182 0.91127319515 0.10099375883 0.3757523245 0.92193706313 0.094033197671 
0.37821857031 0.92081183728 0.095164454469 0.36730673987 0.92549418373 0.09244606393 0.34837474596 0.93326133671 0.087511792257 
0.32742971787 0.94129418257 0.082189060735 0.29830581243 0.95154913036 0.074618327413 0.25997988276 0.96345724772 0.064502654018 
0.21770290344 0.97455124163 0.053435224902 0.16300673483 0.98585863909 0.038878633329 0.10243131875 0.9944785572 0.022808424011 
0.031226767421 0.99950506896 0.0038086903908 -0.045896401788 0.99880648708 -0.016706934615 -0.13093593248 0.99061013386 -0.039336297231 
-0.22045019526 0.97335774331 -0.06305882127 -0.31192441449 0.94610266824 -0.087137252655 -0.402933141 0.90848991071 -0.11086462923 
-0.48931098141 0.86190622955 -0.13301283747 -0.56938111059 0.80769244299 -0.15309496544 -0.64092472894 0.74843922867 -0.17045296363 
-0.70389664574 0.68576576058 -0.18508061413 -0.75726768869 0.62279178673 -0.19666224357 -0.80216822908 0.5606037172 -0.2055470859 
-0.83936367315 0.50053548724 -0.21197370169 -0.8696398394 0.44383422271 -0.21618911274 -0.8941526294 0.39079277691 -0.21856825215 
-0.91382507247 0.34173214926 -0.21941484701 -0.92948873816 0.29679440209 -0.21900632072 -0.94180468502 0.25626365908 -0.21756119212 
-0.95147068929 0.2198684982 -0.21531690813 -0.95895853182 0.18781782672 -0.21242174611 -0.96472907493 0.16002371721 -0.20902206085 
-0.96914039967 0.13657117306 -0.20521988309 -0.97249648253 0.11752097004 -0.20109553217 -0.97505546507 0.10281071639 -0.19671501372 
-0.97699989152 0.09254465539 -0.19211116243 -0.97846399905 0.086749549874 -0.18730381245 -0.97952573976 0.08542188002 -0.18229763454 
-0.9802044554 0.088549548449 -0.17708247539 -0.98047425013 0.095961888066 -0.17164370326 -0.98026664437 0.10739935457 -0.16595988842 
-0.97947664834 0.12257340815 -0.16000392177 -0.9780343508 0.14071778448 -0.15377683109 -0.97584908592 0.16134820381 -0.14725935843 
-0.97292047105 0.18356011793 -0.14046864458 -0.96931123383 0.20647578806 -0.1334296853 -0.96519952746 0.22905302088 -0.12619265361 
-0.96079609777 0.25051586839 -0.11879670951 -0.95639071747 0.27005638411 -0.11129395732 -0.95230595684 0.28697140812 -0.10373415781 
-0.94879246713 0.30091603282 -0.096137378281 -0.94610359748 0.31153033115 -0.088525903648 -0.94434818899 0.31884853407 -0.080883312706 
-0.94364065542 0.32277417989 -0.073206162615 -0.94396277541 0.32349497612 -0.065462042874 -0.94523136777 0.32127582027 -0.057615177668 
-0.94735691465 0.31630766349 -0.049642101868 -0.95015474812 0.30900375969 -0.041504591602 -0.9534939095 0.29957884909 -0.033194543621 
-0.95718618758 0.28841756283 -0.02469639144 -0.96106229253 0.27586755124 -0.01601137281 -0.96499294455 0.26217803853 -0.0071619194043 
-0.96883510135 0.24769981515 0.0018297444269 -0.97249375522 0.23267280588 0.010920689681 -0.97588250917 0.21737238755 0.02006423231 
-0.97894281617 0.20203479502 0.029204524743 -0.98162686278 0.18693029882 0.038285319059 -0.98392847871 0.17220157553 0.047237338634 
-0.98584178594 0.15805062501 0.055999759151 -0.98737396198 0.1446742164 0.064513799374 -0.98855488407 0.13217961508 0.072717195645 
-0.98940534727 0.12077434535 0.080564361218 -0.98997240149 0.11050127213 0.08800064282 -0.99029001874 0.10150174379 0.094989866751 
-0.99038933231 0.09394374205 0.10150637306 -0.99031060702 0.087887247566 0.1075208507 -0.99008426611 0.083429982504 0.11301585738 
-0.98971464626 0.080872381626 0.11800244433 -0.98922128619 0.080262257437 0.12247129046 -0.98854780857 0.082307046267 0.12648628507 
-0.98761888207 0.087642431717 0.13010667906 -0.98607525286 0.099017910301 0.13360781836 -0.982650283 0.12420317138 0.13773885995 
-0.96642571445 0.21095924529 0.14668856562 0.92516495164 0.37233369843 -0.073738926404 0.99220113359 0.02455621814 -0.12220434795 
0.99174522989 -0.021808901449 -0.12635573122 0.99099038153 -0.042904018622 -0.12687517058 0.99036412479 -0.057421156316 -0.12602266122 
0.98983448055 -0.069169509561 -0.12427099447 0.98940333799 -0.079082965065 -0.12176583842 0.98898472362 -0.08844516031 -0.11868727846 
0.98857007392 -0.097378346725 -0.11509416375 0.98815176854 -0.1059511454 -0.11104250142 0.98774782335 -0.11400598442 -0.10656863035 
0.98727263399 -0.12219219931 -0.10179298895 0.98678790322 -0.12998111303 -0.096718893298 0.98618587375 -0.1380928018 -0.091475682583 
0.98552965232 -0.1460250182 -0.086069730208 0.98474593501 -0.15420574911 -0.080597955466 0.9837905815 -0.16282408972 -0.07512927235 
0.98263762482 -0.17193874006 -0.069716339185 0.98126865023 -0.18156104844 -0.06440047955 0.97956441584 -0.19220109972 -0.059264597225 
0.97753672357 -0.20364618423 -0.054315612159 0.97505476269 -0.2163479043 -0.049616469724 0.97212531809 -0.23007235226 -0.045156158458 
0.96859046293 -0.24526107236 -0.040981965578 0.96453331951 -0.26134950337 -0.037039339058 0.9598252045 -0.27860988857 -0.033348265437 
0.95455170043 -0.29654675559 -0.029850844973 0.94865384709 -0.31520105935 -0.026536212773 0.94247462544 -0.33346591498 -0.023282266942 
0.93590792741 -0.35167079459 -0.020099841702 0.92935681706 -0.36879714891 -0.016869188958 0.9229381222 -0.38470965295 -0.013553801046 
0.91693643468 -0.3989059667 -0.010079905121 0.91147509954 -0.41130526189 -0.006412836126 0.90673678318 -0.42168960665 -0.002506328541 
0.90268254469 -0.43030399809 0.0016409605442 0.89941232862 -0.43705917115 0.0060616868514 0.89654777506 -0.44281797614 0.010692382735 
0.89419059595 -0.44741579652 0.015565447205 0.89184942826 -0.45186330839 0.020594849894 0.88935471017 -0.45649185386 0.025756297394 
0.88651863234 -0.46165203152 0.031017999672 0.88293859861 -0.4680828761 0.036302233781 0.87824450081 -0.47640460095 0.041536164814 
0.87240028097 -0.48655552455 0.046706223272 0.86504654882 -0.49901701364 0.051734789781 0.85604216189 -0.51379970603 0.056583382213 
0.8450217425 -0.53122152328 0.061171463164 0.83212003604 -0.55071334569 0.06550615619 0.81685267332 -0.57264609699 0.069484945738 
0.79957904529 -0.59608956473 0.07314766682 0.78030209321 -0.62070989889 0.07647133281 0.75895990449 -0.64627552085 0.079421750932 
0.73602724995 -0.6719614348 0.082047044335 0.7117852785 -0.69731242249 0.084362922848 0.68693902336 -0.7215547189 0.086449787788 
0.6615910081 -0.74464877564 0.088292349253 0.63683117424 -0.7657290901 0.09002786284 0.6126406365 -0.78503314512 0.09162102149 
0.58936416021 -0.80248593386 0.093092494947 0.56808883474 -0.81751466708 0.094577190466 0.54828649748 -0.83076675488 0.095961011169 
0.53057498419 -0.84203429067 0.097305906736 0.5151096397 -0.85143370235 0.098603801115 0.50155641207 -0.85935279303 0.099769447317 
0.489840892 -0.86596979349 0.10075821205 0.48037370755 -0.87115889006 0.1016035893 0.47316349408 -0.87501742175 0.10227814775 
0.46754588624 -0.8779881797 0.1026528157 0.46754588624 -0.8779881797 0.1026528157 
BinormalArray 3 155 double
-0.87198944494 0.41141573729 -0.26527626924 -0.87198944494 0.41141573729 -0.26527626924 -0.882338626 0.38693567439 -0.26787932534 
-0.88123986037 0.38962101821 -0.26760375682 -0.88577587617 0.37838793321 -0.26874461704 -0.89330402418 0.35883673229 -0.27063650891 
-0.9010883715 0.3372452955 -0.27259009045 -0.9110296613 0.30717430103 -0.27507981573 -0.92257952249 0.26755833651 -0.27795604194 
-0.93334498635 0.22388404744 -0.28061195582 -0.94433196228 0.16731177519 -0.28327356901 -0.95272865164 0.10467266704 -0.28522228018 
-0.95766714402 0.031010254717 -0.28620273473 -0.95708248799 -0.048757752338 -0.28568477868 -0.94926516194 -0.13671684452 -0.28320338409 
-0.93270571751 -0.22927753895 -0.27837358831 -0.90648522035 -0.32381957454 -0.27097126863 -0.8702551497 -0.41781710884 -0.26093071489 
-0.82534651635 -0.50692838592 -0.2486498331 -0.77304756042 -0.58940869816 -0.23450982038 -0.71585471841 -0.66294585311 -0.21921409164 
-0.65532812236 -0.72749733184 -0.20320601418 -0.59448165221 -0.78199044398 -0.18730325867 -0.53436517081 -0.82761173874 -0.17179253225 
-0.47627074963 -0.86516678125 -0.15701150807 -0.4214091601 -0.8954831487 -0.1432628709 -0.37006748189 -0.91977852273 -0.13060447147 
-0.32256135623 -0.93902655966 -0.1190936259 -0.27903348167 -0.95410489975 -0.10873893681 -0.23976576288 -0.96571055759 -0.099576593148 
-0.20449940922 -0.97457963849 -0.091512402856 -0.17344443861 -0.9812068333 -0.08455871924 -0.14652165626 -0.98607504573 -0.078660081617 
-0.12382129256 -0.98955658571 -0.073797365687 -0.10541042764 -0.99196593055 -0.069944509202 -0.091235864465 -0.99356954105 -0.06704911737 
-0.08140816141 -0.9945530686 -0.065091512513 -0.075962302504 -0.99505239474 -0.064034836783 -0.074903823113 -0.99514547015 -0.063835025821 
-0.078230057138 -0.99485018824 -0.064445024075 -0.085782309195 -0.99413947156 -0.065788346412 -0.097314040375 -0.99294342949 -0.067774061262 
-0.11254957891 -0.99115554442 -0.070308456434 -0.1307404318 -0.98870878873 -0.073224794816 -0.15141528041 -0.98551245856 -0.076410777241 
-0.17368528224 -0.9815708792 -0.079699635179 -0.19668573762 -0.97695188438 -0.082944175361 -0.21938633909 -0.97184105556 -0.085991842351 
-0.24101849546 -0.96645458335 -0.088744707858 -0.26077972006 -0.96108871513 -0.091117612238 -0.27796977813 -0.95607190676 -0.093055421902 
-0.29224368396 -0.9516577967 -0.094557216389 -0.3032408178 -0.94810333804 -0.095629842734 -0.31099331743 -0.94551816642 -0.096325248447 
-0.31540305124 -0.94401950138 -0.09668555366 -0.3166560436 -0.94359049565 -0.096777717356 -0.31501594336 -0.94415026747 -0.096670718751 
-0.31067285097 -0.94561342683 -0.096424201708 -0.30403970979 -0.94779938686 -0.09610503179 -0.29533064112 -0.9505836789 -0.095762632744 
-0.28492993977 -0.95378447922 -0.095446826146 -0.27318431317 -0.95723971502 -0.095196948634 -0.2603409746 -0.96082756472 -0.095041926658 
-0.24674826394 -0.96441148277 -0.095004137545 -0.23264210473 -0.96790199243 -0.095096709468 -0.21829293327 -0.97121641389 -0.095325089466 
-0.20393076615 -0.97429776729 -0.095687529322 -0.18981873549 -0.97709743664 -0.096174045183 -0.17609094105 -0.97960558294 -0.096772322262 
-0.16294056161 -0.98181026306 -0.097462714585 -0.15055500475 -0.9837102859 -0.098220486499 -0.13903169298 -0.98532471242 -0.099022216908 
-0.12856877651 -0.98666262956 -0.099834488725 -0.11919955233 -0.98775720984 -0.10063379712 -0.11105670189 -0.98862883173 -0.10138758322 
-0.10430015118 -0.98929542116 -0.1020590424 -0.098982345542 -0.98978350376 -0.10262120133 -0.095194450298 -0.99011110853 -0.10304372562 
-0.0932312208 -0.99027399692 -0.10327318379 -0.093135559047 -0.99028178425 -0.10328482667 -0.095610031439 -0.9900784366 -0.10297286667 
-0.10128557818 -0.9895904552 -0.10223484059 -0.11290224987 -0.98849204604 -0.10068046921 -0.13820204441 -0.98562394166 -0.09718868526 
-0.22473479518 -0.9707452837 -0.084545053096 -0.35848356786 0.92097604544 0.152619315 -0.010172193319 0.99308404281 0.1169641415 
0.036003832997 0.99314885223 0.11117140516 0.056859697098 0.99246851391 0.10850448716 0.071077320343 0.99174883779 0.10668766222 
0.082465840383 0.99102095846 0.10524659172 0.091962667798 0.99030974004 0.10406481884 0.10085522827 0.98955683684 0.10298295776 
0.10927149113 0.98876608657 0.10198709363 0.11728619757 0.98794175816 0.10106943328 0.1247481995 0.98711115329 0.10024698384 
0.13231387294 0.98620640969 0.099448260458 0.13946108109 0.98529344452 0.098729099249 0.14691778207 0.98428031663 0.09801746583 
0.154187703 0.98323277126 0.09736256862 0.1617061066 0.98208713562 0.096726382884 0.169668529 0.98080481158 0.096096367465 
0.1781393044 0.97936275973 0.095472368131 0.1871343515 0.9777436647 0.094858107891 0.19716925967 0.97583086216 0.094225323037 
0.20803351381 0.97363342015 0.093594980072 0.22018247013 0.97102020956 0.092948547479 0.23338229749 0.96799392419 0.092306370076 
0.24807666893 0.96439484637 0.09165449594 0.26369814801 0.96030091785 0.091024358864 0.28051912785 0.9555810535 0.090409452467 
0.29804037185 0.95031692877 0.089831351144 0.31630108594 0.94444735629 0.089290616716 0.33418733068 0.93831226131 0.088819639103 
0.3520277689 0.93180498146 0.08840772844 0.36879700094 0.92532777857 0.088075389835 0.38435697974 0.91899804087 0.087819775737 
0.3982011537 0.91310172178 0.087641810059 0.41024654052 0.90776415057 0.087532982006 0.4202729559 0.90317067211 0.087483596093 
0.42852534441 0.89928492504 0.087479442127 0.43491342566 0.89621030764 0.087506552038 0.44030294135 0.89356989305 0.087556644938 
0.44452885705 0.89146906984 0.087618449957 0.44860543615 0.88941651045 0.087700818716 0.45286542053 0.88724407738 0.087811491487 
0.45766095421 0.88476476025 0.087964595234 0.46373334503 0.88157413902 0.088195363395 0.47170421061 0.87729955589 0.088547314605 
0.48151206194 0.87190468495 0.089041308235 0.49363879285 0.86502580004 0.089727963636 0.50809479814 0.85651885568 0.090637332104 
0.52519727183 0.84601227136 0.091820816687 0.54437666553 0.83363956118 0.093269116338 0.5660020591 0.81890733345 0.095039193589 
0.58914371809 0.80217513302 0.097081076424 0.61346729811 0.78344149357 0.099384607975 0.63874030337 0.76263894697 0.10194440357 
0.66413977301 0.74024236503 0.10468812213 0.68921160126 0.71653051121 0.10757041973 0.71318601568 0.692210726 0.11049894952 
0.73602336426 0.66738042252 0.11345915082 0.75686547969 0.64313582551 0.11632263579 0.77594855009 0.61945093399 0.11909822832 
0.79319910293 0.59666739215 0.12175059034 0.80805265288 0.57587766651 0.12416047435 0.82114995687 0.55653968288 0.12639750672 
0.83228728486 0.53927059946 0.12839429903 0.84158068253 0.52421971073 0.13013704192 0.84941218188 0.51104091965 0.13166671454 
0.85595678579 0.49965099469 0.13299197105 0.86109100692 0.49045803499 0.13406414034 0.86491013001 0.48346392725 0.13488179292 
0.86784711981 0.47799062083 0.1355224817 0.86784711981 0.47799062083 0.1355224817 
