# vtk DataFile Version 4.1
vtk output
ASCII
DATASET POLYDATA
POINTS 338 float
-7.56063 -5.17339 169.348 -7.15903 -5.22894 168.426 -6.75737 -5.28425 167.504 
-6.35548 -5.33859 166.578 -5.95316 -5.39124 165.645 -5.55026 -5.44153 164.702 
-5.14663 -5.4888 163.748 -4.74212 -5.53248 162.779 -4.33662 -5.57204 161.794 
-3.93005 -5.60707 160.79 -3.52235 -5.63721 159.766 -3.1135 -5.66222 158.72 
-2.70351 -5.68195 157.652 -2.29244 -5.69634 156.56 -1.88038 -5.70542 155.445 
-1.46747 -5.70932 154.307 -1.05388 -5.70823 153.145 -0.639825 -5.70239 151.961 
-0.225545 -5.69211 150.755 0.188683 -5.67773 149.529 0.602559 -5.65963 148.283 
1.01577 -5.63817 147.02 1.42798 -5.61373 145.739 1.83888 -5.58669 144.444 
2.24813 -5.55738 143.136 2.65543 -5.52615 141.815 3.06049 -5.49327 140.484 
3.46306 -5.45901 139.144 3.86292 -5.42358 137.795 4.25989 -5.38718 136.439 
4.65385 -5.34995 135.075 5.0447 -5.31201 133.706 5.43242 -5.27344 132.33 
5.81701 -5.2343 130.948 6.19854 -5.19461 129.56 6.5771 -5.15439 128.165 
6.95283 -5.11363 126.764 7.32588 -5.0723 125.354 7.69644 -5.03037 123.937 
8.06469 -4.98779 122.511 8.43083 -4.94452 121.077 8.79505 -4.90049 119.632 
9.15751 -4.85565 118.178 9.51837 -4.80993 116.713 9.87776 -4.76326 115.238 
10.2358 -4.71559 113.753 10.5924 -4.66684 112.258 10.9477 -4.61696 110.753 
11.3017 -4.56586 109.24 11.6543 -4.51349 107.72 12.0053 -4.45979 106.192 
12.3547 -4.40468 104.659 12.7023 -4.3481 103.122 13.0478 -4.28999 101.581 
13.3911 -4.23027 100.04 13.732 -4.1689 98.4977 14.0702 -4.10579 96.9572 
14.4054 -4.0409 95.4194 14.7375 -3.97416 93.8856 15.0662 -3.90552 92.3571 
15.3913 -3.83491 90.8349 15.7126 -3.76228 89.32 16.0298 -3.6876 87.8133 
16.343 -3.6108 86.3156 16.6517 -3.53187 84.8274 16.956 -3.45076 83.3491 
17.2557 -3.36745 81.8812 17.5506 -3.28194 80.4239 17.8405 -3.19421 78.9773 
18.1255 -3.10426 77.5416 18.4052 -3.01212 76.1166 18.6797 -2.9178 74.7024 
18.9486 -2.82134 73.2987 19.2119 -2.72278 71.9056 19.4694 -2.62219 70.5227 
19.7209 -2.5196 69.15 19.9662 -2.41511 67.7871 20.205 -2.30878 66.4339 
20.4372 -2.2007 65.0903 20.6624 -2.09095 63.7559 20.8804 -1.97962 62.4306 
21.0911 -1.8668 61.1142 21.2941 -1.75258 59.8064 21.4892 -1.63703 58.5071 
21.6763 -1.52023 57.2161 21.855 -1.40225 55.9331 22.0254 -1.28316 54.6579 
22.1871 -1.163 53.3902 22.3403 -1.04181 52.1297 22.4848 -0.919608 50.8762 
22.6207 -0.796401 49.6293 22.7481 -0.672179 48.3886 22.8671 -0.546913 47.1537 
22.9778 -0.420558 45.924 23.0806 -0.293048 44.6991 23.1757 -0.164299 43.4783 
23.2634 -0.0342083 42.2609 23.3442 0.0973458 41.0461 23.4185 0.230503 39.833 
23.4867 0.365419 38.6207 23.5493 0.502267 37.4081 23.6068 0.641235 36.194 
23.6597 0.782521 34.9773 23.7084 0.926337 33.7565 23.7536 1.0729 32.5303 
23.7955 1.22244 31.2971 23.8348 1.37516 30.0556 23.8718 1.53131 28.8041 
23.9069 1.69109 27.5412 23.9404 1.85471 26.2653 23.9727 2.02235 24.9751 
24.0042 2.1942 23.6693 24.0349 2.37038 22.3466 24.0652 2.55102 21.006 
24.0952 2.73621 19.6468 24.125 2.92599 18.2684 24.1548 3.12038 16.8704 
24.1847 3.31934 15.4526 24.2148 3.5228 14.0154 24.2449 3.73067 12.559 
24.2753 3.94278 11.0841 24.3057 4.15896 9.59172 24.3363 4.37901 8.08278 
24.3669 4.60267 6.55857 24.3974 4.82969 5.02043 24.4279 5.05979 3.46978 
24.458 5.29269 1.90808 24.4878 5.5281 0.336759 24.5171 5.76574 -1.24279 
24.5457 6.00533 -2.82929 24.5735 6.24661 -4.42157 24.6002 6.48932 -6.01861 
24.6258 6.73324 -7.61952 24.65 6.97814 -9.2236 24.6726 7.22382 -10.8303 
24.6936 7.47012 -12.4391 24.7128 7.71684 -14.0497 24.73 7.96383 -15.6618 
24.7451 8.21093 -17.2752 24.7581 8.45797 -18.8897 24.7689 8.70479 -20.5048 
24.7775 8.95122 -22.1203 24.7838 9.19705 -23.7356 24.788 9.44209 -25.35 
24.79 9.68611 -26.9629 24.7899 9.92887 -28.5732 24.7879 10.1701 -30.1799 
24.7841 10.4095 -31.7816 24.7785 10.6469 -33.3769 24.7715 10.8818 -34.9645 
24.7631 11.1141 -36.5427 24.7535 11.3435 -38.11 24.7429 11.5695 -39.6648 
24.7314 11.7921 -41.2057 24.7192 12.0108 -42.7313 24.7065 12.2256 -44.2402 
24.6933 12.4362 -45.7314 24.6798 12.6425 -47.2039 24.6662 12.8443 -48.6571 
24.6524 13.0415 -50.0903 24.6386 13.2342 -51.5031 24.6248 13.4222 -52.8953 
24.611 13.6056 -54.2669 24.5974 13.7844 -55.6178 24.584 13.9586 -56.9482 
24.5708 14.1284 -58.2582 24.5578 14.2937 -59.548 24.5451 14.4546 -60.8179 
24.5328 14.6114 -62.068 24.5209 14.7639 -63.2986 24.5096 14.9124 -64.5097 
24.4988 15.0568 -65.7014 24.4888 15.1974 -66.8739 24.4796 15.334 -68.0271 
24.4713 15.4669 -69.1613 24.4642 15.5961 -70.2764 24.4583 15.7216 -71.3726 
24.4537 15.8436 -72.4503 24.4507 15.9621 -73.5097 24.4494 16.0772 -74.5514 
24.4499 16.189 -75.5761 24.4524 16.2976 -76.5845 24.4569 16.4032 -77.5778 
24.4637 16.5058 -78.5571 24.4727 16.6057 -79.5237 24.4842 16.7029 -80.4794 
24.4982 16.7976 -81.4256 24.5147 16.89 -82.3644 24.5338 16.9803 -83.2975 
24.5556 17.0685 -84.2269 24.5801 17.1549 -85.1546 24.6074 17.2397 -86.0826 
24.6375 17.3229 -87.0126 24.6704 17.4047 -87.9466 24.7061 17.4853 -88.8861 
24.7447 17.5647 -89.8326 24.7862 17.6431 -90.7873 24.8305 17.7205 -91.7512 
24.8777 17.797 -92.725 24.9278 17.8726 -93.7093 24.9808 17.9474 -94.7043 
25.0367 18.0213 -95.7099 25.0954 18.0944 -96.7258 25.1569 18.1666 -97.7515 
25.2212 18.2379 -98.7863 25.2883 18.3083 -99.8292 25.358 18.3776 -100.879 
25.4304 18.4459 -101.935 25.5053 18.513 -102.995 25.5827 18.579 -104.059 
25.6624 18.6436 -105.125 25.7444 18.7069 -106.191 25.8286 18.7688 -107.257 
25.9147 18.8292 -108.32 26.0027 18.888 -109.382 26.0925 18.9453 -110.439 
26.1838 19.0009 -111.492 26.2765 19.0547 -112.54 26.3705 19.1069 -113.582 
26.4656 19.1573 -114.619 26.5616 19.2059 -115.649 26.6585 19.2527 -116.672 
26.756 19.2977 -117.69 26.8541 19.3409 -118.701 26.9526 19.3822 -119.706 
27.0513 19.4218 -120.705 27.1503 19.4596 -121.698 27.2494 19.4957 -122.687 
27.3485 19.5301 -123.671 27.4477 19.5628 -124.65 27.547 19.594 -125.626 
27.6462 19.6236 -126.599 27.7455 19.6518 -127.569 27.8449 19.6787 -128.536 
27.9445 19.7044 -129.502 28.0444 19.7289 -130.467 28.1446 19.7525 -131.43 
28.2453 19.7751 -132.394 28.3467 19.797 -133.357 28.4487 19.8182 -134.321 
28.5517 19.839 -135.285 28.6556 19.8594 -136.249 28.7606 19.8795 -137.214 
28.8669 19.8995 -138.18 28.9745 19.9195 -139.145 29.0835 19.9396 -140.111 
29.1939 19.9598 -141.076 29.3058 19.9803 -142.04 29.4193 20.0011 -143.002 
29.5343 20.0222 -143.961 29.6507 20.0438 -144.918 29.7687 20.0658 -145.87 
29.8881 20.0883 -146.817 30.0088 20.1114 -147.758 30.1308 20.1349 -148.692 
30.2541 20.159 -149.619 30.3786 20.1836 -150.537 30.5041 20.2089 -151.447 
30.6307 20.2347 -152.347 30.7583 20.261 -153.237 30.8869 20.2881 -154.117 
31.0165 20.3157 -154.987 31.1471 20.3441 -155.847 31.2787 20.3731 -156.697 
31.4114 20.4029 -157.539 31.5452 20.4335 -158.371 31.6803 20.4649 -159.196 
31.8166 20.4972 -160.014 31.9544 20.5304 -160.825 32.0937 20.5646 -161.632 
32.2347 20.5997 -162.435 32.3774 20.6358 -163.234 32.5221 20.673 -164.032 
32.6687 20.7111 -164.828 32.8174 20.7503 -165.625 32.9682 20.7904 -166.423 
33.1214 20.8315 -167.223 33.2768 20.8734 -168.025 33.4345 20.9162 -168.83 
33.5947 20.9597 -169.639 33.7572 21.004 -170.453 33.9222 21.0488 -171.271 
34.0895 21.0941 -172.094 34.2592 21.1398 -172.921 34.4312 21.1857 -173.754 
34.6055 21.2318 -174.591 34.7819 21.278 -175.433 34.9606 21.324 -176.279 
35.1413 21.3699 -177.13 35.324 21.4154 -177.983 35.5085 21.4605 -178.84 
35.6949 21.505 -179.699 35.8829 21.5488 -180.56 36.0725 21.5918 -181.421 
36.2635 21.6339 -182.283 36.4557 21.675 -183.142 36.6491 21.715 -184 
36.8435 21.7537 -184.854 37.0386 21.791 -185.703 37.2343 21.827 -186.546 
37.4305 21.8615 -187.381 37.6269 21.8943 -188.208 37.8234 21.9256 -189.024 
38.0198 21.9551 -189.828 38.2158 21.9828 -190.62 38.4114 22.0088 -191.397 
38.6064 22.0328 -192.159 38.8005 22.055 -192.904 38.9937 22.0752 -193.631 
39.1857 22.0935 -194.339 39.3766 22.1098 -195.029 39.5661 22.1241 -195.698 
39.7542 22.1364 -196.348 39.9408 22.1467 -196.976 40.1259 22.155 -197.584 
40.3093 22.1613 -198.172 40.4911 22.1656 -198.739 40.6711 22.1679 -199.286 
40.8495 22.1683 -199.813 41.0263 22.1667 -200.322 41.2013 22.1633 -200.813 
41.3747 22.158 -201.286 41.5466 22.1509 -201.743 41.7168 22.142 -202.185 
41.8856 22.1314 -202.612 42.053 22.1192 -203.026 42.2189 22.1055 -203.427 
42.3837 22.0904 -203.818 42.5472 22.0739 -204.198 42.7097 22.0562 -204.569 
42.8711 22.0373 -204.932 43.0317 22.0175 -205.289 43.1915 21.9967 -205.639 
43.3507 21.9752 -205.985 43.5092 21.9531 -206.326 43.6674 21.9305 -206.664 
43.8252 21.9076 -207 43.9828 21.8844 -207.335 
LINES 1 339
338 337 336 335 334 333 332 331 330 329 328 327 326 325 324 323 322 321 320 319 318 317 316 315 314 313 312 311 310 309 308 307 306 305 304 303 302 301 300 299 298 297 296 295 294 293 292 291 290 289 288 287 286 285 284 283 282 281 280 279 278 277 276 275 274 273 272 271 270 269 268 267 266 265 264 263 262 261 260 259 258 257 256 255 254 253 252 251 250 249 248 247 246 245 244 243 242 241 240 239 238 237 236 235 234 233 232 231 230 229 228 227 226 225 224 223 222 221 220 219 218 217 216 215 214 213 212 211 210 209 208 207 206 205 204 203 202 201 200 199 198 197 196 195 194 193 192 191 190 189 188 187 186 185 184 183 182 181 180 179 178 177 176 175 174 173 172 171 170 169 168 167 166 165 164 163 162 161 160 159 158 157 156 155 154 153 152 151 150 149 148 147 146 145 144 143 142 141 140 139 138 137 136 135 134 133 132 131 130 129 128 127 126 125 124 123 122 121 120 119 118 117 116 115 114 113 112 111 110 109 108 107 106 105 104 103 102 101 100 99 98 97 96 95 94 93 92 91 90 89 88 87 86 85 84 83 82 81 80 79 78 77 76 75 74 73 72 71 70 69 68 67 66 65 64 63 62 61 60 59 58 57 56 55 54 53 52 51 50 49 48 47 46 45 44 43 42 41 40 39 38 37 36 35 34 33 32 31 30 29 28 27 26 25 24 23 22 21 20 19 18 17 16 15 14 13 12 11 10 9 8 7 6 5 4 3 2 1 0 

CELL_DATA 1
FIELD FieldData 2
LengthArray 1 1 double
384.38654463 
TortuosityArray 1 1 double
0.0084798340091 
POINT_DATA 338
FIELD FieldData 8
RadiusArray 1 338 double
52.517391578 52.828395268 54.180374782 54.19623017 54.195618068 54.190965376 54.173481763 54.171627297 54.155006377 
54.150921409 54.149404523 54.148624049 54.034396622 54.033036208 53.914667058 53.84604049 53.823710248 53.640946661 
53.592198453 53.452365092 53.384492659 53.376422734 53.26877932 53.024706128 52.941480292 52.767081263 52.723716433 
52.486395638 52.349456079 52.109214547 52.072429809 52.024308966 51.901708294 51.865565608 51.761021131 51.553491244 
51.534971687 51.51381806 51.49129247 51.297732714 51.166779167 51.137600222 50.923008113 50.833082005 50.591865202 
50.408622063 50.28682804 50.233088063 49.892896537 49.859040794 49.837685543 49.776016448 49.407294388 49.284441369 
49.271143006 49.138847941 48.988424997 48.939488071 48.664867723 48.522535958 48.495307281 48.44168554 48.402280295 
48.276631654 48.23374011 48.168787966 48.058352696 48.007656186 47.983998474 47.829558436 47.768030485 47.675783848 
47.674730673 47.620508513 47.507974216 47.487352586 47.415903645 47.415688131 47.397963487 47.344133374 47.21502882 
47.180083752 47.175439451 47.007600274 46.995767277 46.873666151 46.871036667 46.71380183 46.710673822 46.573672051 
46.518283876 46.490290095 46.350509401 46.347943679 46.28172899 46.240996536 46.158073753 45.841397949 45.831988191 
45.732806103 45.646149844 45.538357004 45.44763461 45.400538602 45.210299505 45.15638675 45.062041138 45.027127798 
44.951851253 44.947887997 44.864595993 44.84328074 44.758852662 44.675308198 44.556549934 44.505359689 44.461931512 
44.1912912 43.999933471 43.87097287 43.867998571 43.581727385 43.343608915 43.342074536 43.175747788 43.020449024 
42.822691792 42.735132204 42.605131712 42.541856544 42.541214894 42.422493676 42.41108078 42.410317773 42.400124867 
42.24114867 42.193245233 42.077170138 42.049344644 41.996702833 41.962615483 41.897769139 41.896918724 41.894770427 
41.815329673 41.711531632 41.616297305 41.614354246 41.609346032 41.612292053 41.593245455 41.589056379 41.577783685 
41.605036934 41.604927081 41.61426493 41.681413265 41.702429319 41.710226207 41.724972494 41.730608786 41.762212795 
41.79317212 41.806307169 41.87328364 41.971553284 42.020598968 42.024362367 42.065899714 42.15177089 42.217958875 
42.273537784 42.329742082 42.35639251 42.43218321 42.433199534 42.517867341 42.577531529 42.600285932 42.606020857 
42.615513632 42.692011221 42.74157329 42.775717445 42.819060482 42.824445067 42.842938943 42.866531143 42.875595792 
42.903463398 42.918530737 42.91978608 42.933276581 42.956085374 42.973887677 42.983858428 42.983929688 43.01353078 
43.031182934 43.044824559 43.088574314 43.092605522 43.155914458 43.172603411 43.200724832 43.281723717 43.291019462 
43.294984965 43.297612555 43.300655666 43.315926625 43.345657375 43.344951087 43.343376748 43.354997624 43.348011179 
43.358579222 43.364089123 43.372940518 43.368483408 43.330807129 43.335901159 43.337707367 43.333228971 43.29542313 
43.286358158 43.2793853 43.275626022 43.272872206 43.238085142 43.157405797 43.155470422 43.148878428 43.079921978 
43.079476805 43.078433606 43.053682309 43.050945021 42.969780188 42.955466061 42.872054209 42.775063324 42.729502047 
42.6645597 42.516174278 42.497131721 42.492190547 42.404982347 42.243256027 42.166632091 42.0992396 41.852414496 
41.751046255 41.650203391 41.48126787 41.393164889 41.265060037 41.128495333 40.921991105 40.880501217 40.868943311 
40.80476274 40.58251109 40.558975782 40.432377757 40.428052137 40.416115805 40.247449907 40.061901915 39.946605912 
39.865836516 39.829491591 39.68026569 39.480136991 39.371143027 39.362478507 39.180025198 38.9405687 38.800017812 
38.736115463 38.689635249 38.242433309 38.161476579 37.842938383 37.807305531 37.795463022 37.557049809 37.492463546 
37.22964034 36.984118907 36.943089746 36.936904382 36.584792296 36.367641386 35.903926645 35.765490593 35.330887303 
35.310261028 35.003070275 34.520865669 34.466130737 34.146034857 33.70331016 33.317712943 33.226156261 33.009511136 
32.647962872 32.445241696 32.03894903 32.007964472 31.477588707 31.441477534 31.013635019 30.753336026 30.527592931 
29.987863686 29.689458465 29.662413217 29.52890023 29.272824559 29.167536839 29.156298219 28.870414064 28.505503292 
28.126982521 27.779444205 27.504805163 27.178942391 27.160456134 26.870077127 26.857884052 26.819849824 26.384356606 
26.061901128 25.55849649 25.239998922 25.048856717 24.880033008 
EdgeArray 2 338 int
46259 46259 44310 40307 35194 37326 34716 34744 34832 
34752 34752 34749 34570 34574 34574 34575 34654 34659 
34658 34653 34375 34639 34375 34589 34240 34368 34246 
34368 33559 33559 34048 33947 33664 33664 33546 33546 
33824 33750 31426 31426 33233 33168 33168 33134 33134 
33134 32992 32992 33070 33070 32846 32846 32853 32844 
32360 32360 32234 31888 31745 32450 32236 32450 32011 
32236 25254 32011 25254 31907 32227 32227 31863 25276 
25276 30947 31742 31566 31731 31742 31287 31731 31287 
30705 30705 26961 31195 31195 30797 30942 17747 17747 
28428 28428 28144 28144 30871 28854 26328 29685 26328 
18585 27697 18585 24949 24949 30458 30458 30464 29892 
28781 29892 29811 29811 29814 29814 30032 30032 27473 
26439 25638 28687 29213 28687 29246 29213 29376 29246 
29376 28675 26781 28675 29053 29223 28858 28858 28806 
28938 28806 28943 28694 28694 28475 28475 27584 28624 
27231 27584 28114 28114 28117 28117 28139 28135 28116 
28111 27491 28116 28123 28123 25639 25639 27832 28093 
27240 27832 27240 24520 27149 26447 27149 23719 27123 
27123 25766 27135 26550 26559 25604 26428 26561 26561 
26332 26332 26554 26231 24443 26231 24443 25845 25845 
25845 26250 26250 26249 26249 25541 25541 25240 25239 
24322 25319 24954 22390 25833 25832 24928 24799 24928 
25428 22241 25427 23413 25427 24661 23887 25068 25069 
25066 25067 20179 25067 24347 24347 23667 23667 22838 
22156 24025 24178 23391 23944 23411 23391 23215 23215 
21516 21516 22907 22907 22799 23060 21183 16313 22674 
20861 23287 23287 22810 22313 23636 23636 23155 23155 
22775 22775 21725 22354 22087 21725 20921 20921 21152 
21152 21909 22331 22414 22331 22006 22414 22006 21040 
21514 22415 20656 20656 21720 21720 21672 22060 22053 
21591 22052 21591 22050 22050 22049 20941 20941 20335 
20933 20933 17506 17506 20045 20045 21213 21213 21215 
21217 21211 21212 19805 19805 19410 20668 20469 20651 
20521 20651 20521 17886 19355 17886 20376 20376 20139 
20249 19026 20064 17910 20060 20054 20060 20052 20054 
19890 20053 20053 19562 19857 19857 19357 19643 19583 
19583 19575 17170 18751 18751 18776 18776 19338 19338 
18641 18641 18526 19155 18933 19155 18935 18934 18762 
18934 18086 18086 18640 18530 18636 18638 18637 18532 
18352 18637 18353 18353 18251 18251 18214 18214 18216 
18216 18103 18104 18103 18101 17962 17964 17933 17650 
17680 17928 17803 17802 17801 17802 17527 17769 17764 
17768 17126 17126 17272 17438 16648 17438 17436 17428 
17369 17369 17494 17494 16033 16033 16454 15227 16568 
16403 16205 16432 16838 16838 15869 15869 16434 16047 
16047 16223 15876 15876 16244 16244 16245 16245 13500 
13500 15875 15875 15874 15874 15748 15748 15442 15442 
14911 15629 15258 15629 15443 15443 15444 15444 15254 
15255 15058 15058 13766 14444 13766 15022 15022 14738 
14490 14490 14376 14924 14755 14269 14829 14829 14672 
14400 14154 14400 14154 14576 14394 14578 14147 14200 
14147 13965 13335 13965 13591 13587 13587 13772 13241 
13241 13657 13657 13720 13720 13138 13138 13120 13120 
12921 12921 12510 12510 12512 12512 12504 12504 12947 
12376 11776 11776 12400 12400 12441 12441 11641 11641 
12224 11777 11831 12229 12003 12003 11998 11998 11339 
11339 11216 11216 11218 11221 11226 10842 10842 10572 
10563 10841 10568 10568 10934 10827 10298 10938 10938 
10939 10939 10936 10694 10690 10434 10432 10432 10433 
10415 9336 10414 10415 10413 10413 9712 8742 9701 
9700 9701 9477 9204 9204 9356 9684 9682 8905 
9357 9696 9697 9358 8868 9353 9343 9347 7942 
7942 9099 9099 9098 9122 8949 8712 8951 8871 
8623 8623 8621 8621 8484 8484 8099 8099 8215 
8215 8061 8061 8280 8280 8166 8481 8283 8283 
8408 8292 8401 8401 7968 7198 7969 7770 7768 
7768 7300 7300 7303 7303 6826 6826 6822 6822 
5738 5738 6551 6551 4857 4857 6301 6301 5551 
5551 5262 5914 5998 5998 5481 5481 5430 5430 
5157 5157 4961 5326 5326 5251 3646 5150 4726 
4726 5152 5154 5153 5152 5098 4521 3078 3078 
3288 3288 4175 4175 4148 3500 3221 3790 2277 
3453 1279 1279 3688 1722 3145 3763 3118 3118 
1414 2823 2270 2270 2316 2316 1956 1956 854 
854 
EdgePCoordArray 1 338 double
0 0.016 0.68 0.376 0.824 0.204 0.928 0.088 0.26 
0.876 0.12 0.204 0.956 0.972 0 0.224 0 0 
0.588 0 0.976 0.064 0 0 0 0 0.012 
0 0.312 0.804 0.504 0.776 0.224 0.184 0 0.6 
0.676 0.192 0.876 0.624 0.428 0.644 0 0.056 0 
0 0 0.996 0.088 0.532 0.94 0 0 0.94 
0.932 0 0 0 0.196 0.632 0.528 0.372 0.768 
0.752 0.636 0.472 0 0.184 0.08 0 0 0.012 
0.976 0 0 0.852 0.004 0.996 0 0 0.096 
0.1 0.012 0.416 0.292 0 0.98 0.904 0.924 0 
0 0.08 0.012 0.032 0 0 0 0 0.232 
0.088 0.204 0.232 0.264 0.284 0.228 0.524 0.012 0.316 
0.972 0.952 0 0 0.036 0.044 0.096 0.412 0 
0 0 0.564 0.588 0.4 0 0.996 0 0 
0 0.876 0.5 0 0 0.344 0.016 0.936 0.016 
0.208 0 0 0.008 0.348 0.516 0 0.528 0.016 
0 0 0 0 0.076 0.916 0 0.616 0.196 
0.036 0.06 0.184 0 0.828 0.812 0.728 0.692 0.4 
0.916 0.156 0 0.644 0 0.968 0 0 0 
0 0.828 0.752 0.94 0.924 0 0.656 0.54 0.356 
0.784 0 0 0 0 0.292 0.488 0.844 0.208 
0.244 0.528 0.62 0.76 0.412 0 0.996 0.996 0.42 
0 0 0 0.124 0.792 0.908 0 0 0.116 
0.772 0 0 0 0 0 0 0 0 
0.952 0.796 0 0 0.148 0 0.18 0.2 0.76 
0 0.936 0.836 0 0.116 0.028 0.02 0.076 0.06 
0.248 0.996 0.868 0.396 0 0 0 0 0 
0 0 0 0 0.672 0 0 0 0 
0.164 0.892 0 0 0 0 0.856 0.9 0.312 
0.972 0 0.74 0.984 0.308 0.024 0.78 0.832 0.616 
0.1 0.744 0 0.62 0.016 0.048 0 0.212 0.28 
0.724 0.3 0.62 0.592 0 0 0.024 0.2 0.036 
0 0 0 0 0 0 0 0.956 0 
0.028 0 0.044 0.1 0 0 0 0 0 
0 0 0 0 0 0.992 0 0 0 
0 0.436 0.492 0.692 0 0.796 0.252 0.112 0 
0 0 0.28 0.148 0.172 0 0.008 0.972 0 
0.256 0 0 0 0 
CurvatureArray 1 338 double
0 0.00042824250794 0.0017122794741 0.0029355912085 0.0040571035813 0.0050315525752 0.0058274668013 0.0064388092949 0.006850362552 
0.0070861145897 0.0071540870355 0.0070749443332 0.0068781301901 0.0066043722503 0.0062577400949 0.0058783974545 0.0054814681353 0.0050801893995 
0.0046977478196 0.0043287662493 0.0039947142928 0.0036924710373 0.0034212527234 0.0031927362882 0.0029945368767 0.0028271366506 0.0026895104026 
0.0025824109187 0.0024918751216 0.0024191982764 0.0023634795112 0.0023212321438 0.0022778057125 0.0022448784918 0.0022126904324 0.0021767159172 
0.0021368210369 0.0020940880346 0.0020461085764 0.0019894619378 0.001928218647 0.0018611987644 0.0017893968092 0.0017159234672 0.0016409674635 
0.0015651755629 0.0014936599192 0.0014254533094 0.001363088301 0.0013079225315 0.0012618529393 0.0012252187269 0.0011979975487 0.0011829772854 
0.0011772644694 0.0011818195306 0.0011977586667 0.0012222379 0.0012540470341 0.0012941384683 0.00134075823 0.0013924743644 0.0014488900388 
0.0015104432172 0.0015748268551 0.0016438245808 0.0017149733705 0.0017921509996 0.0018713892944 0.0019574470834 0.0020480192898 0.0021471025489 
0.0022544629616 0.0023708944783 0.0024988723125 0.0026390797031 0.0027918031044 0.0029549567913 0.003130840124 0.0033172073523 0.0035124625364 
0.0037106568534 0.0039134522345 0.0041136091521 0.0043061294496 0.0044904466241 0.0046567626879 0.0048050941091 0.0049261417628 0.0050203095473 
0.0050805261318 0.0051038953038 0.0050891121878 0.0050367315039 0.0049440278905 0.0048132344553 0.0046456674438 0.0044458572686 0.0042203747208 
0.0039696120639 0.0037035399968 0.0034287286568 0.0031508458269 0.0028801279713 0.0026156635916 0.0023710761689 0.0021434474633 0.0019389528823 
0.0017581009833 0.0015990536554 0.001461004645 0.0013404932418 0.0012350902512 0.0011410125967 0.0010569384881 0.00098064753078 0.00091090723779 
0.00084678007564 0.00078745366947 0.0007325362159 0.00068208015179 0.00063582438133 0.00059395542587 0.00055671133815 0.00052420371164 0.00049899797645 
0.00047972746874 0.0004701535291 0.00046947429138 0.00047961621278 0.00050143509043 0.00053112018285 0.00056755993728 0.00061094024985 0.00065512566823 
0.00069913420219 0.00074212538684 0.00077984677927 0.00081112492976 0.00083556716199 0.00085200603863 0.00086087690005 0.00086056375982 0.00085302872638 
0.00084137114318 0.00082354476085 0.00080304063039 0.00078145858738 0.00076103277198 0.00074412873078 0.00073057126222 0.00072298987257 0.00072207031293 
0.00072930847548 0.00074185925291 0.00076125488149 0.00078723892424 0.0008158098623 0.00084666450062 0.00088088939088 0.00091341815214 0.00094566287331 
0.00097635862726 0.0010042620481 0.0010304475538 0.0010517173741 0.0010727805136 0.0010900567329 0.0011089646359 0.0011294750933 0.0011558354517 
0.0011880404193 0.001235021988 0.0012993224524 0.001382693934 0.0014874160941 0.001613801828 0.0017670578213 0.0019379237127 0.0021269365879 
0.0023290647596 0.002535893845 0.0027495694562 0.002950033654 0.0031444141108 0.0033170139156 0.0034639171898 0.0035806179327 0.0036622040226 
0.0037105519195 0.0037202204719 0.0036974641751 0.0036432307053 0.0035674194179 0.0034674820737 0.0033606278024 0.0032398484214 0.0031209316367 
0.0030013282806 0.0028905258505 0.0027830265249 0.0026892277786 0.0026056546031 0.002535363143 0.002470076022 0.0024220116258 0.0023811035339 
0.0023436185744 0.0023178700396 0.0022925160337 0.0022731629356 0.0022503241421 0.002229106319 0.0022037939647 0.0021802635657 0.0021451694914 
0.0021111210778 0.0020675713692 0.0020262586826 0.0019773631665 0.0019313011403 0.0018827658263 0.001838365303 0.0017952215095 0.0017570485059 
0.0017162404724 0.001684642502 0.0016464799855 0.001610180369 0.0015623484548 0.0015136575936 0.001453615521 0.0013849608262 0.0013110487385 
0.0012307238669 0.0011554794296 0.0010862399752 0.00103594181 0.001015253241 0.0010260588726 0.0010729410249 0.0011486955164 0.0012487580842 
0.0013612895054 0.0014838554711 0.0016113832572 0.0017361421746 0.0018614099443 0.0019783180428 0.002096822492 0.0022126231843 0.0023199043535 
0.0024288811064 0.0025353681242 0.0026507175029 0.0027587766632 0.0028692912033 0.0029910009716 0.0031045883818 0.0032283554465 0.0033422553407 
0.0034648487998 0.0035716210994 0.003669164094 0.0037647559987 0.003832691617 0.0038810133627 0.003902731254 0.003905103024 0.0038630867031 
0.0038047881904 0.0037050809374 0.0035811618565 0.0034294067106 0.0032586201712 0.0030794730448 0.0028833040584 0.002691423588 0.0024987357873 
0.0023100948205 0.0021500835801 0.0020037273235 0.0018787664396 0.0017832172404 0.0017186961141 0.0016745321173 0.0016703507863 0.0016905845289 
0.0017303462183 0.0017877251984 0.0018628175417 0.0019512825733 0.0020600119489 0.0021864612856 0.0023164167465 0.0024676494436 0.0026421936965 
0.0028341859091 0.0030507049232 0.0032947273954 0.0035671248052 0.0038700463622 0.0042278796743 0.0046090724479 0.0050491362277 0.0055126723021 
0.0060668253841 0.0066461928537 0.0072900665066 0.0080048168775 0.0087774057394 0.0095995738085 0.010483810082 0.011406749342 0.012407043676 
0.013406170516 0.014400514367 0.015446331128 0.016415145281 0.017380511611 0.018183605409 0.01891368948 0.019500862315 0.019872182136 
0.020010761153 0.019935695108 0.019608445811 0.018989677458 0.018107314076 0.01697278052 0.015613473778 0.013973031816 0.012173853861 
0.010250796034 0.008148272013 0.0059504574788 0.0037721544703 0 
TorsionArray 1 338 double
0 0 -0.0014125697393 -0.0017951725999 -0.0026792572665 -0.0032758871237 -0.0045896086736 -0.0056560886998 -0.0069718456286 
-0.0086160688565 -0.0097241833362 -0.010916466554 -0.012903014722 -0.01462712191 -0.016207522686 -0.018303733715 -0.020125799778 -0.022308612904 
-0.024107440706 -0.025877632672 -0.027759301665 -0.028672933483 -0.029578334769 -0.029725672583 -0.028790499998 -0.027250118027 -0.025280361753 
-0.0225792189 -0.019150570631 -0.015856561145 -0.01262615029 -0.0092234452348 -0.006314954393 -0.0038108865197 -0.0013313168223 0.00067500650712 
0.0023684562777 0.0039741905758 0.0054453877581 0.0069578441115 0.0085206896553 0.01008565314 0.011788796396 0.013776666466 0.015973470057 
0.018343029915 0.020731498817 0.023358323635 0.026092323237 0.028442477094 0.030328927238 0.03198294128 0.032672806696 0.032426337479 
0.031692733503 0.029474714537 0.02658752682 0.023805013808 0.020193861768 0.016031717926 0.01231431922 0.0087880564059 0.0046763024546 
0.00097993676392 -0.0025701413 -0.0060048889841 -0.0096002080688 -0.012887380218 -0.015913683524 -0.018888343051 -0.021564679404 -0.024000753518 
-0.025786024071 -0.027259122333 -0.028233514023 -0.028543267056 -0.028126063531 -0.027301556869 -0.026195998853 -0.024640153373 -0.022695392778 
-0.020642001336 -0.018503949537 -0.01621068917 -0.013976826495 -0.011759874902 -0.0095331988047 -0.0073326294432 -0.0051815787778 -0.0030176140166 
-0.00080274589086 0.0014392296462 0.0037587224069 0.0061888294305 0.0087710585575 0.011585576691 0.01470922871 0.017967409708 0.021628410409 
0.025776183713 0.030201110586 0.035046379061 0.03999570201 0.045402463128 0.050823031929 0.055561262477 0.059997308918 0.062761070092 
0.064147606218 0.063546881144 0.060880652339 0.056756304989 0.051583907206 0.045116742702 0.037854083924 0.030779660272 0.023256953015 
0.016425156021 0.0089189808004 0.00077140834271 -0.0062878705706 -0.01526478156 -0.025769773307 -0.035038800965 -0.046796575301 -0.058794307604 
-0.068960561259 -0.077136028649 -0.081872492599 -0.083243158498 -0.078612243081 -0.071517137984 -0.064036987899 -0.055822016296 -0.048699827092 
-0.042884380601 -0.038165020077 -0.034659028502 -0.031838074273 -0.030430838092 -0.02974082655 -0.029458070962 -0.030578876924 -0.032066056604 
-0.034213329809 -0.037035000516 -0.040121322788 -0.043756460311 -0.047591023335 -0.051133706326 -0.053525120046 -0.055234819872 -0.055173726863 
-0.052586668723 -0.049991497675 -0.045087785965 -0.039174539906 -0.034947686351 -0.029163630062 -0.024499016021 -0.021269479496 -0.019046961577 
-0.017449498364 -0.017193899676 -0.018863300884 -0.021646036881 -0.026761824525 -0.03244516052 -0.03941311064 -0.047712153969 -0.055804723124 
-0.063518868761 -0.070660466286 -0.074109984097 -0.073953107463 -0.071525161025 -0.065893531179 -0.059130252962 -0.050938726511 -0.042115176533 
-0.034634081248 -0.027288695512 -0.020219046914 -0.014252515752 -0.0089069604691 -0.0048126552382 -3.3186456321e-05 0.003643424082 0.0059756223686 
0.0081253245948 0.0097826573307 0.011130853237 0.010558278745 0.010757804788 0.010308450423 0.007980157928 0.006861444057 0.0048621297545 
0.0022019969957 -1.6542197607e-05 -0.0029128383343 -0.0042838896108 -0.0055450519726 -0.0077540529631 -0.0081466464837 -0.00731907339 -0.006441941235 
-0.0058661293399 -0.0037631667742 -0.00081529594018 0.0021058650425 0.0051693850135 0.0086839701065 0.013405929735 0.018378294458 0.023203362314 
0.028263798299 0.034150916761 0.040161608444 0.045817449718 0.05109085457 0.055561406664 0.059525247001 0.061772076984 0.060516068034 
0.058753570872 0.053118462316 0.045610588077 0.037181092473 0.024531793936 0.011160093746 -0.0043926072686 -0.022216160151 -0.044811060176 
-0.071918263326 -0.097353994306 -0.12989299051 -0.15605765599 -0.17228364796 -0.17691022833 -0.16213882836 -0.13831713592 -0.11273580893 
-0.091315863193 -0.070490607356 -0.055765604503 -0.044208920082 -0.032914323111 -0.0269864685 -0.021929593546 -0.016492815753 -0.014468368894 
-0.011838088842 -0.0094511584346 -0.010234323299 -0.0096261803002 -0.0088715255704 -0.0092574725029 -0.010436040777 -0.011229449288 -0.011232472922 
-0.011977840221 -0.012691926716 -0.012587135831 -0.012221211639 -0.011752789719 -0.011353339175 -0.0094546529714 -0.0075056949084 -0.0051676799925 
-0.0014512697456 0.001305364666 0.0053760460722 0.011822261448 0.017632504158 0.023455139734 0.033016268614 0.042298197777 0.05143430239 
0.064002522359 0.075892229622 0.086912664249 0.09603169981 0.10156409035 0.10460148563 0.10264689701 0.092943054099 0.082304509121 
0.067929172649 0.054721619052 0.042360063291 0.027449913234 0.01608711412 0.0074026604627 -0.00060778663067 -0.0079283287405 -0.012408197469 
-0.016943759804 -0.02041890427 -0.020670329872 -0.021851013206 -0.024176672216 -0.022069971617 -0.020707794141 -0.019014701209 -0.017553296687 
-0.015227730105 -0.01190583947 -0.010509900072 -0.0075258295845 -0.0036937484354 -0.0010201244103 0.0027063969152 0.0050054140206 0.0082066650747 
0.012715243913 0.014739028852 0.017665930877 0.020462294033 0.023988992518 0.027706047952 0.028487452891 0.029605783703 0.033089874584 
0.035473012891 0.03568120184 0.036492957603 0.035723565291 0.035094330068 0.035251752452 0.034695420434 0.031519468312 0.02838364794 
0.025846095077 0.027554540377 0.027774806082 0 0 
TangentArray 3 338 double
-0.39873561669 0.055029538064 0.9154133809 -0.39873561669 0.055029538064 0.9154133809 -0.39801258002 0.054309376369 0.91577097453 
-0.39643334693 0.052742712559 0.91654722067 -0.3940353409 0.050375484843 0.91771371388 -0.39087712027 0.047281299269 0.91922769518 
-0.387040452 0.043558011007 0.92103332632 -0.38261744593 0.039320309398 0.92306977165 -0.37771163595 0.034693260882 0.92527309359 
-0.37242884002 0.029804575091 0.92758204296 -0.36687044556 0.024778688617 0.92994198355 -0.36114064647 0.019731556373 0.93230257918 
-0.35533546705 0.014766190188 0.93462220468 -0.34952930911 0.0099693985797 0.93687238894 -0.34379011106 0.0054117448169 0.93903092205 
-0.33817582496 0.0011470245671 0.94108224707 -0.33272453639 -0.0027881951753 0.94301994086 -0.32746763979 -0.0063715880803 0.94484091135 
-0.32242055775 -0.0095938974961 0.94654790744 -0.31759328382 -0.012457682477 0.94814519575 -0.3129870863 -0.01497353896 0.94963934045 
-0.30859176754 -0.017159314534 0.9510397883 -0.30439933586 -0.019038591935 0.9523542284 -0.30039170664 -0.020637824144 0.95359262938 
-0.29654856929 -0.021986052432 0.95476466187 -0.29285408967 -0.023113154359 0.95587774546 -0.28928891609 -0.024049166839 0.95693968494 
-0.28582979221 -0.02482265516 0.95795885385 -0.28245873843 -0.02546030566 0.95894151747 -0.27916323387 -0.025987984695 0.95989192804 
-0.27592746272 -0.026428556634 0.96081505333 -0.27273614838 -0.026802217459 0.96171546442 -0.26958472575 -0.027127165364 0.96259451097 
-0.26646907917 -0.027418479725 0.96345340148 -0.26338282306 -0.027688930828 0.96429394462 -0.26032881335 -0.027949990496 0.96511538531 
-0.25731271046 -0.028210433287 0.96591632168 -0.25433934085 -0.028477422192 0.96669567917 -0.25141452779 -0.028757312924 0.96745219632 
-0.24854843029 -0.029055061731 0.96818359891 -0.2457511249 -0.029375229456 0.96888775434 -0.24303119991 -0.02972210675 0.96956301097 
-0.24039789192 -0.030099102143 0.97020765695 -0.23785813132 -0.030509632546 0.97082061767 -0.23541719066 -0.030957563839 0.97140124335 
-0.23308042663 -0.031446475412 0.97194888441 -0.2308495969 -0.031980142764 0.97246374435 -0.22872396414 -0.032562124824 0.97294658448 
-0.22670226628 -0.033196200437 0.97339822002 -0.22478098669 -0.033886649803 0.97381990275 -0.22295436613 -0.034637149461 0.97421333316 
-0.22121512062 -0.035451073211 0.97458046965 -0.21955612138 -0.036332075163 0.97492311998 -0.21796768989 -0.037283438719 0.9752435754 
-0.21643978511 -0.038307862489 0.97554411848 -0.21496343982 -0.039407805272 0.97582669795 -0.21352643914 -0.040585001159 0.97609390812 
-0.21211678368 -0.041840632311 0.97634821225 -0.21072499747 -0.043175382731 0.9765914508 -0.20933979774 -0.044588873074 0.97682581942 
-0.20794858672 -0.046079662806 0.97705376001 -0.20654063094 -0.047645705962 0.97727726592 -0.20510573869 -0.049284277858 0.97749818205 
-0.20363137054 -0.050991061867 0.97771886375 -0.202105897 -0.052760939637 0.97794145512 -0.20051754645 -0.054588180058 0.97816810629 
-0.19885429485 -0.056465946716 0.97840102529 -0.19710246835 -0.058386747481 0.97864273598 -0.19524848973 -0.060342362072 0.97889571794 
-0.19327895641 -0.062324284998 0.97916236065 -0.19117885921 -0.064323620955 0.97944531015 -0.18893313649 -0.066331283735 0.97974712591 
-0.18652516028 -0.068338464059 0.98007051732 -0.18393980977 -0.07033647036 0.98041773103 -0.18116109491 -0.072316851169 0.98079097198 
-0.178172582 -0.074271926496 0.98119224006 -0.17495912132 -0.076194896902 0.98162296405 -0.17150859812 -0.078079816831 0.98208367412 
-0.16781006578 -0.079921822571 0.9825743148 -0.16385328462 -0.081716857133 0.9830943273 -0.15963157267 -0.083462173216 0.98364212326 
-0.15514383076 -0.085156158752 0.98421482432 -0.1503919864 -0.086798554141 0.98480874358 -0.1453814319 -0.088390377408 0.98541939317 
-0.14012535872 -0.089933675844 0.9860409818 -0.1346400293 -0.091431921095 0.98666725207 -0.12894760703 -0.092889343248 0.98729128658 
-0.12307586351 -0.094311442719 0.98790570582 -0.11705751271 -0.095704575806 0.98850299589 -0.11092994157 -0.097075605537 0.98907576801 
-0.10473375232 -0.098432196503 0.98961706928 -0.098514817203 -0.09978218223 0.99012036991 -0.092320668519 -0.1011334747 0.99058008988 
-0.086198479023 -0.10249416732 0.9909918102 -0.080196032718 -0.10387180244 0.99135223054 -0.07436086777 -0.1052730133 0.99165924289 
-0.068738095943 -0.10670375713 0.99191198318 -0.063369317922 -0.10816918473 0.99211075844 -0.058289348415 -0.10967245109 0.99225717701 
-0.053529414817 -0.11121519114 0.99235365823 -0.049115255477 -0.11279748879 0.99240335459 -0.045063466786 -0.11441765675 0.9924101389 
-0.041384232139 -0.11607208323 0.99237826298 -0.038078694833 -0.11775503398 0.99231233237 -0.035143681583 -0.11945968467 0.99221686409 
-0.032568314967 -0.12117779593 0.99209638979 -0.030334902651 -0.12289995585 0.99195533898 -0.0284229138 -0.1246159674 0.99179786178 
-0.02680554512 -0.126315665 0.99162786141 -0.025454587732 -0.12798915063 0.99144885964 -0.024340041779 -0.12962687221 0.99126405986 
-0.023431273802 -0.13122029317 0.99107628872 -0.022698867351 -0.1327623121 0.99088795023 -0.022115559933 -0.13424710769 0.99070107302 
-0.021654926236 -0.13566996926 0.99051740197 -0.021292338334 -0.13702797032 0.99033831173 -0.021006301255 -0.13831970942 0.99016483138 
-0.020776997641 -0.13954489768 0.98999774641 -0.020588137195 -0.1407043078 0.98983757575 -0.020424081748 -0.1417990899 0.98968473515 
-0.020270350338 -0.14283097697 0.98953950144 -0.020115912336 -0.14380231813 0.98940196249 -0.019948513314 -0.1447150581 0.98927226221 
-0.019755820721 -0.14557080226 0.98915056947 -0.019528917628 -0.14637099655 0.9890369825 -0.019256606777 -0.14711677281 0.98893166511 
-0.018928436275 -0.14780816345 0.98883490084 -0.018535821462 -0.14844473279 0.98874697705 -0.018070233395 -0.14902582054 0.98866818067 
-0.017524452418 -0.14954954719 0.98859892095 -0.016890291224 -0.15001380846 0.98853961748 -0.016163481746 -0.15041659706 0.988490561 
-0.015343190117 -0.15075509303 0.98845206684 -0.014428040066 -0.15102673659 0.98842438077 -0.013420393394 -0.15122948238 0.98840757621 
-0.012327004345 -0.15136124912 0.98840164773 -0.011154950553 -0.15142060042 0.98840647957 -0.0099145529925 -0.15140661573 0.98842184231 
-0.0086198759688 -0.15131903727 0.98844739197 -0.0072856907934 -0.15115911081 0.98848259566 -0.0059278997061 -0.15092769988 0.98852703019 
-0.0045628180507 -0.1506263978 0.9885802289 -0.0032076365431 -0.15025827167 0.98864157452 -0.0018797613888 -0.14982551378 0.98871066643 
-0.00059272860565 -0.14933045338 0.98878716839 0.00064024693515 -0.14877562263 0.98887077224 0.0018067239012 -0.1481640005 0.9889611543 
0.0028978039268 -0.14749827888 0.98905806728 0.003906793203 -0.14678037231 0.98916139192 0.0048296001596 -0.14601121613 0.98927114571 
0.0056634052414 -0.14519195226 0.98938729668 0.006407754827 -0.14432440089 0.98950968059 0.0070638799716 -0.1434089583 0.98963830377 
0.0076353299004 -0.14244550758 0.98977319579 0.0081274940446 -0.14143563199 0.98991409013 0.0085446001576 -0.14038038471 0.9900607746 
0.0088942063118 -0.13927968945 0.99021313928 0.0091843516048 -0.13813555355 0.99037074701 0.0094198149399 -0.13695092633 0.9905330438 
0.0096086832314 -0.13572763027 0.99069959301 0.0097573713387 -0.13446906853 0.99086975093 0.0098699242869 -0.13318002957 0.99104271569 
0.0099493031146 -0.13186455098 0.99121781237 0.0099974425524 -0.13052776937 0.99139424679 0.010014446312 -0.12917461027 0.99157129392 
0.0099970064322 -0.12781107241 0.99174814829 0.0099403950484 -0.12644235718 0.99192414975 0.0098360157433 -0.1250733615 0.99209873855 
0.0096748648202 -0.12370872218 0.99227140896 0.0094459504718 -0.12235118538 0.99244191843 0.0091360147784 -0.12100314735 0.99261008033 
0.0087317716658 -0.11966700043 0.99277568724 0.0082189259425 -0.11834300603 0.99293876054 0.0075804449257 -0.11702901877 0.99309956481 
0.0068014196961 -0.11572268172 0.99325827539 0.0058693633581 -0.11442088235 0.99341502518 0.0047719164315 -0.11312031017 0.99356983863 
0.0034979254286 -0.1118138825 0.9937230098 0.0020380849839 -0.1104955127 0.99387453327 0.00038811436604 -0.10915922989 0.99402420086 
-0.0014531077028 -0.10779671507 0.99417189494 -0.0034828078502 -0.10640281165 0.99431700766 -0.0056955302753 -0.10497065194 0.9944590103 
-0.0080787138013 -0.10349468967 0.99459719665 -0.010616093333 -0.10197114938 0.99473070891 -0.013289473443 -0.10039638469 0.99485876175 
-0.016075186814 -0.098771738759 0.99498026714 -0.018946196848 -0.097096597151 0.99509461482 -0.021874132685 -0.095373582945 0.99520118669 
-0.024832598387 -0.093609072461 0.99529929348 -0.027794734564 -0.09181050891 0.99538850867 -0.030735150752 -0.089986946013 0.99546858316 
-0.03363190838 -0.088147259748 0.99553952977 -0.036470289842 -0.086303863118 0.99560110545 -0.039236397612 -0.084466098068 0.99565354586 
-0.041922584928 -0.082642444089 0.9956971042 -0.044527186625 -0.080844051428 0.9957316752 -0.047048960379 -0.079077185834 0.99575759802 
-0.049492337087 -0.077347174552 0.99577503642 -0.05186462987 -0.075658949036 0.99578400449 -0.054173133121 -0.07401538058 0.9957846128 
-0.056427600113 -0.072419444491 0.99577675711 -0.058637523285 -0.070868480485 0.99576066368 -0.060812013001 -0.069360001067 0.99573645576 
-0.062959095884 -0.067895056826 0.99570397885 -0.065085713877 -0.066469512359 0.99566342394 -0.067198052521 -0.065076103684 0.99561514777 
-0.069296399893 -0.063711555306 0.99555956461 -0.071383660826 -0.062371868097 0.99549692267 -0.073459366 -0.061050580862 0.99542782165 
-0.075519581479 -0.059740992004 0.99535310653 -0.077558857209 -0.058437609709 0.9952736656 -0.079569852959 -0.057135987212 0.99519049305 
-0.081544597031 -0.055831089528 0.9951047021 -0.083473824711 -0.054515748503 0.99501766505 -0.085344971978 -0.053185163015 0.99493093941 
-0.087145849375 -0.051836272488 0.99484601914 -0.088865255972 -0.050466060989 0.99476436555 -0.090491855911 -0.049071340182 0.99468750248 
-0.09201529838 -0.04764968107 0.99461685727 -0.093426562255 -0.046201105494 0.99455363622 -0.094719392183 -0.04472586539 0.99449878517 
-0.095889642818 -0.043226269981 0.9944529481 -0.096935180326 -0.041704659666 0.99441655868 -0.097857034522 -0.040165257236 0.99438963837 
-0.098660557842 -0.038616815494 0.99437157838 -0.099353304801 -0.037065531011 0.99436163806 -0.09994759185 -0.035520083535 0.99435848795 
-0.10045744487 -0.033991648815 0.994360533 -0.10089729102 -0.032491821904 0.99436613889 -0.10128717694 -0.031033275876 0.99437309073 
-0.10164662118 -0.029626914311 0.99437930909 -0.10199529154 -0.028286884758 0.9943826289 -0.10235293895 -0.027024613185 0.99438098643 
-0.10274090076 -0.025852983683 0.99437212881 -0.10317987704 -0.024782919717 0.99435392083 -0.10368409621 -0.023822630837 0.99432494209 
-0.10427022395 -0.022981952297 0.99428343558 -0.10495100546 -0.022264332694 0.99422813576 -0.10573622557 -0.02167278305 0.99415800609 
-0.10663496675 -0.02121077799 0.99407197263 -0.10765153155 -0.020876699655 0.99396947195 -0.10878779108 -0.020666587093 0.99385014398 
-0.11004327294 -0.02057526629 0.99371381016 -0.11141570491 -0.020598265473 0.9935603918 -0.11290357883 -0.020726535847 0.99338974859 
-0.11450179714 -0.020952792728 0.99320205343 -0.11620536337 -0.021269946808 0.99299743347 -0.11800844682 -0.021666232986 0.99277619876 
-0.1199053548 -0.022135856331 0.99253851802 -0.12189333903 -0.022673448355 0.99228419752 -0.1239658332 -0.023269809124 0.99201360282 
-0.12611676937 -0.023921392183 0.99172694199 -0.12834338286 -0.024623868712 0.9914240471 -0.13064605187 -0.025373264055 0.99110433689 
-0.13302086559 -0.02617174981 0.99076762605 -0.13546198716 -0.027017363555 0.99041411142 -0.1379718763 -0.027910182054 0.99004281882 
-0.14054768606 -0.028851465172 0.98965344485 -0.14318547405 -0.029844074449 0.9892457992 -0.14588127731 -0.030890109653 0.98881972778 
-0.14863152204 -0.031989391214 0.98837510567 -0.1514302782 -0.033142860741 0.98791215279 -0.1542651361 -0.034348557685 0.98743224799 
-0.15713089196 -0.035604834966 0.98693575197 -0.16001660207 -0.036906562478 0.98642414443 -0.1629058305 -0.038245255731 0.98590009169 
-0.16578370271 -0.03961281093 0.98536622082 -0.1686382392 -0.040997618188 0.98482502993 -0.17145194697 -0.042384919665 0.98428032006 
-0.1742094637 -0.043759668908 0.98373581521 -0.17689836816 -0.045104633769 0.98319506679 -0.17950209959 -0.046403822666 0.98266254711 
-0.18200971187 -0.04764138829 0.98214192605 -0.18441322791 -0.048798620584 0.98163662116 -0.18670912714 -0.049863218457 0.98114900055 
-0.18889263769 -0.050824450809 0.98068162348 -0.19096407827 -0.051668993493 0.98023621435 -0.19292653057 -0.052389152847 0.97981362027 
-0.19478009077 -0.052979503134 0.97941507467 -0.19653502391 -0.053435420663 0.979039652 -0.19820251324 -0.053755272274 0.97868592227 
-0.199788372 -0.053938608853 0.97835332722 -0.20130302346 -0.053987956118 0.97804007757 -0.20275991084 -0.05390759125 0.97774351962 
-0.20416855083 -0.053700576599 0.97746173885 -0.20554337589 -0.053371372978 0.97719159696 -0.20690285052 -0.052926644013 0.97692885145 
-0.20825902422 -0.052371919532 0.97667054879 -0.20962489856 -0.051715458616 0.97641329018 -0.21101413124 -0.050963217725 0.97615356725 
-0.21244024874 -0.050120209688 0.97588785488 -0.21392149234 -0.049194854735 0.97561132701 -0.21547691609 -0.048191423191 0.97531906849 
-0.21711855819 -0.047116155611 0.97500748693 -0.21886009911 -0.045975710432 0.97467250452 -0.22072241692 -0.044773400135 0.97430845081 
-0.22272258177 -0.043511565255 0.97391036305 -0.22487771699 -0.042194612181 0.97347297194 -0.22720739362 -0.040825810215 0.97299026383 
-0.22972792453 -0.039403326835 0.9724569186 -0.23245636063 -0.03792836141 0.97186700726 -0.23541920778 -0.03640227479 0.97121195987 
-0.23863374775 -0.034819747364 0.97048519805 -0.24211578474 -0.033176576353 0.96967997894 -0.2458793231 -0.031469565519 0.96878946367 
-0.24994521333 -0.029690965203 0.96780464812 -0.25433195009 -0.027832000034 0.96671642116 -0.25904239144 -0.025883462606 0.96551907583 
-0.2640940955 -0.023836712547 0.96420232309 -0.26949648562 -0.021679012198 0.96275732387 -0.27524629573 -0.019395720668 0.96117807024 
-0.2813398611 -0.016975652371 0.95945802919 -0.28776625932 -0.014404115697 0.95759234617 -0.29451747119 -0.011669341556 0.95557484565 
-0.30157298429 -0.0087608322293 0.95340284401 -0.30888641577 -0.0056693435297 0.95108203679 -0.31643090838 -0.0023907245084 0.94861254718 
-0.32416424107 0.0010759974057 0.94600020457 -0.33203279615 0.0047257856006 0.94325600408 -0.33997113919 0.0085485901119 0.94039701516 
-0.34790389867 0.01252824616 0.93744648932 -0.35577643956 0.016639082781 0.93442295883 -0.36351398409 0.020842575444 0.93135555532 
-0.37103116499 0.025100628442 0.92828111747 -0.37825676807 0.029371875033 0.9252346245 -0.3851310727 0.033605736819 0.92224980959 
-0.39158908135 0.037746431656 0.91936564993 -0.39757514433 0.041732852388 0.91662008141 -0.40304623158 0.04550965999 0.91404737626 
-0.40796862949 0.049028046368 0.91167858811 -0.41230796121 0.052234380817 0.90954588371 -0.41604353585 0.055076367467 0.90767525582 
-0.41917452076 0.057520928809 0.90608170928 -0.42169383204 0.059532738983 0.90478183282 -0.42358992506 0.061084521844 0.90379215342 
-0.42487957923 0.062160706592 0.90311316551 -0.42487957923 0.062160706592 0.90311316551 
NormalArray 3 338 double
-0.6662408267 0.66855445414 -0.33039083325 -0.6662408267 0.66855445414 -0.33039083325 -0.6694116386 0.66537520314 -0.33039960222 
-0.67099181823 0.66473580166 -0.32847571275 -0.67377883262 0.66327759009 -0.32570680558 -0.67756648252 0.66116511881 -0.32212473893 
-0.68203504455 0.65867892161 -0.31775820405 -0.68811631019 0.6545667269 -0.31311075306 -0.69468836105 0.65005425302 -0.30795705732 
-0.70285906841 0.64362381296 -0.30288201884 -0.71195119742 0.63594887768 -0.29781624782 -0.72175704267 0.6271381446 -0.29285579889 
-0.73246269867 0.6167877694 -0.28822082258 -0.74482816982 0.60365697585 -0.28430485917 -0.75758699134 0.58926838488 -0.2807574062 
-0.77167210417 0.57204933696 -0.27799589875 -0.78661855618 0.55236379225 -0.27590847774 -0.80230121792 0.53006361817 -0.27449101334 
-0.81899423592 0.50423041602 -0.27386151443 -0.83557515156 0.47638457955 -0.27362729844 -0.85273752877 0.44468170418 -0.27403811595 
-0.86944008712 0.41062234559 -0.27470570473 -0.88524921873 0.37477516797 -0.27545851632 -0.90019672096 0.33661811136 -0.27628628391 
-0.91335057979 0.29860915322 -0.27680912559 -0.92467429828 0.26126868334 -0.2769767449 -0.93400444311 0.22602332764 -0.2766751807 
-0.94161988444 0.19287236794 -0.27595695845 -0.94742629706 0.16406502036 -0.2747109039 -0.95179769251 0.13978057231 -0.27302480498 
-0.95510887425 0.11969993041 -0.27099624533 -0.95758547315 0.10416752642 -0.26866184704 -0.95941710955 0.09343418866 -0.26606176407 
-0.96086453113 0.086085945596 -0.26330317654 -0.96198202848 0.082402061726 -0.26038524748 -0.96282617453 0.082131613562 -0.25733277227 
-0.96347713574 0.084216926843 -0.2542033008 -0.9639020642 0.088874799913 -0.25098621591 -0.96410153228 0.095671082982 -0.24769997848 
-0.96401993339 0.10471363798 -0.24433710741 -0.9635921768 0.11602596618 -0.24089020732 -0.9627163855 0.12980307265 -0.23733588736 
-0.96131223674 0.14586928381 -0.23366843077 -0.95917017729 0.16484503318 -0.22982316253 -0.9560737627 0.18698334211 -0.22574363789 
-0.95172757023 0.2126458411 -0.22135125554 -0.94583836977 0.24183578137 -0.21657616009 -0.93805190829 0.27458660329 -0.21133105461 
-0.92782690812 0.31131745665 -0.2054718223 -0.91477482668 0.35159483467 -0.19891729113 -0.89879234255 0.39424911137 -0.19167671522 
-0.87967117379 0.43866535129 -0.18371536565 -0.85724810461 0.48424947216 -0.17500895936 -0.83272701164 0.52823864697 -0.16592063142 
-0.80611779689 0.57070201952 -0.15643945297 -0.77868609511 0.60997347284 -0.14690244283 -0.75245750827 0.6440589131 -0.13782530502 
-0.72752297896 0.67381168759 -0.12918252495 -0.70461299651 0.69917708141 -0.12112775892 -0.68560760256 0.71897207244 -0.11411123677 
-0.67059955438 0.73389902119 -0.10811320163 -0.65919830111 0.74488142102 -0.10300130308 -0.65176870229 0.75194875696 -0.09884647505 
-0.64946031664 0.7543207869 -0.095924176114 -0.6503876063 0.7537957372 -0.093744056659 -0.65591619704 0.74912584944 -0.092652059673 
-0.66438213082 0.74168083651 -0.092227550062 -0.67732000231 0.7298027144 -0.092874175811 -0.69237355726 0.71538995332 -0.094000382383 
-0.7106441523 0.69698331912 -0.095912156034 -0.73060355557 0.67569888428 -0.098231677027 -0.75246079199 0.65084074053 -0.10104002662 
-0.77509422136 0.62321805704 -0.10405864403 -0.79787991234 0.59321983533 -0.10713483305 -0.82043257196 0.56102749234 -0.11017507752 
-0.84202845021 0.52747013767 -0.11297496583 -0.86218286041 0.49328270236 -0.11538150101 -0.88039269199 0.45953171057 -0.11721482358 
-0.89673698131 0.42641361558 -0.11846609131 -0.91112683454 0.39455298055 -0.11906232368 -0.92351926555 0.36464616618 -0.11893418196 
-0.93402226529 0.3371406464 -0.11806181636 -0.94287804989 0.31211119388 -0.11647997974 -0.95026218013 0.28975724567 -0.11420388609 
-0.95630602751 0.27037859149 -0.11123937704 -0.96128906833 0.25363313006 -0.10767340638 -0.96529066999 0.23978919932 -0.10351358523 
-0.96847713561 0.22866008376 -0.098826129646 -0.97092124778 0.22032405213 -0.093644234507 -0.97273025779 0.21458219642 -0.088035939024 
-0.97390541493 0.21161405468 -0.082022769029 -0.97448061074 0.21133622357 -0.075660689285 -0.97442754941 0.21385140806 -0.068982071734 
-0.97370789422 0.2191936611 -0.062024798879 -0.97222358947 0.22754672725 -0.054806742163 -0.96985836445 0.23902421063 -0.047351659378 
-0.96639047411 0.25400333686 -0.039645383287 -0.96156685172 0.27273693799 -0.031682050653 -0.9551646005 0.29514210241 -0.023488834286 
-0.94656443855 0.32216790511 -0.014953414254 -0.93535686598 0.35365290741 -0.006095436446 -0.92075786567 0.39012166641 0.0031683124705 
-0.90201893665 0.43150504618 0.012854300664 -0.87841003251 0.47735691616 0.02293881833 -0.84828418772 0.52847540202 0.033581041306 
-0.81172975214 0.5823368726 0.044481190466 -0.76714854768 0.63904529707 0.055715474388 -0.71522846893 0.69568018021 0.066912809649 
-0.65642491147 0.75036489394 0.077838689283 -0.59210822297 0.80101681375 0.088203834288 -0.52511492298 0.84540932163 0.097659595316 
-0.45777934161 0.88271816327 0.10605054755 -0.39275901593 0.91263781604 0.11328094336 -0.33160222432 0.9358318906 0.11940953629 
-0.27827504948 0.95241572767 0.12436751397 -0.23230457804 0.96412976735 0.12840706652 -0.19551223393 0.9718300251 0.13161067094 
-0.1685109919 0.97653387009 0.13411057447 -0.14964653124 0.97932798527 0.13609780661 -0.14382694193 0.98001157312 0.13744499749 
-0.14816728332 0.97924302619 0.13830962299 -0.16319528736 0.97680224629 0.13865305557 -0.19481215526 0.97106648978 0.13812348312 
-0.24130000713 0.960791743 0.136577938 -0.30029763161 0.94440934719 0.13383690593 -0.38046051662 0.91578033169 0.12882615952 
-0.47048150561 0.8739863293 0.12163490075 -0.57086488211 0.81344813376 0.11142450382 -0.66985849371 0.73590178582 0.09868211606 
-0.7626353943 0.64141501656 0.083510669348 -0.84105541693 0.53677293586 0.067086518626 -0.90018016667 0.43251011156 0.051094725102 
-0.94256521429 0.33207479639 0.036015918968 -0.97058963501 0.23969041109 0.02245589533 -0.98747736843 0.15739915935 0.010674805512 
-0.99644976126 0.084188224057 0.00046498730483 -0.99978597753 0.018912237226 -0.0083860850751 -0.99907155991 -0.039943944229 -0.016139996766 
-0.9953177528 -0.093868387561 -0.023049875795 -0.98925529088 -0.14325314417 -0.029197707866 -0.98076358786 -0.1920001047 -0.035195802745 
-0.97031152257 -0.23839209635 -0.040801440782 -0.9573220621 -0.28526438583 -0.046461807795 -0.94120610262 -0.33374992857 -0.052364659521 
-0.92176640245 -0.38331603528 -0.05844241966 -0.89751658314 -0.43615814166 -0.065038899578 -0.86830193134 -0.49079116277 -0.071942967552 
-0.8324997199 -0.54831629284 -0.079331326555 -0.78960300817 -0.60741702606 -0.087015205272 -0.73827189318 -0.66778566875 -0.094957423919 
-0.67915731909 -0.72676323932 -0.10276443892 -0.61373589114 -0.78180312628 -0.11005511197 -0.54206435711 -0.83219092585 -0.11672401501 
-0.46967428158 -0.87434026449 -0.1222095377 -0.39888409736 -0.90823542134 -0.12649069645 -0.32983123872 -0.93508250152 -0.12973846509 
-0.27037926739 -0.95370125424 -0.13171548666 -0.21698922272 -0.96708824978 -0.13287586068 -0.16955856018 -0.97645102765 -0.13339147373 
-0.13303784294 -0.98211125636 -0.13326069368 -0.09960875754 -0.98611901179 -0.13284347939 -0.072873584222 -0.98855140664 -0.13211948056 
-0.04655099414 -0.99025323063 -0.13126897644 -0.024773923131 -0.9911718016 -0.13024865625 -7.5613556889e-05 -0.99162111456 -0.12918033687 
0.025578549961 -0.99144049062 -0.12802925973 0.056569091407 -0.99031343537 -0.12680393381 0.09453494619 -0.98758670637 -0.12544178469 
0.13845025752 -0.98259460379 -0.12385221349 0.19182870388 -0.9738307818 -0.12188255323 0.25310121564 -0.96004801368 -0.11936325256 
0.32183812605 -0.93965014584 -0.11609403103 0.39507977302 -0.91180084105 -0.11194283902 0.47230513381 -0.87495173678 -0.10671138125 
0.5446127858 -0.83261588317 -0.1007358161 0.61185554834 -0.78535552252 -0.094071734385 0.67033397804 -0.73692766465 -0.087120462353 
0.71893760388 -0.69043015232 -0.080217993609 0.75915488505 -0.64675145133 -0.073460334212 0.78984673333 -0.60960580208 -0.067252538415 
0.81349961594 -0.57830287044 -0.061515566374 0.83160710372 -0.55251229636 -0.056211986341 0.84451403337 -0.53305811441 -0.051430478297 
0.85348755253 -0.51898294627 -0.047071213809 0.85928163243 -0.50968555233 -0.043077998095 0.86244282033 -0.50461845218 -0.039403037697 
0.86396130923 -0.5022766746 -0.035902622617 0.86248352249 -0.50501749018 -0.03285586789 0.86036422358 -0.50880485097 -0.029850065365 
0.85662623109 -0.51522607514 -0.027084897993 0.85233611151 -0.52242556249 -0.024386157334 0.84684873086 -0.53138320559 -0.02188871532 
0.8410404266 -0.54062231709 -0.019455361299 0.83594045148 -0.54855895629 -0.016930240864 0.82962786472 -0.55812440057 -0.014654677466 
0.82486993325 -0.56519131988 -0.012180523746 0.82078397277 -0.57115688406 -0.0096687045453 0.81708500212 -0.57647258705 -0.0071732618635 
0.81514103253 -0.57924523184 -0.0044786695153 0.81434523323 -0.58037833466 -0.001682192853 0.81491373749 -0.57958090755 0.0012538142468 
0.81747468053 -0.57594744467 0.0044370792396 0.81956910885 -0.57293143458 0.007486460135 0.82366824539 -0.5669689272 0.010810047769 
0.82829670786 -0.5601102235 0.014181018352 0.83277388179 -0.55333669482 0.017497541741 0.83640557552 -0.54772184304 0.020651777337 
0.83984101051 -0.54231257289 0.023751849583 0.84275494646 -0.53763253202 0.02674622822 0.84376294605 -0.5359102398 0.029399077467 
0.84330852677 -0.53648907787 0.031783612348 0.84096974617 -0.54002373223 0.033826833288 0.83697744156 -0.54608026057 0.035568403655 
0.83045945399 -0.55585790288 0.03686579825 0.82072402728 -0.57008505799 0.037617784345 0.80777535195 -0.5882744411 0.037843925883 
0.79149140476 -0.61002586901 0.037547241333 0.77099812961 -0.63578358955 0.036621187889 0.74563019676 -0.66543987833 0.035005399787 
0.71481928193 -0.69854592858 0.032664657318 0.67907227821 -0.73346961306 0.029718137293 0.63727611901 -0.77019485988 0.02605812637 
0.59145207751 -0.80604013735 0.021994021845 0.53947036097 -0.84182721564 0.01728203241 0.48657189113 -0.87354969208 0.012598818184 
0.43323705556 -0.90124463437 0.0079851556414 0.38116374849 -0.92450044305 0.0036232071944 0.33571395749 -0.94196397468 9.5702439496e-05 
0.29640902527 -0.95505726794 -0.0027027198328 0.26575661073 -0.96402949238 -0.0045344992237 0.25041460021 -0.96812725067 -0.0047068571918 
0.24469791497 -0.9695916224 -0.0038750722311 0.25930350861 -0.96579548669 -0.00087653248047 0.28666023332 -0.95802602866 0.00346973098 
0.34361748063 -0.93904422884 0.011088881146 0.41715697975 -0.9086000242 0.020640985059 0.5139150565 -0.8572041245 0.033051530101 
0.62888320659 -0.77601583558 0.048013908474 0.74228650899 -0.66707490147 0.063417776716 0.84460222768 -0.52964021178 0.078283606615 
0.91985361524 -0.38167225184 0.090529656559 0.96490560557 -0.2430577315 0.099398749932 0.98677639119 -0.12309281505 0.10545384145 
0.99366442036 -0.025248342711 0.10951502589 0.99213738522 0.055047623145 0.1123973667 0.98695254104 0.11316732337 0.11453313341 
0.97967542506 0.16336981291 0.11638885584 0.97287561446 0.1989040006 0.1181111228 0.9666024751 0.22653424411 0.11984110884 
0.96059436493 0.24993389114 0.1216203771 0.95553218116 0.26778095736 0.12349740743 0.95155158618 0.28071472499 0.12549431069 
0.94719036118 0.29421330087 0.12754980704 0.94430771504 0.30240147856 0.12975471121 0.94116943794 0.31107685133 0.13202757916 
0.93766417067 0.32052121008 0.13435794331 0.93472413264 0.327991847 0.13679233956 0.93158001753 0.33579270057 0.1392908223 
0.92827373778 0.343781313 0.14185301045 0.92430846218 0.35325618908 0.14444352399 0.92032642661 0.36243789497 0.14709874499 
0.91623890814 0.37156869921 0.14980976261 0.91161045655 0.38170394747 0.15254006685 0.90689396554 0.39169215389 0.15530805468 
0.90218255023 0.40133037169 0.15811571338 0.89753490653 0.41051691441 0.16095637463 0.89301973766 0.41914123666 0.16381810608 
0.88852213268 0.42748993379 0.16667566185 0.88526223274 0.43305970734 0.16961741996 0.88206812715 0.43839559631 0.17252570882 
0.88050035023 0.4403558635 0.17551594434 0.87996734578 0.44021348066 0.17852048007 0.88040181128 0.43811680102 0.18151121001 
0.88282899147 0.4319165611 0.18455637638 0.88778995682 0.42024690202 0.1876740097 0.8939797795 0.40549071919 0.19072868292 
0.90250377441 0.38463073403 0.19376825235 0.91396054143 0.35491060747 0.19676023331 0.92646629766 0.31916284926 0.19948753084 
0.940391949 0.27373178987 0.20182638446 0.95477321883 0.21678907628 0.20349593857 0.96739641109 0.14989107671 0.20414908509 
0.97638590218 0.072794531168 0.20339991703 0.9795289506 -0.010730815838 0.20101712498 0.97549834454 -0.098188378939 0.19688073048 
0.96353912568 -0.18741694048 0.19096398537 0.94529675034 -0.26927898919 0.18412734664 0.9232094182 -0.3410847071 0.17704686592 
0.89917555289 -0.4031675249 0.17011546655 0.87785001399 -0.44974634675 0.16464378678 0.85762757461 -0.48878968531 0.15987365889 
0.8425181895 -0.51529823238 0.15694212969 0.83301893754 -0.53082784704 0.15588857082 0.82718357463 -0.5398217519 0.15607629557 
0.82521825962 -0.54239478855 0.1575522686 0.82664206957 -0.53945076959 0.16017414277 0.83122555006 -0.53122705286 0.1638960135 
0.83661914786 -0.5213767009 0.16803195287 0.84461280991 -0.50660402715 0.17315184379 0.85256298517 -0.49120557474 0.17847531948 
0.86004524775 -0.47592786578 0.18388811381 0.86800521135 -0.45888866545 0.18970541845 0.87623884448 -0.44026138024 0.19589641264 
0.88204423642 -0.42585474958 0.20160778074 0.88810113915 -0.41003624132 0.20771771093 0.89225627191 -0.39784790504 0.21353170654 
0.89638523879 -0.38500684991 0.21968893739 0.89874453973 -0.37596748549 0.22562513637 0.90032161215 -0.36844063159 0.231673252 
0.90140910789 -0.36171823535 0.23795280714 0.90111674842 -0.35828416099 0.24417425275 0.89991146201 -0.35694486778 0.25049894594 
0.89801255428 -0.35710268754 0.25700413014 0.89485765705 -0.36027822987 0.26349453637 0.89157096747 -0.36333177665 0.27035389776 
0.88684443361 -0.36974349948 0.2771221665 0.88132189055 -0.3776608074 0.28397894252 0.87547592784 -0.38577796013 0.29106230474 
0.8685041641 -0.39605703683 0.29805929027 0.8612447751 -0.40633775264 0.30520004611 0.85260812124 -0.41915139607 0.31204406544 
0.84362393196 -0.43200489951 0.31885800637 0.83448467024 -0.44451474759 0.32564086707 0.82492368843 -0.45731752639 0.3322071467 
0.81431152494 -0.47169435376 0.33823243042 0.80379722585 -0.48534697896 0.34401792066 0.79315066565 -0.49883292779 0.34939623887 
0.78243459148 -0.51212632623 0.35429187972 0.77237219503 -0.52407422107 0.35886961861 0.76217671011 -0.53617255249 0.36277493922 
0.75247656456 -0.5474488934 0.36616762404 0.74287064992 -0.55866226904 0.368835555 0.73527143363 -0.56694099558 0.37142135968 
0.72716728625 -0.5762871624 0.37298906722 0.72180173328 -0.5818957276 0.37469937288 0.71179671728 -0.59466081839 0.37379666177 
0.71211256761 -0.59299450899 0.37583667113 0.71211256761 -0.59299450899 0.37583667113 
BinormalArray 3 338 double
-0.63018494811 -0.7416243603 -0.22991354763 -0.63018494811 -0.7416243603 -0.22991354763 -0.62727509456 -0.74453094676 -0.22847237266 
-0.62658645159 -0.74521441228 -0.22813351008 -0.62510657879 -0.74667606699 -0.22741287595 -0.62299176448 -0.74874906638 -0.22639809403 
-0.6205061535 -0.75116228467 -0.22522729757 -0.61652237082 -0.75498100195 -0.22339170302 -0.61216174422 -0.75909541283 -0.22143205082 
-0.6060411612 -0.76476144953 -0.21875565419 -0.59877505682 -0.77133328825 -0.21566963108 -0.59046101042 -0.77865808496 -0.21224368519 
-0.58071946834 -0.78699098288 -0.2083508866 -0.56838390153 -0.79718182781 -0.20357031681 -0.55486062223 -0.80791923086 -0.19848477601 
-0.53866434359 -0.82021841019 -0.19256812958 -0.52012078401 -0.83359850467 -0.18597823276 -0.4990768484 -0.8479339382 -0.17869061486 
-0.47465084585 -0.86351586244 -0.17043159871 -0.44827298843 -0.8791487579 -0.16170587291 -0.41818391986 -0.89556349585 -0.15194812953 
-0.38580442703 -0.91164403537 -0.14163367134 -0.35167437363 -0.92692022607 -0.13093521086 -0.31529460216 -0.94141506644 -0.11969539058 
-0.27901552725 -0.95412220764 -0.1086330909 -0.24333911373 -0.964989356 -0.097885742206 -0.20963688436 -0.97382498065 -0.087848072142 
-0.17791380811 -0.98090982535 -0.078502174533 -0.15033453601 -0.98612090634 -0.070463361785 -0.1270788786 -0.98984140965 -0.063756900464 
-0.10784745541 -0.99245829033 -0.058270647061 -0.092978787796 -0.99419855541 -0.054075664028 -0.08272173567 -0.99525583107 -0.051214696709 
-0.075720424296 -0.99591035588 -0.049284687318 -0.072250020041 -0.99621444646 -0.048339541488 -0.07207403533 -0.99622948967 -0.048292207925 
-0.074175318941 -0.99604803132 -0.048850193174 -0.078767444628 -0.99563562932 -0.050053804062 -0.085434013563 -0.994997518 -0.051778069605 
-0.094282797139 -0.99407789303 -0.054036069025 -0.10533993271 -0.9928116997 -0.056819253003 -0.11879813538 -0.99109422292 -0.060160155678 
-0.1344902861 -0.98884589097 -0.06400130353 -0.1530231367 -0.98584749194 -0.068473661209 -0.17464737793 -0.98187517486 -0.073616807642 
-0.19972017122 -0.97662319522 -0.079492061002 -0.22825039295 -0.96979004187 -0.086075738743 -0.26027670964 -0.9610108768 -0.093349499734 
-0.29621497437 -0.94972598862 -0.10137670097 -0.33564940712 -0.93553875772 -0.11003048805 -0.37744360585 -0.9183506444 -0.11903116543 
-0.4210017772 -0.89795096246 -0.12822469578 -0.46574756759 -0.87417528507 -0.13746553846 -0.50897525504 -0.8482770049 -0.1461858841 
-0.55075213749 -0.82026319714 -0.15440327218 -0.58943929698 -0.79144133536 -0.16180830593 -0.62306834139 -0.76389853654 -0.16806209516 
-0.65246975804 -0.73771754158 -0.17336678944 -0.67758062295 -0.7136436752 -0.17775602451 -0.69722239235 -0.6936072314 -0.18107993859 
-0.71207697825 -0.67769380355 -0.18351426559 -0.72304810877 -0.66549346753 -0.1852562471 -0.73015696578 -0.65737670089 -0.18635095507 
-0.73262238708 -0.65452277429 -0.18672004685 -0.73222207559 -0.65498722875 -0.18666162486 -0.7277133062 -0.66017466802 -0.18601814878 
-0.72045357495 -0.66837200241 -0.18500138575 -0.70879350409 -0.68116002949 -0.18339242835 -0.69461995686 -0.69611494311 -0.18145826384 
-0.67648217553 -0.71437380717 -0.17900259723 -0.65549148613 -0.73436604603 -0.17617440804 -0.63095723029 -0.75631110745 -0.17287707276 
-0.60368643566 -0.77905654975 -0.16921459657 -0.57406775894 -0.80196197411 -0.16523680047 -0.54228318483 -0.82463229738 -0.16096745499 
-0.50915873759 -0.84632082262 -0.15651979152 -0.47542614683 -0.86652554102 -0.15199824232 -0.44214647874 -0.88472263969 -0.1475545396 
-0.40951504022 -0.90099052754 -0.14322535079 -0.37815339811 -0.9152323753 -0.13910322319 -0.34875482385 -0.92739810175 -0.13528796589 
-0.32176513129 -0.9375951222 -0.13184303969 -0.29725953888 -0.94607220319 -0.12877947389 -0.2754378846 -0.95300990539 -0.12611935602 
-0.25660020573 -0.95854439188 -0.12389101341 -0.24040671708 -0.96296959409 -0.12204167831 -0.22712647816 -0.9663708966 -0.12058545982 
-0.21657416657 -0.96892719947 -0.11948101316 -0.20882880386 -0.97072032338 -0.11871219169 -0.20369190864 -0.97186974837 -0.11823196931 
-0.20134319929 -0.97238397486 -0.11802678317 -0.20169871117 -0.97230680174 -0.11805555131 -0.20486055041 -0.97161700045 -0.11829014888 
-0.21086194288 -0.97028299202 -0.11869354003 -0.21988608052 -0.9682113073 -0.1192349614 -0.23204571588 -0.96529012188 -0.11987396022 
-0.24771864225 -0.96129943986 -0.12057720019 -0.26715822882 -0.95598848849 -0.12129505615 -0.29028079133 -0.94913807892 -0.12195888377 
-0.31804145237 -0.94012713086 -0.12251780439 -0.35027878175 -0.92855067046 -0.1228756585 -0.38752320804 -0.91362666621 -0.12293119218 
-0.42970825365 -0.89461202016 -0.12255672209 -0.47638831618 -0.87078362787 -0.12161433157 -0.52837378674 -0.84050171517 -0.11990833283 
-0.58312444157 -0.80386547916 -0.11732935294 -0.64075182362 -0.75928697417 -0.11366789952 -0.69831251973 -0.70746020915 -0.10890214536 
-0.75391498085 -0.64884272264 -0.10303068924 -0.80545634038 -0.58479983021 -0.096172981297 -0.85068318429 -0.51815051182 -0.088646303226 
-0.88875702518 -0.45120935152 -0.080753150388 -0.9193612548 -0.38660882712 -0.07285943978 -0.94316004306 -0.3258778707 -0.065213085783 
-0.96025728896 -0.2729431097 -0.058378059739 -0.97241000579 -0.22732603691 -0.052360802027 -0.98047626269 -0.19082468473 -0.047457749662 
-0.98548077707 -0.16403908713 -0.043804291036 -0.98852518647 -0.14532375939 -0.041218450512 -0.98939206974 -0.13953614106 -0.040410365951 
-0.9887545545 -0.14381379516 -0.041012477038 -0.98638869025 -0.15867660487 -0.043117128986 -0.98063769098 -0.1899669034 -0.047563585167 
-0.97024945973 -0.2359838302 -0.054107465048 -0.95364561228 -0.2943917735 -0.062398155948 -0.92459665714 -0.37376869751 -0.07360694513 
-0.88220681655 -0.46292617448 -0.086084201824 -0.82083476394 -0.56237558179 -0.099819814261 -0.74226886306 -0.66048456941 -0.1131241287 
-0.64659117604 -0.75247704913 -0.12529222483 -0.54068521684 -0.8302834893 -0.13523617743 -0.43521765749 -0.8889937293 -0.1423929067 
-0.33366960206 -0.9311279351 -0.1471915933 -0.24030728674 -0.95903046441 -0.150043248 -0.1571888669 -0.9758868522 -0.15144804992 
-0.083282160436 -0.98488685401 -0.15186166916 -0.01742315178 -0.98828848473 -0.15159915808 0.041925169232 -0.9876641727 -0.15087001741 
0.096271847888 -0.98401792401 -0.14980139027 0.14601673934 -0.97807436318 -0.14849125202 0.19510931485 -0.96971995401 -0.14688623508 
0.24181548723 -0.95941695664 -0.14506678963 0.2890055025 -0.94659742339 -0.14293053401 0.33782767631 -0.93067894604 -0.14038931767 
0.38774521014 -0.91146543149 -0.13742059241 0.44098024115 -0.88748627571 -0.13380783739 0.49603275273 -0.85858689921 -0.12953781191 
0.55401788698 -0.82316067735 -0.12438118896 0.6136055952 -0.78070486021 -0.11827127622 0.67448594256 -0.72989247522 -0.11102111473 
0.73397088619 -0.67136762729 -0.10272413179 0.78948539987 -0.60659239943 -0.09358666755 0.84030728567 -0.53562312647 -0.083615381596 
0.88280675743 -0.46393790452 -0.073578867803 0.91696533234 -0.39383293593 -0.063798102379 0.9440012414 -0.32544440838 -0.054291742271 
0.96271280497 -0.26656159845 -0.046140756112 0.97613079293 -0.21367939997 -0.038856004914 0.98547509444 -0.16669683372 -0.032419189862 
0.99106438012 -0.13052007706 -0.027493707119 0.99497883853 -0.097403101616 -0.023016226226 0.99729234697 -0.070916825539 -0.019462233639 
0.99886636559 -0.044836139739 -0.015990755492 0.99964308824 -0.023258571404 -0.013142868071 0.99994985132 0.0012186933157 -0.009940303765 
0.99962282769 0.026647388893 -0.0066422150605 0.99834920065 0.057372729092 -0.0026913775083 0.99547295129 0.095021848233 0.0021098851074 
0.99032213102 0.13857848552 0.0076210344788 0.98138296418 0.19153014345 0.014271711976 0.96739666522 0.25232132243 0.02185503085 
0.94675444376 0.32052677334 0.03030859265 0.91861004904 0.39321007004 0.039260904376 0.88140251726 0.46985494259 0.048640882915 
0.83866003496 0.54162630294 0.057361082004 0.79094774703 0.60837863615 0.065399514787 0.74204419457 0.66643935395 0.07231183028 
0.69506581433 0.71470543614 0.077972131575 0.65090683413 0.75465442546 0.082565073823 0.61330415556 0.78515286957 0.085982464369 
0.58156363654 0.80866906597 0.088532922664 0.55535348661 0.82668531137 0.090409628185 0.53550313573 0.83954166597 0.091685237285 
0.52105060413 0.84849605226 0.092524144076 0.51139258377 0.85429650733 0.093032805094 0.50598001103 0.85748515069 0.093292254685 
0.50330154433 0.85904731289 0.09340915211 0.50573037783 0.85763021486 0.093312375913 0.50921009917 0.85558255201 0.093185683462 
0.51533954075 0.85192689419 0.09298238914 0.52225530705 0.84772776415 0.092774091999 0.53094498542 0.84233855329 0.092537473957 
0.53992582413 0.83663466989 0.092317569179 0.54760704847 0.83164578679 0.09215099443 0.55693636188 0.8254469285 0.091974219479 
0.56376598877 0.82080996483 0.091863548447 0.56950065821 0.81685007997 0.091787510874 0.57459419996 0.81328110458 0.091735218463 
0.57714435426 0.81147543153 0.091717055997 0.57805873515 0.81082471107 0.09171361201 0.57704494807 0.8115464836 0.09171386408 
0.57319374791 0.81427266013 0.091700394343 0.56997203149 0.81653366724 0.091676897733 0.56380184517 0.82081388015 0.091608152151 
0.55674115709 0.82563115178 0.091501285316 0.54977405509 0.83030133451 0.091368387625 0.54397622649 0.83412581988 0.091235857129 
0.53839120167 0.83775766843 0.091087885907 0.53354331893 0.84086919945 0.090942378674 0.53166513185 0.84206474897 0.090879844415 
0.53209728575 0.84179004699 0.090895518583 0.53549464021 0.83961861246 0.091027885342 0.5414216479 0.83578216539 0.091273058435 
0.55107855518 0.82940031423 0.091692664822 0.5651939416 0.81977500561 0.092329564863 0.58327970695 0.80691047854 0.093167929464 
0.60493549832 0.79068415944 0.094189186625 0.63060673198 0.77021581648 0.095408310059 0.66018696874 0.74483674178 0.096805962622 
0.69322909564 0.7139769559 0.098337822858 0.72810185993 0.67815026695 0.099899434431 0.76479238024 0.63623853607 0.10145511491 
0.80061827135 0.59028026104 0.10285716805 0.8364061815 0.5381334968 0.10410110076 0.86814272764 0.48507492985 0.10502626755 
0.8958636883 0.43158643466 0.10564753382 0.91915347884 0.37937458692 0.10598021105 0.9366464742 0.33382958838 0.10607161869 
0.94976312389 0.29446592803 0.10601804434 0.95874561825 0.2638018562 0.10590288071 0.96282575567 0.2485287957 0.10583006151 
0.96425665402 0.24292865562 0.1058053565 0.96039504941 0.25775750239 0.1058414807 0.95254909927 0.28540462274 0.10580366155 
0.93347272821 0.34282292734 0.10536178705 0.90295845265 0.41693141272 0.10408760671 0.85155206705 0.51442547681 0.10112124359 
0.77047623771 0.63029457621 0.095368308817 0.66181268122 0.74465789146 0.086536695415 0.52484943327 0.8479454797 0.07430703775 
0.37748948383 0.92405432474 0.0602104187 0.23951684719 0.96978714292 0.046309581574 0.12015644096 0.99217994893 0.033784295677 
0.022836326015 0.99946944906 0.02322332032 -0.057008328817 0.99827124102 0.01430313951 -0.11479313401 0.99335973727 0.0076791114062 
-0.16469790522 0.98634237702 0.0018207989457 -0.2000233794 0.9797881342 -0.0024206990958 -0.22749431114 0.97376219407 -0.0057903198684 
-0.25076118511 0.96800984185 -0.008704833039 -0.26851492447 0.96321299494 -0.010975505461 -0.28139305435 0.95950912406 -0.012656610993 
-0.29483042612 0.95544036998 -0.014447118911 -0.30300316069 0.95286253513 -0.015558719542 -0.31165958709 0.95004599364 -0.016760421785 
-0.32107842089 0.94687971433 -0.018095696723 -0.32854352207 0.9442941334 -0.019176645653 -0.33633678402 0.94152232261 -0.020329381059 
-0.34431702788 0.93860641474 -0.021535610638 -0.35376798437 0.93505047783 -0.022996024334 -0.36292963701 0.93149587944 -0.02444391883 
-0.37204157545 0.92785418069 -0.025916896426 -0.38214558267 0.92369023339 -0.027588156546 -0.39210407171 0.91945496527 -0.02927394374 
-0.40171697605 0.9152410767 -0.030939338465 -0.41088414257 0.91110579442 -0.032564593633 -0.41949664902 0.90711516587 -0.034126783016 
-0.42783663197 0.90315180436 -0.035674004846 -0.43344194947 0.9004323879 -0.036736783501 -0.43881664616 0.89778216719 -0.037777391825 
-0.44087435398 0.89675626837 -0.038183755016 -0.44086782339 0.89675953491 -0.038182441509 -0.43894378562 0.89771952964 -0.037788876126 
-0.4329958852 0.90065441895 -0.036553810063 -0.42168798175 0.90609670343 -0.034176162458 -0.40735715985 0.91273815308 -0.031132109201 
-0.3870484577 0.92167026297 -0.026784655201 -0.35806263352 0.93347135779 -0.020551755758 -0.32317108953 0.94625073438 -0.013038196718 
-0.27878970298 0.96034581244 -0.0034960046683 -0.22311899288 0.97475491906 0.0084120622965 -0.1576703763 0.98724011052 0.022293869359 
-0.082189880337 0.99588733434 0.038121396395 -0.00035733576731 0.99848392585 0.055042911674 0.085389685266 0.99370670414 0.072495432981 
0.17293801241 0.98081146939 0.090007251765 0.25331003618 0.96158219749 0.10580029793 0.32384499471 0.9385414178 0.11943377439 
0.38485257427 0.91362636177 0.13105482503 0.43062368123 0.89165785755 0.13967644839 0.46898611887 0.87091181756 0.14684899162 
0.49500731417 0.85554409371 0.15169727299 0.51021274467 0.84605062678 0.15453573084 0.5189769094 0.84039875233 0.15618228004 
0.5214157225 0.83880150288 0.15664508639 0.51842371266 0.84076102505 0.15606970532 0.5102408251 0.84604560217 0.15447051319 
0.50046283878 0.85221656839 0.15252497355 0.48585925301 0.86114573353 0.149562067 0.47065184224 0.87008639604 0.14641211299 
0.45557354238 0.87860118621 0.14322256482 0.43878353829 0.88768385821 0.13959360447 0.42045604292 0.89713142374 0.13554307255 
0.40626579899 0.90412129576 0.13233587237 0.39071257135 0.9114656305 0.12874040159 0.37871110852 0.91691150658 0.1259014908 
0.3660886423 0.92243599892 0.12284516217 0.35717434324 0.9262147859 0.12063440182 0.34973995216 0.92929088415 0.11874518309 
0.34309755016 0.93198268726 0.11701427998 0.33964724341 0.9333608522 0.11609164322 0.33822897161 0.93392406939 0.11570218398 
0.33826222804 0.93391086179 0.11571156946 0.34120426963 0.93273368039 0.11656555175 0.34403585442 0.93158673592 0.1174116022 
0.35008668315 0.92909256396 0.11927414586 0.35757643573 0.92592665644 0.12165080973 0.36525796362 0.92258855939 0.12416509211 
0.37499074889 0.91822528053 0.12745302054 0.38472283484 0.91371072979 0.13084740203 0.39683625857 0.90787610872 0.13521078026 
0.40897620801 0.90178423686 0.1397270605 0.42078315103 0.89561698292 0.14426281472 0.43284927127 0.88905920337 0.1490477818 
0.44635480837 0.88140478504 0.15457357457 0.4591642812 0.87382813126 0.15997674798 0.47179029072 0.86604639864 0.16546164805 
0.48420460698 0.85808031843 0.17100896379 0.495353608 0.8506495047 0.17612558928 0.50659687897 0.84288069429 0.18141592383 
0.51704991745 0.83540167571 0.18644951886 0.52739486404 0.82774877747 0.19153751273 0.53505485249 0.82191514238 0.19537605675 
0.54361793472 0.81522049116 0.19973755741 0.5487955629 0.81108150958 0.20241100504 0.56028297196 0.80165278785 0.20841256937 
0.55890342118 0.80280356182 0.20768583709 0.55890342118 0.80280356182 0.20768583709 
