# vtk DataFile Version 4.1
vtk output
ASCII
DATASET POLYDATA
POINTS 345 float
2.29899 0.164286 191.375 2.33213 0.152812 189.981 2.36542 0.141408 188.587 
2.39925 0.130287 187.193 2.43404 0.119657 185.797 2.47015 0.109721 184.399 
2.50795 0.100669 182.999 2.54776 0.0926774 181.595 2.58982 0.085904 180.189 
2.63434 0.0804853 178.778 2.68146 0.0765342 177.365 2.73126 0.0741377 175.947 
2.78373 0.073356 174.526 2.83879 0.0742221 173.101 2.89631 0.0767415 171.674 
2.95606 0.0808935 170.244 3.01779 0.0866326 168.812 3.08116 0.0938903 167.379 
3.1458 0.102578 165.946 3.2113 0.112589 164.512 3.27723 0.123804 163.079 
3.34312 0.136092 161.648 3.40853 0.149316 160.219 3.47298 0.163335 158.794 
3.53604 0.178009 157.371 3.59727 0.193201 155.953 3.65629 0.208782 154.54 
3.71274 0.224632 153.131 3.76628 0.240643 151.728 3.81663 0.256722 150.331 
3.86358 0.27279 148.939 3.90692 0.288788 147.553 3.94652 0.304674 146.174 
3.98229 0.320423 144.801 4.01418 0.336028 143.434 4.04217 0.351501 142.074 
4.06631 0.366872 140.721 4.08664 0.382182 139.375 4.10327 0.397492 138.035 
4.11631 0.412871 136.703 4.12589 0.428402 135.378 4.13216 0.444173 134.061 
4.13527 0.460284 132.751 4.13539 0.476834 131.449 4.13266 0.493929 130.153 
4.12724 0.511675 128.865 4.11926 0.530177 127.584 4.10885 0.549537 126.309 
4.09612 0.569856 125.04 4.08115 0.591228 123.776 4.06402 0.613745 122.516 
4.04477 0.63749 121.259 4.02343 0.662545 120.004 4.00001 0.688981 118.75 
3.97451 0.716869 117.496 3.94689 0.746271 116.241 3.91712 0.777247 114.983 
3.88515 0.809854 113.721 3.85093 0.844143 112.454 3.81437 0.880165 111.181 
3.77543 0.91797 109.901 3.73402 0.957605 108.613 3.69008 0.999117 107.316 
3.64354 1.04255 106.011 3.59433 1.08796 104.696 3.54239 1.13538 103.371 
3.48767 1.18486 102.036 3.4301 1.23644 100.691 3.36965 1.29017 99.3366 
3.30627 1.34609 97.972 3.23993 1.40424 96.5978 3.17057 1.46465 95.2143 
3.09819 1.52736 93.8219 3.02274 1.59238 92.421 2.94421 1.65975 91.012 
2.86258 1.72948 89.5955 2.77783 1.80158 88.1721 2.68995 1.87607 86.7423 
2.59892 1.95294 85.3069 2.50476 2.03219 83.8665 2.40745 2.11383 82.4218 
2.307 2.19785 80.9735 2.20342 2.28424 79.5224 2.0967 2.373 78.0692 
1.98687 2.46414 76.6147 1.87391 2.55767 75.1594 1.75783 2.6536 73.7041 
1.63863 2.75196 72.2492 1.51629 2.85279 70.7951 1.39078 2.95615 69.3422 
1.26207 3.0621 67.8906 1.13011 3.17074 66.4403 0.994813 3.28216 64.9911 
0.856099 3.39647 63.5426 0.713854 3.51383 62.0944 0.567945 3.63437 60.6457 
0.41822 3.75825 59.1958 0.26451 3.88565 57.7436 0.106626 4.01675 56.2882 
-0.0556327 4.15173 54.8283 -0.222477 4.29076 53.3628 -0.394125 4.43402 51.8906 
-0.570793 4.58169 50.4105 -0.752696 4.73391 48.9216 -0.940037 4.89082 47.4228 
-1.13301 5.05253 45.9136 -1.33177 5.21912 44.3932 -1.53647 5.39065 42.8614 
-1.74721 5.56713 41.318 -1.96408 5.74856 39.7632 -2.18711 5.93487 38.1973 
-2.4163 6.12598 36.6211 -2.65159 6.32176 35.0354 -2.89291 6.52203 33.4412 
-3.14011 6.7266 31.84 -3.39302 6.93523 30.2332 -3.65143 7.14766 28.6224 
-3.91507 7.36358 27.0094 -4.18366 7.58269 25.396 -4.45687 7.80466 23.7841 
-4.73436 8.02913 22.1756 -5.01575 8.25576 20.5723 -5.30066 8.48418 18.9761 
-5.58868 8.71403 17.3887 -5.8794 8.94496 15.8117 -6.1724 9.17663 14.2466 
-6.46727 9.40868 12.6948 -6.7636 9.64081 11.1576 -7.06099 9.8727 9.63601 
-7.35905 10.1041 8.13105 -7.65741 10.3346 6.64348 -7.95572 10.5641 5.17396 
-8.25365 10.7924 3.723 -8.55091 11.0191 2.29095 -8.84721 11.2442 0.878051 
-9.14231 11.4675 -0.515614 -9.43601 11.6888 -1.89008 -9.72814 11.908 -3.24552 
-10.0185 12.125 -4.58221 -10.3071 12.3398 -5.90059 -10.5938 12.5524 -7.20119 
-10.8786 12.7627 -8.48466 -11.1616 12.9707 -9.7518 -11.4426 13.1764 -11.0035 
-11.7219 13.38 -12.2407 -11.9996 13.5814 -13.4646 -12.2758 13.7809 -14.6764 
-12.5507 13.9784 -15.8773 -12.8245 14.1741 -17.0687 -13.0974 14.3683 -18.2519 
-13.3697 14.5609 -19.4285 -13.6415 14.7521 -20.5999 -13.9132 14.9423 -21.7675 
-14.1851 15.1313 -22.9327 -14.4572 15.3196 -24.0971 -14.73 15.5071 -25.2619 
-15.0036 15.6941 -26.4284 -15.2782 15.8806 -27.5978 -15.5539 16.0668 -28.7711 
-15.8311 16.2527 -29.9492 -16.1097 16.4386 -31.1331 -16.3899 16.6243 -32.3234 
-16.6717 16.81 -33.5207 -16.9552 16.9957 -34.7254 -17.2404 17.1814 -35.9377 
-17.5273 17.367 -37.1579 -17.8158 17.5526 -38.386 -18.106 17.7381 -39.6219 
-18.3976 17.9233 -40.8655 -18.6906 18.1084 -42.1165 -18.985 18.2931 -43.3746 
-19.2804 18.4773 -44.6393 -19.5768 18.661 -45.9101 -19.8741 18.8441 -47.1866 
-20.172 19.0264 -48.4681 -20.4703 19.2078 -49.7539 -20.7689 19.3881 -51.0434 
-21.0676 19.5673 -52.3357 -21.3661 19.7452 -53.6302 -21.6641 19.9217 -54.926 
-21.9616 20.0967 -56.2221 -22.2582 20.27 -57.5178 -22.5536 20.4414 -58.8119 
-22.8477 20.6108 -60.1035 -23.1401 20.7782 -61.3916 -23.4306 20.9433 -62.6751 
-23.7188 21.106 -63.9529 -24.0047 21.2662 -65.224 -24.2877 21.4238 -66.4872 
-24.5678 21.5785 -67.7417 -24.8447 21.7304 -68.9862 -25.1181 21.8793 -70.22 
-25.3879 22.0251 -71.4421 -25.6537 22.1676 -72.6519 -25.9156 22.307 -73.8486 
-26.1734 22.443 -75.0319 -26.4269 22.5756 -76.2014 -26.6762 22.7049 -77.3569 
-26.9212 22.8309 -78.4987 -27.162 22.9535 -79.6269 -27.3986 23.0729 -80.742 
-27.6312 23.189 -81.8447 -27.86 23.3021 -82.9358 -28.0851 23.4122 -84.0162 
-28.3068 23.5194 -85.0873 -28.5253 23.6238 -86.1501 -28.741 23.7257 -87.206 
-28.954 23.8252 -88.2565 -29.1646 23.9223 -89.3028 -29.3733 24.0173 -90.3462 
-29.5801 24.1103 -91.3881 -29.7854 24.2013 -92.4295 -29.9894 24.2906 -93.4715 
-30.1922 24.3781 -94.5149 -30.394 24.464 -95.5604 -30.5949 24.5482 -96.6085 
-30.7951 24.6309 -97.6595 -30.9944 24.7119 -98.7135 -31.193 24.7914 -99.7704 
-31.3907 24.8692 -100.83 -31.5876 24.9453 -101.892 -31.7835 25.0196 -102.957 
-31.9784 25.0921 -104.023 -32.1721 25.1626 -105.091 -32.3646 25.2311 -106.159 
-32.5557 25.2975 -107.228 -32.7454 25.3616 -108.297 -32.9336 25.4234 -109.366 
-33.1203 25.4827 -110.436 -33.3054 25.5395 -111.505 -33.489 25.5936 -112.575 
-33.671 25.645 -113.646 -33.8516 25.6936 -114.718 -34.0307 25.7392 -115.792 
-34.2085 25.7819 -116.869 -34.3851 25.8215 -117.949 -34.5606 25.8579 -119.034 
-34.7351 25.8911 -120.124 -34.9087 25.9211 -121.22 -35.0814 25.9477 -122.323 
-35.2533 25.9709 -123.434 -35.4246 25.9907 -124.554 -35.595 26.0071 -125.682 
-35.7648 26.0199 -126.819 -35.9337 26.0293 -127.966 -36.1017 26.0352 -129.121 
-36.2686 26.0375 -130.286 -36.4343 26.0365 -131.46 -36.5985 26.032 -132.641 
-36.7611 26.0241 -133.83 -36.9216 26.013 -135.026 -37.0799 25.9987 -136.227 
-37.2357 25.9814 -137.433 -37.3885 25.9612 -138.643 -37.5382 25.9382 -139.855 
-37.6843 25.9126 -141.068 -37.8267 25.8847 -142.283 -37.965 25.8545 -143.497 
-38.099 25.8223 -144.71 -38.2285 25.7882 -145.921 -38.3533 25.7526 -147.13 
-38.4734 25.7155 -148.337 -38.5885 25.6771 -149.541 -38.6988 25.6377 -150.743 
-38.8043 25.5974 -151.942 -38.9051 25.5563 -153.139 -39.0012 25.5145 -154.334 
-39.093 25.4722 -155.527 -39.1806 25.4293 -156.719 -39.2645 25.386 -157.911 
-39.3448 25.3422 -159.102 -39.4219 25.298 -160.294 -39.4963 25.2532 -161.487 
-39.5684 25.208 -162.68 -39.6385 25.1621 -163.874 -39.7072 25.1155 -165.069 
-39.7747 25.0681 -166.265 -39.8416 25.0198 -167.462 -39.9082 24.9706 -168.659 
-39.9749 24.9202 -169.855 -40.042 24.8686 -171.05 -40.1098 24.8158 -172.243 
-40.1785 24.7617 -173.433 -40.2485 24.7061 -174.618 -40.3199 24.6493 -175.799 
-40.3927 24.591 -176.973 -40.4671 24.5314 -178.14 -40.5432 24.4705 -179.298 
-40.6208 24.4084 -180.447 -40.7001 24.3452 -181.585 -40.7809 24.281 -182.711 
-40.8631 24.2161 -183.825 -40.9466 24.1506 -184.925 -41.0313 24.0846 -186.012 
-41.1169 24.0184 -187.084 -41.2034 23.9521 -188.141 -41.2905 23.8859 -189.182 
-41.3782 23.8201 -190.209 -41.4661 23.7548 -191.22 -41.5543 23.6903 -192.215 
-41.6425 23.6265 -193.195 -41.7306 23.5638 -194.159 -41.8185 23.5021 -195.108 
-41.906 23.4417 -196.041 -41.9932 23.3826 -196.96 -42.0798 23.3249 -197.864 
-42.166 23.2686 -198.753 -42.2514 23.2138 -199.628 -42.3363 23.1605 -200.489 
-42.4204 23.1087 -201.335 -42.5038 23.0585 -202.168 -42.5864 23.0099 -202.986 
-42.6682 22.9629 -203.792 -42.7491 22.9175 -204.583 -42.829 22.8737 -205.361 
-42.908 22.8316 -206.126 -42.9859 22.7912 -206.878 -43.0627 22.7526 -207.617 
-43.1382 22.7158 -208.344 -43.2125 22.6809 -209.058 -43.2855 22.6479 -209.76 
-43.357 22.6168 -210.45 -43.427 22.5879 -211.129 -43.4954 22.561 -211.797 
-43.562 22.5363 -212.454 -43.6269 22.5139 -213.101 -43.69 22.4937 -213.739 
-43.7512 22.4758 -214.368 -43.8105 22.4603 -214.988 -43.8678 22.4471 -215.6 
-43.9231 22.4362 -216.205 -43.9764 22.4275 -216.803 -44.0277 22.4212 -217.395 
-44.0771 22.417 -217.981 -44.1247 22.4149 -218.561 -44.1703 22.4148 -219.137 
-44.2143 22.4166 -219.709 -44.2566 22.4201 -220.276 -44.2975 22.4252 -220.841 
-44.337 22.4316 -221.402 -44.3753 22.4394 -221.961 -44.4126 22.4481 -222.517 
-44.4491 22.4577 -223.073 -44.4851 22.4678 -223.627 -44.5206 22.4784 -224.18 

LINES 1 346
345 344 343 342 341 340 339 338 337 336 335 334 333 332 331 330 329 328 327 326 325 324 323 322 321 320 319 318 317 316 315 314 313 312 311 310 309 308 307 306 305 304 303 302 301 300 299 298 297 296 295 294 293 292 291 290 289 288 287 286 285 284 283 282 281 280 279 278 277 276 275 274 273 272 271 270 269 268 267 266 265 264 263 262 261 260 259 258 257 256 255 254 253 252 251 250 249 248 247 246 245 244 243 242 241 240 239 238 237 236 235 234 233 232 231 230 229 228 227 226 225 224 223 222 221 220 219 218 217 216 215 214 213 212 211 210 209 208 207 206 205 204 203 202 201 200 199 198 197 196 195 194 193 192 191 190 189 188 187 186 185 184 183 182 181 180 179 178 177 176 175 174 173 172 171 170 169 168 167 166 165 164 163 162 161 160 159 158 157 156 155 154 153 152 151 150 149 148 147 146 145 144 143 142 141 140 139 138 137 136 135 134 133 132 131 130 129 128 127 126 125 124 123 122 121 120 119 118 117 116 115 114 113 112 111 110 109 108 107 106 105 104 103 102 101 100 99 98 97 96 95 94 93 92 91 90 89 88 87 86 85 84 83 82 81 80 79 78 77 76 75 74 73 72 71 70 69 68 67 66 65 64 63 62 61 60 59 58 57 56 55 54 53 52 51 50 49 48 47 46 45 44 43 42 41 40 39 38 37 36 35 34 33 32 31 30 29 28 27 26 25 24 23 22 21 20 19 18 17 16 15 14 13 12 11 10 9 8 7 6 5 4 3 2 1 0 

CELL_DATA 1
FIELD FieldData 2
LengthArray 1 1 double
421.35679551 
TortuosityArray 1 1 double
0.0061567647181 
POINT_DATA 345
FIELD FieldData 8
RadiusArray 1 345 double
64.550927336 64.490078877 64.454091409 64.176436786 64.086515409 63.960409473 63.813155613 63.684088913 63.54344406 
63.368901156 63.299711287 63.243537502 62.917012479 62.897323836 62.861180424 62.67897174 62.446626382 62.225985877 
61.989180572 61.623756878 61.494083068 61.441459959 61.09043908 61.078272663 61.06208282 60.841646911 60.728821168 
60.566909321 60.526515837 60.44636077 60.406758641 60.352479512 59.987314092 59.85437401 59.83599834 59.676351033 
59.232903729 59.214275476 59.062482471 58.775070496 58.636562772 58.458749898 58.395954088 58.283752334 58.049044883 
58.036505455 57.799261963 57.58881599 57.5795892 57.45724294 57.436376507 57.319585886 57.231463879 57.11817711 
57.032600088 56.965190699 56.911040246 56.756158922 56.439281564 56.386326177 56.350991143 56.007503609 55.903300807 
55.68314189 55.370007549 55.36998532 55.36445024 55.196490438 55.016649594 54.891101717 54.80523801 54.543875273 
54.493551678 54.307378192 54.288959779 54.273003831 53.964764128 53.842549501 53.788627824 53.542006861 53.466940896 
53.007874493 52.979274185 52.759674096 52.648804094 52.600840898 52.314724659 52.29144036 52.019550992 51.895200415 
51.863359982 51.68789373 51.614256933 51.389775473 51.321328252 51.142035744 51.018122009 50.958989347 50.956014821 
50.752796227 50.723954314 50.576712399 50.527938952 50.335020101 50.330219976 50.296084255 50.107234624 49.830032995 
49.583381639 49.425445459 49.304906185 49.146102243 49.132181659 48.732279014 48.540116136 48.503623183 48.115761695 
48.07495569 47.596534089 47.525332797 47.367840389 47.09039429 46.893427924 46.799772975 46.420374181 46.357940194 
46.32365234 46.008422485 45.844489898 45.701174853 45.506830334 45.342043388 45.041211094 44.942540292 44.82066429 
44.596032015 44.496179991 44.451798969 44.2389254 44.117932856 43.967825744 43.893465403 43.848774593 43.617383564 
43.589307921 43.570607199 43.366837564 43.306570306 43.207898503 43.199224255 43.067560495 43.067560486 43.067559377 
42.925301816 42.799765511 42.767191111 42.767171076 42.766634582 42.624024086 42.614648199 42.478037642 42.433109681 
42.269881546 42.232887083 42.218003353 42.119202618 42.112967849 42.073535385 41.99235962 41.981130922 41.977414673 
41.906310219 41.882451805 41.866637906 41.848772116 41.816181547 41.755654608 41.708450011 41.709239988 41.697417599 
41.646131646 41.645038541 41.644739272 41.644524148 41.653762432 41.67847139 41.69037592 41.691394889 41.695493263 
41.751457933 41.790450083 41.817887499 41.824787777 41.855123973 41.864994215 41.905453975 41.910959191 41.920101658 
41.936444116 41.937332018 41.960454638 41.990307598 42.013236785 42.016192631 42.053852451 42.056767507 42.05773554 
42.081440312 42.10158896 42.115177333 42.187535896 42.196604343 42.207965566 42.224393156 42.235550997 42.293928825 
42.296239739 42.295339429 42.299064477 42.368860079 42.378585888 42.389068869 42.397778437 42.393013969 42.400858003 
42.415414061 42.449682518 42.46106842 42.491097315 42.498927169 42.506217572 42.508402851 42.580988958 42.581577045 
42.577098754 42.508749314 42.507170027 42.513714078 42.513713212 42.513659928 42.493537128 42.49444196 42.526651145 
42.530259941 42.542806207 42.491873749 42.491873843 42.491897248 42.440570214 42.336314521 42.291324139 42.266585187 
42.176073658 42.141815956 42.01682086 41.959021535 41.906199136 41.8459392 41.709998536 41.668518157 41.575930431 
41.444948449 41.444919083 41.437607032 41.211746578 41.151087139 40.939803338 40.787292256 40.576698036 40.565874888 
40.532840065 40.342090879 40.130360854 40.056027763 39.690357603 39.359935761 39.274175095 39.132389329 39.047993028 
38.692589842 38.685575917 38.670962053 38.097012039 37.958297955 37.841163438 37.623215271 37.302169637 37.017320688 
36.742899859 36.677981148 36.670508789 36.612454354 36.360170626 35.955671173 35.945246825 35.926239049 35.64434046 
35.386650865 35.259956013 35.073210181 34.829078254 34.779367982 34.381256903 34.381246268 34.37859803 34.102108957 
33.722437802 33.555761354 33.482683706 33.305715467 33.007651666 32.98488566 32.920588748 32.614096274 32.434421173 
31.96995287 31.938988233 31.725694965 31.460835614 31.309182722 30.96001433 30.800955423 30.783514868 30.778038532 
30.507780083 30.445535664 30.388708515 30.029478085 30.020512039 29.623585374 29.345987888 29.216028819 29.216028577 
29.215968321 28.855593116 28.277599194 28.250416372 27.71527545 27.529595483 27.402847725 26.85469033 26.731104723 
26.556255339 26.202201669 26.051047978 
EdgeArray 2 345 int
13132 13132 13135 12923 12832 12616 12966 13041 12980 
13139 13218 13218 12483 12483 12999 12999 13639 13714 
13984 14050 13494 13394 12639 12639 14430 14431 14429 
14431 14429 14426 14428 14428 14998 14998 14456 14456 
14691 14691 15350 14717 15579 14999 15184 15579 16074 
16072 15999 16071 16284 15310 16327 16081 16327 16328 
16329 16518 16518 16207 16563 16207 16557 16373 16373 
16777 16778 16778 16535 15686 17043 15686 17423 16672 
17272 17272 16663 17270 16663 16150 17421 17261 18220 
18221 18220 18223 18447 18223 18214 18216 18212 18213 
18141 17974 18661 18661 18889 18893 18888 18892 18887 
18890 18854 18855 17492 18231 18231 18439 18265 17687 
18862 18197 19298 17824 18410 19298 19486 19486 19485 
19485 19698 19698 19694 19694 19306 19306 18651 19071 
19288 19288 19668 19668 17480 19668 17480 17480 20321 
20321 20108 20108 20329 20330 20334 20732 20326 20326 
20741 20741 21118 20291 21118 21117 21117 21117 19478 
18710 17046 17046 20922 20922 19728 21098 20940 20248 
21715 21715 21155 21290 20358 19476 21144 18522 21036 
21297 18392 18392 21640 21897 20938 20938 22448 21104 
20639 21286 21679 20337 22811 22643 22798 22793 22799 
22799 23032 23032 23037 23037 23078 23050 23080 23050 
22646 21935 22646 19424 22268 23343 23343 23020 23613 
23613 23829 23829 23822 23822 23961 23961 24147 24147 
24152 24146 24064 24064 25121 25121 25118 25118 24191 
24191 24853 24853 24835 24835 23596 23596 18384 18384 
26026 22820 23140 23140 26619 23988 26621 26621 24251 
26198 26386 26386 25068 25068 26891 26891 26700 26700 
26893 26893 26627 26627 26193 26512 25034 25034 26885 
26885 25690 25690 27720 27720 23155 23155 19451 28175 
26723 26723 28168 16334 26945 28170 28401 28401 28398 
28398 28400 28400 23505 23505 26586 26586 27070 27070 
27966 27966 27980 27980 28823 28823 28818 28825 28819 
28819 27700 23724 28572 28572 27537 28572 27537 27537 
26721 26721 27247 27247 23785 23785 29052 23785 29052 
29052 28562 28562 29260 29260 22138 22138 29043 29043 
29488 29488 29712 29715 29714 29715 29718 29718 26197 
29719 27329 27329 29252 29252 29494 29494 29847 28249 
27625 27625 28566 28566 20385 20385 28967 29699 30005 
30005 30521 30521 29502 29502 27842 27842 27611 30534 
30535 30535 29857 23338 30542 23338 30542 30542 29802 
29802 11249 11249 30760 30760 30747 30747 31687 31687 
31055 31055 29777 29777 30276 30276 32036 32037 32033 
32033 31655 31655 24241 24241 29083 31824 29083 29083 
32874 32874 32623 32875 32623 25356 25356 25356 33071 
33071 28073 28073 32026 32026 33209 33208 33208 33217 
33217 33217 33218 33218 33219 33219 27599 27599 33066 
33066 33226 32031 33382 30468 33382 33382 31447 27592 
27592 33745 33743 33745 32443 32443 30819 30819 33049 
33049 33200 33200 33204 33204 32244 32244 34366 34366 
33526 33526 34554 34554 34553 34552 34552 32439 32439 
32439 34711 34712 34711 34711 34020 34020 35221 35221 
34453 34453 33468 33468 35214 35214 30459 30459 35378 
30459 35378 35378 35372 35372 30476 30476 33741 34677 
34677 34677 35902 35902 34214 34214 35140 34214 35140 
35140 36272 36272 36558 36558 36555 36555 33844 33844 
36052 36052 36292 36292 36361 36361 36831 36832 36022 
36022 37049 37049 34987 34987 37050 36931 37596 37596 
37628 37628 37627 37628 37627 37627 37620 37620 37666 
37666 37670 37670 37789 37789 37784 37784 38027 38028 
38171 38171 38180 38180 38347 38347 38348 38348 38561 
38561 38598 38598 38536 38536 38739 38739 38740 39059 
39053 38747 38746 39052 39052 39048 38596 38596 39257 
38922 39259 39257 39368 39368 39526 39526 39769 39544 
39580 39764 39763 39900 39900 39901 39899 39902 40143 
40143 39857 40139 40153 40139 40153 40129 39104 39104 
40496 40496 40500 40501 40379 40293 40719 40720 40719 
40718 40721 40721 40722 40721 40722 40722 40960 40960 
41173 41173 41359 41358 41359 41219 41339 41339 40788 
40788 41810 41651 41811 41810 40586 40586 41556 41556 
41463 41406 41276 41406 42274 42274 42271 42271 42055 
42055 41717 42049 42051 42262 42263 42262 42497 42263 
42292 41446 41446 42293 42524 42293 42525 42524 42526 
42525 42095 42095 42763 42763 42902 42902 42996 42902 
42996 42996 42894 42894 43151 43151 43572 43335 43464 
43464 44330 44330 44325 44202 45700 45700 46000 45161 
48683 48817 48442 48683 48442 48442 
EdgePCoordArray 1 345 double
0 0.472 0.492 0.304 0.82 0 0 0 0.512 
0.188 0.9 0 0.868 0.548 0.092 0 0 0 
0 0.216 0.908 0.2 0.968 0.992 0.976 0.508 0.352 
0.784 0.32 0.176 0.544 0.508 0 0.308 0.304 0.16 
0 0.972 0.844 0.332 0.364 0.764 0.972 0.104 0.676 
0.3 0 0.392 0.428 0.776 0.716 0.504 0.364 0.756 
0.132 0.216 0.708 0 0 0 0 0 0.848 
0 0 0.996 0 0 0 0.556 0.54 0 
0 0.116 0.556 0 0.18 0 0 0.384 0.184 
0 0.924 0.092 0.404 0.452 0 0.028 0 0.172 
0.864 0.152 0.924 0.548 0 0 0 0.988 0.988 
0.528 0.54 0.464 0.636 0 0 0 0 0 
0.188 0 0 0 0 0 0 0 0 
0.028 0 0.5 0 0.024 0 0 0 0 
0 0 0.608 0 0 0 0 0 0.032 
0 0.14 0.676 0 0 0 0 0 0 
0 0 0 0.684 0 0.008 0 0.992 0 
0 0 0 0.964 0 0 0 0 0 
0 0.736 0.684 0 0.9 0 0 0 0.992 
0 0 0 0.708 0 0 0 0 0.156 
0 0.836 0.18 0 0 0 0 0 0 
0 0 0 0.916 0 0 0 0.88 0 
0 0.972 0.264 0 0 0 0 0.444 0.028 
0 0 0 0 0 0.516 0.784 0 0.832 
0.388 0.932 0 0 0 0 0 0 0 
0 0 0.204 0.276 0 0.604 0 0 0 
0 0 0 0 0.984 0 0 0 0.888 
0 0 0 0.996 0 0 0 0 0 
0 0 0 0.628 0 0 0 0.248 0 
0 0.996 0 0 0 0 0 0 0.896 
0 0 0 0 0 0 0 0 0.016 
0.056 0.972 0.036 0 0.572 0.748 0 0 0.82 
0.472 0.952 0.016 0.124 0 0.988 0.804 0.076 0 
0 0.04 0.728 0.444 0.492 0 0.996 0 0 
0 0.212 0.292 0 0 0.78 0.42 0 0 
0.956 0.88 0 0 0 0.692 0.916 0.196 0.988 
0.512 0.892 0.86 0.116 0.9 0 0 0 0.996 
0 0 0 0.28 0 0 0.06 0 0.26 
0.344 0.292 0 
CurvatureArray 1 345 double
0 7.7594570397e-05 0.00030917851746 0.00053591905588 0.00075021412247 0.00094592260998 0.0011176824876 0.0012605454841 0.00137148515 
0.001447530148 0.0014879035767 0.0014935925507 0.0014642030307 0.0014036779531 0.0013142887022 0.0011995683475 0.0010659067992 0.00091884903431 
0.00076787058423 0.00062921348247 0.00052905258325 0.0005032648176 0.00056715572512 0.00069593846581 0.0008567444439 0.0010292201299 0.0012002304539 
0.001363646078 0.0015138903766 0.0016476891707 0.0017622493788 0.00185722602 0.0019303544002 0.0019822424939 0.0020140714199 0.0020264158976 
0.0020213116467 0.0020017043939 0.0019693088942 0.0019279558547 0.0018805211528 0.0018297787136 0.0017789812037 0.0017315947351 0.0016880877906 
0.00165253267 0.0016240236156 0.0016043538804 0.0015920790766 0.0015874500502 0.0015882156879 0.0015934798945 0.0016013706653 0.0016105895596 
0.0016203424574 0.0016290138907 0.0016373462451 0.0016429959721 0.0016477397565 0.0016508901033 0.00165225454 0.0016527444299 0.0016522893247 
0.0016516570054 0.0016497987397 0.001648665286 0.0016474907585 0.0016472355567 0.0016472549525 0.0016472585923 0.0016488172609 0.0016501358643 
0.0016529656282 0.0016557995914 0.0016595669898 0.0016645854344 0.0016702002526 0.0016777060742 0.0016871819463 0.0016975249102 0.0017111544012 
0.0017274534097 0.0017465954018 0.0017694946102 0.0017958187418 0.0018266078451 0.0018603711716 0.00189925569 0.0019402249125 0.0019856644238 
0.0020329994778 0.0020825032804 0.002132974588 0.0021822550943 0.0022307197668 0.0022754350332 0.0023166837226 0.0023516745103 0.0023809616209 
0.0024030434647 0.0024167771 0.0024238817738 0.0024232660217 0.0024154292269 0.0024026098088 0.0023836042279 0.0023615151359 0.0023361332769 
0.0023091774545 0.0022812990645 0.0022534339343 0.0022263512771 0.0021997641124 0.0021749689763 0.0021512281828 0.0021292149234 0.002107713085 
0.0020873941489 0.0020668667464 0.0020463510041 0.0020248938066 0.0020024220572 0.0019776644471 0.0019505996532 0.001920557653 0.0018874354686 
0.0018505178512 0.0018102198775 0.0017661284406 0.001718180541 0.0016667845369 0.0016124282799 0.0015549138399 0.0014956264374 0.0014335758547 
0.0013704537181 0.0013071477014 0.0012422159021 0.0011787023173 0.0011153699742 0.001052654415 0.00099198828618 0.00093480509191 0.00087841984597 
0.00082747268089 0.00077942967011 0.00073674130356 0.00070047266265 0.00066992871377 0.00064653549891 0.00062950236377 0.00062039087986 0.00061657249151 
0.00061940333218 0.00062636628295 0.00063600401429 0.00064934146798 0.00066237318263 0.00067850990091 0.0006922750642 0.00070745798885 0.00072230426004 
0.00073744692089 0.00075108604814 0.00076342717531 0.00077890380813 0.00079075996977 0.0008045065304 0.00081581810323 0.00082897949481 0.00084040642866 
0.00085532451391 0.00086675848626 0.00087881579801 0.0008926619958 0.00090445910068 0.00091726690849 0.0009307507387 0.00094303231233 0.00095758169848 
0.0009712811056 0.00098561873143 0.0010020282412 0.0010197035703 0.0010360074901 0.0010577520057 0.0010779360381 0.0011053373515 0.0011323670064 
0.0011630788628 0.0011976567893 0.0012357858601 0.0012794714466 0.0013245476129 0.0013787542101 0.0014358233241 0.0014935125165 0.0015592773512 
0.0016235646664 0.0016900839166 0.0017574174982 0.0018195712056 0.0018817937788 0.0019336928665 0.0019780198621 0.0020187369406 0.0020427528451 
0.0020594919384 0.0020648912529 0.0020617103454 0.0020506629775 0.0020336120379 0.0020121903068 0.001991698231 0.0019697610913 0.0019505660578 
0.0019386794215 0.001934952143 0.0019381180362 0.0019527210269 0.0019759428217 0.0020087371635 0.0020553298685 0.0021120427248 0.0021795318815 
0.002255306879 0.0023390202684 0.0024308954017 0.002522124469 0.0026189933767 0.0027203160522 0.0028133503574 0.0029040037448 0.0029855697962 
0.0030546945373 0.0031182914084 0.0031650082296 0.0031984635007 0.003217905663 0.0032235730155 0.0032207067081 0.0032011616387 0.0031772686142 
0.0031477690202 0.0031106719076 0.0030756129286 0.0030411396294 0.0030080695988 0.0029814202786 0.0029604729498 0.0029474224787 0.0029456058639 
0.002952405944 0.0029680286254 0.0029957689158 0.0030291709682 0.0030685958996 0.0031144451015 0.0031582253281 0.0031992958987 0.0032302923028 
0.00325071438 0.0032524071744 0.0032274877673 0.0031784237858 0.0031005012201 0.0029927100007 0.0028452535904 0.0026689865731 0.0024657719217 
0.0022318236855 0.0019787666069 0.0017131507932 0.0014393889922 0.0011804291874 0.00094931737292 0.00077985267818 0.00071954199646 0.0007805501666 
0.00092584575322 0.0011065843832 0.0013000309609 0.0014870173805 0.0016551879367 0.0018061408247 0.00193612583 0.002035255379 0.0021142612926 
0.002166827227 0.00218916531 0.0021866954934 0.0021665903782 0.002112260647 0.002051349576 0.0019590906613 0.0018717916193 0.0017608006497 
0.0016496802095 0.0015465014081 0.0014494753106 0.0013593257621 0.0012947947275 0.0012441031573 0.0012200240084 0.0012136541566 0.0012179366408 
0.0012353664795 0.0012728254256 0.0013047204164 0.0013423993344 0.0013913742933 0.0014427617287 0.0015000293155 0.0015814681032 0.0016721510723 
0.0017974267147 0.0019459136007 0.0021358915636 0.0023737031702 0.0026516661025 0.0029872598053 0.0033528210621 0.0037590042464 0.0042051617131 
0.0046620322965 0.0051168447285 0.0055817355728 0.0060164941219 0.0064189150596 0.0067638405403 0.0070441195434 0.0072405153519 0.0073548439805 
0.007358263476 0.0072704857378 0.0070518807283 0.0067300546323 0.0063006085881 0.0057423124849 0.005100157827 0.0043626465346 0.0035326592794 
0.0026223370707 0.001672484504 0 
TorsionArray 1 345 double
0 0 -0.00021344016569 -0.0012061178699 -0.0021560926067 -0.0029863534258 -0.0039910177849 -0.0051115423505 -0.0065350719161 
-0.0083195130606 -0.010315414561 -0.013027668445 -0.016598079704 -0.021271346113 -0.028117793114 -0.037974830142 -0.052942318601 -0.077404979742 
-0.1179974541 -0.18381946349 -0.26888577411 -0.30242825341 -0.23856999127 -0.15649228056 -0.10026809232 -0.066131445816 -0.045238282414 
-0.031722758835 -0.022421634229 -0.015639339346 -0.010450605379 -0.0061866798299 -0.0024345038228 0.00092839384121 0.0041732121222 0.0074160749992 
0.010703686445 0.014133267935 0.017734577835 0.021424102601 0.02518220723 0.028942769237 0.032363100576 0.035269395166 0.037451346965 
0.038547464451 0.038397351606 0.036863812366 0.034086607712 0.030276718498 0.025756425968 0.020915540391 0.016142356518 0.011533534002 
0.0075207600477 0.004173272063 0.0015450798937 -0.00030139829445 -0.0014462560597 -0.002053971548 -0.0020989155555 -0.0017412644272 -0.0011717936723 
-0.00044177568905 0.00025328179428 0.0009911721481 0.0015734380198 0.0020009163985 0.0022454909229 0.0022745442837 0.0022123755205 0.0019727953631 
0.0016683788926 0.001305595276 0.00090860782889 0.00060547510571 0.00034865649371 0.00018516142104 0.00014967171373 0.00026224762866 0.00055007028543 
0.00092405039604 0.0013749955287 0.0019483700489 0.002637250412 0.0032543698392 0.0038038944015 0.0043437955461 0.0047431796578 0.0049876264684 
0.0051237900035 0.0050428377491 0.0047427048012 0.0043617794321 0.0037940018786 0.0030949486078 0.0022898335738 0.001411420338 0.00051393050268 
-0.00047574186462 -0.0013982298273 -0.0023167265535 -0.0032255401308 -0.0039776387313 -0.0047405600678 -0.0054320984994 -0.0059395622334 -0.0064257328304 
-0.0068093670197 -0.0070400325655 -0.0072342718824 -0.0073608231427 -0.0073393367224 -0.0072889146573 -0.0071974078443 -0.0070327056211 -0.0068216168726 
-0.0066175979647 -0.0063842704995 -0.0061515544463 -0.0059440307885 -0.0057470711748 -0.0054983114786 -0.0053680216867 -0.0053084977818 -0.0051726999629 
-0.005153214883 -0.0051991470098 -0.0054960903826 -0.0057413072554 -0.0060288115078 -0.0068230235773 -0.007726232164 -0.008627449315 -0.0098897813918 
-0.011889955001 -0.013985162179 -0.01667487671 -0.020229339625 -0.023849422326 -0.028630520972 -0.033845295451 -0.040354274974 -0.047994018073 
-0.055328418781 -0.063665687293 -0.0727016243 -0.081092352224 -0.088049815636 -0.093377212559 -0.097119632155 -0.097606225983 -0.094871117273 
-0.091257604326 -0.086123393092 -0.079826441497 -0.072539945308 -0.065588978212 -0.058980370559 -0.053570577355 -0.047601977928 -0.041068432662 
-0.037962731688 -0.03382601993 -0.028388508244 -0.025745055836 -0.022949098348 -0.020536647722 -0.017326959013 -0.015322278084 -0.015046196918 
-0.012323658939 -0.012023527425 -0.012167730792 -0.010490347808 -0.011235379994 -0.010882760657 -0.010409740804 -0.010903319066 -0.010140505064 
-0.010883176952 -0.011016011329 -0.0098406049669 -0.010027964169 -0.010593666836 -0.0094106610473 -0.0088240416219 -0.0099832580803 -0.0085225420261 
-0.0074145931683 -0.0077066784524 -0.0079348243528 -0.0068312679243 -0.0065780822352 -0.0066442847872 -0.0059615991591 -0.0066888025914 -0.0064269394588 
-0.0051311942715 -0.0054411247898 -0.0060423020563 -0.004705601031 -0.0040182342557 -0.0041405212604 -0.0036332207957 -0.002529418495 -0.0013423198586 
-0.00081390128656 -0.00055935992743 0.0010824093281 0.0020726403894 0.0023772831413 0.0035055048425 0.0041888829004 0.0045770673388 0.0052283799707 
0.0052409953877 0.0052223676598 0.0061291671064 0.0060874233334 0.0056980731337 0.0060721958258 0.0063533695826 0.0059658530979 0.0067510051027 
0.0072861034845 0.0064500530627 0.0074712745866 0.0080946321239 0.0067671263485 0.0064424392805 0.0072803992511 0.0065932497317 0.0056542918199 
0.0046148401159 0.0031197453125 0.0022026994014 0.00018568814272 -0.001636774821 -0.004161464522 -0.0067141651621 -0.0087132303527 -0.01196792387 
-0.014916525908 -0.018390690888 -0.022079392121 -0.024934345596 -0.028063948564 -0.031497715364 -0.033698397702 -0.036899878009 -0.039173179704 
-0.040203445551 -0.041821067236 -0.041830824863 -0.041565785263 -0.041298553957 -0.039522899899 -0.037933575071 -0.03573488299 -0.032933499968 
-0.03059474227 -0.027588467169 -0.024021521688 -0.020877496122 -0.017247450063 -0.012633489527 -0.0077647694703 -0.0019565366202 0.004986837448 
0.014637477517 0.027782256383 0.047023063003 0.076495727162 0.12397221927 0.20037169328 0.29686304371 0.34153978255 0.27729798742 
0.18302301273 0.11790699778 0.079933999135 0.054567771534 0.038916963053 0.031788912894 0.024917496942 0.022008298917 0.020535658193 
0.019095498929 0.020356440983 0.022931736096 0.024345808312 0.028434158785 0.034234357475 0.040257687549 0.048448709127 0.057724546807 
0.069598329582 0.08281025642 0.095043041731 0.10794191394 0.11792678964 0.12238678653 0.12028099325 0.11272035454 0.10502868843 
0.094347188751 0.084723918538 0.078768459124 0.074338875727 0.078116918105 0.083505704813 0.087816463397 0.099230572924 0.11337743433 
0.11911626177 0.12400266491 0.12451005769 0.12374011419 0.11491104947 0.1015930276 0.093844559539 0.085947797576 0.075076037257 
0.062323412788 0.057717521682 0.052468643082 0.045503689736 0.042181302193 0.035627605634 0.031175421368 0.031601271414 0.027661954897 
0.02423652879 0.02230882818 0.020167498512 0.019941383748 0.016266664481 0.012230696367 0.014400145199 0.014385079933 0.0067575847372 
0.0052529064058 0 0 
TangentArray 3 345 double
-0.023828821799 0.0082059679832 0.99968237423 -0.023828821799 0.0082059679832 0.99968237423 -0.024065224973 0.0080761916554 0.99967776812 
-0.024581987813 0.007792330604 0.99966744743 -0.025368596231 0.0073587510312 0.99965108068 -0.026405735925 0.0067831283165 0.99962829406 
-0.027666869866 0.0060763527524 0.99959873062 -0.029118684526 0.005252034279 0.99956216332 -0.030722463742 0.0043260832384 0.99951859174 
-0.032435098161 0.0033160317109 0.99946834284 -0.034210350218 0.0022405204276 0.99941214322 -0.036001656957 0.0011188747164 0.99935110387 
-0.037761909801 -2.9634015685e-05 0.99928676429 -0.03944537094 -0.001186202955 0.99922102442 -0.041009564403 -0.0023329718965 0.99915603029 
-0.042414260882 -0.0034533266704 0.99909414222 -0.043624127594 -0.0045322353095 0.99903773419 -0.044608800518 -0.0055564847056 0.99898907922 
-0.045341994484 -0.0065146830531 0.99895028026 -0.045803495295 -0.0073975501368 0.99892307816 -0.045979096453 -0.0081979796281 0.99890876251 
-0.045859170733 -0.0089108081727 0.99890817093 -0.045439944831 -0.0095330629282 0.99892158457 -0.044723259745 -0.010063871767 0.99894872167 
-0.043715687821 -0.010504258298 0.99898878832 -0.042428495308 -0.010857252263 0.99904051112 -0.040877815004 -0.011127748935 0.99910218569 
-0.039083822497 -0.011322350149 0.99917178663 -0.03706981282 -0.011449210718 0.99924708884 -0.034862310351 -0.011517963572 0.99932575061 
-0.032490138394 -0.011539460497 0.99940543913 -0.029982922753 -0.011525340119 0.99948396229 -0.027371116868 -0.011487942059 0.99955932748 
-0.024685572512 -0.011440241433 0.99962980317 -0.021955355497 -0.011395057135 0.9996940107 -0.019208057493 -0.011365119485 0.99975091127 
-0.016469273366 -0.011362779216 0.9997998051 -0.013761303048 -0.011399574 0.99984032538 -0.011103454652 -0.011486170469 0.99987238245 
-0.0085117113014 -0.011632149472 0.99989611654 -0.0059979740786 -0.01184565595 0.99991184849 -0.0035710080895 -0.012133383753 0.99992001125 
-0.0012361256821 -0.012500647193 0.99992109979 0.0010052795659 -0.012950947176 0.99991562763 0.0031541207607 -0.013486016495 0.99990408484 
0.0052142081874 -0.014106060093 0.99988690916 0.0071918163389 -0.014809678646 0.99986446641 0.0090946747799 -0.015593735524 0.99983704787 
0.010932081876 -0.01645359054 0.99980486543 0.012714255358 -0.017383325783 0.99976805695 0.014451902332 -0.018376049053 0.99972669432 
0.01615552492 -0.019423996199 0.99968080275 0.01783523213 -0.020519091581 0.99963036737 0.01950008902 -0.021653228799 0.99957535194 
0.02115845927 -0.022818440632 0.99951570191 0.022817100102 -0.024007392631 0.99945136202 0.024481669833 -0.025213852731 0.99938226394 
0.026156124919 -0.026432432296 0.99930835264 0.02784297514 -0.027659009109 0.9992295772 0.029544162998 -0.028891193265 0.99914585591 
0.031260234337 -0.030127257221 0.99905712856 0.032991031723 -0.031366810214 0.99896332017 0.034736027863 -0.032610555291 0.99886433516 
0.036494485666 -0.033859820334 0.99876006382 0.038265062085 -0.035116120596 0.99865041085 0.040046715128 -0.036381150525 0.99853526352 
0.041838771036 -0.037657105937 0.99841447286 0.043640727922 -0.03894582875 0.99828788898 0.045452339684 -0.040248858998 0.99815535573 
0.047273039588 -0.041566872843 0.99801676079 0.049103221583 -0.042900452836 0.99787194809 0.050943249467 -0.044249817251 0.99772077206 
0.052793721542 -0.04561464082 0.9975630945 0.054655453571 -0.046994472249 0.99739876728 0.056529023439 -0.048388395381 0.99722767345 
0.058415750023 -0.049795854751 0.99704963417 0.0603165608 -0.051216343224 0.99686448361 0.062232619655 -0.052649684628 0.99667201815 
0.064165662548 -0.054096500129 0.99647194462 0.06611655097 -0.055557295903 0.99626401549 0.068086543416 -0.057033530989 0.99604788989 
0.070077544444 -0.058527963801 0.9958230843 0.072090954714 -0.060043430429 0.99558911239 0.074128586427 -0.061583520207 0.99534537861 
0.076192263268 -0.063152534743 0.99509120003 0.078283865895 -0.064755549089 0.99482579138 0.080405123532 -0.066397410766 0.99454833968 
0.082558217207 -0.068083202568 0.99425792343 0.08474483073 -0.069817846282 0.9939536116 0.086966586679 -0.071605724221 0.99363445646 
0.08922548596 -0.073450932313 0.99329943783 0.091522619671 -0.075356397328 0.99294764387 0.093859372764 -0.07732417295 0.99257815331 
0.096236207755 -0.079354242105 0.99219025221 0.098653234159 -0.081445666318 0.99178331445 0.10111018994 -0.083595845276 0.99135688031 
0.10360626821 -0.085800549598 0.99091069571 0.10614014149 -0.088054050395 0.99044472565 0.108709951 -0.090349255284 0.98995917018 
0.11131374501 -0.092678488265 0.98945436882 0.11394868002 -0.095032289337 0.98893101999 0.11661206227 -0.097401530152 0.98838988707 
0.11930144132 -0.099777124356 0.98783181339 0.1220137535 -0.10214940415 0.98725789092 0.12474649711 -0.10451031023 0.98666909677 
0.12749730143 -0.10685182603 0.98606649137 0.13026402377 -0.10916676526 0.98545111572 0.13304491505 -0.11144971388 0.98482384813 
0.13583840787 -0.11369568691 0.98418556062 0.13864337161 -0.1159009365 0.98353697868 0.14145853664 -0.11806282857 0.98287875698 
0.14428305298 -0.12017941857 0.98221143751 0.14711569739 -0.12224906889 0.98153560136 0.14995499874 -0.12427113366 0.98085176438 
0.15279945147 -0.12624521934 0.98016043188 0.15564712301 -0.12817104403 0.9794621772 0.15849530387 -0.13004840137 0.9787577085 
0.16134063583 -0.13187712303 0.97804786368 0.16417923729 -0.1336567786 0.97733363985 0.16700631745 -0.1353867381 0.97661626091 
0.16981663994 -0.13706624759 0.97589710143 0.17260443972 -0.13869425542 0.97517773298 0.17536322461 -0.14026938748 0.9744599727 
0.17808570858 -0.14179032287 0.97374585223 0.18076472889 -0.14325526649 0.9730375334 0.18339310693 -0.14466220973 0.97233729405 
0.1859632975 -0.14600956215 0.97164749768 0.18846823939 -0.14729554021 0.97097051787 0.19090144792 -0.14851851542 0.97030865592 
0.19325702976 -0.14967618168 0.96966425173 0.19552959441 -0.1507670666 0.96903945706 0.19771479401 -0.15179030799 0.96843614277 
0.19980959629 -0.15274394342 0.96785609105 0.20181204099 -0.1536267111 0.96730074628 0.20372052625 -0.15443811854 0.96677133528 
0.20553436425 -0.15517751456 0.96626888809 0.20725521515 -0.15584375401 0.96579397395 0.20888416209 -0.15643631034 0.96534713323 
0.21042334819 -0.15695458343 0.96492863637 0.21187618763 -0.15739765306 0.9645384699 0.2132448202 -0.15776549781 0.9641766925 
0.21453237863 -0.15805750316 0.96384318445 0.21574299758 -0.15827403615 0.96353738302 0.2168793531 -0.15841435844 0.96325917449 
0.21794430456 -0.15847787787 0.96300832932 0.21894066462 -0.15846558305 0.96278431872 0.21987001199 -0.1583782 0.96258689145 
0.220734666 -0.15821615255 0.96241563594 0.22153596558 -0.15798071767 0.96227018493 0.22227469433 -0.1576742449 0.96215008848 
0.22295147707 -0.15729947566 0.9620548393 0.22356682727 -0.1568590061 0.96198395306 0.22412130487 -0.15635636679 0.96193675845 
0.2246160205 -0.15579600042 0.96191228789 0.22505163107 -0.15518141602 0.96190981463 0.22542831447 -0.15451726479 0.96192852641 
0.22574726088 -0.15380774237 0.96196743843 0.22601008027 -0.15305764284 0.96202536431 0.22621884581 -0.15227097629 0.9621011296 
0.22637550029 -0.15145180685 0.96219357879 0.22648159917 -0.15060428561 0.96230163379 0.22653999725 -0.14973064509 0.96242421186 
0.22655474519 -0.14883310199 0.96255994888 0.22652668176 -0.14791411716 0.96270819899 0.22645832838 -0.14697658977 0.96286785571 
0.22635410876 -0.1460200489 0.96303788231 0.22621547305 -0.14504551666 0.96321771052 0.22604458892 -0.14405446695 0.9634065364 
0.22584327041 -0.14304765233 0.96360374967 0.22561468209 -0.14202530437 0.9638085018 0.22536056148 -0.14098755791 0.96402029327 
0.22508021689 -0.13993401954 0.9642392681 0.22477663276 -0.1388644223 0.96446468965 0.22445021009 -0.13778124586 0.96469603061 
0.22409977845 -0.13668393914 0.9649335677 0.22372737404 -0.13557274399 0.96517671604 0.22333180013 -0.13444968486 0.96542539292 
0.22291288938 -0.13331454467 0.96567959279 0.22247127708 -0.13216847168 0.96593893491 0.22200579423 -0.13101227157 0.96620350446 
0.22151716903 -0.12984579305 0.96647307974 0.22100429893 -0.12867097801 0.96674757785 0.22046628065 -0.12748767445 0.96702715162 
0.21990416006 -0.12629441383 0.9673116775 0.21931785956 -0.12509288724 0.96760087125 0.21870557689 -0.12388275451 0.96789510474 
0.21806830715 -0.1226623813 0.96819427473 0.21740575468 -0.12142968831 0.96849861571 0.21671433409 -0.12018368039 0.96880894936 
0.21599574829 -0.11892303836 0.96912493914 0.21525008949 -0.11764436333 0.96944685401 0.2144750361 -0.11634591918 0.96977527602 
0.21366797416 -0.11502512156 0.97011093089 0.21282896735 -0.11367928164 0.97045394099 0.21195591638 -0.11230472178 0.97080499534 
0.21104527585 -0.11089761684 0.97116507872 0.21009779366 -0.1094574318 0.97153383252 0.20910995216 -0.10798276997 0.97191190408 
0.20808040164 -0.10647193806 0.97229947694 0.20701150252 -0.1049245106 0.9726957823 0.2059019928 -0.10334057079 0.97310076343 
0.20475196445 -0.10172381425 0.97351368694 0.20356517717 -0.10007513419 0.97393335817 0.20234563407 -0.098397912128 0.97435829922 
0.2010979948 -0.096699523222 0.97478654007 0.19982566287 -0.094982966749 0.97521686844 0.1985358381 -0.093253809852 0.9756470919 
0.1972369198 -0.091518662432 0.97607475733 0.19593424113 -0.089782545989 0.97649826809 0.19463299127 -0.088051364077 0.97691604347 
0.193339853 -0.086327597722 0.97732658161 0.19205956393 -0.084613798005 0.97772881163 0.19079467004 -0.082912313803 0.97812215091 
0.18954720735 -0.081221753862 0.97850645521 0.18831772326 -0.079540484998 0.9788818858 0.18710589438 -0.077866839668 0.97924876286 
0.18590940636 -0.076195348204 0.97960806527 0.18472338849 -0.074519270305 0.97996129929 0.18354330559 -0.072832191325 0.98030981168 
0.18236553061 -0.071125157184 0.98065489611 0.18118443966 -0.069389691806 0.98099809862 0.17999452555 -0.067618631886 0.98134076212 
0.17879034602 -0.065801446611 0.98168435955 0.17756636711 -0.063927329869 0.98203028556 0.17631678809 -0.061987644744 0.982379724 
0.17503885321 -0.059972794035 0.9827332618 0.17373043929 -0.057874488554 0.98309118501 0.17238636438 -0.055686310825 0.98345410476 
0.17100811653 -0.053402750119 0.98382131018 0.16959719692 -0.051019546843 0.98419195111 0.16814849508 -0.048532817144 0.98456622391 
0.1666628603 -0.045943280598 0.9849429963 0.16514596824 -0.043252473791 0.98532026909 0.16359920645 -0.040464483456 0.98569666999 
0.16202519093 -0.037588421324 0.98607045797 0.16042482207 -0.034631746051 0.98644032695 0.15879817005 -0.031604889658 0.98680508315 
0.15714879691 -0.028521070123 0.98716300791 0.15547558732 -0.025394500074 0.98751327136 0.15377807004 -0.022239750877 0.98785510003 
0.15205188455 -0.019070713799 0.9881885105 0.15029363298 -0.015903524423 0.98851348084 0.1485011659 -0.012751958593 0.98883001132 
0.1466653922 -0.0096278437482 0.98913930634 0.14477999004 -0.0065449925861 0.98944222548 0.14283543299 -0.0035156938243 0.98974020782 
0.14081986233 -0.00054992617582 0.99003508218 0.1387254317 0.0023427009655 0.99032811045 0.13654231972 0.0051534727193 0.99062083394 
0.13425899252 0.0078734375767 0.99091499732 0.13186813335 0.010496286939 0.99121169453 0.12935772131 0.013013551751 0.99151259569 
0.12671859217 0.015418261527 0.99181887238 0.12394681344 0.017704678175 0.99213090457 0.12103532571 0.019865344823 0.99244940325 
0.11798283827 0.021895990015 0.99277420167 0.11479193659 0.023790889015 0.99310462938 0.1114646935 0.025544610356 0.99344003089 
0.10801032581 0.027155827514 0.9937788137 0.10444249775 0.02862161541 0.99411899076 0.10077949117 0.029941801151 0.99445813522 
0.097044454603 0.031119953232 0.99479340686 0.093263494204 0.032158682988 0.9951219723 0.089471762828 0.0330641385 0.99544038817 
0.085706719917 0.033847495688 0.99574530137 0.082005144969 0.034520037099 0.99603389663 0.078406029578 0.035096441501 0.99630353523 
0.074954095789 0.035595108419 0.99655148978 0.071692256099 0.036035136066 0.99677564646 0.068655519788 0.036437438597 0.99697479039 
0.065880045114 0.036822313601 0.9971479012 0.063398385119 0.037211367164 0.9972943191 0.061234337901 0.037625745534 0.99741398583 
0.059408883973 0.038084416016 0.99750697329 0.057933808899 0.038604224933 0.99757375046 0.056813235377 0.039200336707 0.99761495071 
0.056049904241 0.03988386489 0.99763103678 0.055635676915 0.040662589611 0.99762278706 0.055559539865 0.041541633862 0.997590813 
0.055805715526 0.042523073594 0.99753571882 0.056350803455 0.043602834458 0.99745846018 0.05717223577 0.044776534994 0.99735971313 
0.058248033472 0.046035226872 0.99724015387 0.059548042205 0.047367103269 0.99710099197 0.061040395332 0.048759964437 0.9969435972 
0.062700881801 0.05019611315 0.99676925597 0.064496072114 0.051658173516 0.99657999668 0.066396530283 0.053126121695 0.99637799853 
0.068376514745 0.054581048893 0.9961654287 0.070404434504 0.056003374896 0.99594519809 0.072453337539 0.057370338645 0.99572042167 
0.074503387781 0.05866247778 0.99549382666 0.076528285268 0.059862754213 0.99526874371 0.078509047903 0.060954246122 0.99504819445 
0.08042948182 0.061920523213 0.99483513572 0.082276214029 0.062751543311 0.99463202664 0.084040260628 0.063438291455 0.99444095741 
0.085707499332 0.063973907934 0.99426433289 0.087277862426 0.06435681413 0.9941030003 0.088751966603 0.064587463972 0.99395751817 
0.090126766666 0.064670616274 0.9938283943 0.091406680417 0.064612812379 0.9937152526 0.092598178741 0.064422077126 0.99361731732 
0.093708222097 0.064109690669 0.9935334502 0.094747032431 0.06368730625 0.99346209131 0.095720829699 0.063168604413 0.99340185735 
0.09663503837 0.062564565931 0.99335157142 0.097501210167 0.061882066496 0.99330968175 0.098323796525 0.061129136427 0.99327521852 
0.099101819405 0.060313869163 0.99324773676 0.099838925511 0.05943803841 0.99322671558 0.10053127245 0.058498388443 0.99321266696 
0.10117150656 0.057493302194 0.99320634637 0.10175662733 0.056415071331 0.99320840135 0.10227520347 0.055252572951 0.99322048707 
0.10271054117 0.053991724288 0.99324490356 0.10304982715 0.052618944414 0.99328343378 0.10327642586 0.051121080958 0.99333811713 
0.10337356088 0.049479562608 0.99341113332 0.10331967535 0.047679930483 0.99350474026 0.10309850858 0.045706606158 0.99362045253 
0.10269969404 0.043548380641 0.99375867865 0.10210710473 0.041201235916 0.99391981433 0.10130475565 0.038658171754 0.9941040651 
0.10028632316 0.035919336793 0.99431003949 0.099058432164 0.032993398761 0.99453449546 0.097617963896 0.029891550012 0.99477496368 
0.095967079631 0.026630507498 0.99502820849 0.094122034786 0.023233239064 0.99528953535 0.092097651337 0.019730307898 0.99555448749 
0.089922844345 0.016152953427 0.99581773642 0.087628707445 0.012537321539 0.99607430707 0.085239733285 0.0089274177306 0.99632047509 
0.082795069507 0.0053643253064 0.99655215643 0.080335780722 0.0018890351189 0.99676606778 0.077903235206 -0.0014535793642 0.99695986532 
0.07554221879 -0.004618082862 0.99713191028 0.073290409673 -0.0075639762895 0.99728195718 0.07119622232 -0.010250809239 0.99740965447 
0.069303614599 -0.01264389263 0.99751548408 0.067641787449 -0.014709334181 0.997601235 0.066246753346 -0.016415367039 0.99766823313 
0.065157442939 -0.017737456423 0.99771733987 0.064396140914 -0.018655733558 0.99775001911 0.064396140914 -0.018655733558 0.99775001911 

NormalArray 3 345 double
0.87661205233 0.48089924386 0.016947771633 0.87661205233 0.48089924386 0.016947771633 0.87643452426 0.48121337693 0.017210768399 
0.87627975779 0.48147391492 0.017794812114 0.87515569992 0.48348182236 0.018650156631 0.87343595793 0.48653750318 0.01977082187 
0.87108422558 0.49067903671 0.02112711266 0.86789472753 0.49623034598 0.022675662222 0.86383677726 0.5031818006 0.024374121619 
0.85846180842 0.51220991181 0.026159696703 0.85155160095 0.52352387744 0.02797535806 0.84283553435 0.53734766342 0.029761563227 
0.83119490662 0.55509225396 0.031426371113 0.81597256425 0.57715386935 0.032896587737 0.79519520588 0.60539661781 0.034051720924 
0.76573374219 0.64221947334 0.034727282322 0.72280490672 0.69018073731 0.034693179044 0.65610992908 0.75392180929 0.033491288987 
0.54592106915 0.83729072266 0.030239576868 0.35613160977 0.93414657847 0.023247504407 0.039085490381 0.99918583747 0.0099993323186 
-0.37439220671 0.92722757073 -0.0089167046306 -0.70226467831 0.71147137868 -0.025155494888 -0.87165991894 0.48892356634 -0.034098856277 
-0.94499806053 0.32486834552 -0.037937101632 -0.97633383644 0.21269534415 -0.039152655129 -0.98993056041 0.13607903386 -0.038986948031 
-0.99585946561 0.082574298892 -0.03801854693 -0.99832535858 0.044862588544 -0.036521590459 -0.9992309003 0.018362136002 -0.03464736431 
-0.99947205141 0.0002783521698 -0.03248908998 -0.99948278846 -0.011285450977 -0.030113023356 -0.99947110927 -0.017250062735 -0.027566956259 
-0.99952359441 -0.018247826444 -0.024891786568 -0.99964497235 -0.014848524251 -0.022123530084 -0.99978999991 -0.0069244106676 -0.019287524859 
-0.99985133522 0.0052934494857 -0.016409961858 -0.99966573933 0.022044394621 -0.013507563293 -0.99900317481 0.043363449212 -0.010595658671 
-0.99755139329 0.069513942239 -0.0076830710455 -0.99494778446 0.10027988722 -0.0047802113608 -0.99073056967 0.13582844406 -0.0018899994211 
-0.98444979347 0.17566344397 0.00097908031493 -0.97571730074 0.21900040203 0.0038174533903 -0.96423971869 0.26494906253 0.0066150704283 
-0.95002663324 0.31202861704 0.0093561891715 -0.93334170074 0.35878769058 0.012027582634 -0.91493269018 0.40334183097 0.01461300232 
-0.89567715365 0.44437574534 0.017106530613 -0.87676849992 0.48051696522 0.01950496559 -0.8591198246 0.51130921563 0.021817721932 
-0.84375379936 0.53619113581 0.024053938067 -0.83100688762 0.55564325321 0.026232191815 -0.82125351024 0.56985792249 0.02836582603 
-0.81447811747 0.5793936946 0.03046871864 -0.81023553343 0.58519962767 0.032554202974 -0.80824165893 0.58783176487 0.03463000119 
-0.8078376547 0.58826108679 0.036704460503 -0.80857787736 0.58710967928 0.038781964215 -0.80988002512 0.58517016231 0.040868399225 
-0.81152801312 0.58273173727 0.042965175438 -0.81289711793 0.5806601452 0.045078503153 -0.81400780124 0.57893235737 0.047208316139 
-0.8145185548 0.57803394055 0.049358762813 -0.81452102479 0.57784105545 0.051528776449 -0.81396337881 0.57842707209 0.053719086239 
-0.81281367875 0.57983246689 0.055930617544 -0.81132435086 0.58169587997 0.058160991452 -0.80946378942 0.58405384123 0.060410960554 
-0.80753884785 0.58647472062 0.062677039623 -0.80558200266 0.58891247031 0.064959520469 -0.80370514739 0.59121436698 0.067257775316 
-0.80209624527 0.59312861546 0.069570531388 -0.80068207277 0.59475939822 0.071899072107 -0.79964772234 0.59586211041 0.074241939129 
-0.79887761167 0.59659604535 0.07660104599 -0.79833803802 0.59700835434 0.078977223973 -0.79799097952 0.59715077453 0.08137167252 
-0.79771854826 0.59718073826 0.083787132705 -0.79741969507 0.59723279181 0.086225415668 -0.79693945386 0.59751289167 0.088689633947 
-0.79612551132 0.59822205631 0.091184108092 -0.79497389109 0.59936188008 0.093711521117 -0.79334891582 0.60110597568 0.096276184863 
-0.79116022544 0.60356259855 0.098882189045 -0.78828183872 0.60687940038 0.10153391622 -0.7849404027 0.61074056057 0.10423306518 
-0.78102185465 0.61527176045 0.10698375272 -0.77662439858 0.62032334963 0.10978836657 -0.77189497983 0.62569026624 0.11264914939 
-0.76694443424 0.63122104537 0.11556914235 -0.76185834882 0.6368026683 0.11855048705 -0.7569435008 0.64206770197 0.12159606358 
-0.75231212322 0.64689604826 0.1247075459 -0.74802341755 0.65123433007 0.12788594188 -0.74438018192 0.65475370253 0.13113250472 
-0.74136396188 0.65749816464 0.13444567501 -0.73921328682 0.65921792562 0.13782395702 -0.73786288963 0.66000254281 0.14126216618 
-0.73743213185 0.65972701428 0.1447553714 -0.73800256118 0.65830128486 0.14829577888 -0.73937512401 0.65594131988 0.15187300903 
-0.74174932711 0.65240650352 0.15547890498 -0.74491133331 0.64791513639 0.15910085335 -0.74875936703 0.64255656601 0.16272820827 
-0.7534171339 0.63615258567 0.16635056385 -0.75859823696 0.6290018968 0.16995684363 -0.76421677359 0.62117398858 0.17353846512 
-0.77029447057 0.61260647072 0.1770868167 -0.77658742416 0.60357019633 0.18059620907 -0.78301834331 0.59414095047 0.18406195973 
-0.78957331251 0.58431609912 0.18747981351 -0.79611638246 0.57426104765 0.19084798852 -0.80247678919 0.56420720569 0.19416805056 
-0.80876459645 0.5540025724 0.19743600811 -0.81477594852 0.54394581335 0.20065668655 -0.82057854701 0.53395251648 0.20382727573 
-0.8260125598 0.52428379637 0.2069535018 -0.83125929172 0.51468123912 0.21002669361 -0.83608483801 0.50553831521 0.21305669553 
-0.84073627364 0.49648169202 0.21602881214 -0.84501561023 0.48786133969 0.21895189358 -0.84915231771 0.47931358199 0.221808096 
-0.85283880238 0.47139595102 0.22461485819 -0.85659412661 0.46321472931 0.22732931358 -0.86000971652 0.45551473508 0.22997741978 
-0.8633894191 0.44776007305 0.23252876806 -0.86660684346 0.44019655602 0.23498844852 -0.8698918976 0.43239248629 0.23732851554 
-0.87336367752 0.4241017477 0.23952785724 -0.87679784489 0.41575685746 0.24160251381 -0.88046298635 0.40679895509 0.24351496835 
-0.88472152059 0.39641054717 0.24520707391 -0.88924013151 0.38521223525 0.24670533499 -0.89426868731 0.37255946954 0.24795757007 
-0.8998450903 0.35820658383 0.24893142986 -0.90657647646 0.34041171188 0.24947737123 -0.9136217755 0.32086025001 0.24968770755 
-0.9220454879 0.29615753295 0.24924452638 -0.93099077561 0.2676901486 0.24818976626 -0.94057499595 0.2338035521 0.2462814975 
-0.95051125214 0.19327061104 0.24325877263 -0.9599232776 0.14640529983 0.23898282218 -0.96844075294 0.089236678559 0.23272155733 
-0.97419793361 0.023960917831 0.22441983104 -0.97561833002 -0.051017520358 0.21346214358 -0.97054483909 -0.13513290916 0.19945378459 
-0.95627649736 -0.22921722607 0.1816444986 -0.93082668206 -0.32838803938 0.16038386316 -0.89223221184 -0.43075868958 0.13553092455 
-0.84043049914 -0.53106175754 0.10793509986 -0.7751530045 -0.6269502622 0.077917830771 -0.70074596174 -0.71182351988 0.047564415811 
-0.62018771578 -0.78425149101 0.017798765308 -0.53509543292 -0.84471891832 -0.011082720814 -0.450769024 -0.89184744664 -0.037622053795 
-0.3683358839 -0.92763118054 -0.061879475723 -0.29165661737 -0.95290757973 -0.083087676755 -0.21989207152 -0.97019295627 -0.1018484388 
-0.15421167349 -0.98095144295 -0.11812292894 -0.09310236522 -0.98679725692 -0.13252593457 -0.03979433516 -0.98871110944 -0.14445328986 
0.0065654575399 -0.98800034826 -0.15431204294 0.052980311806 -0.98506724286 -0.16381579171 0.089843831502 -0.98118311838 -0.17090282078 
0.12291218097 -0.97651434484 -0.17695290361 0.15372706619 -0.97114326573 -0.18234238824 0.17986528219 -0.96582715356 -0.1866182995 
0.20489341724 -0.96005837012 -0.19054294407 0.22314612354 -0.95548092718 -0.19303368965 0.24320898597 -0.95000751362 -0.19579354739 
0.26076244111 -0.94488165379 -0.19799396366 0.27427882213 -0.9407556681 -0.19937377129 0.29090110058 -0.93534295966 -0.20127120385 
0.30482987568 -0.93060489664 -0.20261607349 0.31732461938 -0.9261915539 -0.20365237885 0.33292153928 -0.92035918073 -0.20518827238 
0.34460102991 -0.91587145871 -0.20598446859 0.35887158783 -0.91010255649 -0.20718233543 0.3716640534 -0.90474846997 -0.20807699898 
0.38398206002 -0.89941168697 -0.20884538524 0.39834908156 -0.89289272977 -0.20990612746 0.41084752339 -0.88704446499 -0.21060966182 
0.42222677825 -0.88157066954 -0.21108695443 0.43494662497 -0.87520864626 -0.21173393431 0.44736083968 -0.86879436497 -0.21228431526 
0.45723519508 -0.86361085335 -0.21239649327 0.46791841513 -0.85782156128 -0.21259004158 0.48019261535 -0.85091555008 -0.21297365752 
0.48750636696 -0.84684746065 -0.21257215376 0.49691663358 -0.84139424002 -0.21243726634 0.50475885204 -0.83681724142 -0.21202689864 
0.51428582924 -0.83105175947 -0.21180901522 0.51981800659 -0.82781661695 -0.21097129833 0.52830826634 -0.82254509025 -0.21049928792 
0.53403740826 -0.81907216676 -0.20958251889 0.54081592732 -0.81482473525 -0.2087553199 0.54778185766 -0.81037986691 -0.20789301989 
0.55393525324 -0.80645249617 -0.20685769659 0.55829998277 -0.80377963479 -0.20552232953 0.5647300106 -0.79956163556 -0.2044045158 
0.57018556183 -0.79601443358 -0.2030995978 0.57406520707 -0.79362013539 -0.20153465889 0.57815659073 -0.79104627325 -0.19995186964 
0.58217156942 -0.788507798 -0.19832225355 0.5853197209 -0.78661906372 -0.19654839841 0.58740216131 -0.78554674175 -0.19461504929 
0.58848385949 -0.78524788994 -0.1925421992 0.58964819881 -0.78487798631 -0.1904771594 0.59028970874 -0.78490911852 -0.18835003429 
0.58868128933 -0.7866886209 -0.18594448996 0.58766695113 -0.78798922738 -0.18363151167 0.5855148469 -0.79015335522 -0.18119061591 
0.58258856611 -0.79288609863 -0.17866784051 0.57924499528 -0.79590283841 -0.17610765813 0.57562019839 -0.79909337716 -0.17352568047 
0.57111329165 -0.80289765396 -0.17083607747 0.56741694278 -0.80605753205 -0.16825358266 0.56286948628 -0.8097969893 -0.16554992458 
0.5575518277 -0.81403724447 -0.16272468786 0.55299226746 -0.81768479612 -0.15997226736 0.54830808698 -0.82137525356 -0.15716530978 
0.54305698703 -0.82541007588 -0.15423136998 0.53780569077 -0.82939320717 -0.15123474098 0.53319062153 -0.83290393748 -0.14825246048 
0.5265683581 -0.83769125633 -0.14491074257 0.52085722127 -0.84181731493 -0.14160283659 0.5157271776 -0.84552065691 -0.13827616216 
0.5082086638 -0.8506647466 -0.13451186911 0.50179152471 -0.85504281394 -0.13079392976 0.49666424839 -0.85857951566 -0.12714495533 
0.49086111793 -0.8624703391 -0.12328940373 0.48415882683 -0.86682284705 -0.11919891877 0.47949392039 -0.86993822752 -0.11529553599 
0.47457002325 -0.87315742805 -0.11126274702 0.47179369456 -0.87513701042 -0.1074519556 0.46970339834 -0.87671683292 -0.10366442232 
0.46866408115 -0.87770195714 -0.099966261687 0.4704345274 -0.87712916783 -0.096621831753 0.47294733171 -0.87613186841 -0.093347579404 
0.47963571935 -0.87277324572 -0.090644571204 0.48718016447 -0.86885143483 -0.088049256319 0.49778655684 -0.86303651627 -0.085886642808 
0.51171172656 -0.85502163658 -0.084196852004 0.52804366108 -0.84516547849 -0.082856538432 0.54854967669 -0.83207543332 -0.082120189123 
0.57170216039 -0.81637624608 -0.081770805543 0.59712596971 -0.79797006277 -0.081757906132 0.62531515573 -0.77603595453 -0.082153230591 
0.65588566196 -0.75029385471 -0.082904342531 0.68640043518 -0.72239479969 -0.083667173697 0.72032414208 -0.68841705566 -0.084941672966 
0.75206740861 -0.65346068995 -0.085928688995 0.78432507789 -0.61421562744 -0.087024911427 0.81486092655 -0.57295174895 -0.08790883778 
0.84312525583 -0.53038425964 -0.088500509074 0.86902531866 -0.48673547877 -0.088789465792 0.89254896152 -0.44212571624 -0.088776135994 
0.91226928024 -0.39997712854 -0.088221635506 0.92996431429 -0.35710494687 -0.08742099905 0.94403405969 -0.31841721721 -0.086082343891 
0.95599916998 -0.28094518909 -0.084471224203 0.96552985226 -0.24686805331 -0.082512233274 0.97311504863 -0.21586994842 -0.08029487844 
0.97870590013 -0.18995939375 -0.077782965782 0.98322913444 -0.16615221608 -0.075192488225 0.9861986251 -0.14891464992 -0.072365039087 
0.98827393646 -0.13597009087 -0.069474894056 0.98920477064 -0.13061991457 -0.066425594958 0.98928795402 -0.13152963385 -0.063319029081 
0.98786841039 -0.1432435872 -0.059977316385 0.98427530957 -0.16742082625 -0.056323901808 0.97606136558 -0.21119836612 -0.05195633531 
0.95849549836 -0.28131570505 -0.046344942688 0.91892961722 -0.39256978805 -0.038174862178 0.82807078746 -0.56005910863 -0.025150860966 
0.62519105209 -0.78046188611 -0.0039233564711 0.2825757007 -0.95896130114 0.023328015112 -0.097872202004 -0.99409576723 0.046846959981 
-0.36128232464 -0.93053193211 0.059878253317 -0.52067204184 -0.8511533895 0.066622311492 -0.61420529217 -0.78599124161 0.070495582671 
-0.6767404899 -0.7325591152 0.073344747993 -0.71402293028 -0.69601708871 0.075706454525 -0.74233856818 -0.66546942754 0.077999302579 
-0.76473783675 -0.63931829094 0.080300460214 -0.78045440389 -0.61972795122 0.082632862215 -0.7964595117 -0.59868850486 0.084996002099 
-0.80907047135 -0.58117990133 0.087377884352 -0.82185663962 -0.56258305823 0.089732750404 -0.83500048953 -0.54250094068 0.092015823921 
-0.84968057881 -0.51882183608 0.094163774374 -0.8631499121 -0.49570228918 0.096184560811 -0.88043194257 -0.46395879062 0.097886848508 
-0.89775447111 -0.42915952829 0.099292541949 -0.91719437645 -0.38563501715 0.10020034609 -0.93732786611 -0.33364157975 0.10049760038 
-0.95716093715 -0.27174283749 0.099993853104 -0.97571450949 -0.19573308452 0.098334915433 -0.98962759362 -0.10745258071 0.095347621092 
-0.99583625899 -0.007861273509 0.090820403272 -0.99118365805 0.10201901237 0.084540387542 -0.97323206529 0.21666568069 0.076650700646 
-0.94304874829 0.32564406971 0.067933778135 -0.90238110653 0.42692339044 0.058692054547 -0.85748879612 0.51206112183 0.050063679883 
-0.80718843618 0.58883761448 0.041437812082 -0.76145291328 0.64730594435 0.034416206412 -0.7119325611 0.70171745848 0.027288036104 
-0.66767970663 0.74414012195 0.021431011584 -0.61934073834 0.78497360177 0.01528052207 -0.56636521684 0.82410752358 0.0087881016589 
-0.50762076848 0.86157866214 0.0018342165513 -0.44629528706 0.8948711928 -0.0051053927459 -0.36854043543 0.92950989773 -0.013758541624 
-0.28501986956 0.95825476153 -0.02261605547 -0.19615107445 0.98006539212 -0.031568705374 -0.10515224022 0.99364310939 -0.040204197955 
-0.015913360523 0.9987163369 -0.048087871349 0.072276775471 0.99584988426 -0.055308911979 0.14679411398 0.9873061128 -0.060647569925 
0.21301101503 0.97490286899 -0.064735643249 0.27284237282 0.95966594472 -0.067810870408 0.32519709717 0.94306575478 -0.069812822246 
0.36842506514 0.92696930971 -0.070646091447 0.40239398553 0.91275875179 -0.070360084149 0.43678317563 0.89685387968 -0.069811001887 
0.46366562467 0.88336909116 -0.068361080169 0.48812354943 0.8702393367 -0.066474787388 0.51009639847 0.85771888327 -0.064187082389 
0.52662142155 0.84788634871 -0.061307569235 0.54288707285 0.83777930635 -0.058304888112 0.55907760752 0.82727280573 -0.055244308875 
0.57087522661 0.81939862051 -0.051839910726 0.58310441496 0.81094623034 -0.048533006782 0.59263265973 0.80420721845 -0.045136242722 
0.60249136257 0.79702201449 -0.041953146011 0.61141934023 0.79034812416 -0.038938836882 0.6175124341 0.78573669291 -0.036003376779 
0.62268575975 0.78176085819 -0.033352738968 0.63105596709 0.77510317633 -0.031359726563 0.6347774819 0.77213372956 -0.029445749321 
0.63676467242 0.7705537787 -0.027885947879 0.63991578142 0.76797261743 -0.026941632461 0.63991578142 0.76797261743 -0.026941632461 

BinormalArray 3 345 double
-0.48060742499 0.87673746318 -0.01865271282 -0.48060742499 0.87673746318 -0.01865271282 -0.48091931718 0.87656629013 -0.018658761367 
-0.48117513648 0.87642578056 -0.018663847483 -0.48317588436 0.87532346948 -0.018705308046 -0.48622254627 0.8736333597 -0.018772009005 
-0.49035376644 0.87131920722 -0.018868568086 -0.49589398478 0.86817501684 -0.019007787756 -0.50283412024 0.86416975216 -0.019196014427 
-0.51185084536 0.85885389338 -0.019460265348 -0.52315344102 0.85200805737 -0.019817853952 -0.53696568114 0.84336008723 -0.020288433614 
-0.55469727363 0.83178878852 -0.020936711982 -0.5767433026 0.81663455965 -0.021798139399 -0.60496512311 0.79592053145 -0.02297188352 
-0.64175763848 0.76651302833 -0.024594935531 -0.68967383763 0.72362283594 -0.026832610627 -0.7533457479 0.65694066014 -0.029985882811 
-0.83660880332 0.54671912776 -0.034407928591 -0.93331255019 0.35681290082 -0.040152676973 -0.99817746274 0.039502599093 -0.045621239941 
-0.92613574168 -0.3743923471 -0.04585802461 -0.71046430805 -0.70265040954 -0.039023953567 -0.48806640507 -0.87226857376 -0.030638529302 
-0.32414133374 -0.94570091395 -0.024128346895 -0.21206617508 -0.97705824322 -0.019624646166 -0.13552302319 -0.99063548783 -0.016578312311 
-0.082075450454 -0.99652059163 -0.01450278881 -0.044410667615 -0.99892755679 -0.013093085155 -0.017950688263 -0.99976505664 -0.012149251593 
9.6719897922e-05 -0.99993337947 -0.011542411956 0.011626690095 -0.9998698941 -0.011181008275 0.017559148702 -0.99978520819 -0.01100971271 
0.018525839204 -0.99976804195 -0.010984333195 0.015096079651 -0.99982482166 -0.011065006946 0.0071418908995 -0.99991143938 -0.011229728331 
-0.0051059269906 -0.99992143023 -0.011448269237 -0.021886894223 -0.99969199976 -0.011699123166 -0.043236211733 -0.99899333289 -0.011956204857 
-0.06941735026 -0.99751316028 -0.012195349521 -0.10021442266 -0.99488874989 -0.012387285307 -0.13579464722 -0.99065807158 -0.01250595867 
-0.17566182322 -0.98437090991 -0.012523401642 -0.21903136409 -0.97563881477 -0.012416306591 -0.26501286085 -0.96416809822 -0.012168071413 
-0.31212530843 -0.94996797905 -0.011774150609 -0.35891718743 -0.93330170176 -0.011242155479 -0.40350397685 -0.91491650046 -0.010598955615 
-0.44457049612 -0.89568938607 -0.0098791531101 -0.48074457382 -0.87681313067 -0.0091317370704 -0.51157039545 -0.85920032986 -0.0083978371939 
-0.53648720868 -0.84387307947 -0.0077266213348 -0.55597613008 -0.8311675776 -0.0071414800288 -0.57023014515 -0.82145790267 -0.0066705099419 
-0.57980834399 -0.81472833842 -0.0063260426812 -0.58566010646 -0.81053379995 -0.0060990840907 -0.58834179574 -0.80859017917 -0.005987782974 
-0.58882440573 -0.80823896237 -0.0059664836431 -0.5877300273 -0.80903473579 -0.0060175826704 -0.5858510795 -0.81039569353 -0.0061100376704 
-0.58347671905 -0.81210594798 -0.0062327825312 -0.58147215539 -0.81354159021 -0.006341412351 -0.57981437365 -0.81472319058 -0.0064354359135 
-0.57898849419 -0.81530992643 -0.0064844005662 -0.57887069817 -0.81539350789 -0.0064916946721 -0.57953419102 -0.8149224099 -0.0064488200275 
-0.58101931197 -0.8138650089 -0.0063487329859 -0.58296508005 -0.81247346151 -0.006212067598 -0.58540794189 -0.81071643618 -0.0060333803393 
-0.58791688949 -0.80890023931 -0.0058424219196 -0.59044602684 -0.80705740407 -0.0056423331884 -0.59284299894 -0.80529964979 -0.0054454249102 
-0.59485665188 -0.80381449978 -0.0052738651683 -0.59659114956 -0.80252898877 -0.0051207867743 -0.59780263437 -0.80162766205 -0.0050101669483 
-0.59865028333 -0.80099533801 -0.0049301880639 -0.59918134947 -0.80059847054 -0.0048784642615 -0.59944766048 -0.80039925237 -0.0048517163801 
-0.59960644218 -0.80028040993 -0.0048352838174 -0.59979199028 -0.80014147453 -0.0048155096374 -0.60020973792 -0.79982843199 -0.0047696835973 
-0.60106015339 -0.79919012056 -0.0046736723691 -0.60234492339 -0.79822310363 -0.0045243893688 -0.60423708133 -0.79679299447 -0.0042980827178 
-0.60684449136 -0.79481063593 -0.0039769732172 -0.61031416425 -0.79215157152 -0.0035367577096 -0.61433181614 -0.78904204673 -0.0030113401261 
-0.6190226194 -0.78536955526 -0.0023787295001 -0.62423782102 -0.78123262236 -0.001653045616 -0.62977373153 -0.77677816074 -0.00085795227965 
-0.63548017077 -0.77211718827 -1.1779205767e-05 -0.6412452467 -0.76733550356 0.00087094797503 -0.64670468897 -0.76273851244 0.0017340416095 
-0.65174002606 -0.75843813657 0.0025556641311 -0.65629909812 -0.75449350612 0.0033231071938 -0.66005672048 -0.75120524737 0.0039751807104 
-0.66305747656 -0.7485548939 0.0045114958107 -0.66505487514 -0.74677855537 0.0048787598901 -0.66613850111 -0.74581073709 0.0050834815106 
-0.6661854855 -0.74576870707 0.0050925894692 -0.66510744847 -0.74673173384 0.0048784895412 -0.66311843055 -0.74850112011 0.0044744016035 
-0.65998113748 -0.75127244035 0.003823421342 -0.65591138842 -0.75483208415 0.0029623088982 -0.65099748214 -0.75907750232 0.0019036070681 
-0.64506360964 -0.76412863774 0.00060374144639 -0.63840425985 -0.76970074132 -0.00087739762288 -0.63108777008 -0.77570731412 -0.0025277002166 
-0.62305245009 -0.78216788659 -0.0043636713238 -0.61456487708 -0.78884091616 -0.0063262027177 -0.60569939446 -0.79564923144 -0.0083990510214 
-0.59645317066 -0.80257809817 -0.010583550931 -0.58698865164 -0.80949330714 -0.012841671974 -0.57753311694 -0.81622724433 -0.015119009509 
-0.56793675278 -0.82288716989 -0.017451374695 -0.55849272763 -0.82927386044 -0.019767083053 -0.54911755285 -0.83545324432 -0.022085961884 
-0.54006707942 -0.84126982906 -0.024343878912 -0.53108678008 -0.8468996916 -0.026603465824 -0.52256199019 -0.85211586243 -0.028766706644 
-0.5141253028 -0.85715737952 -0.030925713511 -0.5061188851 -0.86183247604 -0.032991777678 -0.49818478578 -0.86636192729 -0.035056100142 
-0.49086806533 -0.87044894261 -0.036975407184 -0.48329143904 -0.87459135782 -0.038978734923 -0.47618300665 -0.87839579416 -0.040872643459 
-0.46901637815 -0.88215198506 -0.042796171372 -0.46203062843 -0.88573755475 -0.044684253256 -0.454801851 -0.88936999521 -0.046650701508 
-0.44708791892 -0.89315997908 -0.04876109639 -0.43931050171 -0.89689214909 -0.050899469362 -0.43092202299 -0.90081869016 -0.053215576264 
-0.42112225806 -0.90527783903 -0.055929222489 -0.41051661186 -0.90995075001 -0.058870569374 -0.39847391644 -0.9150673796 -0.062211162342 
-0.38475243805 -0.92065627803 -0.066011962122 -0.36764707007 -0.92727158414 -0.070732178802 -0.34880174622 -0.93411796941 -0.075900995134 
-0.32489095523 -0.94215496306 -0.082400805787 -0.29726193306 -0.95056191968 -0.08981859495 -0.26428265861 -0.9593987423 -0.098532886032 
-0.22473143543 -0.96833067524 -0.10877263133 -0.17889175529 -0.97648083323 -0.1203450133 -0.12282448552 -0.98333194103 -0.13406132744 
-0.058640142023 -0.98707174848 -0.14916667557 0.015292465539 -0.98604557278 -0.16577173731 0.098488035576 -0.97808764568 -0.18342481899 
0.19186314869 -0.96043069107 -0.20189457602 0.29066046158 -0.93123755747 -0.21980242865 0.39308477511 -0.88858639639 -0.23642879633 
0.4939323992 -0.83260451874 -0.25060028011 0.59089397811 -0.76310459371 -0.26175501084 0.67729221006 -0.68473349787 -0.26910090874 
0.75160816955 -0.60056407244 -0.27277821461 0.81426325044 -0.51221936429 -0.27314223735 0.86370675697 -0.42512650683 -0.2706992633 
0.90186853301 -0.34035800457 -0.26606310885 0.92943846551 -0.26180241109 -0.26000699296 0.94893230037 -0.18851837413 -0.25295911119 
0.96175511053 -0.12164134487 -0.24541901024 0.96955558625 -0.059577872568 -0.237513036 0.97318859454 -0.0055745837641 -0.22994104349 
0.97397630474 0.041279772042 -0.22285900974 0.97256297946 0.088113228277 -0.21530747779 0.96986839903 0.1252101045 -0.20899214886 
0.96625897834 0.15842310326 -0.20309039154 0.96187033891 0.18932130235 -0.19739021151 0.95736739243 0.21546744533 -0.19240960454 
0.95237256616 0.24046890678 -0.18751319978 0.94831630945 0.25862136553 -0.18387812951 0.943430976 0.27858254176 -0.17980478569 
0.93879808546 0.29600190964 -0.17618463104 0.93501154704 0.30934680403 -0.17337232114 0.93005303766 0.32580650102 -0.16985720774 
0.9256662661 0.33954679667 -0.16688300299 0.92154823424 0.35183694599 -0.16419383483 0.91612562224 0.36723597411 -0.16078427656 
0.91189910293 0.3786907753 -0.15821922377 0.90648646671 0.39274015807 -0.15504016872 0.90143178263 0.40529741029 -0.15216685076 
0.89637487772 0.41737116261 -0.14937667559 0.89021071049 0.43149316628 -0.14607716585 0.88464621834 0.4437330391 -0.14318539865 
0.87941270636 0.45484379257 -0.14053617416 0.87333905781 0.46729176654 -0.13754015786 0.8672001786 0.47942613041 -0.13458987971 
0.86219614346 0.48900944181 -0.13224059899 0.85661373711 0.49939663575 -0.12967615661 0.84997055806 0.51136934753 -0.126694281 
0.84598072016 0.51836925963 -0.12493971257 0.84067904592 0.52746140772 -0.12265074447 0.83619313569 0.5349771318 -0.12074977545 
0.83057575372 0.54417110774 -0.11841335584 0.82734096398 0.54936023666 -0.11709081817 0.82217094648 0.55750087351 -0.1150117855 
0.81869648718 0.56286988214 -0.1136378355 0.81447961905 0.56928000268 -0.11199655662 0.81006670363 0.57586820774 -0.11030749287 
0.80613788007 0.58163398957 -0.10882839934 0.8033973905 0.58560152473 -0.10781227743 0.79917731731 0.59162650158 -0.10627181249 
0.79559101185 0.59666849016 -0.10498406882 0.7931017316 0.60012669348 -0.10410377084 0.7904373479 0.60379106028 -0.10317535833 
0.78780445559 0.60737521739 -0.10227162386 0.78579292997 0.61008907925 -0.10159127224 0.78456498894 0.61173527238 -0.10118169128 
0.78408184814 0.61238067064 -0.10102261941 0.78353351862 0.6131114426 -0.1008443561 0.783374788 0.61332261734 -0.10079339556 
0.78490384178 0.61128435251 -0.10127882079 0.7859775305 0.60984709782 -0.1016161347 0.78788943256 0.60727524522 -0.10221065797 
0.79035588112 0.60393266288 -0.10297048062 0.79310255992 0.60017662655 -0.10380918261 0.79602309734 0.59614304479 -0.10469335533 
0.79954193181 0.59122722043 -0.10575005009 0.80244332061 0.58712701639 -0.1066141821 0.80590929787 0.58217206049 -0.10763779816 
0.80986342841 0.57644130371 -0.10879637264 0.81324765659 0.57146884855 -0.1097797986 0.81667632054 0.56636597132 -0.11076720637 
0.82044080896 0.56068563052 -0.11184141774 0.82415728126 0.55499567962 -0.11289185691 0.82741776108 0.54993505328 -0.11380371622 
0.83191776283 0.54284125031 -0.11504874117 0.83577837344 0.53665086589 -0.11610494664 0.83923085004 0.53103093462 -0.11703728814 
0.84408540926 0.52298913485 -0.11833083583 0.84819930236 0.51604146362 -0.11941168829 0.85149909453 0.51037807648 -0.12026433831 
0.85514843968 0.50401798494 -0.12119000357 0.85925376902 0.49673672639 -0.1222112314 0.86216058827 0.4914978188 -0.12291872987 
0.86517693597 0.48598684799 -0.12363516101 0.86699168752 0.48263428717 -0.12405465977 0.86842492985 0.47996742162 -0.12437610464 
0.86928604882 0.47835742181 -0.12456300549 0.86863035705 0.47958267515 -0.12442572288 0.86756736142 0.48155824428 -0.12421163699 
0.86419315036 0.48775318496 -0.12355982126 0.86027164967 0.49481740279 -0.12283495702 0.85449163106 0.50498055322 -0.12181417532 
0.84654614265 0.51850294658 -0.12047540312 0.83678470737 0.53446466397 -0.11890700771 0.82382722174 0.55465134378 -0.11692132209 
0.80828609179 0.57752014893 -0.1146475966 0.79006065014 0.60269253411 -0.11209762903 0.76833401001 0.63066761372 -0.10918429402 
0.74282469087 0.66105759247 -0.10589777185 0.71516797886 0.6914011725 -0.1024655097 0.68146878892 0.72519832111 -0.098426037133 
0.64678977365 0.75680341166 -0.094401190665 0.607841558 0.78893960946 -0.090016292877 0.56687928196 0.8193483151 -0.08553489484 
0.52461400368 0.84747454401 -0.081037302507 0.48126687692 0.87322538174 -0.076548193121 0.4369576334 0.8965892727 -0.072081222897 
0.39509306479 0.91612273068 -0.067975087193 0.35250267917 0.93362565306 -0.063914013557 0.31407513163 0.9474776854 -0.060356005225 
0.27685368125 0.95921913515 -0.057014822108 0.24301033936 0.96851535009 -0.054073945694 0.21223078427 0.97586214606 -0.051489475571 
0.18651841518 0.98120832434 -0.049407540291 0.16289759174 0.98549571695 -0.047566442765 0.1458244368 0.98822703203 -0.0462878688 
0.13302823023 0.99007329155 -0.045369233131 0.12780509444 0.9907774255 -0.045010564875 0.1288245459 0.99064235145 -0.045077354459 
0.14062653879 0.98900222039 -0.045812494391 0.16487194953 0.98518301908 -0.047240439955 0.2086973083 0.97671876885 -0.049657628682 
0.27884935741 0.95885924481 -0.05321639339 0.39014360481 0.91891167983 -0.058217628721 0.55773741783 0.8275246996 -0.064279423649 
0.77845652199 0.62392990124 -0.068679849432 0.95763022343 0.28060608818 -0.064842720876 0.99364690389 -0.10023920511 -0.051165732228 
0.93078504716 -0.36373357218 -0.036566165413 0.85189507088 -0.52310295389 -0.025260400514 0.78707254718 -0.61661400408 -0.01743489182 
0.73391380687 -0.67914497762 -0.011516225876 0.69758532504 -0.71646114322 -0.0076252570993 0.66723872815 -0.74483079076 -0.0044241147542 
0.64128358817 -0.76730207422 -0.0016989536091 0.62187714231 -0.78311474228 0.00034683038424 0.60103556217 -0.7992181738 0.0025619654999 
0.58372050214 -0.81194262814 0.0044208588618 0.56532723224 -0.8248417573 0.0064184034232 0.54545824438 -0.83809389308 0.0085982570831 
0.52200781528 -0.85286729103 0.011190383631 0.49911486733 -0.86642696816 0.013735284843 0.46762797596 -0.88375721807 0.017241102404 
0.43309122372 -0.9011037388 0.02107234809 0.38985266501 -0.92051500659 0.02582677343 0.33816224806 -0.94056306511 0.031423153041 
0.27658120859 -0.96024120375 0.037942926609 0.20090736846 -0.97854318254 0.045710712109 0.11296156149 -0.99211007575 0.054380908693 
0.013686168278 -0.99787569956 0.063692833414 -0.095915456446 -0.99268187532 0.073368382991 -0.21034477505 -0.97411794912 0.082760478598 
-0.31918306261 -0.94331643017 0.090974090348 -0.42039426545 -0.90204231925 0.097919946206 -0.50552001671 -0.85662309969 0.10318128599 
-0.58233023093 -0.80582624608 0.1074037396 -0.6408455156 -0.75971417274 0.11023339274 -0.69533046783 -0.7098280335 0.11251534726 
-0.73782290473 -0.66529520973 0.11401598645 -0.77874850804 -0.61667135828 0.11518331955 -0.81799994158 -0.56340458653 0.11598003044 
-0.85561993997 -0.50435773925 0.11635200551 -0.88908160792 -0.44274472105 0.11623685493 -0.92396846819 -0.36463475314 0.11542862121 
-0.95300273803 -0.28077162556 0.11381157935 -0.97514382996 -0.19158046313 0.11131683173 -0.98907885744 -0.10029958244 0.1079954051 
-0.99451529494 -0.010837495015 0.10402825018 -0.99201870568 0.07752181787 0.099444735105 -0.98377954117 0.15211030797 0.095080326985 
-0.97163731933 0.21832987559 0.090845941598 -0.95662488926 0.27810741219 0.086747268154 -0.94020433656 0.33035212715 0.082965520613 
-0.92423245169 0.37341357783 0.079728759757 -0.910091483 0.40716445899 0.077140105672 -0.89425454464 0.44131577554 0.074492923508 
-0.88079765447 0.46792078908 0.072426701021 -0.86768452969 0.49208100296 0.070568006004 -0.85517231415 0.51374023809 0.068929535657 
-0.84533056282 0.52993190296 0.067737860861 -0.83522142918 0.54586504689 0.066607167948 -0.82472202386 0.56172947769 0.065525393968 
-0.81685154839 0.57319902714 0.064779805314 -0.80841536575 0.5851176318 0.06404649382 -0.80169671109 0.59434723596 0.063511782699 
-0.79454234073 0.60393259701 0.062991166435 -0.78790539168 0.61261131959 0.062549699197 -0.78333229964 0.61847616795 0.062271486438 
-0.77939685245 0.62345015244 0.062052025113 -0.77278260526 0.63166344008 0.061711777412 -0.76984993092 0.63524801409 0.061571458086 
-0.76830024052 0.63712813215 0.061501899495 -0.7657420778 0.64021092031 0.061392571208 -0.7657420778 0.64021092031 0.061392571208 

