# vtk DataFile Version 4.1
vtk output
ASCII
DATASET POLYDATA
POINTS 139 float
4.61372 11.2496 229.811 4.28835 11.26 225.55 3.96352 11.2706 221.29 
3.64079 11.2823 217.036 3.32171 11.296 212.792 3.0078 11.3122 208.562 
2.70045 11.3319 204.351 2.40096 11.3557 200.162 2.11045 11.3842 195.998 
1.82991 11.4179 191.861 1.5601 11.4573 187.755 1.30157 11.5027 183.681 
1.05467 11.5545 179.639 0.819486 11.6128 175.631 0.595899 11.6777 171.655 
0.383547 11.7492 167.71 0.181855 11.8274 163.795 -0.00996686 11.9121 159.908 
-0.192895 12.0032 156.045 -0.368081 12.1007 152.202 -0.536825 12.2044 148.375 
-0.700554 12.3141 144.561 -0.860796 12.43 140.753 -1.01915 12.5519 136.946 
-1.17728 12.68 133.135 -1.33685 12.8143 129.315 -1.49955 12.955 125.478 
-1.66702 13.1026 121.62 -1.84089 13.2574 117.735 -2.0227 13.4198 113.818 
-2.21392 13.5904 109.864 -2.41592 13.77 105.868 -2.62997 13.959 101.826 
-2.85722 14.1583 97.7338 -3.09866 14.3685 93.5892 -3.35516 14.5903 89.3895 
-3.62745 14.8243 85.1331 -3.91606 15.0712 80.8191 -4.22139 15.3313 76.4474 
-4.54366 15.605 72.019 -4.88292 15.8923 67.5355 -5.23903 16.1932 62.9995 
-5.61168 16.5075 58.4146 -6.00039 16.8346 53.7853 -6.40447 17.1737 49.117 
-6.8231 17.5239 44.416 -7.25524 17.8837 39.6896 -7.69973 18.2518 34.9455 
-8.15522 18.6263 30.1927 -8.62022 19.0053 25.4402 -9.09313 19.3867 20.6979 
-9.57221 19.7682 15.9759 -10.0556 20.1475 11.2846 -10.5415 20.5222 6.63446 
-11.0277 20.8898 2.03576 -11.5125 21.248 -2.50143 -11.9936 21.5946 -6.96753 
-12.4691 21.9274 -11.3535 -12.9371 22.2446 -15.6512 -13.3956 22.5444 -19.8534 
-13.8428 22.8254 -23.9537 -14.277 23.0863 -27.947 -14.6965 23.3263 -31.8297 
-15.1 23.5447 -35.599 -15.4861 23.7411 -39.2538 -15.8536 23.9155 -42.7941 
-16.2016 24.068 -46.2214 -16.5293 24.199 -49.5384 -16.8359 24.3091 -52.7487 
-17.1211 24.3991 -55.8572 -17.3844 24.4699 -58.8699 -17.6257 24.5224 -61.7933 
-17.8449 24.5577 -64.6347 -18.042 24.5769 -67.4021 -18.2171 24.5811 -70.1037 
-18.3705 24.5713 -72.7481 -18.5024 24.5486 -75.3442 -18.6132 24.5137 -77.9005 
-18.7032 24.4675 -80.426 -18.7729 24.4107 -82.9291 -18.8227 24.3437 -85.4181 
-18.8531 24.2672 -87.9012 -18.8645 24.1812 -90.3859 -18.8575 24.0859 -92.8796 
-18.8324 23.9815 -95.3891 -18.7898 23.8677 -97.9207 -18.7302 23.7444 -100.48 
-18.654 23.6113 -103.073 -18.5618 23.468 -105.705 -18.454 23.3141 -108.378 
-18.3312 23.1492 -111.099 -18.1938 22.9727 -113.868 -18.0423 22.7843 -116.69 
-17.8774 22.5835 -119.566 -17.6994 22.3698 -122.498 -17.509 22.1429 -125.486 
-17.3067 21.9026 -128.532 -17.0929 21.6486 -131.634 -16.8684 21.381 -134.792 
-16.6335 21.0995 -138.005 -16.389 20.8045 -141.271 -16.1353 20.4961 -144.587 
-15.8731 20.1747 -147.951 -15.6029 19.8406 -151.359 -15.3253 19.4946 -154.808 
-15.0408 19.1371 -158.293 -14.7502 18.769 -161.811 -14.4538 18.3911 -165.355 
-14.1524 18.0043 -168.923 -13.8464 17.6094 -172.507 -13.5363 17.2076 -176.103 
-13.2226 16.7998 -179.706 -12.9059 16.387 -183.31 -12.5865 15.9704 -186.91 
-12.2649 15.5508 -190.5 -11.9413 15.1294 -194.075 -11.6161 14.7071 -197.629 
-11.2896 14.2849 -201.158 -10.962 13.8637 -204.657 -10.6333 13.4443 -208.121 
-10.3038 13.0275 -211.547 -9.97346 12.614 -214.93 -9.64233 12.2045 -218.267 
-9.31038 11.7995 -221.555 -8.97757 11.3994 -224.793 -8.64382 11.0047 -227.977 
-8.30905 10.6157 -231.109 -7.97317 10.2325 -234.186 -7.6361 9.85512 -237.209 
-7.29775 9.48365 -240.18 -6.95809 9.11791 -243.101 -6.61708 8.75768 -245.973 
-6.27475 8.40263 -248.801 -5.93114 8.05232 -251.589 -5.58635 7.70623 -254.34 
-5.2405 7.36375 -257.061 -4.89377 7.02421 -259.757 -4.54638 6.68687 -262.435 
-4.19854 6.35092 -265.101 
LINES 1 140
139 138 137 136 135 134 133 132 131 130 129 128 127 126 125 124 123 122 121 120 119 118 117 116 115 114 113 112 111 110 109 108 107 106 105 104 103 102 101 100 99 98 97 96 95 94 93 92 91 90 89 88 87 86 85 84 83 82 81 80 79 78 77 76 75 74 73 72 71 70 69 68 67 66 65 64 63 62 61 60 59 58 57 56 55 54 53 52 51 50 49 48 47 46 45 44 43 42 41 40 39 38 37 36 35 34 33 32 31 30 29 28 27 26 25 24 23 22 21 20 19 18 17 16 15 14 13 12 11 10 9 8 7 6 5 4 3 2 1 0 

CELL_DATA 1
FIELD FieldData 2
LengthArray 1 1 double
497.92077338 
TortuosityArray 1 1 double
0.0058698644242 
POINT_DATA 139
FIELD FieldData 8
RadiusArray 1 139 double
67.057148394 66.977863942 66.831416091 66.28461511 65.583884528 64.325139812 64.033481772 63.873905556 63.860104599 
62.824854093 62.621404195 62.442072627 61.894243785 61.692693168 61.574609442 61.212211535 60.649200023 60.630894129 
60.337711831 60.262570111 60.037288314 59.729626932 59.323380698 59.258542676 59.072091044 58.578683134 58.335944527 
57.805702254 57.277677107 56.997215914 56.783719962 56.640648712 56.235947734 56.098789503 56.075882193 55.781296015 
55.437720761 55.391132745 55.387421008 54.384981694 54.379596393 54.221001286 53.801159018 53.714341201 52.834582975 
52.729496011 51.835715468 51.304070693 50.466675965 50.292405985 49.691333949 49.570931837 48.632297839 47.52706419 
46.507206441 45.284801496 44.542946195 44.051112401 44.025898914 43.558843928 43.494133967 43.445583738 43.435502662 
43.347880916 43.387507131 43.383533423 43.342613005 43.323575184 43.486700766 43.496951907 43.627133291 43.64602837 
43.712380393 43.817081786 44.034737314 44.037350317 44.081404985 44.359863186 44.403343998 44.43072343 44.634074837 
44.713511368 44.866490834 45.093853718 45.152907599 45.307996464 45.361058989 45.379731628 45.527090472 45.545292472 
45.678364595 45.859065908 45.852528582 45.83500414 45.979983777 46.03695466 46.024206769 45.998115029 45.993379621 
45.9665626 46.01125194 45.941943321 45.628241522 45.565646027 45.086539318 44.336008114 43.954290576 43.910717994 
43.566451997 43.512909824 43.175200424 43.100153889 43.197654438 42.768193358 42.371509005 42.20455495 42.184087892 
41.327301842 40.710103027 40.512206071 40.1147942 39.012247502 38.646395621 38.40598957 37.492706265 37.386278456 
36.899875507 36.778271194 36.385328097 36.249022561 35.838659254 35.556273434 34.69351883 34.650738378 34.557329684 
34.029946054 33.690591892 33.075729729 32.76373586 
EdgeArray 2 139 int
33412 33412 34027 33941 34366 34366 34364 32739 31217 
31957 33168 33764 32594 33554 33873 27739 32157 27739 
31821 31469 29812 32595 32595 31557 33987 31557 32732 
34237 34231 34026 32436 33357 33710 28158 30841 33710 
24044 34230 33857 33355 33355 32580 32725 30570 33294 
32534 33356 32534 33356 33356 33492 33492 33819 33819 
33818 34012 33632 33631 33640 33639 33635 31951 33979 
33979 33981 33977 33704 33705 33704 33707 33707 33707 
32424 32424 30677 30677 30553 30553 33625 33625 33348 
33348 33349 33345 29801 29801 31547 32516 29157 29157 
31873 31873 31072 31072 29701 29701 28465 28465 33251 
33251 33139 33139 33134 33138 32041 32041 25551 25551 
31613 31613 32576 32576 31606 31606 31935 30651 31935 
30655 30653 30653 30213 30213 32408 32210 32408 32105 
32108 29250 31161 32103 31161 32102 22744 22744 30224 
30224 28044 28044 31169 27736 29602 31156 29156 29602 
29156 31506 29507 31157 30818 31502 30820 30818 19915 
30420 30201 14836 29151 30815 30815 30813 3157 3157 
30416 30416 30413 30413 29797 29797 29798 29137 30400 
29141 30194 29793 27732 29793 27732 29139 29357 29591 
28389 28389 29596 29596 29594 29584 29587 29587 29582 
29582 29575 29575 28464 29576 28876 29687 28450 28450 
29117 29117 29119 29119 29109 29109 29116 29116 29105 
29105 28435 28435 28433 28433 28266 28266 28264 28264 
27543 27543 28259 28259 28260 28260 29100 29100 27436 
27436 27720 27720 24071 20080 27717 27717 27716 27716 
20074 20074 25284 25284 25283 23006 28252 28252 27430 
27430 21694 21694 19719 19719 27710 27710 27708 26464 
27288 27288 27289 22703 23142 23142 20068 20068 27693 
27693 20063 20063 15697 15697 15693 15696 12207 14752 
14743 14743 14313 16418 12197 11340 7979 7979 
EdgePCoordArray 1 139 double
0 0.036 0 0.836 0.852 0.476 0.116 0.632 0.396 
0.332 0.844 0.2 0.116 0.884 0.268 0.46 0.644 0.332 
0.104 0.196 0.644 0.852 0.916 0.764 0 0 0 
0.196 0.136 0.128 0.26 0 0.852 0.028 0.068 0 
0 0 0 0 0 0.148 0 0.036 0 
0 0 0 0 0 0 0.98 0 0 
0 0 0 0.556 0.568 0 0 0.852 0.84 
0.668 0.168 0.636 0 0 0 0.968 0.072 0.82 
0.164 0.896 0.012 0.976 0.552 0.916 0.964 0.116 0 
0 0 0 0.068 0.86 0.956 0.888 0.136 0.248 
0 0 0.74 0 0 0 0.888 0.46 0 
0 0 0 0 0 0 0 0 0 
0 0 0 0 0 0 0.156 0 0 
0 0 0.916 0 0 0 0 0 0.088 
0 0.164 0 0 0 0 0 0.788 0.02 
0 0.024 0.264 0 
CurvatureArray 1 139 double
0 2.7259982965e-05 0.0001090519699 0.00019076056021 0.00027128213385 0.00034970242468 0.00042474315357 0.00049534613423 0.00056026930603 
0.00061798380186 0.00066737898496 0.00070707907843 0.00073585983189 0.00075268966594 0.00075682286126 0.0007478031936 0.00072577596949 0.00069153065956 
0.00064668715788 0.00059384667752 0.00053730489881 0.00048274473433 0.00043800368266 0.00041187938783 0.00041104064184 0.00043545015792 0.000479230629 
0.00053422835689 0.00059297308285 0.00065040411159 0.00070303061348 0.00074874268856 0.00078629698381 0.00081534703237 0.0008355441964 0.00084716871719 
0.00085062865505 0.00084634859315 0.00083484658017 0.00081682633087 0.00079270989245 0.00076317551382 0.00072880333557 0.00069008642603 0.00064792127645 
0.00060266405111 0.00055538913283 0.00050662757304 0.00045766177975 0.0004102527404 0.00036647019467 0.00033014850975 0.0003060080349 0.00029989651577 
0.00031563834862 0.00035351226522 0.0004105722796 0.00048341823585 0.00056931956242 0.0006671294284 0.00077609112568 0.00089617152027 0.0010269986458 
0.0011695575872 0.0013237314084 0.0014892405196 0.0016660316673 0.0018533698794 0.00204895162 0.0022511503483 0.0024559630055 0.0026595779 
0.0028562315211 0.0030400859111 0.0032053287518 0.0033451130826 0.0034532958976 0.003525941838 0.0035594604009 0.0035532372823 0.0035069553556 
0.0034246304047 0.0033093804227 0.0031681016279 0.0030064401361 0.0028315183357 0.0026491938684 0.0024660292361 0.0022860618473 0.0021140812353 
0.0019515915634 0.0018015727557 0.0016638024929 0.0015382245816 0.0014247715091 0.0013218262625 0.0012282708289 0.0011435399765 0.0010652453005 
0.00099329410888 0.00092603389243 0.00086326845912 0.0008049075323 0.00074923914745 0.00069728885912 0.00064872746098 0.00060256189038 0.00056018282801 
0.00052057376086 0.0004844607546 0.00045211103412 0.0004241627013 0.00040014352743 0.00038183588146 0.00036920259779 0.00036285155216 0.00036362065645 
0.00037218224123 0.00038784932729 0.0004111113964 0.00044139135902 0.00047714074861 0.00051846998285 0.00056314012063 0.00060993814749 0.00065712282447 
0.00070189905676 0.00074267473083 0.00077484014357 0.00079657568148 0.0008039559051 0.00079356086657 0.00076209037611 0.00070834646466 0.00063067726154 
0.00052838238645 0.00040481423551 0.00026280453787 0 
TorsionArray 1 139 double
0 0 -0.00017394007839 -0.00016741949191 -0.00019785750393 -0.00030603160588 -0.00044440505403 -0.00061611542876 -0.00081788298919 
-0.0010837795464 -0.0014420686877 -0.0019360956943 -0.0025786127346 -0.0034457917014 -0.004631203194 -0.0062259017125 -0.008432257153 -0.011524849159 
-0.015865802374 -0.02198004483 -0.030425061316 -0.041350696472 -0.053368598046 -0.062039944598 -0.061766651151 -0.052552170992 -0.039797361371 
-0.028071412176 -0.018973555585 -0.012333362507 -0.0075878623837 -0.0042504450806 -0.0019035261438 -0.00029799466993 0.00072576042024 0.0013335135329 
0.001600232363 0.0015693608244 0.0013032115653 0.00082775931126 0.00015698084954 -0.0007192987265 -0.0018339613375 -0.003165573526 -0.0048226293295 
-0.0069101647831 -0.009578752016 -0.013114267921 -0.017782765454 -0.02405579458 -0.032476594241 -0.042751894279 -0.053028901565 -0.059030994935 
-0.057294041899 -0.049721649348 -0.040677453583 -0.032977914526 -0.02730832128 -0.023334701028 -0.020636873179 -0.018902188156 -0.017822088816 
-0.017177345382 -0.016914629274 -0.016864460981 -0.01695475262 -0.017082357469 -0.017264821249 -0.017432689377 -0.017433703307 -0.017353081746 
-0.017073030872 -0.016575212257 -0.015897643767 -0.014899050789 -0.013707949389 -0.012285123264 -0.010591217341 -0.0086673396187 -0.0065914811354 
-0.0043611506897 -0.0019622168677 0.00044772029859 0.0029399730636 0.0053822089087 0.0076813034237 0.0098899307439 0.01183708823 0.013471580213 
0.014784587121 0.015686065179 0.016149796238 0.016178406218 0.015881873044 0.015179287386 0.014183243487 0.013045942554 0.011744667307 
0.010342469576 0.0089091703046 0.0074716892875 0.0059670289385 0.0045154829926 0.0029956930806 0.0014146033984 -0.00025347973453 -0.0020449380105 
-0.0041324868833 -0.0064500416981 -0.009003014402 -0.011875057961 -0.014944089397 -0.017983144616 -0.020834350384 -0.023051166955 -0.024098736202 
-0.024086545887 -0.023035978912 -0.020924332909 -0.01853478514 -0.015980097388 -0.013448882726 -0.011281076958 -0.0094033808219 -0.0078037531639 
-0.0063757927881 -0.0054076641769 -0.004594786174 -0.0037395170015 -0.0031382208768 -0.0027539396265 -0.0023248351242 -0.0017807134211 -0.0015799324266 
-0.0014205177469 -0.0010015068053 0 0 
TangentArray 3 139 double
0.076080250063 -0.0024576627112 0.99709866886 0.076080250063 -0.0024576627112 0.99709866886 0.075838867076 -0.0026189769626 0.99711664674 
0.075308817841 -0.0029735020274 0.99715582546 0.074494264288 -0.0035191255199 0.99721523271 0.073403710035 -0.0042508048846 0.99729324976 
0.072050539269 -0.0051610130726 0.99738762963 0.070453025841 -0.0062396542479 0.99749558288 0.068634054533 -0.0074743328424 0.99761390373 
0.066621621125 -0.0088499696112 0.9977390629 0.064448416346 -0.010349373085 0.997867372 0.062151399138 -0.011953836746 0.99799514496 
0.059771886098 -0.013643436179 0.99811881972 0.057354659671 -0.015397420917 0.99823512383 0.054947251149 -0.017195005458 0.99834118986 
0.052599176052 -0.019016104072 0.99843463204 0.050360569164 -0.020841747708 0.99851361264 0.048280939889 -0.022655163892 0.9985768345 
0.046407896444 -0.024442544872 0.99862348718 0.044785683869 -0.026193377707 0.99865316776 0.043453520423 -0.027901270075 0.99866576525 
0.042444337873 -0.029564158264 0.99866132334 0.041783633472 -0.031184046326 0.9986399167 0.041488692828 -0.032767293685 0.99860151854 
0.041568291446 -0.034324329073 0.99854590159 0.042022127259 -0.035868332874 0.99847263534 0.042841379028 -0.037414380733 0.99838107973 
0.044009776994 -0.038979259539 0.99827038264 0.045504074297 -0.040579756171 0.99813960076 0.047295502775 -0.042231411609 0.99798779717 
0.049351245491 -0.043947806542 0.99781413343 0.051635563582 -0.045739509082 0.99761799597 0.054111355908 -0.047613091143 0.997399095 
0.056741464005 -0.049571150912 0.99715751377 0.05948953152 -0.051611639047 0.99689379292 0.06232090961 -0.053727374455 0.99660898725 
0.06520343826 -0.055906953894 0.99630463421 0.068107750871 -0.058134711574 0.99598277575 0.071007614869 -0.060390831836 0.99564595417 
0.073880157425 -0.062652389463 0.99529714178 0.076705603041 -0.064893771984 0.9949397212 0.079467021942 -0.067087309651 0.99457744058 
0.082150449896 -0.069204033456 0.9942143156 0.084744349704 -0.071213915718 0.99385460375 0.087239189244 -0.073087666477 0.99350265066 
0.08962717513 -0.074796394721 0.99316286117 0.091901913049 -0.076312335638 0.99283959722 0.094057889116 -0.07760913088 0.99253712087 
0.096089857761 -0.078661696502 0.99225958133 0.097993011803 -0.079447836537 0.99201079173 0.099761982661 -0.079947621564 0.99179429552 
0.10139087252 -0.080142715386 0.99161335012 0.10287282485 -0.080017730472 0.99147079872 0.10419930002 -0.079559613283 0.99136914104 
0.10536038043 -0.078757392982 0.99131047774 0.1063441699 -0.077602806014 0.99129648543 0.1071363542 -0.076089475521 0.9913284992 
0.1077204254 -0.074213687732 0.99140740289 0.10807728561 -0.071974539201 0.99153364342 0.10818479225 -0.069373296826 0.99170731389 
0.10801818681 -0.06641364376 0.99192807161 0.10755022749 -0.063102380795 0.99219506051 0.10675107525 -0.059450645689 0.99250684061 
0.10558900878 -0.055473023917 0.99286137242 0.10403142728 -0.05118743648 0.99325591289 0.10204503443 -0.046617791477 0.99368686842 
0.099597667591 -0.041792884234 0.99414971681 0.096659496487 -0.036745989734 0.99463896665 0.0932059414 -0.031516019471 0.99514792519 
0.089218489068 -0.026146946416 0.99566881964 0.084686378921 -0.02068705204 0.99619288449 0.0796110366 -0.015186682756 0.99671031274 
0.074005714772 -0.0096980068507 0.99721066122 0.067898112368 -0.0042724683135 0.99768311219 0.061330111995 0.0010426742222 0.99811699224 
0.054356731449 0.0062046698939 0.99850230236 0.047047743181 0.011179112608 0.9988300843 0.039482331886 0.015940302461 0.99909311489 
0.031746356111 0.020472753386 0.99928626291 0.023929714736 0.024772442088 0.99940667141 0.016122696951 0.028845411105 0.99945385131 
0.0084112085763 0.032705864078 0.99942962635 0.00087409057041 0.036374878989 0.99933783284 -0.0064188552322 0.039879104621 0.99918389464 
-0.013410115582 0.043246573875 0.99897442542 -0.020053459444 0.04650642577 0.99871668211 -0.026314972423 0.049685485627 0.9984181863 
-0.03217301236 0.052806782406 0.99808633946 -0.037616024889 0.055890088723 0.99772808553 -0.04264229398 0.058949853805 0.99734976287 
-0.047257838296 0.061995214947 0.99695701514 -0.051475096218 0.065030978824 0.99655470811 -0.055312004064 0.068057767302 0.99614693822 
-0.058789355104 0.07107148699 0.99573724218 -0.061931294927 0.074065380423 0.99532850564 -0.064762760652 0.077031027246 0.99492311546 
-0.067309663171 0.079957204019 0.99452312933 -0.069598645709 0.082832670924 0.99413016107 -0.071654851508 0.085645784048 0.99374563241 
-0.073502457906 0.088384619006 0.99337080076 -0.075164849863 0.091038007763 0.99300671019 -0.076663626966 0.093595465742 0.99265430896 
-0.078019765103 0.096049114714 0.99231420619 -0.079252390888 0.098390927523 0.99198703818 -0.08037881362 0.10061454493 0.99167331298 
-0.081416180301 0.10271663864 0.99137313749 -0.082379672574 0.1046936473 0.99108669135 -0.083283788636 0.10654420423 0.99081387914 
-0.084142365199 0.10826876938 0.9905543579 -0.084968886143 0.10986788607 0.99030769764 -0.085776731045 0.11134424906 0.99007313397 
-0.086579174734 0.11270213046 0.98984962307 -0.087389172997 0.11394551402 0.98963607062 -0.088219931081 0.11507959259 0.9894311149 
-0.089085294209 0.11611098356 0.98923306144 -0.089998771307 0.11704537078 0.98904024304 -0.090974113383 0.11788899823 0.98885079501 
-0.092025181954 0.11864944135 0.98866256931 -0.093165217755 0.11933317227 0.98847348786 -0.094406749333 0.11994621478 0.98828147369 
-0.09576162939 0.12049570678 0.988084255 -0.097239059 0.12098699178 0.9878799083 -0.098846328281 0.12142535509 0.98766658672 
-0.10058769155 0.12181614149 0.9874426282 -0.10246258005 0.12216329691 0.98720694314 -0.10446632857 0.1224704828 0.98695884769 
-0.1065879523 0.12274087093 0.98669837693 -0.10881063102 0.12297806674 0.98642619677 -0.11110983996 0.12318377695 0.98614418853 
-0.11345325177 0.12335958394 0.98585535081 -0.11580239519 0.12350857981 0.9855635119 -0.11811093249 0.12363282009 0.98527393826 
-0.12032596102 0.12373359463 0.98499322874 -0.12239109185 0.12381322183 0.9847287478 -0.12424855668 0.1238750507 0.984488328 
-0.12583935794 0.12392061727 0.98428051723 -0.12710908399 0.1239518943 0.9841134125 -0.12801156591 0.12397161014 0.9839939425 
-0.12801156591 0.12397161014 0.9839939425 
NormalArray 3 139 double
0.82929519781 0.55537096907 -0.061907686201 0.82929519781 0.55537096907 -0.061907686201 0.82998043529 0.55437279985 -0.061670704744 
0.82946440698 0.55521995699 -0.060988498197 0.82920956518 0.55570996297 -0.059982781474 0.82876320908 0.55651988273 -0.058627326381 
0.82804549208 0.55776294099 -0.056931227866 0.82698785191 0.55953193079 -0.054910028327 0.82550048655 0.5619466189 -0.052582736815 
0.82352116431 0.56507986559 -0.049976368785 0.82081856098 0.56924298332 -0.047109615638 0.81716765012 0.57471774024 -0.044006256909 
0.81213163024 0.58205456838 -0.040677937476 0.8053778353 0.59159658427 -0.037148672837 0.79606418031 0.60428953924 -0.03340619105 
0.78327856803 0.62097352996 -0.029437390373 0.76551449933 0.64292537707 -0.025189498738 0.74043225749 0.67181652588 -0.020557909124 
0.70432098604 0.70971545048 -0.015359946802 0.65147713782 0.75861103247 -0.0093188147162 0.57281432714 0.81968265373 -0.0020233115377 
0.4558545558 0.89002696039 0.0069737887768 0.28798498485 0.95746857028 0.017848961273 0.069280797574 0.99715077506 0.029841295063 
-0.170373421 0.98452893672 0.040934950671 -0.38274138728 0.922541912 0.049248868655 -0.54039681882 0.83963337112 0.054654188337 
-0.6453232863 0.7616899825 0.058191294108 -0.71174828502 0.69978983075 0.060898042217 -0.75286816561 0.65511054492 0.063401097356 
-0.77764233432 0.62523312833 0.065999508432 -0.79174452339 0.60696459711 0.068808339121 -0.79882141827 0.59726205775 0.071849677046 
-0.8010052344 0.59392743583 0.075105362185 -0.80001581286 0.59481661022 0.078535975103 -0.79697478887 0.59840721665 0.082097435836 
-0.79273953299 0.60349950457 0.0857460251 -0.78811446126 0.6089959905 0.089439809414 -0.78383698078 0.61394173697 0.093140384147 
-0.78048225144 0.61763624857 0.096813840159 -0.77872901219 0.61927003366 0.10042783971 -0.77911814148 0.61819825513 0.10395113743 
-0.78239892552 0.61345585442 0.1073491314 -0.78923115047 0.60405819416 0.11057978655 -0.80007511294 0.58904801495 0.11358807042 
-0.81595738484 0.56629638278 0.1162839326 -0.83727503689 0.53378008057 0.11852990416 -0.86490413184 0.48736412303 0.12007103859 
-0.89855239164 0.42200776385 0.12047010721 -0.93645363548 0.33001372391 0.11893498491 -0.97288955026 0.20117736559 0.11407712552 
-0.99432393907 0.024144005692 0.1036193572 -0.975973326 -0.2005946248 0.085075633606 -0.89125551853 -0.44983166162 0.057576704542 
-0.73958613498 -0.67259111381 0.025170271513 -0.55544975203 -0.83153185841 -0.005508304312 -0.37743921811 -0.92554019486 -0.030248707934 
-0.22426765539 -0.97332036308 -0.048492159839 -0.097004326435 -0.99337988476 -0.061535073033 0.0088539842612 -0.99745540226 -0.070741271298 
0.098662662455 -0.99212415425 -0.077170859704 0.1766552603 -0.98089011844 -0.081532168849 0.24645654646 -0.96547707606 -0.084339707781 
0.30988801154 -0.94688827403 -0.085860449617 0.36864887873 -0.92555314016 -0.08630984269 0.42389840873 -0.90163363964 -0.085830757583 
0.47597660584 -0.87539046614 -0.084485516376 0.52536885965 -0.84688087903 -0.08234280807 0.57187867013 -0.81648467235 -0.079420189348 
0.61589024803 -0.78417884282 -0.075780900292 0.65709131171 -0.75041785821 -0.071442607353 0.69513401148 -0.71580431614 -0.066429564788 
0.73025686659 -0.68046074042 -0.060811919347 0.7618920662 -0.64539730414 -0.054615009504 0.7902728709 -0.61087837195 -0.047920811808 
0.81525912773 -0.57765784743 -0.040791738903 0.83672549456 -0.54660948622 -0.033294388811 0.85503903521 -0.51793500497 -0.025526043518 
0.87008051148 -0.4925971126 -0.017549592353 0.8820897756 -0.47098661947 -0.00944627269 0.89107426689 -0.45385573019 -0.0012755618923 
0.89735537585 -0.44125490242 0.0068877081963 0.90081163102 -0.43395066757 0.015007449508 0.90155726246 -0.43204614782 0.023035378377 
0.89960600095 -0.43560547669 0.030933989993 0.8946589228 -0.44507139547 0.038689336959 0.8868138407 -0.45980610651 0.046255338787 
0.87569978718 -0.47986989059 0.053616889499 0.86113467409 -0.50473528319 0.06074015954 0.84304602005 -0.53357844777 0.067582898421 
0.82133513572 -0.56561206179 0.074105265579 0.7961081157 -0.59980815134 0.080262380372 0.76770336822 -0.63500670527 0.086011759028 
0.73669355215 -0.67003239642 0.091319209258 0.70382681103 -0.70383207179 0.096167743032 0.66958685461 -0.7358945708 0.1005615473 
0.63562937183 -0.76488691552 0.10451463119 0.60206350968 -0.79110127903 0.10806616782 0.57024375425 -0.81390560752 0.11126420265 
0.54040427498 -0.83362538943 0.11415747758 0.5137050215 -0.84997801913 0.11680975076 0.48988515349 -0.8635910138 0.11926062753 
0.47006810815 -0.87421682822 0.12157676978 0.45403914026 -0.88234036531 0.12378989808 0.44238283558 -0.88793857669 0.12594646006 
0.43534127837 -0.89110795656 0.12808036971 0.43345585364 -0.89171592658 0.13022568574 0.43699753738 -0.88966481173 0.13239967939 
0.44665994557 -0.88451810141 0.13462028563 0.46364976052 -0.8753785788 0.13689866089 0.48788443859 -0.86174098068 0.13918066244 
0.5203817433 -0.84214522637 0.14140105707 0.56104431012 -0.81526828399 0.14341167038 0.60917709679 -0.77966591754 0.14499766127 
0.66294015085 -0.73432008167 0.14589165177 0.71987379739 -0.67861607905 0.14581472176 0.77565564403 -0.61436796535 0.14460402844 
0.82625313958 -0.54502456365 0.14231645849 0.86983289092 -0.47332333983 0.13912497202 0.90448799701 -0.40440745281 0.13548459459 
0.93056227336 -0.34157248581 0.13184116332 0.94978711844 -0.28532312729 0.1284334173 0.9631519616 -0.23781374339 0.12563010118 
0.97246346694 -0.19767495369 0.12344803829 0.97881860476 -0.16445132016 0.1219422087 0.9831585795 -0.13691333396 0.12105348626 
0.98606690081 -0.11441546435 0.1207525099 0.98795605392 -0.096442397237 0.12100289064 0.98931637668 -0.080526372534 0.1215261707 
0.99014699723 -0.067936760601 0.12244803154 0.99065837217 -0.057575981766 0.12361632566 0.99096111998 -0.04888195656 0.12492643041 
0.99115180555 -0.041030110561 0.12623243791 0.99120212266 -0.035122579853 0.12761174089 0.99118149548 -0.030561937009 0.1289387879 
0.99118349323 -0.025769315625 0.12996624605 0.99114100344 -0.022645333366 0.13086901914 0.99111494006 -0.020137059213 0.13147499547 
0.99111494006 -0.020137059213 0.13147499547 
BinormalArray 3 139 double
-0.55360750577 0.83159909007 0.044290890089 -0.55360750577 0.83159909007 0.044290890089 -0.55261283307 0.83226434487 0.044216704718 
-0.5534594651 0.83169823713 0.044279372698 -0.5539513531 0.83136878268 0.044315297391 -0.55476430907 0.83082341733 0.044373534797 
-0.5560120348 0.82998425624 0.044460674292 -0.55778800985 0.82878530702 0.044580835842 -0.56021273929 0.82713972934 0.044738740284 
-0.56335996621 0.82498874146 0.044934673989 -0.56754144481 0.82210420046 0.045181766314 -0.57303947088 0.81826439788 0.04548780035 
-0.58040463196 0.81303526127 0.04587076543 -0.5899804958 0.80608709263 0.046331562281 -0.60271271799 0.79657923934 0.046892377004 
-0.61944169342 0.78360083134 0.047557602793 -0.64144474773 0.76564520574 0.04833274798 -0.67039467697 0.74037105502 0.049210547447 
-0.70836308188 0.704064302 0.050151798436 -0.75734521945 0.6510170569 0.051039300619 -0.8185325517 0.57213797837 0.051600344179 
-0.88904167627 0.45494831609 0.051253561256 -0.95672293611 0.28684750683 0.04898705291 -0.99673409667 0.067945833339 0.04364062645 
-0.98450239947 -0.17182727724 0.035077232411 -0.9228993289 -0.38422634384 0.025038878144 -0.84031892425 -0.54186342025 0.015752439171 
-0.76264080384 -0.64676810982 0.0083675824056 -0.70095916999 -0.71319525809 0.0029607165894 -0.65646984746 -0.75435182893 -0.00081090279374 
-0.62676698577 -0.77919966988 -0.003319641262 -0.60866606465 -0.79341154212 -0.0048730467723 -0.5991296211 -0.8006316431 -0.0057156972177 
-0.59596226451 -0.80298997626 -0.0060064391343 -0.59702235705 -0.80220286644 -0.0059047658827 -0.60078888982 -0.79938862408 -0.0055260808545 
-0.60606315222 -0.79540100609 -0.004969409834 -0.61174907456 -0.79103997299 -0.0043394596899 -0.61689343179 -0.78703779517 -0.0037420288827 
-0.62079721128 -0.78396437581 -0.0032680147103 -0.62265349597 -0.78249180428 -0.0030331815771 -0.62181984051 -0.78315401438 -0.0031425657066 
-0.61733558533 -0.7866909917 -0.0037494869853 -0.6082208368 -0.79375202442 -0.0050137217837 -0.59352265122 -0.80478607661 -0.0070875517611 
-0.57112215471 -0.82080077131 -0.010275125557 -0.53900329403 -0.84217293534 -0.014839003085 -0.49304559243 -0.86974308528 -0.021284017325 
-0.42821763009 -0.90317317539 -0.03013098952 -0.33682630277 -0.94062690973 -0.042060176613 -0.20864675844 -0.97628686634 -0.05771035273 
-0.032245855022 -0.99649094936 -0.077239838646 0.19207615375 -0.97640102382 -0.098730906251 0.44136844764 -0.88956267016 -0.11778008866 
0.6647642734 -0.73581143418 -0.1291123315 0.82472206864 -0.55002961097 -0.13153302458 0.91981598064 -0.37092551734 -0.12787815429 
0.96855579535 -0.2171170177 -0.12149021331 0.98939853496 -0.089532509555 -0.11434364322 0.99409137291 0.016433690687 -0.10729527539 
0.98924099711 0.10620212085 -0.10061490531 0.97837920439 0.18404527999 -0.094347587879 0.96325665253 0.25361316277 -0.08841371518 
0.94489173006 0.3167417562 -0.082790569203 0.92372910875 0.3751416147 -0.077416423136 0.89994274819 0.42998088492 -0.072246028178 
0.87380007742 0.48160656828 -0.067294413473 0.84536649037 0.53051155404 -0.062553880628 0.81502603587 0.57650630555 -0.058077883222 
0.78276386196 0.61998377371 -0.053859602203 0.74903886768 0.66063990491 -0.04995688893 0.71445838852 0.69813576449 -0.046429143905 
0.6791524593 0.73272036235 -0.043275947374 0.64413533189 0.76383510382 -0.040566098967 0.60967811743 0.79172376971 -0.038289236118 
0.57653959136 0.81625542165 -0.036458006248 0.54559779747 0.83731302213 -0.035070591254 0.51705840458 0.85527144076 -0.034078862599 
0.4918862393 0.87001663836 -0.033451107094 0.4704731624 0.88179245313 -0.03312209333 0.45357106337 0.89060817334 -0.03302078195 
0.4412284907 0.89678561404 -0.033060269972 0.43420921385 0.90020202527 -0.033146226257 0.43261218291 0.90096935751 -0.033180054715 
0.43649651988 0.89909821628 -0.033063357588 0.44629953017 0.89428664604 -0.032682167603 0.46137699788 0.88662827438 -0.031961991323 
0.48178291794 0.87574901189 -0.030804028193 0.5069833407 0.86146305312 -0.029142758363 0.53614834034 0.84369363801 -0.026944430602 
0.56848508472 0.82233788 -0.024189244928 0.60296117834 0.79749680462 -0.020896507712 0.63841375348 0.76950284247 -0.017124683728 
0.67366640257 0.73892180337 -0.012967133723 0.7076668247 0.7064946809 -0.0085399688939 0.73990487832 0.67270008288 -0.0039203992875 
0.76905442649 0.63918295659 0.0006611332836 0.79540905126 0.60605075278 0.0051890490665 0.81834445254 0.57464986011 0.0094813120176 
0.83818888579 0.54521268256 0.013510089143 0.85466800351 0.51889252079 0.01712178846 0.868409595 0.49542956077 0.020354990232 
0.87917511905 0.47594065262 0.023056565944 0.88745000854 0.46021158735 0.025254251386 0.89321703584 0.4488226792 0.026861301675 
0.89657647579 0.44201346349 0.027833813286 0.89740158931 0.44032027718 0.028079191802 0.89559866172 0.4440099721 0.027535101265 
0.89073843265 0.45376822482 0.026066122477 0.88193491141 0.47078805358 0.023439723728 0.86868355976 0.49497973738 0.019594197888 
0.84953333528 0.52734205928 0.014264107585 0.82316001757 0.56776231379 0.0073171388046 0.78811198983 0.61553045773 -0.0013217786034 
0.74335332565 0.66879911569 -0.011557512439 0.68824554992 0.72510730133 -0.023183282224 0.62456547502 0.78016292353 -0.035549685906 
0.55573115373 0.82998224986 -0.047878488786 0.48446979686 0.87276835986 -0.059702646196 0.41591925772 0.90667939078 -0.070311118527 
0.35338868932 0.93209925522 -0.079419221035 0.29740375763 0.95076435611 -0.087167333885 0.25013536785 0.96369108463 -0.093444053595 
0.2102306395 0.97266923482 -0.098578080011 0.17724434732 0.97879103602 -0.10272560128 0.14995330523 0.98298307199 -0.10610507257 
0.1277148212 0.98582137333 -0.10883540015 0.11001400868 0.98771213373 -0.11100296744 0.094380667003 0.98911134885 -0.11292045551 
0.08208095718 0.99003384266 -0.11443647521 0.072012463614 0.99067181096 -0.11568737203 0.063607124746 0.99112334254 -0.1167418244 
0.056033574379 0.99146685652 -0.11770178824 0.050386234861 0.99168376536 -0.1184252374 0.046060169155 0.99182707153 -0.11898538144 
0.041469732747 0.99195747035 -0.11958527618 0.038507039123 0.99202979632 -0.11997537731 0.036113911166 0.99208141739 -0.12029233847 
0.036113911166 0.99208141739 -0.12029233847 
