# vtk DataFile Version 4.1
vtk output
ASCII
DATASET POLYDATA
POINTS 328 float
-1.37208 -2.18286 190.365 -1.37634 -2.21204 188.495 -1.38064 -2.24119 186.625 
-1.38507 -2.27021 184.757 -1.38972 -2.29902 182.893 -1.39469 -2.32752 181.034 
-1.40007 -2.35562 179.182 -1.40594 -2.38324 177.337 -1.41239 -2.41029 175.502 
-1.41948 -2.4367 173.677 -1.42729 -2.46238 171.864 -1.43587 -2.48726 170.063 
-1.44528 -2.51128 168.276 -1.45555 -2.53437 166.503 -1.46672 -2.55647 164.746 
-1.47881 -2.57755 163.004 -1.49185 -2.59753 161.278 -1.50585 -2.61639 159.569 
-1.52081 -2.63409 157.876 -1.53674 -2.65058 156.2 -1.55362 -2.66584 154.54 
-1.57145 -2.67983 152.896 -1.59021 -2.69253 151.268 -1.60988 -2.70391 149.656 
-1.63045 -2.71395 148.059 -1.65188 -2.7226 146.478 -1.67415 -2.72985 144.91 
-1.69723 -2.73566 143.357 -1.72109 -2.74 141.818 -1.7457 -2.74282 140.293 
-1.77103 -2.7441 138.781 -1.79704 -2.74377 137.282 -1.8237 -2.74179 135.797 
-1.85099 -2.73811 134.325 -1.87888 -2.73266 132.866 -1.90735 -2.72537 131.42 
-1.9364 -2.71618 129.987 -1.96601 -2.70501 128.566 -1.9962 -2.69177 127.158 
-2.02698 -2.67638 125.761 -2.05839 -2.65875 124.374 -2.09048 -2.63877 122.997 
-2.12331 -2.61637 121.629 -2.15697 -2.59143 120.267 -2.19157 -2.56386 118.911 
-2.22724 -2.53355 117.557 -2.26413 -2.50042 116.204 -2.30241 -2.46435 114.849 
-2.34229 -2.42526 113.49 -2.38396 -2.38307 112.123 -2.42766 -2.3377 110.747 
-2.47365 -2.28907 109.357 -2.52218 -2.23713 107.951 -2.57354 -2.18184 106.526 
-2.62798 -2.12315 105.081 -2.68582 -2.06106 103.611 -2.74731 -1.99556 102.116 
-2.81276 -1.92667 100.594 -2.88243 -1.85443 99.0427 -2.95659 -1.7789 97.4614 
-3.03548 -1.70016 95.8496 -3.11936 -1.61829 94.207 -3.20842 -1.53343 92.5337 
-3.30286 -1.44571 90.8302 -3.40286 -1.35527 89.0973 -3.50855 -1.26231 87.3363 
-3.62005 -1.167 85.5485 -3.73745 -1.06954 83.7358 -3.86079 -0.970133 81.9 
-3.99009 -0.869004 80.0434 -4.12533 -0.766362 78.1681 -4.26644 -0.662419 76.2766 
-4.41333 -0.55738 74.3712 -4.56586 -0.45144 72.4545 -4.72385 -0.344776 70.529 
-4.88706 -0.237544 68.5971 -5.05525 -0.129878 66.6612 -5.22811 -0.0218807 64.7238 
-5.4053 0.0863776 62.787 -5.58646 0.194861 60.8529 -5.7712 0.303572 58.9235 
-5.95911 0.412552 57.0006 -6.14975 0.521881 55.0857 -6.34269 0.631678 53.1802 
-6.53751 0.742101 51.2851 -6.73377 0.853339 49.4013 -6.93107 0.965613 47.5294 
-7.12903 1.07917 45.6695 -7.32729 1.19427 43.8219 -7.52552 1.3112 41.9862 
-7.72346 1.43024 40.1619 -7.92086 1.55166 38.3483 -8.11753 1.67574 36.5447 
-8.31331 1.80273 34.7499 -8.5081 1.93284 32.963 -8.70183 2.06627 31.1827 
-8.89446 2.20317 29.4079 -9.08599 2.34363 27.6376 -9.27645 2.48772 25.8708 
-9.46588 2.63541 24.1066 -9.65435 2.78665 22.3446 -9.84193 2.94134 20.5842 
-10.0287 3.09928 18.8252 -10.2147 3.26026 17.0678 -10.4001 3.424 15.3124 
-10.5848 3.59018 13.5594 -10.769 3.75843 11.8098 -10.9528 3.92835 10.0646 
-11.136 4.09953 8.32515 -11.3188 4.27151 6.59286 -11.5011 4.44383 4.86933 
-11.683 4.61604 3.15628 -11.8643 4.78766 1.45548 -12.0451 4.95825 -0.231264 
-12.2253 5.12737 -1.90216 -12.4048 5.2946 -3.55549 -12.5834 5.45956 -5.18959 
-12.7612 5.62191 -6.80296 -12.938 5.78132 -8.39427 -13.1136 5.93753 -9.96238 
-13.288 6.09031 -11.5064 -13.4611 6.2395 -13.0257 -13.6328 6.38496 -14.5199 
-13.8029 6.52661 -15.9889 -13.9713 6.66444 -17.4329 -14.1381 6.79847 -18.8526 
-14.303 6.92875 -20.2487 -14.4661 7.0554 -21.6222 -14.6274 7.17856 -22.9745 
-14.7867 7.2984 -24.3071 -14.944 7.41513 -25.6217 -15.0994 7.52896 -26.92 
-15.2529 7.64013 -28.2038 -15.4043 7.74886 -29.475 -15.5537 7.85539 -30.7353 
-15.701 7.95994 -31.9864 -15.8463 8.06273 -33.2298 -15.9894 8.16395 -34.4668 
-16.1304 8.26377 -35.6986 -16.2691 8.36232 -36.9259 -16.4054 8.45973 -38.1495 
-16.5393 8.55609 -39.3697 -16.6707 8.65145 -40.5866 -16.7993 8.74585 -41.8001 
-16.9252 8.83929 -43.01 -17.0482 8.93177 -44.2159 -17.1681 9.02324 -45.4173 
-17.2849 9.11368 -46.6135 -17.3984 9.203 -47.804 -17.5086 9.29116 -48.9881 
-17.6154 9.37809 -50.1654 -17.7187 9.4637 -51.3354 -17.8185 9.54794 -52.4978 
-17.9147 9.63074 -53.6524 -18.0075 9.71203 -54.799 -18.0968 9.79177 -55.9379 
-18.1826 9.86991 -57.0693 -18.2651 9.94641 -58.1935 -18.3442 10.0212 -59.311 
-18.4201 10.0943 -60.4224 -18.493 10.1657 -61.5283 -18.5628 10.2353 -62.6295 
-18.6297 10.3031 -63.7266 -18.6938 10.3691 -64.8203 -18.7552 10.4332 -65.9113 
-18.8141 10.4955 -67.0002 -18.8705 10.5559 -68.0874 -18.9245 10.6143 -69.1734 
-18.9763 10.6707 -70.2584 -19.0259 10.7251 -71.3426 -19.0734 10.7775 -72.4261 
-19.1189 10.8277 -73.5087 -19.1624 10.8757 -74.5902 -19.2041 10.9215 -75.6703 
-19.2441 10.965 -76.7486 -19.2823 11.0062 -77.8246 -19.3188 11.0449 -78.8977 
-19.3538 11.0812 -79.9673 -19.3873 11.1149 -81.0329 -19.4194 11.146 -82.0937 
-19.4501 11.1745 -83.1493 -19.4795 11.2002 -84.1992 -19.5077 11.2231 -85.243 
-19.5348 11.2431 -86.2803 -19.5608 11.2601 -87.3111 -19.586 11.2742 -88.3354 
-19.6102 11.2852 -89.3533 -19.6337 11.293 -90.3652 -19.6565 11.2977 -91.3715 
-19.6787 11.2991 -92.3731 -19.7004 11.2972 -93.3707 -19.7216 11.292 -94.3653 
-19.7424 11.2834 -95.3582 -19.7628 11.2714 -96.3504 -19.7828 11.2561 -97.3435 
-19.8026 11.2373 -98.3388 -19.822 11.2152 -99.3376 -19.841 11.1898 -100.341 
-19.8597 11.1611 -101.351 -19.8779 11.1291 -102.369 -19.8956 11.0941 -103.395 
-19.9127 11.056 -104.431 -19.9291 11.015 -105.477 -19.9446 10.9711 -106.535 
-19.9591 10.9246 -107.604 -19.9726 10.8755 -108.685 -19.9848 10.8239 -109.778 
-19.9956 10.77 -110.883 -20.005 10.714 -112 -20.0126 10.6559 -113.128 
-20.0185 10.5959 -114.267 -20.0225 10.534 -115.416 -20.0244 10.4704 -116.575 
-20.0243 10.4052 -117.742 -20.0221 10.3384 -118.918 -20.0176 10.2702 -120.101 
-20.0108 10.2004 -121.29 -20.0018 10.1293 -122.484 -19.9906 10.0568 -123.682 
-19.977 9.98295 -124.884 -19.9613 9.90774 -126.088 -19.9433 9.83119 -127.294 
-19.9232 9.75329 -128.5 -19.901 9.67405 -129.706 -19.8767 9.59344 -130.911 
-19.8506 9.51147 -132.114 -19.8225 9.42813 -133.314 -19.7926 9.34341 -134.511 
-19.761 9.25732 -135.702 -19.7277 9.16987 -136.889 -19.6928 9.08107 -138.069 
-19.6563 8.99097 -139.243 -19.6182 8.89959 -140.41 -19.5786 8.80699 -141.569 
-19.5375 8.71324 -142.72 -19.4948 8.61842 -143.862 -19.4505 8.52261 -144.997 
-19.4047 8.42592 -146.122 -19.3572 8.32846 -147.239 -19.3079 8.23036 -148.348 
-19.2568 8.13174 -149.449 -19.2037 8.03273 -150.542 -19.1486 7.93347 -151.628 
-19.0914 7.83407 -152.707 -19.0319 7.73467 -153.78 -18.9701 7.63537 -154.847 
-18.9057 7.53627 -155.91 -18.8388 7.43745 -156.968 -18.7692 7.33896 -158.023 
-18.6969 7.24086 -159.076 -18.6218 7.14316 -160.128 -18.5438 7.04586 -161.179 
-18.4629 6.94893 -162.23 -18.3791 6.85235 -163.282 -18.2924 6.75605 -164.336 
-18.2028 6.65997 -165.393 -18.1104 6.56404 -166.452 -18.0151 6.46816 -167.516 
-17.9172 6.37227 -168.584 -17.8165 6.27628 -169.656 -17.7134 6.18014 -170.733 
-17.6077 6.08378 -171.814 -17.4997 5.98717 -172.901 -17.3894 5.89029 -173.991 
-17.2769 5.79313 -175.086 -17.1624 5.69572 -176.184 -17.046 5.5981 -177.284 
-16.9277 5.50033 -178.387 -16.8076 5.40247 -179.49 -16.6858 5.30464 -180.593 
-16.5624 5.20692 -181.695 -16.4374 5.10944 -182.795 -16.3109 5.01231 -183.891 
-16.1828 4.91565 -184.983 -16.0533 4.81956 -186.069 -15.9222 4.72416 -187.148 
-15.7895 4.62951 -188.221 -15.6552 4.53571 -189.285 -15.5193 4.44278 -190.34 
-15.3817 4.35076 -191.387 -15.2423 4.25965 -192.423 -15.1011 4.16942 -193.45 
-14.958 4.08001 -194.466 -14.8131 3.99134 -195.473 -14.6661 3.9033 -196.47 
-14.5172 3.81575 -197.457 -14.3663 3.72855 -198.434 -14.2134 3.6415 -199.402 
-14.0586 3.55444 -200.36 -13.9019 3.46715 -201.31 -13.7434 3.37943 -202.252 
-13.5831 3.29108 -203.185 -13.4213 3.2019 -204.11 -13.2579 3.1117 -205.027 
-13.0932 3.02031 -205.937 -12.9273 2.92756 -206.839 -12.7604 2.83333 -207.734 
-12.5926 2.73752 -208.622 -12.4241 2.64006 -209.502 -12.2551 2.54091 -210.375 
-12.0857 2.44008 -211.241 -11.9163 2.3376 -212.1 -11.7468 2.23356 -212.951 
-11.5776 2.12806 -213.795 -11.4089 2.02126 -214.632 -11.2407 1.91334 -215.461 
-11.0734 1.80451 -216.283 -10.907 1.69502 -217.098 -10.7419 1.58512 -217.905 
-10.5782 1.47507 -218.705 -10.4161 1.36517 -219.498 -10.2558 1.2557 -220.284 
-10.0975 1.14691 -221.063 -9.94145 1.03909 -221.835 -9.78771 0.932462 -222.601 
-9.63647 0.827245 -223.36 -9.48784 0.723619 -224.113 -9.34189 0.621722 -224.86 
-9.19868 0.521653 -225.602 -9.05818 0.423459 -226.339 -8.92035 0.327141 -227.071 
-8.78506 0.232646 -227.799 -8.65215 0.139872 -228.523 -8.5214 0.0486673 -229.243 
-8.39251 -0.0411669 -229.961 -8.26516 -0.12987 -230.677 -8.13896 -0.217718 -231.39 
-8.01351 -0.305016 -232.103 
LINES 1 329
328 327 326 325 324 323 322 321 320 319 318 317 316 315 314 313 312 311 310 309 308 307 306 305 304 303 302 301 300 299 298 297 296 295 294 293 292 291 290 289 288 287 286 285 284 283 282 281 280 279 278 277 276 275 274 273 272 271 270 269 268 267 266 265 264 263 262 261 260 259 258 257 256 255 254 253 252 251 250 249 248 247 246 245 244 243 242 241 240 239 238 237 236 235 234 233 232 231 230 229 228 227 226 225 224 223 222 221 220 219 218 217 216 215 214 213 212 211 210 209 208 207 206 205 204 203 202 201 200 199 198 197 196 195 194 193 192 191 190 189 188 187 186 185 184 183 182 181 180 179 178 177 176 175 174 173 172 171 170 169 168 167 166 165 164 163 162 161 160 159 158 157 156 155 154 153 152 151 150 149 148 147 146 145 144 143 142 141 140 139 138 137 136 135 134 133 132 131 130 129 128 127 126 125 124 123 122 121 120 119 118 117 116 115 114 113 112 111 110 109 108 107 106 105 104 103 102 101 100 99 98 97 96 95 94 93 92 91 90 89 88 87 86 85 84 83 82 81 80 79 78 77 76 75 74 73 72 71 70 69 68 67 66 65 64 63 62 61 60 59 58 57 56 55 54 53 52 51 50 49 48 47 46 45 44 43 42 41 40 39 38 37 36 35 34 33 32 31 30 29 28 27 26 25 24 23 22 21 20 19 18 17 16 15 14 13 12 11 10 9 8 7 6 5 4 3 2 1 0 

CELL_DATA 1
FIELD FieldData 2
LengthArray 1 1 double
425.22685884 
TortuosityArray 1 1 double
0.0063962226515 
POINT_DATA 328
FIELD FieldData 8
RadiusArray 1 328 double
73.117106731 72.911747922 72.853387417 72.639617737 72.491838754 72.165608195 72.122734992 71.901905219 71.652229515 
71.525932098 71.078811989 70.825566009 70.729261119 70.36654374 70.176999271 70.025938568 69.981801438 69.630495145 
69.535000514 69.51154779 69.270931353 69.225738352 68.743073473 68.671484102 68.375369382 68.275051097 68.101087611 
67.806236782 67.720873793 67.528416259 67.503004058 67.165682992 67.098239436 66.817209311 66.405116823 65.975379446 
65.936258936 65.472027573 65.353755774 65.282007454 65.045792203 64.881637853 64.881220855 64.700723533 64.566554233 
64.417771131 64.317300528 64.281319517 64.201412593 64.03248338 63.842748898 63.71859903 63.6923496 63.485277392 
63.447110425 63.257465354 63.228248581 63.04715562 62.763344939 62.282341168 61.950243076 61.757106462 61.446385945 
61.373162791 61.041774557 60.985396854 60.640507889 60.273186031 59.743691837 59.729132685 59.468270504 59.380271202 
58.880672569 58.770654735 58.668043396 58.629926406 58.210814632 57.975153976 57.268540511 56.862522121 56.427824991 
56.366687174 55.963656071 55.841670521 55.44501542 55.342687164 55.236636722 54.849321479 54.744427568 54.383452381 
54.308135838 54.2923537 54.272715356 53.924693165 53.83504907 53.345770392 53.108861166 52.872602273 52.81395885 
52.540887059 52.384419721 52.206281958 51.878885493 51.477266401 51.203358893 51.03168262 51.030378397 50.904534134 
50.704945604 50.701499777 50.534646536 50.424148717 50.215415173 49.912957688 49.760206794 49.754881875 49.592137816 
49.555542452 49.316911768 49.144582289 49.12385898 49.020056766 49.01876793 48.956924707 48.908731376 48.908546221 
48.899750722 48.878321512 48.869906013 48.854097121 48.827907424 48.809247828 48.751180746 48.739202984 48.736076794 
48.734205892 48.733979978 48.717509542 48.707267669 48.732541355 48.7468747 48.745050339 48.756860292 48.757719508 
48.870261668 48.880954773 48.886736299 48.89662348 48.905825326 48.973668238 49.010095386 49.03720702 49.067320711 
49.13244114 49.147961212 49.151817841 49.218002255 49.248629893 49.249227588 49.292752904 49.377359427 49.420730731 
49.510900738 49.536438357 49.64217924 49.647447923 49.685429084 49.712204703 49.729376178 49.801162448 49.814509728 
49.89264633 49.907915965 50.003409392 50.007627656 50.103708819 50.109642283 50.117804184 50.184507261 50.190186781 
50.273393437 50.319153714 50.409513523 50.445307873 50.471364805 50.512281001 50.570980376 50.578875687 50.594942487 
50.604512252 50.643217152 50.667329219 50.69650049 50.7001224 50.729520367 50.735695338 50.779940835 50.783222563 
50.784439407 50.788295451 50.78559275 50.80048276 50.803670318 50.803968549 50.80626835 50.853684307 50.853685604 
50.839291175 50.76764112 50.769405657 50.749896518 50.701254627 50.698944984 50.650724088 50.592666738 50.577817088 
50.522441827 50.500697721 50.496593948 50.477073791 50.465897613 50.320064289 50.186103564 50.176752569 49.916932976 
49.729788117 49.634407425 49.581320206 49.526682026 49.480435958 49.305580399 49.269111906 49.268591826 49.128106949 
49.044139423 48.858325543 48.705512215 48.626785132 48.517003662 48.405711834 48.357183588 48.152144913 48.094753811 
48.029173371 48.011180227 47.716890315 47.499047808 47.474079827 47.21295112 47.089862282 46.942265254 46.792813795 
46.671707992 46.466414062 46.398234739 46.160529838 46.148148506 46.093024399 46.057748419 45.788241852 45.47077592 
45.234023921 44.803828923 44.588916227 44.566227138 44.404662464 44.129542075 43.72939155 43.074166208 42.740506998 
42.708868468 42.401485899 42.382942382 41.74050479 41.537695497 41.029513528 41.025741879 40.75317315 40.706623345 
39.945387408 39.929225806 39.741038266 39.456161726 39.231855566 39.143265908 38.4828657 38.173315377 37.711479933 
37.679480698 37.192089178 36.783706735 36.554722134 36.210692849 36.119190947 35.82772163 35.083664658 34.953409705 
34.558316524 33.73190323 33.562153147 33.059277345 32.760920186 32.6665886 31.858865494 31.824672645 31.033396362 
30.995614325 30.542433074 29.951004557 29.863870396 28.926850149 28.654476132 27.486261797 27.293375442 26.604505555 
26.092096853 25.928410522 25.102535236 24.960207402 24.238110459 23.331866959 22.142961632 21.939856072 20.994670096 
20.101441423 19.806648942 19.114114913 18.912145505 
EdgeArray 2 328 int
15774 15774 15176 15176 16111 15778 16947 16948 13371 
12681 16253 16253 13791 14224 16562 16562 13279 13279 
11104 11104 13093 13093 14139 11836 15292 17695 18574 
18574 18571 18839 13789 13789 13118 13118 18689 18690 
18690 18692 17254 18692 18138 18138 11655 11655 18135 
18135 20176 20178 20177 20177 20153 20153 18749 18749 
11498 19198 16860 16695 19192 19192 19193 19193 19200 
19200 19195 18333 19808 19808 20376 20376 20373 21501 
20373 20121 21172 21172 21471 20613 19180 20240 21477 
21477 22095 22095 22098 22096 18738 19403 18770 19518 
17421 20329 21179 21573 21577 21179 21577 21577 22405 
22405 22107 22103 22108 22084 22084 21840 21840 22113 
22113 23411 23412 22200 20605 20020 22100 15979 20596 
20596 22070 22070 21545 21545 23048 23048 24631 24631 
24626 24627 23036 23036 23065 23065 24610 24329 23170 
23170 24985 24984 23346 21774 21009 24905 24959 21009 
23173 23054 24088 24913 19783 24559 24559 26701 25285 
26703 21166 23935 25439 25439 26935 26942 27280 24470 
21003 24470 24582 22688 26837 26654 26837 26655 26655 
26705 26705 27442 24305 27079 27456 24305 23527 26210 
26356 23527 25445 26356 26856 27894 28040 28040 18674 
18674 27823 27823 28481 25105 27674 28986 27160 28550 
29024 25280 28823 28823 27633 29028 29461 29461 24866 
24866 27711 27711 30304 30302 30303 30304 30308 30308 
29640 29937 29640 30516 30516 30516 30515 30515 28826 
28826 28946 28946 29160 29517 28950 29517 31098 31093 
31095 31098 31103 31103 27320 28282 27812 29392 31261 
31260 31260 31259 31255 31255 31252 31253 32039 32041 
32040 32038 32033 32038 31883 31883 31882 31884 31882 
29166 28797 29166 29702 25304 29841 25304 26885 26885 
31957 31957 31959 31958 31659 31659 31927 31927 31935 
32328 32339 32339 32325 32325 31393 31393 18256 31922 
31925 31396 32308 30043 32315 27857 32776 31933 31933 
29666 31629 31629 33234 28918 27062 27062 30634 32771 
31918 22322 31187 32316 27045 32316 27045 27045 30457 
32021 32021 33679 33679 33679 33680 33683 33680 33681 
33681 33681 32284 32284 26393 25368 26087 26393 33669 
33669 29231 32465 32330 32330 34327 32262 34340 34340 
28316 28316 28677 23387 32299 32299 34541 32684 32283 
30661 34971 32283 34969 34971 34974 34977 34580 34974 
34763 34763 34688 34688 32523 32523 35459 34766 35459 
35459 35461 35461 35475 35475 35476 35482 34895 22695 
22695 35017 32992 32992 35252 35252 34433 34851 34433 
32529 32529 34333 30431 30431 35865 36353 36353 36355 
36355 36355 35231 35231 35242 35242 36591 36591 23984 
23984 36595 36594 36594 36596 37065 37067 37069 37067 
35322 35322 35039 35039 37152 28917 33809 34055 36720 
35674 35674 35179 36428 37146 35757 35757 38161 34862 
34609 36863 38158 38159 38159 38159 38163 38618 38614 
38164 36416 36128 37207 37207 35787 37051 37847 37847 
38818 38818 38999 38999 39098 39353 39353 36200 39354 
36200 39354 39354 39616 39617 39616 39615 38854 38854 
39864 39864 39858 39858 37975 37975 40142 40142 40157 
40157 40161 40161 39162 39162 40036 40052 40948 40036 
40948 40948 40452 40963 40384 40384 41240 41125 41128 
40858 41522 41522 41537 41466 41413 41701 41896 41896 
41998 41998 42269 42269 42267 42267 42261 42261 42578 
42576 42579 42577 42579 42242 42856 42856 42272 42272 
42864 42864 43388 43389 43388 43604 43604 43605 43607 
43607 43746 42992 43888 43888 43981 44103 44338 44338 
43198 43198 44122 44122 44602 44603 44158 44158 44337 
44869 44904 45050 44873 45050 45206 45204 45204 45130 
44614 45574 45577 45441 45449 45573 45636 45573 45636 
45636 45565 45444 45987 45987 46325 46324 46538 46775 
46537 46773 46663 46663 47057 47027 47070 47027 47070 
47069 47023 47069 47041 47041 47527 47527 47765 47765 
47992 47992 48221 48221 48275 48222 48364 48364 48473 
48473 48307 48307 48482 48482 49274 48787 49003 49003 
49742 49594 49589 49589 49354 49354 49057 48911 50643 
50643 49006 49701 51281 50214 51366 51365 51256 50060 
49839 48347 50312 48347 52131 52131 52135 52136 52125 
52125 52467 52467 52539 52345 52610 52614 52609 52609 
52939 52939 52938 52938 52940 52940 52922 52922 
EdgePCoordArray 1 328 double
0 0 0.072 0.02 0.04 0 0.232 0 0 
0 0 0.06 0.148 0 0.664 0 0 0.732 
0.768 0.86 0 0 0 0.604 0 0 0 
0.664 0.908 0 0 0 0.912 0 0 0.12 
0.144 0 0.036 0.172 0 0 0.996 0.148 0.336 
0.336 0.172 0.684 0 0 0.808 0.764 0.256 0.888 
0.088 0.928 0.08 0.036 0 0 0 0 0 
0.876 0 0 0.948 0 0.024 0.096 0.276 0.768 
0.3 0.46 0.868 0.116 0.676 0.336 0 0.98 0.78 
0.696 0.112 0.664 0.856 0.196 0.808 0.256 0.708 0.12 
0.2 0.768 0.224 0 0 0 0.176 0.724 0.248 
0.54 0 0.944 0 0 0 0.004 0.992 0 
0.008 0.028 0 0 0 0 0.884 0.908 0.212 
0.764 0 0.364 0.892 0.976 0.036 0 0.12 0.66 
0.524 0.32 0 0.38 0.588 0.348 0.74 0.392 0 
0 0.988 0 0 0.068 0 0 0 0.968 
0.388 0.484 0.24 0.9 0.088 0 0.988 0 0.952 
0.828 0.984 0.956 0 0.98 0.004 0 0.296 0.312 
0 0 0.1 0.86 0 0.516 0 0.312 0 
0 0.692 0 0.692 0.056 0.648 0.98 0.06 0.9 
0 0 0 0.452 0 0 0 0.008 0.652 
0.164 0 0 0.18 0.308 0.824 0 0.848 0.548 
0 0 0 0 0 0.276 0.588 0.988 0.98 
0 0 0.836 0.024 0.952 0.072 0.668 0 0.788 
0.024 0.82 0 0.036 0.608 0.096 0 0.06 0 
0 0 0.052 0.976 0.792 0 0.004 0.004 0 
0 0 0 0 0 0 0 0.248 0.524 
0 0.024 0 0.008 0.992 0 0.276 0.624 0 
0 0 0 0 0.964 0.384 0.024 0 0 
0 0.416 0.908 0.116 0 0.768 0 0.836 0 
0 0 0.004 0 0.944 0.996 0.984 0.684 0.236 
0.972 0.964 0.588 0.404 0 0.396 0 0.048 0.188 
0.244 0 0.852 0.548 0.792 0.68 0 0 0 
0 0 0.828 0 0 0 0 0.98 0 
0.996 0 0 0.98 0 0.76 0.04 0.22 0.108 
0.84 0.776 0 0.62 0 0 0.04 0.088 0 
0 0 0 0 
CurvatureArray 1 328 double
0 1.1563933583e-05 4.6538786799e-05 8.1436533713e-05 0.00011639636424 0.00015110931973 0.00018546475642 0.00021936263344 0.00025271752382 
0.00028530603348 0.00031709826262 0.00034795654096 0.00037799824296 0.00040687256193 0.0004348517705 0.00046163583273 0.00048729179432 0.00051192852815 
0.00053559927682 0.00055818660165 0.00057978613572 0.00060082503732 0.00062128460852 0.00064141301402 0.00066144665971 0.00068226576457 0.00070381883565 
0.00072676764407 0.0007520421441 0.00077974122419 0.0008109062736 0.00084590781302 0.00088535725532 0.00092979926809 0.0009794277263 0.0010344422512 
0.001094753792 0.0011597411274 0.0012288865491 0.0013009957346 0.0013747852865 0.0014479889276 0.0015188467495 0.0015847678564 0.0016435549333 
0.0016927119942 0.0017307193187 0.0017556372348 0.001768254591 0.0017668459201 0.0017543342057 0.0017310432662 0.0017002329341 0.0016634456537 
0.0016239930765 0.0015836078172 0.0015440476066 0.0015075181535 0.0014742291338 0.0014446128603 0.0014196383914 0.001398415304 0.0013811281267 
0.0013672498411 0.0013556405196 0.0013467451258 0.0013392323441 0.0013327418668 0.0013261077641 0.0013190017567 0.0013107196911 0.0012998168784 
0.0012864738267 0.0012698527854 0.0012483496655 0.0012223439352 0.0011915293314 0.0011550934644 0.0011135783156 0.001067203418 0.0010171877619 
0.00096460915438 0.00091268100181 0.00086413183536 0.0008238931953 0.0007964790926 0.0007866629997 0.00079750293673 0.00082846686078 0.00087669346524 
0.00093710050599 0.0010030305394 0.001068814438 0.0011290978375 0.0011792557407 0.0012160277881 0.0012370916918 0.0012412367286 0.0012280039101 
0.0011980535895 0.0011523979188 0.0010931369946 0.001022311485 0.00094221257454 0.00085526635213 0.00076442314291 0.0006722952532 0.0005821926838 
0.00049780195085 0.00042500889377 0.00036990665418 0.00034154988397 0.00034397146077 0.00037371194453 0.00042358192388 0.00048303604448 0.00054732263241 
0.00061167557619 0.00067307013952 0.00073008464304 0.00078019934743 0.00082293512534 0.00085683931638 0.00088102661256 0.00089454781359 0.00089824166282 
0.0008927713845 0.00087946879835 0.00086222464546 0.00084528681333 0.00083406282226 0.00083528141521 0.00085288598776 0.00089000444765 0.00094486311898 
0.0010157239357 0.0010964214915 0.001182995152 0.001271712214 0.001358259479 0.0014421475759 0.0015206443194 0.001597417719 0.001666372404 
0.0017302772411 0.0017955468444 0.0018541319606 0.0019131698244 0.0019701827247 0.0020257698358 0.0020804650091 0.0021358225937 0.0021883658337 
0.0022389051606 0.002289715355 0.0023357394234 0.002377519348 0.0024145211451 0.0024471605941 0.0024734740235 0.0024924552953 0.0025079175957 
0.002514152745 0.0025171804709 0.0025127900268 0.0025049862632 0.0024928212574 0.0024796922674 0.0024618355269 0.0024460543945 0.0024300704245 
0.0024145796845 0.002402377178 0.0023960909159 0.0023918297118 0.0023964964728 0.0024067277962 0.0024253177111 0.0024551469243 0.0024928289671 
0.0025442216113 0.0026037042828 0.0026787638632 0.0027604489499 0.0028512236989 0.0029493644399 0.0030517441745 0.0031493482275 0.0032451063588 
0.0033264801601 0.003393812513 0.0034374724154 0.0034556260976 0.0034462207156 0.0034031206301 0.003329402765 0.0032288525956 0.0031026270887 
0.0029563520208 0.0027992533862 0.0026352099717 0.0024746618646 0.0023229840757 0.0021850737732 0.0020669930616 0.001972158322 0.0018975019853 
0.0018429496758 0.0018076371274 0.0017826916537 0.0017693471965 0.0017643821913 0.0017598227915 0.0017580010644 0.0017555263313 0.0017517456924 
0.0017450122235 0.0017410293569 0.0017313168289 0.0017253806091 0.0017167216497 0.0017120212508 0.0017095910505 0.0017087188516 0.0017140941872 
0.0017224027949 0.0017360381145 0.0017516511615 0.0017727908377 0.0017946612609 0.001821052884 0.0018443587207 0.0018684929134 0.001892896132 
0.0019158297085 0.0019348297455 0.0019582430179 0.0019801274381 0.0020094693813 0.0020421818249 0.0020842883463 0.0021355844719 0.0021967237274 
0.0022642853175 0.0023344651257 0.0024107525635 0.002476080905 0.0025328651954 0.002578700314 0.00260148744 0.002607949592 0.0025861066287 
0.00254026152 0.0024776425602 0.0023905942731 0.0022907633204 0.002176088298 0.0020568142833 0.0019344191745 0.0018125795319 0.0017025897866 
0.0016000501535 0.0015118869102 0.0014378083255 0.0013877122731 0.0013511471075 0.0013353051554 0.0013409884659 0.0013685257068 0.0014143576215 
0.0014783829919 0.0015641807179 0.0016685615202 0.0017898349372 0.0019202908462 0.0020685544181 0.0022226933698 0.0023816231759 0.0025491008064 
0.0027103614838 0.0028674633966 0.0030170964821 0.003149996867 0.0032729023221 0.0033797780803 0.0034637346069 0.003538128401 0.0035874827195 
0.0036367790449 0.0036689088995 0.0036966682041 0.0037176271854 0.0037459975749 0.0037700169365 0.0037953103717 0.0038121077438 0.0038283690003 
0.0038286187569 0.003815212863 0.003768153408 0.0036981406402 0.0035861456292 0.0034400622094 0.0032416884949 0.0030004455263 0.0027116489269 
0.0023817355542 0.0020175110898 0.001634957007 0.0012757736517 0.0010147810783 0.00099580523904 0.0012517192312 0.001661942811 0.0021081019094 
0.0025542948715 0.0029562983612 0.0033004364945 0.0035609403021 0.0037144950468 0.0037485837213 0.003651775785 0.0034327441126 0.0030744975954 
0.0025775647995 0.0019817742746 0.0012898628702 0 
TorsionArray 1 328 double
0 0 0.0010347713353 0.00064656835787 0.0014663697167 0.0020156632996 0.0025074284671 0.0031670332186 0.0037274221526 
0.0041932587228 0.0048695162915 0.0057063221768 0.0061915571057 0.006900350069 0.0077584930542 0.0083591191526 0.0090474489735 0.009956416325 
0.010790637519 0.01160544107 0.012542791719 0.013551602171 0.014498372367 0.015375508566 0.016410482446 0.017279069724 0.017984280383 
0.018771762417 0.019104224516 0.019298040536 0.019157726757 0.01857452539 0.017756670152 0.016474014185 0.014879916946 0.012854802595 
0.010579505402 0.0080158190584 0.0052203230462 0.0023135783112 -0.00089625915649 -0.00403535487 -0.0072813817661 -0.010654112588 -0.013986947518 
-0.017410555754 -0.020724172174 -0.024012318333 -0.027200361306 -0.030223930036 -0.032920872806 -0.035298353026 -0.03722656141 -0.038577265507 
-0.0393068029 -0.039427516404 -0.03884821225 -0.037656069531 -0.036044555845 -0.033958775876 -0.031608211213 -0.029145278604 -0.026635492003 
-0.024204996505 -0.021832821994 -0.019535403629 -0.017381159848 -0.01535977986 -0.013420965371 -0.011485249514 -0.0095683221274 -0.0076380006802 
-0.0055073302019 -0.0032631608393 -0.0008594007813 0.0020035382936 0.005311527602 0.0091853439157 0.013856994168 0.019522709504 0.026438704574 
0.034853338379 0.044789413528 0.056061408774 0.067651584543 0.077759462983 0.083890304108 0.084066587732 0.078609370921 0.069252300275 
0.058459503152 0.048037822776 0.038497481651 0.030584454029 0.02415481467 0.018405626658 0.013662982252 0.0096553731698 0.0057740777892 
0.002133597565 -0.0013928254636 -0.0052994519429 -0.0095937341642 -0.014832739829 -0.021497954147 -0.030115834496 -0.042226803226 -0.058812493185 
-0.082853396402 -0.11486724164 -0.15119622631 -0.17594168629 -0.17050550707 -0.14143432118 -0.10848895094 -0.082459413587 -0.064172988651 
-0.052194139215 -0.044363490182 -0.040214407518 -0.038328915586 -0.038112876432 -0.039788868007 -0.043301149986 -0.048642022103 -0.055914913826 
-0.065596937035 -0.077515179311 -0.091242024893 -0.10643513366 -0.12089884424 -0.13018021052 -0.13298430241 -0.12727429384 -0.11536667021 
-0.099903680867 -0.08411726963 -0.069506537135 -0.056265921632 -0.045437367959 -0.035881934138 -0.027961183323 -0.020955213629 -0.015000126416 
-0.010153866551 -0.0054294271981 -0.0015743089727 0.0018066645918 0.005139954253 0.0083377127975 0.010820742194 0.012973597454 0.015264994404 
0.0172730807 0.019306176275 0.020652257622 0.022266057337 0.023848726625 0.02476140925 0.026015964159 0.02699174539 0.027530711927 
0.028176057008 0.02879062575 0.029106434147 0.029480740962 0.029462821908 0.029714025487 0.029936906858 0.029611369878 0.030068783798 
0.030788691274 0.030823460049 0.030878702049 0.031852947617 0.032816423189 0.033590792762 0.034304298337 0.035256788285 0.035561415711 
0.035706297977 0.035416355518 0.034561609264 0.033875130382 0.032240948615 0.02948013283 0.026922561629 0.023543348037 0.020085224936 
0.016601940498 0.011723323183 0.0076407551786 0.0030020788323 -0.0025078501938 -0.0077776654216 -0.01364661948 -0.020277276005 -0.027242154692 
-0.03443108389 -0.041890093281 -0.050125990478 -0.058166354465 -0.065067879142 -0.070936123515 -0.075090065174 -0.075625172516 -0.073189236908 
-0.06881520295 -0.061560949218 -0.052876297354 -0.043836437359 -0.034590823921 -0.025756350039 -0.017110711989 -0.0096797423764 -0.0028167845232 
0.0034980428991 0.008788153203 0.013616145515 0.018023495352 0.021672060353 0.024394182758 0.026825309474 0.027365202737 0.027604443748 
0.027203720987 0.024980049438 0.021860967858 0.017992091608 0.012937538834 0.0071718358139 0.00036365217141 -0.0070482641294 -0.014811499439 
-0.023298135977 -0.031593261666 -0.040661292963 -0.049240915438 -0.056161914989 -0.062321948523 -0.066229145879 -0.068020437869 -0.06775000644 
-0.064975101252 -0.060299173505 -0.05453840912 -0.048476248851 -0.041544771503 -0.035150551569 -0.028558641653 -0.02225939159 -0.017423766597 
-0.011447536947 -0.0064014433212 -0.0019436522117 0.0027409347943 0.006495922432 0.0099641759704 0.013439734326 0.016657653666 0.017388204168 
0.018859367074 0.018731173812 0.016344854237 0.014230952377 0.0097619481588 0.0050984911174 0.00096203380416 -0.0027442379916 -0.0060945927486 
-0.0078330898992 -0.0072740171693 -0.0065237642337 -0.006052925781 -0.0034443918751 -0.00011349897202 0.0026116493519 0.0066793564249 0.010377730632 
0.013714380998 0.018242119453 0.022473041824 0.027371854328 0.032701028838 0.03747843185 0.043222782854 0.048829316629 0.054690664942 
0.060074929389 0.064796711359 0.06879910446 0.071786374309 0.072956054825 0.072802198513 0.071419867725 0.068542359403 0.064420581881 
0.060155655352 0.055742324049 0.051650677503 0.048024475941 0.04547577789 0.045081408361 0.047746002638 0.052939218241 0.064493467413 
0.086687666116 0.12858055626 0.20820171859 0.37008423937 0.61657510804 0.65790548455 0.42591079167 0.23593994177 0.13788136332 
0.085029470722 0.055737892592 0.03736090621 0.025218704737 0.017457383606 0.012061678687 0.0082725867179 0.0053600701551 0.0035997933719 
0.0025380000556 0.0017318413057 0 0 
TangentArray 3 328 double
0.0022898609859 0.015594946799 0.99987576937 0.0022898609859 0.015594946799 0.99987576937 0.0023345769938 0.015564186837 0.99987614525 
0.0024327948685 0.015496266381 0.99987696605 0.0025842237792 0.015391302199 0.99987820739 0.0027880769603 0.01524923784 0.99987983647 
0.0030430187987 0.015070176055 0.99988180793 0.00334738654 0.014854327374 0.99988406526 0.0036991103127 0.014601842069 0.99988654496 
0.0040957490614 0.014313024412 0.99988917494 0.0045345859103 0.013988354363 0.99989187589 0.0050125628976 0.013628214772 0.99989456743 
0.0055263787421 0.013232797 0.99989717082 0.0060727286266 0.012802680282 0.99989960163 0.0066480867009 0.012338305535 0.99990177976 
0.0072487438937 0.011839911802 0.99990363146 0.0078710609406 0.011308141663 0.99990508166 0.0085114924942 0.010743455698 0.99990606192 
0.0091664219948 0.01014598884 0.99990651344 0.0098322901343 0.0095159907852 0.99990638161 0.010505609499 0.0088537831987 0.99990561689 
0.011183109679 0.0081592787882 0.99990417752 0.011861677694 0.0074321191069 0.9999020273 0.012538389079 0.0066719158246 0.99989913208 
0.013210630527 0.0058781495344 0.99989545784 0.013876091034 0.0050495262004 0.99989097225 0.014532917629 0.0041844699718 0.99988563572 
0.015179582422 0.0032812821622 0.99987939946 0.015814914592 0.0023372427258 0.99987220472 0.016438486398 0.0013494505386 0.99986396832 
0.017050228873 0.00031445962391 0.99985458483 0.017650702607 -0.00077178830264 0.99984391634 0.018241201011 -0.0019135801124 0.99983178425 
0.01882345251 -0.0031157775685 0.99981796822 0.019399989924 -0.0043833481877 0.99980219376 0.019973920128 -0.0057212873038 0.99978413139 
0.020549257663 -0.0071343277455 0.9997633867 0.021130628581 -0.0086265722523 0.99973950546 0.021723452479 -0.010201178981 0.9997119723 
0.022333995881 -0.011860068215 0.99968021457 0.02296909779 -0.013603545261 0.99964361855 0.023636572071 -0.015429483247 0.99960154237 
0.024344319131 -0.017333357734 0.99955335467 0.025100585861 -0.019307954151 0.99949845597 0.025913864141 -0.021343011767 0.99943631488 
0.026792149888 -0.023425447691 0.9993665139 0.027743092849 -0.025539518477 0.99928877398 0.028773090958 -0.027667297862 0.99920299733 
0.02988759309 -0.029789807272 0.99910925287 0.031090499252 -0.031887079343 0.99900780529 0.032384061675 -0.033939375352 0.99889908967 
0.033768951353 -0.03592855744 0.9987836586 0.035244250322 -0.037838209917 0.99866216144 0.036807799957 -0.039654584351 0.99853527719 
0.038456234552 -0.041366962674 0.99840367208 0.040185645197 -0.042967941404 0.99826793494 0.041991454845 -0.044452714498 0.99812858585 
0.043869203879 -0.045819754767 0.9979859934 0.045814575263 -0.047069880423 0.99784039358 0.047823126722 -0.048205217082 0.99769193923 
0.049891033434 -0.049229881909 0.9975406275 0.052014831109 -0.050148903932 0.99738635682 0.054191134566 -0.05096773827 0.99722896598 
0.056416985757 -0.051692251795 0.99706821974 0.058688876948 -0.052328064373 0.99690390179 0.061003380917 -0.052881061015 0.99673576283 
0.063356920178 -0.053357292609 0.99656354539 0.065745024102 -0.053762670669 0.99638705685 0.068162338699 -0.0541030961 0.99620617875 
0.070602523981 -0.054384752314 0.99602087444 0.073058585547 -0.054614507868 0.99583115969 0.07552182058 -0.054799718239 0.99563720576 
0.077982611855 -0.054948429419 0.99543929114 0.080430930234 -0.055070127309 0.99523773368 0.082854683025 -0.055175025061 0.99503307388 
0.085240818194 -0.055274082768 0.99482600423 0.0875764647 -0.055379995959 0.99461722229 0.089847686367 -0.055506462341 0.99440757534 
0.09204004988 -0.055667976053 0.99419802135 0.094139260239 -0.055879889001 0.99398955613 0.096131236751 -0.056158041545 0.99378320558 
0.098002130784 -0.056518446836 0.99358001567 0.099739093586 -0.056976957627 0.99338096394 0.1013305251 -0.05754861438 0.99318693188 
0.10276614187 -0.058247212903 0.99299868191 0.10403763794 -0.059084703559 0.99281678456 0.10513859101 -0.060070529108 0.99264163131 
0.10606532326 -0.061211362211 0.99247333281 0.10681695958 -0.06250998198 0.99231176517 0.1073953543 -0.063965113698 0.99215659152 
0.10780581024 -0.065571525107 0.99200719875 0.10805661824 -0.067319251719 0.99186283608 0.10815894876 -0.069193885303 0.9917226669 
0.10812782658 -0.071177272563 0.99158568414 0.10798005911 -0.073247603889 0.99145100502 0.10773370613 -0.075380173824 0.99131794998 
0.10740976025 -0.077548599553 0.9911858343 0.10702938825 -0.079725536624 0.99105426131 0.10661335658 -0.081883541881 0.99092314423 
0.10618298372 -0.083996279482 0.99079251057 0.10575834657 -0.086039059011 0.99066263302 0.10535754621 -0.087989580801 0.99053400806 
0.10499735781 -0.089828682146 0.99040717017 0.10469209182 -0.091540049658 0.99028278043 0.10445430312 -0.093110413086 0.9901614765 
0.10429429498 -0.09452982097 0.99004384397 0.10421992263 -0.095791244039 0.98993042447 0.10423735931 -0.096890322766 0.98982161942 
0.10434996921 -0.097824952634 0.98971781967 0.10456002211 -0.098595315101 0.98961920233 0.10486740838 -0.099203226626 0.98952592007 
0.10527039933 -0.099651796962 0.98943805384 0.10576624628 -0.099945445674 0.98935555239 0.1063496088 -0.10008939418 0.98927846124 
0.10701462691 -0.10009001083 0.98920668182 0.10775360077 -0.099953798431 0.98914023258 0.1085570773 -0.099687761661 0.9890792239 
0.10941477971 -0.09929940241 0.98902377861 0.11031435326 -0.09879659431 0.98897420412 0.11124259036 -0.098187955802 0.98893084259 
0.11218429608 -0.097481836802 0.98889431953 0.11312303331 -0.096687138306 0.98886539864 0.11404183227 -0.095813406673 0.98884490776 
0.11492233764 -0.094870614486 0.98883387018 0.11574502846 -0.093869418951 0.98883346453 0.11649014052 -0.092820890482 0.98884494712 
0.11713828212 -0.0917363869 0.98886958603 0.11767005172 -0.090627961548 0.98890865681 0.11806753654 -0.089507965773 0.98896328591 
0.11831517069 -0.088388528457 0.98903437171 0.11839913593 -0.087281599451 0.98912262486 0.11830821153 -0.086198096572 0.98922851517 
0.11803575687 -0.085147868057 0.98935201049 0.11757797908 -0.084139714361 0.98949276263 0.11693516247 -0.083180421064 0.98965003174 
0.11611102963 -0.082274703193 0.98982276293 0.11511218248 -0.081424873673 0.99000968449 0.11394817036 -0.080631669564 0.99020924472 
0.11262956408 -0.079893574678 0.99041990995 0.11116908656 -0.079206875603 0.99064004818 0.10957932631 -0.078567039028 0.99086810001 
0.1078731284 -0.077967537705 0.99110264415 0.10606129222 -0.07740067243 0.99134259376 0.10415506663 -0.076858074674 0.99158688901 
0.10216697362 -0.076331574948 0.99183436126 0.10010347382 -0.075812382957 0.99208456148 0.0979720167 -0.075290977355 0.99233701567 
0.095780292397 -0.074759093859 0.99259116129 0.093533144418 -0.074208394683 0.99284674802 0.091236738448 -0.073630373304 0.99310343151 
0.088896725501 -0.073016342895 0.99336095447 0.086517256536 -0.072358949157 0.99361911556 0.084103449719 -0.071651936974 0.99387756272 
0.081662105176 -0.07088898931 0.99413583165 0.079198111729 -0.070064081093 0.99439362611 0.076717920331 -0.06917155975 0.99465051954 
0.074229623311 -0.068208719999 0.99490579129 0.071741411105 -0.06717242301 0.99515879915 0.069261342499 -0.066059822954 0.99540894422 
0.066797272827 -0.064870659005 0.99565552373 0.06435874412 -0.063604822485 0.99589777518 0.061953344079 -0.062262765078 0.99613509688 
0.059588743379 -0.060846964098 0.99636681429 0.057272440161 -0.059360144414 0.99659231427 0.055010911183 -0.057804979136 0.9968111075 
0.052810131581 -0.056185537138 0.99702270557 0.050674775058 -0.054505206551 0.99722677944 0.048607722201 -0.052767901778 0.99742309873 
0.04661260197 -0.050977380054 0.99761143341 0.04469170582 -0.049136820282 0.99779167381 0.042844625725 -0.047249040947 0.99796386016 
0.041073306186 -0.045316110978 0.99812796454 0.039379107011 -0.043338510358 0.9982840575 0.037760293636 -0.041315926688 0.99843234845 
0.036216018346 -0.039248534103 0.99857295807 0.034746750195 -0.037133755585 0.9987060366 0.033352480797 -0.034967558142 0.99883175856 
0.032033491711 -0.032746497251 0.99895021013 0.03078906399 -0.030464657285 0.99906152873 0.029620124498 -0.028115931825 0.99916572329 
0.028526234237 -0.025693797245 0.99926276962 0.027507504395 -0.023191646694 0.99935253276 0.026563367888 -0.020602181743 0.99943480908 
0.025692896857 -0.017919028036 0.99950927134 0.02489716953 -0.015138503275 0.99957538819 0.024174721159 -0.012256816104 0.99963260917 
0.023521304422 -0.009272686447 0.99968033167 0.022933953765 -0.006189824425 0.99971782011 0.022406773716 -0.0030142875212 0.99974439261 
0.021933049572 0.00024418807908 0.99975941191 0.021505576316 0.0035711814685 0.99976235019 0.021111623058 0.006948299136 0.99975297975 
0.020740484 0.01035295186 0.99973128825 0.020379001056 0.013761276056 0.99969761608 0.020011236211 0.017145433096 0.99965273198 
0.019622772035 0.020476123107 0.9995977567 0.019198229698 0.023726464328 0.99953413292 0.018721790427 0.026870507219 0.99946359134 
0.018179494875 0.029883772759 0.9993880458 0.017559559324 0.032746974016 0.99930941033 0.016852485089 0.035444936347 0.9992295283 
0.016049453617 0.037966774193 0.99915010839 0.015144132977 0.040307361286 0.99907255585 0.014134126041 0.042465548903 0.99899794977 
0.013018548348 0.044444815406 0.99892701224 0.011797173632 0.046253210733 0.99886008389 0.010474086643 0.04790215405 0.99879711511 
0.0090557704603 0.049404620855 0.99873779164 0.0075475135114 0.050775801691 0.99868155736 0.0059582345233 0.052031635591 0.99862766251 
0.0042981332667 0.053188983012 0.99857521406 0.0025752487411 0.054265879112 0.99852320076 0.00080057871168 0.055278814019 0.99847063642 
-0.0010142479293 0.056243623556 0.99841655941 -0.0028584646695 0.057176964412 0.99835996711 -0.0047211727981 0.058092907192 0.99830001736 
-0.0065911232093 0.059004495638 0.99823595737 -0.0084598114847 0.05992492465 0.99816703762 -0.010318111759 0.060864486207 0.99809270656 
-0.012157704559 0.061832454021 0.99801249383 -0.013971835258 0.062837718973 0.99792595361 -0.015754407159 0.063887087605 0.99783277091 
-0.017502489906 0.0649865423 0.99773263561 -0.019211935211 0.066140464678 0.99762535076 -0.020882877913 0.067350422117 0.997510815 
-0.022516285674 0.068618026312 0.99738888271 -0.024113571596 0.069943486985 0.99725946689 -0.025678625593 0.071323453787 0.99712264698 
-0.027217277611 0.07275332311 0.99697852222 -0.028736526724 0.074227124106 0.99682723984 -0.030245573203 0.075736669134 0.99666903346 
-0.031753894729 0.077271248395 0.99650431225 -0.033271809437 0.078816878311 0.9963337224 -0.034812355873 0.080359837506 0.99615781701 
-0.036388076988 0.081884561321 0.99597732227 -0.03801041593 0.083371914669 0.99579331798 -0.039691571641 0.084804644261 0.99560672529 
-0.041444454753 0.086163580119 0.99541860272 -0.043280251472 0.08742985998 0.99523004347 -0.045207786036 0.088587385489 0.9950419746 
-0.047233574894 0.08962001921 0.99485538726 -0.049362608557 0.090515603176 0.99467092973 -0.051596814523 0.091264647766 0.99448908129 
-0.053934558386 0.091860393267 0.99431017875 -0.056369081402 0.092300804646 0.99413434108 -0.058893672631 0.092589480386 0.99396112773 
-0.06149616123 0.092733065506 0.99379011905 -0.064158834552 0.092741360455 0.99362099616 -0.0668666073 0.092629330947 0.99345289968 
-0.069599288799 0.092413164193 0.99328532964 -0.07233629873 0.092112376812 0.99311770195 -0.075056144449 0.091747676285 0.99294961558 
-0.077734239075 0.091337483331 0.99278137181 -0.080353273758 0.090903186042 0.99261269494 -0.082895589001 0.090463228707 0.99244381482 
-0.085345143331 0.090033626134 0.99227524038 -0.087690399734 0.089628875386 0.99210738254 -0.089922939016 0.089259097161 0.99194086447 
-0.092039524733 0.08893131776 0.99177615751 -0.094038796689 0.088650969362 0.99161369008 -0.095926588972 0.088420469617 0.99145343314 
-0.09771142336 0.088236291673 0.99129553342 -0.099403157101 0.088096607023 0.99113974806 -0.10101519287 0.08799634879 0.99098565752 
-0.10256610133 0.087927561799 0.99083244736 -0.1040746836 0.087884108984 0.99067898111 -0.10555817027 0.087857156149 0.99052440293 
-0.10703850792 0.087838419357 0.99036718943 -0.10853837162 0.087820853141 0.99020549364 -0.1100785738 0.087797943239 0.99003748856 
-0.11167766371 0.087763152331 0.98986146936 -0.1133557312 0.087711814536 0.98967525775 -0.11513272774 0.087642796387 0.98947622268 
-0.11702544957 0.087555303096 0.98926190316 -0.11904509862 0.087448057776 0.98903038461 -0.12120309433 0.087324674418 0.98877915187 
-0.12350891409 0.08719192518 0.98850549635 -0.12596463745 0.087056777803 0.98820748203 -0.1285736396 0.086931023388 0.98788249118 
-0.13133332216 0.086827772459 0.98752847879 -0.13423403739 0.086760400969 0.98714429342 -0.13726534773 0.086746996933 0.9867285254 
-0.14041006788 0.086805744528 0.98628077927 -0.14364891402 0.08695681874 0.98580094399 -0.14696224134 0.087221879899 0.98528901511 
-0.15032302252 0.087619216345 0.98474659777 -0.15370571826 0.08816862345 0.98417521103 -0.15708258067 0.088887426157 0.98357718981 
-0.16042816718 0.089791274366 0.98295489735 -0.16371944704 0.090893100454 0.98231073849 -0.16693030275 0.092199583259 0.98164836417 
-0.17003894234 0.093714080859 0.98097116631 -0.17302899618 0.095436664843 0.98028200508 -0.17588735849 0.097361760661 0.97958375073 
-0.17860135301 0.099477378198 0.97887987411 -0.18116057821 0.101766732 0.97817400147 -0.18355948602 0.1042084705 0.97746944186 
-0.18579555347 0.10677673877 0.97676954312 -0.18786621408 0.10944153229 0.97607829431 -0.18976817148 0.11216727303 0.97540070943 
-0.19149932675 0.11491595596 0.9747421869 -0.19305824181 0.11764827853 0.9741085144 -0.19444246161 0.12032281748 0.97350631673 
-0.19564621756 0.12289748148 0.9729433522 -0.19666061989 0.1253294246 0.97242847342 -0.19747858836 0.12757837905 0.97197014581 
-0.19809032336 0.12960623716 0.97157729856 -0.19848432352 0.13137939338 0.97125868249 -0.1986482759 0.13286800941 0.97102263339 
-0.19857257774 0.1340493935 0.97087573431 -0.1982443506 0.13490416603 0.97082441432 -0.19765760204 0.13542306427 0.9708718072 
-0.19681060923 0.13560611592 0.97101831364 -0.19569978631 0.1354557908 0.9712637759 -0.19433654485 0.13498841153 0.9716025093 
-0.19273938625 0.13422927015 0.9720257363 -0.1909325231 0.13321117363 0.97252226445 -0.18894996418 0.13197359455 0.97307804485 
-0.18683250508 0.13056219573 0.97367711696 -0.18463240238 0.12903147027 0.97430064953 -0.18241114833 0.12744054312 0.97492824399 
-0.18023586892 0.12585159768 0.97553903403 -0.17817369305 0.12432517238 0.97611340869 -0.17629366348 0.12292175858 0.97663236967 
-0.17467011623 0.12170299108 0.97707662569 -0.17336621385 0.12072041799 0.97743068121 -0.17243355092 0.1200157619 0.97768240621 
-0.17243355092 0.1200157619 0.97768240621 
NormalArray 3 328 double
-0.82824098319 0.5603303065 -0.0068426146679 -0.82824098319 0.5603303065 -0.0068426146679 -0.82277446033 0.56832580806 -0.0069255564979 
-0.82229940399 0.56901424039 -0.0068179493127 -0.82152743056 0.57013017855 -0.0066528454171 -0.81954006725 0.57298554209 -0.0064534274972 
-0.81728969797 0.57619367077 -0.0061970445866 -0.81431475286 0.58039358881 -0.0058962137068 -0.81061460957 0.585553693 -0.005552239616 
-0.80637025468 0.59138850309 -0.0051624399956 -0.80162103599 0.59781381834 -0.0047279232811 -0.79590641959 0.60540466702 -0.0042615031385 
-0.78926716409 0.61403841546 -0.0037640434781 -0.78235489361 0.62282455953 -0.0032231183444 -0.7741346068 0.63301541309 -0.0026640852578 
-0.76516272178 0.64383359393 -0.0020766644854 -0.75546026126 0.65519283699 -0.0014628785164 -0.7447915316 0.66729669996 -0.00082986295854 
-0.73284981232 0.68039041595 -0.00018564028346 -0.72002875037 0.69394406984 0.00047601076797 -0.70595822397 0.70825254881 0.0011459150619 
-0.69066213743 0.72317528122 0.0018233364182 -0.67387627029 0.73883997613 0.0025024015874 -0.65593395502 0.75481155214 0.0031886376305 
-0.6366175643 0.77116991775 0.0038774726954 -0.61571532341 0.787955454 0.0045654179263 -0.5937418809 0.80463835716 0.0052624186368 
-0.57058335002 0.82121801743 0.0059672886168 -0.54612843458 0.83767482404 0.0066799788298 -0.52157984183 0.85317018088 0.007423682031 
-0.49620219625 0.86816837545 0.0081885478514 -0.47156065866 0.88178764401 0.0090053359221 -0.44739208306 0.89428341696 0.0098739128269 
-0.42462635172 0.9053040835 0.010815628911 -0.403668165 0.9148288057 0.011843514242 -0.38502479038 0.92281504837 0.012972944882 
-0.3693885897 0.92916617243 0.014223002663 -0.35680302885 0.93404935724 0.015601180569 -0.34796768886 0.93735008684 0.017126068339 
-0.34281030187 0.93921648209 0.018801507864 -0.3416223831 0.93961071552 0.020636149162 -0.34481493832 0.93839765971 0.022638254495 
-0.35174234546 0.93576844327 0.024794011222 -0.36313507295 0.931342001 0.027110808996 -0.3784997821 0.92512892306 0.029570097646 
-0.39804089567 0.91680373976 0.032161283113 -0.42160493581 0.90610918131 0.03486301254 -0.4488742365 0.89280156245 0.037646910684 
-0.47981258395 0.8764364315 0.040485377884 -0.51397047122 0.85671228686 0.043340653584 -0.55095731645 0.83325510419 0.046173226043 
-0.59001898781 0.80590482275 0.048938846557 -0.63060788794 0.77438464588 0.051595657706 -0.67173553893 0.73881281488 0.054101666373 
-0.71249276061 0.69940732044 0.056422213592 -0.75194711823 0.65661973961 0.058532460626 -0.78930104644 0.61102653952 0.060418756078 
-0.82363756827 0.5637077658 0.062086318249 -0.8546389552 0.5153192078 0.063548173269 -0.88194600566 0.46687040128 0.064832642312 
-0.90540314606 0.41939446291 0.065980509164 -0.92524802331 0.3733945088 0.067027130018 -0.94165561033 0.32963341779 0.068018537337 
-0.95504680402 0.28831652248 0.068986846491 -0.96577557911 0.24976430304 0.069966590083 -0.97420339657 0.21421543354 0.070989366432 
-0.98069912797 0.18175191003 0.072079564367 -0.98560687436 0.15235766339 0.073254567178 -0.98922518078 0.12601219927 0.074528298993 
-0.99179694746 0.10283601946 0.075918167134 -0.99353502713 0.083010711414 0.077442699171 -0.99464238509 0.066545401309 0.07910900932 
-0.99527007333 0.053730444589 0.080935285635 -0.99552683916 0.045216850472 0.082956307488 -0.99552553002 0.040935804356 0.085165597495 
-0.995282018 0.041717324701 0.087597770903 -0.99472873847 0.04860069231 0.090292356076 -0.99368881303 0.062327989523 0.09326180665 
-0.99174763499 0.084363751639 0.096536966517 -0.9881607422 0.11624902447 0.10012248443 -0.9816237665 0.15999850859 0.10399643404 
-0.97000005375 0.21776625848 0.10806364977 -0.94995402108 0.29158234816 0.11210304219 -0.91677542115 0.38228226944 0.11568532171 
-0.86457514246 0.48842218707 0.11812531577 -0.78814821945 0.60396372572 0.11853354881 -0.68582893401 0.71843938653 0.11611856509 
-0.56311892807 0.81892928696 0.11068828221 -0.43176356413 0.89609513328 0.10292588015 -0.30445080253 0.94787206874 0.094065137752 
-0.19091577064 0.97788569933 0.085385757416 -0.094634810105 0.99247745722 0.077670777161 -0.016081055555 0.99732253013 0.071338422712 
0.045953289569 0.99672531883 0.066535208624 0.095215868246 0.99345944668 0.063025917198 0.13335718016 0.98920580947 0.060726674635 
0.16141879559 0.98508592966 0.059579221278 0.18220350999 0.98147238948 0.059277564322 0.19580791903 0.97881626853 0.059816145956 
0.20275920988 0.97731904311 0.06112438776 0.20350809038 0.9770358519 0.063130034465 0.19805558378 0.97797917037 0.065808267442 
0.18500218709 0.9802917578 0.0692983431 0.16442545918 0.98364405859 0.073543418242 0.13250918105 0.98803396139 0.078931667187 
0.088151863402 0.99243328477 0.085471774613 0.024828528708 0.99529121222 0.093696035363 -0.062924747418 0.99260677705 0.10378950964 
-0.18435888084 0.97600072071 0.11590684287 -0.34965025155 0.92790251282 0.12938944431 -0.55380762155 0.82062595515 0.14096155521 
-0.76504840722 0.62752863993 0.14459855005 -0.91960772752 0.36870841604 0.13555711497 -0.98690746922 0.11070453141 0.11729515733 
-0.99043475207 -0.097892238273 0.097242539957 -0.96404190729 -0.25361427148 0.079391449716 -0.92810472268 -0.3666166794 0.064914051788 
-0.8902517584 -0.45236648514 0.053069480755 -0.85347285091 -0.51933371798 0.043319535276 -0.8177706502 -0.57448204544 0.034950581246 
-0.78146716621 -0.62335300015 0.027204877194 -0.74431174745 -0.6675364333 0.019877948181 -0.7043223675 -0.70977099206 0.012455579728 
-0.65995426931 -0.75129156918 0.0046195773363 -0.60858428702 -0.79347870186 -0.0040884327026 -0.54819026208 -0.83623786003 -0.013916825079 
-0.47525977857 -0.87948195786 -0.025290881112 -0.38625119355 -0.92158986117 -0.038498613919 -0.27814275908 -0.95904342958 -0.053593896612 
-0.14893996383 -0.98634197056 -0.070330678165 0.0015572449776 -0.996111768 -0.088084735516 0.16616905824 -0.98045818737 -0.10530710752 
0.33103650614 -0.93595066359 -0.12004660314 0.4844823176 -0.86491931989 -0.1311161852 0.61257908632 -0.7783049414 -0.13779797236 
0.71413260271 -0.68571059056 -0.14076793577 0.78897430138 -0.59804672911 -0.14092431146 0.84371471593 -0.51840147974 -0.13930320863 
0.88222232047 -0.45056069715 -0.13667053613 0.90940748203 -0.39388252931 -0.13354618949 0.92864983508 -0.34734286013 -0.13023986074 
0.94192749473 -0.31088478167 -0.12697734918 0.95134803341 -0.28214822208 -0.12381155078 0.95757376824 -0.26162032021 -0.12086060744 
0.96181260471 -0.24692926135 -0.11807816608 0.96440759793 -0.23786661119 -0.1154879229 0.96556304043 -0.23429723556 -0.11310535071 
0.96579900472 -0.23440278796 -0.11084951729 0.96497889807 -0.23872369812 -0.10875073445 0.96322941553 -0.24655386128 -0.10677212436 
0.96039645163 -0.25812863219 -0.10492027896 0.9569050828 -0.27148644523 -0.10309108874 0.95235954461 -0.28765247015 -0.10132795378 
0.94687534035 -0.30579383733 -0.099585234277 0.94031967489 -0.32591906111 -0.097855376026 0.93255992704 -0.34798167949 -0.096128732498 
0.92407559464 -0.37038449295 -0.094337811977 0.91396747245 -0.39509079182 -0.092556607099 0.90298002653 -0.42000001039 -0.090703158475 
0.89077995437 -0.44567462407 -0.088798661885 0.87723777636 -0.47213552717 -0.086844272707 0.86264556109 -0.49864659084 -0.084818708899 
0.84701399417 -0.52509439595 -0.082723449049 0.83021177548 -0.55159549888 -0.080565584899 0.8122663898 -0.5780012289 -0.078344696017 
0.79352928029 -0.60376059132 -0.076055438264 0.77349136601 -0.62950584457 -0.073712267441 0.7532591227 -0.65384783147 -0.071300121704 
0.73124766362 -0.67862897526 -0.068844523202 0.7092619955 -0.70181749371 -0.066329686094 0.68621276442 -0.72460044581 -0.063767043813 
0.66209004525 -0.74692480321 -0.061156441452 0.63648280878 -0.76906956075 -0.058494827523 0.61097176041 -0.7896844945 -0.055784470369 
0.58389006338 -0.81009973796 -0.053017058004 0.55551571366 -0.82999003676 -0.050187954271 0.52545037074 -0.84950925947 -0.047285578795 
0.49452831109 -0.86803116902 -0.044312968149 0.46206912497 -0.88588389147 -0.041253540267 0.42828299692 -0.90284103107 -0.038101800012 
0.39437969051 -0.91828575849 -0.034870122835 0.35944450402 -0.93263339905 -0.031537144828 0.32551024622 -0.94511986177 -0.02813408071 
0.29164677924 -0.95620868157 -0.024639672184 0.25871796958 -0.96572308236 -0.02106989372 0.227811545 -0.97354893383 -0.017446300438 
0.20018794188 -0.97966036251 -0.013797175409 0.17432126942 -0.98463707873 -0.010095455307 0.15339761558 -0.98814370885 -0.0064173352299 
0.13447692213 -0.99091302505 -0.0027081714051 0.12048596287 -0.99271457233 0.00095427059702 0.11128349023 -0.99377825505 0.0045568191192 
0.1054543712 -0.99439107263 0.0081098874281 0.10546974379 -0.9943555773 0.011537722399 0.11060748871 -0.99375351663 0.014830091866 
0.12113466921 -0.99247373219 0.017952237488 0.13802129318 -0.99020968894 0.020854125623 0.16187617546 -0.98653144706 0.023490589094 
0.1927515326 -0.98090770268 0.025824901042 0.23098073438 -0.97256074835 0.027811708125 0.27666854263 -0.9605153999 0.029405510835 
0.33082278306 -0.94319903001 0.030526644018 0.39122921821 -0.91976500763 0.031177388442 0.45683188463 -0.88900128567 0.03132639876 
0.52509471041 -0.85047913036 0.030996676135 0.59365770073 -0.80414983338 0.030225483246 0.65693626073 -0.75337879311 0.029242835457 
0.71453864909 -0.69903140161 0.028100151617 0.76373508257 -0.6449640681 0.027019890941 0.80398228353 -0.59407771351 0.026156415534 
0.83533052987 -0.5491490994 0.025654872882 0.85945519671 -0.5105731369 0.025531093511 0.87657323701 -0.48057089215 0.025903238567 
0.88854749885 -0.45800684248 0.02670345523 0.89518264377 -0.44481670296 0.028038100162 0.89879131209 -0.43736937983 0.0297019006 
0.89811491152 -0.43860555639 0.031855480101 0.89506785039 -0.44461055866 0.034278190139 0.88858941635 -0.45720335543 0.037066709317 
0.87995623883 -0.47336375944 0.040047084695 0.86774726944 -0.49511368436 0.043325695955 0.85387260896 -0.51838531586 0.046671532735 
0.83690408503 -0.54504430654 0.050182231587 0.81829216154 -0.57228861247 0.053699929246 0.79890460974 -0.59873634178 0.057150831778 
0.77816777058 -0.62512848818 0.060574698518 0.75777888848 -0.64937823367 0.063867564692 0.73901138341 -0.67035486653 0.066981550534 
0.72253288529 -0.68779212846 0.069915790082 0.70929225897 -0.70115995031 0.072658209679 0.70081175651 -0.70937435603 0.075172501264 
0.69705302616 -0.7128205028 0.077485543813 0.69997951306 -0.70972204283 0.079519200316 0.70852449768 -0.7009863686 0.081308961542 
0.72383658257 -0.68498981525 0.082762036827 0.74511575149 -0.66164477061 0.08383742839 0.77140642232 -0.63071057349 0.084476648214 
0.80310194874 -0.58982058002 0.084492267825 0.83666539068 -0.54124520359 0.083932434938 0.8709850284 -0.48430128227 0.082688259681 
0.90365641111 -0.42056875417 0.080789935531 0.93260319428 -0.35229797534 0.078341678463 0.95653732152 -0.28167281641 0.075476996732 
0.97476019236 -0.21119400767 0.072385485581 0.98708477932 -0.14439740232 0.06937599462 0.99432925831 -0.082879356458 0.066635863846 
0.99755069549 -0.02753755858 0.064298466451 0.99782692914 0.020929817708 0.062476893433 0.99623237785 0.061308979984 0.061337250524 
0.99353024486 0.095994499226 0.060685324977 0.99065769207 0.1220500306 0.060836889953 0.98776785544 0.14332509173 0.061421346827 
0.98529548528 0.15901003566 0.062518919162 0.98375695406 0.16759875071 0.064287744605 0.98272286041 0.17278779706 0.066333677889 
0.98270246593 0.17188690808 0.068925715773 0.98328843896 0.16729934189 0.071796768831 0.98452193751 0.15840482438 0.074996441019 
0.9861088103 0.14644332111 0.078382191508 0.98812070955 0.12991617213 0.082092944791 0.99009011888 0.11110897878 0.085885687568 
0.99164728429 0.092894856131 0.089477423239 0.99313912044 0.070440307311 0.093342651347 0.99392091698 0.052763817993 0.096629137935 
0.99438447202 0.03517009239 0.099812756748 0.99448759933 0.021977433612 0.10252515397 0.99440157335 0.014128240493 0.10471821114 
0.99425359749 0.011053623975 0.10647817278 0.99408878465 0.012222540328 0.10788001551 0.99389436904 0.017269237319 0.10897594523 
0.99361728344 0.025798667326 0.10981403745 0.9932476011 0.034758921557 0.11068432716 0.99283683461 0.042170466579 0.11178851277 
0.9923646087 0.049381389532 0.11302195261 0.99186059168 0.055796259938 0.11445236582 0.99152670667 0.057555078643 0.11645687132 
0.99129444075 0.056631432851 0.11886215777 0.99117174472 0.052585860012 0.12170990013 0.99118982721 0.043212327421 0.12520152232 
0.9911439365 0.031224097444 0.12906879126 0.99094397894 0.015124804077 0.13342140347 0.99037192918 -0.006017702834 0.1383012261 
0.98917233753 -0.03066002264 0.14352020654 0.98690894839 -0.0612136322 0.14920998229 0.98319813966 -0.096156180279 0.15516251856 
0.97755622195 -0.13553934984 0.1612852057 0.96918639196 -0.18057534288 0.16754188488 0.95764227967 -0.229675214 0.17369674799 
0.94195546279 -0.28363221169 0.1796459702 0.92181150118 -0.34056363773 0.18514849432 0.89673038214 -0.3997032813 0.19003133601 
0.86657136441 -0.45974744215 0.19412974996 0.83171019488 -0.51896004369 0.19732872264 0.79297609026 -0.57563113169 0.19959388892 
0.75134698382 -0.6285628684 0.20096375385 0.70773818651 -0.67712320438 0.20152127788 0.66426099679 -0.71983443142 0.20148379461 
0.62130110338 -0.75736063499 0.20097215606 0.58010992016 -0.78955660559 0.20018203492 0.54043087452 -0.81748010991 0.19915004334 
0.50329272706 -0.84111628592 0.19803995667 0.46728139492 -0.861946857 0.19671226112 0.4330207036 -0.87998267358 0.19525256579 
0.3963689428 -0.89755880858 0.19307989622 0.35729949916 -0.91443624174 0.19011424907 0.31121406513 -0.93204620657 0.18556851697 
0.25214918104 -0.95112274738 0.17828715577 0.16698606584 -0.97195312478 0.16559823984 0.033718555658 -0.98925473392 0.14226078311 
-0.18924975133 -0.97720367329 0.096215968199 -0.55693172053 -0.83055656972 0.0016861690873 -0.89115852593 -0.43742054684 -0.12041489472 
-0.98034838374 -0.013567341044 -0.1968069454 -0.94463242213 0.23996474809 -0.22380014911 -0.89759359857 0.37505716526 -0.23164165124 
-0.86077319719 0.45244504565 -0.2331587092 -0.83487402469 0.49903782053 -0.23226410954 -0.81630520925 0.52970284903 -0.23034907658 
-0.80387926504 0.54939111864 -0.22791999912 -0.79522630751 0.56291973539 -0.22524762229 -0.78943656262 0.57209182375 -0.22248788461 
-0.78550933468 0.57851601438 -0.21975965563 -0.78307820495 0.58277601983 -0.21716499636 -0.78168173521 0.58552147855 -0.21479819133 
-0.78069295589 0.58758430623 -0.2127514787 -0.78018022124 0.58885654833 -0.21110847418 -0.7796543879 0.58997331687 -0.20992979971 
-0.7796543879 0.58997331687 -0.20992979971 
BinormalArray 3 328 double
-0.56036740652 -0.82812242166 0.014199452578 -0.56036740652 -0.82812242166 0.014199452578 -0.56836320886 -0.82265638756 0.014132615782 
-0.56904988508 -0.82218164657 0.014126865533 -0.57016313686 -0.82141018214 0.014117720913 -0.57301509997 -0.81942359577 0.014094889193 
-0.5762189598 -0.81717424309 0.014070067808 -0.58041388532 -0.81420060859 0.014038899612 -0.58556833191 -0.81050210291 0.014002494212 
-0.59139685256 -0.80625974459 0.013963776047 -0.59781531612 -0.80151292226 0.013924197234 -0.60539891433 -0.79580114407 0.013881412596 
-0.61402508322 -0.78916520287 0.013837621007 -0.62280329351 -0.78225677333 0.013798484102 -0.63298610846 -0.77404086004 0.013759850653 
-0.64379613615 -0.76507393095 0.013726443973 -0.65514718961 -0.75537703982 0.013699914403 -0.66724293099 -0.74471450394 0.013681325678 
-0.6803286921 -0.73277959905 0.013672231691 -0.6938745742 -0.71996602271 0.013674846385 -0.70817555605 -0.70590363197 0.013691025767 
-0.72309110766 -0.69061634705 0.013722653415 -0.73874899184 -0.67383993149 0.013772210369 -0.75471414154 -0.65590777271 0.013840457057 
-0.77106650561 -0.63660223478 0.013929774096 -0.78784649179 -0.6157115435 0.014042812268 -0.80452431484 -0.59375045633 0.014178238037 
-0.82109939773 -0.57060511831 0.014337991551 -0.83755216042 -0.54616428524 0.014524190509 -0.85304410482 -0.52163092454 0.014728672612 
-0.86803955563 -0.49626965754 0.014958505057 -0.88165696158 -0.47164600625 0.015200226467 -0.89415187893 -0.4474969367 0.015456682977 
-0.90517298847 -0.42475264371 0.015717907161 -0.9146997611 -0.40381808097 0.015978251494 -0.92269006351 -0.38520079618 0.016229396624 
-0.92904779092 -0.36959345959 0.016458335825 -0.9339406272 -0.35703974636 0.016659062936 -0.93725481014 -0.34823950186 0.016812799394 
-0.93913912152 -0.34312058893 0.016910703477 -0.93955658047 -0.34197462895 0.016934734859 -0.93837304457 -0.34521263491 0.0168601876 
-0.93578025013 -0.35218883471 0.016683769711 -0.93139834624 -0.36363344191 0.016365834524 -0.92523855659 -0.3790527029 0.015895339922 
-0.91697634979 -0.39865041222 0.015238857034 -0.90635511743 -0.4222722872 0.0143706841 -0.89313158551 -0.44959970052 0.01326952336 
-0.87686179987 -0.48059520276 0.011901051032 -0.85724426832 -0.514807995 0.010246595518 -0.83390485549 -0.55184603845 0.0082850375196 
-0.8066828695 -0.59095393681 0.0060160296607 -0.77530093157 -0.63158268667 0.0034315326661 -0.73987603799 -0.67274299588 0.0005566807056 
-0.70062485261 -0.71352517441 -0.0025770894719 -0.65799745084 -0.75299686159 -0.0059229318294 -0.61256883353 -0.79036100876 -0.009428680727 
-0.56541723452 -0.82470243412 -0.013009460489 -0.51719752604 -0.85570470399 -0.016618622796 -0.46891810762 -0.88301092035 -0.020187196294 
-0.42161122837 -0.90646825825 -0.023648866789 -0.37577992589 -0.92631615998 -0.026978121922 -0.33218674338 -0.9427322523 -0.030130847787 
-0.29103732723 -0.9561388466 -0.033102570727 -0.25265222445 -0.96689170366 -0.035878780227 -0.21727017658 -0.97535395699 -0.038449043565 
-0.18497329824 -0.98189573913 -0.040812209077 -0.15574556499 -0.98686205604 -0.042972099544 -0.12956634323 -0.99055226042 -0.044930858813 
-0.10655561274 -0.9932104771 -0.046678148804 -0.086894147917 -0.99505099232 -0.048196781395 -0.070590228836 -0.99627742143 -0.049480492593 
-0.057932662505 -0.99704248126 -0.050498486971 -0.049569930203 -0.9974581282 -0.051186956426 -0.045431493216 -0.99763719685 -0.051536422973 
-0.046343365879 -0.99759933871 -0.05145728175 -0.053339475901 -0.99728182013 -0.050831796703 -0.067156057896 -0.99651104076 -0.049556125025 
-0.089248292493 -0.9948788036 -0.047443739686 -0.12114514955 -0.99164691414 -0.044274715422 -0.16484406682 -0.98551851917 -0.039745213752 
-0.22247579215 -0.97436313653 -0.033481339125 -0.29603964437 -0.95484729697 -0.025043330896 -0.38633528426 -0.92225182215 -0.014022292086 
-0.49188305839 -0.87066125983 -0.00016582862616 -0.60662884376 -0.79481873142 0.016267455521 -0.72012814829 -0.69299089418 0.034337597885 
-0.8195408593 -0.57062070774 0.052390722872 -0.89563963838 -0.43943829404 0.068728625015 -0.94645440815 -0.31216502932 0.082322826456 
-0.97566852762 -0.19859489959 0.092903121895 -0.98963024407 -0.10225759266 0.1008730131 -0.99400354197 -0.023663836108 0.10675664572 
-0.99307435185 0.038372316576 0.11104457224 -0.98958286428 0.087596326002 0.11424814398 -0.98519506244 0.12565705673 0.1166232954 
-0.98102350422 0.15359663371 0.11832564507 -0.97741832958 0.17422912356 0.11957266204 -0.97482965232 0.18765339869 0.1203883338 
-0.97345460951 0.19440193673 0.12080567131 -0.97334455836 0.19493133259 0.12083934083 -0.97451206929 0.18924739364 0.12046431342 
-0.97711296462 0.17595134967 0.11954654712 -0.98081794146 0.1551282866 0.1180312688 -0.98566252617 0.12296073407 0.11554238348 
-0.99063209569 0.078359991221 0.11183810962 -0.99424431197 0.014813522406 0.10610752879 -0.9925598466 -0.073103019801 0.09736991019 
-0.97730388671 -0.19455814507 0.083810746366 -0.9310273376 -0.35954956619 0.062547630528 -0.82601449441 -0.56278926923 0.031117414174 
-0.63531022157 -0.77218995424 -0.010178258025 -0.37833203489 -0.92415637845 -0.052913699036 -0.12125760972 -0.98880059663 -0.087005587099 
0.087102649322 -0.99015104879 -0.10960852641 0.24292460252 -0.96212735097 -0.12368750144 0.35614180421 -0.92501597854 -0.1323195176 
0.44213144272 -0.88628674356 -0.13789704692 0.50932782786 -0.84884139998 -0.14161017423 0.56469128713 -0.81260661134 -0.14420209931 
0.61377825951 -0.77584040157 -0.14610927229 0.6581817393 -0.73827278665 -0.14747911905 0.70066001965 -0.69788604365 -0.14842710985 
0.74246428785 -0.6531160269 -0.14895045044 0.7850020726 -0.60131529323 -0.14896866833 0.82820135458 -0.54045399781 -0.14829697411 
0.87201305365 -0.46700741012 -0.14661962063 0.91485724264 -0.37743701511 -0.14344868494 0.95325582211 -0.26874527763 -0.13812788772 
0.98174253629 -0.13898555735 -0.12986380283 0.99296486322 0.011969462814 -0.11780285379 0.97897446911 0.1768378663 -0.1016727981 
0.93620638307 0.34168142455 -0.082288592225 0.86686348566 0.49480812297 -0.060931261883 0.78171160333 0.62235234051 -0.040056628436 
0.69031359145 0.72320941587 -0.020863514774 0.60354679785 0.79731430424 -0.0046003313927 0.524558188 0.85132745737 0.0089592260514 
0.45716338278 0.8891636941 0.01973743993 0.40077358423 0.91574167971 0.028243764307 0.35440352009 0.93444109386 0.034899671225 
0.3180188404 0.94724427451 0.03990365349 0.28928864759 0.95624344007 0.04370997247 0.26870839301 0.96210583847 0.046348194304 
0.25392601859 0.96602247932 0.048188655593 0.24473920729 0.96833463114 0.049302764055 0.24101763192 0.96924510529 0.049743612337 
0.24095314498 0.96926075484 0.049751090873 0.24508626478 0.968247959 0.049280956797 0.25271515707 0.96632797828 0.048428171288 
0.26407579951 0.9633474051 0.047177846468 0.27721368444 0.95971834021 0.045752383806 0.2931516801 0.95505081349 0.044045841007 
0.3110601074 0.94945504383 0.042151267374 0.33094798399 0.94279785222 0.040070459739 0.35276953266 0.93494601238 0.03781019395 
0.37493233844 0.92637082094 0.035536512101 0.39939532951 0.91618291394 0.033049038757 0.42406360151 0.90511661738 0.030560936114 
0.44949882895 0.89284149045 0.028015633213 0.47572243565 0.87922833811 0.025410503459 0.50200041742 0.86456632223 0.022817874099 
0.52822010123 0.84886602141 0.020248514883 0.55449821952 0.83199686229 0.017690270684 0.58068675864 0.81398597271 0.015156667448 
0.60623623393 0.79518320769 0.012700192577 0.63177778838 0.77508165642 0.010259239599 0.65592528798 0.75478378482 0.0079658496463 
0.68051753819 0.73271005224 0.0056444277531 0.70352688162 0.71066010048 0.0034854582374 0.72613798964 0.68754761439 0.001377660103 
0.74829790558 0.66336248646 -0.00067532517191 0.77028496029 0.63769411495 -0.0027010557308 0.79075133146 0.61212040756 -0.0045758539305 
0.81102453348 0.58497689452 -0.0064217579075 0.83077972726 0.55654076497 -0.0082110717375 0.85017028877 0.5264136092 -0.0099595248736 
0.86857101318 0.49542865938 -0.011611999278 0.88630928986 0.46290564427 -0.013198758288 0.90315907944 0.42905427045 -0.014700688199 
0.91850471619 0.39508365511 -0.016062122837 0.9327609478 0.36007928363 -0.01731830738 0.94516531205 0.32607360672 -0.018399345335 
0.95618096154 0.29213672436 -0.019341744216 0.96563199158 0.25913269559 -0.02012716847 0.97340509698 0.22814960857 -0.020743029797 
0.979475133 0.2004484757 -0.021186609601 0.98442172304 0.17450360817 -0.021502603188 0.98791047571 0.1535021978 -0.021678727965 
0.99067396188 0.13450396705 -0.021766582161 0.99248206177 0.12043680726 -0.021779176233 0.99356443383 0.11115979911 -0.021753502903 
0.99420782934 0.10525783138 -0.02171591616 0.99421367395 0.10520272418 -0.02171537162 0.99366268616 0.1102723098 -0.021782649655 
0.9924421085 0.12073367094 -0.021955454197 0.99024317751 0.13755663131 -0.022285030347 0.98663346709 0.16134955779 -0.022819329943 
0.98107917756 0.19216409383 -0.023592549552 0.97279985723 0.23033286013 -0.024641658264 0.96081762643 0.27595982142 -0.025993570337 
0.94355641127 0.3300516836 -0.027698102986 0.92016865522 0.39039422045 -0.029698461027 0.88944075444 0.45593134486 -0.03196487296 
0.85094421821 0.52412775848 -0.034409741152 0.80463119568 0.59262440548 -0.036945269946 0.75387335996 0.65583975003 -0.039359616716 
0.69953735567 0.71338228391 -0.041631778962 0.64548567659 0.76252420868 -0.043647136115 0.59462339948 0.80272310245 -0.045372167541 
0.54973123608 0.83403009461 -0.046790697375 0.51120459011 0.85812020501 -0.047953944634 0.48126782484 0.87521190025 -0.048840663769 
0.45878351494 0.8871676206 -0.049510598545 0.44569032239 0.8937946607 -0.049912333335 0.43835132924 0.89740361027 -0.050148503859 
0.43971145402 0.89674056193 -0.050101914117 0.44584972219 0.89371721173 -0.049875551981 0.45858738068 0.88727707403 -0.049366062958 
0.47489915557 0.87869420101 -0.048654836942 0.49680928352 0.86655286084 -0.047609612225 0.52024356442 0.85275735373 -0.046384580841 
0.54706966221 0.83588483252 -0.04484787025 0.57448136603 0.81738068424 -0.043127452062 0.60109510891 0.79810946221 -0.041303224769 
0.62765272063 0.77749980047 -0.039320764934 0.65206571129 0.75724224543 -0.037342869293 0.67320337445 0.73860498094 -0.035495052621 
0.6908005859 0.7222526857 -0.033846839163 0.7043285479 0.70912978933 -0.032499822884 0.71270476864 0.70075101138 -0.031621714114 
0.71631610961 0.69707681424 -0.031227330322 0.71338745994 0.70005894153 -0.031556463539 0.70482702564 0.70863277341 -0.032533926577 
0.68901125506 0.72393637263 -0.034345578898 0.66585112838 0.74516798198 -0.036972333923 0.63510370078 0.77137043293 -0.040384953313 
0.5943985339 0.80292435562 -0.044753346763 0.54600168853 0.83630715002 -0.049724309438 0.48922524094 0.87040481566 -0.055264097721 
0.42564548637 0.90282344629 -0.061120739175 0.35751169895 0.93150043594 -0.067024793603 0.28700892194 0.9551602947 -0.072764621659 
0.21664171068 0.9731180603 -0.078151199073 0.14995387653 0.98520553778 -0.08296917046 0.08854863862 0.99224906167 -0.087183359672 
0.033329147521 0.99531013329 -0.090812479848 -0.015002114227 0.995470232 -0.093882659619 -0.055225955463 0.99381135837 -0.096379862117 
-0.089741804906 0.99108267223 -0.098496422524 -0.11560621538 0.98824040601 -0.1000804821 -0.13667932889 0.98541376182 -0.10138283423 
-0.1521518806 0.98304286412 -0.10235493409 -0.16051668681 0.98165537208 -0.10289374971 -0.16548142179 0.98079599379 -0.10322362909 
-0.16435349091 0.98099380069 -0.10314597922 -0.15954384854 0.98182360681 -0.10280158313 -0.15043410382 0.98333144218 -0.10212176664 
-0.13826836273 0.98521346642 -0.10117452963 -0.12154903571 0.98755394478 -0.099815019245 -0.10256532564 0.98986696853 -0.098202538613 
-0.084191099945 0.99175849002 -0.096576167629 -0.061593017567 0.99361821186 -0.094494175746 -0.043785175542 0.99472238444 -0.092791358931 
-0.026071376379 0.99550580535 -0.091041061375 -0.012762249732 0.99588823459 -0.089686951012 -0.0047941227518 0.99603288748 -0.08885664552 
-0.0015942721168 0.99607340567 -0.088516827861 -0.0026287115804 0.99606129694 -0.088628339789 -0.0075293284904 0.99598860164 -0.089162854413 
-0.01589948065 0.99580723931 -0.090084119898 -0.024691721476 0.99553927846 -0.091059672345 -0.031929216116 0.99525895725 -0.091870197388 
-0.038955456071 0.99493494625 -0.092665663406 -0.045175559328 0.99460525565 -0.093378553594 -0.046739703474 0.99451586923 -0.093560600463 
-0.045616662273 0.99458053922 -0.093427357484 -0.041370068581 0.99481447756 -0.092912177137 -0.031804805197 0.99527669114 -0.091721112263 
-0.019627929811 0.99573389702 -0.090159584642 -0.0033546695709 0.99611438757 -0.088004960467 0.01793505508 0.99621219917 -0.085085768631 
0.042697769405 0.99575334583 -0.081560865366 0.073319281792 0.99432962488 -0.077025190749 0.10827519472 0.99153735818 -0.071625062282 
0.14760359695 0.9868900433 -0.065278025362 0.19248971355 0.97960136759 -0.057696367268 0.24134275842 0.96919983571 -0.049044382089 
0.29492831213 0.95472000898 -0.039076785525 0.35136803918 0.93581774558 -0.028029414925 0.40988888223 0.91199590118 -0.015955577772 
0.46919167562 0.8830911394 -0.0030349701093 0.52755958735 0.84945412828 0.010419488303 0.58331171546 0.81189253463 0.024040690906 
0.63527888884 0.77137083928 0.03752015068 0.6828524762 0.72879880512 0.050643828873 0.72461247798 0.68627908756 0.062910815763 
0.76122595283 0.64420772785 0.074373732739 0.79257729348 0.60384014241 0.084842891733 0.81970879644 0.56492899798 0.094513048226 
0.84262947892 0.5285051718 0.10323683762 0.86277263125 0.49315970868 0.11143109304 0.88016203018 0.45951377975 0.11900372614 
0.89700290899 0.4234198793 0.12689124113 0.91305074803 0.38483619259 0.13505345751 0.92959561789 0.33913658904 0.1443549832 
0.9471963969 0.28029938049 0.15572810602 0.96577410771 0.19505532091 0.17097893044 0.9794906439 0.061001340002 0.19203362994 
0.96164102606 -0.16463213846 0.21941466676 0.80655206659 -0.54034863791 0.23978555709 0.40837232279 -0.88900160791 0.2071429147 
-0.013514088831 -0.99066992918 0.13561143323 -0.26338409349 -0.96128489451 0.080994881834 -0.39567542144 -0.91712063086 0.048277420455 
-0.47108495199 -0.88163256729 0.028336977615 -0.51626556589 -0.85628034947 0.015931998465 -0.54584220833 -0.83785312679 0.0076433983596 
-0.56468729602 -0.82530170956 0.0023121229839 -0.5775170957 -0.81637751757 -0.0013240034385 -0.58610245398 -0.81022827226 -0.0037497022262 
-0.5920220576 -0.80590359006 -0.0054117317752 -0.59585456282 -0.80306622531 -0.0064790228526 -0.5982426005 -0.80128324544 -0.0071380329563 
-0.60000738255 -0.79995816455 -0.007620751218 -0.60105156041 -0.799171162 -0.0079041478728 -0.6020014169 -0.79845331878 -0.0081603785948 
-0.6020014169 -0.79845331878 -0.0081603785948 
