# vtk DataFile Version 4.1
vtk output
ASCII
DATASET POLYDATA
POINTS 343 float
-1.12256 15.6739 172.182 -0.768934 14.7368 170.604 -0.415263 13.8009 169.026 
-0.0614185 12.8705 167.452 0.29274 11.9496 165.884 0.647383 11.042 164.323 
1.00273 10.1514 162.771 1.35905 9.28128 161.231 1.71669 8.43478 159.704 
2.07608 7.61465 158.189 2.43771 6.82323 156.688 2.80216 6.06245 155.2 
3.17007 5.33378 153.725 3.54212 4.63826 152.26 3.91905 3.9765 150.805 
4.30157 3.3487 149.358 4.69039 2.75467 147.915 5.08617 2.19393 146.476 
5.48949 1.66568 145.036 5.90083 1.16892 143.595 6.32052 0.702447 142.149 
6.74874 0.264957 140.696 7.18549 -0.144938 139.234 7.63059 -0.528647 137.763 
8.08364 -0.887573 136.281 8.54408 -1.22307 134.787 9.01113 -1.53643 133.282 
9.48386 -1.82885 131.765 9.9612 -2.10145 130.238 10.4419 -2.35522 128.702 
10.9248 -2.59109 127.158 11.4083 -2.80987 125.608 11.8913 -3.01233 124.053 
12.3724 -3.19914 122.496 12.8503 -3.37094 120.938 13.3238 -3.52834 119.381 
13.7919 -3.67192 117.826 14.2537 -3.80226 116.274 14.7084 -3.91993 114.727 
15.1556 -4.02551 113.184 15.5949 -4.11961 111.647 16.0262 -4.20282 110.114 
16.4494 -4.27576 108.584 16.8647 -4.33907 107.058 17.2727 -4.39338 105.534 
17.6736 -4.43931 104.01 18.0681 -4.47749 102.486 18.4569 -4.50852 100.958 
18.8408 -4.53299 99.4264 19.2204 -4.55146 97.8888 19.5965 -4.56446 96.344 
19.97 -4.57247 94.7907 20.3414 -4.57595 93.2279 20.7115 -4.57531 91.655 
21.0808 -4.57091 90.0713 21.4498 -4.56307 88.4769 21.819 -4.55207 86.8718 
22.1887 -4.53816 85.2565 22.5591 -4.52152 83.6319 22.9305 -4.50233 81.9988 
23.303 -4.4807 80.3586 23.6766 -4.45673 78.7126 24.0513 -4.43047 77.0623 
24.427 -4.40197 75.4095 24.8038 -4.37122 73.7556 25.1815 -4.33821 72.1025 
25.5601 -4.3029 70.4517 25.9393 -4.26525 68.8048 26.3191 -4.22518 67.1631 
26.6994 -4.18261 65.5278 27.0801 -4.13745 63.9002 27.4611 -4.0896 62.2809 
27.8424 -4.03896 60.6708 28.2239 -3.98542 59.0703 28.6055 -3.92888 57.4796 
28.9871 -3.86921 55.899 29.3688 -3.80633 54.3282 29.7505 -3.74013 52.7672 
30.1321 -3.6705 51.2155 30.5135 -3.59737 49.6728 30.8947 -3.52065 48.1385 
31.2754 -3.44026 46.6121 31.6557 -3.35614 45.093 32.0352 -3.26821 43.5807 
32.4138 -3.17643 42.0747 32.7914 -3.08074 40.5744 33.1676 -2.9811 39.0795 
33.5421 -2.87746 37.5897 33.9147 -2.7698 36.1046 34.285 -2.65806 34.624 
34.6528 -2.54223 33.148 35.0177 -2.42227 31.6763 35.3793 -2.29815 30.2092 
35.7373 -2.16983 28.7466 36.0912 -2.03728 27.2887 36.4409 -1.90047 25.8356 
36.7859 -1.75934 24.3876 37.1259 -1.61386 22.9449 37.4606 -1.46397 21.5077 
37.7896 -1.30962 20.0761 38.1128 -1.15075 18.6503 38.4297 -0.987271 17.2304 
38.7402 -0.819116 15.8165 39.0441 -0.646194 14.4087 39.3411 -0.468404 13.0068 
39.6311 -0.285638 11.6107 39.9139 -0.097775 10.2202 40.1893 0.0953153 8.83514 
40.4574 0.293774 7.455 40.7179 0.497754 6.07937 40.9709 0.707414 4.70767 
41.2163 0.922924 3.33926 41.4541 1.14446 1.97339 41.6843 1.3722 0.609226 
41.9069 1.60634 -0.754136 42.122 1.84705 -2.11768 42.3296 2.09452 -3.48246 
42.5299 2.34892 -4.84956 42.7229 2.61044 -6.22012 42.9088 2.87924 -7.5953 
43.0877 3.15546 -8.97625 43.2596 3.43926 -10.3641 43.4248 3.73075 -11.7601 
43.5833 4.03004 -13.1652 43.7355 4.33722 -14.5804 43.8812 4.65237 -16.0068 
44.0209 4.97554 -17.4452 44.1545 5.30676 -18.8963 44.2823 5.64605 -20.3608 
44.4045 5.9934 -21.8392 44.5211 6.34877 -23.3319 44.6324 6.71212 -24.8392 
44.7384 7.08336 -26.3611 44.8395 7.4624 -27.8975 44.9357 7.84909 -29.4481 
45.0271 8.24327 -31.0126 45.1141 8.64475 -32.5902 45.1966 9.05327 -34.1803 
45.2749 9.46856 -35.7816 45.3492 9.89028 -37.393 45.4195 10.3181 -39.0132 
45.486 10.7515 -40.6404 45.5489 11.1901 -42.2728 45.6083 11.6334 -43.9086 
45.6643 12.0807 -45.5455 45.7171 12.5315 -47.1815 45.7667 12.9852 -48.814 
45.8134 13.441 -50.4407 45.8571 13.8983 -52.0592 45.8981 14.3564 -53.667 
45.9364 14.8145 -55.2617 45.9722 15.2721 -56.8411 46.0055 15.7285 -58.403 
46.0365 16.183 -59.9454 46.0652 16.635 -61.4664 46.0918 17.0842 -62.9645 
46.1163 17.5299 -64.4384 46.139 17.9718 -65.8869 46.1599 18.4097 -67.3092 
46.179 18.8431 -68.7049 46.1966 19.2721 -70.0737 46.2127 19.6964 -71.4155 
46.2274 20.1159 -72.7305 46.2409 20.5308 -74.0192 46.2532 20.9409 -75.2821 
46.2644 21.3464 -76.5201 46.2747 21.7474 -77.734 46.284 22.1439 -78.9248 
46.2926 22.5361 -80.0935 46.3004 22.9241 -81.2412 46.3075 23.308 -82.369 
46.314 23.688 -83.4781 46.32 24.0641 -84.5696 46.3255 24.4364 -85.6446 
46.3306 24.8051 -86.7042 46.3353 25.1703 -87.7496 46.3397 25.5321 -88.7819 
46.3439 25.8905 -89.8021 46.3478 26.2458 -90.8117 46.3516 26.5981 -91.8116 
46.3553 26.9477 -92.8034 46.359 27.2948 -93.7882 46.3627 27.6397 -94.7677 
46.3665 27.9827 -95.7434 46.3704 28.3244 -96.7169 46.3745 28.665 -97.6899 
46.3788 29.0052 -98.6642 46.3835 29.3455 -99.6417 46.3885 29.6864 -100.624 
46.3939 30.0285 -101.614 46.3998 30.3725 -102.612 46.4062 30.7188 -103.62 
46.4131 31.0681 -104.641 46.4205 31.421 -105.675 46.4286 31.7777 -106.723 
46.4373 32.1388 -107.787 46.4466 32.5044 -108.868 46.4566 32.8748 -109.964 
46.4672 33.2501 -111.078 46.4785 33.6301 -112.208 46.4905 34.0148 -113.353 
46.5032 34.4038 -114.514 46.5165 34.7968 -115.687 46.5306 35.1932 -116.873 
46.5453 35.5925 -118.07 46.5607 35.9941 -119.274 46.5768 36.3971 -120.485 
46.5935 36.8009 -121.701 46.6109 37.2048 -122.919 46.6291 37.6078 -124.137 
46.6479 38.0094 -125.354 46.6674 38.4089 -126.567 46.6876 38.8056 -127.776 
46.7086 39.1989 -128.978 46.7303 39.5884 -130.173 46.7527 39.9737 -131.36 
46.7759 40.3545 -132.537 46.7999 40.7307 -133.706 46.8247 41.1021 -134.866 
46.8504 41.4687 -136.016 46.8769 41.8307 -137.158 46.9042 42.1882 -138.292 
46.9325 42.5414 -139.419 46.9617 42.8908 -140.541 46.9918 43.2365 -141.657 
47.0229 43.5792 -142.77 47.0549 43.9192 -143.88 47.0879 44.2571 -144.989 
47.122 44.5932 -146.099 47.1571 44.9282 -147.211 47.1933 45.2625 -148.326 
47.2305 45.5967 -149.446 47.2688 45.9312 -150.571 47.3082 46.2663 -151.703 
47.3487 46.6026 -152.842 47.3904 46.9404 -153.991 47.4331 47.2798 -155.148 
47.477 47.6212 -156.315 47.522 47.9647 -157.492 47.568 48.3103 -158.678 
47.6151 48.6581 -159.875 47.6633 49.0079 -161.08 47.7124 49.3595 -162.293 
47.7625 49.7127 -163.514 47.8135 50.0672 -164.741 47.8653 50.4225 -165.973 
47.9179 50.7782 -167.209 47.9711 51.1338 -168.446 48.0249 51.4887 -169.682 
48.0792 51.8424 -170.917 48.134 52.1942 -172.148 48.1891 52.5436 -173.373 
48.2444 52.8901 -174.591 48.3 53.233 -175.8 48.3557 53.5719 -176.998 
48.4114 53.9064 -178.184 48.4671 54.236 -179.358 48.5228 54.5605 -180.517 
48.5785 54.8796 -181.662 48.6341 55.1931 -182.791 48.6895 55.5009 -183.906 
48.7449 55.803 -185.005 48.8003 56.0995 -186.089 48.8555 56.3903 -187.158 
48.9108 56.6757 -188.214 48.966 56.9558 -189.256 49.0213 57.2308 -190.285 
49.0767 57.5008 -191.302 49.1323 57.7663 -192.309 49.188 58.0272 -193.305 
49.2439 58.284 -194.291 49.3 58.5367 -195.268 49.3564 58.7856 -196.237 
49.4131 59.0308 -197.197 49.4702 59.2725 -198.15 49.5275 59.5107 -199.095 
49.5853 59.7456 -200.033 49.6433 59.9772 -200.962 49.7017 60.2056 -201.884 
49.7605 60.4308 -202.798 49.8195 60.6528 -203.703 49.8789 60.8716 -204.599 
49.9386 61.0873 -205.485 49.9985 61.2998 -206.361 50.0587 61.5091 -207.227 
50.1191 61.7154 -208.081 50.1798 61.9186 -208.924 50.2406 62.1188 -209.755 
50.3016 62.316 -210.574 50.3627 62.5104 -211.38 50.4239 62.7021 -212.173 
50.4853 62.8913 -212.954 50.5468 63.0779 -213.721 50.6083 63.2624 -214.475 
50.67 63.4447 -215.216 50.7318 63.6251 -215.944 50.7937 63.8038 -216.659 
50.8557 63.9809 -217.361 50.9178 64.1567 -218.052 50.9801 64.3314 -218.73 
51.0427 64.505 -219.396 51.1055 64.6777 -220.052 51.1686 64.8496 -220.696 
51.2321 65.0209 -221.33 51.2959 65.1916 -221.954 51.3603 65.3616 -222.568 
51.4251 65.5311 -223.174 51.4906 65.6999 -223.77 51.5567 65.868 -224.359 
51.6235 66.0353 -224.94 51.691 66.2015 -225.514 51.7594 66.3665 -226.081 
51.8285 66.53 -226.642 51.8986 66.6918 -227.197 51.9694 66.8516 -227.747 
52.0412 67.009 -228.291 52.1137 67.1638 -228.831 52.1871 67.3155 -229.366 
52.2613 67.4638 -229.898 52.3362 67.6084 -230.425 52.4118 67.749 -230.95 
52.488 67.8851 -231.47 52.5647 68.0165 -231.988 52.642 68.1429 -232.503 
52.7196 68.2641 -233.016 52.7975 68.38 -233.525 52.8756 68.4903 -234.033 
52.954 68.5949 -234.538 53.0324 68.6939 -235.041 53.1109 68.7873 -235.542 
53.1893 68.8751 -236.042 53.2678 68.9574 -236.54 53.3461 69.0346 -237.036 
53.4243 69.1067 -237.531 53.5024 69.1741 -238.024 53.5804 69.2371 -238.516 
53.6582 69.2962 -239.008 53.7359 69.3518 -239.498 53.8135 69.4043 -239.987 
53.891 69.4542 -240.476 53.9684 69.502 -240.964 54.0457 69.5484 -241.452 
54.123 69.5938 -241.94 
LINES 1 344
343 342 341 340 339 338 337 336 335 334 333 332 331 330 329 328 327 326 325 324 323 322 321 320 319 318 317 316 315 314 313 312 311 310 309 308 307 306 305 304 303 302 301 300 299 298 297 296 295 294 293 292 291 290 289 288 287 286 285 284 283 282 281 280 279 278 277 276 275 274 273 272 271 270 269 268 267 266 265 264 263 262 261 260 259 258 257 256 255 254 253 252 251 250 249 248 247 246 245 244 243 242 241 240 239 238 237 236 235 234 233 232 231 230 229 228 227 226 225 224 223 222 221 220 219 218 217 216 215 214 213 212 211 210 209 208 207 206 205 204 203 202 201 200 199 198 197 196 195 194 193 192 191 190 189 188 187 186 185 184 183 182 181 180 179 178 177 176 175 174 173 172 171 170 169 168 167 166 165 164 163 162 161 160 159 158 157 156 155 154 153 152 151 150 149 148 147 146 145 144 143 142 141 140 139 138 137 136 135 134 133 132 131 130 129 128 127 126 125 124 123 122 121 120 119 118 117 116 115 114 113 112 111 110 109 108 107 106 105 104 103 102 101 100 99 98 97 96 95 94 93 92 91 90 89 88 87 86 85 84 83 82 81 80 79 78 77 76 75 74 73 72 71 70 69 68 67 66 65 64 63 62 61 60 59 58 57 56 55 54 53 52 51 50 49 48 47 46 45 44 43 42 41 40 39 38 37 36 35 34 33 32 31 30 29 28 27 26 25 24 23 22 21 20 19 18 17 16 15 14 13 12 11 10 9 8 7 6 5 4 3 2 1 0 

CELL_DATA 1
FIELD FieldData 2
LengthArray 1 1 double
433.9240287 
TortuosityArray 1 1 double
0.030073289369 
POINT_DATA 343
FIELD FieldData 8
RadiusArray 1 343 double
59.299287345 60.958385583 64.357717347 64.773233871 64.871947723 66.58750474 67.673176259 68.81493871 69.267635782 
69.820052224 70.340241605 70.4494777 71.429355932 71.56232866 71.897592903 72.003917357 72.057782304 72.35453479 
72.412853134 72.562389275 72.574123685 73.183885967 73.614903603 73.845340298 74.060268524 74.372871274 74.803785197 
74.90115321 74.901999273 75.02566322 75.022951654 74.910697979 74.876949274 74.829087195 74.8234907 74.680691521 
74.632592487 74.419200689 74.356676196 74.270147464 74.246525764 74.132640544 74.112647463 74.057529235 73.881637724 
73.866495612 73.515208143 73.401535776 73.307999019 73.250562892 72.852895403 72.696835388 72.491878922 72.317770625 
71.987829136 71.856873751 71.690801724 71.642692799 71.189904703 70.862376084 70.835670214 70.428718112 70.405033926 
69.869104252 69.663268066 68.986438905 68.950066669 68.849415315 68.381838951 68.368389077 68.080852927 68.062173284 
67.708699431 67.620837157 67.443804366 66.955890277 66.789316734 66.585488399 66.253318457 66.138478266 66.081756502 
65.820728164 65.81817152 65.380569732 65.34187684 65.005936151 64.700626038 64.583568523 64.208081936 64.165243097 
63.874055496 63.866256747 63.599562246 63.464877956 63.39700708 62.954016056 62.927976622 62.548911559 62.54652785 
62.238477502 62.165182943 61.914730368 61.643339807 61.627028131 61.377442354 61.088888951 61.047508883 60.688930886 
60.656033729 60.414312681 60.269866121 60.173387352 59.995030399 59.71532761 59.495506818 59.376276405 59.369535846 
59.037747996 58.926908136 58.74228798 58.500557793 58.46762383 58.057748569 57.77295253 57.671487887 57.118894259 
57.061489068 56.920611901 56.223696681 56.198523646 55.632558415 55.390151103 54.954495629 54.950590117 54.616202258 
54.564263646 54.111618691 53.869631816 53.69674788 53.395140114 52.959278363 52.747077395 52.336252133 52.004592124 
51.247514511 50.921025901 50.615743472 50.52431117 49.99375353 49.749048446 49.28361797 49.215297864 48.51128191 
48.430376812 48.387176314 48.267712421 48.172232246 47.698160872 47.657448883 47.525240027 47.145818957 47.009813366 
46.930702571 46.85029353 46.70662761 46.635316559 46.347955342 46.250435738 46.194964371 46.169171367 45.928220271 
45.921906123 45.880619914 45.652990684 45.488700574 45.33498815 45.224340181 45.186552757 45.130052672 44.910615141 
44.829257148 44.639797559 44.600349643 44.519507735 44.438714521 44.39787506 44.295644388 44.295636452 44.29366036 
44.202849379 44.199321651 44.174861254 44.026379125 44.00605339 43.935807165 43.86609598 43.717779475 43.418740371 
43.260026393 43.241342075 43.221843164 42.905404275 42.817503182 42.78231353 42.323541126 42.174985954 41.932933341 
41.902561341 41.68047732 41.661912275 41.468152146 41.262018402 41.242000124 41.206933176 41.022238567 40.8393711 
40.789326162 40.553683514 40.531763263 40.231733364 40.188886841 39.937922339 39.892222465 39.750724494 39.689652567 
39.427314179 39.379389625 39.331436179 39.090631104 39.054979465 38.824634617 38.633739963 38.599295828 38.567243188 
38.393260638 38.278122633 38.016072635 37.924388413 37.769362211 37.625365327 37.617251621 37.230100607 36.994054653 
36.974192614 36.476020541 36.403470478 35.980838247 35.582594323 35.190000874 35.13936578 34.82286091 34.809750681 
34.188262697 34.140506289 33.596463741 33.555598132 33.501596269 33.109376502 32.912157446 32.847210562 32.790513309 
32.478315213 32.335467592 32.018981718 31.702080886 31.668658842 31.453737876 31.411985203 31.11651697 30.963018469 
30.711497478 30.561765197 30.315898479 29.906535548 29.795713521 29.619474183 29.107062557 28.940663622 28.60500646 
28.391070201 28.317506752 27.7522608 27.688392469 27.186642363 27.185369655 27.17518671 26.724095884 26.55259469 
26.239255108 25.785617143 25.760131796 25.617859735 25.348757397 24.852606249 24.707556762 24.322003802 24.21079171 
24.19985226 23.597937628 23.262078239 23.229794724 22.692509259 22.683974913 22.640608535 22.245600275 21.928304671 
21.637156151 21.149944981 21.056617391 20.856288059 20.434384797 20.184547512 19.621426916 19.56223517 18.925008738 
18.838809052 18.588312197 18.276239143 17.569380183 17.361238044 17.065786614 16.389082255 16.251874207 15.587222933 
15.292230082 14.747873726 14.617789327 14.373251282 13.603310452 12.703219583 12.702199384 12.660711296 11.805781531 
11.194906137 10.888921873 10.363620773 10.193567256 9.395176666 9.3723756757 9.1627793623 7.3628076002 7.3617809168 
7.1061367568 
EdgeArray 2 343 int
5062 5062 5940 5069 6218 5829 5937 5829 5937 
5937 6209 6073 6670 6670 6897 6675 6896 6894 
6894 5688 7522 7392 7524 7521 7520 7886 7886 
7839 8512 8511 8821 9096 8821 7642 8584 10216 
10216 9970 10211 10220 10211 9342 12014 12013 13163 
10393 11138 11138 12029 12029 14673 14673 15728 15728 
17883 11520 11520 11520 15637 15637 11152 11152 17066 
17066 11523 11523 17952 17952 19115 17596 15497 15497 
21725 21722 21728 21726 21728 16178 22201 22403 20738 
22195 22404 22404 17517 17517 22410 22405 22405 22407 
22978 22407 21093 23513 23513 22812 22218 23514 23517 
23515 19587 23205 24356 20839 21229 24390 24391 24392 
24393 24393 25610 25610 25277 25277 25245 26215 26212 
26212 26553 26553 25978 26552 25980 25980 25981 21935 
24762 24762 26933 27194 26607 26606 26608 26607 26608 
24765 26605 27791 25674 27791 27807 27807 25944 25944 
25675 25675 26976 26976 26981 26981 26601 26601 26593 
26593 26250 26284 27227 27230 27228 27230 27229 27228 
27026 27027 27026 27025 27020 27020 24133 24133 26010 
26010 24246 24246 22609 22609 27013 27013 27012 27012 
27007 27007 27006 27006 27541 27541 26282 26282 25586 
25586 27510 27510 27816 27518 27164 27061 24569 27061 
26402 26583 26402 24331 27513 26129 26948 26948 28421 
25698 24885 24885 28737 28737 27903 27903 29093 28815 
28862 29093 28862 29389 29641 29641 29380 29380 29647 
29647 29616 29616 28876 28876 30202 30202 30201 30200 
28600 28600 29558 29558 29851 29851 30366 30366 30365 
28183 30185 30185 29447 29447 29467 29467 29766 29766 
29770 29770 28170 28170 30027 30027 30028 29764 29749 
29749 30554 29793 30540 30540 30541 30539 30537 30535 
30532 30531 30530 30757 30292 30291 25817 30755 30754 
30754 31009 29796 31019 30356 31273 31023 30606 30606 
22083 22083 31199 31199 31443 31443 31437 31863 31041 
31041 31862 31429 26800 26800 31870 31651 32575 29783 
30261 32576 32577 32576 31928 31928 30074 14567 28904 
23262 28904 16465 16465 30324 31781 31781 30299 30309 
31092 31046 31046 32120 32120 32120 32633 32633 33106 
33106 33534 29958 32960 32960 30096 31676 33526 33526 
32962 23950 33527 28471 33845 33845 30616 30311 30314 
30314 34299 34299 32121 34301 33846 33846 33196 33196 
33848 33848 35198 30940 35467 35467 31469 35469 35469 
35684 35473 35683 35474 35474 33386 35474 33386 33386 
35673 35673 33189 35675 35871 35871 34081 34081 35691 
35880 35479 35479 34177 35211 35799 35799 34644 34644 
36571 36572 36585 36586 36585 36587 36807 36807 36810 
36810 30091 36578 36825 36825 36718 36718 35200 35701 
36489 37558 37330 37330 37568 37576 37571 37571 37992 
37794 37992 37993 37995 37995 38013 38013 38020 38020 
38002 38002 38008 38008 37239 37239 37338 37338 38521 
34042 38753 38753 38967 38967 38969 38969 38765 38764 
38526 38526 37236 38763 37243 38525 38537 38537 38415 
38415 39451 39451 38534 39446 38534 38987 38985 38409 
39737 39737 39740 39740 39341 39738 39974 38775 39973 
39088 39970 39970 39783 39971 39462 39468 40195 39993 
40195 39767 40576 40576 40197 40197 40898 40898 40904 
40904 40792 40792 40892 40801 40927 40927 40932 40932 
41054 41054 40940 41355 41671 41671 41577 41680 41678 
41678 41775 41775 42057 42057 42055 41786 41919 41919 
42257 42257 42477 42484 42676 42676 42678 42678 42613 
42613 42906 42906 42908 42908 42711 42711 42280 42280 
42796 42796 42794 42793 43267 43267 43399 43399 43266 
43266 43291 43291 42260 42260 43417 43417 43071 43071 
43726 43726 43725 43725 43608 43608 43724 43724 44138 
44138 44137 44478 44132 44477 44127 44127 45012 45012 
44774 44774 45011 45076 45074 45076 44922 44922 43833 
43833 45504 45504 44916 44916 45708 45708 45894 45894 
45889 45889 44793 44793 45512 45512 46322 46322 46338 
45177 45692 45177 45692 45692 46494 46494 48017 48017 
49580 49580 49486 49486 49286 47138 49695 48993 50030 
50030 49548 49548 49931 49931 49755 49755 49599 49599 
48238 48238 50184 50184 49773 49944 49943 49943 49360 
49929 50245 50245 48465 48465 49973 49973 50357 50357 
50350 50350 49626 49884 50349 49817 49941 50438 50329 
50329 50404 50404 50444 50404 50444 50444 50497 49258 
50317 50317 50496 50496 50476 50374 50459 50459 50426 
50426 50263 50489 50488 50488 50420 50420 50421 50420 
50421 50421 
EdgePCoordArray 1 343 double
0 0.696 0.576 0.196 0 0.96 0 0.324 0.344 
0.616 0.716 0.652 0.568 0.396 0.084 0.812 0.812 0.784 
0.076 0.06 0.072 0.968 0.908 0 0 0 0 
0.672 0 0 0 0 0 0 0.028 0 
0.956 0.16 0.66 0.828 0.128 0 0 0.116 0.872 
0.932 0.584 0.716 0.796 0.752 0.592 0.704 0.768 0.748 
0 0 0 0.044 0 0 0.944 0 0.02 
0 0.608 0.42 0.524 0.34 0.984 0.912 0 0 
0 0 0 0 0 0.844 0.848 0.528 0.688 
0.116 0.14 0 0 0 0 0 0 0 
0 0 0 0 0 0 0.976 0.992 0.992 
0.164 0.552 0.284 0 0.06 0 0 0 0.296 
0.568 0.868 0 0 0 0 0 0 0.8 
0 0 0 0 0.028 0 0 0 0 
0 0 0 0.004 0 0.976 0 0.976 0.752 
0.832 0.552 0.536 0.336 0 0.368 0.272 0.736 0 
0 0 0 0.064 0 0.892 0 0.884 0.504 
0.552 0.576 0 0.64 0.132 0.304 0.24 0 0.46 
0.788 0.376 0 0 0 0.956 0 0.04 0 
0.02 0.084 0 0.98 0 0 0.996 0 0 
0 0.104 0 0.6 0.68 0.96 0 0.996 0 
0 0.888 0 0 0.884 0 0.54 0 0 
0.816 0.532 0.108 0 0 0.96 0 0 0.104 
0.092 0 0.388 0 0.22 0.588 0 0 0 
0 0 0 0 0.964 0 0 0 0.016 
0 0.556 0.428 0 0 0 0.28 0.852 0.968 
0 0 0.948 0.052 0.184 0 0.98 0.516 0.184 
0.12 0 0 0 0 0 0.064 0 0 
0 0.932 0 0.944 0 0 0 0.004 0 
0 0.124 0 0 0 0 0 0 0 
0 0.152 0 0 0 0 0 0 0 
0 0 0 0 0 0.164 0.8 0 0 
0 0.72 0.732 0 0 0 0 0 0 
0 0 0 0 0.832 0.76 0 0 0 
0 0 0.544 0.98 0 0 0 0 0 
0 0 0.944 0 0.456 0 0 0 0 
0 0.828 0.176 0.232 0 0 0.976 0 0.412 
0 0 0.38 0 0 0.268 0 0 0.996 
0 
CurvatureArray 1 343 double
0 0.00023320263321 0.00094008778811 0.0016634581318 0.0024067753689 0.0031869012658 0.0040017425489 0.0048603479581 0.005755785958 
0.0066879227296 0.0076395005346 0.0085952819613 0.009523747563 0.010397761886 0.011180785518 0.011839969035 0.012337204775 0.012656079985 
0.012777327362 0.012705499316 0.012451451073 0.012042823991 0.011509170228 0.010889439331 0.010219962289 0.0095314483153 0.0088574675172 
0.0082161699744 0.0076289538086 0.0071024538823 0.0066451739729 0.006256708284 0.0059346832989 0.0056748232731 0.0054703651979 0.0053115737522 
0.0051881744062 0.0050899584512 0.0050053896074 0.0049235492028 0.0048356075059 0.0047314502949 0.0046044560526 0.004452016195 0.0042677761603 
0.0040553276354 0.0038142187498 0.0035524866251 0.0032734192843 0.002984284531 0.0026932715955 0.0024062015312 0.0021302162167 0.0018709906596 
0.0016325482331 0.0014167412521 0.0012299790968 0.0010724398375 0.00094696009754 0.00085571756225 0.00080026712685 0.00077813103077 0.00078620670885 
0.0008184934693 0.00086923400579 0.00093205657583 0.0010045459256 0.001081365535 0.0011612677596 0.0012411243069 0.0013196630951 0.0013951956607 
0.001465071809 0.001528106296 0.0015838702667 0.0016305958153 0.0016682103707 0.0016961295522 0.0017158360364 0.0017291194972 0.0017364786378 
0.001741234712 0.0017463619664 0.0017551295528 0.0017700128384 0.0017935276048 0.001827719218 0.0018739394119 0.0019328657723 0.002002216151 
0.00208566001 0.0021774698354 0.002279522513 0.0023886871905 0.0025059264629 0.0026293395471 0.0027580255014 0.0028931652219 0.0030307522942 
0.0031728539808 0.0033195528911 0.0034674939411 0.0036185787959 0.0037710598486 0.0039229144208 0.004077047897 0.0042254633612 0.004371696045 
0.0045110101583 0.00464377949 0.0047631535301 0.0048719567044 0.0049628466205 0.0050344983481 0.0050882610131 0.0051160735951 0.0051216960527 
0.0051020545919 0.0050596023777 0.004988148404 0.004898679032 0.0047837251326 0.00465384521 0.0045053193379 0.004346980691 0.0041755543247 
0.0039980694975 0.0038187604719 0.0036374127414 0.0034572692403 0.0032795116284 0.0031093991094 0.0029418202938 0.0027830937412 0.0026337811518 
0.0024935916013 0.0023648963778 0.0022431149665 0.0021331822274 0.0020327598415 0.001944094572 0.0018648745965 0.0017959928428 0.0017372830705 
0.0016887944986 0.0016472760997 0.0016181848354 0.0015951961435 0.0015827936813 0.00157649249 0.0015784985624 0.0015889158396 0.0016054057293 
0.0016295125037 0.0016578553794 0.0016927788517 0.0017310751061 0.0017730051604 0.0018157207956 0.0018592123277 0.001897070558 0.0019350425765 
0.001962991134 0.0019839050769 0.0019895588632 0.0019850179981 0.0019624971281 0.0019224673432 0.0018625613161 0.0017841840785 0.0016870332971 
0.0015686561028 0.0014324032089 0.001281930935 0.0011119833773 0.00093279278115 0.00074093805018 0.00054250378884 0.0003409187902 0.00013716946678 
6.9247396776e-05 0.00025499917219 0.00043705832292 0.00059598922046 0.00074361874403 0.00086304306069 0.00095339452419 0.0010185825251 0.0010566248656 
0.0010663970951 0.0010555368156 0.0010219408503 0.00097392912508 0.00090880241069 0.0008494620157 0.00077641196087 0.00071577604678 0.00065260105437 
0.00060168218762 0.00055726861232 0.00052893538295 0.0005063594315 0.00049476127266 0.00049658142938 0.00050709281141 0.00052646966346 0.00055733206795 
0.00059500505946 0.00064871119826 0.00070518566731 0.00076888509472 0.00084208727332 0.00092365156384 0.0010054004036 0.0010854506597 0.0011779773512 
0.0012610237073 0.0013423860551 0.0014143917053 0.0014824928174 0.0015386168511 0.0015764044542 0.0016049047039 0.0016178309456 0.0016076798807 
0.0015897552863 0.0015480071517 0.0014979049376 0.0014302761272 0.0013495087845 0.0012687924841 0.0011836241298 0.001094682516 0.0010069856708 
0.00091810722078 0.00084483936992 0.00076886133904 0.00070987280424 0.00065299441552 0.00060734083388 0.00057069789334 0.00053914827519 0.00052154562213 
0.00050212122481 0.00049842712344 0.00049949166847 0.00050380619136 0.00051803272601 0.00053599057634 0.0005663964961 0.00059797754347 0.00063860733627 
0.00068167426365 0.00073876077749 0.00079387425944 0.00085629434351 0.00092198956215 0.00099637324932 0.0010676086223 0.0011427675562 0.0012197172066 
0.0012972646833 0.0013726962525 0.0014429072812 0.0015108136989 0.0015717960668 0.0016249179904 0.0016663599393 0.0017074094781 0.0017282233383 
0.0017475656257 0.0017533518037 0.001754406161 0.0017421547556 0.0017238304302 0.0017027713154 0.0016666812551 0.0016368106855 0.0015983912561 
0.0015556117875 0.0015134542812 0.001475210047 0.0014398161191 0.0014030297156 0.0013917513676 0.0013933634173 0.00141745652 0.0014789488509 
0.0015741679843 0.0017149346506 0.0018869314251 0.0021086302684 0.0023640670149 0.0026568875138 0.0029870024668 0.0033080871398 0.0036828111472 
0.0040229653538 0.004391732084 0.0047333863377 0.0050303041099 0.0053166095573 0.0055292469292 0.0057069727927 0.0057695994033 0.0057619625727 
0.0057057573257 0.0055283191539 0.005318121865 0.0050200405029 0.004789975574 0.0045745776817 0.0045730323647 0.004805205502 0.0053157253103 
0.0060979035507 0.0070981689345 0.0082837065485 0.0095073621939 0.010858623538 0.012194965142 0.013470487053 0.014748459912 0.015889026201 
0.016942736496 0.017859424953 0.018590559077 0.019122420423 0.019417203181 0.019554289484 0.019416385698 0.018996794344 0.018434304787 
0.017535894121 0.016453593273 0.015131175302 0.013627854623 0.011900187298 0.010071795683 0.0080627119262 0.0059217979099 0.0038085717123 
0 
TorsionArray 1 343 double
0 0 -0.00058689472841 0.00033305834785 2.6730243501e-05 2.1161948558e-05 -7.0779213191e-06 1.9804547817e-05 -7.7345938607e-05 
-0.00021715771235 -0.00037858101297 -0.00053154550304 -0.00072381036186 -0.0010636606127 -0.0015321814778 -0.0019490382484 -0.0025227119728 -0.0032359874281 
-0.0040172531129 -0.0049893803106 -0.0061823744734 -0.0075710734986 -0.0091689583604 -0.011151537526 -0.013169567046 -0.015515829882 -0.018108117951 
-0.020842001693 -0.023707210595 -0.026388198195 -0.028998770248 -0.030951964876 -0.032347068354 -0.033208246778 -0.03330805371 -0.032648423783 
-0.031406356242 -0.029748143517 -0.027717963099 -0.025587070062 -0.023364731399 -0.021022541259 -0.018903130588 -0.016699250375 -0.014503801364 
-0.012346795125 -0.010115297399 -0.0078849244822 -0.0052216096995 -0.0023548695198 0.00099890548475 0.0052446022471 0.010028455948 0.016059327002 
0.024152659348 0.033797538055 0.04501131696 0.059026894205 0.07334206553 0.084495823208 0.090771201884 0.088960246949 0.079151337608 
0.066006132536 0.051462088171 0.038940403388 0.028141694476 0.019060273828 0.012009404344 0.0061130484139 0.001319049009 -0.0029993215159 
-0.0071383262545 -0.010685590902 -0.014211664538 -0.017913776948 -0.021704844485 -0.025722637017 -0.029512660358 -0.03371582883 -0.03816358577 
-0.042341618527 -0.045866281172 -0.048662168238 -0.051174205489 -0.052051698872 -0.051379486013 -0.050505396598 -0.047406638236 -0.044312857941 
-0.040838181887 -0.036325211796 -0.032377289275 -0.02860624311 -0.025079235005 -0.021817152302 -0.019148348548 -0.016496521046 -0.014116843913 
-0.012364074909 -0.010628687698 -0.0091590468768 -0.0080293076648 -0.0068987455457 -0.0062328018166 -0.0054954742319 -0.0048241336086 -0.0044709497559 
-0.0042359201432 -0.0039804307952 -0.0039118460453 -0.0039684698306 -0.0038691874489 -0.0041517353757 -0.0043214769546 -0.004457394088 -0.0048151747867 
-0.0051714239594 -0.0052578054148 -0.00548998527 -0.0056769454029 -0.0057197520228 -0.0057721359902 -0.005630626504 -0.0052985077799 -0.0047089513809 
-0.0042601337655 -0.0034834774775 -0.0024843214449 -0.0012665763013 1.6996003314e-05 0.0015331265225 0.0033169049095 0.0048282371924 0.006553501783 
0.008229390512 0.0099633393303 0.011770422974 0.013294121436 0.014748441778 0.015782665843 0.016772623948 0.017810182405 0.018084335221 
0.018561941141 0.018735321495 0.018854254833 0.018587113713 0.018146357798 0.018599160576 0.017324986003 0.016998857322 0.017173985849 
0.016558522833 0.01560306674 0.015363291713 0.015021801046 0.01442791324 0.013853374629 0.012875457216 0.011777044088 0.011579334398 
0.010869892347 0.0090888488122 0.0081848934092 0.0074221922991 0.0069883776678 0.0050964332675 0.002989639309 0.0031540007763 0.0012238255675 
-0.00059468262406 -0.00147484155 -0.003369605192 -0.0054874003687 -0.011250938061 -0.012831402103 -0.020352144441 -0.049249695851 -0.25208663815 
-0.94328764671 -0.07341288186 -0.027792674141 -0.023371957479 -0.018904913623 -0.018715696066 -0.018371269218 -0.019164922604 -0.01958504449 
-0.018960403646 -0.023881654076 -0.026666919845 -0.025743208999 -0.029336695852 -0.032732634774 -0.034613510951 -0.038106820203 -0.038792209653 
-0.034230649172 -0.032879024018 -0.029504081889 -0.018971017374 -0.01120389994 -0.000657173748 0.0088150239389 0.014301025818 0.019397381423 
0.019832784979 0.020944962695 0.022375229089 0.020210684198 0.016196034673 0.016542185473 0.014186464481 0.011009084856 0.010767926267 
0.0093628535227 0.007048062254 0.0053453498593 0.0040068147192 0.0025484361263 0.0012672583694 -6.3984569917e-05 -0.00075735328182 -0.0020521896698 
-0.0055706524191 -0.0070556902361 -0.0082057116299 -0.011480166479 -0.013684957183 -0.015403369779 -0.017494773502 -0.02277179465 -0.025344984146 
-0.024157486898 -0.028440931236 -0.027987141672 -0.025956450732 -0.029178353317 -0.023067439239 -0.015078854742 -0.0090505458012 -0.0019685292329 
0.004608380195 0.01403997737 0.023620416312 0.021188901333 0.027756787746 0.033912119069 0.027818400704 0.029783795713 0.026792745987 
0.027051282433 0.023790203324 0.016941017267 0.017122259762 0.016588259177 0.013122544004 0.011437934951 0.0084485169673 0.0063719904887 
0.0071253541221 0.0044454895352 0.003164925274 0.002797799241 -0.0013532718852 -0.0029279321941 -0.0013585165362 -0.0057170964841 -0.0078364099843 
-0.009754178169 -0.014319822073 -0.016479710751 -0.019793255298 -0.025737108889 -0.031246403087 -0.036150190747 -0.045865566752 -0.053377663507 
-0.064769768783 -0.078037066295 -0.089683583906 -0.10710976488 -0.12513320046 -0.14335701148 -0.15895800677 -0.17306308447 -0.18002598683 
-0.17889199421 -0.16948255001 -0.14925984252 -0.13399340902 -0.11506262069 -0.096925429164 -0.080245205748 -0.065533550353 -0.0533088944 
-0.03766639836 -0.028179895694 -0.016336210071 -0.0018994648191 0.0051984829132 0.018271066771 0.036305002769 0.05075083844 0.068480833856 
0.098701431146 0.12917029435 0.17150929213 0.23148819718 0.29561736678 0.36754862598 0.4220149805 0.43674235894 0.38055772933 
0.31587349275 0.25624057405 0.19634651198 0.15720094108 0.12636900631 0.099714013394 0.084085625179 0.070798083638 0.057971967865 
0.050749541879 0.042547218303 0.035949807321 0.031116933546 0.026817124554 0.022693502924 0.019333924827 0.017213780118 0.014746028849 
0.012448390951 0.0079151733774 0.0081128973994 0.007127169957 0.0048440573668 0.0065565953917 0.0028367758277 0.00229857911 0 
0 
TangentArray 3 343 double
-0.18926933245 0.5012039825 0.84437650827 -0.18926933245 0.5012039825 0.84437650827 -0.18966926156 0.50029181743 0.84482759699 
-0.19055107537 0.49827082034 0.84582295859 -0.19192189592 0.49512152842 0.84736099625 -0.19378915018 0.49081254141 0.84944029482 
-0.19616016175 0.48530486659 0.85205655764 -0.19904143072 0.47855784311 0.85519874862 -0.20243591938 0.4705314288 0.85884799182 
-0.20634000131 0.46119158357 0.86297516019 -0.21073990023 0.45051579896 0.86753916876 -0.21560997384 0.43850247535 0.87248376391 
-0.22090983188 0.42517897435 0.87773668372 -0.22658315367 0.41060809427 0.88321065856 -0.23255507873 0.39488919384 0.88880856203 
-0.23873345115 0.37816176321 0.89442720226 -0.24501532467 0.3606086765 0.89996048419 -0.25128859225 0.34244511099 0.90530955444 
-0.25743768374 0.32390877375 0.91038944704 -0.26335239403 0.30524926793 0.91513299634 -0.26893139611 0.28670999241 0.9194962123 
-0.2740866192 0.26851440176 0.92345900896 -0.27874769479 0.25085511322 0.92702288797 -0.28286312945 0.23388592514 0.93020740914 
-0.28639640573 0.21771549863 0.9330471909 -0.28933249284 0.20241335016 0.93558299699 -0.29166764191 0.18800782696 0.93786088716 
-0.29340860453 0.1744937876 0.93992728915 -0.29456966142 0.16183926504 0.94182629336 -0.29516944561 0.14999255222 0.94359802493 
-0.2952314062 0.13889076536 0.94527655852 -0.29477808183 0.12846413118 0.94689114975 -0.29383717864 0.11864320865 0.94846375866 
-0.29243661595 0.10936108684 0.95001104117 -0.29060286979 0.10055624956 0.95154527625 -0.2883644164 0.092175565563 0.95307377913 
-0.28575296037 0.084175794428 0.95459922547 -0.2828028568 0.076523424544 0.95612065644 -0.27955152011 0.069195114558 0.95763405523 
-0.27604148764 0.062177220054 0.9591324676 -0.27231853714 0.055464422033 0.96060726221 -0.26843298529 0.049058649799 0.96204832586 
-0.26444041111 0.04296715354 0.96344439004 -0.26039604678 0.037200146257 0.96478497497 -0.25635803574 0.031769313715 0.9660596608 
-0.25238405682 0.026685698411 0.96725909733 -0.24852828544 0.021957460887 0.96837573351 -0.24483991264 0.017588183215 0.96940397822 
-0.24136045983 0.013576412804 0.97034056364 -0.23812642489 0.0099150984438 0.97118355453 -0.23516436983 0.0065915327168 0.97193326461 
-0.23249270669 0.0035875931716 0.97259152295 -0.23012272706 0.00088005824732 0.97316121788 -0.22805615572 -0.0015569673699 0.97364673557 
-0.2262891305 -0.0037522820087 0.9740529502 -0.22481563292 -0.0057361714228 0.97438443519 -0.22362346541 -0.0075391279365 0.97464645245 
-0.22269672334 -0.0091913912809 0.97484444284 -0.22202181053 -0.010722509657 0.97498274007 -0.22158330297 -0.012160281035 0.9750656221 
-0.22136387496 -0.013530725865 0.97509740761 -0.2213493504 -0.014858183053 0.97508138095 -0.2215262 -0.016164687401 0.97502043343 
-0.22188044567 -0.017470594599 0.9749173535 -0.2224004195 -0.018794053227 0.97477424923 -0.22307335452 -0.020151319778 0.97459335254 
-0.22388812024 -0.021556575459 0.97437642812 -0.2248330828 -0.023022232879 0.97412528027 -0.2258946157 -0.024558839359 0.97384212581 
-0.22705932964 -0.026174737657 0.97352911817 -0.22831196873 -0.027876415285 0.97318885649 -0.22963660434 -0.029668567328 0.97282413933 
-0.23101472025 -0.031553730634 0.97243846135 -0.23242500028 -0.033532707672 0.97203609849 -0.23384615239 -0.035604434926 0.97162148043 
-0.23525539784 -0.037766266268 0.97119957111 -0.23662824063 -0.040014220441 0.97077594629 -0.23793966301 -0.042342837282 0.97035653288 
-0.23916453493 -0.044746010404 0.969947483 -0.24028032516 -0.047217163643 0.96955448779 -0.24126427688 -0.049749436416 0.96918344098 
-0.24209444491 -0.052336026565 0.96884014165 -0.24275187547 -0.054970934406 0.96852967085 -0.24322137049 -0.057648982565 0.96825614367 
-0.24349075399 -0.060365851125 0.96802283896 -0.24354802923 -0.063118421518 0.96783284834 -0.24338598502 -0.065904773059 0.96768787488 
-0.243001322 -0.068724551922 0.96758839052 -0.24238875265 -0.071578448923 0.96753512507 -0.24154995766 -0.074468062586 0.96752680873 
-0.24048517499 -0.077396563286 0.96756222156 -0.23919456909 -0.080367682694 0.96763990911 -0.23768394214 -0.083385887217 0.96775675532 
-0.23595676874 -0.086455991336 0.96790999832 -0.23401699057 -0.089583043377 0.96809654811 -0.23186826212 -0.092772905891 0.96831311927 
-0.22951498109 -0.096030919436 0.96855610884 -0.22695948277 -0.099362426207 0.96882222386 -0.22420591403 -0.10277265495 0.96910757375 
-0.22125905098 -0.10626638285 0.96940800917 -0.2181202197 -0.10984833844 0.96972001748 -0.21479274096 -0.11352248733 0.97003954729 
-0.21127997453 -0.11729196888 0.97036249227 -0.20758375125 -0.12115928312 0.97068502323 -0.20370810283 -0.12512588966 0.97100284272 
-0.19965435625 -0.12919207739 0.97131227994 -0.19542666134 -0.13335661512 0.9716091978 -0.19103126388 -0.13761662912 0.97188925275 
-0.18647292429 -0.1419674913 0.97214869229 -0.18175775871 -0.14640247417 0.97238389163 -0.17689494854 -0.15091259325 0.97259116096 
-0.17189438917 -0.15548657138 0.97276731292 -0.16676707788 -0.16011084577 0.97290968687 -0.1615292586 -0.16476970656 0.97301554069 
-0.15619454563 -0.16944551763 0.97308349101 -0.15078062909 -0.17411900644 0.97311241565 -0.14530783481 -0.17876988163 0.97310172262 
-0.13979496861 -0.18337708799 0.97305200804 -0.13426168998 -0.18791976423 0.97296452187 -0.1287321286 -0.19237782296 0.97284058936 
-0.12322779979 -0.19673246877 0.97268249963 -0.11776971003 -0.20096701394 0.97249295869 -0.11237913743 -0.20506718108 0.97227484834 
-0.10707476978 -0.2090215742 0.97203136533 -0.10187458841 -0.21282217648 0.97176555271 -0.096795602228 -0.21646446127 0.97148018425 
-0.091854784582 -0.21994676313 0.97117769741 -0.087062392728 -0.22327061063 0.97086063583 -0.082428402246 -0.22644081096 0.97053084322 
-0.077962166479 -0.22946400748 0.97018975972 -0.073671345596 -0.23234918088 0.96983833239 -0.06955948334 -0.23510724449 0.9694772106 
-0.065630848419 -0.23774954347 0.96910667437 -0.061889344152 -0.24028806308 0.96872666724 -0.058332803932 -0.24273501322 0.96833723327 
-0.054959217121 -0.24510284354 0.96793805615 -0.051764361049 -0.24740357315 0.96752877111 -0.048745374461 -0.24964765447 0.96710906163 
-0.045898785244 -0.25184503577 0.96667852954 -0.043218184315 -0.25400506636 0.96623683163 -0.040696685553 -0.25613634595 0.96578359484 
-0.038325898931 -0.25824568198 0.96531875213 -0.036098231895 -0.26033909927 0.96484220007 -0.034005944991 -0.26242342675 0.96435343147 
-0.032038840669 -0.26450327227 0.96385244288 -0.030189868415 -0.26658263207 0.96333912623 -0.028449745329 -0.26866646483 0.9628130362 
-0.026810351809 -0.27075972468 0.96227354558 -0.025263364089 -0.2728658237 0.96172033601 -0.023800623137 -0.27498827134 0.96115294359 
-0.022418688078 -0.27713169495 0.96057036498 -0.021107334511 -0.27929884614 0.95997220531 -0.019861282907 -0.28149333664 0.95935761365 
-0.018677933647 -0.28371954319 0.9587253807 -0.017552793528 -0.28597919119 0.95807505011 -0.016480713209 -0.28827300155 0.95740642502 
-0.015459514061 -0.29060239793 0.9567190025 -0.014487813869 -0.29296697002 0.95601279161 -0.013563662692 -0.29536430503 0.95528841423 
-0.012685897255 -0.29779060414 0.95454692085 -0.01185278411 -0.30023786738 0.9537907184 -0.011061892418 -0.30269820432 0.95302226188 
-0.010314208739 -0.30516273968 0.95224435909 -0.0096099438599 -0.3076184849 0.9514612534 -0.0089455173069 -0.31004939674 0.9506783627 
-0.008320488192 -0.3124395042 0.94990121891 -0.0077347277505 -0.31477270338 0.94913556418 -0.0071897544628 -0.31702999205 0.94838825993 
-0.0066826327181 -0.31919169125 0.94766661156 -0.0062102738361 -0.32123879662 0.94697786038 -0.0057757460353 -0.32315533067 0.94632831143 
-0.0053772376587 -0.32492368403 0.94572495202 -0.0050143506632 -0.32652775838 0.94517431159 -0.0046881398645 -0.32795623283 0.94468128524 
-0.0043994496957 -0.32919725106 0.94425092785 -0.0041489475314 -0.33024166579 0.94388729646 -0.0039352919225 -0.33108361526 0.94359321383 
-0.0037639221866 -0.33171979881 0.94337045108 -0.0036366368762 -0.33215064444 0.94321934049 -0.0035549684281 -0.33237780651 0.94313962696 
-0.0035219923717 -0.33240691415 0.94312949217 -0.0035386605487 -0.33224945457 0.94318491179 -0.0036054886479 -0.33191661012 0.9433018416 
-0.0037207039285 -0.33142424138 0.94347449811 -0.0038857231621 -0.33079044763 0.94369623339 -0.004099575308 -0.33003430384 0.94396003717 
-0.0043589969807 -0.32918270446 0.94425618676 -0.0046602822546 -0.32826035478 0.94457578904 -0.0049993614931 -0.32729092311 0.94491039683 
-0.0053702098824 -0.32629921381 0.94525128083 -0.0057650534084 -0.32530666586 0.94559099896 -0.0061818005973 -0.32433467737 0.9459221968 
-0.0066151747414 -0.323401222 0.94623881186 -0.0070553435937 -0.32252058011 0.94653615754 -0.0075002966366 -0.32169981007 0.94681200761 
-0.0079470441755 -0.32094467275 0.94706460261 -0.0083918241256 -0.32025697165 0.94729353919 -0.0088349498009 -0.31963451924 0.94749971914 
-0.0092741213195 -0.3190732836 0.94768466821 -0.0097076967513 -0.31856309834 0.94785194677 -0.010139317497 -0.31809383656 0.94800501337 
-0.010572642789 -0.31765499836 0.94814741535 -0.011006797343 -0.31723490838 0.94828311348 -0.011447144625 -0.31682026918 0.94841651183 
-0.011897142836 -0.31639708367 0.94855223548 -0.012358602352 -0.31595328668 0.94869425295 -0.012836074709 -0.31547718684 0.94884634149 
-0.013332174065 -0.31495736403 0.94901217694 -0.013853491545 -0.31438255542 0.94919528529 -0.014403265013 -0.31374249638 0.94939885819 
-0.014979829655 -0.31303058901 0.94962490229 -0.0155868389 -0.31223948273 0.94987554757 -0.016230446664 -0.3113629643 0.95015244938 
-0.016908806732 -0.31039662444 0.95045674693 -0.017619524798 -0.30934305293 0.95078726745 -0.01836701678 -0.30820035233 0.95114415076 
-0.019149037217 -0.30696777562 0.95152724559 -0.019961148606 -0.30565294342 0.95193373232 -0.020801473039 -0.30426420139 0.95236053807 
-0.021667474756 -0.3028103714 0.95280449176 -0.022555908301 -0.30130086135 0.9532623049 -0.023460309002 -0.29975202383 0.95372865015 
-0.024375311985 -0.29817825688 0.954198916 -0.025296945253 -0.29659211562 0.95466914767 -0.026216373902 -0.29501185185 0.95513386968 
-0.027128252883 -0.29345213587 0.95558877235 -0.028031132449 -0.29192990195 0.95602886356 -0.028918921289 -0.29045999489 0.95645004436 
-0.02978633057 -0.28905391218 0.95684931435 -0.030629204123 -0.28772724736 0.95722248353 -0.031445608139 -0.28648608349 0.95756822091 
-0.032234624284 -0.28533201869 0.95788651108 -0.032993780533 -0.284268933 0.95817669778 -0.033725237429 -0.28330068565 0.9584379635 
-0.034426856869 -0.28242714119 0.95867079931 -0.035097591339 -0.28163901381 0.95887831605 -0.035741627402 -0.28093252819 0.9590617554 
-0.036358700693 -0.28029874538 0.95922398751 -0.036951064177 -0.27972743752 0.95936811473 -0.037522492159 -0.27921360922 0.95949560865 
-0.038074719308 -0.2787440795 0.95961036566 -0.038607253922 -0.27830764077 0.95971575846 -0.039124493316 -0.27789309137 0.95981493205 
-0.03962755973 -0.27749163924 0.95991043679 -0.040119334504 -0.27709444441 0.96000474367 -0.040604194168 -0.27668834699 0.96010148321 
-0.04107993664 -0.27626501861 0.96020314429 -0.041552835651 -0.27582084867 0.96031048171 -0.042023384811 -0.27534663322 0.96042608602 
-0.042492112911 -0.27483156794 0.96055298115 -0.042965337963 -0.27427274185 0.96069164814 -0.043442174978 -0.27366454911 0.96084363556 
-0.043925077984 -0.27300291022 0.96100988472 -0.04441580295 -0.27228043418 0.96119228129 -0.044916340082 -0.27149285261 0.96139177934 
-0.045431547001 -0.27064285978 0.96160720515 -0.045960836534 -0.26972615099 0.9618395942 -0.046504538493 -0.2687383766 0.96208991931 
-0.047064786605 -0.26768026761 0.96235761554 -0.047641142229 -0.26655441638 0.96264171148 -0.048236364879 -0.26536141004 0.96294162604 
-0.048852221948 -0.26410327493 0.96325641476 -0.04948536454 -0.26278175991 0.96358546344 -0.050136588611 -0.26140350658 0.96392662025 
-0.050805385655 -0.2599742171 0.9642780819 -0.051489491725 -0.25849920727 0.96463827007 -0.052192031498 -0.25698882916 0.96500400701 
-0.052911575236 -0.25545357673 0.9653723817 -0.05364294971 -0.25389781805 0.96574237348 -0.054389036707 -0.25233367158 0.96611052725 
-0.055149026291 -0.25077212918 0.96647396453 -0.055922740272 -0.24922066052 0.96683075535 -0.056713400754 -0.24769014126 0.96717794852 
-0.057519817671 -0.24618944899 0.96751342408 -0.058341570647 -0.24472879515 0.96783473691 -0.059183584659 -0.24331595972 0.96813978694 
-0.060046838247 -0.24196204867 0.96842591055 -0.060931904489 -0.24067403742 0.96869154571 -0.0618458033 -0.23946040913 0.96893436778 
-0.062787551697 -0.23833164922 0.96915207699 -0.063760078553 -0.23729837931 0.96934211275 -0.064767820677 -0.23636965208 0.96950220061 
-0.065810875272 -0.23555332033 0.96963063173 -0.066888290182 -0.23486401761 0.96972411018 -0.068002388118 -0.23431145439 0.96978029344 
-0.069157228032 -0.23390633387 0.9697964244 -0.070350163658 -0.23366083381 0.96976980218 -0.071582702729 -0.23358825762 0.96969708805 
-0.072856255793 -0.23370314768 0.96957454832 -0.074170033671 -0.23401940362 0.96939864083 -0.075520507466 -0.23454987835 0.96916614031 
-0.076909264872 -0.23529935775 0.96887521241 -0.078336430896 -0.23627956067 0.96852226242 -0.079802512705 -0.23749794976 0.96810447929 
-0.08131258743 -0.23895954318 0.96761903653 -0.082862380439 -0.24065957393 0.96706607602 -0.084457014253 -0.24259416546 0.96644455797 
-0.08609714765 -0.24475576934 0.96575457262 -0.087790293153 -0.24712238492 0.96499916647 -0.089542208461 -0.24967990216 0.96417951615 
-0.091352242728 -0.2523911867 0.96330340839 -0.093234476844 -0.25521829312 0.96237776116 -0.095186284373 -0.25812587792 0.96141073554 
-0.097213374955 -0.26106471561 0.96041385558 -0.099325356016 -0.26396919871 0.95940332279 -0.10151408541 -0.26677194315 0.95839846662 
-0.10378354901 -0.26942041627 0.95741402447 -0.10614001027 -0.27183488914 0.9564727342 -0.10857356483 -0.27394568856 0.95559695517 
-0.1110730051 -0.27567676514 0.95481155664 -0.11363571304 -0.27695674682 0.95413934261 -0.11624480841 -0.27772083392 0.95360279096 
-0.11888554817 -0.27791012117 0.95322200509 -0.12154777012 -0.27746238152 0.95301666639 -0.12420660267 -0.27631151021 0.95300822094 
-0.12684636237 -0.27443696408 0.95320215752 -0.12944821438 -0.2718064041 0.95360601848 -0.13198822043 -0.2683848058 0.954226758 
-0.13444873273 -0.26417743115 0.95505697377 -0.13680996018 -0.25918711457 0.95608842396 -0.13905558681 -0.25341798228 0.95731022664 
-0.14117437576 -0.24692047944 0.95869707023 -0.14314961346 -0.23973064772 0.96022778793 -0.14496800152 -0.23190022498 0.9618765847 
-0.14662972217 -0.22350324285 0.96361093031 -0.14812580757 -0.21460792533 0.96540260177 -0.14945835116 -0.20530621857 0.9672184644 
-0.1506321843 -0.19570380882 0.96902526503 -0.15164987798 -0.18591599599 0.97079223161 -0.15252037054 -0.17604606865 0.97249437956 
-0.15325541096 -0.16620463052 0.97410923402 -0.15386542563 -0.15653144781 0.97561433807 -0.15436062187 -0.14713190214 0.97699795383 
-0.15475390469 -0.13812295798 0.97825010987 -0.15505940148 -0.12963119086 0.97936323005 -0.15530106162 -0.1217585268 0.98033486188 
-0.15548267237 -0.1146051181 0.98116808218 -0.15561489357 -0.10826713637 0.9818667079 -0.15570996023 -0.10282082696 0.98243691188 
-0.15577045087 -0.098331655966 0.98288679515 -0.15581087505 -0.094873474259 0.98322021699 -0.15583398313 -0.092469110134 0.98344559248 
-0.15583398313 -0.092469110134 0.98344559248 
NormalArray 3 343 double
0.36750898778 0.83357700565 -0.41241546959 0.36750898778 0.83357700565 -0.41241546959 0.36526501167 0.83464172925 -0.41225557005 
0.36396300397 0.83606209739 -0.41052539636 0.36435182316 0.83765146563 -0.40692477326 0.36285074432 0.84031238678 -0.40275852563 
0.36193853824 0.84341357007 -0.39705672688 0.36010393115 0.84732502665 -0.39034018238 0.35844107802 0.85174944758 -0.38215556012 
0.3558219133 0.85693953648 -0.37288791456 0.3529169625 0.86267923981 -0.36226253848 0.34914787364 0.86905068109 -0.35049490158 
0.34497959535 0.87585480343 -0.33744250192 0.33993688759 0.88311143756 -0.32335290522 0.3340209946 0.89070675704 -0.30833658253 
0.32692021493 0.89859374563 -0.29266440403 0.31913134238 0.90652276063 -0.27635424869 0.30985529012 0.91456120058 -0.25993751091 
0.29954988598 0.92248300693 -0.24350558049 0.28770798055 0.93030188118 -0.22751379697 0.27439764976 0.93791166263 -0.2121971793 
0.25900717152 0.94536126782 -0.19800848063 0.24167534871 0.95254104708 -0.18509073303 0.22166443758 0.95950109206 -0.17384628686 
0.19858687094 0.96618109414 -0.16449117913 0.17272061568 0.97238413205 -0.156960787 0.14262370566 0.97808020723 -0.15171547976 
0.10902647066 0.98289360175 -0.14843650607 0.070533159301 0.98654925897 -0.14746400597 0.028219919912 0.98853840753 -0.14830864086 
-0.018510637051 0.98836007507 -0.15100237851 -0.068649392764 0.98551451312 -0.1550754826 -0.12091981304 0.97968124481 -0.16000955404 
-0.17456229668 0.97064280928 -0.16547066619 -0.22827830282 0.95846065728 -0.17100346459 -0.28066589796 0.94349948819 -0.17616858262 
-0.33053768874 0.92634663205 -0.18062877293 -0.37719284285 0.90763018053 -0.18420916018 -0.42012249779 0.88803153361 -0.18680760736 
-0.45891047542 0.86828579322 -0.18836389474 -0.49393768161 0.84870147678 -0.18902743184 -0.52490426581 0.82996172824 -0.18878305377 
-0.55214879431 0.81232450793 -0.18777806782 -0.57626759867 0.79576285569 -0.18621796966 -0.59680062447 0.78099516988 -0.18405314246 
-0.61455789194 0.76770026507 -0.1815348464 -0.62909645019 0.75652945154 -0.17860807742 -0.64096547797 0.74724992196 -0.17544460719 
-0.64980273014 0.74038907302 -0.17198962889 -0.65512097866 0.73657448594 -0.16815031957 -0.65712062524 0.73573223056 -0.16398344064 
-0.65435766885 0.73924834457 -0.15914749845 -0.64620116439 0.74757413901 -0.15348277369 -0.63166852687 0.76122461607 -0.14673771176 
-0.60787636354 0.78191104914 -0.1382079516 -0.57132739007 0.81082930601 -0.12704664446 -0.51985756658 0.84678266281 -0.11272636088 
-0.44780772092 0.88918402255 -0.09391495693 -0.34929297121 0.93445007705 -0.069263798343 -0.22633278815 0.97325704133 -0.039296316842 
-0.084730022455 0.99638926433 -0.0054089940807 0.06455408847 0.99746756343 0.029853468401 0.2017512236 0.9774697175 0.062043493923 
0.316896766 0.94427097451 0.08904362072 0.40713279388 0.90667589216 0.11037080556 0.4721503815 0.87245084813 0.12610921791 
0.52005882097 0.84288488625 0.13814445795 0.55133294937 0.8212932602 0.14666069576 0.57182379343 0.8059891632 0.15296737582 
0.58307157616 0.7970233581 0.15742078553 0.58736179496 0.79324649712 0.16051827505 0.58583619726 0.79397053179 0.16250152194 
0.5788104213 0.79891811481 0.16342687056 0.56643828386 0.80776129643 0.16330755818 0.54994707533 0.81926234383 0.16238049855 
0.52801772292 0.83396094305 0.16033224801 0.50117107297 0.85094321385 0.15723613587 0.46828571327 0.87026420894 0.15280280554 
0.42945037937 0.89104659717 0.14699773242 0.38476496831 0.91236811606 0.13978676603 0.33249978696 0.93400086132 0.13071450849 
0.27337479201 0.95440975684 0.11986759004 0.20718471823 0.97241951435 0.10712040259 0.13609727451 0.98632899656 0.092912014388 
0.060409190365 0.99517963201 0.077254318606 -0.018693573444 0.99800029917 0.060381728815 -0.096701134039 0.9943667915 0.04340016865 
-0.17255561929 0.98464054586 0.02659988169 -0.24589195148 0.96924458503 0.010103592485 -0.31039114803 0.95059908446 -0.0043261814678 
-0.37155179297 0.92823582481 -0.018097477146 -0.42377076881 0.90528684489 -0.029564572802 -0.46964848305 0.88197601499 -0.0393523994 
-0.5090180935 0.85945413913 -0.04731979734 -0.54300766012 0.83800795605 -0.053715422806 -0.57184490854 0.8182708363 -0.058534084406 
-0.59647675271 0.80023191428 -0.062002958404 -0.61783364918 0.78367024278 -0.064362508675 -0.63555181693 0.76927851288 -0.065455768366 
-0.65083570057 0.75637629336 -0.065633784829 -0.66417771239 0.74474083471 -0.065031188535 -0.67537595718 0.73472933934 -0.063561894021 
-0.68528723753 0.72567198254 -0.061494518773 -0.69393190333 0.71763366495 -0.058825474639 -0.70137930685 0.71061867602 -0.055571262553 
-0.70851152827 0.70377878113 -0.052027315368 -0.71444453787 0.69805115247 -0.047891448518 -0.72013941905 0.69246458912 -0.043497240795 
-0.72532977523 0.68730962344 -0.03875820805 -0.73048572668 0.68208870745 -0.033846687878 -0.73514221804 0.67730881387 -0.028612757773 
-0.74006935474 0.67212532651 -0.023342999727 -0.74476527336 0.66708697763 -0.017878810733 -0.74941868683 0.66198193266 -0.012310672926 
-0.75451953622 0.65624195409 -0.0068386511421 -0.75938528529 0.65064002165 -0.0012452794716 -0.76460322454 0.64448743346 0.0042257690517 
-0.76998034064 0.63799518641 0.0096133832584 -0.77568584321 0.63094512751 0.014822911908 -0.78107153774 0.62411917615 0.020062574428 
-0.78702952009 0.61640995786 0.024965943832 -0.79257956958 0.60903615951 0.029876115829 -0.79845975233 0.60105982492 0.034483485586 
-0.80393559034 0.5934328651 0.039051263924 -0.80943033594 0.58561023139 0.043395715742 -0.81418714795 0.57863097319 0.047806746164 
-0.81856881988 0.57203797836 0.052130973813 -0.82245436875 0.56602652468 0.056416173984 -0.82541631365 0.56123627704 0.060842012597 
-0.82753603915 0.5575926543 0.065379934089 -0.82833598251 0.55581146366 0.070236151319 -0.82820809329 0.55534525842 0.075252894633 
-0.82624586583 0.5574831018 0.080810645352 -0.82288619997 0.5615499291 0.086717812569 -0.81802521288 0.56761299002 0.093006691456 
-0.81120984995 0.57616916194 0.099838250046 -0.8028552506 0.58649052194 0.10701548603 -0.79210397903 0.59948830959 0.11482618632 
-0.77953126277 0.6141688999 0.12299419808 -0.76475208606 0.63074140514 0.13160367282 -0.74810136909 0.64854488658 0.14047729945 
-0.72988020381 0.66703365766 0.149469019 -0.70969989107 0.68640646595 0.15865758134 -0.68769705309 0.70630373675 0.16795176279 
-0.66555421218 0.7250921342 0.17685866555 -0.64087732827 0.74476536531 0.18601290477 -0.6172288712 0.76236499416 0.19449456608 
-0.59085914479 0.78075954605 0.20322401992 -0.56710534601 0.79616118569 0.21099500687 -0.54092238656 0.81207587921 0.21894231689 
-0.51528763365 0.82656058335 0.22644261227 -0.49216156117 0.83868890454 0.23319073549 -0.46707082821 0.85101608513 0.24003429816 
-0.44325998842 0.86185786752 0.24641752953 -0.41981073838 0.87177339771 0.25252739849 -0.39880131204 0.87996935535 0.25809193549 
-0.37622915019 0.88820476243 0.26371182481 -0.3563793111 0.89483536531 0.26881862959 -0.33584611313 0.90122024923 0.2738785327 
-0.31792551244 0.90628679132 0.27850964151 -0.30050068026 0.91083513015 0.28298181364 -0.28602647432 0.9142153776 0.28705243311 
-0.26957341472 0.91788565444 0.29123203713 -0.25737509211 0.92020838979 0.29491453222 -0.24597832018 0.92218586888 0.29844243873 
-0.2365036402 0.92359801979 0.30171630053 -0.227325283 0.92486577471 0.30487130807 -0.2192439058 0.92583652421 0.30782923871 
-0.21503188982 0.92597622897 0.31036963406 -0.21215324196 0.92586150804 0.31268429743 -0.20752537182 0.92612849687 0.31499083691 
-0.20977254472 0.92506205035 0.31663177744 -0.2086296101 0.92472818818 0.31835744654 -0.21373825232 0.92318890029 0.319434209 
-0.2157513796 0.92233320535 0.3205507768 -0.22722300307 0.91951661995 0.32071621804 -0.2403819098 0.9162454003 0.32048541911 
-0.25477905649 0.91256268582 0.31987024997 -0.29076303371 0.90282427782 0.31680464266 -0.39690769458 0.8661421884 0.30374659085 
-0.11380162869 -0.93687494634 -0.33062747047 0.15718487757 -0.93165085541 -0.32759670004 0.20308988294 -0.92389231506 -0.32431079171 
0.22485378252 -0.91959779325 -0.3221500817 0.24972464991 -0.91412443253 -0.31939649508 0.26510217546 -0.91055121436 -0.31720233699 
0.28676012353 -0.90501901539 -0.31418022431 0.30247542613 -0.90080072378 -0.31155524811 0.32477948104 -0.89422787044 -0.30801753915 
0.34179909595 -0.88893174066 -0.30491595311 0.36257180329 -0.88194147535 -0.3011991393 0.38960266485 -0.871973142 -0.2964331344 
0.41559160842 -0.86155680353 -0.29155357878 0.44085629333 -0.85060900806 -0.28654850208 0.47374676666 -0.83498032703 -0.27994973575 
0.50566247566 -0.8183691087 -0.27308874498 0.54107543404 -0.79812000037 -0.26503177111 0.57967708969 -0.77371862072 -0.25560510097 
0.61393870185 -0.74988798916 -0.24646962103 0.64308074616 -0.72786248796 -0.23804065311 0.67357810576 -0.70286450672 -0.22863512555 
0.69570026437 -0.68342390876 -0.22120782785 0.70662827538 -0.6734586385 -0.21709431744 0.71515680786 -0.66550099233 -0.21368006313 
0.7079651561 -0.67257759206 -0.21546396544 0.69954321222 -0.68066181153 -0.21757479761 0.68246050928 -0.69630449879 -0.22227842503 
0.66354345148 -0.71279204635 -0.22723905179 0.64486858633 -0.7282929397 -0.23180573837 0.62271541527 -0.74569845256 -0.2369795971 
0.60016851947 -0.76243202126 -0.24185772925 0.58129596035 -0.77578205407 -0.24547344269 0.56638291187 -0.78597817895 -0.24788848167 
0.54699172769 -0.79860032696 -0.25107283328 0.53579368059 -0.80579189841 -0.25223906972 0.5238445495 -0.81324911113 -0.25340238991 
0.51278624284 -0.82001335163 -0.25422110907 0.50382766738 -0.82546762005 -0.25448161002 0.49763573173 -0.82933519307 -0.25409017307 
0.49245026942 -0.83262933247 -0.25341887629 0.48906478781 -0.83495110439 -0.25233368108 0.48699149766 -0.83657754636 -0.25095276477 
0.48631760645 -0.83746970087 -0.24927832994 0.48701396674 -0.83764270456 -0.24732993289 0.48778263746 -0.83777084986 -0.24537339244 
0.49112374323 -0.83652527861 -0.2429463461 0.49912233328 -0.83273429077 -0.23964660938 0.50520315333 -0.82989089689 -0.23675065601 
0.51569271348 -0.82447920468 -0.23301301746 0.52812336346 -0.81773487246 -0.22890039608 0.54272638517 -0.80939646101 -0.22433332287 
0.55831304691 -0.80005809673 -0.21953037033 0.57686814065 -0.78830436296 -0.21400789623 0.60244167542 -0.77093925255 -0.20668017946 
0.62452727429 -0.75496411906 -0.19998715607 0.64702991558 -0.73764024073 -0.19297451542 0.67712121045 -0.71262257652 -0.18351002641 
0.69566482395 -0.69620131013 -0.17707113965 0.72297134339 -0.67024560073 -0.16758064128 0.74457793806 -0.64819816247 -0.15950810739 
0.76063559159 -0.63087388206 -0.15307397476 0.76857216033 -0.62205700483 -0.14947212821 0.77491610698 -0.61486762374 -0.14643371342 
0.77135224106 -0.61916400659 -0.14714500721 0.76750747081 -0.62373123549 -0.14795819723 0.74803228254 -0.6454576068 -0.15437675373 
0.72736284253 -0.66714134032 -0.16082825414 0.71102351439 -0.68340890389 -0.16552290499 0.67722050306 -0.71460699868 -0.17524048525 
0.64756968343 -0.73970648806 -0.18299676673 0.62274807623 -0.75927274518 -0.18891726229 0.58870907857 -0.78404929046 -0.19669349492 
0.56725583335 -0.79864837809 -0.20095170489 0.53360454417 -0.8198618558 -0.20758787982 0.51585809125 -0.83043255928 -0.21040958671 
0.49774278961 -0.8407360947 -0.2131078001 0.47944056913 -0.85066784339 -0.21564081453 0.46245324808 -0.85949511814 -0.21772720373 
0.45108842168 -0.86528876992 -0.21861971661 0.43836639609 -0.87154749136 -0.21963577368 0.43285229168 -0.87438945822 -0.21927601088 
0.42517730359 -0.87816366159 -0.21920958917 0.41806821095 -0.88163181549 -0.21896189829 0.41575214111 -0.88300530629 -0.21783430909 
0.41165056058 -0.88514210433 -0.21694992766 0.40993638216 -0.8862630299 -0.21561540855 0.4139187094 -0.88497396385 -0.21328944024 
0.41549431472 -0.8847045849 -0.21133450235 0.41633860311 -0.88474908299 -0.209478466 0.42594318296 -0.8809593383 -0.20611416532 
0.43074592817 -0.87921802712 -0.20355246533 0.44357129456 -0.87373761737 -0.19956723838 0.45636377086 -0.86804128407 -0.19554139663 
0.47265664183 -0.8603394857 -0.19081841707 0.49064471846 -0.85134289127 -0.18569610046 0.51635018849 -0.8374799266 -0.17891298274 
0.54258708421 -0.8222442139 -0.17179554348 0.57442963359 -0.80212833251 -0.16315861684 0.61405386611 -0.7744498086 -0.152201654 
0.65387983345 -0.74344536335 -0.14046407054 0.70512602445 -0.69806521618 -0.12450800616 0.7558023911 -0.64599727414 -0.10700592235 
0.81153280651 -0.57804064263 -0.085343537671 0.86778878904 -0.49334269744 -0.059628856326 0.91984010941 -0.39114431152 -0.030005011011 
0.9634749558 -0.26776670164 0.0041234733477 0.99024778953 -0.13355399991 0.039656581377 0.99688424678 0.015538636187 0.077332718195 
0.98061916071 0.16049524055 0.11237143498 0.94339414199 0.29864993076 0.14427651131 0.89227525012 0.41798455902 0.17068622219 
0.83812335036 0.51107909128 0.19064997259 0.77753256082 0.59355479383 0.20769165506 0.72594243298 0.65171341942 0.21972073854 
0.67548352155 0.70065439323 0.22979432839 0.6354841284 0.73474512645 0.23729627414 0.60020907902 0.76181910521 0.24368157993 
0.57199753808 0.7815291325 0.24906029689 0.55477211213 0.79247142674 0.25341061818 0.5382257203 0.80241246233 0.25777376575 
0.53423611991 0.8039369233 0.26129904619 0.53512301733 0.80226578025 0.26459964882 0.53933854614 0.79838682731 0.26775437743 
0.55434504021 0.78723959961 0.27010255311 0.57798629322 0.76953447985 0.27156680426 0.60682802781 0.74679063861 0.2721460761 
0.64592207997 0.71373414511 0.27086571713 0.70023886685 0.66250515009 0.26599333724 0.75818991164 0.59889140847 0.2578316093 
0.83356546684 0.49729703459 0.24054993633 0.905817211 0.36564042849 0.21401461937 0.96956664346 0.17655826195 0.16961044786 
0.99289504979 -0.038171607431 0.11270469591 0.95741533168 -0.28609308807 0.038815301341 0.86876125109 -0.49431596449 -0.030093451986 
0.75770062193 -0.64698467773 -0.085443515278 0.64344325274 -0.75475321077 -0.12778251575 0.54079813638 -0.82625837067 -0.15758959541 
0.45832820493 -0.87109539983 -0.17643146253 0.38603151622 -0.90281080585 -0.18950545459 0.32823505239 -0.92385017994 -0.19688218664 
0.28119006506 -0.93851272828 -0.2003147677 0.23924004471 -0.94982868437 -0.20146878505 0.20486995596 -0.95811365071 -0.20011629987 
0.17630603252 -0.96444733622 -0.19686929306 0.14952571894 -0.96980921173 -0.19264514586 0.12918604941 -0.97387516448 -0.18675687044 
0.10950217504 -0.97748085932 -0.18038969851 0.094096089757 -0.98040643482 -0.17305822276 0.079045142159 -0.98302752996 -0.16555585414 
0.067873926533 -0.98519680108 -0.15741789366 0.056349328196 -0.98715532644 -0.14949620295 0.047608629819 -0.98880871338 -0.1413886371 
0.038565539101 -0.99026860931 -0.13371903609 0.032563323187 -0.99148547327 -0.1260800788 0.028196275673 -0.99251719462 -0.11880483335 
0.021938871196 -0.99340297292 -0.11255762669 0.019416943153 -0.99411873001 -0.10654075724 0.014993935654 -0.99469927451 -0.1017277503 
0.011505699879 -0.99514599698 -0.097734658994 0.011909471842 -0.99548492927 -0.094169634617 0.0060273040805 -0.9956791638 -0.092664310207 
0.0060273040805 -0.9956791638 -0.092664310207 
BinormalArray 3 343 double
-0.91055711721 0.23225835524 -0.34196753168 -0.91055711721 0.23225835524 -0.34196753168 -0.91137645486 0.23039375253 -0.34104497699 
-0.91171334279 0.22962220909 -0.34066467629 -0.91127039611 0.23063974988 -0.34116208897 -0.91147413711 0.23016981082 -0.3409351193 
-0.91132962504 0.2305053932 -0.34109467634 -0.91143165823 0.23026656292 -0.34098334618 -0.91133950432 0.23048438788 -0.34108247509 
-0.91149030158 0.23012377985 -0.34092297674 -0.91161302757 0.22982611707 -0.34079560425 -0.91192549121 0.2290556544 -0.34047820147 
-0.91224334745 0.22825687961 -0.3401630079 -0.91274475453 0.22696956134 -0.33967901215 -0.91342657643 0.22517548168 -0.33903966129 
-0.91440117693 0.22253755 -0.33815311098 -0.91549040245 0.21949457145 -0.33719349952 -0.91697532278 0.21519562345 -0.33592722584 
-0.91869238856 0.21001954244 -0.33450872484 -0.92079836799 0.2033747632 -0.33281987802 -0.92324527293 0.19524111594 -0.33090644094 
-0.92617050821 0.1849110309 -0.32865802954 -0.92945830916 0.17244496455 -0.32614411803 -0.93319522454 0.15701919744 -0.32325167367 
-0.93730483487 0.1381812396 -0.31994623227 -0.94151701923 0.11618061548 -0.31630328339 -0.94582686854 0.089510698897 -0.31208872062 
-0.94974976677 0.058924406904 -0.3074138819 -0.95302349814 0.022991561673 -0.30202251585 -0.95502808048 -0.017147918609 -0.29601911152 
-0.95524644627 -0.062078315835 -0.28922397825 -0.95309660756 -0.11071635574 -0.2816890932 -0.94817620264 -0.16170481629 -0.27352045833 
-0.94021743774 -0.21422579087 -0.26476117595 -0.92921417797 -0.26691123827 -0.2555766076 -0.91546306156 -0.31829605856 -0.24620114141 
-0.89949434793 -0.36714622825 -0.2368830199 -0.88190027979 -0.41273674526 -0.22781631993 -0.86333541249 -0.45454596185 -0.21918014076 
-0.84451303877 -0.49215218642 -0.21114912445 -0.82575309931 -0.52595579776 -0.20372117659 -0.80772473291 -0.55565886885 -0.19703800983 
-0.79069777913 -0.58162076779 -0.19108716481 -0.77466738252 -0.60446474391 -0.18577626285 -0.76033517093 -0.62372851091 -0.18125444141 
-0.74740944958 -0.6402532128 -0.17735540076 -0.73652654243 -0.65359089564 -0.17420560677 -0.72747279896 -0.66431032654 -0.17168318735 
-0.72076455263 -0.67204144334 -0.16987865702 -0.71701625441 -0.67628375515 -0.16890226001 -0.71616353094 -0.67724045701 -0.16868657426 
-0.71955762976 -0.67342335438 -0.16952227944 -0.72764523336 -0.66417778658 -0.17146510489 -0.74093539664 -0.6484864376 -0.17458544686 
-0.761104169 -0.62337872246 -0.17921889498 -0.78933069404 -0.58525458807 -0.18556433547 -0.82446385984 -0.53188559251 -0.19327974621 
-0.86595289393 -0.45745742138 -0.20213434425 -0.91033001484 -0.35593269207 -0.21121359521 -0.94851162821 -0.22939672856 -0.21840978017 
-0.971503401 -0.083817381132 -0.22171104723 -0.9730556175 0.069553535569 -0.21982964074 -0.9540558613 0.21045582493 -0.21327390667 
-0.92214180446 0.32870519469 -0.20397888973 -0.88587862688 0.42140907695 -0.19399342337 -0.85282606418 0.48828622949 -0.18510608403 
-0.82426508621 0.5376619594 -0.17750122555 -0.80341898398 0.57004154019 -0.17196098002 -0.78866290128 0.59142060516 -0.1680252836 
-0.78004589474 0.6033810154 -0.16570984385 -0.77645332555 0.60826219698 -0.16473412813 -0.77721488659 0.60723189208 -0.16494377621 
-0.78205542976 0.60061152828 -0.16629821668 -0.7906492837 0.58855521874 -0.16874971016 -0.80179435727 0.5723124463 -0.17200079204 
-0.81599766058 0.55052961283 -0.17625255552 -0.83236688507 0.52373133281 -0.18130322577 -0.85093666481 0.49076194919 -0.18724182685 
-0.87084596623 0.45170095885 -0.19389055387 -0.89119093605 0.40663861137 -0.20105659712 -0.91172114178 0.35379002902 -0.2087993654 
-0.93094387738 0.29387574989 -0.21674994992 -0.94770566079 0.22666822559 -0.2246675233 -0.96037539369 0.15437520965 -0.23205042089 
-0.96802013535 0.077288188243 -0.23867038676 -0.9697086716 -0.0033864033778 -0.24424091488 -0.96509696558 -0.083013522099 -0.24838800731 
-0.95455482596 -0.16049900753 -0.25112776195 -0.93850138028 -0.23546010285 -0.25253455047 -0.91940793622 -0.30135674586 -0.25273139604 
-0.89672523426 -0.36385165319 -0.25198378662 -0.8736156441 -0.41712919347 -0.25059717145 -0.8502568118 -0.46385892552 -0.24879359156 
-0.82778317438 -0.5038491285 -0.24680168543 -0.80646061849 -0.53825416295 -0.24475237872 -0.7869120088 -0.56729712356 -0.24278275064 
-0.76911530796 -0.59195181044 -0.24094542366 -0.75284193236 -0.61317865165 -0.23925084334 -0.73878657006 -0.63059364968 -0.23779413971 
-0.72626257182 -0.64544740972 -0.23651705658 -0.71504652725 -0.65825103999 -0.23540185263 -0.70550081141 -0.66879402119 -0.2344848872 
-0.69695206036 -0.67796959209 -0.23369864733 -0.6894689984 -0.6858005184 -0.23304538014 -0.68305935084 -0.69236161724 -0.23251949209 
-0.67686745552 -0.69857342805 -0.23204657568 -0.6718462788 -0.7035201502 -0.23169371143 -0.66701294842 -0.70820509474 -0.23138554499 
-0.66266474606 -0.71235574887 -0.23113788393 -0.65829683294 -0.71646445182 -0.23091983243 -0.65442654013 -0.72005427563 -0.23075472631 
-0.65019202482 -0.72392780827 -0.23060541899 -0.64615279102 -0.72757094591 -0.23049314377 -0.64209028216 -0.73118456264 -0.23041094791 
-0.63741943285 -0.73527866435 -0.23035136722 -0.63292905636 -0.73915501339 -0.23032732315 -0.62790727194 -0.74342267757 -0.23033710146 
-0.62256537149 -0.74788701401 -0.23038526973 -0.61667274242 -0.75272465636 -0.23047845988 -0.61102806154 -0.7572753972 -0.23060503205 
-0.60448279037 -0.76245334256 -0.23079310336 -0.5982874905 -0.76725954912 -0.23100836131 -0.5914667813 -0.77244711023 -0.23128447529 
-0.58499791475 -0.77726920442 -0.23158157006 -0.57831142085 -0.78215559711 -0.2319235271 -0.572476986 -0.78633919772 -0.23225151587 
-0.5670165656 -0.79018730229 -0.23258598761 -0.56212894526 -0.79357684429 -0.23290951271 -0.55847423187 -0.79607688101 -0.23316974904 
-0.55597302498 -0.79776982968 -0.23336086722 -0.55536657527 -0.79817759616 -0.23341056546 -0.55608707275 -0.79769431961 -0.23334725193 
-0.55947328885 -0.79541671203 -0.23302766635 -0.56482564652 -0.79178489747 -0.23248368795 -0.5722167728 -0.78669893029 -0.23167381812 
-0.5821666976 -0.77971385323 -0.230495647 -0.59392246759 -0.77124596573 -0.22898856485 -0.60843666463 -0.76045369043 -0.2269691826 
-0.62467936726 -0.74791085054 -0.22451068519 -0.64287357653 -0.73324396084 -0.22151040267 -0.66233535415 -0.71678706906 -0.21800957839 
-0.68249982679 -0.69883851303 -0.21405307554 -0.70357869658 -0.67902114613 -0.20954069018 -0.72520090932 -0.65747165455 -0.20448634326 
-0.74566152063 -0.63582970667 -0.19927237836 -0.76704942602 -0.61176650032 -0.19333113338 -0.78626912221 -0.58874268264 -0.18751778875 
-0.8063291363 -0.56311961673 -0.18091329748 -0.82325772937 -0.54006630024 -0.17485737727 -0.84073569096 -0.51469818052 -0.16807522397 
-0.85672402618 -0.48989348404 -0.1613329392 -0.87024794061 -0.46753938439 -0.15516264341 -0.8839968161 -0.44332056606 -0.1483795971 
-0.89619848107 -0.42036203088 -0.14185924549 -0.90744192287 -0.39777763293 -0.13535919387 -0.91688925155 -0.37756139928 -0.12946617382 
-0.92639766298 -0.35586872062 -0.12306430723 -0.93422903502 -0.33680858581 -0.11737157517 -0.94181920523 -0.31711510481 -0.11142080127 
-0.94803082046 -0.29994167426 -0.10617229154 -0.95370794936 -0.28326063736 -0.10101761554 -0.95815786305 -0.26941425438 -0.096692652318 
-0.96292460306 -0.25369593551 -0.09173102602 -0.96626378952 -0.24204831563 -0.088016486851 -0.96923405002 -0.23117654469 -0.084514859434 
-0.97159497613 -0.22214466919 -0.081577866505 -0.97378816469 -0.21340441417 -0.078709378849 -0.97564359128 -0.20571512968 -0.076163430996 
-0.9765841637 -0.20170445613 -0.074824351629 -0.97721667732 -0.19896256803 -0.073901705646 -0.97821258467 -0.19456782761 -0.072412013145 
-0.97773542679 -0.19668452548 -0.073134346533 -0.97798187206 -0.19559499223 -0.072760270321 -0.97687971667 -0.20041697465 -0.074424830728 
-0.97643841948 -0.20231319336 -0.075082519616 -0.97383391454 -0.2131422713 -0.078853529249 -0.97067041312 -0.22556153514 -0.083192204863 
-0.96699196753 -0.23914706671 -0.087950072299 -0.95678818612 -0.27310121345 -0.099860373085 -0.91785164606 -0.37325956546 -0.13500241705 
0.99349724956 -0.10849413971 -0.034528781805 0.98756285478 0.14709515136 0.055521385965 0.97915346085 0.19040576171 0.07073998875 
0.97438541289 0.21094518454 0.077943545416 0.96830909341 0.23442312515 0.086158563209 0.96421161062 0.24894546453 0.0912256852 
0.95799250034 0.26940551011 0.098341448149 0.95314579071 0.28425902891 0.10348867632 0.94577655664 0.30534761729 0.11076794454 
0.9397577022 0.32144857057 0.11630252631 0.93193800846 0.34110820454 0.12303146417 0.92096229504 0.36670131809 0.13175201869 
0.90952726978 0.3913202319 0.14010218282 0.89754997118 0.41526472378 0.14818656629 0.88062917657 0.44644942118 0.158666845 
0.86269479261 0.47672478325 0.16879329323 0.84093219225 0.51033316287 0.17998086262 0.81479838939 0.54698562144 0.19212057305 
0.78929922149 0.5795345058 0.20284598972 0.76573684418 0.60723451071 0.21192766329 0.73904650035 0.63623721703 0.22138761027 
0.71825438487 0.65728765617 0.2282182632 0.70749935042 0.6676941479 0.23157977895 0.69887030489 0.67582049854 0.23419425848 
0.70614714879 0.66897852589 0.23199986241 0.71448342121 0.66096370472 0.22943500574 0.73080974847 0.64469697498 0.22423853817 
0.74801894437 0.62668122479 0.21849096403 0.76416790507 0.60889490294 0.21282483416 0.78231582979 0.58779202429 0.20611278135 
0.79973330113 0.56631198407 0.19929220695 0.81354290417 0.54833266363 0.19359553987 0.82398238436 0.53412677022 0.18910743928 
0.8369672288 0.51564663609 0.18328776446 0.84416508112 0.50498147694 0.17994172323 0.85161584101 0.49359743321 0.17638603479 
0.8583027342 0.48306199175 0.17311131852 0.86357352561 0.47453080662 0.17047369135 0.8671366543 0.46864318334 0.16866413216 
0.87007083199 0.46371788156 0.16716002402 0.8719557697 0.46051541151 0.16618872237 0.87309157315 0.45857031429 0.16560305475 
0.87344205865 0.45796749584 0.16542292142 0.87302775486 0.45868051676 0.16563430437 0.87257137263 0.45946491748 0.16586497302 
0.8706672882 0.46272162495 0.16681478073 0.86607802883 0.47045779122 0.16905121902 0.86251577948 0.47635500483 0.17074085486 
0.85625568598 0.48649961655 0.17362120645 0.84861508637 0.49852052063 0.17700204996 0.83932070424 0.51264324132 0.18093552044 
0.82900390267 0.52772405759 0.18509416089 0.81617066766 0.5456806805 0.18999483197 0.79745008375 0.5704326344 0.19667224905 
0.78024385623 0.59183113204 0.20237449434 0.76165638409 0.6136500152 0.20811826305 0.73500299485 0.64284210972 0.21569566415 
0.7174458151 0.66086030983 0.22030695242 0.68988916174 0.68740337168 0.22700120949 0.66648012479 0.70843412016 0.2322183039 
0.64806158084 0.72408554956 0.23604301379 0.63859714556 0.73184010537 0.23791541744 0.6308520438 0.73804690572 0.23940021676 
0.63517350127 0.73459806907 0.23857975646 0.63978333931 0.73087482837 0.23769573828 0.66241905444 0.71191856028 0.23318010174 
0.68502243329 0.69180927395 0.22835103322 0.70193940183 0.67592538754 0.22451268703 0.7345790804 0.64305603878 0.21650059036 
0.76082056061 0.61424907065 0.20940428306 0.78124184046 0.59015198171 0.20342523245 0.8071768073 0.55711257811 0.19516961101 
0.82236938602 0.53631164371 0.18994318563 0.84456700557 0.50367638675 0.1817048996 0.8554957347 0.48649089968 0.17735177598 
0.86613399075 0.46895123576 0.17290647342 0.87636998019 0.45123389023 0.16841506503 0.88542324413 0.434796305 0.16424935895 
0.89123742162 0.42381908757 0.16147210074 0.89753285419 0.41152607865 0.15837001686 0.90017339813 0.40623441191 0.15703966341 
0.90379075063 0.39884588959 0.1551909644 0.9070667945 0.39200904144 0.15348857201 0.90809497281 0.3898330871 0.15294994134 
0.90992451817 0.38592338823 0.15198851818 0.91065964818 0.38433839474 0.15160146276 0.90881642473 0.38830120397 0.15256107349 
0.90805552674 0.38992469476 0.15295062201 0.90762580478 0.39083878792 0.15316801346 0.90311363492 0.40029784217 0.15539433703 
0.9007866175 0.40507900465 0.15650709164 0.89449267955 0.41769802293 0.15940893286 0.88798406451 0.43029515809 0.16226638008 
0.87936748263 0.44632580539 0.16584964857 0.86940440612 0.46402919984 0.16974357223 0.8543300218 0.48931044981 0.1752013058 
0.83785060319 0.51513961186 0.18065864779 0.81628297733 0.5465035644 0.18712550607 0.78683730601 0.58556486099 0.19493806053 
0.75398865161 0.6248896036 0.20251937328 0.70620955956 0.67556971005 0.21183395583 0.6515887315 0.725821541 0.22048858383 
0.58058886714 0.78127053493 0.22920060776 0.49241098105 0.83752723903 0.23681121094 0.38635456298 0.89000239882 0.24212782112 
0.25871468329 0.93465973513 0.24388089753 0.1202504462 0.96310224995 0.24077766993 -0.033131785163 0.9722114362 0.23174815668 
-0.18187365843 0.95897034184 0.21748070224 -0.32327434009 0.92522599271 0.19862165907 -0.44513091442 0.87765327037 0.17771664536 
-0.54003167922 0.82669968834 0.15790316885 -0.62394432481 0.76932741789 0.13721808779 -0.68310990548 0.7203223881 0.12040147104 
-0.73287807665 0.67229588573 0.10444121213 -0.76765470654 0.63421807656 0.092052609385 -0.79537165791 0.60064941673 0.0812662536 
-0.81572427793 0.57385261908 0.072712268382 -0.82735770259 0.55760161825 0.067525308571 -0.83803058829 0.54202784684 0.062534361212 
-0.8403847547 0.53850172909 0.061395047329 -0.83961341619 0.5396603012 0.061774352783 -0.83669200063 0.54401241266 0.063221760134 
-0.82659006534 0.55865823817 0.068189711894 -0.80997920868 0.58149543976 0.076136292508 -0.78832394047 0.60920971137 0.086074923462 
-0.75631583453 0.64652626351 0.099950733031 -0.70597438167 0.69799191912 0.12003105131 -0.64293066416 0.75251766795 0.14267908224 
-0.54113898402 0.82261654527 0.17455835537 -0.40814471083 0.8885955421 0.20932237717 -0.21547080638 0.94429779124 0.24874487543 
0.0050642404753 0.95984836976 0.28047363607 0.26188169512 0.91715068108 0.30042071494 0.47940234506 0.82419880889 0.3014460399 
0.64015604963 0.71140366848 0.29000871125 0.75446931038 0.59705013987 0.27259345221 0.83073249928 0.49524408215 0.25419837478 
0.87855494696 0.41400856184 0.2381976404 0.91228433247 0.34315403025 0.22356790522 0.93430471162 0.2868452044 0.21164719359 
0.94921122146 0.24129677926 0.20192553423 0.96035013884 0.20088476022 0.1933207799 0.96799410106 0.16804915348 0.18640521005 
0.97335292031 0.14102353027 0.18082161496 0.97759951131 0.1158168003 0.17574317701 0.98029238797 0.097038758409 0.17207647561 
0.98250659983 0.078937879879 0.16867006968 0.98394524258 0.065103494596 0.16617248445 0.98513420511 0.051620316263 0.16384730965 
0.98585288411 0.041991474601 0.1622677015 0.98648374746 0.03197291563 0.16070951639 0.98686686882 0.02468869597 0.15963787617 
0.98720004466 0.017033199896 0.15857472032 0.98736832641 0.01234141982 0.15796036642 0.98746470838 0.009191275272 0.15757211099 
0.98759496988 0.0040249595832 0.1569712559 0.98762694739 0.0024855214528 0.1568018972 0.98768901491 -0.001109428112 0.15642627334 
0.98772627054 -0.0039153714171 0.15614571515 0.98771510857 -0.0029630196842 0.1562372709 0.98776487147 -0.0085127229214 0.15571798946 
0.98776487147 -0.0085127229214 0.15571798946 
