# vtk DataFile Version 4.1
vtk output
ASCII
DATASET POLYDATA
POINTS 380 float
-19.1591 -2.11519 250.597 -17.4383 -2.10779 249.074 -15.7194 -2.09974 247.551 
-14.0085 -2.08909 246.029 -12.3113 -2.07393 244.51 -10.6336 -2.05239 242.994 
-8.98066 -2.02271 241.481 -7.35741 -1.98329 239.973 -5.76823 -1.93266 238.47 
-4.2169 -1.86956 236.973 -2.70651 -1.79294 235.48 -1.23946 -1.702 233.992 
0.1826 -1.59616 232.51 1.55877 -1.47507 231.031 2.88886 -1.33866 229.556 
4.17336 -1.18705 228.084 5.41343 -1.02061 226.613 6.61073 -0.839887 225.141 
7.76745 -0.645608 223.669 8.88616 -0.43866 222.193 9.96973 -0.220053 220.713 
11.0212 0.00910173 219.227 12.0439 0.247619 217.733 13.0409 0.494261 216.229 
14.0155 0.747766 214.715 14.9708 1.00686 213.187 15.9098 1.27029 211.645 
16.835 1.53683 210.087 17.7492 1.80527 208.511 18.6544 2.07448 206.917 
19.5527 2.34338 205.303 20.4457 2.61094 203.668 21.335 2.87622 202.011 
22.2215 3.13834 200.331 23.1063 3.3965 198.627 23.9901 3.64996 196.9 
24.8734 3.89807 195.149 25.7564 4.14026 193.374 26.6393 4.37601 191.575 
27.5221 4.60489 189.754 28.4048 4.82654 187.91 29.287 5.04066 186.045 
30.1686 5.24701 184.161 31.049 5.44544 182.258 31.928 5.63582 180.338 
32.8049 5.81808 178.404 33.6794 5.99221 176.458 34.5508 6.15823 174.501 
35.4186 6.31619 172.535 36.2822 6.46619 170.564 37.1411 6.60832 168.589 
37.9947 6.74273 166.613 38.8424 6.86955 164.637 39.6838 6.98894 162.663 
40.5182 7.10107 160.694 41.3451 7.20611 158.73 42.1642 7.30424 156.773 
42.975 7.39565 154.824 43.7771 7.48054 152.884 44.57 7.5591 150.954 
45.3536 7.63156 149.035 46.1275 7.69813 147.127 46.8915 7.75904 145.23 
47.6452 7.81453 143.344 48.3885 7.86488 141.47 49.1211 7.91033 139.608 
49.8429 7.95118 137.759 50.5536 7.98772 135.922 51.253 8.02025 134.097 
51.9409 8.04908 132.287 52.6171 8.07454 130.49 53.2814 8.09695 128.708 
53.9335 8.11664 126.941 54.5732 8.13393 125.191 55.2005 8.14916 123.457 
55.815 8.16264 121.741 56.4168 8.17469 120.043 57.0056 8.18561 118.365 
57.5816 8.1957 116.705 58.1447 8.20525 115.064 58.6951 8.21452 113.443 
59.2329 8.22376 111.841 59.7584 8.23323 110.257 60.2721 8.24313 108.691 
60.7742 8.2537 107.141 61.2654 8.26512 105.605 61.746 8.27757 104.081 
62.2167 8.29124 102.568 62.6781 8.30628 101.063 63.1308 8.32285 99.5641 
63.5753 8.34108 98.0677 64.0122 8.36111 96.5715 64.4419 8.38306 95.0728 
64.865 8.40707 93.5689 65.2817 8.43323 92.0571 65.6924 8.46167 90.5349 
66.0973 8.49249 89.0002 66.4963 8.5258 87.4509 66.8895 8.5617 85.8851 
67.2768 8.60028 84.3012 67.6579 8.64164 82.6981 68.0325 8.68587 81.0748 
68.4002 8.73307 79.4305 68.7606 8.78332 77.765 69.1131 8.8367 76.078 
69.4571 8.89331 74.3698 69.792 8.95322 72.6406 70.1171 9.01652 70.8911 
70.4318 9.08329 69.1221 70.7355 9.15361 67.3343 71.0274 9.22757 65.5288 
71.307 9.30525 63.7066 71.5736 9.38672 61.8689 71.8268 9.47208 60.0169 
72.0659 9.56141 58.1516 72.2906 9.65478 56.2742 72.5005 9.75229 54.3857 
72.6953 9.85401 52.4871 72.8747 9.96002 50.5795 73.0386 10.0704 48.6637 
73.1868 10.1852 46.7406 73.3195 10.3044 44.8109 73.4366 10.4282 42.8756 
73.5383 10.5565 40.9354 73.6249 10.6894 38.991 73.6965 10.8268 37.0433 
73.7536 10.9687 35.093 73.7965 11.1151 33.1413 73.8257 11.2659 31.1888 
73.8416 11.421 29.2368 73.8448 11.5803 27.2864 73.8359 11.7436 25.3386 
73.8154 11.9107 23.3947 73.7838 12.0816 21.456 73.7419 12.2559 19.5238 
73.69 12.4334 17.5993 73.629 12.614 15.6839 73.5592 12.7973 13.7787 
73.4812 12.9832 11.8849 73.3957 13.1713 10.0035 73.303 13.3615 8.13544 
73.2037 13.5534 6.28142 73.0983 13.7469 4.44209 72.9871 13.9417 2.61792 
72.8706 14.1375 0.809229 72.7491 14.3342 -0.983807 72.623 14.5315 -2.76115 
72.4927 14.7292 -4.52286 72.3585 14.9272 -6.26912 72.2206 15.1253 -8.00016 
72.0795 15.3232 -9.71628 71.9352 15.5208 -11.4178 71.7881 15.718 -13.1051 
71.6385 15.9144 -14.7785 71.4865 16.11 -16.4384 71.3323 16.3045 -18.0852 
71.176 16.4979 -19.7192 71.0179 16.6898 -21.3408 70.858 16.8801 -22.9505 
70.6964 17.0688 -24.5486 70.533 17.2555 -26.1357 70.3679 17.4401 -27.7123 
70.2009 17.6226 -29.279 70.0319 17.8026 -30.8367 69.8609 17.9802 -32.386 
69.6874 18.1553 -33.928 69.5114 18.3276 -35.4635 69.3326 18.4971 -36.9936 
69.1506 18.6637 -38.5195 68.9653 18.8274 -40.0421 68.7762 18.9882 -41.5626 
68.5832 19.1459 -43.0821 68.3861 19.3005 -44.6013 68.1847 19.452 -46.1213 
67.9789 19.6003 -47.6427 67.7686 19.7455 -49.1661 67.554 19.8875 -50.6918 
67.3352 20.0262 -52.2199 67.1124 20.1616 -53.7505 66.8859 20.2938 -55.2832 
66.6562 20.4226 -56.8177 66.4238 20.5481 -58.3533 66.1891 20.6703 -59.8893 
65.953 20.7891 -61.4249 65.716 20.9045 -62.9591 65.4789 21.0166 -64.4909 
65.2425 21.1253 -66.0193 65.0075 21.2307 -67.5434 64.7748 21.3329 -69.0621 
64.5449 21.4318 -70.5746 64.3188 21.5276 -72.0802 64.0969 21.6203 -73.5782 
63.8801 21.7099 -75.068 63.6686 21.7966 -76.5491 63.4632 21.8803 -78.0213 
63.2641 21.9613 -79.4843 63.0716 22.0394 -80.938 62.886 22.1148 -82.3823 
62.7074 22.1874 -83.8172 62.5359 22.2573 -85.2429 62.3715 22.3245 -86.6594 
62.214 22.3889 -88.0669 62.0633 22.4505 -89.4656 61.9192 22.5091 -90.8556 
61.7813 22.5647 -92.2371 61.6495 22.6172 -93.6103 61.5234 22.6664 -94.9753 
61.4025 22.7122 -96.3324 61.2865 22.7544 -97.6817 61.1751 22.793 -99.0233 
61.0678 22.8276 -100.357 60.9642 22.8582 -101.684 60.864 22.8846 -103.004 
60.7668 22.9066 -104.317 60.6724 22.9241 -105.623 60.5803 22.937 -106.923 
60.4902 22.9452 -108.216 60.402 22.9485 -109.503 60.3154 22.9469 -110.785 
60.2301 22.9402 -112.062 60.1459 22.9285 -113.333 60.0628 22.9117 -114.6 
59.9804 22.8898 -115.863 59.8987 22.8627 -117.122 59.8175 22.8306 -118.377 
59.7368 22.7934 -119.629 59.6564 22.7512 -120.879 59.5762 22.7042 -122.125 
59.4962 22.6523 -123.37 59.4165 22.5958 -124.612 59.3368 22.5347 -125.852 
59.2573 22.4693 -127.09 59.1779 22.3997 -128.326 59.0987 22.3261 -129.559 
59.0197 22.2487 -130.79 58.941 22.1677 -132.017 58.8627 22.0835 -133.242 
58.7848 21.9961 -134.463 58.7074 21.9058 -135.679 58.6306 21.813 -136.892 
58.5544 21.7177 -138.099 58.4791 21.6201 -139.301 58.4046 21.5206 -140.498 
58.3311 21.4192 -141.689 58.2584 21.3162 -142.875 58.1868 21.2115 -144.055 
58.1162 21.1055 -145.229 58.0466 20.998 -146.398 57.978 20.8892 -147.562 
57.9104 20.7791 -148.722 57.8436 20.6677 -149.879 57.7777 20.555 -151.033 
57.7126 20.441 -152.186 57.6482 20.3256 -153.337 57.5843 20.2088 -154.489 
57.521 20.0905 -155.643 57.4581 19.9707 -156.798 57.3956 19.8494 -157.957 
57.3335 19.7265 -159.121 57.2716 19.6021 -160.289 57.2101 19.4762 -161.464 
57.1488 19.3488 -162.645 57.0878 19.22 -163.833 57.0271 19.0899 -165.029 
56.9669 18.9587 -166.232 56.9072 18.8265 -167.442 56.8481 18.6936 -168.66 
56.7897 18.56 -169.885 56.7322 18.4261 -171.116 56.6756 18.292 -172.354 
56.6201 18.158 -173.597 56.5659 18.0244 -174.846 56.5131 17.8912 -176.098 
56.4617 17.7588 -177.355 56.4119 17.6273 -178.614 56.3637 17.4968 -179.876 
56.3172 17.3675 -181.141 56.2725 17.2395 -182.408 56.2295 17.1127 -183.677 
56.1882 16.9872 -184.948 56.1487 16.863 -186.221 56.1107 16.7399 -187.496 
56.0743 16.618 -188.774 56.0393 16.497 -190.055 56.0057 16.3769 -191.34 
55.9733 16.2575 -192.629 55.9419 16.1385 -193.923 55.9115 16.02 -195.222 
55.8818 15.9016 -196.527 55.8529 15.7833 -197.839 55.8245 15.6649 -199.156 
55.7965 15.5463 -200.48 55.7689 15.4273 -201.811 55.7416 15.3081 -203.147 
55.7144 15.1884 -204.488 55.6874 15.0684 -205.834 55.6606 14.948 -207.183 
55.6339 14.8273 -208.535 55.6074 14.7064 -209.887 55.5811 14.5853 -211.239 
55.5551 14.4644 -212.59 55.5294 14.3435 -213.936 55.5043 14.2231 -215.278 
55.4798 14.1031 -216.612 55.456 13.9838 -217.939 55.4331 13.8652 -219.256 
55.4114 13.7477 -220.563 55.3909 13.6313 -221.858 55.3718 13.516 -223.14 
55.3544 13.4021 -224.41 55.3388 13.2896 -225.667 55.3252 13.1785 -226.911 
55.3136 13.069 -228.142 55.3044 12.9609 -229.361 55.2975 12.8542 -230.567 
55.2931 12.7491 -231.763 55.2914 12.6453 -232.948 55.2922 12.5428 -234.123 
55.2958 12.4417 -235.289 55.302 12.3417 -236.447 55.3109 12.2429 -237.598 
55.3226 12.1452 -238.741 55.3368 12.0485 -239.878 55.3536 11.9527 -241.009 
55.3729 11.8579 -242.133 55.3946 11.7641 -243.251 55.4186 11.6712 -244.362 
55.4448 11.5792 -245.465 55.473 11.4882 -246.56 55.5032 11.3983 -247.645 
55.5352 11.3095 -248.72 55.5689 11.2218 -249.782 55.6041 11.1355 -250.832 
55.6408 11.0505 -251.867 55.6789 10.9669 -252.885 55.7181 10.885 -253.886 
55.7584 10.8047 -254.868 55.7996 10.7263 -255.83 55.8417 10.6496 -256.77 
55.8845 10.575 -257.687 55.9279 10.5023 -258.58 55.9718 10.4317 -259.448 
56.0161 10.3633 -260.291 56.0607 10.297 -261.107 56.1055 10.2328 -261.898 
56.1505 10.1709 -262.662 56.1954 10.1111 -263.4 56.2403 10.0534 -264.111 
56.2851 9.99776 -264.797 56.3297 9.94418 -265.458 56.3741 9.89256 -266.094 
56.4181 9.84283 -266.706 56.4618 9.79493 -267.295 56.5052 9.74877 -267.862 
56.5482 9.70427 -268.409 56.5908 9.66136 -268.936 56.6331 9.61997 -269.445 
56.675 9.58002 -269.936 56.7166 9.54144 -270.412 56.758 9.5042 -270.872 
56.7991 9.46823 -271.319 56.8401 9.43348 -271.753 56.881 9.39994 -272.176 
56.9218 9.36756 -272.589 56.9627 9.33632 -272.992 57.0038 9.3062 -273.387 
57.0451 9.27717 -273.775 57.0867 9.24921 -274.157 57.1286 9.22229 -274.532 
57.1709 9.19639 -274.903 57.2137 9.17148 -275.269 57.257 9.14749 -275.632 
57.3007 9.12439 -275.992 57.345 9.10211 -276.349 57.3898 9.08056 -276.705 
57.435 9.05968 -277.058 57.4807 9.03935 -277.411 57.5266 9.01948 -277.762 
57.5729 8.99995 -278.113 57.6193 8.98063 -278.463 
LINES 1 381
380 379 378 377 376 375 374 373 372 371 370 369 368 367 366 365 364 363 362 361 360 359 358 357 356 355 354 353 352 351 350 349 348 347 346 345 344 343 342 341 340 339 338 337 336 335 334 333 332 331 330 329 328 327 326 325 324 323 322 321 320 319 318 317 316 315 314 313 312 311 310 309 308 307 306 305 304 303 302 301 300 299 298 297 296 295 294 293 292 291 290 289 288 287 286 285 284 283 282 281 280 279 278 277 276 275 274 273 272 271 270 269 268 267 266 265 264 263 262 261 260 259 258 257 256 255 254 253 252 251 250 249 248 247 246 245 244 243 242 241 240 239 238 237 236 235 234 233 232 231 230 229 228 227 226 225 224 223 222 221 220 219 218 217 216 215 214 213 212 211 210 209 208 207 206 205 204 203 202 201 200 199 198 197 196 195 194 193 192 191 190 189 188 187 186 185 184 183 182 181 180 179 178 177 176 175 174 173 172 171 170 169 168 167 166 165 164 163 162 161 160 159 158 157 156 155 154 153 152 151 150 149 148 147 146 145 144 143 142 141 140 139 138 137 136 135 134 133 132 131 130 129 128 127 126 125 124 123 122 121 120 119 118 117 116 115 114 113 112 111 110 109 108 107 106 105 104 103 102 101 100 99 98 97 96 95 94 93 92 91 90 89 88 87 86 85 84 83 82 81 80 79 78 77 76 75 74 73 72 71 70 69 68 67 66 65 64 63 62 61 60 59 58 57 56 55 54 53 52 51 50 49 48 47 46 45 44 43 42 41 40 39 38 37 36 35 34 33 32 31 30 29 28 27 26 25 24 23 22 21 20 19 18 17 16 15 14 13 12 11 10 9 8 7 6 5 4 3 2 1 0 

CELL_DATA 1
FIELD FieldData 2
LengthArray 1 1 double
556.36217561 
TortuosityArray 1 1 double
0.040479468456 
POINT_DATA 380
FIELD FieldData 8
RadiusArray 1 380 double
53.952999213 55.391720018 57.755411488 59.510502912 62.058572713 62.15593716 64.437290736 66.22870231 66.308208798 
66.345488366 66.36397534 66.363724026 66.357140389 66.332843503 66.301025287 66.2955223 66.184517182 66.073639184 
65.82223323 65.724139025 65.643536624 65.384959266 65.149720708 65.148703662 65.137342794 64.99187431 64.849672596 
64.806582443 64.718238423 64.562809918 64.550423024 64.420284668 64.053332096 63.467612768 63.384865904 63.357301943 
62.7226924 62.678135073 62.334469664 62.301722706 62.145805651 61.883419113 61.509899459 60.670775927 60.59219966 
59.673957727 59.186410889 58.865668029 58.77255078 58.466112842 58.077996761 57.150161755 57.126438061 57.01157466 
55.948074227 55.722314928 55.631922498 55.249024747 54.849485052 54.588302108 54.443774142 54.029331504 53.928460685 
53.374984309 53.316372011 53.226723041 52.601318258 52.54656068 52.173655913 51.876725143 51.61300488 51.107149402 
50.087797416 49.870620997 49.449151999 49.337767395 49.061465708 48.552891993 48.255270602 48.178635309 48.175939858 
47.823250313 47.600189919 47.558089931 47.182273027 47.105223494 46.891827664 46.83258658 46.754953366 46.500434494 
46.148175609 46.024542483 45.873898017 45.806857049 45.434037757 45.210951123 45.105493701 45.033714254 44.91268858 
44.696156087 44.524017537 44.091538746 43.953104621 43.927840748 43.566331377 43.241086746 42.977269053 42.63775344 
42.607038036 42.354755239 42.261825067 41.8349772 41.650642041 41.633996903 41.188155156 40.999925863 40.937560964 
40.399761936 40.39639516 40.384567786 40.029079618 39.960838414 39.529597877 39.45167074 39.300607041 39.107537349 
39.000691603 38.956779333 38.736681219 38.452616923 37.976417961 37.897508861 37.623586844 37.372537653 37.132425521 
36.992802539 36.733788195 36.706124738 36.475093044 36.32572576 36.206059657 36.05688457 36.055761956 35.93991474 
35.87699248 35.838953448 35.765974019 35.764404464 35.740381514 35.364432634 35.343147115 35.282446722 35.111437825 
35.084795184 35.078527831 34.983751352 34.878196999 34.834763713 34.802618974 34.702813669 34.752482231 34.75017144 
34.727822634 34.738931966 34.751272465 34.760478973 34.766566983 34.780683456 34.780647796 34.775494949 34.777401638 
34.744090184 34.749805183 34.801921339 34.774253752 34.7144874 34.839574065 34.87305353 34.916654595 34.959278871 
35.041862728 35.056579737 35.05731874 35.079560649 35.108266307 35.198084196 35.198564319 35.366980898 35.377636342 
35.429442248 35.430182415 35.476662262 35.493890377 35.503422626 35.586156856 35.66858107 35.687662262 35.74216338 
35.761458999 35.771679163 35.789802606 35.799083702 35.837942403 35.845664619 35.906365444 35.948671422 35.956174547 
35.938139904 35.972761134 35.971530337 35.960703578 35.969914632 35.972666296 35.95590004 35.957758047 35.940918899 
35.915114587 35.895692041 35.873155407 35.872136725 35.824320236 35.780958777 35.734978274 35.73427991 35.631854389 
35.597312971 35.588562218 35.462215866 35.457773236 35.412307897 35.316477017 35.29777117 35.188088769 34.984927413 
34.968489412 34.921090733 34.918830692 34.628397991 34.617414215 34.605115563 34.368723023 34.215680981 34.152201784 
34.067655999 33.957610386 33.871851274 33.756343218 33.680828116 33.67348957 33.524777035 33.484472679 33.254483012 
33.199135813 33.009380828 32.894596897 32.86689927 32.642909406 32.582562997 32.555269624 32.346835739 32.292978038 
32.200862453 31.96428793 31.774868969 31.713411989 31.509073084 31.078716132 31.035302908 31.01929442 30.768752609 
30.506382478 30.447143354 29.962162664 29.387924308 29.32204053 29.256545331 29.255124433 28.960917523 28.801133696 
28.46968624 28.424183943 28.294789958 27.958727296 27.941268565 27.728986216 27.511265532 27.386989759 27.06844253 
26.954924291 26.599639579 26.576453158 26.511480008 26.080715933 26.015977942 25.512819962 25.111153461 25.098852885 
24.575409769 24.52303245 23.891872456 23.842904314 23.123000755 22.906993675 22.3534795 22.266319183 22.17350927 
21.802805605 21.76237653 21.297296863 20.893971565 20.868472614 20.798160497 20.593089846 20.149387152 20.086089391 
20.031829563 20.016389023 20.006591541 19.425877575 19.234074219 18.869719018 18.761395794 18.226215623 18.121809659 
18.069006394 17.691792576 17.41553235 17.104978062 16.614920108 16.417514822 16.277235978 15.859973207 15.41882878 
15.190652439 15.116152833 14.589927087 14.215040724 14.198993238 13.5546748 12.95742832 12.942943008 12.783729888 
12.53927851 11.979795695 11.885842658 11.783189147 11.594373142 11.471061002 11.179074489 10.833977 10.657683602 
10.495278914 10.248580155 9.9380938559 9.8521733238 9.7630032591 9.7604036343 9.2648698549 8.9462163349 8.8946942953 
8.4005874047 8.3984473302 8.3114176351 8.1573669853 8.1564348211 8.1451016664 7.5837074318 7.3886942681 7.2983574269 
6.9489747861 6.7418747108 6.5429160502 6.3255287781 5.944802184 5.4970416534 5.2028382267 5.2022818054 5.1332855671 
4.5580601926 4.1156739768 
EdgeArray 2 380 int
50443 50443 48718 42933 46653 36860 45377 36853 44818 
44818 41482 43545 41616 41616 45877 45877 36233 36411 
36233 36022 36027 36026 35865 35865 35864 35861 35553 
35293 35293 35384 35384 35383 34987 34987 34331 34331 
34482 34482 32419 32419 33415 33415 34058 34058 33833 
33832 33834 33833 33834 33834 33821 33822 33568 32637 
33567 33566 32315 33541 33543 33548 33545 33547 33545 
33546 33539 33544 33158 31510 31648 32820 32820 32751 
32703 32703 32519 31780 32752 32136 32752 33283 33283 
33283 32755 32755 32758 32758 30535 31219 30466 31219 
28935 28935 30889 30137 30900 31214 30554 28888 30888 
30888 30470 30470 29644 29644 16191 30139 30551 30551 
28531 28531 29982 30035 30034 30034 29467 29467 27652 
28739 29141 29845 29845 28134 28134 28134 29979 29770 
29460 29462 29460 29461 24512 29461 29144 29144 29145 
28299 29297 29297 26012 26012 29153 29153 28382 28382 
28482 28482 28383 28383 28378 28378 26572 26572 14811 
14811 26214 26214 27690 27326 27692 27690 27692 27693 
26481 26481 27335 27334 27333 27334 27330 27330 26231 
25349 27367 27097 27097 27095 27099 27094 26967 26967 
21282 21282 26443 26587 24863 26443 24863 26088 24751 
25861 24221 24221 25367 17020 25361 17020 20474 25361 
23971 23971 19864 25792 19555 19555 23187 14603 14603 
24551 25192 25192 25964 25964 25968 25968 25005 25005 
25405 23189 25206 25404 24087 25404 23852 25084 23215 
24220 25390 24220 20533 20533 23228 15735 20548 20548 
24212 25219 24212 25039 14586 23640 24402 24402 21098 
24052 23647 23647 23061 23061 21175 22804 22787 23410 
22787 23407 24006 23407 23964 23964 23119 23119 22636 
23801 22566 22636 21983 20303 22018 22018 21576 21576 
21173 21173 22029 21088 21022 22007 19907 18186 21163 
20883 22002 22001 21322 22001 21322 22009 21308 21218 
22019 22020 22019 21061 21061 20430 20408 20430 17639 
21612 13589 21313 21058 10517 19296 19296 13483 13483 
20759 20759 19060 19060 20193 20193 19787 19787 20241 
15391 10685 10685 18992 18992 20039 20039 20022 20022 
19868 19896 19896 18193 18062 19246 19481 19677 19657 
18655 18390 18655 19343 18390 18051 19343 19652 19069 
18711 17659 18711 19376 19173 17698 18697 18722 17944 
18901 17097 18670 17097 18590 18590 18590 18675 18675 
18899 18899 17625 16946 16208 16208 17977 17977 17957 
17978 17950 17957 17774 17950 16287 17777 17777 15958 
16843 16846 17234 16846 17251 16861 17252 17252 17249 
17248 16674 16674 16653 16653 16660 16660 16340 16340 
16375 16375 16378 16514 11013 16373 16373 16354 16353 
16354 16006 16006 15706 15706 15984 15982 15982 15707 
15424 15975 15699 15699 15515 15700 15972 15972 15691 
16043 15816 15816 15820 15820 14015 15279 14412 14412 
14904 14904 15130 15130 15132 15129 14668 15129 14664 
14664 14651 14651 14480 14480 13387 13387 13386 13386 
13865 13865 13606 13868 13890 13890 13889 13889 13886 
13886 12638 12638 12611 12611 12227 12227 12602 12602 
12601 12601 12604 12604 11633 11633 11845 11845 12079 
12079 12076 12076 11868 11868 11744 11744 11597 11598 
11090 10309 11208 11208 11212 11212 10939 10939 10722 
10722 10723 9760 9832 10523 10520 10523 10522 10522 
10389 9620 10292 10292 10289 10289 10290 10290 9520 
9520 9757 9757 10132 10132 9624 9624 9623 9623 
9483 9483 9478 9478 8864 9042 8991 9556 9169 
9169 8814 8814 8961 8962 8961 8964 8509 8964 
8206 8206 7222 8693 8215 8215 8217 8217 7109 
7961 8176 8177 8176 8178 8179 8179 7998 7998 
7794 7689 7762 7650 7761 7761 7586 7586 7445 
7445 7518 7518 6894 6894 7288 7286 5922 5922 
7118 7008 6669 6669 7116 7123 6771 7121 6693 
6693 6796 6931 6565 6792 4954 4954 6584 6584 
5451 5451 5944 6395 5627 5627 4573 4573 5084 
5084 5374 5374 5621 5895 5452 5650 5452 4377 
5082 4377 5657 5658 5659 5659 5647 5646 5647 
5144 5144 5280 5643 5069 5072 5072 5672 5673 
5674 5673 5674 4210 4210 4882 4193 4193 4197 
5293 4066 4066 4466 4465 4756 4656 4655 4655 
4677 4677 4675 4675 4680 4680 4683 4871 4679 
4679 4276 3949 4512 4024 4278 4278 4867 4867 
4869 4869 4873 3842 3287 3287 4837 4837 4443 
3944 4394 4394 4030 4030 4399 4419 4053 4053 
2473 2473 3800 4224 4035 4224 4222 4034 4013 
4013 3935 3935 3703 3591 2707 3700 3593 3700 
3585 3805 3499 3499 2929 3374 2696 3374 2696 
3377 3377 3377 2637 2637 2893 2893 2486 2486 
2723 2723 1987 2723 1987 1987 2067 2067 2245 
2067 2245 2245 2449 2449 2249 2467 1197 2030 
2061 2362 1830 2376 1961 2264 2050 1809 1973 
1973 1064 1064 1314 1314 1757 1314 1757 1757 
1905 1905 1755 1755 
EdgePCoordArray 1 380 double
0 0.864 0.716 0.424 0 0.984 0 0 0.16 
0.124 0.876 0 0.012 0.188 0.86 0.248 0 0 
0 0 0 0 0.012 0.956 0 0.048 0.14 
0.328 0.572 0.964 0.904 0.464 0.376 0.116 0.968 0.052 
0 0.384 0.056 0.22 0 0 0 0.944 0.732 
0 0.484 0.34 0.528 0 0 0 0.208 0 
0 0.212 0 0 0.372 0.864 0.28 0 0.92 
0.196 0.452 0.94 0 0.108 0 0 0 0 
0 0 0 0 0 0 0.104 0.048 0.012 
0 0.88 0.8 0 0.164 0.844 0.14 0.256 0 
0 0.172 0.336 0.112 0.5 0 0.496 0.584 0.412 
0 0.012 0 0.024 0.968 0 0 0 0 
0.952 0.676 0.808 0.548 0.956 0.972 0 0.86 0 
0.008 0.024 0.06 0 0.64 0 0 0.208 0.66 
0.628 0.8 0 0 0.26 0.836 0.172 0 0 
0 0.052 0.752 0.536 0.416 0.444 0.384 0.372 0.652 
0.092 0.464 0.98 0.736 0.656 0.848 0.728 0 0 
0 0 0 0 0.088 0 0 0 0 
0.32 0.772 0.184 0.696 0.608 0.016 0.964 0.38 0.824 
0.1 0.144 0.756 0.252 0.332 0.124 0.376 0 0 
0 0.84 0 0 0.792 0.004 0.996 0.896 0.332 
0.92 0.9 0.256 0 0.028 0 0 0 0 
0 0.888 0.484 0.484 0.124 0 0 0.86 0.116 
0.892 0 0.984 0 0.576 0 0 0.924 0 
0 0 0.56 0.628 0 0 0 0 0 
0 0.964 0 0 0 0 0 0 0 
0 0 0 0 0 0 0 0 0.532 
0.084 0 0 0 0 0.308 0.796 0.732 0 
0.352 0 0 0 0 0 0 0 0 
0 0 0.184 0.556 0 0 0.252 0.048 0.064 
0 0.004 0 0 0.652 0.012 0.016 0 0 
0.844 0.82 0 0 0 0 0 0.188 0 
0.14 0 0.056 0.108 0 0.696 0.952 0 0 
0 0.452 0 0 0 0 0.2 0.116 0.212 
0.884 0.116 0 0.072 0.3 0.136 0.372 0 0.744 
0.132 0.652 0.008 0 0.676 0 0.12 0.928 0 
0 0 0 0.26 0 0.732 0.18 0 0 
0 0.024 0 0 0.012 0 0 0.06 0 
0 0.864 0.856 0.324 0 0 0.864 0.712 0.484 
0.244 0 0.068 0.256 0.964 0 0 0 0 
0 0.976 0 0 0.924 0 0 0.016 0.936 
0.804 0.272 0.384 0.428 0 0 0 0.992 0 
0 0 
CurvatureArray 1 380 double
0 0.00023885131689 0.00096036974502 0.0016914286863 0.0024365218265 0.0031913209714 0.00396176189 0.0047369023648 0.0055132543842 
0.0062829408577 0.0070315605274 0.0077421818379 0.0083978840702 0.0089723543001 0.0094502264512 0.0098072810034 0.010030507726 0.010103233801 
0.010023759016 0.0098009586267 0.0094476038986 0.0089829670731 0.0084262354106 0.0078247982629 0.0071988910422 0.0065751344655 0.00599354286 
0.0054638080601 0.0050067431134 0.0046258420162 0.0043238751748 0.004090086263 0.0039133569185 0.0037793066202 0.0036728773461 0.003587187467 
0.0035014160704 0.0034207361377 0.0033319845343 0.0032405372655 0.0031375386266 0.003029016603 0.0029145501681 0.0027961457253 0.0026768430781 
0.0025554071754 0.0024373008112 0.00232393092 0.0022166014325 0.0021178948873 0.0020277421971 0.001948519478 0.0018806586077 0.0018228576736 
0.0017774956098 0.0017419765889 0.0017182520345 0.0017021842918 0.0016958523174 0.0016980251492 0.0017043221043 0.0017160995618 0.0017311661556 
0.0017489386401 0.001765359621 0.0017811196896 0.001794786775 0.0018067426371 0.0018164929383 0.0018220662038 0.0018233016101 0.001829577904 
0.0018303735161 0.0018324127492 0.0018366177516 0.0018491714786 0.0018648374458 0.0018865050105 0.0019161556846 0.001959703739 0.0020120368926 
0.0020724248959 0.0021517802524 0.0022369745726 0.002334378824 0.0024434249304 0.0025587980567 0.0026819299266 0.0028123232949 0.0029411740969 
0.003071785158 0.0032035492363 0.0033284115797 0.0034467859854 0.0035654493206 0.0036661942939 0.0037646682309 0.0038581110129 0.0039355778217 
0.0040087266938 0.0040738058586 0.0041310210104 0.0041855952328 0.0042303435882 0.0042735427639 0.004314226588 0.0043530609169 0.0043855567211 
0.0044161683844 0.0044465299943 0.0044774774675 0.0045011650421 0.004521728174 0.0045374121755 0.0045504741594 0.0045533833749 0.0045479820194 
0.004536436969 0.0045095824019 0.004475096254 0.004424670038 0.0043630481316 0.0042900258479 0.0041996538951 0.0041029941981 0.0039984440943 
0.0038781884269 0.0037579434155 0.0036299664118 0.0034988245879 0.0033696275492 0.0032370840065 0.003114055195 0.0029885713479 0.002869862111 
0.0027567525211 0.0026522738865 0.0025495973068 0.0024533391994 0.0023661135436 0.0022770889509 0.0021970867533 0.0021149970992 0.0020404934218 
0.001962370567 0.0018869778295 0.0018117056561 0.0017348213518 0.0016543615562 0.0015774505 0.001500478286 0.0014271089261 0.001350325092 
0.0012817970754 0.0012253309443 0.0011719456476 0.0011308507517 0.0011090046626 0.0011075798116 0.0011217433585 0.0011532102364 0.0012130927343 
0.0012829612029 0.0013718595247 0.0014763584163 0.0015847149603 0.0016999754626 0.0018132111171 0.0019248146267 0.0020232233315 0.0021087186048 
0.0021779986229 0.0022237718851 0.0022445943922 0.002243690132 0.0022153870677 0.0021643878342 0.0020918063536 0.0019957389401 0.0018876446173 
0.0017663058833 0.0016431400848 0.0015172290283 0.001410447809 0.0013262756736 0.0012803597976 0.0012864141574 0.0013430789574 0.0014497449657 
0.0015904384306 0.0017651557421 0.001948569915 0.0021430543094 0.0023300181697 0.0025079464464 0.0026708512515 0.0028160404012 0.0029325811091 
0.0030270697931 0.0030931663222 0.0031288760506 0.0031428141382 0.0031307495176 0.0031016580487 0.0030587582567 0.0030027646484 0.0029478479309 
0.0028937306992 0.0028472948585 0.002815476252 0.002797815861 0.0027979900034 0.002815238202 0.0028474111771 0.0028915290042 0.0029447306071 
0.0030023303887 0.0030622402693 0.0031176159247 0.0031691613658 0.0032091283939 0.0032413238891 0.0032578168207 0.003262887218 0.0032531245262 
0.0032279355639 0.0031861537848 0.0031323442452 0.0030630317359 0.0029843212639 0.0028923980942 0.0027902951583 0.0026849907868 0.0025713544173 
0.0024560127923 0.0023401700058 0.0022242405069 0.002112831518 0.0020064541314 0.0019047327359 0.0018119757773 0.0017274060996 0.0016495693719 
0.0015825171589 0.0015234870719 0.0014714646289 0.0014246208458 0.0013768527798 0.0013414872343 0.0012979211259 0.0012613720608 0.0012188898962 
0.0011764239165 0.0011283278767 0.0010773277354 0.0010242979519 0.00096065437219 0.00089942881303 0.00082941343294 0.00076411432498 0.00069829216181 
0.00064124648557 0.00060544105591 0.00058941911063 0.00059953253763 0.00064254522102 0.00070943386327 0.00078914825317 0.00088367112605 0.0009732999381 
0.0010689763749 0.0011585929981 0.0012375886263 0.001306444541 0.0013630022482 0.0014022683354 0.0014253924633 0.0014337332302 0.0014209566857 
0.0013934681991 0.0013438834909 0.0012817703652 0.001204084743 0.0011155528425 0.0010148841667 0.00090636993349 0.00079969241347 0.00068889547961 
0.00058254796381 0.00048168805009 0.00038783169927 0.00030646877998 0.0002349519415 0.00017713860359 0.00013777952359 0.00011993021355 0.00011487086606 
0.00012329527489 0.00013529472053 0.00015746317056 0.00018806845142 0.00022638021542 0.00027995096377 0.00034703556046 0.00042968499191 0.00052255999141 
0.00063564369288 0.00075387633234 0.0008842362579 0.0010202940341 0.0011652194035 0.0013114975071 0.0014499311837 0.0015854617597 0.0017106201257 
0.0018211983616 0.0019135902308 0.0019902789147 0.0020464248581 0.0020787565824 0.0020959064321 0.0020931201731 0.0020713125747 0.0020498172897 
0.0020067600829 0.0019703838619 0.0019246776481 0.0018858770881 0.001845613682 0.0018179678237 0.0017977327427 0.0017863431669 0.001789787469 
0.0017927650556 0.0018247257253 0.0018524561535 0.0019038158481 0.0019660385713 0.0020381238051 0.0021212587023 0.0022064323025 0.0023199483469 
0.0024316911084 0.0025551738019 0.0026720023404 0.0028265912484 0.0029441122527 0.0031063431339 0.0032401838782 0.0033713571265 0.0035311723232 
0.0036604828863 0.0038129870063 0.0039394058643 0.0040676989535 0.0042142333137 0.0043731252861 0.0045226150121 0.0047358814392 0.0049630713087 
0.0052183702319 0.0055636503393 0.0059104103401 0.0063387534495 0.0067810451685 0.0072081751578 0.0076357820235 0.007983495516 0.0082788238022 
0.0084274228459 0.0084346608775 0.0083240993225 0.0079886531212 0.0074741649711 0.0067701439209 0.0058573973879 0.0048480518098 0.0036267882454 
0.00235729767 0 
TorsionArray 1 380 double
0 0 -9.0305471288e-05 -0.00041966407464 -0.00052933397641 -0.00088410702758 -0.0011455024464 -0.0013324053434 -0.0016816768035 
-0.0020596739227 -0.0024314237332 -0.0029056153095 -0.0033937162109 -0.0040063695279 -0.0047683637675 -0.0056727828983 -0.0067190188722 -0.0079295942924 
-0.0095152034555 -0.011503383951 -0.013877125448 -0.016573587385 -0.019983871659 -0.024090914908 -0.028474860953 -0.033458620739 -0.038579094684 
-0.043213640855 -0.046830060617 -0.048759584481 -0.048517058846 -0.046142479969 -0.042054176437 -0.036946854336 -0.031427753067 -0.026300731062 
-0.021810714021 -0.017890308995 -0.01481939406 -0.012425919332 -0.010759145223 -0.0094261022895 -0.0085461833151 -0.0078831492044 -0.007561145856 
-0.007433283668 -0.0071299666068 -0.0068666468648 -0.0063811557846 -0.0057557626782 -0.0048518904393 -0.0034220353326 -0.0018659326461 0.00023269261076 
0.0024982247749 0.0050343859255 0.0075605140076 0.0099806296566 0.012641807216 0.014529202409 0.016086479332 0.017635547164 0.018862257391 
0.019553693416 0.020014312334 0.020491850044 0.020939992819 0.021404539405 0.021668358359 0.021929878517 0.022766086127 0.023250642811 
0.023773284679 0.024493095513 0.025271367201 0.02594060706 0.026242420446 0.026426804477 0.026406991958 0.02578934716 0.024878945467 
0.023405874042 0.021536327438 0.019451234643 0.016916577653 0.014325976586 0.011636362624 0.0089512294774 0.0065495384492 0.0044294709923 
0.002335313527 0.00065926365139 -0.00051958875476 -0.0015934159132 -0.0022653670724 -0.0026825114455 -0.00305790307 -0.0030329360148 -0.0028519589606 
-0.0026362933939 -0.0023578395967 -0.0020188723534 -0.0015694480213 -0.0011113507487 -0.00074747594651 -0.00038389844655 6.8758139318e-05 0.00046261059823 
0.00081221110536 0.001100542295 0.0013841279297 0.0017048229367 0.0019950728764 0.0021707468356 0.0023949575427 0.0026637721865 0.0028236047669 
0.0030408218003 0.0031854421711 0.0033945527426 0.0036344139862 0.003742451044 0.0040147814763 0.004207589369 0.004269290569 0.004554233177 
0.0047411257286 0.0047885712505 0.0050340258483 0.0051060982931 0.0051615266725 0.0051515744642 0.0050107999578 0.0050237203236 0.0047587314755 
0.0042859243428 0.0038901901943 0.0034991998353 0.002618540587 0.0019005645392 0.0010931938598 5.1061749775e-05 -0.0010836679417 -0.0023852229326 
-0.0035633412514 -0.0051847550374 -0.0068236674213 -0.008274576406 -0.010414554219 -0.013200656019 -0.016079545581 -0.01918244557 -0.023071897631 
-0.028135382843 -0.033121988579 -0.038083242405 -0.043213401308 -0.046790805827 -0.048879604133 -0.048711522612 -0.04505866818 -0.040257829774 
-0.034857448207 -0.028450238546 -0.022697067969 -0.01782732948 -0.014405156391 -0.011085129813 -0.009190539524 -0.0080303671278 -0.0074371123749 
-0.008124755699 -0.0092162416102 -0.010373516954 -0.01248039503 -0.015823034506 -0.018910362332 -0.024020153759 -0.030611195213 -0.038141275107 
-0.047982919501 -0.061331885028 -0.077884063394 -0.094630178758 -0.11363464119 -0.12751631677 -0.13046541573 -0.12218594957 -0.10437325085 
-0.086570034637 -0.068836281973 -0.053778574239 -0.041949004031 -0.031659735049 -0.023527032719 -0.017025870587 -0.010572175959 -0.0051333382757 
-0.00015407150252 0.0052587113808 0.01022495472 0.015302217639 0.020870991622 0.026562882285 0.032405519288 0.038054269574 0.043928094898 
0.049291360251 0.052969397266 0.056237298773 0.057818011207 0.057301423446 0.055353833806 0.052280379496 0.048392959477 0.043554188641 
0.038815315275 0.03441921784 0.030008802119 0.025597041051 0.022460187903 0.019327544506 0.016584379995 0.014195074681 0.011690569571 
0.010160740433 0.0082347450972 0.0057167439279 0.0038016834184 0.0015967966606 -0.0004958240552 -0.0021460257627 -0.0045628411405 -0.0075730383726 
-0.011049403598 -0.013945582756 -0.016955269236 -0.019110243798 -0.022660920849 -0.02627531398 -0.02738548013 -0.028114173641 -0.028599651652 
-0.028671139063 -0.025896849648 -0.024539643132 -0.020165183656 -0.014927698317 -0.012035021052 -0.0070359735834 -0.0039930651474 -0.0033876379655 
-0.00039596054965 -0.0002789099389 -0.006415019303 -0.010479234983 -0.018566396578 -0.031296400417 -0.046875657275 -0.068635282803 -0.09186147735 
-0.12631722817 -0.15560798714 -0.16649770699 -0.16461543064 -0.14406752534 -0.11631194555 -0.090423455869 -0.067939987678 -0.051955700438 
-0.038868438352 -0.030829623967 -0.022994020373 -0.017326012264 -0.014470895795 -0.010883627917 -0.0078763537809 -0.0060782857021 -0.0035761310077 
-0.0024833921218 -0.001819126543 0.00056114445291 0.001121108825 0.0035522513966 0.0053138991661 0.0063692992402 0.0094207415023 0.013366923701 
0.019640305589 0.025647331135 0.037924071034 0.056222031671 0.087631493972 0.13132850538 0.18190391431 0.18877722851 0.14060848744 
0.059440136474 -0.012585551724 -0.069998130486 -0.082505370913 -0.083712778604 -0.077600133292 -0.061638308361 -0.049117669416 -0.038997714638 
-0.029943263706 -0.023081275687 -0.018075179599 -0.013669652882 -0.0095538807162 -0.0077233598228 -0.0058617856964 -0.0034404636369 -0.0023185457205 
-0.00073013784221 0.00047086500333 0.0010259687765 0.0022087163512 0.0031717032475 0.0040348792176 0.0047593889919 0.0053374094667 0.0057264058235 
0.0064367088189 0.0072105326093 0.0077852763152 0.0075079782172 0.0076946295859 0.0084480683212 0.0074586588325 0.0071416502814 0.0072817665229 
0.0070228241651 0.0067272793825 0.0053456919041 0.0055600704921 0.0059325259745 0.0052434551265 0.0053182727648 0.0066169026835 0.0056518507676 
0.006307940846 0.0076642462033 0.010090776067 0.0093319254039 0.0094673910674 0.011551756098 0.0074716325343 0.007750604477 0.005398994574 
0.0009999567106 -0.003555751755 -0.016125848885 -0.03085051973 -0.04198864593 -0.062692182198 -0.084990457398 -0.096882642558 -0.11562196679 
-0.13337217434 -0.14349790654 -0.13521475401 -0.12779063835 -0.1264191231 -0.1098872402 -0.097034809421 -0.084425467845 -0.069397833564 
-0.062575936465 -0.043577982752 -0.038435883761 -0.03827075578 -0.020131476463 -0.026660553635 -0.019302985434 -0.0073016956677 -0.017571486964 
0 0 
TangentArray 3 380 double
-0.74866183574 -0.0033625728758 0.66294354873 -0.74866183574 -0.0033625728758 0.66294354873 -0.74788130103 -0.0040769024963 0.66381995935 
-0.74615518261 -0.00565126402 0.66574808049 -0.74346705186 -0.008086244579 0.66872367645 -0.73979975149 -0.011375576546 0.6727309447 
-0.73513340491 -0.015504842731 0.67774514151 -0.72944997002 -0.020449632978 0.68372842105 -0.72274035009 -0.026173701999 0.69062386556 
-0.71500008829 -0.032626981809 0.69836262343 -0.70623711895 -0.039743364834 0.70685896526 -0.69647826307 -0.04743958475 0.71600804106 
-0.68577006287 -0.055614131081 0.72569035359 -0.67418620282 -0.064147802068 0.73577036052 -0.66182645778 -0.072905371 0.74610357636 
-0.64881573426 -0.08173839359 0.75654278002 -0.63530440421 -0.090490081127 0.76694188776 -0.62146502068 -0.09900137864 0.77716147299 
-0.60748685256 -0.10711793002 0.78707399464 -0.59355830459 -0.11469554945 0.79657609178 -0.57985884311 -0.12160631204 0.80559023513 
-0.56655400283 -0.12774416974 0.81406264438 -0.5537930221 -0.13302989488 0.82195884066 -0.5416867534 -0.13740940123 0.82927324667 
-0.53030727849 -0.14085372358 0.83602297752 -0.5197044989 -0.14336186192 0.84223192196 -0.50988792863 -0.14495279534 0.84794043857 
-0.50083756433 -0.14566335612 0.85319629678 -0.49251508061 -0.14554677875 0.85804721931 -0.48486354516 -0.14466677001 0.8625420965 
-0.47781570881 -0.14309438893 0.8667272606 -0.47129966739 -0.14090511752 0.87064480207 -0.46524571809 -0.13817661055 0.8743303987 
-0.4595878874 -0.1349859011 0.877814206 -0.45426830776 -0.13140846612 0.88111981001 -0.44923408829 -0.12751560523 0.8842672132 
-0.4444479996 -0.12337533907 0.88726799861 -0.43988151143 -0.11905048173 0.8901298999 -0.43551233884 -0.11459809876 0.89285848738 
-0.43132684646 -0.11006914073 0.8954562724 -0.42731815959 -0.10550899046 0.89792374031 -0.42348611923 -0.10095774443 0.90025942964 
-0.41982964525 -0.096448219948 0.90246374433 -0.41635026661 -0.092007826903 0.90453690654 -0.41304796435 -0.087658033154 0.90648080419 
-0.40992436056 -0.083415821909 0.90829720867 -0.40697944677 -0.079293031049 0.90998920056 -0.40420728231 -0.075296544642 0.91156289048 
-0.40160034044 -0.071429631593 0.91302517725 -0.39914681344 -0.067692446206 0.91438479539 -0.39683262542 -0.064082178235 0.9156513211 
-0.39464054083 -0.060593894678 0.91683543968 -0.39254883333 -0.057221012944 0.91794943713 -0.39053629774 -0.053956450622 0.91900495188 
-0.38857853368 -0.050793172711 0.92001455248 -0.38665128759 -0.047723773698 0.92099034915 -0.38472990624 -0.044741967146 0.92194417164 
-0.38279170776 -0.041843100597 0.92288659293 -0.38081639982 -0.03902424559 0.92382681163 -0.37878218314 -0.036283782989 0.92477432103 
-0.37667495471 -0.033622367775 0.92573512134 -0.37448451566 -0.0310425827 0.92671338913 -0.37220141575 -0.028548748392 0.92771281929 
-0.36981995643 -0.026146611966 0.92873545992 -0.36734043473 -0.023843000706 0.92978089695 -0.36476723007 -0.021645682488 0.93084710468 
-0.36210577462 -0.019562661511 0.93193170901 -0.35936315668 -0.017601892261 0.93303177599 -0.35654722601 -0.015770884094 0.93414418311 
-0.35366909936 -0.014076404207 0.93526468072 -0.35074233928 -0.012524979251 0.93638824017 -0.34777231024 -0.011121469931 0.93751305758 
-0.34476638345 -0.009868959741 0.93863664135 -0.34173578299 -0.0087710102517 0.93975514045 -0.33868521298 -0.0078293579669 0.94086716792 
-0.33561381209 -0.0070442112436 0.9419733267 -0.33252006223 -0.0064158631968 0.9430743581 -0.32940498802 -0.0059433378208 0.94417002209 
-0.32626551239 -0.0056250602247 0.94526143163 -0.32309193822 -0.0054589728468 0.94635183683 -0.31987369305 -0.0054418099521 0.94744456682 
-0.31660444702 -0.005570294769 0.94854129902 -0.31326884396 -0.005839659305 0.94964652886 -0.30985207352 -0.006244831141 0.95076426869 
-0.30634328132 -0.0067799607671 0.95189696192 -0.30272523693 -0.0074378584779 0.95304884932 -0.29898336695 -0.008210785579 0.95422299767 
-0.29510397345 -0.0090895284642 0.95542190959 -0.29107059023 -0.010064573593 0.95664863762 -0.28687191641 -0.011125770685 0.95790433802 
-0.2824991126 -0.012262834027 0.95918917544 -0.27793959012 -0.013464988991 0.96050417923 -0.27318621157 -0.014721560197 0.9618485169 
-0.26823709207 -0.01602311996 0.96321966449 -0.2630845214 -0.017361526249 0.96461656217 -0.25772955599 -0.018728810666 0.9660355623 
-0.25217565448 -0.020118227396 0.96747232323 -0.24641717067 -0.021525195518 0.96892478756 -0.24046027017 -0.022945904651 0.97038772866 
-0.23431197675 -0.024378173004 0.97185575176 -0.22797454745 -0.025821537624 0.97332463953 -0.22145454022 -0.027275552005 0.97478917253 
-0.21475571818 -0.028741492744 0.97624479927 -0.20788523089 -0.030221665313 0.97768623889 -0.20085077574 -0.031718940012 0.97910820379 
-0.19365517629 -0.033236503524 0.9805065056 -0.18630271848 -0.034777652375 0.9818766786 -0.1788023229 -0.036346370557 0.98321344106 
-0.17116385508 -0.037946076173 0.98451156926 -0.16339272818 -0.039580865968 0.98576679363 -0.15549274642 -0.04125456497 0.98697521077 
-0.14747442834 -0.042969773714 0.98813202131 -0.13935229793 -0.044728984645 0.98923215425 -0.13113905632 -0.046534762425 0.99027120719 
-0.1228468646 -0.048387989184 0.99124530282 -0.1144930733 -0.050289206121 0.99215035751 -0.10610050048 -0.05223831275 0.99298229716 
-0.097687960334 -0.054234127809 0.99373825618 -0.089281003204 -0.056274623527 0.99441544096 -0.080906164874 -0.058355850448 0.9950119533 
-0.072590837998 -0.060474375986 0.99552670486 -0.064365730805 -0.062625797644 0.99595936773 -0.056256688819 -0.064804143753 0.9963109996 
-0.048295921316 -0.067003862671 0.99658315577 -0.040510307961 -0.069218542528 0.99677866566 -0.032917202149 -0.071441743343 0.9969014671 
-0.025543598777 -0.07366713264 0.9969557052 -0.018408341327 -0.07588813873 0.99694639945 -0.011522080326 -0.078098131147 0.99687909175 
-0.0048989638283 -0.080291659251 0.99675937398 0.0014569873924 -0.082463389673 0.99659302955 0.0075419104595 -0.084607694805 0.99638579755 
0.013359664975 -0.08672037473 0.99614311018 0.018915706824 -0.088796553903 0.99587015622 0.02421280325 -0.090832231927 0.99557181851 
0.029262483633 -0.092823799596 0.99525245505 0.034078961256 -0.094767148178 0.9949159824 0.038672935031 -0.096658618895 0.99456599353 
0.043053373588 -0.098494537677 0.99420583033 0.047237432891 -0.10027084966 0.99383820697 0.051234543806 -0.1019831638 0.99346588055 
0.055054416885 -0.10362731832 0.99309133018 0.058707262185 -0.10519866094 0.99271682725 0.062202068895 -0.10669248057 0.99234450531 
0.065546855618 -0.10810377255 0.99197640298 0.068744828999 -0.10942771706 0.99161470503 0.071803069209 -0.11065944724 0.99126121986 
0.074724493334 -0.111793913 0.99091794368 0.077508004003 -0.11282720953 0.99058696241 0.080157258641 -0.11375501371 0.99026996862 
0.082678876849 -0.11457268675 0.98996833423 0.085078219986 -0.11527693292 0.98968324489 0.087356913388 -0.11586437265 0.98941609894 
0.089519457653 -0.11633171251 0.98916793284 0.091582167139 -0.11667559423 0.98893857867 0.093555016001 -0.11689261123 0.98872826217 
0.095445782716 -0.11698021476 0.9885371677 0.097273472783 -0.11693504528 0.98836433904 0.099061550501 -0.11675405107 0.98820812624 
0.10082854414 -0.11643279264 0.9880673102 0.10258990172 -0.11596816335 0.98794063443 0.10437229163 -0.1153586909 0.98782528677 
0.10619739705 -0.11460158569 0.98771888178 0.10808158032 -0.11369579843 0.98761917631 0.11004798099 -0.11263996885 0.98752300191 
0.11211043199 -0.11143602647 0.98742759889 0.11427811127 -0.11008811042 0.98733029996 0.11655588361 -0.10859936902 0.98722890104 
0.11894500604 -0.10697750348 0.98712101552 0.12143826332 -0.10523156543 0.9870050992 0.12402072658 -0.10337351587 0.98688032486 
0.12667516719 -0.1014155725 0.98674631171 0.12937455313 -0.099370098304 0.98660418029 0.13208554661 -0.097252802844 0.98645592943 
0.13477603616 -0.095079582812 0.9863038543 0.13740953663 -0.092865439317 0.98615142317 0.13994547846 -0.090623633114 0.98600335708 
0.1423484611 -0.088369310868 0.98586397668 0.14457701814 -0.086115501655 0.9857391167 0.14659302249 -0.083872425664 0.98563477108 
0.14836346555 -0.081650481445 0.98555643216 0.14985780684 -0.07945858885 0.98550949787 0.15104331595 -0.077304901729 0.98549980663 
0.15189356737 -0.075194823204 0.98553238544 0.15239176234 -0.073133207745 0.98561061515 0.15251707723 -0.071125362462 0.98573816197 
0.15225475879 -0.069172097348 0.98591769909 0.15159581807 -0.067275295943 0.98615046646 0.15053622231 -0.065437065251 0.98643643296 
0.14908265106 -0.063656398754 0.98677364479 0.14724000961 -0.061931324547 0.98716001267 0.14502050192 -0.06025834498 0.98759201388 
0.1424454127 -0.058632276561 0.98806455282 0.13953850834 -0.05704812395 0.98857195805 0.13633459523 -0.055497446118 0.98910712848 
0.13286951003 -0.053969865421 0.98966304717 0.12918134761 -0.052455278555 0.99023261064 0.12531732231 -0.050939370167 0.99080812941 
0.12132533694 -0.0494082271 0.99138236302 0.11725160774 -0.047847107438 0.99194894767 0.11314862545 -0.046239078609 0.99250155474 
0.10906321205 -0.044568478035 0.99303517891 0.1050394208 -0.042819812017 0.9935457633 0.10111952419 -0.0409770221 0.99403004255 
0.097338788713 -0.039024479786 0.99448592257 0.093731133353 -0.036949964275 0.9949116417 0.090321749352 -0.03474326506 0.99530642876 
0.08713015399 -0.032393123016 0.99567013707 0.084172387203 -0.029892535469 0.99600273371 0.081453998984 -0.027238449065 0.99630482933 
0.078979025809 -0.024427180335 0.99657695455 0.076746629971 -0.021458596249 0.99681968451 0.074749790595 -0.018335644834 0.99703373711 
0.072978882219 -0.015063215474 0.99721972618 0.071422564053 -0.011648474971 0.99737812808 0.070067852196 -0.0080999352866 0.99750934188 
0.068898582154 -0.0044289207152 0.99761383814 0.06789894377 -0.00064734790182 0.99769199374 0.067054541315 0.0032306568851 0.99774408109 
0.066349635658 0.0071896075021 0.99777053243 0.065767227661 0.011211856387 0.99777200103 0.06529516489 0.015279974354 0.99774899841 
0.064920217919 0.019375542579 0.9977023372 0.064629923235 0.023479016681 0.99763305318 0.064412691794 0.027572595852 0.99754235855 
0.064255748978 0.031636594678 0.99743186464 0.064150843141 0.035650957386 0.99730320292 0.064087310878 0.039598024318 0.99715836909 
0.064051698528 0.043461030602 0.99699975864 0.06403387337 0.04722498161 0.99682970671 0.064022884678 0.050876314333 0.99665072662 
0.064009251086 0.054400871319 0.99646543391 0.063986285504 0.057790538796 0.99627607062 0.063945121078 0.061038174177 0.99608501785 
0.063876056245 0.064137216363 0.99589470674 0.063769403871 0.067085660701 0.99570727488 0.063619554632 0.069882116674 0.995524506 
0.063421883128 0.072527991998 0.99534785634 0.063175820531 0.075027831392 0.99517819521 0.062877165651 0.077385470838 0.99501655812 
0.06252309642 0.079607136028 0.99486359181 0.062117358285 0.081701732544 0.99471918686 0.061664547339 0.083677386239 0.99458311801 
0.061168595336 0.08554377459 0.99445495905 0.060633216319 0.087311895646 0.99433407161 0.060067222776 0.088992386634 0.99421943447 
0.059475472764 0.090593612342 0.99411038901 0.058868876564 0.092122064947 0.9940060264 0.058256707726 0.093588812963 0.99390507097 
0.057644270994 0.094999571589 0.99380693267 0.057040886313 0.096358612159 0.99371090119 0.056451153135 0.097669977126 0.9936165472 
0.055877341026 0.098932288891 0.99352409381 0.055324913301 0.10014582507 0.99343342388 0.054795526369 0.10130720528 0.99334500575 
0.054282034821 0.10241120862 0.99325998865 0.053783226923 0.10345005653 0.99317946531 0.053293039064 0.10441582873 0.99310482161 
0.052802803162 0.10529941601 0.99303771175 0.052304296895 0.10609094761 0.99297984439 0.0517867433 0.10678121614 0.99293298117 
0.051243873616 0.10736115072 0.99289860949 0.050660868334 0.10782138482 0.99287865593 0.050026829376 0.10815380463 0.99287465014 
0.049338962495 0.10835457001 0.99288718087 0.048588603367 0.10841965806 0.9929170788 0.04776661085 0.10834676277 0.99296491876 
0.046871006916 0.10813580658 0.9930305917 0.045898503017 0.1077882194 0.99311380374 0.044850625 0.10730979352 0.99321348644 
0.043730089876 0.10670701617 0.99332839079 0.042537164107 0.10598754992 0.99345721042 0.0412810756 0.10516129672 0.9935979944 
0.039970036378 0.10424257207 0.99374839993 0.038612716137 0.10324586877 0.9939061066 0.037223181343 0.10218518066 0.99406872178 
0.035815036616 0.10107867472 0.99423356646 0.034400350348 0.099943527108 0.99439826392 0.032994655255 0.098797226114 0.99456043599 
0.031611894627 0.097658840438 0.99471776852 0.030268432171 0.096545321982 0.99486824395 0.028979926035 0.095472161683 0.99501016589 
0.027756726486 0.094454751803 0.99514213256 0.026611171847 0.093504550117 0.99526315346 0.025551944265 0.092634279872 0.9953722863 
0.024588300071 0.091853309768 0.99546892718 0.023723592241 0.091164493072 0.99555322629 0.022958740727 0.090570292691 0.99562539055 
0.022293615441 0.090072332519 0.99568567813 0.021723740305 0.089668043266 0.99573476444 0.021244862325 0.089352376492 0.99577347255 
0.020848461671 0.089118693714 0.99580279176 0.020525133176 0.088959697106 0.99582372496 0.020265730343 0.088867774426 0.99583724516 
0.02005803821 0.088832948579 0.99584455732 0.019885815717 0.088845181592 0.99584691998 0.019735977431 0.088894881809 0.99584546551 
0.019595022532 0.088973047771 0.99584126841 0.019449076906 0.089070325721 0.99583543343 0.019282481082 0.08917813638 0.99582902444 
0.019075681732 0.089286783668 0.99582327179 0.018815436593 0.089388869093 0.9958190646 0.01848711359 0.089477757528 0.99581723099 
0.018073355286 0.089545325161 0.99581875287 0.017558628253 0.089586722092 0.99582423841 0.016930056503 0.089596601296 0.99583423431 
0.016171978262 0.089569761048 0.99584924814 0.015272344924 0.089502676238 0.99586948263 0.014224518219 0.089392867085 0.99589486312 
0.013021508732 0.08923852975 0.9959251604 0.011658301861 0.089039255007 0.99595988627 0.010132104928 0.088797153523 0.99599819577 
0.0084504739396 0.088513595838 0.99603912214 0.0066228491467 0.088191454236 0.99608152541 0.0046589988938 0.087836367176 0.99612402156 
0.0025752050311 0.08745319652 0.99616530091 0.0003912933744 0.087049088587 0.99620394652 -0.0018730929079 0.086630952773 0.99623871113 
-0.0041972835102 0.086204142291 0.99626865286 -0.0065568540593 0.085776590306 0.99629282052 -0.008930714574 0.085354919382 0.99631058414 
-0.011300096658 0.084944864632 0.99632157348 -0.013644003537 0.084551844665 0.99632566299 -0.015952561121 0.084178622839 0.99632297738 
-0.018214254704 0.083827526298 0.99631379934 -0.020420816518 0.083500827891 0.99629845026 -0.022570565399 0.083199776792 0.99627725394 
-0.024661414794 0.082924915059 0.99625060757 -0.02669514692 0.08267424068 0.99621902163 -0.028676359242 0.082446512139 0.99618283415 
-0.030614313783 0.082241300516 0.99614212454 -0.032515455002 0.08205497686 0.99609724724 -0.03438980267 0.081885191815 0.99604827033 
-0.036242364026 0.081731267476 0.99599522638 -0.038084495871 0.081591226226 0.99593797145 -0.039925478923 0.081463590855 0.99587631737 
-0.041770632176 0.081345227606 0.99581030735 -0.043632474724 0.081235516815 0.99573942272 -0.045515920033 0.081134940241 0.9956633078 
-0.047425142627 0.081041995752 0.99558176499 -0.049360322842 0.0809568157 0.99549462707 -0.051328399946 0.080881232752 0.99540123646 
-0.053334416681 0.080813777808 0.99530124752 -0.055375185572 0.080755282141 0.99519454039 -0.057446079319 0.080708469693 0.9950809469 
-0.059551611358 0.080676714029 0.99495973456 -0.061685958228 0.080659555539 0.99483108046 -0.063843979934 0.080656318503 0.99469518171 
-0.066026121464 0.080670488617 0.99455156908 -0.068215888569 0.08069565371 0.99440173171 -0.07041670109 0.080731386385 0.99424540807 
-0.07262462176 0.080774770806 0.99408304518 -0.07483340767 0.080819064238 0.99391561008 -0.077040386585 0.080858722223 0.99374375262 
-0.07923705451 0.080878413666 0.99356940945 -0.081427807126 0.080861599391 0.99339363496 -0.083619293123 0.080796621017 0.99321685439 
-0.08580992883 0.080662822175 0.99304086786 -0.088008220816 0.080437109849 0.99286677073 -0.090227107262 0.080106346121 0.99269433484 
-0.092466991031 0.079650730924 0.99252486953 -0.094741443117 0.079046510738 0.992358659 -0.097056358513 0.078275128787 0.99219608318 
-0.099418751361 0.077334712025 0.99203591376 -0.1018382178 0.076221118066 0.99187666499 -0.10430346683 0.074929762813 0.99171887017 
-0.10681057597 0.073473459788 0.99156096715 -0.10934641385 0.071868812331 0.99140215634 -0.11189316359 0.070138410307 0.9912419096 
-0.11442833858 0.068315713049 0.99107977413 -0.11691476212 0.06643732277 0.99091726221 -0.1193312223 0.064548626568 0.99075402305 
-0.12163741734 0.062691877473 0.99059278576 -0.12378352628 0.060913562061 0.99043787114 -0.12573684075 0.059270039289 0.99029152744 
-0.12744583428 0.057802483217 0.99015980137 -0.12888139081 0.056553667387 0.99004609479 -0.13001113281 0.05556363497 0.98995443724 
-0.13080400515 0.054862155119 0.98988911307 -0.13080400515 0.054862155119 0.98988911307 
NormalArray 3 380 double
-0.56744276412 0.52032981905 -0.63817363535 -0.56744276412 0.52032981905 -0.63817363535 -0.5686705331 0.51982685768 -0.63749028449 
-0.57098570096 0.51968155699 -0.63553631574 -0.57491444356 0.51856352856 -0.63290224319 -0.58002044999 0.51750854909 -0.62909552471 
-0.58676674744 0.51526712046 -0.62466357239 -0.59468943071 0.51287247762 -0.61911735777 -0.60389013656 0.50987975083 -0.61264944517 
-0.61436889118 0.50604983413 -0.60536305712 -0.62598159997 0.50145345373 -0.59723652789 -0.63860527118 0.4960462485 -0.58832085376 
-0.65219596767 0.48951651852 -0.57880393731 -0.66649056598 0.4820773335 -0.56867545225 -0.68150231658 0.47314708413 -0.55828884037 
-0.69700345263 0.46276212967 -0.54775669632 -0.71293194609 0.45045760938 -0.53741602358 -0.72905501439 0.43623604417 -0.52742478114 
-0.74529894447 0.41959821842 -0.51813783732 -0.7616410295 0.39980344537 -0.50996092718 -0.77797818414 0.37622993456 -0.50319080014 
-0.79417282941 0.3481466938 -0.4980797091 -0.80993667975 0.31508012937 -0.49469898612 -0.82519043904 0.27484506331 -0.49347839922 
-0.83925208821 0.22693664241 -0.49412113168 -0.85126685811 0.17051656158 -0.49625481208 -0.86009558223 0.10401629582 -0.49941585841 
-0.86414909408 0.028264480918 -0.5024415014 -0.86184417185 -0.055566493806 -0.5041200137 -0.85202249182 -0.14445937695 -0.50317905544 
-0.83451226699 -0.23422559813 -0.49872602241 -0.81043876265 -0.32025174389 -0.49053830893 -0.78200718047 -0.3986357865 -0.47911823114 
-0.75182941441 -0.46702679052 -0.46544442049 -0.72227844583 -0.52464692187 -0.45062118689 -0.69529030322 -0.57163859388 -0.43566123564 
-0.67097780468 -0.61038172202 -0.4209785494 -0.65043855646 -0.64119238043 -0.40718793641 -0.63271963731 -0.66655206302 -0.39417535164 
-0.61803914529 -0.68701608401 -0.38214724282 -0.60506268481 -0.70459339749 -0.37073884564 -0.59380643876 -0.71956716408 -0.36002362375 
-0.58358844256 -0.7328429722 -0.34980810139 -0.57404194192 -0.74490153737 -0.3399963949 -0.56506020981 -0.75592788133 -0.33057525244 
-0.55576967781 -0.76676162 -0.32124240585 -0.54660250539 -0.77703095451 -0.31216757812 -0.5376911383 -0.78666033616 -0.30340361783 
-0.52882694831 -0.79585984119 -0.29487144981 -0.52107379908 -0.80382359341 -0.28696642065 -0.51381048671 -0.8111158235 -0.27944570961 
-0.50878250454 -0.81647599218 -0.27296028513 -0.50597325062 -0.82002465123 -0.26748951574 -0.50591384927 -0.82144189931 -0.26321926824 
-0.50991215372 -0.81979449982 -0.2606272694 -0.51710740917 -0.81567923279 -0.2593594351 -0.5291424175 -0.80771441211 -0.26001101991 
-0.54408129977 -0.79713801947 -0.26181389793 -0.56315980352 -0.78263533004 -0.2652036498 -0.58545461264 -0.76449596669 -0.26979402042 
-0.60908024498 -0.74396122811 -0.27485077086 -0.63437904951 -0.72034233088 -0.28048199209 -0.66057516485 -0.69399292452 -0.28638134068 
-0.68705218846 -0.66521731354 -0.29231013684 -0.71270310026 -0.63508436004 -0.29786263026 -0.73769163612 -0.60327330369 -0.30310455468 
-0.76171937909 -0.57005210664 -0.30793535561 -0.78476557581 -0.53532826468 -0.31235659119 -0.80668388339 -0.49919859506 -0.3163255838 
-0.82707123777 -0.46231599042 -0.31971407954 -0.84614821947 -0.42420813007 -0.32261533298 -0.86431386355 -0.38369986961 -0.32517065571 
-0.88059774087 -0.34290447722 -0.32705372383 -0.89557160218 -0.30009865394 -0.32846963828 -0.90876306042 -0.25639054272 -0.32926218978 
-0.92033268498 -0.21078617238 -0.32947979983 -0.92987575498 -0.16461809581 -0.32898626543 -0.93732469431 -0.1182998568 -0.32776143965 
-0.94268651407 -0.072061503822 -0.32580557984 -0.945981358 -0.026703284889 -0.32311949011 -0.94735699176 0.016596173988 -0.31974880323 
-0.94707346424 0.057774168253 -0.31577523466 -0.94555672743 0.094826178046 -0.31133658824 -0.94310309797 0.12887545475 -0.30650883146 
-0.94028128374 0.15805482387 -0.30147931951 -0.93738373503 0.18304558595 -0.29632085105 -0.93480987084 0.20337589608 -0.29115073463 
-0.93277042328 0.21938936812 -0.2860203535 -0.93148244253 0.23106112383 -0.28098259076 -0.93085084174 0.23947237565 -0.27598857175 
-0.93097672292 0.24455454466 -0.27106349085 -0.93185495389 0.24655138513 -0.26619308669 -0.93325550462 0.24649631854 -0.26129241864 
-0.9350576433 0.24488113905 -0.25632095398 -0.93728995983 0.24154457908 -0.2512841967 -0.93963427324 0.23776861818 -0.24607624178 
-0.94218283541 0.23310389264 -0.24073653628 -0.94480938082 0.22805220068 -0.23521783028 -0.94735004404 0.22331808849 -0.22947096855 
-0.9498405092 0.21873028309 -0.22351749448 -0.95222466274 0.21454891343 -0.21734064374 -0.95451010506 0.21073725556 -0.21095086741 
-0.95664600741 0.20754769976 -0.20433396399 -0.9586071362 0.20511164654 -0.1974881538 -0.96040482406 0.20337321161 -0.19042560415 
-0.96208416796 0.20209961727 -0.1831660407 -0.96359250345 0.20154610692 -0.17569477534 -0.9649093386 0.2017952017 -0.1680138829 
-0.9660787645 0.20259216044 -0.16015067067 -0.96707108465 0.20405622567 -0.15210053911 -0.96794256871 0.20587163809 -0.14388902778 
-0.9686221943 0.20835104736 -0.13550234598 -0.96913447887 0.2113244238 -0.12696593938 -0.96945454685 0.21486373083 -0.11828549685 
-0.96967673582 0.21848321937 -0.10950849675 -0.96964714431 0.22285415641 -0.10060040014 -0.96946600106 0.22746693903 -0.091621309937 
-0.96910162051 0.23242718933 -0.082581176946 -0.96851576097 0.23785641431 -0.073495216968 -0.96779956596 0.24333885879 -0.064422045367 
-0.96677736851 0.24955877053 -0.055334797298 -0.96558880198 0.25591710017 -0.046310941854 -0.96419957796 0.26253162144 -0.037367386987 
-0.96246198269 0.26991660339 -0.02849489578 -0.96060837949 0.277200038 -0.019790911808 -0.95851889239 0.28480731661 -0.01123945475 
-0.95605906561 0.29316042397 -0.0028335274343 -0.95349075354 0.30137505167 0.0053348991384 -0.95067705108 0.30989759145 0.013290122646 
-0.94752950709 0.31897533502 0.021037320215 -0.94436609018 0.3276596416 0.028492928759 -0.94085400413 0.33692287116 0.03573124406 
-0.93748512348 0.34540304846 0.042642436142 -0.93389188413 0.3541383408 0.049315153233 -0.93031086502 0.36251780827 0.055700386998 
-0.92690140503 0.37018532159 0.061778742656 -0.9238494949 0.37675150756 0.067530824989 -0.92087012306 0.38296905526 0.073026838716 
-0.91832144033 0.38803231284 0.078209055841 -0.91660666227 0.39107466121 0.083023105447 -0.91506170003 0.39368459028 0.087604386337 
-0.91457932679 0.39384961716 0.091799423082 -0.91455362556 0.39297295618 0.095728374541 -0.91575881807 0.38927409435 0.099254554557 
-0.91757561308 0.38412295936 0.10249168927 -0.92038649522 0.37654743014 0.10536001266 -0.92431537561 0.36608149013 0.10782128271 
-0.92906928168 0.35320034773 0.10990807159 -0.93448685173 0.33804574719 0.11162166795 -0.94130490405 0.31817298933 0.11274318818 
-0.94908931819 0.29393279944 0.11328272383 -0.95767303117 0.26468463984 0.1131565588 -0.96666783319 0.23009453962 0.11229337968 
-0.97589529421 0.18822376792 0.11045446086 -0.98472885019 0.13704961164 0.10736151801 -0.99156077183 0.078580515435 0.10311323082 
-0.99516783233 0.011777155956 0.097479659918 -0.99395552043 -0.062197185267 0.090465095772 -0.98686163722 -0.13890782525 0.082514999043 
-0.9732723177 -0.21751126735 0.073687476359 -0.95466194604 -0.29050154185 0.06503401391 -0.93355429885 -0.35382335674 0.057318437827 
-0.91077456519 -0.40981958731 0.050374569616 -0.88974326691 -0.45422990664 0.04507894088 -0.87091860195 -0.48969742402 0.041197350427 
-0.85522002511 -0.51681254289 0.038775045681 -0.84223218376 -0.53780792531 0.037517784009 -0.83096873263 -0.55508430777 0.037045602358 
-0.82278379157 -0.56710382491 0.037684003345 -0.81443296714 -0.5789805846 0.038476287387 -0.80787932754 -0.58799337264 0.039934770165 
-0.80039510414 -0.59804945973 0.04128584501 -0.79229606247 -0.60864839304 0.042592053853 -0.78248097827 -0.62115069435 0.043535428633 
-0.77181711361 -0.63429805337 0.044320679402 -0.75735515516 -0.6515071385 0.044177114461 -0.73934068475 -0.67194571939 0.04317756448 
-0.71745203381 -0.69538487741 0.041260773784 -0.68668554885 -0.72599747218 0.037291116803 -0.64795826363 -0.76101957152 0.031611712358 
-0.5955148501 -0.80301152833 0.023120308801 -0.52753947261 -0.84944953718 0.011729817817 -0.43162268715 -0.90204248602 -0.0046053624749 
-0.30963213598 -0.95053288133 -0.024802860482 -0.15327973538 -0.98694066351 -0.049532306999 0.033154245017 -0.9964773837 -0.077029992931 
0.23067679307 -0.96750977325 -0.10350389267 0.41477514617 -0.90126308055 -0.12524550995 0.56607403115 -0.81233209184 -0.14027388859 
0.67738192584 -0.72042225575 -0.14881364175 0.75939702896 -0.63239602707 -0.15294252958 0.81470699827 -0.55911886422 -0.15374850452 
0.85367247035 -0.49794652455 -0.1526190422 0.88060635886 -0.44940238954 -0.15023292919 0.89871798138 -0.41313494003 -0.14705615004 
0.91142248174 -0.38567632915 -0.14339745084 0.91980380337 -0.36677287322 -0.13942246155 0.92431659286 -0.35685455606 -0.13525406457 
0.92639810506 -0.35303566592 -0.13096705513 0.92561089562 -0.35666969915 -0.12661435789 0.92197789257 -0.3674468879 -0.12222745263 
0.91573659949 -0.38411783816 -0.11781327072 0.90599887439 -0.40781805176 -0.11335994121 0.89235157416 -0.43802294052 -0.1088327693 
0.87391646073 -0.47478304331 -0.10416852431 0.84997009831 -0.51738964612 -0.099291419892 0.82002415381 -0.56453654161 -0.094121625338 
0.78230278173 -0.61657673636 -0.088518279928 0.73785648003 -0.66990138386 -0.082461814045 0.6871270382 -0.72255856956 -0.075931198603 
0.62946085297 -0.77397538356 -0.068855938227 0.56880823187 -0.82017143482 -0.061449270638 0.50587957468 -0.86092727369 -0.053759513844 
0.44423464218 -0.89472748097 -0.046025183077 0.38416137201 -0.92247190181 -0.038283555638 0.32863909829 -0.94395487468 -0.030749595894 
0.27815014038 -0.96025075685 -0.023473035228 0.23297842961 -0.97234214513 -0.016486483847 0.19259306945 -0.98123011057 -0.0097662539968 
0.15808129386 -0.98742025734 -0.0033970457651 0.12856455548 -0.99169754939 0.002669383497 0.10198375436 -0.99474923515 0.00855996524 
0.080315907693 -0.99666931152 0.014129346928 0.060750323129 -0.99796149779 0.019551142448 0.045139502226 -0.99867555735 0.024689197882 
0.031925095752 -0.99905093693 0.029631295794 0.020191882133 -0.99920345653 0.034420057495 0.011885438673 -0.99917187146 0.038914105786 
0.0064627855665 -0.99904834348 0.043135134049 0.0029440363336 -0.99888427466 0.047133199518 0.0030657803886 -0.99870494256 0.050784236771 
0.0046871065515 -0.99851845454 0.054211871217 0.0089259009796 -0.99831506236 0.057335543608 0.016552515648 -0.9980553337 0.060096298616 
0.028210108606 -0.99764990196 0.062440875237 0.044362336341 -0.99694228939 0.064327713614 0.062938913861 -0.99584046691 0.065882149192 
0.086392583603 -0.99401069567 0.066925767728 0.10974062665 -0.99164552096 0.067794952841 0.14194071981 -0.98754809088 0.067835096094 
0.17295945533 -0.98259564113 0.067755685017 0.20742515648 -0.97593961739 0.067206157999 0.23918926749 -0.96868148663 0.066668371693 
0.27411448152 -0.95945214801 0.065672115051 0.30490353712 -0.95017335652 0.064841542363 0.33267722136 -0.94085859258 0.064116886736 
0.3596884786 -0.93092174986 0.063315827408 0.37692351639 -0.9240776172 0.063318403145 0.39208170685 -0.91774063451 0.063435502075 
0.40292744387 -0.91299824019 0.063903743098 0.4070160221 -0.91110641284 0.064985092494 0.41159445305 -0.90897663052 0.065965835007 
0.41426595572 -0.90768016904 0.067085234306 0.41240927011 -0.90841157309 0.068607636648 0.41520342266 -0.90706197349 0.069603836584 
0.42645864009 -0.90181935288 0.069676990848 0.43743038705 -0.89654727153 0.069696817718 0.46635829909 -0.8820008817 0.067708061109 
0.50293262603 -0.86190423333 0.064651885033 0.56235625488 -0.82482289428 0.058503296193 0.6373107097 -0.76901792737 0.049461972078 
0.72886365455 -0.68369534856 0.036310376527 0.83680353051 -0.54724759183 0.016730946535 0.92669779791 -0.3757632328 -0.0057605754691 
0.9824147122 -0.18449535619 -0.028684434848 0.99876678418 0.0048787061513 -0.049407580786 0.98460382682 0.1622392814 -0.065067040688 
0.954920327 0.28688596994 -0.076312576512 0.92214696886 0.37769562997 -0.083612074012 0.89081255657 0.44569258551 -0.088380474535 
0.86405195171 0.49506864333 -0.091220957815 0.84188861959 0.53161874841 -0.092763454772 0.822188865 0.56146893124 -0.093584771803 
0.80879691667 0.58061785943 -0.093436871189 0.79643612341 0.59752686458 -0.093011544639 0.78659863415 0.61053994247 -0.092214789498 
0.77940397791 0.61986385329 -0.091094690285 0.77412135261 0.62664103746 -0.089761581948 0.76966925244 0.63230086572 -0.088345102085 
0.76845262317 0.6340105959 -0.086666776948 0.76564005098 0.63760602193 -0.085169672619 0.76567586561 0.63778429101 -0.083496508629 
0.76672084711 0.63674499029 -0.081822734864 0.76760910866 0.63587256718 -0.080264155213 0.77305904125 0.62946725696 -0.078426342245 
0.7762042954 0.62577250898 -0.076913320098 0.78403213648 0.61615964637 -0.075105919551 0.79148392359 0.60676082222 -0.073447282629 
0.80639565265 0.58707897783 -0.071164072193 0.82205797952 0.56522780405 -0.06883464121 0.84608757681 0.5290018961 -0.065519510681 
0.87595759915 0.4784950394 -0.06116193065 0.9191303212 0.39026170724 -0.053807550647 0.96542226941 0.25718719838 -0.0425979662 
0.99865707698 0.045807842249 -0.02420091301 0.97920300068 -0.20287772321 -0.0014535790912 0.9041916851 -0.42665060649 0.020165727759 
0.84301439302 -0.53697442487 0.031387898976 0.82096610045 -0.56990686918 0.034940268719 0.85400120857 -0.51940666703 0.029977491827 
0.90834086072 -0.41774948878 0.020056055763 0.94728359341 -0.32021270183 0.010845240147 0.97715247612 -0.21253734556 0.00095663764499 
0.99287557051 -0.11893038983 -0.0073255624985 0.9987430869 -0.048336058562 -0.013261667098 0.99977072592 0.011542041177 -0.018035433933 
0.99824522282 0.055296432917 -0.021184419596 0.99560407627 0.090686769816 -0.023418648593 0.99295276127 0.11593191822 -0.024588701183 
0.99022483032 0.13717797633 -0.025238625547 0.98818007918 0.15123080609 -0.025087335653 0.98656714119 0.16151826633 -0.024436152785 
0.98506411076 0.17057466198 -0.023515577618 0.9840847662 0.1763133339 -0.022153582522 0.98356853905 0.17937686307 -0.020417394122 
0.98308785657 0.18219406152 -0.018536186559 0.98322656692 0.18166213488 -0.016259977056 0.98329672999 0.18147572801 -0.013932011411 
0.98364731082 0.17974374057 -0.011408577714 0.98420214879 0.17683217039 -0.0087472182858 0.98491511014 0.17293461969 -0.0059869130055 
0.98576741969 0.16808530528 -0.0031503045424 0.98669406791 0.16258762171 -0.00028567565139 0.98766889478 0.15653579297 0.0025883985337 
0.9886482831 0.15014982305 0.0054408595006 0.98973869316 0.14264611112 0.0083310416455 0.99084196997 0.1345604774 0.011210194506 
0.99193824928 0.12593843926 0.014071927415 0.99280622359 0.11855264182 0.016765247396 0.99377945743 0.10963962186 0.019533133525 
0.99466076795 0.10077169464 0.022249095876 0.99525081325 0.094149568141 0.024732115732 0.99591091982 0.086115321931 0.027305514366 
0.99640501632 0.079322735683 0.029748059837 0.99687343001 0.072152109861 0.032209277917 0.99721830067 0.06603050779 0.034577924361 
0.99740479215 0.061893413294 0.036781598504 0.99768237238 0.055631731146 0.039179003637 0.99784237579 0.050902172055 0.041467601318 
0.99797112044 0.04623131778 0.0437756556 0.99807033834 0.041591670947 0.046105668109 0.99820198213 0.03504880292 0.048624934756 
0.99818972322 0.032060714754 0.050886019959 0.99825159797 0.025113796459 0.053507423529 0.99823075012 0.019958649976 0.056009122601 
0.99821124845 0.010087884615 0.058928244935 0.99809519224 0.0058947316624 0.061410417407 0.99792655343 -0.0029873773535 0.064293619682 
0.99769839365 -0.010088105406 0.067053303006 0.99750037778 -0.012893807131 0.069474787312 0.99719650028 -0.019593231285 0.072216653988 
0.99703350558 -0.019595899625 0.074432448964 0.99684438607 -0.020405036453 0.076713130879 0.99679463343 -0.015315907391 0.078523128725 
0.99681767244 -0.0022889093942 0.079682424655 0.99661463964 0.017953956016 0.080230390302 0.99589256173 0.041508002468 0.080467951526 
0.99358146908 0.080663906399 0.079304467077 0.98931923458 0.12332800796 0.077702345778 0.9823842638 0.17094318445 0.075495602032 
0.97128131048 0.22668449685 0.072296298626 0.95606233492 0.28503103831 0.068571998312 0.93630990515 0.34522787695 0.064354288822 
0.91781303778 0.39223570535 0.061403412956 0.89534770841 0.44157574581 0.057994325209 0.87319112591 0.48423611753 0.055250702442 
0.85354137256 0.51826689173 0.053540211592 0.83399266452 0.54930417071 0.052164773252 0.81794126001 0.57296599172 0.051788681347 
0.80357192292 0.59293995985 0.051907308833 0.78983306017 0.61109494066 0.052217914154 0.78361213335 0.61889376108 0.054060493489 
0.77152542995 0.63384922289 0.054623013279 0.76588087024 0.64051061356 0.056326250688 0.76174704203 0.64526425913 0.058098879905 
0.75224859797 0.65627612611 0.058512333373 0.7542252467 0.6537913683 0.060836863569 0.74592538096 0.66325445819 0.060735901474 
0.75003681581 0.65842518231 0.062618321804 0.75003681581 0.65842518231 0.062618321804 
BinormalArray 3 380 double
-0.3428033914 -0.85395876511 -0.39145914517 -0.3428033914 -0.85395876511 -0.39145914517 -0.3424724578 -0.85426191352 -0.39108720095 
-0.34238541552 -0.85434135013 -0.39098987801 -0.34165790696 -0.8550008652 -0.39018379658 -0.34098769082 -0.85560241811 -0.38945076304 
-0.33953447702 -0.85688937117 -0.38788779884 -0.33800476659 -0.85822120354 -0.38627599402 -0.33609982048 -0.85984741496 -0.38431671009 
-0.3336551203 -0.86188690989 -0.38187067872 -0.33072068021 -0.86427131081 -0.37902365756 -0.32726340566 -0.86699919559 -0.37578059844 
-0.32304773737 -0.87021873487 -0.37196708572 -0.31821893311 -0.8737771478 -0.36776379184 -0.31231447659 -0.87796164134 -0.36282643793 
-0.30532659563 -0.88270609285 -0.35721929349 -0.29684398972 -0.88820013925 -0.35069097279 -0.2868100662 -0.89436952139 -0.34328289374 
-0.27475299332 -0.90136734141 -0.33473528122 -0.25998361725 -0.90939657796 -0.32466349156 -0.24189598399 -0.91851126352 -0.31276731241 
-0.21978643928 -0.92869548653 -0.29869485167 -0.19317314373 -0.93969546085 -0.28223496842 -0.16011308662 -0.95161906645 -0.26226885416 
-0.1201254462 -0.96367006225 -0.23855793487 -0.07247047754 -0.97486998045 -0.21065742596 -0.015807898783 -0.98395594278 -0.17770991252 
0.049072164899 -0.98893038471 -0.14003077101 0.12105171959 -0.98778970432 -0.09807130682 0.19739558254 -0.97887844703 -0.053216256225 
0.27437460645 -0.96159365901 -0.0074973527079 0.34794487425 -0.93679483794 0.036739571283 0.41474231938 -0.90664035539 0.077408491123 
0.47279118582 -0.87387915837 0.11315348503 0.52149223509 -0.84111677097 0.14341696669 0.56103487251 -0.81053629678 0.16813917873 
0.59351054016 -0.78244020802 0.18850082118 0.61922042939 -0.75808925206 0.20461364994 0.64030841262 -0.73659732761 0.21778318044 
0.65725548032 -0.71825739437 0.22830144332 0.6717874202 -0.70172359027 0.23724600083 0.68414429772 -0.68704485313 0.24477734716 
0.69510258141 -0.67352722214 0.25138313858 0.70507326173 -0.66079971203 0.25732360205 0.71421169021 -0.64875966849 0.26270240597 
0.72324413848 -0.63648913482 0.26795428232 0.73184249057 -0.62444816515 0.27289385856 0.73993561391 -0.61277724002 0.27748755178 
0.7477026316 -0.60125279285 0.28184366907 0.75442953099 -0.59100369153 0.28557086577 0.76060676512 -0.58136442556 0.28895112657 
0.76511385205 -0.57419102581 0.29138541364 0.76804718808 -0.56946055794 0.29294741822 0.7691115506 -0.56773401121 0.29350556254 
0.76746095578 -0.57040076409 0.29265448857 0.76361031239 -0.57653259285 0.29070510865 0.7563009991 -0.58787378309 0.28707701738 
0.74662309615 -0.60234552613 0.28237177524 0.73336887398 -0.62125602486 0.27606348228 0.71677538621 -0.64360655995 0.26833494315 
0.69795217148 -0.66737637616 0.2597528419 0.67625776822 -0.69292372192 0.25006428478 0.65200196142 -0.71941558899 0.23944655485 
0.62545382735 -0.74619185231 0.22804655094 0.59759124482 -0.77207471591 0.21629918439 0.56811611302 -0.79724073246 0.20408649303 
0.5372736691 -0.82137561322 0.19151790127 0.5049763486 -0.84446066955 0.17856389594 0.47131219791 -0.8663440667 0.16526575627 
0.43688824179 -0.88660350769 0.1518646909 0.40126425473 -0.90547809873 0.13818976299 0.36334001362 -0.92339088309 0.12382774945 
0.32509038683 -0.93931843543 0.10953135283 0.28490026325 -0.95386784582 0.094699380774 0.24380735536 -0.96654156184 0.079720654259 
0.20087587733 -0.97750681257 0.064259733003 0.15735783591 -0.98633651419 0.04877286383 0.11364317537 -0.99296013043 0.033397725607 
0.069949636277 -0.99738432831 0.018208515054 0.027034603227 -0.99962849809 0.0034635295248 -0.013983942655 -0.99984746522 -0.01046401617 
-0.053042223467 -0.99831413758 -0.023567036955 -0.088233251223 -0.99547671712 -0.035227816315 -0.12061608159 -0.99164112422 -0.045821846475 
-0.1484078887 -0.98740706134 -0.054794103587 -0.17224739251 -0.98307628988 -0.062384645936 -0.19167538096 -0.97906630414 -0.068481533573 
-0.20700961889 -0.97559504182 -0.073221117578 -0.21821633936 -0.97288717815 -0.076630071286 -0.22632104191 -0.97083942984 -0.079054332339 
-0.23125006545 -0.96955799083 -0.080502854885 -0.23322934883 -0.96903617505 -0.081073807621 -0.23324548634 -0.96903190897 -0.08107837252 
-0.2317672672 -0.96942069679 -0.080668745428 -0.22863522431 -0.97023440143 -0.079819424225 -0.22508422542 -0.97114124403 -0.07887823279 
-0.22067837219 -0.97224371027 -0.077738175219 -0.21590232031 -0.97341094083 -0.076533184705 -0.21143971369 -0.97447550858 -0.075436931673 
-0.20712533556 -0.97548078809 -0.074406501265 -0.20321367422 -0.97637186151 -0.073499596402 -0.19967059361 -0.97716214283 -0.072703512046 
-0.19674449935 -0.97780257666 -0.072067489599 -0.19456641337 -0.97827187601 -0.071610386036 -0.1930842816 -0.97858737251 -0.071310690318 
-0.19207219076 -0.97880083752 -0.07111395085 -0.19178317023 -0.97886142108 -0.071060072735 -0.19230105981 -0.97875310366 -0.071152403188 
-0.19337723624 -0.97852772666 -0.071335353576 -0.19513158025 -0.97815868437 -0.071618814397 -0.19725412415 -0.97770902087 -0.071943596005 
-0.20005583643 -0.97710973775 -0.072347928108 -0.20336985745 -0.9763919837 -0.07279694529 -0.20726897862 -0.97553477286 -0.07329036392 
-0.21127156899 -0.97464028511 -0.073760685873 -0.21604571669 -0.97355380987 -0.074278042369 -0.22108450101 -0.97238364359 -0.074777624238 
-0.22649307171 -0.97110054116 -0.075263719199 -0.23239217546 -0.96966875422 -0.075738919117 -0.23836566996 -0.96818427715 -0.076164380565 
-0.24509608316 -0.96646948731 -0.076580938361 -0.2519827736 -0.96466805032 -0.076943060098 -0.25914158066 -0.96274481079 -0.077253287789 
-0.26708507232 -0.96054958727 -0.077524541553 -0.27493718592 -0.95831567466 -0.077721370874 -0.28312186553 -0.95591886147 -0.077853320713 
-0.29205921937 -0.95322091846 -0.077918502246 -0.30085962822 -0.950480967 -0.077906453401 -0.30996836324 -0.94755694537 -0.077816765956 
-0.31963077659 -0.94435585724 -0.077641364942 -0.32889293837 -0.94119017666 -0.077398232922 -0.33872830189 -0.93772304913 -0.077062446311 
-0.347768835 -0.93443903532 -0.076684592204 -0.35705482044 -0.93096788752 -0.076227603998 -0.36597190409 -0.92753994217 -0.075724639889 
-0.37416238776 -0.92430869839 -0.075205968351 -0.38123579996 -0.92145400817 -0.074711281948 -0.38794667231 -0.91869027104 -0.074199496884 
-0.39348715258 -0.9163676938 -0.073743545576 -0.39698973741 -0.91488052011 -0.073435565763 -0.40004638062 -0.91357094835 -0.073150636858 
-0.40064156823 -0.9133147639 -0.073092242011 -0.40018136307 -0.9135127243 -0.073139450396 -0.39688372322 -0.91492206994 -0.073490925869 
-0.3921206498 -0.91693136409 -0.074015333219 -0.38491927452 -0.91991173902 -0.074830104294 -0.37481382802 -0.92397988578 -0.075998453967 
-0.36227961567 -0.92884424711 -0.077471573419 -0.34745767118 -0.93434206456 -0.079234292698 -0.32790225907 -0.94118316268 -0.081574277672 
-0.30396326987 -0.94893445973 -0.084437679419 -0.27499829427 -0.95742011164 -0.087878711756 -0.24067004376 -0.96624631952 -0.091902013282 
-0.19903427201 -0.97521215428 -0.096677881187 -0.14806011705 -0.98366874997 -0.10234252331 -0.08974795127 -0.99003091873 -0.10855452644 
-0.023045347944 -0.99306441279 -0.11529086688 0.050894939836 -0.99119004501 -0.12227837 0.12763588129 -0.98339875312 -0.12898051854 
0.20633613422 -0.969088362 -0.13525215837 0.27945640241 -0.94982116173 -0.14051291713 0.34290347889 -0.92817099969 -0.14462295638 
0.39901353895 -0.90493888325 -0.14789798281 0.44348088008 -0.88359971556 -0.15025395727 0.47894700192 -0.86458583746 -0.151990457 
0.50599403128 -0.84881494303 -0.1532423988 0.52686379827 -0.83584881612 -0.15417942358 0.5439721421 -0.82467423163 -0.15494102201 
0.55576876295 -0.8166694959 -0.1554735238 0.56740786938 -0.80852198504 -0.15601445276 0.57615089301 -0.80223295242 -0.15643669179 
0.585936071 -0.79501680824 -0.15693054301 0.59626267232 -0.78719293519 -0.15747415148 0.60850384306 -0.77763340158 -0.1581434973 
0.62139662311 -0.76721955946 -0.15887222655 0.63838216469 -0.75293722093 -0.15985541321 0.65862782733 -0.73503490211 -0.16103750416 
0.68190871442 -0.71318352278 -0.16238770898 0.71243276373 -0.68228424484 -0.16409682023 0.74743600017 -0.64328425131 -0.16590599046 
0.7895253925 -0.5903437001 -0.16776164744 0.83620855207 -0.52165296553 -0.16921418672 0.88931871264 -0.4246684655 -0.16961403763 
0.93864598468 -0.30138510262 -0.16766256397 0.97636165097 -0.14352581872 -0.16161146577 0.98774457082 0.044429793925 -0.14962171039 
0.96104459083 0.24318729327 -0.13135156957 0.89720693603 0.42801739941 -0.10872359328 0.81049308265 0.57951234935 -0.085243181054 
0.72036663561 0.6906081641 -0.064282765789 0.63374800353 0.77216564025 -0.046083533244 0.56144595554 0.82689481044 -0.031990802965 
0.500951712 0.86522339013 -0.020877437816 0.45283710695 0.89150603129 -0.01247199837 0.41679595497 0.90897720257 -0.0064480320794 
0.38942875225 0.92105429957 -0.0020552762019 0.37050390382 0.92883050296 0.00086835069241 0.36046415202 0.93277007155 0.0023640476551 
0.35646418272 0.93430436458 0.0029395168402 0.35985626352 0.93300449089 0.0024677083092 0.37034329232 0.92889436008 0.0010552979596 
0.38669328431 0.92220775163 -0.0010801387146 0.41003994889 0.91205860577 -0.0040422704571 0.439867605 0.89802939108 -0.007726761153 
0.47623017532 0.87923725567 -0.012110671081 0.51842579664 0.85495184322 -0.017089153149 0.56515694171 0.82467654187 -0.02249961148 
0.61677442713 0.78662812927 -0.028381195741 0.66968860234 0.74184807894 -0.034330797669 0.72195684041 0.6907728863 -0.04013901016 
0.77300798706 0.63274435478 -0.045751868024 0.81888164599 0.57171526668 -0.050739567431 0.85935925242 0.50839751528 -0.055078505216 
0.89293318084 0.44635841465 -0.058604609316 0.92049924367 0.3858884598 -0.061410414367 0.94185287554 0.32997512879 -0.06347893521 
0.95806340332 0.27910368797 -0.06492801074 0.97010864586 0.23356012877 -0.06587018654 0.97898498359 0.19281346678 -0.066418137115 
0.98519441248 0.15795424949 -0.066651516772 0.98951797702 0.12810255583 -0.066662645834 0.99264084909 0.10119526443 -0.066510624485 
0.99465306528 0.079214088538 -0.066260153187 0.9960584176 0.05934294151 -0.065924532843 0.99690191618 0.043438267821 -0.06557199413 
0.99742267218 0.029939126681 -0.065204767534 0.99773591557 0.017929353015 -0.064819604135 0.9978735155 0.0093577642486 -0.064504878237 
0.9979256547 0.0036805170479 -0.064271622633 0.99794338302 -8.3418454437e-05 -0.064101461216 0.99794372147 -0.00019584108227 -0.064095946971 
0.9979382981 0.0012004783871 -0.064169401151 0.99791085953 0.0052239730919 -0.064394305229 0.99781613322 0.012644847753 -0.064831104489 
0.99755904046 0.024105820979 -0.065535259089 0.99697815736 0.040069761076 -0.066550492132 0.99598757291 0.05846583814 -0.067753231511 
0.99424040666 0.081746114674 -0.069307910781 0.99195050812 0.104928477 -0.070881620696 0.98787615322 0.13696808791 -0.073078374332 
0.98294246486 0.16783476974 -0.0752037289 0.97627672217 0.20215511399 -0.077569785535 0.96901288842 0.23378253249 -0.079748038109 
0.95974978717 0.26857743447 -0.082137127605 0.9504511803 0.29924442425 -0.084233772481 0.9411258126 0.32690283556 -0.086120502588 
0.93117499242 0.35380431462 -0.087952489773 0.92437174241 0.37093676352 -0.089122383839 0.91808392381 0.38599645317 -0.090159009441 
0.91341480883 0.3967484024 -0.090907052524 0.91163824791 0.40074945084 -0.091189816329 0.9096171027 0.40524321183 -0.09151319978 
0.90843901319 0.40783466374 -0.091703033558 0.90931718773 0.4059054417 -0.091558858147 0.90807685143 0.4086262674 -0.091766036656 
0.90287678505 0.41980209517 -0.092626734276 0.89764247949 0.43069835816 -0.093471403622 0.88298912159 0.45953430708 -0.095699695726 
0.86271121336 0.49601726336 -0.098469471392 0.82523917934 0.55534845269 -0.10280268952 0.76886487273 0.63024534846 -0.10787774664 
0.68273848471 0.72182702476 -0.1132868387 0.54515440726 0.82999676037 -0.11794935367 0.37246276015 0.92038293521 -0.11902413571 
0.18007498449 0.97684223429 -0.11555193317 -0.010200903674 0.9940932431 -0.1080489037 -0.1681477181 0.98078509092 -0.098929016624 
-0.29313866649 0.95184194465 -0.089814445501 -0.38410714032 0.91963455288 -0.082060915782 -0.45215197721 0.8887309646 -0.075603320496 
-0.50149965503 0.86227643543 -0.070551009311 -0.5379722501 0.8403262138 -0.066616158151 -0.56771589995 0.82078848732 -0.063284405793 
-0.58672816855 0.80747531695 -0.061103753913 -0.60348865729 0.79517415495 -0.059156604274 -0.61634164513 0.78536562664 -0.057652484544 
-0.62549718014 0.77817215634 -0.056580674558 -0.63210184885 0.77287275897 -0.055811747159 -0.63758967571 0.76839750346 -0.055178638085 
-0.63912538211 0.76713317956 -0.055003915961 -0.64255671684 0.76428892547 -0.054619630617 -0.64257344538 0.76427499271 -0.054617788459 
-0.64138031365 0.76526735015 -0.05474647078 -0.64036560014 0.76610898534 -0.054853630213 -0.63381923045 0.77148549086 -0.055527655319 
-0.63000183119 0.77457842501 -0.055910251361 -0.62026671694 0.78232750519 -0.056858372068 -0.61075862248 0.78970774765 -0.057754466219 
-0.59095604413 0.80450310671 -0.059545824402 -0.56898924191 0.82004705447 -0.061433468446 -0.53262037906 0.84390351743 -0.064361363257 
-0.48193736744 0.87355615486 -0.068088311496 -0.39341857042 0.91639618733 -0.073755381461 -0.25990217758 0.96226673207 -0.080582842054 
-0.047767328847 0.99499263758 -0.087794837317 0.2019060123 0.97516519787 -0.091031857427 0.42667070182 0.90003719921 -0.08879837972 
0.5375339694 0.83889347584 -0.085527585816 0.5706455952 0.8168675765 -0.084207880501 0.51991357137 0.84986114998 -0.086173685477 
0.41779540341 0.90416438488 -0.08907169022 0.31984335697 0.94311900398 -0.090701550913 0.21173394873 0.97304758756 -0.091362614375 
0.11777714261 0.98885650987 -0.091056836995 0.04694614942 0.99480543056 -0.090322834251 -0.013109873321 0.99591125625 -0.089380651708 
-0.056964394547 0.99444434857 -0.088518333364 -0.09240821826 0.99184937401 -0.08772422967 -0.11765405632 0.9892263167 -0.087113818527 
-0.13887125591 0.98651846796 -0.086579943763 -0.15285357411 0.98448019501 -0.086223723675 -0.16304176266 0.9828666823 -0.085967833875 
-0.17198048491 0.98136110991 -0.085750129838 -0.17757621124 0.98037537489 -0.08562017001 -0.18047499194 0.97985137322 -0.085557370732 
-0.18311645089 0.97936574494 -0.085504988453 -0.18238795188 0.97950054871 -0.085517893335 -0.1820000888 0.97957217098 -0.085523853476 
-0.18005652093 0.9799290962 -0.085548908184 -0.17692692835 0.98049618055 -0.08558096723 -0.17280760444 0.9812278813 -0.085611779553 
-0.16773461803 0.98210574793 -0.085635260221 -0.16201437439 0.98306472362 -0.085645149648 -0.15574231949 0.98407850549 -0.085637754188 
-0.14914024688 0.98510302835 -0.085610807072 -0.14142245057 0.98624525283 -0.085556950336 -0.13312685724 0.98740633736 -0.085474936793 
-0.12429933324 0.98856611715 -0.085362215154 -0.11671834275 0.98949999548 -0.085244280868 -0.10761067051 0.99054617558 -0.085077715285 
-0.098553135414 0.99150463138 -0.084887251408 -0.09175273247 0.99217077139 -0.084726598497 -0.083539100177 0.99291438034 -0.084511845628 
-0.076573719448 0.9934927798 -0.084312288365 -0.06923103145 0.99405077579 -0.084084002276 -0.06294137705 0.99448662907 -0.083873283286 
-0.058642091414 0.99476236325 -0.083719446833 -0.052211981248 0.99514114642 -0.08347459324 -0.047316953648 0.99540247657 -0.083276740722 
-0.042479390458 0.9956379162 -0.083070098143 -0.037671716883 0.99584944992 -0.082853574743 -0.030954777097 0.99610732735 -0.082534805824 
-0.027797777881 0.99621345297 -0.082377422022 -0.020672106041 0.99641752375 -0.082004770581 -0.015340061743 0.99653790455 -0.081712222432 
-0.0052829018341 0.99668927073 -0.081133153216 -0.00091092529524 0.99672427895 -0.080869536762 0.0081572165263 0.99673749496 -0.080298355877 
0.015442363778 0.99668977239 -0.079818738435 0.018427937518 0.99665538739 -0.079614382551 0.025310630831 0.99654329988 -0.079125365256 
0.025492215578 0.99653973183 -0.079112008101 0.026480767707 0.99651990113 -0.079037052062 0.021569367139 0.99660789181 -0.079419596951 
0.0087187784582 0.99672134676 -0.080439665623 -0.011347787949 0.99656362426 -0.082049805005 -0.03472490906 0.9958659507 -0.083935623709 
-0.07370563349 0.99347211502 -0.087066849425 -0.11619812889 0.98910063887 -0.090431858505 -0.16364665395 0.9820190431 -0.094118922899 
-0.21923154764 0.97070587716 -0.09832409965 -0.27743264175 0.95525334668 -0.10257764353 -0.33749640707 0.93524901347 -0.106796339 
-0.38436329111 0.91660814625 -0.10997439103 -0.43356828578 0.89398053775 -0.11321369037 -0.47608617334 0.87172295664 -0.11593550978 
-0.50995943582 0.85205696972 -0.11806902293 -0.54083231903 0.83252615686 -0.12000250347 -0.56431552798 0.8165724559 -0.12148007714 
-0.58410471666 0.80234354697 -0.12274572338 -0.60207530713 0.7887642586 -0.12392041358 -0.60968195303 0.7828179784 -0.12443443595 
-0.6244620482 0.7709117272 -0.12546816018 -0.63095493596 0.7655296806 -0.12593719429 -0.63555620589 0.76165681138 -0.1262822665 
-0.6464360805 0.75230347549 -0.12712149537 -0.64384304325 0.75455849968 -0.12691574458 -0.65321698645 0.74632848408 -0.12767678904 
-0.64833254365 0.75064400566 -0.12727328707 -0.64833254365 0.75064400566 -0.12727328707 
