# vtk DataFile Version 4.1
vtk output
ASCII
DATASET POLYDATA
POINTS 250 float
1.52809 -1.28319 159.939 1.83306 -1.42522 158.278 2.13797 -1.56671 156.617 
2.44265 -1.70609 154.951 2.74693 -1.84176 153.277 3.0506 -1.97222 151.592 
3.35348 -2.096 149.893 3.65534 -2.21176 148.178 3.95592 -2.31827 146.444 
4.25494 -2.41446 144.69 4.55209 -2.49941 142.915 4.847 -2.57237 141.118 
5.1393 -2.63277 139.3 5.42855 -2.68023 137.46 5.71429 -2.71453 135.6 
5.99602 -2.73564 133.722 6.27323 -2.74368 131.828 6.54535 -2.7389 129.919 
6.81183 -2.7217 128 7.07209 -2.69257 126.073 7.32555 -2.65208 124.141 
7.57163 -2.60085 122.206 7.80978 -2.53956 120.273 8.03946 -2.46888 118.344 
8.26015 -2.38948 116.422 8.47139 -2.30201 114.508 8.67275 -2.20706 112.606 
8.86386 -2.10517 110.716 9.0444 -1.99679 108.839 9.21412 -1.88233 106.977 
9.37283 -1.76207 105.129 9.5204 -1.63621 103.296 9.65677 -1.50488 101.475 
9.78194 -1.36809 99.6672 9.89596 -1.22578 97.8693 9.99896 -1.0778 96.0797 
10.0911 -0.923937 94.296 10.1726 -0.7639 92.5155 10.2436 -0.597353 90.7351 
10.3045 -0.423915 88.9518 10.3554 -0.243178 87.1624 10.3968 -0.0547153 85.3635 
10.4288 0.141899 83.552 10.4518 0.347081 81.7247 10.466 0.561216 79.8787 
10.4716 0.784654 78.0112 10.4689 1.01769 76.1199 10.458 1.26054 74.2029 
10.4392 1.51337 72.2584 10.4125 1.77624 70.2856 10.3782 2.04911 68.2839 
10.3362 2.33186 66.2532 10.2867 2.62427 64.1942 10.2298 2.92598 62.1081 
10.1656 3.23657 59.9966 10.094 3.55551 57.8619 10.0153 3.88217 55.7068 
9.92948 4.21586 53.5346 9.83671 4.5558 51.3487 9.7371 4.90117 49.1531 
9.63083 5.25112 46.9517 9.51809 5.60476 44.7488 9.39906 5.9612 42.5484 
9.274 6.31956 40.3548 9.14313 6.67898 38.1716 9.00672 7.03866 36.0026 
8.86504 7.39784 33.851 8.71836 7.75581 31.7196 8.56695 8.11196 29.6107 
8.41108 8.46572 27.5262 8.251 8.81664 25.4674 8.08696 9.16431 23.4352 
7.9192 9.50842 21.43 7.74794 9.8487 19.4517 7.57337 10.185 17.4998 
7.39569 10.5171 15.5737 7.21509 10.8449 13.6723 7.03175 11.1684 11.7944 
6.84585 11.4874 9.93907 6.65757 11.802 8.10495 6.46712 12.1121 6.291 
6.2747 12.4176 4.49626 6.08055 12.7184 2.71997 5.88491 13.0144 0.961577 
5.68806 13.3056 -0.779223 5.49031 13.5918 -2.50252 5.29195 13.8729 -4.20816 
5.09334 14.1488 -5.89583 4.89483 14.4192 -7.56503 4.69676 14.6842 -9.21518 
4.4995 14.9435 -10.8456 4.3034 15.1971 -12.4556 4.1088 15.4448 -14.0447 
3.91603 15.6867 -15.6122 3.72538 15.9227 -17.1578 3.53711 16.1528 -18.6813 
3.35143 16.3771 -20.1825 3.16855 16.5956 -21.6618 2.98858 16.8084 -23.1193 
2.81164 17.0156 -24.5556 2.63777 17.2173 -25.9714 2.46699 17.4137 -27.3676 
2.29928 17.605 -28.7452 2.13458 17.7911 -30.105 1.97282 17.9723 -31.4483 
1.8139 18.1487 -32.7759 1.65772 18.3203 -34.0889 1.50415 18.4872 -35.3883 
1.35309 18.6494 -36.6749 1.20442 18.8069 -37.9492 1.05804 18.9598 -39.212 
0.913883 19.1079 -40.4637 0.771866 19.2513 -41.7045 0.631945 19.3898 -42.9346 
0.494091 19.5235 -44.1543 0.358297 19.6521 -45.3634 0.224573 19.7757 -46.562 
0.0929502 19.8942 -47.75 -0.0365267 20.0077 -48.9275 -0.163797 20.116 -50.0946 
-0.288788 20.2193 -51.2512 -0.411418 20.3175 -52.3976 -0.5316 20.4109 -53.5341 
-0.649239 20.4995 -54.6612 -0.764241 20.5835 -55.7793 -0.876511 20.6631 -56.8891 
-0.985954 20.7386 -57.9914 -1.09248 20.8101 -59.0869 -1.196 20.8778 -60.1766 
-1.29644 20.9422 -61.2614 -1.39373 21.0033 -62.3423 -1.48778 21.0615 -63.4202 
-1.57855 21.117 -64.4959 -1.66599 21.1699 -65.5706 -1.75004 21.2205 -66.6448 
-1.83066 21.2688 -67.7194 -1.90784 21.315 -68.7949 -1.98154 21.3592 -69.872 
-2.05174 21.4014 -70.9511 -2.11843 21.4415 -72.0326 -2.1816 21.4797 -73.1167 
-2.24124 21.5157 -74.2037 -2.29734 21.5496 -75.2937 -2.3499 21.5812 -76.3868 
-2.3989 21.6104 -77.4832 -2.44431 21.637 -78.583 -2.48612 21.661 -79.6863 
-2.52428 21.6822 -80.7932 -2.55875 21.7005 -81.904 -2.58945 21.7158 -83.019 
-2.61629 21.728 -84.1384 -2.63919 21.737 -85.2627 -2.65801 21.7428 -86.3923 
-2.67261 21.7453 -87.5277 -2.68284 21.7445 -88.6696 -2.6885 21.7405 -89.8186 
-2.68941 21.7333 -90.9753 -2.68536 21.7229 -92.1405 -2.67614 21.7094 -93.3148 
-2.66154 21.693 -94.499 -2.64133 21.6736 -95.6936 -2.61532 21.6514 -96.8994 
-2.58333 21.6264 -98.1169 -2.54518 21.5989 -99.3465 -2.50075 21.5687 -100.589 
-2.44993 21.536 -101.844 -2.39267 21.5008 -103.111 -2.32894 21.4632 -104.392 
-2.25878 21.4231 -105.685 -2.18226 21.3805 -106.991 -2.09952 21.3353 -108.308 
-2.01073 21.2876 -109.637 -1.9161 21.2372 -110.976 -1.8159 21.184 -112.325 
-1.71041 21.1279 -113.681 -1.59995 21.0689 -115.045 -1.48487 21.0068 -116.415 
-1.36552 20.9416 -117.789 -1.24225 20.8732 -119.167 -1.11542 20.8015 -120.546 
-0.985378 20.7264 -121.925 -0.852453 20.6481 -123.303 -0.71695 20.5664 -124.679 
-0.579152 20.4815 -126.051 -0.439307 20.3933 -127.418 -0.297635 20.3019 -128.779 
-0.154323 20.2075 -130.134 -0.00952437 20.1102 -131.481 0.136638 20.0101 -132.82 
0.284069 19.9073 -134.15 0.432698 19.802 -135.471 0.582478 19.6944 -136.783 
0.733376 19.5847 -138.085 0.885374 19.4729 -139.378 1.03846 19.3594 -140.66 
1.19264 19.2441 -141.933 1.34789 19.1274 -143.196 1.50421 19.0093 -144.448 
1.6616 18.89 -145.691 1.82004 18.7697 -146.922 1.97949 18.6485 -148.144 
2.13993 18.5264 -149.354 2.30132 18.4037 -150.552 2.4636 18.2805 -151.738 
2.62673 18.1568 -152.912 2.79066 18.0327 -154.073 2.95533 17.9084 -155.22 
3.12067 17.7838 -156.352 3.28666 17.659 -157.47 3.45323 17.5341 -158.572 
3.62037 17.409 -159.657 3.78805 17.2836 -160.727 3.95627 17.158 -161.779 
4.12503 17.0321 -162.814 4.29437 16.9057 -163.831 4.46435 16.7788 -164.831 
4.63503 16.6511 -165.813 4.80651 16.5225 -166.778 4.97891 16.3929 -167.726 
5.15238 16.2619 -168.657 5.3271 16.1295 -169.572 5.50327 15.9953 -170.47 
5.68111 15.8592 -171.354 5.86088 15.7209 -172.222 6.04287 15.5803 -173.077 
6.22739 15.4372 -173.918 6.41476 15.2914 -174.747 6.60533 15.1427 -175.563 
6.79949 14.9911 -176.369 6.99759 14.8364 -177.163 7.20003 14.6787 -177.948 
7.40717 14.5179 -178.724 7.61937 14.354 -179.492 7.83699 14.1871 -180.252 
8.06032 14.0172 -181.006 8.28963 13.8446 -181.753 8.52512 13.6692 -182.494 
8.76694 13.4913 -183.23 9.01517 13.3111 -183.962 9.2698 13.1288 -184.69 
9.53074 12.9446 -185.414 9.79779 12.7586 -186.135 10.0707 12.5712 -186.854 
10.349 12.3825 -187.57 10.6324 12.1927 -188.284 10.9201 12.002 -188.997 
11.2117 11.8106 -189.708 11.5063 11.6187 -190.418 11.8032 11.4265 -191.128 
12.1016 11.234 -191.837 
LINES 1 251
250 249 248 247 246 245 244 243 242 241 240 239 238 237 236 235 234 233 232 231 230 229 228 227 226 225 224 223 222 221 220 219 218 217 216 215 214 213 212 211 210 209 208 207 206 205 204 203 202 201 200 199 198 197 196 195 194 193 192 191 190 189 188 187 186 185 184 183 182 181 180 179 178 177 176 175 174 173 172 171 170 169 168 167 166 165 164 163 162 161 160 159 158 157 156 155 154 153 152 151 150 149 148 147 146 145 144 143 142 141 140 139 138 137 136 135 134 133 132 131 130 129 128 127 126 125 124 123 122 121 120 119 118 117 116 115 114 113 112 111 110 109 108 107 106 105 104 103 102 101 100 99 98 97 96 95 94 93 92 91 90 89 88 87 86 85 84 83 82 81 80 79 78 77 76 75 74 73 72 71 70 69 68 67 66 65 64 63 62 61 60 59 58 57 56 55 54 53 52 51 50 49 48 47 46 45 44 43 42 41 40 39 38 37 36 35 34 33 32 31 30 29 28 27 26 25 24 23 22 21 20 19 18 17 16 15 14 13 12 11 10 9 8 7 6 5 4 3 2 1 0 

CELL_DATA 1
FIELD FieldData 2
LengthArray 1 1 double
357.05506656 
TortuosityArray 1 1 double
0.013908933208 
POINT_DATA 250
FIELD FieldData 8
RadiusArray 1 250 double
77.079996894 77.121024346 77.121382147 77.210474614 79.693377392 79.6216206 79.546453431 79.385904552 78.758438746 
78.521109731 78.044596379 77.713652659 77.486389251 77.319734567 77.17555415 76.343689475 76.023643061 75.869605724 
75.144343181 75.036895409 74.466567064 74.455830835 73.959879069 73.316091068 73.201341753 72.724063629 72.418501967 
72.226977096 71.567157612 71.477996642 70.97607046 70.882171681 70.538844713 69.93777334 69.910776529 69.49593639 
69.480201464 69.440215488 68.679207967 68.661292785 68.152082914 68.146209968 67.436539974 67.30647341 67.112741572 
67.094597592 66.547988933 66.144524224 66.070195846 65.117836157 65.113782262 64.451952048 64.059508813 64.056398408 
63.760171145 63.201029954 62.451102563 61.96628617 61.579329573 60.846913024 60.312618963 59.415799064 58.637436581 
58.533371878 58.335200212 57.896149953 57.855806455 57.71860429 57.273313165 57.185003165 57.073551623 57.010668626 
56.979734373 56.952538589 56.525814665 56.444765343 56.429271247 56.187630391 56.165316994 55.953388913 55.943233774 
55.937378627 55.76830976 55.668918651 55.633579204 55.614629331 55.612289469 55.629983106 55.640079904 55.673860474 
55.685108598 55.752224291 55.76582903 55.918586519 55.954448335 56.001151177 56.043239128 56.069902811 56.096854175 
56.266579108 56.29488071 56.296800469 56.307989024 56.377203461 56.449184052 56.539071534 56.759532472 56.772612177 
57.025949065 57.118608289 57.247405293 57.298248553 57.324850597 57.638515573 57.683224473 57.895976836 57.984916337 
58.175167924 58.21784462 58.339476545 58.470183888 58.53434149 58.5508496 58.689918112 58.807696258 58.869085235 
58.874217592 59.011988177 59.074371614 59.087344216 59.252220091 59.257749427 59.422354143 59.426036152 59.577730915 
59.601976818 59.678911462 59.80331318 60.041217198 60.121078621 60.168227117 60.181782529 60.182540854 60.332091039 
60.339937019 60.381164913 60.453305082 60.532958223 60.536511263 60.575638176 60.648784954 60.708647411 60.711223774 
60.724928696 60.727341241 60.728214012 60.750653052 60.777064588 60.782610793 60.782085384 60.780344287 60.744715851 
60.718549278 60.711028607 60.710032832 60.690544793 60.679938587 60.661984986 60.605599106 60.566123739 60.475243336 
60.390300577 60.242006054 59.968414508 59.922090702 59.63522205 59.524051632 59.406057233 59.29406271 59.106350125 
58.987205495 58.727644283 58.583915613 58.463027554 58.084051905 58.066147627 57.472217701 57.456319233 56.839099072 
56.831399619 56.64708253 56.627756155 56.462956994 56.420549542 56.334350723 56.210696658 55.709848801 55.583329415 
55.543094258 54.964883748 54.721769735 54.345179344 53.599824338 53.338830524 53.236747236 53.022762108 52.625652521 
52.255394358 51.939899234 51.844111045 51.746442884 51.316267192 51.289531382 51.120576496 50.892599602 50.835497726 
50.494113421 50.119758179 49.482619993 48.774346327 48.66560723 48.377416358 48.053352844 47.693624805 47.623334727 
47.599310999 47.420372312 47.071694282 46.743505868 46.345419224 46.191699388 46.162863896 45.553080982 44.978864099 
44.690637432 44.650258822 44.413442408 43.539764725 42.713824602 42.711851366 41.666488453 41.204475093 41.204339538 
41.170586209 40.08970201 40.065750328 39.192001695 38.761623143 37.620200191 37.426095707 
EdgeArray 2 250 int
20060 20060 21776 21776 14876 21776 14876 14876 17370 
22639 17559 22637 21468 17559 23785 23784 23787 23787 
23500 19804 25657 23501 23501 24489 24489 24489 21016 
21016 25093 25092 25090 25090 24496 24496 25414 25414 
25677 25677 24609 24609 22495 25722 22495 21394 22838 
22838 18908 18908 25411 25411 25412 25410 22874 22874 
26990 25194 15690 26973 15690 26976 20908 20908 26092 
26092 25135 25135 26377 26379 26380 26379 26376 26376 
20174 20174 25422 22136 25420 25420 26097 25127 26368 
26368 25125 26367 25123 25124 22508 25124 24773 22508 
24773 26391 19813 19813 22667 22667 24161 24161 22464 
22464 18909 21725 25145 24833 24835 26025 26998 26025 
26634 26910 26629 26629 26051 26051 26409 26409 22138 
22138 26656 26656 26927 26927 26925 26925 25448 25448 
27251 25732 26699 27258 26644 16051 16051 23251 27262 
27262 27264 27261 27254 27261 27254 27254 26029 26304 
26642 20582 25692 20582 26318 27964 26668 22466 24566 
22466 24187 27290 28556 28555 26037 24691 19760 24691 
19760 29518 26924 26924 26934 26934 29531 7621 28858 
28858 27978 29882 26638 25686 29203 26638 15747 15747 
27602 27602 28589 20501 28860 28860 28862 28862 24689 
29209 21235 27702 27990 26691 27990 28021 28021 28035 
24556 27610 27610 28265 28265 28265 26153 25814 25814 
25798 27697 25798 27697 27697 26305 26305 26059 27384 
27384 27384 20625 20625 30436 30436 25779 24221 25779 
25065 18447 18447 22749 15654 29323 19286 29178 26730 
27971 11760 30433 24146 30874 30874 31402 21045 21045 
31400 28585 31400 28584 31401 28584 28584 26442 26442 
30247 30247 30252 24236 32945 31407 28583 32937 31988 
32938 31988 32935 32936 32507 13306 32507 32779 32779 
32778 13235 32302 13235 33189 33189 33603 33603 32776 
33182 32776 26311 34014 34014 34021 34021 34023 34606 
34444 34023 34442 34024 32628 32628 33609 33609 28969 
34820 25492 17376 30359 34603 32129 34694 33914 34694 
34240 33914 35643 35642 35642 35055 35321 35321 36296 
36296 36295 34455 32128 33704 33704 35854 35477 35477 
33518 36201 36201 33606 33606 32363 36519 36570 37066 
36340 36342 36342 38030 36149 36149 37905 38031 38031 
37274 37274 36476 36476 38986 38986 39154 39154 39425 
39425 36860 38657 37909 38494 39725 37167 40091 40091 
39114 40089 37709 37709 36007 36007 41046 41046 41338 
41338 41863 40907 39873 40657 41701 39873 41683 42542 
42542 40651 40602 42389 40602 39875 39875 39875 40487 
40487 42795 42643 42679 42643 42679 40455 42410 40455 
43473 42410 43036 43036 44022 44022 44363 44363 44494 
44494 44034 44222 41417 44222 42977 42728 43971 42728 
43971 44763 43086 43619 44717 43086 44717 43980 46332 
43945 46332 44320 46619 46337 43560 46337 44433 43560 
43699 43699 46438 46438 45286 45286 47687 48191 48191 
47028 48198 48198 49220 49220 48869 48869 49566 48396 
49566 47402 47402 49965 50319 50314 50322 50319 50326 
50326 50344 51301 51299 51301 51297 51297 51022 51022 
47514 51569 52088 51569 52088 52088 52751 52751 52941 
52941 53251 53130 53047 53047 53375 53375 52812 53375 
52812 52812 53140 53140 53222 52953 53395 53395 53483 
53483 53488 53488 53527 53527 
EdgePCoordArray 1 250 double
0 0 0.996 0 0.008 0.604 0.648 0.5 0 
0.924 0.872 0.564 0 0 0.86 0 0 0 
0 0 0.008 0.028 0 0 0 0.6 0 
0.892 0.332 0.46 0 0 0 0.936 0.904 0 
0 0.972 0 0.116 0 0.992 0.32 0.304 0.092 
0.016 0 0 0 0 0.988 0.992 0.992 0.992 
0.528 0 0 0 0 0 0 0 0 
0.992 0.06 0.756 0.38 0 0.944 0.588 0 0.012 
0.452 0.628 0.2 0.916 0.932 0.932 0.204 0.908 0.38 
0.024 0 0 0.808 0 0.328 0.204 0.464 0 
0 0.964 0 0 0.956 0.344 0.396 0.672 0.12 
0.912 0.936 0 0.032 0.82 0.624 0 0 0.048 
0 0 0 0.024 0.08 0 0.068 0.564 0.64 
0.496 0.876 0 0.808 0.82 0.984 0.504 0 0 
0 0.72 0.78 0.24 0.124 0.128 0.972 0.968 0 
0.036 0.2 0 0 0.116 0.864 0 0 0.036 
0.944 0.772 0 0 0.9 0.224 0.58 0.94 0.884 
0.984 0.968 0.032 0 0 0.068 0.544 0.296 0 
0.88 0.856 0.004 0.992 0.008 0 0.852 0.576 0 
0 0 0 0 0 0.504 0.552 0.256 0 
0.092 0 0 0 0 0.064 0.448 0.392 0.988 
0.036 0.076 0.156 0 0 0.5 0.724 0.784 0.388 
0.748 0 0 0 0 0.908 0.672 0.28 0.412 
0.564 0.316 0.368 0.084 0.148 0.2 0.428 0.2 0.78 
0 0 0 0.84 0.292 0 0 0 0.06 
0.14 0.216 0.852 0.012 0 0.832 0.744 0 0 
0.98 0.876 0 0 0 0.996 0 0 0.996 
0 0 0.38 0 0 0 0 
CurvatureArray 1 250 double
0 0.00023401124119 0.00093383521697 0.0016073595845 0.002235098487 0.0027955878046 0.0032751989422 0.0036661074436 0.0039662333618 
0.0041748076511 0.0043031202255 0.004357559245 0.0043513333569 0.004297217132 0.0042052762689 0.0040894965285 0.0039583914396 0.0038214542692 
0.0036867580682 0.0035599668245 0.0034468026592 0.0033516626065 0.0032774007557 0.0032264066115 0.0031998054045 0.0031976900073 0.003218773744 
0.0032607195393 0.0033204425709 0.0033939991188 0.003475895068 0.0035611700585 0.0036442325032 0.003718767515 0.0037802641097 0.0038232332376 
0.0038439535541 0.0038397887034 0.0038088205024 0.0037511673415 0.0036679687355 0.0035619399786 0.0034356749602 0.0032938198108 0.0031405327409 
0.0029804718461 0.0028173715635 0.0026555742414 0.002498299494 0.0023481656922 0.0022071465492 0.0020774253032 0.0019597887102 0.0018541647805 
0.0017615750781 0.0016817592466 0.0016135847945 0.0015570333413 0.0015110919747 0.001475013081 0.0014479456174 0.0014282364049 0.0014155194805 
0.0014084983054 0.0014060062903 0.001407101316 0.0014100286262 0.0014144505226 0.0014184779904 0.001421686651 0.0014227807053 0.0014204926855 
0.0014142743544 0.0014043722424 0.001390000223 0.0013713371879 0.001349562179 0.0013248436072 0.001297807025 0.0012705667717 0.001242547395 
0.0012156093014 0.0011893136452 0.0011649311661 0.0011412550375 0.0011196803347 0.0010990340564 0.0010800948094 0.0010622302772 0.0010473037219 
0.0010341716633 0.0010255716145 0.0010215827389 0.0010230256424 0.0010323544812 0.0010502967227 0.0010774774758 0.0011125904077 0.0011578947597 
0.0012108589584 0.0012717175833 0.0013386223226 0.0014094285112 0.0014875260269 0.0015677910243 0.0016520421177 0.0017406933843 0.0018337784856 
0.0019308273299 0.0020317999486 0.0021384704793 0.0022477128314 0.002359765814 0.0024727759645 0.0025864679682 0.0026966583865 0.0028063944441 
0.0029054584654 0.0030003901182 0.0030856806401 0.0031577513703 0.0032207106487 0.0032706510619 0.0033086978619 0.0033385988833 0.0033593126928 
0.003377529736 0.0033911171382 0.00340421917 0.003419926293 0.0034366211314 0.003456764659 0.0034767613503 0.0034979809721 0.0035183965206 
0.0035378337652 0.0035541211314 0.0035689744805 0.0035830241406 0.0036009656217 0.0036185240275 0.0036446322861 0.0036746728539 0.0037130060284 
0.0037584210727 0.0038128662158 0.003871152641 0.0039334001387 0.0039952986438 0.0040580576908 0.0041181072677 0.0041718513016 0.0042195198597 
0.004259390539 0.004291905781 0.0043139486375 0.0043293398164 0.0043335089274 0.0043271507567 0.0043115029048 0.0042814795472 0.0042409013449 
0.0041840206732 0.0041136572684 0.0040268866539 0.0039267242189 0.0038120029992 0.0036867221387 0.0035515060608 0.0034110389833 0.0032681366877 
0.0031267301359 0.002989151739 0.0028615511217 0.0027446873726 0.0026411007503 0.002552416787 0.002478757417 0.0024196047984 0.0023740972006 
0.0023377663381 0.0023121168779 0.0022917014229 0.0022729384045 0.0022581085401 0.0022423940838 0.0022240737337 0.0022023154317 0.0021815010907 
0.0021561751519 0.0021289649125 0.0021041971998 0.0020757218629 0.0020486226874 0.0020248377525 0.0020069009265 0.0019930209205 0.001984976361 
0.0019847767771 0.0019928159903 0.0020150877363 0.0020441463985 0.0020911726854 0.0021473457419 0.0022236740598 0.002314347083 0.0024232936224 
0.0025539259982 0.002709410983 0.0028833773764 0.0030849186313 0.0033099438081 0.0035703711741 0.0038552548005 0.0041781787285 0.0045262453488 
0.0049161778308 0.0053322020394 0.0057906404943 0.0062671909969 0.0067787843586 0.0073213901392 0.0078705840067 0.0084434496566 0.0090228241978 
0.0095880286446 0.010154397873 0.010699624669 0.011213720868 0.011672592668 0.012098184362 0.012451875992 0.012723334492 0.012922243313 
0.013020908487 0.013030578458 0.012915544598 0.012674994582 0.012340659848 0.011859065121 0.011254503277 0.010544312876 0.0096830334747 
0.0087175908854 0.0076439035326 0.0064579618013 0.0052037569538 0.003833835366 0.0024400194792 0 
TorsionArray 1 250 double
0 0 -0.00016009765938 -0.00054799607887 -0.00086398413873 -0.0011407130953 -0.0015946676524 -0.0021781191033 -0.0025991097445 
-0.0032111257313 -0.003972716315 -0.0047308386479 -0.0057708209801 -0.0068191672881 -0.0080690101464 -0.0095769436365 -0.011141888272 -0.012935951946 
-0.014775759505 -0.01661535545 -0.018473601819 -0.020084089152 -0.021333497399 -0.022113058605 -0.022272104688 -0.021757289135 -0.020557597203 
-0.018682173233 -0.016392319265 -0.013752108212 -0.010850701831 -0.0079816934752 -0.0051183002896 -0.0024125167725 9.9539611719e-05 0.0023255165315 
0.0042574992113 0.0058705418169 0.0071380913098 0.0081229646823 0.0086585929337 0.0088205524846 0.0086664271804 0.0081961378115 0.0073113526843 
0.0061218504924 0.0047460072765 0.0031350713888 0.0012997467104 -0.00060532958033 -0.0024964173217 -0.0043657611997 -0.0061584792565 -0.0077739167955 
-0.0091435444353 -0.010342082985 -0.011226484672 -0.011826692661 -0.012224477072 -0.012424285056 -0.012386197134 -0.012357647349 -0.012280897683 
-0.012138090465 -0.012135654356 -0.01226242654 -0.012578664853 -0.013088187537 -0.013826386413 -0.014902685896 -0.016179405996 -0.017734248724 
-0.019660048476 -0.021825033938 -0.024104688701 -0.026556781355 -0.02923467291 -0.031782301831 -0.034221368199 -0.036302483721 -0.038249781346 
-0.039818707856 -0.040961924167 -0.041888455111 -0.042539537766 -0.04325148396 -0.044008142935 -0.044780043101 -0.046074740095 -0.047706030904 
-0.049420242757 -0.051237183771 -0.052971902499 -0.054134721562 -0.054335394731 -0.053215623828 -0.050679115778 -0.046633858869 -0.041094987608 
-0.034742269631 -0.0276562527 -0.020609016715 -0.013388297307 -0.0066910087781 -0.0010204607371 0.0041175383719 0.0080836366458 0.010821833816 
0.012465509105 0.012985287288 0.012465360409 0.01103584676 0.0087135366406 0.005818403388 0.0023367737556 -0.0014849595259 -0.0057531403298 
-0.010353606356 -0.015010012889 -0.020069331488 -0.025227294666 -0.030513077601 -0.035944506432 -0.041114784131 -0.045915919171 -0.050101195201 
-0.053400729097 -0.055754619277 -0.056321198702 -0.055242222464 -0.052502474711 -0.048243096322 -0.042585562043 -0.035651781317 -0.028077220244 
-0.020380202361 -0.012856486719 -0.0055547194749 0.0016695736822 0.0074416727221 0.012275659891 0.015975244107 0.017892894942 0.018803293652 
0.018454293057 0.016672443635 0.0134531905 0.0096167156792 0.0053909586222 0.00084879595953 -0.0040595734955 -0.0088942125541 -0.013318604598 
-0.017164697625 -0.020649799768 -0.023176611174 -0.024828955277 -0.025874956692 -0.025599558024 -0.024735950535 -0.022826378628 -0.020167866695 
-0.017119339474 -0.013542694527 -0.0095400957556 -0.0050489033343 -0.00041864890531 0.0042372609617 0.0090439416681 0.014215596062 0.019087294126 
0.023625198927 0.02822668741 0.032234054675 0.035362138427 0.037716822764 0.038661963932 0.038567909332 0.037299849502 0.034665377175 
0.031027819291 0.026997709035 0.022156993679 0.017027345484 0.011896050247 0.0067194561304 0.0017557611211 -0.0028485758939 -0.0072695854874 
-0.011458423988 -0.014955871418 -0.018349282336 -0.020828786264 -0.02281416932 -0.024709887275 -0.025508068517 -0.025408503697 -0.025042788458 
-0.024559801881 -0.022713103579 -0.020184019162 -0.018109481722 -0.015027381278 -0.01162506573 -0.0084187670482 -0.0049278377855 -0.001028118842 
0.0024356313749 0.0055308251586 0.0082985345924 0.010723467858 0.013107863029 0.014640727128 0.015869600718 0.015874788366 0.015536703711 
0.014938383903 0.013145730499 0.010878237247 0.0082445374769 0.0048940910013 0.0012258326124 -0.0027757659651 -0.0070382863873 -0.011195466198 
-0.015547310265 -0.019787208431 -0.023751308119 -0.027366030291 -0.030514528551 -0.033423653805 -0.035760550351 -0.037226397181 -0.038490818727 
-0.038918876831 -0.038794857295 -0.03856016175 -0.037143660786 -0.035705787016 -0.034206082248 -0.031534687937 -0.029241621133 -0.027090406842 
-0.023803664145 -0.021082421702 -0.018041716681 -0.015147390961 -0.01335115362 0 0 
TangentArray 3 250 double
-0.1799323097 0.08364879123 0.98011593378 -0.1799323097 0.08364879123 0.98011593378 -0.17956943789 0.082737103824 0.98025985771 
-0.17877607864 0.080748735633 0.98057062744 -0.17756758285 0.077729818839 0.98103406097 -0.17596745537 0.073755422368 0.98162905026 
-0.17400862579 0.068926177991 0.98232895719 -0.17172836232 0.063360862789 0.98310465905 -0.16916598693 0.057189454177 0.98392694607 
-0.16636511817 0.050548148686 0.98476775542 -0.16336686359 0.043570838781 0.98560278505 -0.16020821625 0.036384135103 0.98641245033 
-0.15692372836 0.02910416419 0.98718179233 -0.15353957088 0.02183231496 0.98790128565 -0.1500782077 0.014655008471 0.98856550734 
-0.14655474876 0.0076423952507 0.98917303815 -0.14297654524 0.00084902892383 0.98972571284 -0.1393468798 -0.0056849073926 0.99022731174 
-0.13566223077 -0.011932620676 0.99068328527 -0.13191543723 -0.01787908653 0.99109972035 -0.12809608375 -0.023519337879 0.99148284608 
-0.12418970454 -0.028856792682 0.9918387988 -0.12018063068 -0.033902198691 0.99217299748 -0.11605257375 -0.03867212914 0.99248993272 
-0.11178908135 -0.043187786065 0.99279303806 -0.10737493526 -0.047474112597 0.99308450391 -0.10279715645 -0.051558630899 0.99336521592 
-0.098046245548 -0.055470564238 0.9936347167 -0.093117275359 -0.059240792305 0.99389119201 -0.088009442645 -0.062899934708 0.99413174993 
-0.082727897049 -0.066477733015 0.99435245565 -0.077284520772 -0.070003056119 0.99454847795 -0.071696527294 -0.073501809674 0.99471457813 
-0.065988112421 -0.076996896162 0.99484523771 -0.060188942295 -0.080507285957 0.9949351075 -0.054333550325 -0.084047480356 0.99497933966 
-0.048460248772 -0.087626349823 0.99497398313 -0.042609219907 -0.091247352928 0.9949162653 -0.036821027366 -0.094908383393 0.99480481035 
-0.03113486342 -0.098601845797 0.99463978218 -0.025586842713 -0.10231623196 0.99442279849 -0.020207446823 -0.10603532747 0.99415701397 
-0.015021330271 -0.10973974729 0.99384684308 -0.010046681129 -0.11340869845 0.99349762522 -0.0052944500855 -0.11702129618 0.99311529292 
-0.00076795464668 -0.12055639617 0.99270618291 0.0035356664964 -0.12399423249 0.99227663954 0.0076244396973 -0.12731789774 0.99183265768 
0.011511337413 -0.13051335399 0.99137972218 0.015213034938 -0.13356905225 0.99092273758 0.018747997792 -0.13647680362 0.99046584729 
0.022136103636 -0.1392321418 0.99001232498 0.025397906128 -0.14183371942 0.98956462265 0.028553070832 -0.14428199728 0.98912457628 
0.031620313182 -0.14657999993 0.98869330908 0.034617541866 -0.14873314087 0.9882712576 0.03756069797 -0.15074722386 0.98785852654 
0.040463653764 -0.15262922785 0.98745481493 0.043338736845 -0.1543869991 0.98705947561 0.046196589593 -0.15602816761 0.98667172151 
0.049046380296 -0.15756023667 0.98629063891 0.051894808602 -0.1589903499 0.98591530949 0.054747340849 -0.16032417967 0.98554496908 
0.057608266239 -0.16156657997 0.98517893192 0.060479756462 -0.16272150791 0.98481668849 0.063362703816 -0.16379110524 0.98445804462 
0.066255990419 -0.16477576081 0.98410319194 0.069157115296 -0.16567425035 0.98375268039 0.072062040453 -0.16648386682 0.98340743561 
0.074965026339 -0.16720050167 0.98306878552 0.077859350435 -0.16781839513 0.98273847376 0.080736080827 -0.16833111711 0.98241860745 
0.083584769258 -0.16873168827 0.98211160451 0.086394854034 -0.16901261566 0.98182007768 0.089155035154 -0.16916686157 0.98154671445 
0.091852942279 -0.16918884562 0.98129413099 0.094476906092 -0.16907437415 0.98106471256 0.097015785036 -0.1688202926 0.98086066608 
0.099458441173 -0.16842626942 0.9806837463 0.10179561525 -0.16789418404 0.9805351578 0.10401930349 -0.16722869324 0.98041549797 
0.10612236237 -0.16643604555 0.98032499047 0.10809935062 -0.16552432053 0.98026334712 0.10994615781 -0.16450341254 0.98022980451 
0.11165946637 -0.16338398282 0.98022336114 0.11323706492 -0.1621775829 0.9802427244 0.11467731209 -0.16089529019 0.98028660079 
0.11597882911 -0.15954828231 0.98035363865 0.11714092519 -0.15814751659 0.98044243413 0.11816295686 -0.15670220402 0.98055185221 
0.11904416609 -0.15522051369 0.98068092601 0.11978456605 -0.15370965243 0.98082873147 0.12038472169 -0.15217468172 0.9809945897 
0.12084511346 -0.15062009146 0.98117788734 0.1211674859 -0.1490482606 0.98137814138 0.12135479412 -0.14745920927 0.98159502624 
0.12141124922 -0.14585161615 0.98182820016 0.12134235286 -0.14422376575 0.98207715522 0.12115546783 -0.1425716839 0.98234142108 
0.12085992227 -0.14088943904 0.98262049905 0.12046632238 -0.13917040862 0.9829137615 0.11998693649 -0.1374065801 0.98322050773 
0.11943496831 -0.13559063733 0.98353976402 0.11882452963 -0.13371253016 0.98387076917 0.11816989292 -0.13176229188 0.98421266749 
0.11748457425 -0.12973207058 0.98456435273 0.11678157993 -0.12761249268 0.98492492826 0.11607197973 -0.12539480393 0.98529357994 
0.11536459995 -0.12307177289 0.98566949217 0.11466604641 -0.12063773201 0.98605184215 0.11397974272 -0.11808729694 0.9864400684 
0.11330624821 -0.11541712671 0.98683361362 0.11264330532 -0.1126267308 0.98723183968 0.11198515584 -0.10971757157 0.98763423359 
0.11132328401 -0.10669309854 0.98804033782 0.11064646126 -0.10356007667 0.98844963004 0.10994103814 -0.1003265233 0.9888617481 
0.10919144337 -0.097005276247 0.98927610154 0.10838036112 -0.093612081881 0.98969211144 0.10748960285 -0.090162593966 0.99010943432 
0.10650064905 -0.086678730311 0.99052733908 0.10539520859 -0.083183001929 0.99094522462 0.10415562395 -0.079698906451 0.99136254232 
0.10276604207 -0.076252741968 0.99177853372 0.10121304346 -0.072868967949 0.99219253844 0.099486476099 -0.069571240611 0.99260378981 
0.097579612161 -0.066380305288 0.99301151774 0.095489606743 -0.063313950079 0.99341485731 0.093217889504 -0.060387509565 0.99381274583 
0.090770056739 -0.057609036687 0.99420420221 0.088155843813 -0.054981500065 0.99458814685 0.085388251674 -0.052502015533 0.9949635093 
0.082482989795 -0.05016241116 0.99532923643 0.079457980567 -0.047949116607 0.99568434332 0.076332098156 -0.045842723811 0.9960280395 
0.073124325266 -0.043820359963 0.99635967858 0.069853176867 -0.041857673238 0.99667871898 0.066535814387 -0.039929624306 0.99698475942 
0.063187302819 -0.038010359128 0.9972775829 0.059820110086 -0.036072247172 0.99755719005 0.056444074893 -0.03409245836 0.99782351681 
0.053065818902 -0.032050150841 0.99807655352 0.04968858301 -0.029927125298 0.9983162885 0.046312717139 -0.027711583915 0.99854253808 
0.042935451087 -0.025394077462 0.99875506901 0.039550948136 -0.022969160832 0.99895352252 0.036150970781 -0.020437276388 0.99913734043 
0.032724796008 -0.017805764581 0.99930578027 0.029260613935 -0.015085841306 0.99945797003 0.025745391977 -0.01229165809 0.99959296213 
0.022164800672 -0.0094400753752 0.99970976117 0.018505294202 -0.0065529426184 0.99980728795 0.014754064398 -0.0036541792339 0.99988447561 
0.010899966643 -0.00076796599467 0.9999402987 0.0069343294634 0.0020822449596 0.99997378932 0.0028514391194 0.0048723459278 0.99998406464 
-0.0013508650321 0.0075819302195 0.99997034431 -0.0056705741603 0.010193704389 0.99993196418 -0.010100845067 0.012692059734 0.99986843362 
-0.014630792553 0.015068981839 0.99977940852 -0.019245043528 0.017319139203 0.99966478167 -0.023924012306 0.019443908438 0.99952467506 
-0.028644695117 0.02144956459 0.99935949369 -0.033381168161 0.023345547351 0.99916999706 -0.038105900072 0.025145388266 0.99895728128 
-0.042790196737 0.026866118462 0.99872278974 -0.047405100961 0.028528028142 0.99846828092 -0.051922701267 0.030152333828 0.99819580737 
-0.056317369704 0.031759782599 0.99790764607 -0.060565772538 0.03337110034 0.99760621332 -0.064647789461 0.035007649815 0.9972939024 
-0.068547333536 0.036687405668 0.99697306751 -0.072252244572 0.038424706491 0.99664595273 -0.075754531935 0.040233361425 0.9963144722 
-0.07905120811 0.042123615389 0.99598017426 -0.08214256105 0.044101197239 0.99564435622 -0.085032875478 0.046169313286 0.99530789437 
-0.087730695768 0.04832684917 0.9949712763 -0.090247064819 0.050570315912 0.99463466179 -0.09259565685 0.052893890555 0.99429788327 
-0.094792001754 0.055287644225 0.99396063946 -0.096853993699 0.057740045053 0.99362235839 -0.098799648761 0.060239486536 0.99328235345 
-0.1006467028 0.062769886286 0.9929401707 -0.10241416366 0.065315972084 0.99259516565 -0.10412048492 0.067863129587 0.99224670333 
-0.10578198429 0.070394517422 0.99189454264 -0.10741316187 0.072893628073 0.99153866876 -0.10902805696 0.075347756919 0.9911788932 
-0.11063892072 0.077744763277 0.99081521032 -0.11225512051 0.080071991197 0.99044801183 -0.11388531073 0.082322466238 0.99007734423 
-0.11553617596 0.084488625131 0.98970352342 -0.11721028235 0.086564591718 0.98932720632 -0.11891090854 0.088549105553 0.98894855869 
-0.12064261985 0.090443120297 0.98856734736 -0.12240745968 0.092249919962 0.98818336663 -0.12420558974 0.093974443456 0.98779642409 
-0.12603865617 0.095623377087 0.98740590787 -0.12790976323 0.097204058088 0.98701087307 -0.129822833 0.09872877602 0.98660968007 
-0.13178066409 0.10021006519 0.98620068921 -0.13378903552 0.10166002799 0.98578178756 -0.13585372226 0.10309335003 0.98535045914 
-0.13798077971 0.10452577915 0.98490388664 -0.14017918866 0.10597388848 0.98443858621 -0.14245581572 0.10745416983 0.98395118881 
-0.14481946806 0.10898654824 0.98343746826 -0.14728131474 0.11059212748 0.98289246394 -0.14985012362 0.11229030287 0.98231147216 
-0.15253437852 0.11410083581 0.981689494 -0.15534357363 0.11604446474 0.98102092553 -0.15828809308 0.11814466166 0.98029930048 
-0.1613782207 0.12042326028 0.97951789584 -0.16462350156 0.12290187907 0.97866962293 -0.16803486143 0.12559882677 0.9777470123 
-0.17162412704 0.12853141681 0.97674194847 -0.1754030294 0.13171656631 0.97564569565 -0.17938634919 0.13516569847 0.97444895797 
-0.1835883025 0.13888501986 0.97314248003 -0.18802245035 0.14287526173 0.97171714905 -0.19271119969 0.14713650196 0.97016145219 
-0.19767101688 0.15165675751 0.96846600198 -0.20291972166 0.15641790953 0.96662144821 -0.2084794055 0.16139831839 0.96461749948 
-0.21436253859 0.16656367162 0.96244752862 -0.22058303394 0.17187506957 0.96010524715 -0.22715473225 0.17729037219 0.95758490566 
-0.23408126583 0.1827589123 0.95488488362 -0.24135494706 0.18822312029 0.95200832272 -0.24896472369 0.1936283118 0.94895976903 
-0.25689297006 0.19891863297 0.94574699545 -0.26510218553 0.20403380079 0.94238582298 -0.27354867395 0.20892368422 0.93889403936 
-0.28218025985 0.21354090236 0.935293849 -0.29093346478 0.21784701095 0.9316117211 -0.29973277676 0.22181021965 0.927879566 
-0.30848790866 0.22540193118 0.92413699181 -0.31711358604 0.2286148832 0.92042066944 -0.32551676943 0.23144568842 0.91677245057 
-0.33359320432 0.23389581616 0.91324056043 -0.34125037894 0.23598542759 0.90986760402 -0.34838776073 0.23773338321 0.90670215985 
-0.35490582653 0.23916269685 0.90379370363 -0.36071958855 0.24030765042 0.90118456022 -0.36574335362 0.24119816062 0.89891893216 
-0.36990620405 0.24186718836 0.89703381397 -0.37313775085 0.24234143747 0.89556621563 -0.37538422035 0.2426455282 0.8945444845 
-0.37538422035 0.2426455282 0.8945444845 
NormalArray 3 250 double
-0.36290741341 0.92044611633 -0.14517973764 -0.36290741341 0.92044611633 -0.14517973764 -0.3667028081 0.91900967947 -0.14474204495 
-0.36685243293 0.91928695681 -0.14258605646 -0.36876221329 0.91898720902 -0.13955980692 -0.37092292441 0.91872210804 -0.13552074506 
-0.37394998099 0.91819792831 -0.13066742582 -0.37790085435 0.91735068092 -0.12513461749 -0.38307511643 0.91600644127 -0.11910354626 
-0.3887031676 0.91445598485 -0.11260594682 -0.3960100491 0.91211189264 -0.10596195697 -0.40433684312 0.90921377255 -0.099207021472 
-0.41426738977 0.90543781807 -0.092546676784 -0.42614286454 0.90054615818 -0.086132897235 -0.43961803436 0.89461477187 -0.080002461286 
-0.45566681721 0.88703872022 -0.074364376686 -0.47408290988 0.87775355631 -0.069239359834 -0.49512222927 0.86641088073 -0.064700570654 
-0.51907571617 0.85256218101 -0.060812238769 -0.54547868767 0.83614862139 -0.057519425 -0.57439653875 0.81673841975 -0.05483584562 
-0.60530823805 0.79424578841 -0.052683626861 -0.63739044879 0.76885568645 -0.050934754328 -0.66980239082 0.74089086355 -0.049451850934 
-0.70152986677 0.71101747007 -0.048062493523 -0.73153731332 0.68020849309 -0.046578591131 -0.75899769195 0.64954810123 -0.044830433929 
-0.78321489566 0.62028619519 -0.042655166963 -0.80373442744 0.59364769311 -0.039917247104 -0.82070922534 0.57017383574 -0.036580930503 
-0.83397373176 0.55084280185 -0.032557984972 -0.84384497121 0.53586351982 -0.027855927358 -0.85069210792 0.52518215074 -0.02250879995 
-0.85463476065 0.51896671077 -0.016522076099 -0.85615327276 0.51662538117 -0.0099894481157 -0.85530133133 0.51812256508 -0.002939419646 
-0.85258512722 0.5225690179 0.0044969298497 -0.84798779711 0.52987347591 0.012279881197 -0.84200431468 0.53908999624 0.020265981752 
-0.83464139616 0.55006092347 0.028402821792 -0.82629272453 0.56205253691 0.03656882748 -0.81732773133 0.57443993958 0.04465574332 
-0.80805388291 0.58675776483 0.052576113658 -0.79880423131 0.59856649477 0.060249077796 -0.78995739718 0.60942410455 0.067598605225 
-0.78217010496 0.61859273398 0.074518161379 -0.77561070642 0.62599445461 0.080987498376 -0.77076163229 0.63116325402 0.086945114735 
-0.76790046183 0.63387506636 0.092364933625 -0.76752589127 0.63360738248 0.097188945337 -0.76945051791 0.63059719129 0.1014548315 
-0.77397490265 0.62442928398 0.10512335316 -0.78075318117 0.6153925889 0.10824246678 -0.7899260872 0.60311278871 0.11077788975 
-0.80072546817 0.58830966589 0.11282934742 -0.81313647782 0.57072514858 0.11437601682 -0.82648371499 0.5509839052 0.11550500019 
-0.84039793206 0.52935355625 0.11625888472 -0.85431577713 0.50647695254 0.11672895738 -0.86811262552 0.48239801543 0.11692999665 
-0.88129089773 0.45786945329 0.11696972819 -0.89372917733 0.43311157717 0.11688677992 -0.90549242993 0.40800830041 0.1166734166 
-0.91638831166 0.38299412895 0.11639570203 -0.92646745489 0.3580354245 0.11605468463 -0.93590793068 0.3327364627 0.11559754183 
-0.94470883249 0.30707601482 0.11501975021 -0.9530522974 0.28043450128 0.11422700606 -0.96089608514 0.25271622414 0.11319551056 
-0.96833703062 0.22321057967 0.11180533196 -0.9753460972 0.1913409993 0.10994822721 -0.98172339888 0.15699069564 0.10757829509 
-0.98733951395 0.11930911163 0.10452760441 -0.99186717241 0.077862528361 0.10068236677 -0.99486196126 0.032336595831 0.095937597441 
-0.99577147727 -0.017075013783 0.09026410671 -0.99398659037 -0.070821837083 0.083516019815 -0.98877741172 -0.12884240132 0.075623182271 
-0.97951097393 -0.19002315407 0.066704219258 -0.96547959341 -0.25423244862 0.056701118023 -0.94647098953 -0.31950589622 0.045920020326 
-0.92176010963 -0.38624889152 0.034206638205 -0.89184901099 -0.45179494158 0.022060651636 -0.85634987857 -0.51631043029 0.0094034594108 
-0.81595157522 -0.57811018003 -0.0034127183495 -0.77066788053 -0.63702680508 -0.016366659273 -0.72063277959 -0.69269373214 -0.029390311824 
-0.6661207301 -0.74463876369 -0.042382597183 -0.60725063199 -0.79258399523 -0.055292679907 -0.54317385089 -0.83683934207 -0.068279449835 
-0.474179344 -0.87667596925 -0.081198489325 -0.40054351178 -0.91145149503 -0.093920537609 -0.32222689158 -0.94066675084 -0.10637619192 
-0.24049114497 -0.96341851178 -0.11827417449 -0.15704715158 -0.97908885749 -0.12931048421 -0.074245865934 -0.9874820402 -0.13916454892 
0.0050087823878 -0.98904299516 -0.1475427593 0.078462616987 -0.98489849169 -0.15433268873 0.14311891137 -0.97678219547 -0.15941618434 
0.19787563766 -0.96659155795 -0.16292940837 0.24190484096 -0.95616260255 -0.16503068022 0.27494982969 -0.94703680151 -0.16590324814 
0.29830464298 -0.93995874119 -0.16580682991 0.31121971712 -0.93594229996 -0.16478561473 0.31653687434 -0.9344522131 -0.16310569768 
0.31470438771 -0.93546756933 -0.16081534467 0.30696747078 -0.93851383785 -0.15799603809 0.29521211412 -0.94281352751 -0.15476582315 
0.28074626227 -0.94779716878 -0.15120206045 0.26501876887 -0.95291019124 -0.14740155894 0.24939444238 -0.95771608085 -0.1434653986 
0.23504076955 -0.96192420702 -0.13949070437 0.22303747169 -0.96533572713 -0.13557735854 0.21443816429 -0.96780031668 -0.13182875535 
0.2095578935 -0.9693443037 -0.12828526868 0.20936202786 -0.96981017223 -0.1250430771 0.21361612053 -0.9692589031 -0.12208739413 
0.22339570335 -0.96737302009 -0.11951485147 0.23818861311 -0.96411225062 -0.11727639486 0.25835166041 -0.95913486504 -0.11538947192 
0.28409846307 -0.9520111676 -0.11385429307 0.31494278361 -0.94240706903 -0.11260532534 0.3511516968 -0.92964038275 -0.1116299449 
0.39207417518 -0.91323185576 -0.11083960834 0.43696677094 -0.89270924005 -0.11013743154 0.48496844582 -0.86765926477 -0.10942123563 
0.53464021732 -0.83807783134 -0.10856052062 0.58487366824 -0.8039746158 -0.1074598034 0.63408932192 -0.76595741942 -0.10601869394 
0.68016714111 -0.72562147695 -0.10414476628 0.72237007837 -0.68396676357 -0.10183779364 0.75914373113 -0.6433354394 -0.099097466672 
0.79061216386 -0.60474555709 -0.095995924592 0.81587416727 -0.57076745472 -0.092595117708 0.83554985635 -0.5421602914 -0.088986830325 
0.84966407594 -0.52038854747 -0.08524504509 0.85925337708 -0.50502730323 -0.081431302196 0.86439385669 -0.49679372342 -0.077583869973 
0.86580822639 -0.49491552132 -0.073720701786 0.86309554111 -0.5001878692 -0.069843986319 0.85815461157 -0.50913917782 -0.06593906465 
0.84987503731 -0.52332543484 -0.061991210721 0.84029602544 -0.53901825208 -0.057982010559 0.82914881479 -0.55642361661 -0.053898068653 
0.8177267498 -0.57345402603 -0.049733717873 0.8062432806 -0.58983306629 -0.045483253941 0.79638673134 -0.60338566239 -0.041157217673 
0.78860475028 -0.61380056188 -0.036761638543 0.78356091151 -0.62047454532 -0.032305364327 0.78139137673 -0.62342213044 -0.02779143112 
0.78256404364 -0.62213672993 -0.0232251345 0.78720063704 -0.61641610426 -0.018610305175 0.7950242468 -0.60641727946 -0.013947407631 
0.80556582685 -0.59243429335 -0.009236161444 0.81822257079 -0.57488414666 -0.0044768926058 0.83276707963 -0.55362341609 0.00032286531368 
0.84780850695 -0.53027733166 0.0051659537915 0.86330812275 -0.50457733863 0.01003964802 0.87832116685 -0.47783759713 0.014938494755 
0.89211789555 -0.45136604261 0.019858399155 0.90480882444 -0.42509617709 0.024783693024 0.91533793942 -0.40158823587 0.029721128209 
0.92429963527 -0.38009140175 0.034651270678 0.9310868407 -0.3626440942 0.039579742578 0.93618833996 -0.34867204333 0.044488181898 
0.93906824909 -0.34016460125 0.049384892493 0.94010456924 -0.33654177558 0.054249720595 0.93890210382 -0.33907564459 0.059080848716 
0.93579535737 -0.34671407491 0.063846686617 0.92999936793 -0.36111398557 0.068540973695 0.92148403298 -0.38147087753 0.073124185835 
0.90977713006 -0.40778707401 0.077558209653 0.89477374156 -0.43896493013 0.081790840156 0.875332114 -0.47585387201 0.085771689347 
0.8522224962 -0.51547730403 0.08944252898 0.82460009339 -0.55806105422 0.092749909704 0.79370631361 -0.60072998682 0.095675339894 
0.75992178132 -0.64255173102 0.098214862601 0.72466975943 -0.68174099353 0.10041393086 0.68901538533 -0.71748558187 0.10233395619 
0.65529218451 -0.74816665736 0.1041095852 0.62423955349 -0.77403196647 0.10582766532 0.59691851733 -0.79505489606 0.10759180226 
0.57502029834 -0.81077295635 0.10953935247 0.55831553809 -0.82207457906 0.11170114765 0.5475675416 -0.82893848593 0.11415241539 
0.54247625661 -0.83189878281 0.1168927978 0.54299821197 -0.83112649416 0.11992369448 0.54829469786 -0.82716195852 0.12319098456 
0.55862699379 -0.81968533896 0.12669580463 0.57287890644 -0.80920886636 0.13034864461 0.59024669555 -0.79600961173 0.13408033573 
0.61097637229 -0.77955051863 0.13787262747 0.63236100443 -0.7616300001 0.14156024517 0.65575628286 -0.74088115335 0.14518544728 
0.67925911318 -0.71868701731 0.14864732861 0.7024392378 -0.69534033224 0.15192412435 0.72394347626 -0.6722251782 0.15498113748 
0.74465585685 -0.64851290478 0.15785647655 0.76360793589 -0.62540120457 0.16054984765 0.77971196724 -0.60452474084 0.16309226181 
0.79345882558 -0.58567937192 0.16553780664 0.80528922478 -0.56860228251 0.16793066654 0.81388187413 -0.55550250619 0.17033279361 
0.82034590667 -0.54514136121 0.17278162436 0.82431762675 -0.53829485634 0.17532569081 0.82601047929 -0.53481273568 0.17799445454 
0.82494912721 -0.53550060498 0.18082599254 0.82221750301 -0.53867466607 0.18381507521 0.81731285549 -0.54501161536 0.18698137708 
0.81108318319 -0.55310506044 0.19031253783 0.80311974606 -0.56341187205 0.19381882239 0.79381357289 -0.57519929126 0.19749882742 
0.78370635054 -0.58758817604 0.20135662769 0.77269868037 -0.6006215703 0.20540320993 0.76223918797 -0.61239857942 0.20966497145 
0.75155367004 -0.62394058225 0.21416169328 0.74157497368 -0.63414095678 0.21893333538 0.7329874436 -0.64229339476 0.22402812897 
0.72572656822 -0.64858414245 0.22947670544 0.72032361176 -0.65250203826 0.23531889938 0.71709452889 -0.6537644726 0.24159356572 
0.71605457692 -0.6523855453 0.24831218889 0.71744554508 -0.64807473066 0.25548196283 0.7211708627 -0.64085542074 0.26309108024 
0.72698179933 -0.63087467085 0.27109889917 0.73501343262 -0.61778328185 0.27946210929 0.74475200988 -0.60194298368 0.28811297816 
0.75603133373 -0.58328760987 0.29697169325 0.76834323545 -0.56218177336 0.30594170399 0.78132627246 -0.53883903586 0.31493134075 
0.79486605562 -0.5131437721 0.32383857518 0.8082623373 -0.4859074784 0.33257467813 0.82120156981 -0.45749846835 0.34106177329 
0.83373576281 -0.42772341405 0.34919530193 0.84506564006 -0.39803090754 0.35698103681 0.85562329514 -0.36769749317 0.36429017324 
0.86497256433 -0.33777272698 0.37112268573 0.87289350556 -0.30909709259 0.37751280152 0.87991597862 -0.28075350364 0.38330841468 
0.88566270771 -0.25413661806 0.38860796123 0.89019537717 -0.22968337189 0.39344343829 0.89405767161 -0.20629890503 0.39761997135 
0.89699275385 -0.18538701992 0.40129247735 0.89913255435 -0.16719639425 0.40448240439 0.90095177643 -0.15054847916 0.40696566435 
0.90198718368 -0.13792964699 0.40913876982 0.90334633888 -0.12515386835 0.41024614716 0.90384041952 -0.1179712973 0.41128490011 
0.90384041952 -0.1179712973 0.41128490011 
BinormalArray 3 250 double
-0.91428801437 -0.38181386388 -0.13526122921 -0.91428801437 -0.38181386388 -0.13526122921 -0.91284383523 -0.38545529013 -0.13468612325 
-0.91293943181 -0.38521569638 -0.13472364715 -0.91240571215 -0.38654958921 -0.13451851734 -0.91183970016 -0.38795595867 -0.13430761459 
-0.91097881966 -0.39007915407 -0.13399941676 -0.90978036572 -0.3930052535 -0.13359100593 -0.90809488713 -0.39706619837 -0.13304927685 
-0.90621878978 -0.40151604754 -0.13248535247 -0.903596873 -0.40761927987 -0.13175436913 -0.90046934692 -0.41473667613 -0.13095207036 
-0.89652522176 -0.4234799939 -0.13002777208 -0.891531188 -0.43421189183 -0.12896578545 -0.88555774258 -0.44659785117 -0.12781957553 
-0.8780031078 -0.4616317825 -0.12651735086 -0.86879405043 -0.47911165039 -0.12509566095 -0.85757590053 -0.49929937671 -0.12354637687 
-0.843893453 -0.52248955977 -0.12185442097 -0.82767827005 -0.5482114749 -0.12005357164 -0.80849243014 -0.5765285721 -0.11813041929 
-0.78624350823 -0.60691095978 -0.11610440413 -0.7611110509 -0.63852296304 -0.11401049894 -0.73341431495 -0.67051114438 -0.11188497614 
-0.70381748154 -0.70184682972 -0.10978151161 -0.67329323663 -0.7314797431 -0.10776642769 -0.64292709403 -0.75857034728 -0.10590457963 
-0.61397179165 -0.78241168994 -0.10426210479 -0.58765648399 -0.80254155344 -0.10289271999 -0.56452697495 -0.81911256567 -0.10180323818 
-0.54556751166 -0.83195728176 -0.10101074968 -0.53099224798 -0.84139756373 -0.1004856822 -0.52075190398 -0.84780964404 -0.10018114581 
-0.51501941216 -0.85131958223 -0.10004985758 -0.5132045058 -0.85241820278 -0.10002171161 -0.51527419685 -0.85116686296 -0.10003736031 
-0.52033662674 -0.84808209765 -0.10003274722 -0.52830024639 -0.84315361596 -0.09995413726 -0.53821273304 -0.83688372831 -0.099763115821 
-0.54991304775 -0.8292832185 -0.099423253965 -0.56265944129 -0.82074864266 -0.098924307924 -0.5758185814 -0.81164971826 -0.098273578173 
-0.58891704166 -0.8022920374 -0.09748951108 -0.60150716059 -0.79300480355 -0.096604954897 -0.61313887451 -0.78416087446 -0.095668404048 
-0.62306447271 -0.77640787271 -0.094770660213 -0.63120165649 -0.76990673014 -0.093957946636 -0.63707799689 -0.76512946597 -0.093319484513 
-0.64046574446 -0.76234419042 -0.092924515036 -0.64083739732 -0.76203739616 -0.092878614627 -0.63843121248 -0.76401653412 -0.093189712476 
-0.63282923683 -0.76857171429 -0.093939752052 -0.62432316668 -0.77535485912 -0.095107444433 -0.61253693677 -0.78449835523 -0.09675139139 
-0.59819635607 -0.79523961209 -0.098767803182 -0.58104276455 -0.80755882608 -0.10118324058 -0.56170620686 -0.82078743333 -0.10389478555 
-0.54045722173 -0.83455924373 -0.10684970844 -0.51794430862 -0.84831936855 -0.10994517775 -0.49421285346 -0.86194394575 -0.1131648791 
-0.47002213368 -0.87494590436 -0.11639956309 -0.44559520468 -0.88720709553 -0.11961807222 -0.42081609762 -0.89879106816 -0.12283496153 
-0.39612340239 -0.90951181269 -0.12599409769 -0.3714838544 -0.91941956998 -0.12910228601 -0.34649893659 -0.92868666418 -0.13221031244 
-0.3211469532 -0.93731172497 -0.13531949112 -0.2948026659 -0.94546736235 -0.13850218378 -0.26736824023 -0.95310945444 -0.1417624491 
-0.23812526106 -0.96032339832 -0.14517345032 -0.20648949666 -0.9670706325 -0.14878333081 -0.17233935518 -0.97314878436 -0.15257978294 
-0.13481198222 -0.97841450994 -0.15662303851 -0.093463583802 -0.98253354265 -0.16091114343 -0.047969341661 -0.98505680928 -0.16541470535 
0.0014839307969 -0.98543573023 -0.17004181699 0.055360386459 -0.98305550372 -0.17474868873 0.11360971582 -0.97718951306 -0.17942543868 
0.17511787581 -0.96722478912 -0.18387478589 0.23976406618 -0.95245861067 -0.18797815707 0.30556938735 -0.93271139504 -0.19151188755 
0.3729562233 -0.90725455995 -0.19440375243 0.43922644727 -0.87663163876 -0.19646144136 0.50455597099 -0.84045354829 -0.1976388254 
0.56723468729 -0.79943373328 -0.19786489235 0.62709519616 -0.75358827036 -0.19712009976 0.68376714682 -0.70305625596 -0.1953826755 
0.73677139204 -0.64811839754 -0.19264075022 0.78582738155 -0.58889725207 -0.18887920189 0.83126390715 -0.52454202388 -0.18399995068 
0.87234307256 -0.45535243172 -0.17796552105 0.90841430686 -0.38161435371 -0.17074522579 0.93897675643 -0.30329676904 -0.16227667967 
0.96309940699 -0.2216717375 -0.15264721761 0.98012990595 -0.13845441545 -0.14204134011 0.98982855351 -0.055991087537 -0.13078391637 
0.99258965371 0.022831114517 -0.11935040657 0.98950475044 0.095783435255 -0.10819372622 0.98226184382 0.15990577717 -0.09793779967 
0.972747712 0.21412829346 -0.088943592969 0.96279276747 0.25765223627 -0.081519396763 0.95394220277 0.29024253364 -0.075852128764 
0.94696865224 0.31319761164 -0.071816625809 0.94288017205 0.32578055562 -0.069598927741 0.94119088584 0.33081378428 -0.068716493928 
0.94189092955 0.32874004409 -0.069075757269 0.94452794266 0.32079094109 -0.070428244655 0.94835494579 0.30883457625 -0.072416167483 
0.95282345967 0.29416639097 -0.07479030098 0.95740103924 0.27822419925 -0.077295180999 0.96167095743 0.26236482002 -0.079709916915 
0.96535875754 0.24775130033 -0.081864292674 0.96827980047 0.23546157528 -0.083618625764 0.97029665493 0.22654933575 -0.084851634645 
0.9714384261 0.22133278929 -0.08555221024 0.9715579766 0.22077939297 -0.085624515995 0.97071165708 0.22465922522 -0.085129967341 
0.96859258123 0.23405002965 -0.083958294424 0.96515277646 0.24844384945 -0.08219350193 0.96005229277 0.26819958485 -0.079803369863 
0.95286183418 0.29353285078 -0.076764513191 0.9432406337 0.3239591092 -0.07312730344 0.93050743782 0.35974552544 -0.068840867883 
0.91417557491 0.40024129842 -0.063952492393 0.89376504795 0.44470251431 -0.058512501483 0.86885444559 0.49226745041 -0.052580506274 
0.83942721978 0.54149718714 -0.046289728898 0.80548403287 0.59128348605 -0.039740557661 0.76762045107 0.64004888901 -0.033109859096 
0.72741560126 0.68567825624 -0.026680928848 0.68586443054 0.72743831421 -0.020578676672 0.64529810317 0.76378207022 -0.015076712446 
0.60673632061 0.79483743224 -0.010222209182 0.57274407244 0.81971055553 -0.006231583742 0.54408625083 0.83902363679 -0.0030803512844 
0.52222963446 0.85280451201 -0.00082047575526 0.50675849047 0.8620877903 0.0006885855516 0.4983936656 0.86694960723 0.0014603469804 
0.4963703052 0.86810934758 0.0016373047051 0.50148543483 0.86516523768 0.0012125022928 0.51027906977 0.86000872198 0.00051871047739 
0.52430567403 0.85152996253 -0.0005320696099 0.53984593575 0.84176225331 -0.0016354087212 0.55710625123 0.83043652797 -0.0027924626071 
0.57400305723 0.81884407603 -0.0038560908584 0.59026053144 0.80719847098 -0.0048097254314 0.60370628741 0.79718759408 -0.0055370017105 
0.6140290185 0.78926030242 -0.0060447876457 0.62062558313 0.78408147281 -0.0063347905624 0.62350997679 0.78178882214 -0.0064456514783 
0.62217540872 0.78285169365 -0.0064020730516 0.61641926571 0.78739332316 -0.0062484807566 0.6063981898 0.79513818305 -0.0060419585002 
0.59240601731 0.80561840737 -0.0058388668745 0.57485975657 0.81823216887 -0.0056901759001 0.55361616701 0.83275288856 -0.0056361527553 
0.53030077382 0.84779034311 -0.0057116918345 0.5046453505 0.86330631744 -0.0059390645812 0.47796433004 0.87835650074 -0.0063211411797 
0.45156572096 0.89221164606 -0.0068394654313 0.42538290929 0.90498247919 -0.0074895155511 0.40197524586 0.91561390511 -0.0081901451874 
0.38059120548 0.9247001906 -0.0089382224076 0.36326710929 0.93163525393 -0.0096312484363 0.34942714907 0.93690742107 -0.010254357257 
0.34105691991 0.93998205075 -0.010673408614 0.33757392567 0.94123630662 -0.010865532759 0.34024531229 0.94027578083 -0.010704366265 
0.34801638324 0.93743301972 -0.010194632369 0.36253684343 0.93192438486 -0.0091639547125 0.382998486 0.92371772423 -0.0075977413603 
0.40939813956 0.91233970457 -0.0054246460646 0.44063541003 0.89768219991 -0.0026652169049 0.47755098272 0.87860364734 0.0008305340348 
0.51717281779 0.85586725025 0.0048504109814 0.55972072112 0.82862714424 0.0094747128539 0.60232856301 0.79811770901 0.014436922715 
0.64406693075 0.76471680288 0.019646885122 0.68316118673 0.72984372361 0.024878344966 0.71880723641 0.69456221906 0.029991344351 
0.74940418288 0.66120339473 0.034690653936 0.77520596216 0.63050820937 0.038924467261 0.7961952732 0.60353866199 0.042593079488 
0.81192481038 0.58198552784 0.045507666034 0.82328312202 0.56562108363 0.047725158385 0.83025822008 0.55520769284 0.049149830087 
0.83338447479 0.55044439054 0.049812549676 0.83283573078 0.55128510744 0.049692814941 0.8291476389 0.55688940545 0.048871085513 
0.82200663685 0.56751360943 0.047258777837 0.81191658837 0.58203907672 0.044966284054 0.79914890627 0.59965966146 0.04206323831 
0.78317256371 0.62061474453 0.038445732205 0.76575538508 0.64220426221 0.034530795195 0.74554939026 0.66577336423 0.030032218758 
0.72391464651 0.68942658285 0.025269970931 0.70113873878 0.71273541698 0.02031488022 0.67858589335 0.73435830068 0.015461939422 
0.6554402429 0.75517361056 0.010531187227 0.63288388566 0.77422522848 0.0057691298436 0.61253186054 0.79044447402 0.0015011063009 
0.59418595464 0.80432432274 -0.0023313440577 0.57758961073 0.81630673342 -0.0057929741608 0.56492482784 0.8250992224 -0.0084387257392 
0.55497197933 0.83180241511 -0.010528264997 0.54849817255 0.83606709216 -0.011898408027 0.54535587341 0.83811033828 -0.012571085808 
0.54633895998 0.83747300516 -0.012357445094 0.54978777002 0.83522391338 -0.011594069868 0.55636735769 0.83087497676 -0.010106250149 
0.56469224655 0.82526104439 -0.0081777324639 0.57521043768 0.8179857851 -0.005675187424 0.587200895 0.80943660299 -0.0027376370357 
0.59980115539 0.80014896973 0.00044746052316 0.61305452619 0.79003092181 0.0039103062478 0.62510455579 0.78050811312 0.0071679627026 
0.6369554459 0.77082930971 0.010484999736 0.6475340421 0.76191600134 0.013552535693 0.65616304776 0.75444643879 0.016143907412 
0.66303565769 0.74836459124 0.018279912901 0.6676686697 0.74419604249 0.019768607529 0.66980432229 0.74225525539 0.02047695527 
0.66947144222 0.74255863619 0.020363198801 0.66640488925 0.74534058058 0.019285811593 0.66064281142 0.75050310628 0.017209392615 
0.65233899584 0.75779528435 0.014147138276 0.64116953998 0.76733485332 0.0099420257655 0.62749117237 0.77860950953 0.0046968362632 
0.6112467451 0.79143840199 -0.0016347621578 0.59278702927 0.80530969862 -0.0089346090847 0.57231619086 0.81985399328 -0.017134975423 
0.54972170737 0.83493403728 -0.026290641495 0.52576879455 0.84986124195 -0.036097702226 0.50079846718 0.86431825483 -0.046420358097 
0.47461455811 0.87832395168 -0.057341582998 0.44857751066 0.89113078527 -0.068294512723 0.42198227373 0.90310507693 -0.079575000398 
0.3958000419 0.91384000477 -0.09076768427 0.37080439791 0.923143663 -0.10153755935 0.34610215746 0.93145604486 -0.11226278591 
0.32298164376 0.93846008255 -0.12237455311 0.30182837728 0.94422265734 -0.13169359903 0.28157920379 0.94916995332 -0.14067534149 
0.26352581245 0.9531174415 -0.14873227253 0.24787502526 0.95618910206 -0.15575741701 0.2334902478 0.95872759569 -0.16224580563 
0.2226848012 0.96045597279 -0.1671400719 0.21150321727 0.96208478676 -0.17221861736 0.20532701516 0.96291532372 -0.17502827254 
0.20532701516 0.96291532372 -0.17502827254 
