# vtk DataFile Version 4.1
vtk output
ASCII
DATASET POLYDATA
POINTS 142 float
8.09479 -4.3207 154.499 8.04457 -4.29643 150.517 7.99477 -4.27149 146.538 
7.94665 -4.24384 142.568 7.90145 -4.21146 138.614 7.86034 -4.17238 134.682 
7.82441 -4.1247 130.78 7.79461 -4.0666 126.912 7.77176 -3.99637 123.085 
7.75646 -3.91246 119.304 7.74916 -3.81344 115.574 7.75008 -3.69809 111.9 
7.75921 -3.56533 108.285 7.77635 -3.41433 104.733 7.80106 -3.24442 101.247 
7.83274 -3.05518 97.8279 7.87056 -2.84639 94.4781 7.91357 -2.61803 91.1982 
7.96065 -2.37032 87.9887 8.01058 -2.10364 84.8494 8.06207 -1.8186 81.7797 
8.11374 -1.51594 78.7786 8.16422 -1.1966 75.8446 8.21211 -0.861619 72.9759 
8.25605 -0.512167 70.1705 8.29472 -0.149504 67.4263 8.32687 0.225043 64.7406 
8.35132 0.610101 62.1112 8.36702 1.00427 59.5354 8.373 1.40616 57.0107 
8.36842 1.81438 54.5346 8.35256 2.22759 52.1045 8.32484 2.64448 49.7183 
8.28481 3.06381 47.3735 8.23213 3.4844 45.0682 8.16663 3.90516 42.8003 
8.08822 4.32505 40.568 7.99698 4.74314 38.3698 7.89307 5.15856 36.204 
7.77678 5.5705 34.0695 7.6485 5.97824 31.965 7.50872 6.38112 29.8897 
7.35799 6.77855 27.8428 7.19698 7.16998 25.8237 7.02639 7.55492 23.8319 
6.84698 7.93293 21.8672 6.65957 8.30362 19.9295 6.46499 8.66662 18.0189 
6.2641 9.02164 16.1356 6.05776 9.3684 14.2798 5.84682 9.70668 12.4519 
5.63213 10.0363 10.6523 5.41449 10.3572 8.88144 5.19467 10.6692 7.13971 
4.9734 10.9723 5.42742 4.75133 11.2666 3.74477 4.52905 11.5521 2.0918 
4.30708 11.8291 0.468337 4.08586 12.0977 -1.12601 3.86576 12.3582 -2.69191 
3.64703 12.611 -4.23035 3.42989 12.8565 -5.7426 3.21443 13.0951 -7.23028 
3.00068 13.3273 -8.69533 2.7886 13.5538 -10.14 2.57808 13.7751 -11.5668 
2.36895 13.9919 -12.9786 2.16097 14.2047 -14.3785 1.9539 14.4143 -15.7696 
1.74744 14.6212 -17.1553 1.54128 14.8262 -18.539 1.33509 15.0298 -19.9243 
1.12856 15.2325 -21.3144 0.92138 15.4349 -22.7127 0.713266 15.6373 -24.1224 
0.503961 15.8403 -25.5463 0.29325 16.0439 -26.9872 0.0809574 16.2485 -28.4474 
-0.133042 16.454 -29.9289 -0.34882 16.6605 -31.4333 -0.566394 16.8678 -32.962 
-0.785725 17.0757 -34.5158 -1.00672 17.2838 -36.0952 -1.22921 17.4917 -37.7001 
-1.45301 17.6989 -39.3303 -1.67783 17.9047 -40.9849 -1.90338 18.1085 -42.663 
-2.12928 18.3094 -44.3631 -2.35513 18.5067 -46.0836 -2.58047 18.6994 -47.8223 
-2.8048 18.8869 -49.5773 -3.0276 19.0681 -51.3461 -3.24829 19.2421 -53.1264 
-3.46627 19.4083 -54.9157 -3.6809 19.5657 -56.7114 -3.89151 19.7135 -58.5113 
-4.0974 19.8512 -60.3129 -4.29784 19.9781 -62.1143 -4.49206 20.0938 -63.9136 
-4.67926 20.1976 -65.7092 -4.85861 20.2895 -67.5001 -5.02925 20.369 -69.2855 
-5.19026 20.4362 -71.0653 -5.34072 20.4911 -72.8398 -5.47963 20.5337 -74.6099 
-5.60597 20.5642 -76.3772 -5.71868 20.5831 -78.144 -5.81662 20.5906 -79.9131 
-5.89866 20.5872 -81.6883 -5.96357 20.5736 -83.4736 -6.0101 20.5504 -85.2742 
-6.03694 20.5182 -87.0956 -6.04277 20.4777 -88.9441 -6.0262 20.4298 -90.8263 
-5.98581 20.3751 -92.7496 -5.92019 20.3146 -94.7215 -5.82789 20.2488 -96.7499 
-5.70747 20.1787 -98.8431 -5.55753 20.1049 -101.009 -5.37667 20.0282 -103.256 
-5.16359 19.9493 -105.592 -4.91706 19.8686 -108.025 -4.63595 19.7869 -110.563 
-4.31928 19.7047 -113.21 -3.96623 19.6224 -115.975 -3.57616 19.5404 -118.861 
-3.14869 19.4591 -121.874 -2.68365 19.3788 -125.015 -2.18116 19.2998 -128.287 
-1.64165 19.2222 -131.691 -1.06584 19.1461 -135.225 -0.454821 19.0718 -138.887 
0.190009 18.9991 -142.674 0.866886 18.9282 -146.579 1.5737 18.8589 -150.597 
2.308 18.7912 -154.717 3.06702 18.725 -158.932 3.84768 18.6601 -163.228 
4.64661 18.5963 -167.595 5.46021 18.5335 -172.018 6.28467 18.4714 -176.482 
7.116 18.4097 -180.973 
LINES 1 143
142 141 140 139 138 137 136 135 134 133 132 131 130 129 128 127 126 125 124 123 122 121 120 119 118 117 116 115 114 113 112 111 110 109 108 107 106 105 104 103 102 101 100 99 98 97 96 95 94 93 92 91 90 89 88 87 86 85 84 83 82 81 80 79 78 77 76 75 74 73 72 71 70 69 68 67 66 65 64 63 62 61 60 59 58 57 56 55 54 53 52 51 50 49 48 47 46 45 44 43 42 41 40 39 38 37 36 35 34 33 32 31 30 29 28 27 26 25 24 23 22 21 20 19 18 17 16 15 14 13 12 11 10 9 8 7 6 5 4 3 2 1 0 

CELL_DATA 1
FIELD FieldData 2
LengthArray 1 1 double
339.20308368 
TortuosityArray 1 1 double
0.0088038022069 
POINT_DATA 142
FIELD FieldData 8
RadiusArray 1 142 double
87.169437768 86.800957404 86.213417766 85.021937727 84.139277025 84.075014799 83.926377393 83.307964177 83.24910681 
81.551563962 81.436661286 79.135291195 78.944363382 77.731110785 77.29332152 76.955630974 76.674154918 76.588244843 
76.138676443 75.328703424 74.091479883 73.9379456 72.669661537 71.811683249 71.407387988 71.279729326 70.603181056 
69.888661116 69.878326156 69.122629791 68.711557546 68.296758537 68.216800108 67.886694147 67.873274648 67.269515928 
67.096894855 66.408522742 66.106312237 65.892496294 65.208749904 65.20872709 65.207324031 64.639367744 64.450064695 
64.288462404 63.977291775 63.697781916 63.688763246 63.680140191 63.197305202 63.161384673 62.97343447 62.909325172 
62.849079743 62.826640176 62.822498152 62.856661405 62.889900332 62.905579106 62.930688438 62.984162314 62.986567273 
63.078863308 63.08957531 63.188209424 63.192659393 63.259917491 63.390745525 63.509805289 63.518767104 63.647901711 
63.763414954 63.86196001 63.969943681 63.970797447 64.103363878 64.321473389 64.367182545 64.633378934 64.942549766 
65.098144637 65.437366472 65.633686285 65.876990166 66.540020575 66.964790022 67.117598187 67.495789624 67.664085767 
67.903867174 68.529471579 68.862799244 68.886193913 69.637024733 69.904575605 70.522213662 70.603471667 71.111540126 
71.549932812 72.096470077 72.366105169 72.652769096 72.99269168 73.186617948 73.476236038 73.593779491 73.636035567 
73.712180965 73.837027591 73.87995196 73.961721865 73.998349616 74.095760502 74.099718916 74.095656609 74.075956234 
74.080287532 74.085998677 74.05959587 73.978985569 73.838068783 73.780342925 73.588763167 73.445481357 73.324346332 
73.21087881 72.8224613 72.210622461 72.064375333 71.508243514 70.219819967 69.809435141 68.247713577 67.406254638 
66.795161381 65.806771289 64.539524764 64.366821695 62.025770041 61.364809542 60.768265978 
EdgeArray 2 142 int
21420 21420 20499 16849 10738 18398 18397 7244 20503 
10650 20503 13098 21057 18183 16624 18751 18751 9410 
19410 19410 12287 15355 20729 21123 18413 21123 15913 
15913 19561 17587 20332 19005 19692 19692 18969 18969 
15598 15598 20736 20736 22032 22032 22031 22031 18540 
18540 22399 22399 22553 22553 22556 22556 15964 15964 
19948 19948 16846 16846 18887 18887 22838 22838 22840 
22840 21970 22841 19959 19959 23130 23130 22330 22330 
22854 22850 22851 22851 22564 22564 20841 20841 22563 
22563 21728 22563 21728 21728 22570 22570 18904 17698 
17698 23408 23406 23406 18619 18619 20445 20445 14127 
23423 22906 22906 22903 22903 21508 21508 12191 12191 
21051 21051 21105 21105 22385 22385 22894 22894 22386 
16535 22386 21510 21510 21510 22897 20089 20089 23182 
20513 19164 20513 20513 22480 22480 21996 19298 21996 
21996 21818 21818 20860 21820 21820 21820 21495 21495 
22715 22715 22441 22441 23276 23276 18615 22391 18615 
18615 12713 12713 8718 8718 22993 22993 19993 19993 
20807 20807 22884 24066 24402 22700 21759 18692 20323 
20323 10606 21763 21546 18376 25216 25216 21507 24672 
21507 6994 21504 21504 22000 9376 18987 9376 24069 
24668 25100 7903 24557 24557 23014 26618 7662 26617 
22793 22793 24823 25860 25108 25860 7434 8730 28026 
28026 25407 26219 25407 26253 26253 27778 27768 28659 
28397 28659 28397 29859 29859 29854 30286 30285 30286 
30287 25237 30287 25237 30313 30155 28900 29445 29445 
30056 30649 30315 30315 31049 31049 31169 31169 31719 
31719 31723 31723 32293 32293 31120 31120 32536 32536 
32313 32313 33245 33245 33034 33639 33639 33537 33545 
34587 34122 34122 34609 34609 35181 34373 33943 34604 
35183 35297 34960 35143 36009 36009 36202 35526 35945 
35945 37052 37052 42688 42688 
EdgePCoordArray 1 142 double
0 0.848 0.38 0.288 0.108 0.224 0.488 0.984 0.048 
0 0.932 0.24 0.22 0 0.232 0.376 0 0 
0 0 0 0 0 0 0 0 0 
0 0 0 0 0 0.908 0 0 0 
0.04 0 0 0 0 0.984 0 0 0.392 
0.432 0 0 0 0.012 0 0 0 0 
0 0 0 0 0.316 0.368 0 0.936 0.012 
0.12 0 0 0.972 0 0 0.9 0 0 
0 0 0 0.996 0 0 0 0 0 
0 0.86 0.7 0.252 0 0.688 0.424 0 0.924 
0.172 0 0.856 0.948 0.324 0.608 0 0.96 0.048 
0 0.68 0.756 0.872 0 0.408 0.664 0.268 0.388 
0.528 0.844 0.16 0.176 0.528 0.04 0.016 0.048 0 
0.408 0 0 0 0 0 0 0 0 
0 0 0.816 0.408 0.16 0 0 0.236 0.384 
0.572 0.424 0 0.864 0 0 0 
CurvatureArray 1 142 double
0 5.0214307041e-05 0.00020153701118 0.00035423498955 0.00050818077381 0.00066314335892 0.00081870161815 0.00097457236848 0.0011301084573 
0.0012846408773 0.0014374332639 0.0015874820281 0.0017336868925 0.0018747686169 0.0020092827038 0.002135826016 0.0022528044776 0.0023586983072 
0.0024523099362 0.0025322857775 0.0025982005207 0.0026496516816 0.0026870962008 0.0027118806302 0.0027257989851 0.0027313298501 0.0027316883404 
0.0027299953278 0.0027302226738 0.0027344072283 0.0027450436898 0.0027627728207 0.0027873069918 0.0028169120068 0.0028495216651 0.0028813258159 
0.0029104774637 0.0029324949776 0.0029453721843 0.0029475420821 0.0029369125109 0.0029134345533 0.0028769428283 0.0028282618247 0.002768758495 
0.0026995986875 0.0026234520324 0.0025414432589 0.0024563461823 0.002369487402 0.0022825855117 0.0021974086375 0.0021141827105 0.0020342869886 
0.0019573217761 0.0018835835364 0.0018119857553 0.0017419988119 0.0016730503942 0.0016029731304 0.0015318644343 0.0014575188653 0.0013802215735 
0.0012995240083 0.0012160450171 0.0011305326248 0.0010472962547 0.00096738815639 0.00089716966275 0.00084031538909 0.00080250093049 0.00078582516755 
0.0007907468269 0.0008169100393 0.00085987386783 0.00091562462304 0.00098160866892 0.0010572838179 0.0011405895191 0.0012297632581 0.0013248311871 
0.0014276225139 0.0015362461657 0.0016498608421 0.0017704713791 0.0018953096923 0.0020257382381 0.0021606414539 0.0023009371222 0.0024465176056 
0.0025977670053 0.0027522883533 0.0029135437696 0.0030816029094 0.0032549481344 0.0034351929196 0.0036248203649 0.0038207658683 0.0040279243583 
0.0042432757465 0.0044686580553 0.0047039441648 0.0049487908069 0.0052009633019 0.0054568121647 0.005712172264 0.0059589911041 0.0061907940569 
0.0063938100193 0.0065561796348 0.0066674256628 0.0067139128671 0.0066880614952 0.0065843158807 0.0064027936381 0.0061478613074 0.0058290345963 
0.0054589273124 0.0050530682419 0.004625688481 0.0041919178692 0.0037645423293 0.0033533395958 0.0029658039259 0.002606949386 0.0022791228463 
0.0019836751755 0.0017194137383 0.0014849854765 0.0012779836051 0.0010959156094 0.00093632883465 0.00079594118873 0.00067276279052 0.00056394029259 
0.00046759030126 0.00038101638898 0.00030283089197 0.00023147039712 0.00016466946289 0.00010160581247 0 
TorsionArray 1 142 double
0 0 -0.00051856469398 -0.0010078586544 -0.001573568537 -0.0022132102592 -0.0028881976913 -0.0035776611867 -0.004310515268 
-0.0050702031028 -0.0058784927528 -0.0067431077204 -0.0076400015178 -0.0086018046183 -0.0096486724775 -0.010775896214 -0.011990511907 -0.013332934378 
-0.014807879182 -0.016415073381 -0.018202912035 -0.020160700988 -0.02230600426 -0.024610546693 -0.027029070811 -0.029513181826 -0.031959178991 
-0.034226884949 -0.036127256158 -0.03755400975 -0.038380641957 -0.038543176136 -0.038039564657 -0.037000979142 -0.035548432066 -0.033853701605 
-0.03204605136 -0.030318307243 -0.028689992974 -0.027278884293 -0.026150072337 -0.025254482972 -0.024660120883 -0.024317408802 -0.024251229481 
-0.024418876101 -0.02472917503 -0.025196877229 -0.025813550094 -0.026487116437 -0.027164288595 -0.027721616624 -0.028251464476 -0.02866615852 
-0.028939153516 -0.029026729742 -0.028917413867 -0.028940131158 -0.028857262277 -0.028978142988 -0.02935527238 -0.030223152243 -0.03196813337 
-0.034716173789 -0.038791819932 -0.044707388254 -0.052470065692 -0.062017794021 -0.072270684668 -0.081300049751 -0.086026652042 -0.083916080397 
-0.074227168252 -0.059105867655 -0.042163847976 -0.026148758789 -0.012474988964 -0.0016220231595 0.0057656124994 0.010417537988 0.01349531834 
0.014875584667 0.014803097099 0.014131986679 0.012852984997 0.01118414142 0.0092633706283 0.0073346035458 0.0053598056844 0.0032353907497 
0.0010612026545 -0.0011126873191 -0.0033097194291 -0.0056402303823 -0.0080427196777 -0.010471421959 -0.013068086126 -0.015695273511 -0.018353309912 
-0.021074336103 -0.023771613688 -0.026267849864 -0.028597438128 -0.030707256101 -0.032397102207 -0.033665374948 -0.034384403001 -0.034607341042 
-0.034427148694 -0.033670971173 -0.03254533908 -0.031110246953 -0.029396582736 -0.027559666472 -0.025585504009 -0.023600727208 -0.021590394153 
-0.019591498893 -0.017752105925 -0.015980575796 -0.014261037836 -0.01275275689 -0.011321440096 -0.010014393208 -0.0088321723771 -0.0077961665482 
-0.006894953913 -0.006046360799 -0.005310941848 -0.0047428752315 -0.0041542524579 -0.0036837682755 -0.0032693425088 -0.0028354500887 -0.0025669974564 
-0.002203771779 -0.0019233226827 -0.0017121827203 -0.0013158369386 -0.0010423751401 0 0 
TangentArray 3 142 double
0.012563568726 -0.0061807719792 0.99990197259 0.012563568726 -0.0061807719792 0.99990197259 0.012317002092 -0.0066158203797 0.99990225641 
0.011775400959 -0.0075748946294 0.99990197565 0.010943578823 -0.0090601657091 0.99989907065 0.0098319527045 -0.011072570356 0.99989035944 
0.0084570562673 -0.013611408023 0.99987159564 0.0068414711673 -0.016674215611 0.99983756921 0.0050134491794 -0.020256136884 0.99978225342 
0.003007162782 -0.024349297705 0.99969898903 0.00086201385449 -0.028942453146 0.99958070777 -0.0013775453796 -0.034020382187 0.99942018989 
-0.0036623592046 -0.03956324579 0.99921035659 -0.0059399176976 -0.045545775671 0.99894459291 -0.008154754387 -0.051936832793 0.99861707645 
-0.010249182683 -0.058699282711 0.99822309554 -0.012164748058 -0.065789633377 0.99775936129 -0.013843571634 -0.0731578079 0.99722429306 
-0.015229183764 -0.080747908606 0.99661820534 -0.01626799193 -0.088498442102 0.99594346134 -0.01691117602 -0.096343264487 0.99520449532 
-0.01711513058 -0.10421306804 0.99440771757 -0.016843103341 -0.11203636865 0.9935613529 -0.016065893532 -0.11974172798 0.99267507556 
-0.014762786815 -0.12725945119 0.99175959396 -0.012922378099 -0.13452293847 0.99082621643 -0.010542310807 -0.14147069702 0.9898863074 
-0.0076293829053 -0.14804759083 0.98895080938 -0.0041991004585 -0.15420674548 0.98802967931 -0.00027578407871 -0.1599100331 0.98713155418 
0.004108600826 -0.16512804326 0.98626357974 0.0089156866051 -0.16984081026 0.98543117959 0.01410122012 -0.17403718131 0.98463811378 
0.019615912878 -0.17771456515 0.98388655306 0.025407204556 -0.18087784254 0.98317733906 0.031419677088 -0.18353821205 0.98251031985 
0.037597059338 -0.18571258405 0.98188456412 0.04388273551 -0.18742231642 0.98129872151 0.050220064266 -0.1886913772 0.98075150233 
0.056555220514 -0.18954695553 0.98024153079 0.062836767604 -0.19001758314 0.97976775755 0.069016634882 -0.19013228244 0.97932957644 
0.075051305996 -0.18992094638 0.97892662421 0.080902041661 -0.1894130569 0.97855891674 0.086535738884 -0.18863783532 0.9782266266 
0.091924628067 -0.18762352502 0.97793009751 0.097047034591 -0.18639738078 0.97766962186 0.10188707159 -0.18498607809 0.97744522893 
0.10643428917 -0.18341512079 0.97725668867 0.11068350895 -0.18170830885 0.97710350083 0.11463381488 -0.1798884032 0.97698477515 
0.11828878792 -0.1779767701 0.97689919232 0.12165544695 -0.17599406747 0.97684494186 0.12474330265 -0.17395932033 0.97681997488 
0.12756406076 -0.17189013967 0.97682198495 0.13013060505 -0.16980311056 0.97684846792 0.1324566809 -0.16771389694 0.97689675834 
0.13455621433 -0.16563762764 0.9769640738 0.13644254593 -0.16358734743 0.97704790641 0.13812829436 -0.16157596576 0.97714573201 
0.13962485068 -0.15961529351 0.97725526816 0.14094239354 -0.15771624717 0.97737445592 0.14208952021 -0.15588891205 0.9775015168 
0.14307327001 -0.15414138903 0.97763514237 0.14389933052 -0.15248037638 0.97777436942 0.14457214641 -0.15091094421 0.97791859651 
0.14509534365 -0.14943475 0.9780677874 0.14547188134 -0.14805084123 0.9782223061 0.14570445721 -0.14675531723 0.97838289438 
0.14579622309 -0.14554016838 0.97855072465 0.14575083486 -0.14439376297 0.97872730388 0.1455726784 -0.14330070827 0.97891445097 
0.145267071 -0.14224309057 0.9791140798 0.14484028769 -0.14119918368 0.97932838292 0.14429926418 -0.14014488713 0.97955966279 
0.14365186437 -0.13905571062 0.97981000771 0.14290647248 -0.13790650613 0.98008139238 0.14207113608 -0.13667077434 0.98037589308 
0.14115395584 -0.13532184416 0.98069544673 0.14016247314 -0.13383587213 0.98104150802 0.1391032258 -0.13219126592 0.98141518319 
0.13798186111 -0.1303657831 0.98181758418 0.13680257201 -0.12833883804 0.98224956042 0.13556807185 -0.12609392132 0.98271136195 
0.1342794026 -0.12361501234 0.98320311775 0.13293575089 -0.12088843472 0.98372459179 0.13153432286 -0.11790337264 0.98427512243 
0.13006961906 -0.11465071276 0.98485385122 0.1285342157 -0.11112307867 0.98545959673 0.12691798162 -0.10731427054 0.98609100659 
0.12520712917 -0.10322027796 0.98674654751 0.12338530417 -0.098841118983 0.98742417426 0.12143268346 -0.094178410912 0.98812171837 
0.11932492474 -0.089233654514 0.98883715405 0.11703373779 -0.084013083978 0.98956804008 0.11452678135 -0.07852655125 0.99031166665 
0.11176663717 -0.072784485694 0.99106540524 0.10871106746 -0.066803011443 0.99182622544 0.10531352829 -0.06060189946 0.99259078705 
0.10152330603 -0.054205282244 0.99335532702 0.097286666142 -0.04764492057 0.99411531833 0.092546927778 -0.040958102387 0.99486556881 
0.087247804286 -0.03418832093 0.99559980884 0.081334876811 -0.02738692088 0.99631049095 0.074758553061 -0.020614522236 0.99698856574 
0.067478654231 -0.013938496714 0.99762335053 0.059468034569 -0.0074333360547 0.99820253375 0.05071644352 -0.0011765023883 0.99871240014 
0.041234858684 0.0047518571573 0.99913818178 0.031059503788 0.010270192317 0.99946477195 0.02025232725 0.015305455082 0.99967774122 
0.0089015457628 0.019793452477 0.99976446312 -0.0028799904529 0.023683414103 0.99971536027 -0.014959961783 0.026942659724 0.99952503352 
-0.02719284725 0.029557150161 0.99919313645 -0.039427204588 0.031533954229 0.99872473949 -0.051513906008 0.032898931013 0.99813024091 
-0.063313772835 0.033695849571 0.99742466176 -0.074704453517 0.033982854418 0.99662651491 -0.085583946046 0.033824872091 0.99575663001 
-0.095872754796 0.033293021875 0.99483666478 -0.10551566497 0.032459962263 0.99388771765 -0.11447925108 0.031393905393 0.99292946566 
-0.12274935861 0.030158997426 0.9919793495 -0.13032853271 0.028812564207 0.9910521226 -0.13723216072 0.027404153938 0.99015975802 
-0.1434856917 0.025974782774 0.98931146104 -0.14912115001 0.024557513874 0.98851394079 -0.15417448125 0.023179720047 0.98777169929 
-0.1586834916 0.021861927753 0.98708743565 -0.16268589779 0.020618668682 0.98646245198 -0.16621946468 0.019461517242 0.98589671818 
-0.16931921707 0.018397863641 0.98538952772 -0.17201794046 0.01743292776 0.98493955205 -0.17434592778 0.016570178392 0.98454503536 
-0.17632992732 0.015810719831 0.98420413425 -0.17799328617 0.015156150237 0.9839149766 -0.17935545993 0.014606873593 0.98367589085 
-0.18043389246 0.01416269419 0.98348514404 -0.18124186506 0.013824426307 0.983341381 -0.18178910175 0.013592477677 0.98324359496 
-0.18178910175 0.013592477677 0.98324359496 
NormalArray 3 142 double
0.49350307331 0.86974366152 -0.00082455335471 0.49350307331 0.86974366152 -0.00082455335471 0.49296638077 0.87004830193 -0.00031581552513 
0.49101490584 0.87115078756 0.00081705812051 0.4869587464 0.8734211467 0.0025845297529 0.48084464829 0.87679165794 0.0049812416263 
0.47235042423 0.8813745103 0.0080030815955 0.46153494351 0.88704572615 0.011635103585 0.44832350545 0.89373067301 0.015859337056 
0.43255826501 0.9013693996 0.020653155564 0.41424844678 0.90979282315 0.025985443751 0.39314594555 0.91892524838 0.031822215374 
0.36917611581 0.92857734451 0.038119690224 0.3422884633 0.93852501749 0.044826325231 0.31222967793 0.94858874971 0.051884604059 
0.2788271789 0.95851320457 0.059227029043 0.24190111402 0.96800037514 0.066776678307 0.20128436139 0.97669972221 0.074446346369 
0.15661044627 0.98423904916 0.082138068133 0.10773861441 0.9901206835 0.089740866186 0.054441263501 0.99378156165 0.097130615949 
-0.003606446917 0.99455335904 0.10416625921 -0.066377893016 0.99163543023 0.11069394215 -0.13406187936 0.98409678455 0.11653725216 
-0.20620405145 0.97093425159 0.12151776931 -0.28239329793 0.95106179061 0.12544120423 -0.36156381922 0.92350077111 0.12813247206 
-0.44244277674 0.88740716296 0.12943305773 -0.52302114493 0.84246047249 0.1292642033 -0.60121494746 0.78883086102 0.12761841423 
-0.67480802227 0.72739910759 0.12459803913 -0.74190544115 0.65960665228 0.1203967635 -0.80098775522 0.587471406 0.11530812251 
-0.85128241052 0.51312189119 0.10965483269 -0.89272478277 0.43849765468 0.10374135657 -0.92574452716 0.36527322448 0.09783936789 
-0.95116778716 0.29460108442 0.092141422417 -0.96997703568 0.22719102271 0.086768597152 -0.98320904327 0.1631539932 0.081735865631 
-0.99171566373 0.10275113844 0.077085964167 -0.9963241591 0.04532604281 0.072689200275 -0.99760761797 -0.0092490167394 0.068509096096 
-0.996021773 -0.061572456532 0.064416304643 -0.99186787149 -0.11207586773 0.060308584532 -0.98533238705 -0.16116603027 0.056085628411 
-0.97647453932 -0.20936299055 0.051619882316 -0.96532397325 -0.25681491582 0.04685857098 -0.95185341553 -0.30369818343 0.04174312791 
-0.93600819117 -0.35010839943 0.036232233071 -0.91767007249 -0.3961882881 0.030273394616 -0.89688805265 -0.44161009271 0.02392377566 
-0.87360099819 -0.48633964679 0.017176842636 -0.84814018933 -0.52967370032 0.010197570184 -0.82031443974 -0.57190538053 0.0029078655339 
-0.79074862482 -0.61212482999 -0.0044502652122 -0.75928974982 -0.65064294992 -0.011951047264 -0.72683270564 -0.6865428915 -0.019315179246 
-0.69319975002 -0.72025300991 -0.026640350887 -0.65864240012 -0.75169305976 -0.033878203495 -0.62343318153 -0.78080187731 -0.040981661248 
-0.58708038953 -0.8080979141 -0.048107977052 -0.54962599127 -0.83358159492 -0.055253907831 -0.50989318592 -0.85794930651 -0.062705074918 
-0.46681685544 -0.88152573073 -0.070671136506 -0.41872751219 -0.90462978506 -0.079449496598 -0.3635144144 -0.92729308269 -0.089357760292 
-0.29806809567 -0.94920668987 -0.10080709424 -0.21987214129 -0.96885239072 -0.11393544876 -0.12652626482 -0.98357991525 -0.1286920923 
-0.018622306686 -0.98934830742 -0.14437152179 0.09943884902 -0.98214351592 -0.15970607205 0.21820642953 -0.96043810085 -0.17304510555 
0.32638212855 -0.92732583594 -0.18314338687 0.41429738717 -0.89017004528 -0.18961794605 0.47907990929 -0.85627254161 -0.1930797115 
0.52135959156 -0.83090794323 -0.19436091727 0.54502253737 -0.8156123117 -0.19423437071 0.55340310026 -0.8102098804 -0.19314491536 
0.55033403853 -0.81272122775 -0.19135478045 0.53999075873 -0.82016739943 -0.18903813743 0.52452373606 -0.83077521649 -0.18624550994 
0.50528935168 -0.84332544021 -0.18298872363 0.48485469443 -0.85600332576 -0.17937176918 0.46456136839 -0.86798403571 -0.17546067579 
0.44491506482 -0.87904087451 -0.17128259117 0.42725281846 -0.88858766954 -0.16693406681 0.41179734299 -0.89668038221 -0.16244149858 
0.39935063022 -0.90310257354 -0.15787595073 0.38952974833 -0.90818036824 -0.15321551457 0.38305548581 -0.91170709661 -0.14852159704 
0.37995815053 -0.91375819393 -0.14379765945 0.38053396941 -0.91425069852 -0.13906674073 0.38463602419 -0.91324463673 -0.13431069348 
0.39251735636 -0.91057687004 -0.12953720975 0.40436316467 -0.90605129925 -0.12474563797 0.4201379503 -0.89950254084 -0.11991364289 
0.439777592 -0.89071227362 -0.11501006563 0.46362185947 -0.87917449644 -0.11003170555 0.49104804038 -0.86479358628 -0.10489935734 
0.52227054448 -0.84694430896 -0.099593252222 0.55665736811 -0.82540293213 -0.094034962486 0.59399135253 -0.79962446327 -0.088175908577 
0.63309868944 -0.76972488031 -0.081912502455 0.67370410029 -0.73516439759 -0.075207006124 0.71458773822 -0.69623505047 -0.067978811997 
0.75490926043 -0.65306175343 -0.060186001092 0.79367335524 -0.60613503942 -0.051796903154 0.82993272535 -0.5562191727 -0.042800739602 
0.86314881404 -0.50385528087 -0.033226205997 0.8928284818 -0.4498028458 -0.023123624293 0.91846049373 -0.39531342574 -0.01255455642 
0.94019836467 -0.34062352584 -0.0016274865311 0.95790039339 -0.28694162448 0.0095572216687 0.97191223956 -0.23441678658 0.020865492084 
0.98243966611 -0.18378566364 0.032173471832 0.98986545873 -0.13523086819 0.043347271027 0.99454792257 -0.089049605162 0.054264145901 
0.99686069151 -0.045473943152 0.064814213039 0.997179697 -0.0046741962135 0.07490529876 0.995853998 0.033825177282 0.084443306733 
0.99321448288 0.069295888809 0.093397381023 0.98953222591 0.1023773314 0.1017096647 0.98507462414 0.13291318043 0.10937125462 
0.9800649355 0.16102341328 0.11637947663 0.9747037643 0.18677624546 0.12274854782 0.96914323046 0.21035638866 0.12849742648 
0.96349552929 0.2319780934 0.13365077338 0.95784610874 0.25183517191 0.13823848294 0.95239467368 0.26960658056 0.14232595427 
0.94701209697 0.28614729378 0.14590344226 0.94183382055 0.30122952287 0.14902962464 0.93698742504 0.31467909886 0.15176175428 
0.93223497068 0.32741346095 0.1540726615 0.92797800732 0.33837203548 0.15608069556 0.92389061398 0.3486330742 0.15773748123 
0.92008402107 0.35795979239 0.15909173832 0.91686353638 0.36563258549 0.16023129556 0.91361156265 0.37333777226 0.16103670512 
0.9111500164 0.37902132964 0.16170491426 0.90902006169 0.38391552922 0.16214621138 0.90769161813 0.38690933099 0.16247183129 
0.90769161813 0.38690933099 0.16247183129 
BinormalArray 3 142 double
-0.86965330643 0.49346505581 0.013977314233 -0.86965330643 0.49346505581 0.013977314233 -0.86996117091 0.49292208637 0.013977763784 
-0.87107158269 0.49095715323 0.013977535992 -0.87335640914 0.48688131397 0.013970280101 -0.87675068116 0.48074295288 0.013944760311 
-0.88137027118 0.47222208987 0.01388318818 -0.88709564884 0.4613803748 0.01376443092 -0.89385731512 0.44814637456 0.013561975604 
-0.90160096736 0.43236595282 0.013243054481 -0.91016343657 0.41405235581 0.01277362028 -0.91947505016 0.39296183211 0.012109114093 
-0.9293522382 0.36902420632 0.011205021625 -0.93957614128 0.34219347431 0.010015032203 -0.949971646 0.31222099436 0.0084807123076 
-0.9602866023 0.27893875828 0.0065429784644 -0.97022464921 0.24217142248 0.004139104921 -0.97943502152 0.20175625832 0.0012045100749 
-0.98754303201 0.15733171763 -0.0023431913447 -0.99404614752 0.10876147224 -0.0065725757599 -0.99837375815 0.05582278311 -0.011560965866 
-0.99984702122 -0.0018034595188 -0.017397749507 -0.99765238695 -0.06408607968 -0.024138956121 -0.99084272191 -0.13120761114 -0.031863195256 
-0.97839764375 -0.20271090542 -0.04057510979 -0.95921167499 -0.27818168426 -0.050278356295 -0.93228775832 -0.35655626155 -0.06088651768 
-0.89676428443 -0.4365666478 -0.072272956214 -0.85230936256 -0.51621762073 -0.084190964734 -0.79908729867 -0.59344305036 -0.096357849142 
-0.73798187815 -0.66605049929 -0.10844113572 -0.67044524528 -0.73217017383 -0.12012497506 -0.59851463773 -0.79030905768 -0.13111758757 
-0.52434098973 -0.83971629621 -0.14121992909 -0.44988547007 -0.8803425543 -0.15033313308 -0.37684197527 -0.91262763282 -0.15843272857 
-0.30637607902 -0.93740121463 -0.16556769317 -0.23920463159 -0.95564486841 -0.17182557934 -0.17543637699 -0.96838852672 -0.17732946442 
-0.11533234306 -0.97648049402 -0.18216557152 -0.058221221479 -0.98073384154 -0.18647096672 -0.0039679551626 -0.98171491323 -0.19031574939 
0.048040911477 -0.97986675968 -0.19378649102 0.098249606369 -0.9754802375 -0.1969398921 0.14707703058 -0.96873178836 -0.19981759008 
0.19505726549 -0.95966897993 -0.2024552102 0.24234582674 -0.94831540927 -0.20485698623 0.28912644291 -0.93463766471 -0.20702254881 
0.3355002357 -0.91857661744 -0.20894159407 0.38161603595 -0.90000940599 -0.21059978689 0.42714272733 -0.87898844612 -0.21196320926 
0.47204772917 -0.85545193744 -0.21300921135 0.51561436314 -0.82974204389 -0.21370533246 0.55814274912 -0.80166226717 -0.21404270836 
0.59870194818 -0.77185294739 -0.21400702057 0.6376088938 -0.74015583181 -0.21359832208 0.67392094915 -0.70748208946 -0.21283713818 
0.70807395925 -0.67364662697 -0.21173448045 0.73998217574 -0.63890274978 -0.21030847798 0.76957887345 -0.60352434556 -0.20858264994 
0.79739671262 -0.56701033439 -0.20653755928 0.82343579679 -0.52940278615 -0.20417193389 0.84842177436 -0.48951162863 -0.20139229934 
0.87270388041 -0.44626541233 -0.19807856742 0.89663830679 -0.39798829982 -0.1940233491 0.92030221395 -0.34256886274 -0.18891905482 
0.94345256987 -0.27690416285 -0.18226720222 0.96462125895 -0.19850942902 -0.1734930355 0.98120401317 -0.10504012174 -0.16188037981 
0.98913935875 0.0028259508974 -0.1469535402 0.98431123607 0.12060080993 -0.1287898878 0.96498422237 0.23879606666 -0.10854441087 
0.9340086639 0.34617004085 -0.088284305383 0.89854269016 0.43319750808 -0.070434032581 0.8658291765 0.49714861469 -0.05641889788 
0.84115891373 0.53875365355 -0.046863446667 0.82615263353 0.56192379606 -0.041394124486 0.82070750022 0.5699833762 -0.039473407939 
0.8229264893 0.56672056999 -0.040246599294 0.82991834635 0.55624940112 -0.042686556959 0.83995544101 0.54068290974 -0.046226055852 
0.85184721464 0.52135109522 -0.050491171734 0.86382925488 0.50078682984 -0.05487776851 0.87510229853 0.48031660054 -0.059092557483 
0.88544882807 0.46044160289 -0.063038902263 0.89430594052 0.44249060995 -0.066475144628 0.90173259352 0.42668851271 -0.069391951316 
0.90752463787 0.41383687092 -0.071680373315 0.91200083912 0.4035592647 -0.073446506472 0.91496465546 0.3965776309 -0.074604704489 
0.9164905775 0.39292688536 -0.075189654309 0.91649875332 0.39290723262 -0.075192697181 0.91504602741 0.39637691709 -0.074673337354 
0.91197131934 0.40359276339 -0.073628758322 0.90707967416 0.41474431262 -0.072066773671 0.90020426519 0.42980083734 -0.070025146531 
0.89112506888 0.4487026457 -0.067542929653 0.87933877159 0.47179398308 -0.064604661612 0.86474324675 0.49845708231 -0.06131601984 
0.84671512134 0.52891126372 -0.057674763997 0.82502598694 0.5625299647 -0.053778803403 0.79913036438 0.59910195425 -0.049674028818 
0.76913839462 0.63745962016 -0.045512224536 0.73451169022 0.6773354155 -0.041343824823 0.69553973512 0.71751780185 -0.037318640145 
0.65234855694 0.7571763761 -0.033545428006 0.60543055593 0.79532701419 -0.03014601871 0.55555334014 0.83103480539 -0.027233040423 
0.50326316302 0.86377501457 -0.024877961174 0.44932461463 0.89306882325 -0.023140173407 0.39499387932 0.91841877075 -0.022063472696 
0.34051108286 0.93999140043 -0.021641847553 0.28708629713 0.95765526158 -0.021859962547 0.23486761831 0.97176276079 -0.022679034583 
0.18458832982 0.98252185966 -0.024040461257 0.13642532447 0.99031218412 -0.025882596961 0.090668336246 0.99548371567 -0.028132270503 
0.04754080234 0.99839707042 -0.030710940997 0.0072039237451 0.99941148557 -0.033537829197 -0.03082536049 0.99885521244 -0.036579526252 
-0.065828609856 0.99704044777 -0.039710699261 -0.098450080364 0.99421588846 -0.042922590912 -0.1285398224 0.9906303595 -0.046141140909 
-0.15622201242 0.9864896833 -0.049323296569 -0.1815682941 0.98197987264 -0.052425988808 -0.20476506764 0.97724060604 -0.055426212013 
-0.22602703671 0.97237414345 -0.058312124268 -0.24554778475 0.96745851317 -0.061076269553 -0.26301067444 0.96269153538 -0.063642696609 
-0.27926266792 0.95793620997 -0.066110361733 -0.29407882129 0.95332871826 -0.068425154871 -0.30728757685 0.94899858487 -0.070540988286 
-0.31979518784 0.94470203991 -0.072588522738 -0.33055505756 0.94085092264 -0.074383434219 -0.34063122416 0.93711280472 -0.076091789066 
-0.34979015266 0.93360313205 -0.077666214854 -0.35732288721 0.9306358598 -0.078976266928 -0.36489112292 0.92758048009 -0.080305176461 
-0.37047166972 0.92527955223 -0.081292632876 -0.37527844834 0.92326472458 -0.082148247398 -0.37821772679 0.922017578 -0.082673677797 
-0.37821772679 0.922017578 -0.082673677797 
