# vtk DataFile Version 4.1
vtk output
ASCII
DATASET POLYDATA
POINTS 274 float
9.29003 -6.97415 245.877 9.22437 -7.16098 243.178 9.15866 -7.3476 240.48 
9.09278 -7.53341 237.787 9.02659 -7.71781 235.104 8.95997 -7.90023 232.433 
8.89281 -8.08014 229.779 8.82499 -8.25706 227.144 8.75643 -8.4306 224.531 
8.68705 -8.60043 221.942 8.6168 -8.76631 219.379 8.54562 -8.9281 216.842 
8.47348 -9.08577 214.331 8.40037 -9.23937 211.845 8.3263 -9.38907 209.384 
8.25126 -9.53512 206.946 8.17527 -9.67785 204.527 8.09834 -9.81769 202.125 
8.02049 -9.95512 199.736 7.94173 -10.0907 197.356 7.86205 -10.2249 194.981 
7.78144 -10.3584 192.606 7.69986 -10.4918 190.228 7.61727 -10.6257 187.842 
7.53358 -10.7605 185.443 7.44868 -10.8969 183.029 7.36244 -11.0352 180.595 
7.27469 -11.1757 178.138 7.18523 -11.3189 175.656 7.09383 -11.4649 173.147 
7.00022 -11.6138 170.61 6.90412 -11.7657 168.043 6.80519 -11.9203 165.446 
6.70309 -12.0776 162.82 6.59743 -12.2371 160.164 6.48782 -12.3987 157.48 
6.37386 -12.5617 154.769 6.25512 -12.7257 152.033 6.13117 -12.8901 149.273 
6.00159 -13.0542 146.49 5.86597 -13.2172 143.687 5.7239 -13.3784 140.865 
5.57501 -13.5372 138.025 5.41896 -13.6925 135.169 5.25543 -13.8437 132.297 
5.08414 -13.9899 129.412 4.90488 -14.1302 126.514 4.71748 -14.2639 123.603 
4.5218 -14.3901 120.68 4.31778 -14.5081 117.746 4.1054 -14.6169 114.801 
3.8847 -14.716 111.846 3.65576 -14.8045 108.881 3.41869 -14.8817 105.907 
3.17367 -14.9471 102.924 2.9209 -15.0001 99.9341 2.66059 -15.04 96.9373 
2.39299 -15.0666 93.9352 2.11837 -15.0794 90.9292 1.83701 -15.0782 87.9209 
1.54918 -15.0628 84.9119 1.25519 -15.0332 81.9043 0.955326 -14.9896 78.9 
0.649906 -14.932 75.9014 0.339247 -14.8609 72.9108 0.0236814 -14.7767 69.9307 
-0.296437 -14.6801 66.9636 -0.620731 -14.5717 64.0122 -0.948795 -14.4524 61.0794 
-1.28018 -14.3231 58.1679 -1.61442 -14.1849 55.2806 -1.95097 -14.0388 52.4207 
-2.28926 -13.8859 49.591 -2.62868 -13.7275 46.7947 -2.96856 -13.5647 44.0348 
-3.3082 -13.3986 41.3145 -3.64685 -13.2305 38.6366 -3.98376 -13.0614 36.0042 
-4.31812 -12.8923 33.42 -4.64915 -12.7242 30.8867 -4.97606 -12.558 28.4066 
-5.29807 -12.3944 25.9819 -5.61444 -12.2341 23.6145 -5.92446 -12.0777 21.3059 
-6.22749 -11.9256 19.0572 -6.52294 -11.7781 16.8692 -6.81031 -11.6356 14.7421 
-7.08916 -11.4981 12.6759 -7.35915 -11.3657 10.6699 -7.62004 -11.2383 8.72321 
-7.87168 -11.1158 6.83429 -8.11401 -10.9981 5.00128 -8.34706 -10.8849 3.22189 
-8.57098 -10.7759 1.49345 -8.78597 -10.6708 -0.18707 -8.99233 -10.5694 -1.82297 
-9.19045 -10.4711 -3.41785 -9.38074 -10.3758 -4.97548 -9.56371 -10.283 -6.49983 
-9.7399 -10.1924 -7.99496 -9.90986 -10.1037 -9.46495 -10.0742 -10.0167 -10.9139 
-10.2335 -9.93114 -12.3459 -10.3884 -9.84675 -13.7647 -10.5395 -9.76341 -15.1741 
-10.6873 -9.68101 -16.5775 -10.8325 -9.59947 -17.9783 -10.9755 -9.51878 -19.3793 
-11.1168 -9.43894 -20.7832 -11.2569 -9.36002 -22.1923 -11.3961 -9.28212 -23.6084 
-11.535 -9.20537 -25.0334 -11.6736 -9.12993 -26.4686 -11.8124 -9.05598 -27.915 
-11.9516 -8.98373 -29.3736 -12.0913 -8.91338 -30.8449 -12.2318 -8.84516 -32.3294 
-12.3731 -8.7793 -33.8275 -12.5154 -8.716 -35.3393 -12.6586 -8.65548 -36.8649 
-12.803 -8.59793 -38.4043 -12.9484 -8.54353 -39.9574 -13.095 -8.49242 -41.5242 
-13.2425 -8.44475 -43.1044 -13.3911 -8.40062 -44.6977 -13.5406 -8.36011 -46.3037 
-13.6909 -8.32327 -47.9219 -13.8418 -8.29013 -49.5517 -13.9932 -8.26069 -51.1923 
-14.1449 -8.23493 -52.8429 -14.2967 -8.2128 -54.5022 -14.4482 -8.19424 -56.1692 
-14.5992 -8.17917 -57.8425 -14.7495 -8.16749 -59.5205 -14.8985 -8.15909 -61.2018 
-15.0461 -8.15385 -62.8847 -15.1919 -8.15166 -64.5676 -15.3354 -8.15237 -66.2488 
-15.4764 -8.15588 -67.927 -15.6144 -8.16207 -69.6007 -15.7493 -8.17082 -71.2686 
-15.8805 -8.18204 -72.9299 -16.008 -8.19565 -74.5837 -16.1312 -8.21157 -76.2297 
-16.2502 -8.22978 -77.8676 -16.3645 -8.25024 -79.4977 -16.4741 -8.27295 -81.1204 
-16.5788 -8.29794 -82.7365 -16.6786 -8.32526 -84.3471 -16.7732 -8.35497 -85.9535 
-16.8627 -8.38716 -87.5572 -16.947 -8.42195 -89.16 -17.0261 -8.45946 -90.7636 
-17.1001 -8.49983 -92.3701 -17.1689 -8.5432 -93.9814 -17.2326 -8.58972 -95.5994 
-17.2912 -8.63953 -97.2261 -17.3449 -8.69278 -98.8631 -17.3936 -8.74957 -100.512 
-17.4375 -8.81003 -102.175 -17.4766 -8.87421 -103.853 -17.5109 -8.94218 -105.546 
-17.5407 -9.01393 -107.257 -17.566 -9.08944 -108.985 -17.5868 -9.16864 -110.732 
-17.6033 -9.2514 -112.496 -17.6155 -9.33756 -114.28 -17.6235 -9.42689 -116.081 
-17.6275 -9.51913 -117.901 -17.6276 -9.61396 -119.739 -17.6238 -9.71104 -121.593 
-17.6163 -9.80995 -123.465 -17.6052 -9.91027 -125.352 -17.5907 -10.0115 -127.253 
-17.5728 -10.1132 -129.169 -17.5517 -10.2149 -131.098 -17.5275 -10.316 -133.039 
-17.5004 -10.4161 -134.99 -17.4706 -10.5146 -136.951 -17.4381 -10.6111 -138.921 
-17.4032 -10.7051 -140.899 -17.3661 -10.7962 -142.883 -17.3268 -10.8841 -144.872 
-17.2856 -10.9684 -146.865 -17.2427 -11.049 -148.861 -17.1982 -11.1255 -150.859 
-17.1523 -11.198 -152.858 -17.1052 -11.2663 -154.856 -17.0572 -11.3304 -156.851 
-17.0083 -11.3904 -158.844 -16.9587 -11.4465 -160.832 -16.9087 -11.4989 -162.814 
-16.8583 -11.5479 -164.789 -16.8078 -11.5937 -166.756 -16.7572 -11.6368 -168.714 
-16.7068 -11.6776 -170.661 -16.6565 -11.7164 -172.597 -16.6065 -11.7539 -174.52 
-16.5568 -11.7904 -176.43 -16.5075 -11.8264 -178.325 -16.4585 -11.8625 -180.207 
-16.4099 -11.899 -182.073 -16.3617 -11.9365 -183.925 -16.3136 -11.9753 -185.763 
-16.2657 -12.0158 -187.585 -16.2177 -12.0584 -189.394 -16.1696 -12.1033 -191.19 
-16.1211 -12.1508 -192.973 -16.0721 -12.2011 -194.744 -16.0224 -12.2543 -196.505 
-15.9717 -12.3106 -198.257 -15.9197 -12.3699 -200 -15.8663 -12.4323 -201.736 
-15.8112 -12.4977 -203.465 -15.7542 -12.5661 -205.19 -15.6949 -12.6374 -206.912 
-15.6333 -12.7114 -208.63 -15.569 -12.788 -210.346 -15.5019 -12.8671 -212.061 
-15.4318 -12.9485 -213.775 -15.3585 -13.0321 -215.489 -15.2819 -13.1178 -217.205 
-15.2018 -13.2055 -218.921 -15.1181 -13.295 -220.639 -15.0308 -13.3863 -222.359 
-14.9397 -13.4793 -224.082 -14.8448 -13.574 -225.808 -14.7461 -13.6703 -227.538 
-14.6435 -13.7684 -229.271 -14.5371 -13.8681 -231.009 -14.4268 -13.9695 -232.752 
-14.3126 -14.0727 -234.5 -14.1946 -14.1776 -236.253 -14.0728 -14.2843 -238.013 
-13.9472 -14.3929 -239.779 -13.8179 -14.5033 -241.551 -13.685 -14.6155 -243.329 
-13.5484 -14.7297 -245.114 -13.4084 -14.8456 -246.905 -13.2649 -14.9634 -248.702 
-13.118 -15.0829 -250.504 -12.968 -15.204 -252.31 -12.8149 -15.3267 -254.121 
-12.6589 -15.4508 -255.933 -12.5001 -15.5762 -257.748 -12.3389 -15.7026 -259.562 
-12.1754 -15.8299 -261.376 -12.01 -15.9578 -263.186 -11.843 -16.0862 -264.991 
-11.6748 -16.2146 -266.79 -11.5058 -16.3429 -268.58 -11.3365 -16.4707 -270.359 
-11.1675 -16.5977 -272.126 -10.9992 -16.7235 -273.879 -10.8322 -16.8479 -275.615 
-10.667 -16.9705 -277.333 -10.5044 -17.0909 -279.031 -10.3448 -17.2089 -280.707 
-10.1887 -17.3241 -282.36 -10.0367 -17.4363 -283.989 -9.88927 -17.5453 -285.594 
-9.74667 -17.6509 -287.172 -9.60923 -17.7529 -288.725 -9.47716 -17.8512 -290.252 
-9.35054 -17.9459 -291.754 -9.22935 -18.0371 -293.232 -9.11346 -18.1247 -294.686 
-9.00262 -18.209 -296.118 -8.89647 -18.2903 -297.531 -8.79454 -18.3688 -298.926 
-8.69624 -18.445 -300.306 -8.60091 -18.5193 -301.674 -8.50783 -18.5922 -303.033 
-8.41617 -18.6641 -304.386 
LINES 1 275
274 273 272 271 270 269 268 267 266 265 264 263 262 261 260 259 258 257 256 255 254 253 252 251 250 249 248 247 246 245 244 243 242 241 240 239 238 237 236 235 234 233 232 231 230 229 228 227 226 225 224 223 222 221 220 219 218 217 216 215 214 213 212 211 210 209 208 207 206 205 204 203 202 201 200 199 198 197 196 195 194 193 192 191 190 189 188 187 186 185 184 183 182 181 180 179 178 177 176 175 174 173 172 171 170 169 168 167 166 165 164 163 162 161 160 159 158 157 156 155 154 153 152 151 150 149 148 147 146 145 144 143 142 141 140 139 138 137 136 135 134 133 132 131 130 129 128 127 126 125 124 123 122 121 120 119 118 117 116 115 114 113 112 111 110 109 108 107 106 105 104 103 102 101 100 99 98 97 96 95 94 93 92 91 90 89 88 87 86 85 84 83 82 81 80 79 78 77 76 75 74 73 72 71 70 69 68 67 66 65 64 63 62 61 60 59 58 57 56 55 54 53 52 51 50 49 48 47 46 45 44 43 42 41 40 39 38 37 36 35 34 33 32 31 30 29 28 27 26 25 24 23 22 21 20 19 18 17 16 15 14 13 12 11 10 9 8 7 6 5 4 3 2 1 0 

CELL_DATA 1
FIELD FieldData 2
LengthArray 1 1 double
552.51961778 
TortuosityArray 1 1 double
0.0033540668996 
POINT_DATA 274
FIELD FieldData 8
RadiusArray 1 274 double
108.97600523 108.96571417 107.78656279 106.72755029 106.58374389 106.48382438 105.4889615 105.22591233 104.42559196 
104.06552743 103.23039702 103.22001243 101.99352816 101.77263523 101.69519886 100.96314188 100.96296098 100.94052891 
100.41057419 100.41053644 100.401135 100.03972283 99.177573 99.057242183 97.953880438 96.775622889 96.726148847 
95.68739638 95.519900154 94.156292645 94.125066659 92.975878935 92.898625331 92.076539828 90.443235255 89.678801893 
88.412828867 87.199810885 86.737500663 85.724534577 85.523996005 84.783887348 83.452858185 83.329476683 83.191459321 
82.17192889 81.636588697 81.404999657 80.662969883 79.66860091 79.463937421 78.184152196 77.080150834 76.987571405 
75.366269897 74.307719987 73.575377049 72.228215639 71.543941399 70.966711664 70.818563926 70.03485698 68.778978222 
68.422014435 68.228749378 67.351207855 67.106193484 67.036762537 65.680487015 65.635419824 64.039248897 63.475395417 
63.024559586 62.146609832 61.869225079 61.755465054 61.403952077 61.372517728 61.242634094 61.230363792 61.230646438 
61.228907894 61.24169909 61.311904061 61.342014415 61.673755347 61.726001084 62.028170962 62.077573815 62.34627953 
62.524082569 62.66581733 62.87835195 62.942006956 62.995013218 63.057124907 63.085391819 63.088796178 63.206986399 
63.213038608 63.259249631 63.27605374 63.281821988 63.372238627 63.441768067 63.543346429 63.724698039 63.962394494 
63.988523767 64.085214088 64.174897922 64.285833091 64.296112373 64.339819654 64.366547239 64.499428452 64.540063458 
64.555609391 64.633233192 64.635892466 64.658435184 64.662396017 64.679029876 64.712314562 64.714736122 64.716536443 
64.750212992 64.75123415 64.742057368 64.741320627 64.725275167 64.666103081 64.61823144 64.618124793 64.605022396 
64.594375557 64.578561707 64.399908922 64.392113519 64.228529084 64.125566623 64.118443424 63.889303792 63.785482327 
63.676141872 63.63452987 63.612176596 63.599851223 63.597752822 63.430226157 63.376173323 63.075755774 62.778148588 
62.497982291 62.490747309 62.417495897 62.159568952 61.905464794 61.881090236 61.32676652 61.286276765 60.900139502 
60.872348859 60.513866124 60.166621023 60.009474185 59.936466285 59.065277123 59.030089318 58.898702676 58.063391223 
57.915363643 57.402488276 57.338487877 56.85075793 56.579919247 56.118109683 55.857478817 55.065143616 54.938168953 
54.621271332 54.281624806 53.501249827 53.443846138 53.283508027 52.998608566 52.505766136 52.02716562 51.649265395 
51.32212375 50.830116093 50.331869064 50.225487706 49.670744383 48.900159228 48.886948909 48.062389714 47.635797177 
47.371581496 46.875429659 46.581168454 46.571956088 46.185249962 45.390072546 45.279523111 45.182218772 45.135785852 
44.507197303 43.607740694 43.597679171 43.389488677 42.961048318 42.940095948 42.693609081 41.911870415 41.587529611 
40.880357254 40.286260717 39.748690247 39.004954503 38.701768836 38.419707381 38.181321347 37.570318039 37.33376993 
37.021454707 36.364226271 36.153017893 36.058699706 35.868900857 35.32351575 35.32151382 34.867872111 34.50470713 
33.731133842 33.227762275 33.122313036 32.814070416 32.706027171 32.434332079 32.084102806 31.949700045 31.696110516 
31.343908151 31.078935166 30.995130086 30.961461668 30.657240977 30.069017703 29.865719178 29.848574419 29.674612968 
29.383262886 28.832464859 28.630326805 28.056896685 27.832239352 27.709998347 27.609839133 27.511892857 27.438132153 
27.218837125 27.180078524 26.994869026 26.993666219 26.970499191 26.969229321 26.860359436 26.844035852 26.841096634 
26.865449999 26.869531997 26.869252963 26.852092329 
EdgeArray 2 274 int
29214 29214 30801 30801 2722 2722 29323 29323 29325 
29325 3437 28839 902 1470 2496 28347 28155 4252 
4250 4247 1064 26238 26239 1064 1295 1295 1565 
23467 23971 23467 20555 20555 23970 20555 23970 23970 
23978 23978 23468 23978 23468 23468 23466 23466 26250 
26250 26249 26249 23475 23475 23954 23954 23955 23955 
22473 22473 17301 17301 22948 22948 23986 13979 1586 
1586 2698 25276 21513 21513 24455 24455 24860 24860 
24861 24861 20559 20559 8230 8230 27231 27231 25804 
25804 9285 9285 5293 26719 26719 26721 26721 26721 
26722 26722 25325 25325 27486 27486 28419 28419 26059 
26059 21505 21505 24690 24690 26055 26055 24698 24698 
19898 19898 29393 29393 29397 29397 25608 25608 27927 
27927 16200 16200 15294 15294 17618 17618 17621 17621 
17587 17587 17586 17586 17585 17585 22302 22302 19997 
19997 21293 21293 23767 23767 25112 25112 25107 23766 
25109 25109 23239 23239 24652 24652 25081 21266 23418 
25068 23418 17625 12606 17625 20003 25034 25034 23171 
25035 23171 25035 18013 23252 20415 25038 26938 26457 
26935 13845 26456 26459 26459 26458 26458 27401 27401 
26018 26617 23846 26482 19906 28865 28865 28865 28862 
28864 28862 24783 24783 24783 18453 18453 28845 28845 
28844 28844 27404 28846 27404 27404 26475 26475 17128 
17128 26933 26933 27448 27448 30821 28625 28625 25187 
25187 19884 19884 19884 15282 30859 23779 30858 30858 
14411 14411 27433 19576 27433 13863 13863 30480 30480 
26980 30877 24799 32648 24799 32294 32294 32295 32295 
32295 32654 32654 14900 14900 26088 26088 30490 30490 
33035 33035 31328 31328 10506 10506 31932 31932 34054 
34054 34284 34284 34836 34836 34785 34785 32721 32721 
26481 35467 34459 34459 34847 34847 36557 36553 36554 
36554 34460 34460 38208 38205 38209 38209 35786 36254 
36265 36265 34738 34738 33925 36850 33925 36005 36005 
36005 34028 38894 38894 39117 37901 39121 37291 37291 
34408 38644 34671 34671 37315 35532 38831 38831 36666 
36666 37984 37984 35486 35486 37277 39599 39370 39370 
37244 37244 39991 39991 36836 36836 39594 39594 40275 
39854 39727 39727 40675 40014 40560 40560 40939 40939 
39974 39974 41337 41337 39202 39202 40248 40248 39068 
39068 41270 41270 41275 41275 41634 41634 41449 41449 
42028 42028 41213 41213 41524 41524 41310 41310 41251 
41251 42562 42562 42883 42883 42241 42241 40629 40629 
42746 42746 43350 43350 44408 44408 44087 44087 43895 
43895 44424 44424 43207 42772 42320 42320 44194 44194 
43676 43676 42152 42152 46153 46153 46154 46151 43478 
46151 44490 44507 44490 45202 45636 45636 45832 45832 
44496 44496 46859 46859 46858 46858 46817 46817 46571 
46571 45453 46830 46824 46824 47800 47800 47583 47583 
47822 47822 46300 46300 48052 48052 46803 46803 46790 
46790 47795 47795 46169 45553 48045 48045 47287 47287 
46952 48250 47881 45893 47400 45172 45172 45457 45457 
45457 46551 46551 48650 48248 46293 46293 44992 44992 
46385 46385 48033 48033 47476 47476 48858 48858 48670 
48160 48151 48151 46139 46139 46912 48020 45333 45333 
48368 48368 49670 49670 48361 49161 48557 48361 48557 
48766 41838 41838 49843 49843 49398 49398 46205 46205 
50494 50494 48941 50493 50493 50623 50408 50408 50942 
50937 50936 50938 50940 50938 50940 50940 50947 50947 
50467 50467 48260 48260 48839 48839 50932 49996 50794 
51063 50794 43235 43235 51034 51386 51034 51386 51209 
51492 51492 54338 54338 53539 54338 53539 53539 
EdgePCoordArray 1 274 double
0 0 0 0 0 0.996 0.16 0.696 0.52 
0.58 0.084 0.892 0 0.896 0.808 0 0.992 0 
0 0.996 0 0 0 0 0 0 0 
0 0 0 0.012 0 0.54 0 0 0 
0 0 0 0 0 0 0.892 0.54 0 
0 0 0 0 0 0 0 0 0 
0 0 0 0 0 0 0 0 0 
0 0 0 0 0 0 0 0 0.072 
0 0 0 0.04 0.164 0.232 0.244 0.872 0.28 
0.588 0.524 0.46 0.36 0.592 0.424 0 0 0 
0.168 0.752 0.648 0 0.84 0.244 0 0 0 
0 0.376 0 0 0 0 0 0.276 0.852 
0.032 0 0.352 0.8 0.296 0.08 0.124 0 0 
0.084 0.032 0.184 0.752 0 0 0 0 0 
0 0 0 0 0 0 0 0 0 
0.556 0 0 0.984 0 0 0.984 0 0.168 
0 0 0.04 0.852 0 0.768 0.6 0.964 0 
0.884 0 0.152 0 0 0 0 0.996 0 
0 0 0 0 0.08 0 0.992 0 0 
0 0 0 0 0 0 0 0 0 
0 0 0 0 0 0 0 0 0 
0 0 0 0 0 0 0.064 0 0 
0 0 0 0.004 0.12 0.552 0.716 0 0 
0 0 0 0 0 0.98 0 0 0 
0 0 0 0 0 0 0.012 0 0 
0.028 0.388 0.88 0.324 0 0 0.908 0 0 
0 0 0 0 0.012 0 0 0.016 0 
0 0 0.124 0.82 0.072 0 0 0 0 
0 0.764 0.392 0 0.76 0.836 0.46 0 0 
0 0 0 0.36 0.016 0.024 0.796 0.308 0.004 
0 0 0.984 0 
CurvatureArray 1 274 double
0 1.8475280761e-05 7.3770780277e-05 0.00012941657858 0.00018432278133 0.00023733715479 0.00028860266623 0.00033586078183 0.00037896901083 
0.00041591758734 0.00044586433335 0.00046713551349 0.00047888436559 0.00047949033429 0.00046906933891 0.00044654912579 0.00041291972745 0.00036971229313 
0.00031831825188 0.00026267338774 0.00020708095028 0.00015911234482 0.0001297274642 0.00012864371899 0.00014990609613 0.00017904428124 0.00020658199201 
0.00023032262775 0.0002487410607 0.00026447878105 0.00027969367929 0.00029735164357 0.00032104494914 0.00035281496311 0.00039357103435 0.00044302750232 
0.00050030611212 0.00056401248578 0.00063278508273 0.00070511934507 0.00077973267071 0.00085540856275 0.00093114128285 0.0010058954234 0.0010788578058 
0.0011493763592 0.0012167188153 0.0012806051423 0.0013406078886 0.0013965208005 0.0014483001986 0.0014957623424 0.0015387075579 0.0015773940975 
0.0016111776094 0.0016403185195 0.0016639168597 0.0016822957749 0.0016944943942 0.0017001967219 0.0016991539336 0.0016906445728 0.0016746575395 
0.0016507872342 0.0016186644358 0.0015789995156 0.0015312283629 0.0014765178376 0.0014144562447 0.0013466437742 0.0012734398793 0.0011956789992 
0.0011141576983 0.0010302334752 0.00094434314992 0.00085772896214 0.00077029228451 0.00068357710776 0.00059746467324 0.00051250430937 0.00042909702901 
0.00034827015839 0.00027201031957 0.00020554873322 0.0001639671242 0.00017094722955 0.00022492645944 0.00030628519127 0.00040133141424 0.00050595079153 
0.00061694184833 0.00073211059651 0.00085033383331 0.00096803715577 0.0010822106344 0.0011901022585 0.0012862501911 0.001368044683 0.0014298432374 
0.0014703868495 0.0014857370609 0.0014766087176 0.0014442441026 0.001390891757 0.001323330112 0.0012468143323 0.001170708147 0.0011027496083 
0.0010516323075 0.0010230084632 0.0010209136961 0.0010423495539 0.0010839554398 0.0011386139792 0.0012003625387 0.0012655204075 0.0013279164866 
0.0013852487122 0.0014359101195 0.0014779667706 0.0015094823504 0.0015317137378 0.0015423229639 0.0015429842738 0.0015344342451 0.0015163530456 
0.0014914491899 0.0014610389861 0.001425858389 0.0013889072026 0.001351691026 0.0013177079956 0.0012871456863 0.001263467653 0.0012491122843 
0.0012442983543 0.0012515658384 0.0012711249159 0.0013039107919 0.0013498658438 0.0014069710472 0.0014759852052 0.0015530855202 0.0016387906676 
0.0017289048405 0.0018206993085 0.00191358999 0.0020036941572 0.0020871840307 0.0021634683684 0.0022279051054 0.0022812571945 0.0023187316628 
0.002342430913 0.0023503314205 0.0023416525707 0.0023184055012 0.0022789841397 0.0022284325265 0.0021642637402 0.0020899129869 0.0020056142711 
0.0019146277252 0.00181642283 0.0017129598718 0.0016069051161 0.0014987316629 0.0013907875542 0.0012854569005 0.0011839224072 0.0010899442617 
0.0010074269898 0.00093692680167 0.00088554394043 0.00085188104004 0.00084011405676 0.00084457334448 0.00086646443045 0.00089796636473 0.00093625551647 
0.00097558143205 0.0010131433164 0.0010452074304 0.0010698517795 0.0010846952235 0.0010877647764 0.0010792000307 0.0010581403238 0.0010232745594 
0.00097527192851 0.0009146825478 0.00084180585526 0.00075621827122 0.00066002452871 0.00055430275267 0.00043868165767 0.00031663414535 0.00018733967236 
5.4605231802e-05 8.1449970089e-05 0.00021815563338 0.00035303229768 0.00048454993784 0.00061027913888 0.00072841607204 0.00083616096861 0.00093336634762 
0.0010175193072 0.0010889542984 0.0011465821062 0.0011916707751 0.0012257645364 0.0012501651051 0.0012666255931 0.0012769979221 0.0012850656572 
0.0012901867343 0.0012950004067 0.0012996703297 0.0013051530878 0.0013100395158 0.0013153473559 0.001318085857 0.001319530017 0.0013175935984 
0.0013128807192 0.0013039390814 0.0012912866762 0.0012756852651 0.0012567254907 0.0012337974611 0.0012088245099 0.0011827912177 0.0011543926541 
0.0011256816194 0.0010969663753 0.0010666803977 0.001038275677 0.0010087493393 0.00097907027683 0.0009488463286 0.00091810973824 0.00088442918475 
0.00084722748414 0.00080762614209 0.00076117151144 0.00070767274447 0.00064742822673 0.00057797054152 0.00049742688897 0.00040781763563 0.00030889531803 
0.00020525016916 0.00012952605474 0.00017107867052 0.00030297783479 0.00046178171603 0.00063617568898 0.00081786686657 0.0010023085812 0.0011856005673 
0.0013630254378 0.0015232110341 0.0016600278373 0.0017658893244 0.0018306526707 0.0018461809149 0.0018042428842 0.0016980009284 0.0015296887868 
0.001290743973 0.00099525681706 0.00064940938715 0 
TorsionArray 1 274 double
0 0 0.00085375825701 0.00017553191145 -0.00026206197029 -2.1417316977e-07 0.00011540130864 -9.6148177896e-06 -0.00019930639369 
-0.00042477897979 -0.00064744232098 -0.0010008141992 -0.0016828459375 -0.0027220703561 -0.0041400131699 -0.0064053114869 -0.0099700494213 -0.015708994656 
-0.025286156971 -0.042176799807 -0.073607478311 -0.12715516058 -0.18328873867 -0.16478320797 -0.095379315154 -0.042270888541 -0.0094718550259 
0.012513191561 0.029070374797 0.042195026483 0.052347254401 0.058753324028 0.060496834191 0.057648250844 0.052282788013 0.045605836452 
0.039022464652 0.033414624766 0.028607150767 0.024870764772 0.022009161043 0.019738621773 0.018015099643 0.016706194931 0.015730196973 
0.014941541409 0.014219150705 0.013643815149 0.013102130914 0.012509130263 0.011898808411 0.01118397433 0.010405684241 0.009567372911 
0.0086314790783 0.0076009359775 0.0065106512758 0.0054017442232 0.0042416641371 0.003064066496 0.0018842584452 0.00071022103034 -0.00046661238794 
-0.0016417867929 -0.0028058257022 -0.0039761558486 -0.0051597351975 -0.006375651792 -0.0076438025833 -0.0089718692579 -0.010398098096 -0.011961125776 
-0.013640624927 -0.015549225276 -0.017758498509 -0.020326678887 -0.023429581627 -0.02729092332 -0.032444075301 -0.039675905931 -0.05067768989 
-0.069292356975 -0.10457887127 -0.17370014415 -0.27323644798 -0.2688230958 -0.17588104305 -0.11295017582 -0.080124584831 -0.06200402997 
-0.051363148187 -0.043740602788 -0.038054009175 -0.033324857321 -0.02879526644 -0.024858972061 -0.020584874441 -0.01592922752 -0.011066814968 
-0.0054776757023 0.00072763838928 0.0082382931728 0.017149829125 0.027439921269 0.039627119566 0.053824735453 0.06896240512 0.083433666407 
0.095015925558 0.10056446329 0.097582827868 0.087901792751 0.074817659767 0.060933351386 0.047714688955 0.036454699748 0.027350101615 
0.019821439886 0.013819444451 0.0086971032882 0.0044565099427 0.0010072938084 -0.002398090697 -0.0054563121213 -0.0082162018564 -0.011132688023 
-0.014264734315 -0.017245562278 -0.02048840652 -0.024068744608 -0.027616236546 -0.031153486107 -0.034591680198 -0.037783631187 -0.040130934808 
-0.041817055142 -0.042307447505 -0.041576077697 -0.03953696217 -0.0366329396 -0.033190340834 -0.028735733949 -0.024548500872 -0.020240189672 
-0.015909571044 -0.01204826437 -0.0085529683592 -0.0054318544807 -0.0025261770773 1.5165879837e-05 0.0019992842379 0.0037094750873 0.0050149761402 
0.0059991404503 0.0065654108554 0.0066887970573 0.0066840992049 0.0060409053638 0.0050765341146 0.0039290285187 0.0021578712189 -4.1644114397e-05 
-0.0024835574875 -0.0054018300966 -0.0091198755136 -0.013348549449 -0.01811874564 -0.02401873254 -0.03082179779 -0.038597321744 -0.047439197628 
-0.056765917453 -0.065915321888 -0.072914091833 -0.076986113843 -0.076607976644 -0.07221950971 -0.064881153343 -0.056653508442 -0.048024117853 
-0.040738564619 -0.034368622342 -0.028984059841 -0.024861104493 -0.021494485141 -0.018754454902 -0.016444521802 -0.014827933364 -0.01368821667 
-0.012510059896 -0.011662077382 -0.01098657364 -0.011014989721 -0.010968505998 -0.010374648005 -0.011032186584 -0.011321942956 -0.011729536499 
-0.027342389268 -0.018121132891 -0.013719015289 -0.014766625707 -0.015750131763 -0.01705302341 -0.018190203236 -0.019454637987 -0.021693783443 
-0.023774250934 -0.025830225302 -0.028054625128 -0.030466986145 -0.032700012676 -0.034792190424 -0.036594016987 -0.037625664646 -0.038321501427 
-0.037924345499 -0.036471729118 -0.034316687097 -0.031562146255 -0.028106398233 -0.024044768836 -0.02017516811 -0.016039562791 -0.011995445929 
-0.0085659707071 -0.0052356285499 -0.0021549795589 0.00031849855287 0.0021159821212 0.0036990422279 0.0049625794522 0.005330892765 0.0053868197957 
0.0051799963901 0.0044400884303 0.0034442813023 0.0023571068435 0.00095159978209 -0.00066911757287 -0.0021531842526 -0.0034132090016 -0.0049949237682 
-0.0065054238712 -0.008017495275 -0.0099449638402 -0.011959964697 -0.015051845776 -0.01982377706 -0.028622433425 -0.0460231468 -0.085807642158 
-0.21612016309 -0.59954975179 -0.37770514423 -0.1331204706 -0.061790249728 -0.03509015426 -0.022478407501 -0.015314146255 -0.01071965379 
-0.0078972570017 -0.0062494694285 -0.0045858557751 -0.0033635374759 -0.0029434388606 -0.0022422098297 -0.0014482719982 -0.00079162510626 -0.00082776700032 
-0.0011204514128 -0.00031971800751 0 0 
TangentArray 3 274 double
0.024274908849 0.069005674878 0.99732088399 0.024274908849 0.069005674878 0.99732088399 0.02434568641 0.06890328222 0.99732623813 
0.02450078326 0.068677842535 0.99733798963 0.024739230745 0.068330757614 0.9973559435 0.025058460176 0.067866677864 0.99737966072 
0.025454275044 0.067291332769 0.99740862058 0.025920615855 0.066612926609 0.99744214854 0.026450051733 0.065842679685 0.99747939141 
0.027033862917 0.064994120581 0.99751939056 0.027661661287 0.064083625783 0.99756108655 0.028321645561 0.063129679177 0.99760339214 
0.029000995347 0.062152879073 0.99764520842 0.029686423601 0.061175999765 0.99768542803 0.03036476664 0.060222871243 0.997723001 
0.031022997279 0.059317630383 0.99775698061 0.031649109738 0.058484346205 0.99778650778 0.032233531818 0.057744685551 0.99781087923 
0.032768827643 0.05711799585 0.99782951374 0.033250372079 0.056619606611 0.99784198794 0.033677278634 0.056259774047 0.99784802386 
0.034052522712 0.056043598488 0.99784745365 0.034382650253 0.055969926103 0.99784026815 0.034677615521 0.056032181988 0.99782656688 
0.034950628001 0.056218394699 0.99780656728 0.035217279305 0.056511710612 0.99778062208 0.035494519704 0.056890880693 0.99774925045 
0.035800667753 0.057332355888 0.99771304149 0.036154261468 0.057810596409 0.99767269398 0.036573445492 0.058298968013 0.99762899588 
0.037075842358 0.058771337413 0.99758273432 0.037677254569 0.059201231991 0.99753478066 0.038392100952 0.059563263973 0.99748597192 
0.039233216943 0.059833517004 0.99743706816 0.040210954511 0.059990066706 0.99738872614 0.041333298639 0.060011765648 0.9973415395 
0.042605948952 0.059879334108 0.99729594327 0.044031967579 0.059575405004 0.99725220328 0.045611720109 0.059083410209 0.99721047007 
0.047342922982 0.058389258842 0.99717066849 0.049220251627 0.057480212392 0.99713258497 0.051235418763 0.0563449799 0.99709587057 
0.05337771536 0.054974517082 0.99705998916 0.055633892664 0.053361640949 0.99702427516 0.05798840773 0.051501169131 0.99698795085 
0.060423859124 0.049389754053 0.99695015394 0.062921561084 0.047026492171 0.99690991879 0.065462766542 0.044413331847 0.99686613051 
0.068028400031 0.041554032951 0.99681763585 0.070599953044 0.038454735625 0.99676320154 0.07316078073 0.03512409585 0.99670145884 
0.075695965581 0.031572854148 0.99663096263 0.078193281016 0.027814497908 0.99655013146 0.080643355816 0.023864300297 0.99645729679 
0.083039357535 0.019739579564 0.99635074853 0.085377570464 0.01545986957 0.99622872017 0.087657230097 0.011047000408 0.99608944066 
0.089880113632 0.0065246721589 0.99593121943 0.092049745061 0.0019180739042 0.99575256235 0.094171184675 -0.0027451074456 0.99555223487 
0.096250690933 -0.0074360230522 0.99532934753 0.098294794669 -0.012124307257 0.99508348118 0.10030984512 -0.016778605816 0.99481476334 
0.10230176213 -0.021367100615 0.99452390443 0.10427519349 -0.025857272902 0.99421229396 0.10623346376 -0.030217669456 0.99388195659 
0.10817818808 -0.03441784851 0.99353555111 0.11010909506 -0.038429160655 0.99317631204 0.11202397387 -0.042225218324 0.99280796744 
0.11391871782 -0.045782587763 0.99243462273 0.11578771019 -0.049082106232 0.99206055915 0.11762342447 -0.052107908732 0.99169022172 
0.11941687016 -0.05484815479 0.99132804411 0.1211577126 -0.057296019371 0.99097829181 0.1228348759 -0.059448923418 0.99064495091 
0.12443665509 -0.061308441654 0.99033165851 0.12595045306 -0.062879835518 0.99004172117 0.12736343266 -0.064172261889 0.98977799371 
0.12866300121 -0.065198484069 0.98954281858 0.12983630197 -0.065973556248 0.98933817503 0.13087068071 -0.066515000052 0.98916561793 
0.13175391077 -0.066842590691 0.98902627623 0.132474476 -0.066977442816 0.98892089439 0.13302120247 -0.066941323943 0.98884994759 
0.13338368999 -0.066757521301 0.9888135439 0.13355323606 -0.066449034211 0.98881143753 0.13352196148 -0.066039307269 0.98884310975 
0.13328351692 -0.065551643508 0.98890772378 0.13283373638 -0.065008647754 0.98900408199 0.13217069925 -0.064431691096 0.98913066045 
0.13129515441 -0.063840282924 0.98928560118 0.13021093308 -0.063253486521 0.98946657819 0.12892530036 -0.06268698007 0.9896709602 
0.12744933693 -0.062153792559 0.98989573824 0.12579880553 -0.061664121562 0.99013746351 0.12399310843 -0.061223292908 0.99039255726 
0.12205574894 -0.060833977258 0.99065716641 0.12001404957 -0.060493949442 0.99092739895 0.1178986949 -0.060196115372 0.99119943777 
0.11574233378 -0.059930061961 0.99146966663 0.11357864958 -0.059681338486 0.99173485781 0.11144147616 -0.059433264734 0.99199217962 
0.10936219312 -0.059166239045 0.99223952092 0.10736993697 -0.058859528111 0.99247531586 0.10548915745 -0.058493086558 0.99269864334 
0.10373931518 -0.058047499083 0.99290918131 0.10213484522 -0.057504597791 0.99310709122 0.10068437373 -0.056848928911 0.99329293573 
0.099391480481 -0.056068180809 0.99346750964 0.098255461541 -0.055152310896 0.99363176624 0.097271475698 -0.054093710995 0.99378676307 
0.096430800975 -0.052888633895 0.99393354558 0.095722339965 -0.051536168002 0.99407306423 0.095134051046 -0.050037278975 0.99420610692 
0.094653246052 -0.048395983002 0.99433323984 0.0942654258 -0.046617746806 0.99445503427 0.093956358164 -0.044710442443 0.99457185718 
0.093712544054 -0.042684714584 0.99468385642 0.093520139625 -0.040552057685 0.99479119121 0.093366071279 -0.038325325522 0.99489393714 
0.093237061162 -0.036019748918 0.9949921749 0.093120424648 -0.033650933932 0.99508602701 0.093004759019 -0.031235516192 0.9951755912 
0.092877845578 -0.028791166063 0.99526115897 0.092728287882 -0.02633429851 0.99534314151 0.092545909362 -0.023881751574 0.99542197916 
0.092320356914 -0.021449383094 0.9954983052 0.092041040716 -0.019050902482 0.99557295561 0.091699020421 -0.016699301538 0.99564673604 
0.091285354645 -0.014405806411 0.99572057163 0.090790819001 -0.012179291024 0.99579550715 0.090206965919 -0.010025839536 0.9958725751 
0.089525806564 -0.0079498508108 0.9959527749 0.088739720958 -0.0059541734646 0.99603705239 0.087840399227 -0.004038350171 0.99612637551 
0.086820690355 -0.0022006076612 0.99622152409 0.085673193296 -0.00043806207943 0.99632319658 0.084390833931 0.0012542324308 0.9964319415 
0.082967134942 0.0028824947073 0.99654811512 0.081396072301 0.0044549543589 0.9966718782 0.079672796915 0.0059797999921 0.99680313373 
0.07779260313 0.0074659056527 0.9969416087 0.075753664963 0.0089243159409 0.99708662554 0.073554723001 0.010365371647 0.99723731468 
0.071196335233 0.011800179155 0.99739251933 0.068683561285 0.013239806404 0.99755063828 0.066022329803 0.014695033102 0.99770993178 
0.063220593756 0.016176166852 0.99786847237 0.060290660275 0.017691509004 0.99802407125 0.057247287753 0.019249085432 0.99817444405 
0.05410786378 0.020855185939 0.99831728438 0.050890974006 0.022513284092 0.99845042982 0.047617180841 0.024224796513 0.99857186187 
0.044307788478 0.025988381465 0.99867984054 0.040983152656 0.02780091597 0.99877299236 0.037664479804 0.029655508012 0.99885030801 
0.034370995646 0.031542599602 0.99891125685 0.031121552649 0.033451204608 0.99895568764 0.027930975028 0.035367364122 0.99898398896 
0.024811895288 0.037275741347 0.99899694142 0.021776347168 0.039159726484 0.9989956489 0.01883268927 0.041000712905 0.99898161713 
0.015986608269 0.042779538736 0.9989566254 0.013242565258 0.044477472182 0.99892261409 0.010604361558 0.046074955269 0.99888169771 
0.0080724509536 0.047552234447 0.99883613297 0.0056465757566 0.048890758751 0.99878817068 0.0033264612273 0.050073393385 0.99874000117 
0.0011098750218 0.051083417121 0.99869377322 -0.0010049328306 0.051905709281 0.99865148448 -0.003019652339 0.052527228168 0.99861492679 
-0.0049377678922 0.05293719989 0.99858563544 -0.0067608095614 0.05312682258 0.99856488631 -0.0084912719116 0.053090155983 0.99855362081 
-0.010131610103 0.052824969617 0.99855238874 -0.011683971614 0.052331266973 0.99856142691 -0.01314934042 0.051612543565 0.99858061277 
-0.014529060813 0.050675983596 0.99860945874 -0.015824863274 0.049531613704 0.99864718141 -0.017036836496 0.048193024825 0.99869273481 
-0.018166462765 0.046677970621 0.99874478556 -0.019213667357 0.045006425074 0.99880191064 -0.020179037318 0.043201156089 0.99886258643 
-0.021063661971 0.041287738458 0.99892524485 -0.021867743749 0.039293147355 0.99898841352 -0.022591608034 0.037247067396 0.99905068701 
-0.023236433041 0.035179874741 0.99911082698 -0.023804571424 0.03312176906 0.99916779912 -0.024297461188 0.031103913779 0.99922078638 
-0.024716755454 0.029157258158 0.99926920111 -0.025066348424 0.027311153366 0.99931265332 -0.025350492534 0.025593237685 0.99935095873 
-0.025574103663 0.024030480319 0.99938406093 -0.025741348877 0.022647170549 0.99941207148 -0.025858773596 0.021463787769 0.9994351553 
-0.025934821015 0.020499369195 0.99945343109 -0.025976859199 0.019768825112 0.99946705616 -0.025994594622 0.019283688858 0.99947607295 
-0.025998309213 0.019051767779 0.99948042405 -0.025998914186 0.019076250319 0.99947994134 -0.026008352591 0.019356986997 0.99947429814 
-0.026038513892 0.019888374086 0.99946308004 -0.026102697243 0.020660479934 0.99944574328 -0.026214495993 0.021659302836 0.99942167017 
-0.026387453536 0.022866536974 0.99939022598 -0.026634040773 0.024259589914 0.99935083938 -0.026965407856 0.025813087798 0.99930303276 
-0.027393838607 0.027498665389 0.99924641656 -0.027929528293 0.029285891113 0.99918080347 -0.028580205287 0.031143533904 0.99910622667 
-0.029351754064 0.03304028516 0.99902292971 -0.030248623213 0.034946680792 0.99893130409 -0.031272862801 0.036835707692 0.9988318871 
-0.032424156873 0.038682814233 0.99872534459 -0.033700112151 0.040466831132 0.9986124063 -0.03509625229 0.04217242891 0.99849373524 
-0.036607301284 0.043787421466 0.99836995508 -0.038225033304 0.045304267295 0.99824163918 -0.039939979083 0.046720720844 0.99810919859 
-0.041742272422 0.048038226878 0.99797290116 -0.043621311695 0.049260850408 0.99783292679 -0.045565962829 0.05039603197 0.99768932188 
-0.047563826078 0.051453636576 0.99754208219 -0.049602827811 0.052443606135 0.99739121093 -0.051670982516 0.053377660093 0.99723664943 
-0.053756197012 0.054267630388 0.99707837986 -0.055847392278 0.055123512874 0.9969164795 -0.057933314212 0.055955036533 0.99675110484 
-0.060004390201 0.056771520722 0.99658239378 -0.06205233544 0.057580087669 0.99641057861 -0.064069030899 0.058384844703 0.99623610113 
-0.066047652823 0.059189261906 0.99605940527 -0.067984157709 0.059996246945 0.9958808185 -0.069875396633 0.060805273523 0.99570083241 
-0.071719206265 0.061614840453 0.99551994801 -0.073515604428 0.062423338316 0.9953385267 -0.075264281567 0.063226993076 0.99515709075 
-0.076966667881 0.064022042148 0.99497603496 -0.078624560075 0.064804779698 0.99479571726 -0.080238359521 0.065569967687 0.99461670255 
-0.081809001181 0.066312210234 0.99443952963 -0.083336641144 0.067026693536 0.99426476685 -0.084818882168 0.067708577557 0.99409320778 
-0.086250903008 0.068351409106 0.99392598648 -0.08762779141 0.068949741008 0.99376420915 -0.088941440646 0.069497589731 0.99360933226 
-0.090179703227 0.069987493222 0.99346332188 -0.091329922981 0.070413479342 0.99332813667 -0.092377686443 0.070768734111 0.99320599541 
-0.093304708114 0.071045769398 0.99309955699 -0.09409260058 0.071236530187 0.99301155043 -0.094723139494 0.071333585948 0.99294463409 
-0.095175776546 0.071330176629 0.99290159505 -0.095430773064 0.071217383724 0.99288521583 -0.095470640984 0.070989021191 0.99289773672 
-0.095279205452 0.070639207482 0.99294107347 -0.094843317749 0.070163122732 0.9930165564 -0.09415422689 0.069557711961 0.99312471838 
-0.093207499893 0.06882182517 0.99326528095 -0.092005472371 0.067958604195 0.99343677261 -0.090556774166 0.066972928768 0.9936368036 
-0.088876053865 0.065871914109 0.99386213228 -0.086987851401 0.064668743835 0.99410817685 -0.084926453044 0.063383482654 0.99436916269 
-0.082734265547 0.062038202114 0.99463878005 -0.080462541582 0.060659977726 0.99491011981 -0.078169807051 0.059282661191 0.99517588764 
-0.075922280231 0.057942505233 0.99542878874 -0.073792350588 0.056678434159 0.99566171168 -0.071851808759 0.055529598689 0.99586835538 
-0.07017251789 0.054538147542 0.99604287468 -0.06882181603 0.053743323059 0.99618031142 -0.06785598179 0.053175528702 0.9962770342 
-0.06785598179 0.053175528702 0.9962770342 
NormalArray 3 274 double
-0.57124678076 0.81966121344 -0.042809001954 -0.57124678076 0.81966121344 -0.042809001954 -0.56729369082 0.82239376336 -0.042969365124 
-0.56568546825 0.82350905573 -0.042811051668 -0.56576889292 0.82347383622 -0.042383969524 -0.56660390756 0.82293137349 -0.041760824504 
-0.5660448321 0.82334915525 -0.041102513354 -0.56597306137 0.82343892616 -0.040284347826 -0.56602404706 0.82344925591 -0.03934591592 
-0.5667156382 0.82302435373 -0.038266154596 -0.56775919942 0.82235891941 -0.037085025752 -0.5693695377 0.82130144098 -0.035808833969 
-0.57186309479 0.81962588009 -0.034438604996 -0.57626053913 0.81660253358 -0.032925570535 -0.58295619961 0.8119018254 -0.031264920323 
-0.59301040459 0.80465790018 -0.029399383126 -0.60859018132 0.79301913348 -0.027178026466 -0.63222291587 0.77440248121 -0.024392247868 
-0.66895208472 0.74302102351 -0.020563729464 -0.72500086463 0.6885864832 -0.014913130004 -0.81098984339 0.58503329565 -0.0056139912732 
-0.92503016786 0.37975565302 0.010238776901 -0.99936277874 0.011500938999 0.033790011555 -0.90855466085 -0.41415206392 0.054831525679 
-0.73467792979 -0.67541057691 0.063787867818 -0.61486421717 -0.78584869499 0.066210444906 -0.56632732602 -0.82145377283 0.06698551263 
-0.5705255521 -0.81850077163 0.06750615705 -0.61326095797 -0.78696303252 0.067824647996 -0.68215558761 -0.72807969526 0.067555248839 
-0.76568741319 -0.6398022384 0.066150442252 -0.8501698068 -0.5227098177 0.063132765534 -0.92173340415 -0.38340626377 0.058370956625 
-0.97076479688 -0.2342795621 0.052237878161 -0.9948888955 -0.090127715498 0.04553109394 -0.99834637211 0.042393567747 0.03882404809 
-0.98719090727 0.15613551292 0.032799606854 -0.9669772771 0.25336819084 0.027559126408 -0.94185498325 0.3352164737 0.023218662609 
-0.91446946618 0.40417264278 0.019750196304 -0.8859576756 0.4634538145 0.017016429198 -0.85710513338 0.51492471652 0.014944117281 
-0.82826979899 0.56016790597 0.013455749506 -0.79937589353 0.60070213394 0.012455003734 -0.77046675947 0.63736930559 0.01188868549 
-0.74127548282 0.67109925839 0.011680923046 -0.71202302687 0.70205657095 0.011822876188 -0.68278587081 0.73051515176 0.012290958464 
-0.65333451068 0.75695718519 0.01303215068 -0.62410544244 0.78121350781 0.014065984779 -0.5952466957 0.80339579242 0.015380896687 
-0.56702007206 0.82352899989 0.016977167571 -0.53998758126 0.84146112025 0.018883728499 -0.51424875824 0.85738185967 0.021084623985 
-0.49030464322 0.87123145977 0.023602973034 -0.46847879677 0.88307886251 0.026445029053 -0.44921764414 0.89293092709 0.029628831383 
-0.43267680904 0.90093959303 0.033145567324 -0.41901677631 0.9072248211 0.036987364706 -0.40855118197 0.91180688769 0.041159825922 
-0.40121223334 0.91484773625 0.045632919031 -0.39718360936 0.9163542537 0.050399029634 -0.39631181022 0.91644192395 0.055417949281 
-0.3987851762 0.91503457745 0.060680353533 -0.40437592014 0.91219851397 0.066136119653 -0.41317962431 0.90781739771 0.071764688175 
-0.42501719014 0.90185987077 0.077518782147 -0.43996411233 0.89413666431 0.083373889193 -0.4579000525 0.88450859927 0.089286503669 
-0.47891021209 0.87268325676 0.095230993499 -0.50285053256 0.85843336178 0.10116078929 -0.52989668955 0.84127801752 0.10705510559 
-0.55993310052 0.82081456808 0.11286437775 -0.59285847037 0.7965348702 0.11853706028 -0.62892034632 0.76751085595 0.12404146074 
-0.66789009888 0.73294300153 0.12929567789 -0.70994088924 0.69135177836 0.13422612392 -0.75467041108 0.64127870741 0.13868738253 
-0.80229997196 0.57966006376 0.14250952768 -0.85218912952 0.50263845004 0.14535568811 -0.90362794982 0.40244310671 0.14661539537 
-0.95284770596 0.2665900797 0.14495164249 -0.98836445801 0.066306990503 0.13689076356 -0.96245941483 -0.24689610665 0.11275720518 
-0.72519413652 -0.6866181771 0.051467885546 -0.18677211589 -0.98155835671 -0.040735354398 0.28342170717 -0.95356055184 -0.10195297875 
0.54689104589 -0.82727620313 -0.12854675281 0.69573123332 -0.70457510983 -0.13975680878 0.78635784564 -0.60070472685 -0.14420530414 
0.84690603939 -0.51147575266 -0.14540534685 0.88931582499 -0.4337758934 -0.14476131297 0.91925137019 -0.36678656182 -0.14298439238 
0.94106846213 -0.30766122781 -0.1404803135 0.95660615528 -0.25688188131 -0.13753676865 0.96758477879 -0.2138409879 -0.13435671831 
0.97541923924 -0.17714817779 -0.13105659395 0.98056279942 -0.14883641283 -0.12784490063 0.98391962392 -0.12778430543 -0.12479320874 
0.98581804489 -0.11518587174 -0.1220450627 0.98652986824 -0.11150118174 -0.11969254588 0.98605125831 -0.11756646934 -0.11781783091 
0.98385633922 -0.13581563034 -0.11653676818 0.97908586183 -0.16724809436 -0.11584019204 0.96996529729 -0.21397456786 -0.11568148668 
0.95353910732 -0.27809018667 -0.11588364375 0.92543559862 -0.36069221208 -0.11606067788 0.88077249613 -0.45922257036 -0.11556141627 
0.81513525868 -0.56802098212 -0.11360754346 0.72745361848 -0.67735813559 -0.10953168086 0.62343479686 -0.77503363607 -0.10320812475 
0.51448630079 -0.85219076861 -0.095261430773 0.41089119734 -0.90756041928 -0.086617026674 0.31941884505 -0.94439017584 -0.078094796299 
0.24349238697 -0.96735452075 -0.070261573243 0.18363020117 -0.98094929242 -0.063391126471 0.13714920362 -0.98888525783 -0.057411173147 
0.1024961506 -0.99335838766 -0.052284345373 0.077645709562 -0.9958299663 -0.047893861806 0.060655735526 -0.99718381511 -0.044105788977 
0.051166755221 -0.99785153598 -0.040917909403 0.047180976952 -0.99815680505 -0.038169987598 0.048404581899 -0.99818410829 -0.035853624895 
0.055178296663 -0.99789689982 -0.034016656199 0.06621744273 -0.99727401703 -0.03255434272 0.081990690639 -0.99613448514 -0.031521646086 
0.10259656206 -0.99424184887 -0.030936893986 0.12871106258 -0.99120165116 -0.030866634108 0.15915020324 -0.98676100142 -0.03120799388 
0.1958861454 -0.98009986953 -0.032138198354 0.23779838464 -0.97073480802 -0.03355384875 0.2854943698 -0.95772259381 -0.035502086126 
0.33781322727 -0.94045089194 -0.03787272537 0.39465007035 -0.91793195965 -0.040647748131 0.45425000011 -0.88980357071 -0.043663977614 
0.51463967124 -0.85613152887 -0.046741994644 0.5744592676 -0.81701947932 -0.0497566104 0.63075967534 -0.77420385131 -0.052446435383 
0.68250222034 -0.72883275055 -0.054713261147 0.72754493782 -0.68374104679 -0.056360840947 0.76653802283 -0.63962578167 -0.05743099318 
0.79875307816 -0.59887204233 -0.057842865158 0.82431822617 -0.56319021758 -0.057586811236 0.84499079764 -0.53175607596 -0.056798130067 
0.86042976081 -0.50654566851 -0.055426639949 0.87200163487 -0.48656158748 -0.053581436828 0.88013852396 -0.47193792007 -0.051291112691 
0.88565423977 -0.46179233125 -0.048625203063 0.88878085496 -0.45605766933 -0.045606952311 0.88985949972 -0.45427183882 -0.042274900601 
0.88921248181 -0.45585708186 -0.038671476731 0.8873460211 -0.45978448535 -0.0348606636 0.88411729433 -0.46624562029 -0.030848523766 
0.88018277164 -0.47388225822 -0.026718792238 0.87527604206 -0.48310145695 -0.022468477631 0.87022770971 -0.49231349132 -0.018197789163 
0.86485053589 -0.50183664226 -0.013911687986 0.8595168045 -0.51101608696 -0.0096654875892 0.85495262833 -0.51867648863 -0.0055410700659 
0.85100677395 -0.5251524497 -0.0015411899857 0.84827862713 -0.52954530756 0.0022667161043 0.84737954301 -0.53095580981 0.005817055085 
0.84857480353 -0.52899760586 0.0090739080855 0.85211586804 -0.52321558328 0.012000035229 0.85862603273 -0.51239683226 0.014519717665 
0.86875277225 -0.49496963863 0.016543202243 0.8822639908 -0.47040924085 0.018038754138 0.89944281937 -0.43662979653 0.01889538206 
0.92023236321 -0.3909123163 0.018972576485 0.94327577316 -0.3315121566 0.018179818183 0.96679544057 -0.25502871786 0.016337967046 
0.98710332127 -0.15952784494 0.013337909167 0.99900043377 -0.043766018007 0.0090922495699 0.99604511669 0.088769705626 0.0037503167839 
0.97286941905 0.23134279551 -0.0023673695401 0.92771577013 0.37318590271 -0.0087024054275 0.86357185586 0.50401208633 -0.014678780326 
0.78860711643 0.61458129329 -0.019714204199 0.70921364302 0.70459485633 -0.023708584723 0.63283600258 0.77383065424 -0.026546419636 
0.56273346104 0.82615123649 -0.028375804398 0.4992694923 0.86594728155 -0.029415636059 0.44396346704 0.89555041705 -0.029763911861 
0.39530984227 0.91807045723 -0.029610203752 0.3522955512 0.93543684736 -0.02908176777 0.31441586653 0.94886442183 -0.028266090419 
0.28068791295 0.95941206612 -0.027254043976 0.25093817515 0.96765122705 -0.026098564008 0.2229275945 0.97451658493 -0.024914118679 
0.19737502669 0.98004119137 -0.023714174047 0.17380531171 0.98452188123 -0.022547261375 0.15146398548 0.98822966032 -0.021466242428 
0.13054867584 0.99123007007 -0.020493692187 0.10779855058 0.99397661402 -0.019747487912 0.087800767652 0.99595459367 -0.01911733618 
0.066823538218 0.99758904841 -0.018727125369 0.0442685992 0.99884638898 -0.01860597635 0.023264788097 0.99955480205 -0.01868013209 
-0.0092286072402 0.99977119611 -0.019297363291 0.014171127975 -0.99971041049 0.019449274741 0.040953547952 -0.99895251821 0.02041257615 
0.066503507038 -0.99755273551 0.021582942779 0.094883492374 -0.9952214643 0.023051244475 0.1243441289 -0.99193021758 0.024758454197 
0.15656512459 -0.98730602847 0.026723920307 0.18981126543 -0.98139568359 0.028882447157 0.22544635324 -0.97375469918 0.031236639323 
0.26541250442 -0.9635425705 0.033792267337 0.30716217648 -0.95095855862 0.036458430119 0.35241455818 -0.93502150805 0.039227014515 
0.39962852598 -0.91571329151 0.042026289126 0.45013486627 -0.8918345284 0.044830526748 0.5014215251 -0.8638950349 0.047558625385 
0.55452619366 -0.83065219736 0.050175966002 0.60672511282 -0.79316840427 0.05261672686 0.65752255848 -0.75143573588 0.054849064964 
0.70599036155 -0.70593618157 0.056848192086 0.74975393904 -0.65911482725 0.058623164277 0.78876853398 -0.6117355694 0.060197947882 
0.82210587362 -0.56598904637 0.061630608892 0.85038479084 -0.52238033178 0.062964247536 0.87286771734 -0.48370205427 0.064298294817 
0.89064435393 -0.44993275938 0.065674552485 0.90429154067 -0.42160277879 0.06714094422 0.91408053386 -0.39966186164 0.068754446926 
0.92084986548 -0.38348752803 0.070518374119 0.92535967525 -0.37210973306 0.072414211147 0.92744478193 -0.36646862193 0.074477685285 
0.92786651005 -0.3649486055 0.076656733974 0.92674641489 -0.36730051183 0.078939321566 0.92483106859 -0.37159815695 0.08125456496 
0.92155938564 -0.37912169628 0.083636344673 0.91785833838 -0.38747882185 0.086001356308 0.91390736665 -0.39619579073 0.088330179399 
0.90994935197 -0.40470160219 0.090602373257 0.90611042892 -0.41273497612 0.092810183101 0.90309772767 -0.41881544799 0.094911088879 
0.90063721792 -0.42362447807 0.096927309235 0.89922482036 -0.42617672587 0.098833803801 0.89891041195 -0.4264198005 0.10062914598 
0.90002385603 -0.42366635421 0.10229310282 0.901995496 -0.41906865432 0.10385368633 0.90503834494 -0.41209215049 0.10528843095 
0.90935259762 -0.40214590055 0.10656701113 0.91446567771 -0.39006843214 0.10769931543 0.92073678 -0.37475748216 0.10863061961 
0.92810772043 -0.35590064784 0.1093196604 0.93636852463 -0.3334271746 0.1097283251 0.94665947162 -0.30301021416 0.10963874727 
0.95865025206 -0.26293572699 0.10887836191 0.97441193649 -0.19792174702 0.10652868197 0.99095960458 -0.088435674572 0.10088703359 
0.98456009144 0.15394729877 0.0833165982 0.66390844724 0.74774460642 0.01017729103 -0.24342992851 0.96550362811 -0.092437081315 
-0.59850385651 0.79298960051 -0.11384475056 -0.71593900256 0.68828746657 -0.11701157201 -0.76759834142 0.63017838333 -0.11691018532 
-0.79704604317 0.59270032519 -0.11586168303 -0.81494085943 0.56815286949 -0.11434033633 -0.82704094511 0.55077016077 -0.11249668937 
-0.8350659403 0.53895947894 -0.11039726179 -0.84126237744 0.52971499766 -0.10807235336 -0.84603880405 0.5225646847 -0.10556747769 
-0.84924143802 0.51787266814 -0.10294114603 -0.85182343635 0.51414891632 -0.10023834163 -0.85422743755 0.51067160557 -0.097519209367 
-0.85563294714 0.5088129088 -0.094877202756 -0.85676414091 0.50736684075 -0.092380169746 -0.85708090739 0.50723797551 -0.090121886275 
-0.85841253556 0.50532987722 -0.088145527308 -0.85872977324 0.50506253037 -0.086573766034 -0.85907457745 0.50466781607 -0.085447444736 
-0.85907457745 0.50466781607 -0.085447444736 
BinormalArray 3 274 double
-0.82041931003 -0.56867715974 0.059316470872 -0.82041931003 -0.56867715974 0.059316470872 -0.82315560856 -0.56473076389 0.059110137948 
-0.82425703675 -0.56313070337 0.0590266744 -0.82419265361 -0.56322442119 0.059031526334 -0.82360918251 -0.56407275112 0.059074917921 
-0.8239813881 -0.5635317605 0.059047667014 -0.82401615001 -0.56348119124 0.059045166085 -0.82396430318 -0.56355662047 0.059048815443 
-0.82346982682 -0.56427535606 0.05908271208 -0.8227298001 -0.56534865045 0.059131881956 -0.82159370368 -0.56699081708 0.059204724558 
-0.81983629042 -0.56951772256 0.059312904111 -0.81672670294 -0.5739493002 0.059495323332 -0.81193598903 -0.58067945692 0.059760505613 
-0.80459693865 -0.59076821378 0.060138871841 -0.79285328091 -0.60638291135 0.060691348442 -0.77411574334 -0.63005265525 0.061469240493 
-0.7425828656 -0.6668262841 0.062557130253 -0.68794488082 -0.7229404369 0.063945020523 -0.58409015984 -0.80905554865 0.065328434651 
-0.37836439347 -0.92338765373 0.064773657316 -0.0095848756045 -0.99836621326 0.056329693639 0.41632426213 -0.90848140462 0.036546494063 
0.67751516078 -0.73529588922 0.017696390012 0.78784626526 -0.61583135284 0.0070715757236 0.82341575092 -0.56743028365 0.0030617532127 
0.82049918135 -0.57163754933 0.0034066998161 0.78905251207 -0.61428586211 0.0070009144919 0.73029181659 -0.68300892211 0.013140583733 
0.64214341637 -0.76628912666 0.021279266382 0.52515876084 -0.85045262103 0.030636829097 0.38591913435 -0.92165712414 0.040181678079 
0.23680469552 -0.97032625288 0.048892731096 0.092623780713 -0.99412181688 0.056059329738 -0.039950966446 -0.99729703369 0.061664794514 
-0.15374929502 -0.98591894543 0.065764635857 -0.25103014044 -0.96553370267 0.068764362878 -0.33290953955 -0.94028669372 0.070937804307 
-0.40187590506 -0.91281716092 0.072529908662 -0.4611467921 -0.88425482018 0.073736348731 -0.51258728251 -0.85538165725 0.074675954995 
-0.55778128292 -0.82655291397 0.075434215252 -0.59824999025 -0.79769009117 0.076075407456 -0.63483723672 -0.76883548167 0.076639970056 
-0.66847559104 -0.73972051316 0.077161820829 -0.69933117074 -0.71056673172 0.077658440711 -0.7276799302 -0.68145070915 0.078146338296 
-0.75400673336 -0.65214191871 0.078643269984 -0.77814397341 -0.62307839677 0.079153446761 -0.80020551824 -0.59440852839 0.079684565402 
-0.82021848228 -0.56639486334 0.080240264865 -0.83803294857 -0.53960127578 0.080816089289 -0.8538412404 -0.51412726235 0.081414337173 
-0.86758620432 -0.490475374 0.082024908199 -0.87933968831 -0.46896984447 0.082637748904 -0.889111758 -0.45005813317 0.083234359234 
-0.89705760355 -0.4338954694 0.083799627327 -0.90330049574 -0.42064170617 0.084313518639 -0.90786437296 -0.41061011184 0.084744417917 
-0.91091412785 -0.40373051041 0.085071303296 -0.91246003408 -0.40018481094 0.085257277093 -0.91261979162 -0.3998158056 0.08527858781 
-0.91132032388 -0.40280909756 0.085088766695 -0.90862907681 -0.40893186786 0.084663618026 -0.90443189309 -0.41827558483 0.08395526131 
-0.89869787343 -0.43065552963 0.082933389458 -0.8912393433 -0.446142158 0.081545127414 -0.88191732674 -0.46460904936 0.079751238522 
-0.870441 -0.48613566833 0.077489208859 -0.85658306549 -0.51057135665 0.074715070055 -0.8398656014 -0.53808555368 0.071342193015 
-0.81988690322 -0.56855529611 0.067307809334 -0.79614046674 -0.60187155334 0.062537912473 -0.76770488552 -0.63827338304 0.05688846324 
-0.73378357483 -0.677521831 0.050257674326 -0.69290722117 -0.71977694104 0.042435103367 -0.64362343545 -0.76461986649 0.033246550205 
-0.58288985848 -0.81224587912 0.022272061547 -0.50686903853 -0.86197568319 0.009038770109 -0.40783500736 -0.91302535596 -0.0074368098087 
-0.27335353711 -0.9614893642 -0.028566523628 -0.074740961641 -0.99554879597 -0.057414140146 0.23659508552 -0.96672704093 -0.097270724461 
0.67550148453 -0.72394676063 -0.13999582909 0.97328295468 -0.17924206601 -0.14350112164 0.94965468551 0.29387256399 -0.10860430207 
0.82652627789 0.55795794265 -0.074412674936 0.70591306084 0.70664544881 -0.048362797722 0.60346685482 0.79687037109 -0.028729197991 
0.51527831594 0.85692296778 -0.013087566758 0.4383634067 0.89879779191 -0.00023003728037 0.37196126858 0.92819069194 0.010337024672 
0.31328392249 0.94946378287 0.019279754496 0.26282945841 0.96447355338 0.026672844414 0.22001228357 0.97494807057 0.032723917526 
0.1834658057 0.98230227034 0.037716678303 0.15521992239 0.98700972857 0.041455655785 0.13417179809 0.98997353448 0.044162536359 
0.12151746602 0.9915344687 0.045748254899 0.11772301996 0.99197057633 0.046213269344 0.12362731651 0.99128492994 0.045502464586 
0.14165667826 0.98896585923 0.043357984158 0.17280790431 0.98415630409 0.039671114459 0.21917883044 0.97508637727 0.034164267212 
0.28284505528 0.95879942424 0.026501674934 0.36488001616 0.93091049483 0.016377558627 0.4627120778 0.88650032722 0.0038344361217 
0.57068015881 0.8211020174 -0.010753295289 0.67908548596 0.73358310964 -0.026433388112 0.77580107893 0.62960045536 -0.041664763771 
0.85205923909 0.52055132917 -0.054966960794 0.9066452766 0.41674705607 -0.065698049217 0.94282613125 0.32499764075 -0.073860813336 
0.96527313259 0.24876305999 -0.079779192052 0.97846511369 0.18858756952 -0.083909176515 0.98608432637 0.1417988829 -0.086780055893 
0.99030929421 0.10685096537 -0.088715122731 0.99258507306 0.08172030855 -0.089981464198 0.99378250059 0.064464007765 -0.090778484352 
0.99432832283 0.054725586682 -0.091193731014 0.9945363452 0.05050353636 -0.091361101613 0.99448836657 0.051505616151 -0.091323930346 
0.99414740425 0.058076209229 -0.091093866662 0.99348714884 0.068927785933 -0.090731722246 0.99232695283 0.08453253495 -0.090230090468 
0.9904296528 0.10499080875 -0.089588129382 0.98740159469 0.13098225012 -0.088779169631 0.98298652201 0.16131912287 -0.087827319986 
0.976368579 0.19798161151 -0.086646866288 0.96706202254 0.23984494444 -0.085237592521 0.95412560395 0.2875185487 -0.08353092864 
0.936945758 0.33983660738 -0.081509059876 0.91453626713 0.39669316262 -0.079107210981 0.88653313624 0.45632586742 -0.076326280319 
0.8529995173 0.51675328988 -0.073197410368 0.81403725579 0.5766099015 -0.069745018957 0.77137566666 0.63293508634 -0.066126827886 
0.72615919312 0.68468570377 -0.062436474204 0.68121438833 0.72971113073 -0.058895015172 0.63723755774 0.76866319114 -0.055544519067 
0.59660860791 0.80080992575 -0.052551230236 0.56103551069 0.8262790905 -0.050020199339 0.52969826753 0.8468341247 -0.047871814527 
0.50457081619 0.86213238049 -0.046217420554 0.4846604143 0.87354595135 -0.044963915442 0.47010342544 0.88150930545 -0.044092105749 
0.46002143874 0.8868405575 -0.043521276129 0.45434967606 0.88977436059 -0.043219892505 0.45262878699 0.89065513481 -0.043134812207 
0.45428350319 0.88980862107 -0.043210144536 0.45828718899 0.88774510929 -0.043375953353 0.46483245793 0.88432357245 -0.043618863567 
0.47256227991 0.88020464062 -0.043871200489 0.48188404352 0.87512290072 -0.044132496455 0.49120781775 0.86991262614 -0.044349776369 
0.50085146025 0.86438709436 -0.044528259215 0.51015910434 0.85892000546 -0.044655486546 0.51795353454 0.85423875451 -0.044724560965 
0.52456824202 0.85019140415 -0.044751935983 0.52910222213 0.84737729676 -0.044749921479 0.53065359691 0.8464070354 -0.044742491147 
0.5288338408 0.84754436111 -0.044758516178 0.52318560941 0.85103889916 -0.044828676322 0.51249281305 0.85751185694 -0.044994797322 
0.49518022602 0.86760811536 -0.045306753634 0.47072111352 0.88109298024 -0.045790757344 0.43702579939 0.89824666771 -0.04649058621 
0.3913708802 0.91900927387 -0.047442477474 0.33200874367 0.94202202064 -0.048628250603 0.25553367254 0.96550569308 -0.050012986634 
0.16000828597 0.98577305682 -0.051466774359 0.044186251125 0.99762822554 -0.052777825089 -0.088442206068 0.99463630273 -0.053633958319 
-0.2311329573 0.97143709706 -0.053735672507 -0.37310445542 0.92627950453 -0.052908835136 -0.5040543072 0.86215309672 -0.051198566531 
-0.61472572933 0.78722409682 -0.048892730281 -0.70481599177 0.70787902051 -0.046278613465 -0.77409840462 0.63155645109 -0.043681907514 
-0.8264387645 0.56151162188 -0.041275501638 -0.86623369194 0.49810614058 -0.039108358013 -0.89581764126 0.44285788988 -0.037251080323 
-0.91830629463 0.39426128166 -0.035659375154 -0.93563328628 0.35130322113 -0.034298694277 -0.94901648148 0.31347881103 -0.033147442066 
-0.95951777665 0.27980504607 -0.032167879852 -0.96771037745 0.25010807905 -0.031346039034 -0.97453215493 0.22214853645 -0.030612199578 
-0.98001641866 0.1966446478 -0.029978353069 -0.9844609651 0.1731206697 -0.02942519203 -0.98813764913 0.15082149929 -0.028928562407 
-0.99111200601 0.129944158 -0.028486967951 -0.99383945155 0.10722684576 -0.028027630957 -0.99580236444 0.087256822985 -0.027638701392 
-0.99742769151 0.066301329905 -0.027242133798 -0.99868187823 0.043761681694 -0.026822030204 -0.9993913301 0.022767016584 -0.026431652816 
-0.99961938793 -0.0097255110957 -0.025816539417 0.99956152166 0.014669418182 0.025721053189 0.99882249299 0.041462916074 0.02518837202 
0.99744637918 0.067029787733 0.024652144136 0.99514610589 0.095432602216 0.024017626082 0.9918928056 0.12492124738 0.02330974357 
0.98731507841 0.15717483145 0.022472389741 0.98145927648 0.1904573037 0.021533789191 0.97388233816 0.22613153324 0.020438226105 
0.96374570303 0.26613819387 0.019096640018 0.95124725429 0.30792881705 0.017564305914 0.93540747862 0.35322069557 0.015747671907 
0.91620713584 0.40047160612 0.013673950869 0.8924481066 0.45100987069 0.011246047133 0.86463776359 0.50232310251 0.0085462541717 
0.83153434962 0.55544627724 0.005482563418 0.79419704099 0.60765641447 0.0021776214944 0.75261699301 0.65845715204 -0.0013567451877 
0.70727470963 0.70692062445 -0.0050710790259 0.66061174507 0.75067647349 -0.0087723666371 0.61339139044 0.78968143411 -0.012419128641 
0.5678023558 0.82301198542 -0.015866839514 0.52434996774 0.85128852781 -0.019103762695 0.48582475344 0.87378061472 -0.021948719564 
0.45220605619 0.8915789563 -0.024426367392 0.42402401931 0.90526281548 -0.026511619348 0.4022274073 0.91510721872 -0.028140558969 
0.3861939882 0.92195029158 -0.029357509035 0.37495405077 0.92655045458 -0.03022771774 0.3694454054 0.92874635021 -0.030664464832 
0.36805327424 0.92929516827 -0.030777874275 0.37052744858 0.92831830075 -0.030570285249 0.37494353422 0.92655599921 -0.030188184516 
0.38257810484 0.92345187784 -0.029506321665 0.39104248487 0.91992424306 -0.028725634195 0.39986341934 0.91615043204 -0.027886049382 
0.40847096875 0.91237066186 -0.027041506459 0.41660454451 0.90870961606 -0.026219976618 0.42278810554 0.90586752225 -0.025578309973 
0.42770168778 0.90357262005 -0.025055669417 0.43036368458 0.90231576449 -0.024766108797 0.43072250573 0.90214562742 -0.024726301406 
0.42809385174 0.90338779662 -0.025022849885 0.42362616709 0.90547715892 -0.025534001622 0.41678693767 0.9086229185 -0.026325663415 
0.40698726629 0.91302067859 -0.027470084358 0.39506188688 0.91820071415 -0.028871336431 0.37991209784 0.92451442097 -0.03065751663 
0.36122524886 0.93189939353 -0.032860917991 0.33892894721 0.94014268128 -0.03548108759 0.30871055673 0.95035603664 -0.039002509887 
0.26885670099 0.96219400441 -0.043574903481 0.20412731454 0.97762586853 -0.05079075344 0.09500836241 0.99352435852 -0.062311797386 
-0.14691153084 0.98550100716 -0.084880898932 -0.74169976488 0.66015610868 -0.11863966849 -0.96520838507 -0.25052605248 -0.074896397895 
-0.79543384813 -0.60512609914 -0.033277580969 -0.69169074715 -0.72203704862 -0.015046950789 -0.63397773447 -0.77332847477 -0.0059415741505 
-0.59668246751 -0.80247733981 -0.00038995206126 -0.57219436268 -0.82011215392 0.0031090701717 -0.55479973483 -0.83196565844 0.0055133852394 
-0.5429234959 -0.839752089 0.007106800213 -0.53358291391 -0.8457067901 0.0083246116829 -0.52631344237 -0.85024036862 0.0092453207032 
-0.52148252249 -0.85320522799 0.0098395971299 -0.51761241551 -0.85555318885 0.010301862117 -0.51398926662 -0.8577296062 0.010721774887 
-0.51198444032 -0.85892496175 0.01094728027 -0.51040170048 -0.85986420091 0.011120258161 -0.51014668064 -0.86001517421 0.01114739282 
-0.50813751734 -0.86120108317 0.011355959667 -0.50778611067 -0.86140785673 0.011391671075 -0.5073326681 -0.86167439243 0.011437014713 
-0.5073326681 -0.86167439243 0.011437014713 
