# vtk DataFile Version 4.1
vtk output
ASCII
DATASET POLYDATA
POINTS 260 float
9.99824 1.72547 263.257 10.2075 1.48338 260.969 10.4166 1.24127 258.681 
10.6252 0.999051 256.392 10.8329 0.756649 254.104 11.0392 0.513995 251.817 
11.2438 0.271031 249.529 11.4465 0.0277169 247.243 11.6467 -0.215969 244.957 
11.8443 -0.460027 242.672 12.039 -0.704431 240.388 12.2306 -0.949131 238.105 
12.4189 -1.19405 235.823 12.6039 -1.43909 233.542 12.7854 -1.68412 231.263 
12.9634 -1.92899 228.985 13.1381 -2.17354 226.707 13.3095 -2.41757 224.43 
13.4778 -2.66088 222.152 13.6432 -2.90326 219.872 13.8061 -3.14447 217.59 
13.9669 -3.38428 215.304 14.1259 -3.62243 213.012 14.2837 -3.85866 210.711 
14.4408 -4.09269 208.399 14.5977 -4.32423 206.074 14.7552 -4.55297 203.732 
14.9137 -4.77857 201.37 15.0741 -5.00066 198.983 15.237 -5.21886 196.57 
15.403 -5.43273 194.124 15.5729 -5.64177 191.644 15.7473 -5.84545 189.123 
15.9267 -6.04319 186.56 16.1117 -6.23434 183.949 16.3027 -6.41819 181.289 
16.5003 -6.59396 178.574 16.7045 -6.76083 175.804 16.9158 -6.91791 172.976 
17.1341 -7.06426 170.088 17.3595 -7.1989 167.139 17.5918 -7.32082 164.128 
17.8307 -7.429 161.057 18.076 -7.52239 157.925 18.3271 -7.59999 154.734 
18.5835 -7.6608 151.487 18.8443 -7.7039 148.185 19.1089 -7.72844 144.832 
19.3764 -7.73363 141.431 19.6456 -7.71883 137.987 19.9156 -7.68352 134.503 
20.1852 -7.62732 130.985 20.4532 -7.55 127.438 20.7183 -7.45152 123.868 
20.9791 -7.33199 120.278 21.2342 -7.19171 116.677 21.4823 -7.03116 113.069 
21.7218 -6.85097 109.46 21.9514 -6.65193 105.857 22.1696 -6.43499 102.265 
22.3749 -6.20123 98.6913 22.566 -5.9518 95.1414 22.7415 -5.68798 91.6214 
22.9001 -5.4111 88.1372 23.0408 -5.12252 84.6944 23.1624 -4.82361 81.2985 
23.2641 -4.51577 77.9545 23.3451 -4.20035 74.6672 23.4047 -3.87863 71.441 
23.4427 -3.55188 68.2797 23.4588 -3.22125 65.1869 23.453 -2.88783 62.1654 
23.4254 -2.5526 59.2175 23.3764 -2.21645 56.345 23.3066 -1.88017 53.5491 
23.2167 -1.54444 50.8304 23.1075 -1.20985 48.1891 22.98 -0.876893 45.6248 
22.8352 -0.545987 43.1365 22.6744 -0.217456 40.723 22.4987 0.108445 38.3825 
22.3093 0.431527 36.1131 22.1075 0.751659 33.9122 21.8945 1.06876 31.7774 
21.6714 1.3828 29.7059 21.4392 1.69377 27.6948 21.1991 2.00171 25.741 
20.9519 2.30669 23.8414 20.6985 2.60877 21.993 20.4396 2.90807 20.1926 
20.1759 3.20469 18.4371 19.908 3.49875 16.7237 19.6364 3.79037 15.0493 
19.3615 4.07967 13.4113 19.0838 4.36676 11.8069 18.8037 4.65174 10.2336 
18.5214 4.93471 8.68922 18.2374 5.21572 7.17155 17.9519 5.49484 5.67868 
17.6653 5.77208 4.20893 17.378 6.04746 2.76081 17.0904 6.32092 1.33306 
16.8029 6.59243 -0.0753518 16.5158 6.8619 -1.46525 16.2297 7.12921 -2.83726 
15.9451 7.39425 -4.19183 15.6624 7.65684 -5.52924 15.3821 7.91683 -6.84965 
15.1048 8.17405 -8.15313 14.8308 8.4283 -9.43967 14.5607 8.67941 -10.7093 
14.2949 8.92721 -11.9619 14.0338 9.17153 -13.1976 13.7776 9.41224 -14.4164 
13.5268 9.64921 -15.6187 13.2816 9.88237 -16.8048 13.042 10.1116 -17.9752 
12.8082 10.337 -19.1306 12.5803 10.5584 -20.272 12.3582 10.776 -21.4005 
12.1418 10.9897 -22.5174 11.931 11.1998 -23.6243 11.7256 11.4062 -24.7228 
11.5254 11.6092 -25.815 11.33 11.8089 -26.9028 11.1391 12.0055 -27.9886 
10.9524 12.1991 -29.0748 10.7695 12.39 -30.1638 10.59 12.5783 -31.2584 
10.4135 12.7642 -32.3613 10.2394 12.9478 -33.4753 10.0675 13.1293 -34.6034 
9.89713 13.3089 -35.7485 9.72795 13.4866 -36.9136 9.55945 13.6624 -38.1018 
9.39117 13.8365 -39.3161 9.22264 14.0088 -40.5594 9.0534 14.1793 -41.8349 
8.88298 14.3479 -43.1455 8.71091 14.5145 -44.4939 8.53674 14.6789 -45.883 
8.36003 14.8409 -47.3154 8.18033 15.0002 -48.7935 7.99722 15.1565 -50.3197 
7.81029 15.3095 -51.8961 7.61915 15.4588 -53.5243 7.42344 15.6038 -55.206 
7.22283 15.7441 -56.9425 7.017 15.8792 -58.7346 6.8057 16.0085 -60.5831 
6.58868 16.1314 -62.4881 6.36577 16.2474 -64.4497 6.13682 16.3558 -66.4674 
5.90175 16.4562 -68.5404 5.66053 16.5479 -70.6678 5.41318 16.6305 -72.8479 
5.15978 16.7035 -75.0792 4.9005 16.7666 -77.3596 4.63555 16.8194 -79.6866 
4.36522 16.8617 -82.0577 4.08987 16.8935 -84.4701 3.80992 16.9146 -86.9206 
3.52587 16.9253 -89.406 3.23828 16.9256 -91.9228 2.94777 16.916 -94.4675 
2.65502 16.8968 -97.0364 2.36075 16.8687 -99.6258 2.06573 16.8321 -102.232 
1.77074 16.7879 -104.851 1.47657 16.7368 -107.48 1.18403 16.6797 -110.116 
0.893902 16.6174 -112.754 0.606933 16.551 -115.393 0.323829 16.4812 -118.03 
0.0452325 16.4091 -120.663 -0.228288 16.3356 -123.291 -0.49625 16.2615 -125.912 
-0.758265 16.1876 -128.525 -1.01405 16.1146 -131.132 -1.26341 16.0433 -133.732 
-1.50627 15.9742 -136.326 -1.74265 15.9076 -138.915 -1.97265 15.8441 -141.502 
-2.19646 15.7837 -144.088 -2.41434 15.7265 -146.675 -2.62657 15.6727 -149.266 
-2.8335 15.6219 -151.862 -3.03546 15.5741 -154.466 -3.23278 15.5288 -157.08 
-3.42577 15.4856 -159.704 -3.61466 15.4441 -162.341 -3.79967 15.4037 -164.989 
-3.98089 15.3637 -167.65 -4.15835 15.3236 -170.322 -4.33199 15.2827 -173.003 
-4.50163 15.2403 -175.692 -4.66702 15.1959 -178.386 -4.8278 15.1488 -181.082 
-4.98356 15.0984 -183.777 -5.13379 15.0444 -186.466 -5.27794 14.9861 -189.146 
-5.41545 14.9234 -191.813 -5.54572 14.8557 -194.462 -5.66817 14.783 -197.09 
-5.78226 14.7049 -199.694 -5.8875 14.6214 -202.27 -5.98347 14.5324 -204.816 
-6.06983 14.4377 -207.331 -6.14638 14.3374 -209.812 -6.21299 14.2315 -212.26 
-6.26971 14.1198 -214.675 -6.31669 14.0024 -217.058 -6.35422 13.8793 -219.409 
-6.38274 13.7503 -221.731 -6.40281 13.6153 -224.027 -6.41509 13.4743 -226.3 
-6.42037 13.327 -228.553 -6.41952 13.1732 -230.789 -6.4135 13.0128 -233.011 
-6.4033 12.8456 -235.225 -6.38996 12.6712 -237.432 -6.37453 12.4895 -239.636 
-6.35808 12.3003 -241.84 -6.34163 12.1036 -244.046 -6.32616 11.8991 -246.257 
-6.31261 11.687 -248.472 -6.30186 11.4672 -250.694 -6.29467 11.2402 -252.923 
-6.29175 11.006 -255.157 -6.2937 10.7653 -257.397 -6.30103 10.5185 -259.641 
-6.31415 10.2663 -261.886 -6.33336 10.0097 -264.132 -6.3589 9.7494 -266.374 
-6.3909 9.48657 -268.611 -6.42943 9.22231 -270.84 -6.47449 8.95781 -273.058 
-6.52603 8.69433 -275.262 -6.58393 8.43313 -277.449 -6.64806 8.1755 -279.618 
-6.71825 7.92268 -281.767 -6.79431 7.67586 -283.893 -6.87604 7.43617 -285.997 
-6.96324 7.20462 -288.076 -7.05568 6.98209 -290.132 -7.15316 6.76932 -292.164 
-7.25546 6.5669 -294.172 -7.36238 6.37523 -296.159 -7.47368 6.19452 -298.124 
-7.58915 6.0248 -300.07 -7.70854 5.86593 -301.998 -7.83161 5.71756 -303.91 
-7.95808 5.57916 -305.807 -8.08765 5.45005 -307.693 -8.22001 5.32936 -309.568 
-8.3548 5.21612 -311.434 -8.49165 5.10919 -313.293 -8.63016 5.00737 -315.147 
-8.7699 4.90933 -316.998 -8.91041 4.81368 -318.846 
LINES 1 261
260 259 258 257 256 255 254 253 252 251 250 249 248 247 246 245 244 243 242 241 240 239 238 237 236 235 234 233 232 231 230 229 228 227 226 225 224 223 222 221 220 219 218 217 216 215 214 213 212 211 210 209 208 207 206 205 204 203 202 201 200 199 198 197 196 195 194 193 192 191 190 189 188 187 186 185 184 183 182 181 180 179 178 177 176 175 174 173 172 171 170 169 168 167 166 165 164 163 162 161 160 159 158 157 156 155 154 153 152 151 150 149 148 147 146 145 144 143 142 141 140 139 138 137 136 135 134 133 132 131 130 129 128 127 126 125 124 123 122 121 120 119 118 117 116 115 114 113 112 111 110 109 108 107 106 105 104 103 102 101 100 99 98 97 96 95 94 93 92 91 90 89 88 87 86 85 84 83 82 81 80 79 78 77 76 75 74 73 72 71 70 69 68 67 66 65 64 63 62 61 60 59 58 57 56 55 54 53 52 51 50 49 48 47 46 45 44 43 42 41 40 39 38 37 36 35 34 33 32 31 30 29 28 27 26 25 24 23 22 21 20 19 18 17 16 15 14 13 12 11 10 9 8 7 6 5 4 3 2 1 0 

CELL_DATA 1
FIELD FieldData 2
LengthArray 1 1 double
587.23799905 
TortuosityArray 1 1 double
0.0082754751759 
POINT_DATA 260
FIELD FieldData 8
RadiusArray 1 260 double
91.426787825 91.301814701 91.080957398 90.419925905 90.356855812 90.213233136 90.080001376 89.445317515 89.128380377 
89.065167123 88.654033745 88.213219559 87.821333624 87.616872237 87.439532813 87.077481796 86.453885575 86.409257201 
86.274368749 85.859472936 85.626569285 85.202730052 84.956038178 84.585617235 84.032799707 83.679008008 83.295339465 
82.8884659 82.765425537 82.436330019 82.426271544 82.014104467 82.014066377 82.004582051 81.483964428 81.020286773 
80.847106468 80.022007622 79.469902853 78.392856904 78.17070852 77.099857029 75.945452411 75.218914319 74.608958407 
73.624864433 73.367022745 71.749470543 70.739867794 70.608221482 70.37099357 69.10375736 68.880446981 67.484436915 
67.305907904 65.782425508 65.358831982 63.813134823 63.702422463 62.563767651 62.102001102 61.22117756 61.18853735 
60.923478792 60.533883194 60.142638492 60.043592436 59.716881203 59.685632256 59.138084995 58.981564897 58.98077821 
58.567954207 58.463395603 58.314041699 58.312720941 58.297599364 58.194988852 58.192499524 58.18400738 58.277089923 
58.383848648 58.380882465 58.446320686 58.562203068 58.645356806 58.734587338 58.775466512 58.77963687 58.957554746 
59.150390298 59.165160389 59.213629546 59.223857894 59.27664044 59.287610698 59.274175759 59.274522535 59.321577925 
59.432439631 59.450277413 59.531719876 59.581116698 59.626360281 59.713098473 59.867981689 59.901703403 59.975548787 
60.010686849 60.1102734 60.143194009 60.30961759 60.483552322 60.579007978 60.621670911 60.697114786 60.706848748 
60.841847879 60.926157662 60.976366303 60.9916684 61.024323199 61.154739423 61.192417204 61.239257051 61.241226077 
61.393429586 61.462107222 61.584393993 61.768527219 61.787762454 61.825498332 61.853691967 61.928714814 61.93609666 
62.011509329 62.027947866 62.032668697 62.110274211 62.148563721 62.155343004 62.201803258 62.273240009 62.287098161 
62.333936898 62.355926582 62.354565573 62.35989477 62.381445399 62.43425926 62.460547724 62.542103542 62.46504065 
62.380909446 62.384291748 62.380216527 62.358614054 62.160147229 62.15089182 61.761048161 61.304332119 61.069247138 
60.837630417 60.775678945 60.038154578 59.374073626 59.267537847 59.231574348 58.757059699 57.668178091 56.812186086 
56.111716484 55.538813103 55.468605106 54.60506184 54.506983166 54.13317655 53.545040638 53.35213707 53.095850242 
53.069080346 52.663187377 52.422187608 52.422166003 52.416786406 52.173306361 52.130172876 52.058682204 51.922580712 
51.376136786 50.423019729 50.266815573 50.170837915 49.620661773 49.304968909 48.314565489 48.113582196 47.923893465 
46.891655166 46.65420643 46.577561146 45.945024263 45.728667329 45.068170182 44.569008094 44.230071692 43.387936163 
43.252822942 42.933083551 42.554430919 42.290518073 42.264375371 41.818245015 41.775056457 41.238143041 40.560185786 
40.209025225 39.673410108 39.644095115 39.576816379 38.848366 38.794072239 38.191095678 37.818199344 37.796467645 
37.346127762 37.336774125 37.02684837 36.766813746 35.642211368 35.443252142 34.177248575 33.409588058 33.127069857 
33.228116718 33.459970374 33.838283412 33.947857198 33.967549138 33.910012509 33.896226541 33.862156022 33.868759964 
33.861709365 33.759206121 33.772490233 33.71459981 33.707471558 33.633950662 33.487603653 33.362976609 33.352871892 
33.292608354 33.214305244 33.178948621 33.181829381 33.242527571 33.297178051 33.329460449 33.336157056 
EdgeArray 2 260 int
16062 16062 11061 14171 11061 12214 15035 14861 15035 
16548 16056 16548 10461 15039 14868 14868 10502 10502 
13749 8904 16126 16126 17125 17125 13440 13440 14447 
17955 17955 15080 11059 15080 15081 15081 21081 21081 
17959 17959 21078 21078 21083 21083 21449 21449 21456 
21456 17995 17995 20345 20345 8851 8851 19092 19092 
15138 15138 18003 18003 12903 12903 11122 20065 17629 
17629 11830 17629 11830 11830 21987 21987 23524 23524 
22913 22913 19430 10229 23204 23204 23504 23504 18676 
22374 20113 20113 19435 19435 25112 19746 25114 25111 
23840 23840 25127 25127 23815 23275 23847 25486 26349 
16326 26349 26958 25820 25820 23488 25077 19251 19251 
26225 26225 25785 25785 24726 24726 25043 25043 26172 
26180 26347 26347 22556 22556 26558 26558 26555 23185 
25038 25038 26569 26569 25563 25563 28052 28052 29144 
29144 29142 25778 29465 29465 29131 29464 29131 29128 
25540 25540 29326 29326 27836 30099 30948 30945 30948 
30947 23232 23232 28559 30946 29775 29775 29194 29194 
27606 27606 30350 30643 31368 31368 32607 32607 32605 
32605 32606 32606 31224 33143 33148 33143 30463 32602 
30509 32603 30954 32603 29470 30133 29470 28757 28757 
28757 30617 25684 31493 31493 33804 33804 32122 32122 
33185 33185 33193 30853 30853 31786 31786 31786 24094 
33189 24094 30229 30229 27473 27473 27473 23140 23140 
26498 26498 29565 29565 32312 33007 32312 32312 31189 
31189 24814 29891 29891 29891 32673 31802 14015 32673 
14015 14015 32890 32890 32743 23210 32304 32743 32304 
32304 30984 30984 27313 27313 33576 31255 31255 34712 
33445 33445 30500 26593 30500 30500 34996 34996 34175 
34175 34670 32191 34670 34670 35478 33448 33844 33448 
33844 33844 33453 33453 32206 34344 32390 32206 34329 
32390 34329 32989 32989 32989 36195 36195 36193 36193 
14025 14025 34799 35620 32737 32737 35615 35615 35525 
35525 35028 35028 35962 35962 35342 35342 35893 35893 
36369 36369 36352 36378 35364 36352 36962 35364 35956 
35956 38023 38023 37559 37559 37538 37538 37731 37731 
37897 37897 38933 38933 39281 39281 39018 38226 39773 
39390 39773 38600 38857 39074 39392 39769 39289 39289 
38750 38750 39734 39734 39574 39574 40669 40669 40791 
40791 39256 39450 41128 41128 41468 41468 41578 41578 
41580 41282 41480 41785 41784 41784 41795 41784 41795 
41795 41945 41945 42139 42139 42329 42329 42314 42105 
40066 42020 41476 43476 43477 43476 42666 42666 44100 
44100 42471 42471 43444 43444 44796 44796 44106 44106 
45330 45330 45308 45308 44706 44706 45157 45157 44327 
44327 45862 45862 45005 45005 43612 43612 46994 46994 
47021 47018 45809 45809 45763 45763 46822 46822 46536 
46536 47438 47438 47429 47429 47949 47949 47947 47947 
47967 47967 48618 48618 46876 48582 47775 47775 47971 
47971 48635 48635 47865 47865 47959 47959 47415 47415 
49238 49238 49237 49237 49230 49230 49445 49445 49233 
49233 47305 47305 50663 50663 50173 49129 51098 51098 
50209 51100 49706 51100 50236 49706 50900 48368 51360 
51360 51535 51535 51529 50688 51900 51705 51897 52075 
52075 51895 52073 52077 51618 51618 49650 52463 51570 
52462 52265 51676 52757 52760 52233 52233 52156 47630 
48280 48280 46053 51380 52454 52454 51967 51967 53364 
53364 53363 53363 53365 53365 42438 42438 
EdgePCoordArray 1 260 double
0 0.788 0.316 0.06 0.252 0.904 0.652 0 0 
0.924 0 0 0 0.876 0.316 0.044 0 0 
0 0 0 0 0 0 0 0 0 
0 0 0 0.012 0 0.996 0 0 0 
0 0.536 0 0 0.012 0 0 0.052 0.008 
0 0 0.28 0.648 0.192 0.352 0 0.856 0 
0 0 0 0 0.984 0 0 0 0.888 
0 0 0 0 0 0.024 0 0.576 0.568 
0 0 0.256 0.216 0.2 0 0.048 0 0 
0 0.964 0 0 0 0 0.72 0.92 0.376 
0.68 0.532 0.18 0.268 0 0.212 0 0 0 
0 0.084 0.176 0 0.824 0.084 0.54 0 0 
0 0 0.944 0 0 0.208 0 0.144 0.984 
0 0 0.984 0.992 0 0 0 0.588 0.384 
0 0.844 0 0 0 0.868 0 0.896 0.972 
0 0 0.988 0.44 0.432 0.096 0 0 0 
0 0.14 0 0 0 0 0 0 0 
0 0.224 0.416 0.856 0 0 0 0 0 
0 0 0 0.076 0.452 0.06 0.508 0.804 0 
0 0 0 0 0 0.988 0 0 0 
0.024 0.84 0 0.996 0 0 0 0 0.204 
0.972 0.808 0.276 0 0 0 0 0 0 
0 0 0 0 0 0 0 0 0 
0.6 0 0 0 0 0 0 0 0 
0 0 0.808 0 0 0 0 0 0 
0 0 0 0 0 0 0 0.772 0 
0.892 0.664 0.852 0.788 0 0 0.06 0.628 0.244 
0.776 0.172 0 0.82 0.792 0.8 0.028 0 0.992 
0 0.888 0 0 0 0 0 0 
CurvatureArray 1 260 double
0 2.5617845357e-05 0.00010026681896 0.00017449229246 0.00024675603717 0.00031514664692 0.00037976750087 0.00043824596061 0.00049026054704 
0.00053494928752 0.00057194518709 0.00060012484917 0.00062022220546 0.000631436084 0.0006351160243 0.00063072876009 0.00062127060326 0.00060715164449 
0.00059224878059 0.00058111330546 0.00057756993865 0.00058779736232 0.00061580848596 0.00066330869321 0.00072879707751 0.00081093318338 0.0009030683396 
0.0010028852612 0.0011043191382 0.0012041058061 0.0012989011864 0.0013865519 0.0014643934968 0.0015318571879 0.0015883056011 0.0016341344676 
0.0016697440216 0.0016964220416 0.0017148775284 0.001726959615 0.0017335519929 0.0017360805165 0.0017353456329 0.0017322400309 0.0017273150228 
0.0017209905047 0.0017136371075 0.0017054083399 0.0016963732641 0.0016866510728 0.0016766278109 0.0016662497436 0.0016562585799 0.0016468649923 
0.0016390489022 0.0016336974976 0.0016319177939 0.0016347851422 0.0016441747638 0.0016608834549 0.0016868796351 0.0017228991522 0.0017702932239 
0.0018294745129 0.0019009634805 0.0019845214165 0.0020801237691 0.0021862540073 0.0023023729978 0.0024269176613 0.0025582436021 0.002694087156 
0.0028331455268 0.0029717553084 0.0031086382296 0.0032406152332 0.0033655421698 0.0034801762799 0.0035837993892 0.0036720860443 0.003745868199 
0.0038027979677 0.0038420965922 0.003864296948 0.0038691791785 0.003858157186 0.0038304635861 0.0037890781311 0.0037345920685 0.0036663880226 
0.0035861340948 0.0034953641825 0.0033907870023 0.00327492116 0.0031475683512 0.0030062231166 0.0028516187842 0.0026846752639 0.0025026169575 
0.0023097628032 0.0021043491583 0.0018874061693 0.0016619396721 0.0014275195118 0.0011880649825 0.00094378893112 0.00069635320572 0.00045264198832 
0.00023008449732 0.00018470950549 0.00038834010956 0.00063657658727 0.00089380918648 0.0011552826799 0.0014185814388 0.0016832278487 0.0019474446253 
0.0022110161855 0.0024721765967 0.0027275420923 0.0029781435437 0.0032184184582 0.0034452051373 0.0036583636172 0.0038522562177 0.004025803546 
0.0041753962806 0.0042995644447 0.0043986268582 0.0044693716537 0.0045118364837 0.0045295576923 0.0045219668475 0.004489821786 0.0044359303605 
0.0043660971334 0.0042778339271 0.0041781610886 0.0040685136079 0.0039526382429 0.0038325757195 0.0037107290871 0.0035889684326 0.0034694777409 
0.0033539340378 0.0032413713826 0.0031341603261 0.0030307569672 0.0029321719183 0.002837045501 0.0027454995824 0.0026552772575 0.0025674588339 
0.0024810408909 0.0023938045148 0.0023059101745 0.0022169618723 0.0021264471759 0.0020330955704 0.0019372351193 0.0018393169106 0.0017384938329 
0.0016350395575 0.0015298895655 0.0014225725904 0.0013148009938 0.0012070770155 0.0011011189487 0.00099891653629 0.00090350126212 0.00081870719657 
0.00074899535282 0.00069968251604 0.00067609126515 0.00067863612445 0.00070545706723 0.00075008747718 0.00080491348111 0.00086310293726 0.00091732171015 
0.00096405413365 0.00099756077954 0.001016586347 0.0010189683276 0.0010045050084 0.00097451696083 0.00093046834657 0.0008761629758 0.00081630311597 
0.00075501033445 0.0006996156589 0.00065598503595 0.00062994986326 0.00062594821092 0.00064469171829 0.00068425628051 0.00074070390189 0.00081038809218 
0.00088984740568 0.00097678423894 0.0010696148355 0.0011672536643 0.0012686302223 0.0013727919444 0.0014782022634 0.0015836468619 0.0016863755988 
0.0017838146036 0.0018728913936 0.0019497663203 0.0020109389364 0.0020527667538 0.0020724485128 0.0020681553663 0.0020395318791 0.0019885801919 
0.0019189869859 0.0018367160628 0.0017498371537 0.001666523312 0.001594948582 0.001541942981 0.0015088323426 0.001495177247 0.0014966672125 
0.0015063783706 0.001518057711 0.0015272911252 0.0015307316664 0.001524540656 0.0015106248939 0.0014879825521 0.0014592106869 0.001427767042 
0.0013990381868 0.0013778226892 0.001370752185 0.0013860911413 0.0014289360919 0.0015029783678 0.0016087289354 0.0017424955248 0.0018976358917 
0.0020666670127 0.0022380525071 0.0024037357202 0.0025505727071 0.0026701482527 0.0027528509984 0.0027886229629 0.0027733345314 0.0027002633951 
0.0025699885982 0.0023808603471 0.0021358513124 0.0018404719547 0.0015004295113 0.0011227598605 0.00071672658007 0 
TorsionArray 1 260 double
0 0 -0.0013308016934 0.0017507518938 0.0020612253046 0.0034577951884 0.0045637112535 0.0056533717519 0.0070998718298 
0.0088743376753 0.010739425385 0.013084996495 0.015912811011 0.019557775346 0.023886957146 0.029426110014 0.036208169147 0.044189236815 
0.053938403801 0.063568016789 0.071779160678 0.076308319982 0.074922488395 0.068265586556 0.058384549839 0.047629503141 0.037537610415 
0.028908149868 0.0218638888 0.015991974047 0.011234817709 0.0073805957112 0.0042523824431 0.0016176700954 -0.00057746915449 -0.0023018680228 
-0.0037813842598 -0.0050499858491 -0.0059609236536 -0.00675404018 -0.0073416345046 -0.0078023442545 -0.0081670811924 -0.0083990060406 -0.0086580467168 
-0.0088361185627 -0.0090071765143 -0.0092610163635 -0.0095337095528 -0.0098621109832 -0.010268761296 -0.010793450805 -0.011403914944 -0.012072093897 
-0.012853181697 -0.013702992685 -0.014516170054 -0.015319336069 -0.016032883189 -0.016609451236 -0.01696017909 -0.017029690103 -0.016856283737 
-0.016402034748 -0.015652305187 -0.014713993872 -0.013606903688 -0.012377756935 -0.011093293634 -0.0098049242757 -0.0085357893767 -0.0073028359942 
-0.0061168953468 -0.0049952706412 -0.0039506215636 -0.0029752735623 -0.0020431794788 -0.0012003185657 -0.00040860321364 0.00032287420313 0.00097594103633 
0.0015713476728 0.0020724550489 0.002490632998 0.0027922761172 0.003011389328 0.0030929813745 0.0030106831659 0.002867952177 0.0026196508801 
0.0021859414132 0.0017882921242 0.0013961847622 0.00090835567749 0.00052284419225 0.00034071742406 0.00023714273308 0.00040987071549 0.0009112494601 
0.0014996376633 0.0027156029733 0.0046346469426 0.0073840508004 0.01159149812 0.018564927352 0.031717356069 0.060844986114 0.14728361884 
0.57923677592 0.91875522209 0.21624657754 0.086342445444 0.049632071145 0.034600858744 0.028366008656 0.025236583114 0.023937088783 
0.024058447522 0.024133144069 0.025023815042 0.026105329138 0.027089633573 0.028420411346 0.029774877173 0.030736091858 0.031753569028 
0.032912152022 0.033599662508 0.034066395507 0.034690301302 0.034876763265 0.034770833471 0.03481462907 0.034291992802 0.033759809931 
0.033067912919 0.032171356683 0.031302881316 0.030080799708 0.028741764447 0.027480758455 0.026012633816 0.024363057833 0.022776297448 
0.020993769635 0.019264828162 0.017522637609 0.015725471556 0.01403136556 0.012341793939 0.010693238633 0.0091413965917 0.0076539411776 
0.0062281558823 0.0048445994667 0.0035016297797 0.0022055293972 0.00085903434348 -0.00050963337074 -0.0019353817835 -0.003536273768 -0.0053083981478 
-0.0072704873115 -0.0096492080107 -0.012547909001 -0.016005031067 -0.020365781153 -0.025892281943 -0.032820365111 -0.041381893252 -0.051548268262 
-0.06236362349 -0.071467575751 -0.075867905206 -0.073877184843 -0.066005273085 -0.055679119106 -0.045266073445 -0.035855753427 -0.02819208632 
-0.021720794915 -0.016298826578 -0.011502931974 -0.0069212908773 -0.002391175687 0.0023875076155 0.0078822550233 0.014274552068 0.021802066644 
0.030690293045 0.040154265277 0.048922643027 0.05465227041 0.054989048175 0.049783557884 0.041065737211 0.031487715947 0.02259256931 
0.015103051201 0.0094035646027 0.0051108822529 0.0018922213478 -0.00028119805572 -0.0015856701451 -0.0023013438279 -0.0024201246535 -0.0020228824882 
-0.0011421632976 0.00017052221772 0.0019281844965 0.0042118012608 0.0069671088308 0.010329283257 0.014352268739 0.019129523356 0.024787192453 
0.03125187949 0.038429131317 0.045941967807 0.053107365961 0.058925279962 0.062243324969 0.06258688968 0.060065657704 0.055623594188 
0.050487053499 0.045523014048 0.041310323853 0.038407953056 0.036922660777 0.036752435168 0.038219890583 0.041185200096 0.045330062169 
0.050527817496 0.056677500778 0.062059947222 0.06571559377 0.066605998285 0.064366279882 0.059354912562 0.052520609275 0.045517592099 
0.038356878377 0.032172383335 0.026807542673 0.022126559209 0.018443477228 0.015185731538 0.012541321676 0.010235503221 0.0084709247654 
0.0070098375629 0.0054340360891 0.0044698109288 0.0036551378264 0.0026127810993 0.0021290642791 0 0 
TangentArray 3 260 double
-0.090533261642 0.10477665051 0.99036638778 -0.090533261642 0.10477665051 0.99036638778 -0.090391872288 0.10480929987 0.99037584789 
-0.090083640388 0.10488221141 0.99039621337 -0.089610748859 0.10499234395 0.99042744378 -0.088979380572 0.10513619917 0.99046910576 
-0.088197423923 0.10530807332 0.99052078429 -0.087275181054 0.10550061406 0.99058198207 -0.086226066338 0.10570548196 0.99065201588 
-0.085064736539 0.10591257078 0.99073029526 -0.083807343291 0.10611034587 0.99081629161 -0.08247206849 0.10628653789 0.9909094458 
-0.081078019583 0.10642782203 0.99100932056 -0.07964511338 0.10652002478 0.99111560387 -0.078193854369 0.10654780162 0.99122817106 
-0.076745552972 0.10649563728 0.99134696214 -0.075321479041 0.1063471481 0.99147211705 -0.073942769189 0.10608556235 0.99160391303 
-0.072631124285 0.10569475484 0.99174257677 -0.07140664897 0.10515639239 0.99188871534 -0.070288984682 0.10445362855 0.99204279047 
-0.069296794277 0.10357016426 0.9922052083 -0.068446858885 0.1024892297 0.99237643327 -0.06775353841 0.10119585061 0.99255672777 
-0.067228887044 0.099677215184 0.9927460549 -0.06688084478 0.097920905343 0.99294433323 -0.066713919567 0.095917542335 0.99315108519 
-0.06672779367 0.093660220929 0.99336557448 -0.066917915474 0.09114448775 0.99358677273 -0.067275879514 0.088370043746 0.9938132075 
-0.067787907517 0.085339018419 0.99404328454 -0.068436493627 0.082055857173 0.99427525497 -0.069200847614 0.078528121162 0.99450720303 
-0.070057804162 0.074765825306 0.99473713887 -0.070981907642 0.070780121025 0.99496318688 -0.071946615299 0.066583161318 0.99518358466 
-0.07292636817 0.062188055309 0.99539659965 -0.073895494992 0.057607827314 0.99560072019 -0.074828726735 0.052855623097 0.99579462981 
-0.075704154225 0.047944461882 0.99597701259 -0.076500713064 0.042886584648 0.99614676718 -0.077199952131 0.037694078347 0.99630282738 
-0.077785161877 0.032378671083 0.99644422335 -0.078241297284 0.026952202036 0.99657005685 -0.07855573504 0.02142678774 0.99667943154 
-0.078715796921 0.015815091023 0.99677164196 -0.078710835067 0.010130516992 0.99684601472 -0.078531025499 0.0043873516477 0.99690201584 
-0.078165870892 -0.00139876076 0.99693938637 -0.07760555801 -0.0072109318811 0.99695806322 -0.076840336453 -0.013031473563 0.99695824556 
-0.07586020161 -0.018841643368 0.99694043066 -0.074654136661 -0.024621960612 0.99690547141 -0.073210743132 -0.030352691383 0.99685450353 
-0.071518785883 -0.036014206229 0.99678886441 -0.069565675849 -0.041587619764 0.9967101317 -0.067338113866 -0.047054922701 0.99661999412 
-0.064823759341 -0.05239972817 0.99652001922 -0.062009661606 -0.057608003702 0.99641162166 -0.058883139648 -0.062667959611 0.99629589114 
-0.055431996777 -0.067570282178 0.99617345412 -0.05164504249 -0.072308944456 0.99604427921 -0.047513109065 -0.076881089378 0.99590752711 
-0.043028000447 -0.081286460063 0.99576156915 -0.038183863075 -0.085527513203 0.9956038555 -0.032978036057 -0.089609923343 0.99543081667 
-0.027410417754 -0.093541478534 0.99523799204 -0.021484919167 -0.097331568685 0.9950200822 -0.015210064804 -0.10099132216 0.99477103234 
-0.0085981461408 -0.10453322266 0.99448422674 -0.0016662869391 -0.10797007506 0.99415274801 0.0055630926266 -0.11131452251 0.99376965595 
0.013063160801 -0.11457938372 0.99332820289 0.020801626042 -0.11777661297 0.99282222064 0.028741383438 -0.12091705791 0.99224644015 
0.036842302048 -0.12401024126 0.99159674507 0.045060690387 -0.12706389031 0.99087047688 0.053349987303 -0.13008422919 0.99006659987 
0.061663510015 -0.13307545471 0.98918579392 0.069953742635 -0.13603969177 0.98823057844 0.078174410452 -0.13897737144 0.98720517208 
0.086283364104 -0.14188736413 0.98611518444 0.094240520298 -0.14476672522 0.9849676744 0.10201106966 -0.1476109963 0.98377067218 
0.10956563623 -0.15041474626 0.98253283684 0.11688069159 -0.15317139366 0.98126317983 0.12393730888 -0.15587376029 0.97997087422 
0.13072210536 -0.15851399361 0.97866492989 0.13722793438 -0.16108399959 0.97735379423 0.14344940904 -0.16357577861 0.97604571189 
0.14938350689 -0.16598132446 0.97474856645 0.15503118963 -0.16829267887 0.97346951903 0.16039198393 -0.17050273 0.97221562966 
0.16546460099 -0.1726050173 0.9709938073 0.17024959038 -0.17459377325 0.96981033781 0.17474459473 -0.17646394438 0.96867166932 
0.17894474532 -0.17821185923 0.96758426576 0.18284567082 -0.17983496462 0.96655410928 0.18644048692 -0.18133176196 0.96558724978 
0.1897222524 -0.18270230457 0.96468924263 0.19268546879 -0.18394679731 0.96386507659 0.19532287553 -0.18506657859 0.9631195854 
0.19762913921 -0.18606437473 0.96245663372 0.19960031037 -0.18694290874 0.96187944409 0.20123433081 -0.18770502863 0.96139043387 
0.20253133632 -0.18835380233 0.96099110452 0.20349168638 -0.18889166193 0.96068260816 0.20411854126 -0.18932083894 0.96046511704 
0.20441669675 -0.1896426408 0.96033821276 0.20439183975 -0.18985742517 0.96030106423 0.20405100677 -0.18996409888 0.96035244977 
0.20340193915 -0.18996034504 0.9604908737 0.20245372242 -0.18984315091 0.96071435314 0.20121582408 -0.18960710237 0.96102098774 
0.19969824002 -0.18924634008 0.96140856856 0.19791218603 -0.18875289368 0.96187479006 0.19586985013 -0.18811784833 0.96241710134 
0.19358434949 -0.18733174746 0.96303266612 0.1910702225 -0.18638276628 0.96371864904 0.18834369284 -0.18526081214 0.96447140178 
0.18542218422 -0.18395426256 0.96528723336 0.18232478945 -0.18245138039 0.96616208006 0.17907362964 -0.1807429105 0.96709081035 
0.17569189482 -0.17881901802 0.96806823979 0.17220452402 -0.17667110145 0.96908870792 0.16863745284 -0.17429405771 0.97014586066 
0.16501771689 -0.17168437679 0.97123304509 0.16137407752 -0.16884001944 0.9723432804 0.15773350124 -0.16576214782 0.97346959528 
0.15412271214 -0.16245496131 0.97460483025 0.15056985295 -0.1589247458 0.97574158698 0.14709946742 -0.1551800633 0.97687301869 
0.14373365624 -0.15123154673 0.9779926663 0.14049505433 -0.14709146678 0.97909409155 0.13740212613 -0.1427754458 0.98017132574 
0.13447035126 -0.13829771848 0.98121937695 0.13171323727 -0.13367419979 0.98223359311 0.12914160803 -0.12892187769 0.98320984257 
0.12676374056 -0.12405568985 0.98414487749 0.12458398711 -0.11909106631 0.98503611512 0.12260406374 -0.1140423563 0.98588162805 
0.12082475699 -0.10892261578 0.98667990852 0.11924371007 -0.10374412154 0.98743004555 0.11785582593 -0.098517813393 0.98813169403 
0.1166549958 -0.093252314341 0.9887849199 0.11563262824 -0.087956453899 0.9893900937 0.11477952818 -0.082637890694 0.98994779606 
0.1140852201 -0.077303539626 0.99045884585 0.11353782132 -0.071960530654 0.99092423785 0.11312529966 -0.066615841982 0.99134504396 
0.11283458066 -0.061277161834 0.99172247471 0.11265192431 -0.055953871525 0.99205781495 0.11256337444 -0.05065609223 0.99235248126 
0.11255453007 -0.045393620444 0.99260812861 0.11261068509 -0.040179407505 0.99282649482 0.11271661777 -0.03502847977 0.99300955166 
0.11285690539 -0.029956169234 0.99315957773 0.11301619887 -0.024978856633 0.99327911259 0.11317844229 -0.020115037671 0.99337104118 
0.11332767177 -0.015384430269 0.99343855276 0.11344812816 -0.01080595212 0.99348515521 0.11352354221 -0.0063991315514 0.99351469867 
0.11353801323 -0.0021843594896 0.99353125171 0.11347670541 0.0018192117965 0.99353899158 0.11332455932 0.0055925869261 0.99354228256 
0.11306702403 0.0091176514003 0.99354552815 0.11269122236 0.012378013282 0.9935529544 0.11218510691 0.015358275724 0.99356863133 
0.11153781496 0.018044871491 0.99359634583 0.11074040262 0.020426342668 0.99363943549 0.10978585657 0.022493673642 0.99370070964 
0.10866921301 0.024239663623 0.99378239109 0.1073884878 0.025659418875 0.99388596273 0.10594446439 0.026752599421 0.99401210701 
0.10434111681 0.027522015855 0.9941606862 0.10258581372 0.027973863111 0.99433073663 0.10068933853 0.028120208112 0.99452044273 
0.098666507835 0.027977111365 0.99472719952 0.096534957346 0.027565915237 0.9949477988 0.094315974622 0.026914770373 0.99517842223 
0.092032800909 0.026055914511 0.9954150154 0.089710456723 0.025027229859 0.99565338935 0.087375142101 0.023870935258 0.99588943312 
0.085051559965 0.022631983987 0.99611948352 0.08276298028 0.021358141102 0.99634036298 0.080529282357 0.020096856384 0.99654962297 
0.078366808592 0.018894112297 0.99674553214 0.076286774242 0.017793654381 0.99692713572 0.074293971939 0.016834066016 0.9970942884 
0.072388435151 0.016048888348 0.99724738538 0.070564102419 0.015465885212 0.99738734394 0.06880902809 0.015105519938 0.99751548405 
0.067107313949 0.014982263146 0.9976332694 0.065438885701 0.015104778191 0.99774225024 0.063780476253 0.015475915666 0.99784394916 
0.062106933831 0.016093652261 0.99793973923 0.060391872155 0.016952222181 0.99803078306 0.058608755014 0.018043297036 0.99811795559 
0.056731292 0.01935610069 0.99820183424 0.054734305699 0.020877525035 0.99828266775 0.052595336919 0.022594537749 0.99836026433 
0.050294780313 0.024493766871 0.99843401908 0.04781618857 0.026561050685 0.99850294076 0.045148000683 0.028782835626 0.99856557442 
0.042284718446 0.031146477901 0.99861999755 0.039226564433 0.033639688736 0.99866393145 0.035981247602 0.036251029092 0.99869475452 
0.032565121392 0.038969748095 0.99870960324 0.029003106572 0.041786360121 0.99870552212 0.025329325599 0.044692081637 0.99867964989 
0.02158695839 0.047678781176 0.99862942929 0.017827994673 0.050739544302 0.99855278341 0.014111421304 0.05386745197 0.99844837894 
0.010501747154 0.057056043411 0.99831574225 0.0070665084807 0.060298677715 0.99815536562 0.0038730772575 0.063588460242 0.99796869039 
0.00098587028693 0.066918343889 0.9977579683 -0.0015372191235 0.070279823477 0.99752613167 -0.003647938227 0.073663461607 0.99727648472 
-0.005309694473 0.077058378134 0.99701244401 -0.0064987865394 0.080451829187 0.99673731191 -0.007205409558 0.083830361374 0.9964539892 
-0.0074332682092 0.087178181247 0.99616500201 -0.0071980418869 0.090477442497 0.99587249214 -0.0065258866106 0.093709895445 0.99557815781 
-0.0054507746356 0.096855200358 0.99528355719 -0.004012050925 0.099890622644 0.99499033511 -0.0022522711975 0.10279296454 0.99470022304 
-0.00021480985668 0.10553914524 0.99441512593 0.0020577344408 0.10810284941 0.99413758589 0.0045256281949 0.11045699785 0.99387060039 
0.0071524780744 0.11257419817 0.99361757833 0.0099055648676 0.11442410354 0.99338260721 0.012757026941 0.11597572087 0.9931701216 
0.015683538474 0.11719926063 0.99298457185 0.01866578237 0.11806479464 0.99283044516 0.021687663732 0.11853987254 0.9927124175 
0.024736898659 0.11859622116 0.99263438494 0.027803831192 0.11820810934 0.99259951131 0.030880276883 0.11735338366 0.9926099898 
0.033959051914 0.11601507036 0.99266675488 0.037033621753 0.11418321397 0.99276921009 0.040097117111 0.11185893177 0.99291480026 
0.043140673474 0.10905152762 0.99309951496 0.046155347003 0.10578585173 0.99331718878 0.049129385175 0.10209888337 0.99356032606 
0.052048349094 0.098041502401 0.99382032237 0.054896599846 0.093680347808 0.99408770024 0.057654940344 0.089091936249 0.9943533249 
0.060302902763 0.084366691883 0.9946083758 0.062818153781 0.079602853144 0.99484534744 0.065178097 0.0749046803 0.99505834228 
0.067358271618 0.070377359888 0.99524363372 0.069334820011 0.066124354557 0.99539954414 0.071086956901 0.062246892048 0.99552597605 
0.072592710795 0.058835849134 0.99562474919 0.073832994385 0.055971765165 0.99569867452 0.074792976361 0.053724655075 0.99575080825 
0.07545821495 0.052149304926 0.99578436812 0.07545821495 0.052149304926 0.99578436812 
NormalArray 3 260 double
-0.97694307288 -0.20241792459 -0.067891208259 -0.97694307288 -0.20241792459 -0.067891208259 -0.97103196786 -0.23014384679 -0.064270733491 
-0.97120673398 -0.22947043789 -0.064037473418 -0.9724383832 -0.22414067425 -0.064222651921 -0.97344196455 -0.21977072078 -0.064121540377 
-0.97564814842 -0.20961664181 -0.064587568152 -0.97784384258 -0.19900206232 -0.064958438367 -0.98067358439 -0.18429257255 -0.065692987343 
-0.98374068875 -0.16677509764 -0.06663575697 -0.98723279333 -0.14400056713 -0.068082658921 -0.99060224203 -0.11760388276 -0.069832119072 
-0.99383647765 -0.084048915247 -0.072283023899 -0.99617594566 -0.044331991216 -0.075287182488 -0.99683322839 0.0060702201414 -0.079288506114 
-0.99428123396 0.065881806499 -0.084050076574 -0.98587931379 0.14118999612 -0.090040899754 -0.96820645356 0.230634016 -0.096872152624 
-0.93534192881 0.33795194929 -0.10451773145 -0.88001221602 0.46148906568 -0.11227796722 -0.79643130606 0.59293291565 -0.11886013742 
-0.6819815514 0.72097133646 -0.12288814248 -0.54361512309 0.83023780982 -0.12323869966 -0.39700519519 0.90995439968 -0.11987437383 
-0.25709465481 0.95966638169 -0.11376631454 -0.13581774164 0.98501602706 -0.10628719346 -0.035347483585 0.9945166163 -0.098423855425 
0.042767138981 0.99493802659 -0.090935664448 0.10371733552 0.99105949441 -0.08392730695 0.14880390512 0.985818353 -0.077585905285 
0.18166090958 0.9807358831 -0.071808366663 0.20392485949 0.97672052051 -0.066570838257 0.21807793802 0.97397695716 -0.061732486358 
0.22501764351 0.97267075305 -0.05725963913 0.22597433812 0.97268635193 -0.053074092396 0.22160764846 0.97389707745 -0.049137894492 
0.21330350859 0.97593312981 -0.045344672938 0.20065483298 0.97877235316 -0.041741091234 0.1848230369 0.98202770929 -0.038236412219 
0.16633792665 0.98545473247 -0.034794603055 0.14508351378 0.98891997013 -0.031433528454 0.12216748419 0.99211250609 -0.028069219351 
0.097088529857 0.99496792438 -0.02475170368 0.070841543454 0.99725780559 -0.02140899122 0.043208565741 0.99890266358 -0.018068994035 
0.014234181451 0.99979005444 -0.014738898219 -0.015575108479 0.99981381908 -0.011390486103 -0.046624687854 0.99887988819 -0.0080689192581 
-0.078980937671 0.99686459958 -0.0047939110014 -0.11260492267 0.99363858606 -0.0015785094261 -0.1477857179 0.98901820954 0.0015371359547 
-0.18462317965 0.98279896127 0.004525843031 -0.22361735014 0.9746494771 0.0073264928597 -0.26461084937 0.96430416947 0.0099280987311 
-0.30780122904 0.95137132048 0.012288773661 -0.35332724532 0.9353894406 0.014368442053 -0.40094481194 0.91595973516 0.016156155034 
-0.44996550091 0.89287092667 0.017679261997 -0.50018255433 0.86571317627 0.018923762548 -0.55039850268 0.83466318387 0.019971423125 
-0.60002054736 0.79971267232 0.020856281401 -0.64756187663 0.76170324606 0.02172051738 -0.69227989272 0.72127346321 0.022652624797 
-0.7333385527 0.67944774713 0.023776586005 -0.77016268022 0.63734896544 0.025213929808 -0.80232922178 0.59626640798 0.027095951476 
-0.8300693913 0.55688039971 0.029479247587 -0.85338864017 0.52026327027 0.032464725939 -0.87277172078 0.48679366285 0.036075659655 
-0.88858088441 0.45694206245 0.040348028633 -0.90137893844 0.43065931988 0.045261015704 -0.91152847278 0.40808558702 0.050813354268 
-0.91948328812 0.38898069106 0.056960555173 -0.92553433279 0.37327205748 0.063672363907 -0.93002175452 0.36060387603 0.070882866157 
-0.93317003404 0.35075015762 0.078536707902 -0.93519292082 0.34339609761 0.086563970507 -0.93619597048 0.33842104148 0.094912083162 
-0.93640603665 0.33531324978 0.10348313414 -0.93582481417 0.33411734752 0.1122386532 -0.93464519137 0.33433246984 0.12107917183 
-0.93288112838 0.33592156716 0.12995961304 -0.93066468486 0.33852310288 0.13879968723 -0.92805629914 0.34196789403 0.14754479009 
-0.9251563835 0.3459880816 0.15613428022 -0.92206979965 0.35031793988 0.16451329905 -0.91883564086 0.35486998054 0.17265098317 
-0.91564214063 0.35920067971 0.18048363361 -0.91255350547 0.36318897865 0.18798900351 -0.90960276746 0.36679316889 0.19515526304 
-0.90692016616 0.36974620429 0.20194939122 -0.90464168839 0.3717754079 0.20834217457 -0.90256704496 0.37337986732 0.21438331099 
-0.90090063404 0.37412195619 0.22002456561 -0.89955102035 0.37423636937 0.22528892922 -0.89846577907 0.37386271586 0.23018669276 
-0.89741886959 0.37352957649 0.2347659004 -0.89655688296 0.37292094176 0.23898896797 -0.89534876508 0.37324915735 0.24297254042 
-0.89397616782 0.3741138434 0.24666869184 -0.8921300186 0.37620888823 0.25014176446 -0.88933892495 0.38055451844 0.25348478272 
-0.88521008283 0.38791421072 0.25675995479 -0.87898748152 0.39967603388 0.26007705642 -0.86929569457 0.41814089483 0.26359663782 
-0.85293837497 0.4481999521 0.26760592565 -0.82139723462 0.50104640902 0.27250519073 -0.74479269918 0.60668923295 0.2778704912 
-0.43114242573 0.86332889704 0.26225831594 0.75492251926 0.65507298766 -0.031166821492 0.97702620943 0.10115076071 -0.18758547303 
0.97271441935 -0.072609703685 -0.22035083236 0.96034025142 -0.15357917935 -0.23272309119 0.94921117727 -0.20452709145 -0.23909581721 
0.93968068936 -0.24109126931 -0.24264212721 0.93027079201 -0.27307995602 -0.24499712477 0.92131115421 -0.30085965309 -0.24631123861 
0.91175039598 -0.32810507823 -0.24709972292 0.90152989724 -0.35501665121 -0.24740052901 0.89076075233 -0.38136058847 -0.24720312228 
0.8786264669 -0.40885146899 -0.24669010514 0.86552552319 -0.4364315764 -0.24574997016 0.8510652338 -0.46469169606 -0.24443730369 
0.83508779028 -0.49366272764 -0.24274573914 0.81746638978 -0.52328883011 -0.24066055319 0.79858115543 -0.55277866849 -0.23812576897 
0.77777998775 -0.58287799116 -0.23518405148 0.75527219205 -0.61305197894 -0.23179988575 0.73125601592 -0.6428842319 -0.22795724062 
0.70562763448 -0.67235806829 -0.22366105933 0.67804949651 -0.70165873311 -0.21891528621 0.64937264496 -0.7298215171 -0.21371878991 
0.61904092229 -0.75729118314 -0.20808267698 0.58722133617 -0.78381135011 -0.20201700368 0.5547070093 -0.80873671744 -0.1955634314 
0.52066499565 -0.83264407915 -0.18871088938 0.48622134341 -0.85477272411 -0.18152794643 0.4507368117 -0.87553314863 -0.17400583961 
0.41484958909 -0.89458204801 -0.16620101625 0.37887462594 -0.91183308185 -0.15815956708 0.34296150801 -0.92730907662 -0.14991757885 
0.30697846761 -0.94114065339 -0.14148671655 0.27190938795 -0.95309158753 -0.13297259315 0.23756703859 -0.96337449266 -0.12438444064 
0.20434104058 -0.97202869052 -0.11577980805 0.17281553569 -0.97909886782 -0.10723897449 0.14266756702 -0.98483192635 -0.098752428662 
0.11470048892 -0.98927624678 -0.090422925136 0.088733946274 -0.99265337635 -0.082253031606 0.06502257633 -0.9951146662 -0.074289068411 
0.043732620514 -0.99682302929 -0.066568056756 0.024939863402 -0.99793943205 -0.059117621464 0.0086098019065 -0.99861245442 -0.051952258822 
-0.0051224858035 -0.99896917828 -0.045103669255 -0.016312844776 -0.99912220086 -0.038583919375 -0.024738743569 -0.99916755165 -0.032437606278 
-0.030513844258 -0.99917846282 -0.026670297188 -0.033442341334 -0.99921316049 -0.021322985367 -0.033223899631 -0.99931254826 -0.016450026897 
-0.029811252004 -0.99948258048 -0.012077274683 -0.02272341631 -0.99970751116 -0.0082787975347 -0.011351604132 -0.99992234068 -0.005143316244 
0.0047561491975 -0.99998492994 -0.0027420680497 0.026317823471 -0.99965293499 -0.0011754742383 0.0549881813 -0.99848679277 -0.00065159504687 
0.0918331868 -0.99577353988 -0.001312661666 0.13876782441 -0.99031909988 -0.0034016634647 0.19830363709 -0.98011389329 -0.0072404211317 
0.27308958222 -0.96189821965 -0.013186930068 0.36542685624 -0.93058949637 -0.02159634218 0.47634360568 -0.87864952925 -0.032737960936 
0.60283825616 -0.79650771222 -0.046491948608 0.73400483414 -0.67632222822 -0.061847773421 0.8511926078 -0.51921173035 -0.07674844295 
0.93667062 -0.33873236256 -0.088929951008 0.98258156746 -0.15856030595 -0.096912809593 0.9949085879 0.0014824304877 -0.10077055187 
0.98572103151 0.1343184725 -0.10155095265 0.96589520525 0.2387056932 -0.10032967907 0.94269874884 0.31893781546 -0.09796804991 
0.9200200908 0.38017819173 -0.095013551984 0.9003678243 0.42533226074 -0.091816387078 0.88449271265 0.45806767472 -0.08858129962 
0.8734929973 0.47927525154 -0.085470561781 0.86778672813 0.4900257829 -0.082588901082 0.86798543249 0.49009945732 -0.080023814714 
0.87449902583 0.47874197937 -0.077830399023 0.88827220424 0.45297658535 -0.0760572435 0.90872103743 0.4106757107 -0.07464272752 
0.9351740822 0.34648701553 -0.073458723387 0.96370776549 0.25702004022 -0.072166762836 0.98761869579 0.14026472859 -0.070250392456 
0.9977431065 0.0012998269507 -0.067134222857 0.9871642105 -0.14696271938 -0.062520241721 0.95671094905 -0.28545847734 -0.056724048577 
0.9146476971 -0.4010908794 -0.05045489711 0.87140019664 -0.4885566454 -0.044430862478 0.83365388545 -0.55090904646 -0.038992586553 
0.80507783203 -0.59217825196 -0.034272471285 0.78564252322 -0.61794552363 -0.030152206252 0.77381135825 -0.63286392824 -0.026442960649 
0.76824504347 -0.63974238667 -0.023005040265 0.76733568629 -0.64094305133 -0.019696433728 0.76928114652 -0.63870063075 -0.016371373978 
0.77282125026 -0.63449193998 -0.012934189002 0.77710252037 -0.62930493437 -0.009325900016 0.78097087801 -0.62454351213 -0.0054670974085 
0.7838723972 -0.62092051989 -0.0013315016891 0.78491481539 -0.61959578545 0.0031297359539 0.78371481719 -0.62107037904 0.0079164127373 
0.7793956247 -0.62639598096 0.013058914151 0.77124204412 -0.63627131655 0.018561279792 0.75841728391 -0.65131166494 0.024420044667 
0.73955223606 -0.6724009919 0.030649571371 0.71327344083 -0.69989630683 0.037231146874 0.67738648356 -0.73430070037 0.044159181677 
0.62942314856 -0.77536219395 0.051380621335 0.56665893398 -0.82185340018 0.058776195407 0.48629092129 -0.87129049245 0.066136356358 
0.38675692306 -0.91927906024 0.073110135154 0.26860667169 -0.95998541519 0.079236724785 0.13623507842 -0.98710643599 0.08402908683 
-0.0026592130614 -0.99619072481 0.087160589606 -0.13907411684 -0.98631020185 0.088603474793 -0.26527145015 -0.96009146955 0.088630851463 
-0.37726670694 -0.92194733452 0.087652405565 -0.47418755182 -0.87620827391 0.086053625267 -0.5572582557 -0.82606878413 0.084104698663 
-0.62884495582 -0.7732025721 0.081925600627 -0.69229156341 -0.71723359754 0.079425171026 -0.74940788428 -0.65767376883 0.076505142109 
-0.80240258412 -0.5923158292 0.072883821709 -0.85235814697 -0.51848945617 0.068222233449 -0.89914940089 -0.43320827583 0.062136499947 
-0.9408109136 -0.33454660882 0.0543451136 -0.97451577935 -0.21986731709 0.044467501282 -0.99552696029 -0.088767239699 0.032348856189 
-0.9984682678 0.052085994811 0.018659242996 -0.98034387515 0.19725650949 0.0039693718652 -0.94233151006 0.33452443206 -0.010233743542 
-0.88870619428 0.45789421553 -0.02311249947 -0.82743858892 0.5605497872 -0.033605321584 -0.76454635813 0.64322563188 -0.041589094249 
-0.70450344763 0.70813222421 -0.047155543735 -0.65107623636 0.75733704588 -0.05040172001 -0.60349671246 0.79567317074 -0.051922282394 
-0.56328020337 0.82463740768 -0.051851310103 -0.52906967429 0.84706790687 -0.05060870376 -0.50009547575 0.86461268917 -0.048470742297 
-0.47637099594 0.87806119314 -0.0455984138 -0.45624018656 0.88885010363 -0.042312946605 -0.44038343724 0.89697638442 -0.038675495986 
-0.42630658623 0.90389883484 -0.035065523246 -0.4156564551 0.90897844843 -0.031430743456 -0.40704939337 0.91297628937 -0.02801939328 
-0.39978719129 0.91626707214 -0.024997083777 -0.39419461434 0.91875357091 -0.022416109351 -0.39088560135 0.92021562902 -0.020288981494 
-0.38592070703 0.92233506822 -0.019058589047 -0.38592070703 0.92233506822 -0.019058589047 
BinormalArray 3 260 double
0.1933544954 -0.97367799467 0.12068637784 0.1933544954 -0.97367799467 0.12068637784 0.22119273682 -0.96749616043 0.12257631391 
0.22055026094 -0.96764820047 0.12253384241 0.21525218828 -0.96888470205 0.12218399887 0.21093461424 -0.96986968708 0.12189905087 
0.20082804808 -0.97209622629 0.12123127457 0.19027470219 -0.97430375121 0.12053106687 0.17562569962 -0.97717071118 0.11955339747 
0.1581715774 -0.98029005614 0.11837718507 0.13545383343 -0.983872162 0.11682391812 0.10911258412 -0.98735631796 0.11498671821 
0.075600333589 -0.99076177689 0.11258637137 0.0359185357 -0.99332178013 0.10964351288 -0.014464989229 -0.99428905173 0.10573573516 
-0.074262695202 -0.9921281504 0.10083047798 -0.14956153726 -0.98425386415 0.094210814064 -0.23897432953 -0.9672403032 0.085659008284 
-0.34620831302 -0.93520965498 0.07431490583 -0.46955254247 -0.88089157982 0.059585522178 -0.60063019684 -0.79844849366 0.041513487181 
-0.72807906017 -0.68518140159 0.020671938915 -0.83653907587 -0.54790613881 -0.0011124749924 -0.91531215059 -0.40217209044 -0.021477351944 
-0.96404492386 -0.26287808701 -0.038890823544 -0.98847382042 -0.1419680342 -0.052579307789 -0.99714583103 -0.041671632855 -0.062957657794 
-0.99685423878 0.036415467328 -0.070395599038 -0.99235311603 0.097435932247 -0.075772898894 -0.98657556926 0.14266362622 -0.079471604345 
-0.98102197403 0.17571106831 -0.081984797051 -0.97659157175 0.19820156691 -0.083576556821 -0.97347483565 0.2126081398 -0.084525281732 
-0.97183278612 0.21982192231 -0.084966806956 -0.97154370324 0.22106884729 -0.085037623799 -0.97247814098 0.2170049888 -0.08482393618 
-0.97426041593 0.20901476483 -0.084436189124 -0.97687107329 0.19668761763 -0.083886156489 -0.97991892863 0.18118460557 -0.083252819883 
-0.98315846901 0.16303465527 -0.082577999433 -0.98645750792 0.14211978588 -0.081875219273 -0.98950253825 0.11954886753 -0.081196028699 
-0.99223146794 0.094817989452 -0.080537338634 -0.99441428747 0.06892349374 -0.079936080027 -0.9959728994 0.041645665633 -0.079395353737 
-0.99679547119 0.013028044297 -0.078924385765 -0.99677581253 -0.016422539489 -0.07853839671 -0.9958207753 -0.047113905813 -0.078238503068 
-0.99380687667 -0.079113927765 -0.078031265024 -0.99060461777 -0.11238488672 -0.077923863358 -0.98602989016 -0.14721807599 -0.077922357655 
-0.97987729403 -0.18371498087 -0.078033931453 -0.97181378905 -0.22237840686 -0.078267512848 -0.96157229863 -0.26305167339 -0.078629076299 
-0.94875890861 -0.30593395939 -0.079126138706 -0.93290968183 -0.35116529483 -0.079765037748 -0.91362401249 -0.39850169111 -0.080545428076 
-0.89069014153 -0.44725359339 -0.081457320006 -0.86369683004 -0.49721425397 -0.08249709955 -0.83282306891 -0.54718378661 -0.083639939951 
-0.79806179991 -0.59656843588 -0.084873227972 -0.76026074837 -0.64387854561 -0.086162712277 -0.72006322959 -0.6883704594 -0.08749317703 
-0.67850066935 -0.729207289 -0.088845772945 -0.636703572 -0.76581416854 -0.090206544427 -0.59597002359 -0.79776966121 -0.091560355162 
-0.55698606322 -0.82530855576 -0.092910242544 -0.52083224466 -0.84844133288 -0.094239469354 -0.4878915631 -0.86765931255 -0.095546533182 
-0.45863938311 -0.88333275549 -0.096815078074 -0.43302798158 -0.89603293081 -0.09803955364 -0.41119933768 -0.90613201618 -0.099196138781 
-0.39291199612 -0.91409276707 -0.10027251118 -0.37809190837 -0.92021554026 -0.10124163315 -0.36637885992 -0.92484804682 -0.10209124008 
-0.35754207073 -0.92822184147 -0.10280019781 -0.35126020985 -0.93055568771 -0.10335558548 -0.34740593504 -0.93195991974 -0.10372957293 
-0.34545816832 -0.93266068207 -0.10393606718 -0.34545389139 -0.93266221128 -0.10393656033 -0.34688200846 -0.93215185986 -0.1037582882 
-0.3496969851 -0.93114159859 -0.10337960146 -0.35352788955 -0.92975518503 -0.10282668535 -0.35819721844 -0.92804577108 -0.10210680428 
-0.36342954947 -0.92610347775 -0.10124875839 -0.36895282693 -0.92402157181 -0.10028931318 -0.37467400303 -0.92183006447 -0.099240736043 
-0.38014628957 -0.91970005193 -0.09818662333 -0.38524614688 -0.91768497365 -0.09715809517 -0.38992957374 -0.91580878785 -0.096172717597 
-0.39392941001 -0.91418704013 -0.0952978257 -0.3969744902 -0.91294064447 -0.094607789392 -0.3995586826 -0.9118751525 -0.094003007495 
-0.4012474466 -0.91117521361 -0.093596029325 -0.40227234402 -0.91074922684 -0.09334241828 -0.40276987282 -0.91054222638 -0.0932163265 
-0.40325940861 -0.91033850227 -0.093089530325 -0.40342684129 -0.9102688376 -0.093045295575 -0.40446326619 -0.90983727042 -0.092766414499 
-0.40597053872 -0.90920773208 -0.092353785067 -0.40862738532 -0.90809165186 -0.09161447371 -0.41343107149 -0.90605111334 -0.090255909213 
-0.42112448587 -0.9027195653 -0.088042909016 -0.43305972271 -0.89739145127 -0.084545016132 -0.45147507075 -0.88877725798 -0.079026870081 
-0.48112076063 -0.87386477678 -0.069879650844 -0.53282052939 -0.8445545785 -0.05319631003 -0.63531051964 -0.77206592631 -0.017168257417 
-0.87882308961 -0.46765252521 0.094715853167 -0.62315003471 0.73132314263 0.27721921882 -0.0615058755 0.97656651834 0.20623981802 
0.11159887788 0.9791031091 0.1700082122 0.19172660687 0.96972831954 0.15122134272 0.24188909254 0.96032172505 0.1388230936 
0.27770634665 0.95187227222 0.12968562914 0.30891264161 0.9432919393 0.12154545284 0.33588801546 0.93493055586 0.11438573681 
0.36226553115 0.9258800538 0.1072837868 0.38824736246 0.91609204876 0.10019652559 0.41360843254 0.90567242039 0.093196198868 
0.44003879972 0.89386872951 0.085816951386 0.46650106095 0.88104425139 0.078344031189 0.49357937861 0.86682964181 0.0706099787 
0.52130676249 0.85107042607 0.0625970386 0.54963106125 0.83364028345 0.054309983566 0.57777984361 0.81489712548 0.045968763353 
0.60648779358 0.79421516114 0.037347477146 0.63523406947 0.77179033355 0.028589474015 0.66361493486 0.74781199156 0.019810187014 
0.69161826975 0.72217934999 0.011007061044 0.71942866197 0.69456313422 0.0021101916131 0.74610784386 0.6657925361 -0.0065866683262 
0.77209388846 0.63532596611 -0.015229714428 0.79714003917 0.60332733059 -0.023746370561 0.82062219661 0.57057873598 -0.031923603914 
0.84310479001 0.53626260221 -0.039959160807 0.86385208708 0.50149257066 -0.047589633623 0.88326596881 0.46564026361 -0.054957922585 
0.90101652178 0.42934036054 -0.061936114683 0.91702390807 0.39290933912 -0.068479217713 0.9313139361 0.35649995427 -0.074579722645 
0.94401567705 0.31998458448 -0.080276193059 0.95490639455 0.28434764467 -0.085441176343 0.96419495252 0.24940695127 -0.090134711336 
0.97192404595 0.21555563246 -0.094336727861 0.97814308049 0.18338230352 -0.098015533692 0.98309288739 0.15256820071 -0.10124879703 
0.98682742179 0.12392203319 -0.10399504457 0.98956326221 0.097267448089 -0.10631835982 0.99145082134 0.072863781915 -0.10824111114 
0.99265090304 0.050881801411 -0.10979629763 0.99332147221 0.03140150021 -0.11102431545 0.99360724537 0.014391879848 -0.11197104871 
0.99363234544 -7.9987500112e-06 -0.11267103459 0.9935052716 -0.011850862905 -0.11316727596 0.99331916253 -0.020909551392 -0.11348934758 
0.99314260014 -0.027295189472 -0.11367826713 0.99303018514 -0.030807736369 -0.11376262471 0.99301903944 -0.031141871348 -0.11376893757 
0.99311033026 -0.028246957626 -0.11372766295 0.99328403217 -0.021636162696 -0.113660494 0.99347045575 -0.01069409808 -0.11358736645 
0.9935222688 0.005036711824 -0.11352591307 0.99319203052 0.026281172736 -0.11348519931 0.99203520309 0.054706924883 -0.11346060196 
0.98933437921 0.091388870829 -0.11342645374 0.98389236165 0.13825651953 -0.11331793987 0.97369921911 0.19784054071 -0.11299978384 
0.95550059964 0.27281165234 -0.11221589205 0.92422928755 0.36549412277 -0.11051818969 0.87237826373 0.47693714408 -0.1071780088 
0.79042838958 0.60414228711 -0.1011684628 0.67060019098 0.73615884009 -0.09146335885 0.51404952572 0.85422683023 -0.077779223542 
0.33430686648 0.94048015673 -0.061122776664 0.15495036014 0.9869529332 -0.043752640273 -0.0043079963152 0.99960344952 -0.027827771599 
-0.13645134031 0.99054319905 -0.014324892454 -0.24026538344 0.97070062962 -0.0035823414451 -0.32003681955 0.94739340562 0.0047084105528 
-0.38091074557 0.92454617616 0.011016898996 -0.42578141683 0.90469116594 0.015623038874 -0.45829927537 0.88859674984 0.01891005989 
-0.47934978441 0.87737279794 0.020994228268 -0.4899964118 0.87144624728 0.02202168282 -0.49001665653 0.87143481586 0.022023579002 
-0.47865446528 0.87775231684 0.020994598264 -0.45293798609 0.89134482608 0.018750513905 -0.41073894613 0.91162606087 0.015213259793 
-0.34671220115 0.93791747038 0.010073148423 -0.25746465812 0.9662823114 0.003231794763 -0.14097740734 0.98999880262 -0.0052670142503 
-0.0023025732034 0.99988691473 -0.014861221878 0.14568655995 0.98902669569 -0.024527973033 0.28396515776 0.95826611844 -0.0330126556 
0.39945252403 0.91589688329 -0.039630546685 0.48684136953 0.87236748358 -0.044277020212 0.54916865635 0.83437021876 -0.04732995802 
0.59045003589 0.80557449021 -0.049178204908 0.61625480241 0.78594367405 -0.050225090643 0.63122873221 0.77393328859 -0.050769601474 
0.63817708221 0.76819901984 -0.050992917789 0.63946036363 0.7671287477 -0.051028695861 0.63731324766 0.76891680476 -0.050978149304 
0.63321348512 0.77230167358 -0.050899973031 0.62815041947 0.77643008115 -0.050826957457 0.62353014162 0.78014823229 -0.050782852767 
0.62006739777 0.78290425131 -0.050767661962 0.61892451268 0.78380798846 -0.050768935737 0.62060414966 0.78247952185 -0.05075714044 
0.62616009409 0.77804550565 -0.050682617417 0.63629228502 0.76979497944 -0.050475911508 0.65161652163 0.75689590614 -0.050044939918 
0.67301723859 0.73798476542 -0.049257309688 0.70085024297 0.7116946179 -0.047955268519 0.73561712266 0.67583946997 -0.045917966821 
0.77706211343 0.62796130728 -0.042884361255 0.82395102372 0.56534744629 -0.038561321089 0.87378935243 0.48520776188 -0.032643458716 
0.92216641102 0.38598965758 -0.024921770278 0.96322802165 0.26824523446 -0.015371157775 0.99065033462 0.13635745135 -0.0043081297076 
0.99996883707 -0.0020011269448 0.0076367782033 0.99025581453 -0.13786231581 0.019682572556 0.9641516844 -0.26352006677 0.031124007924 
0.92608861395 -0.37500957658 0.041565569635 0.88041471429 -0.47146677957 0.050882282018 0.83033617513 -0.55411548465 0.05914275905 
0.77753069097 -0.62531533751 0.066533850661 0.72161496448 -0.68839649949 0.073362814353 0.6620931518 -0.74516069772 0.079800958113 
0.59674025761 -0.79780261242 0.086093301536 0.52286467569 -0.84739353807 0.092394385922 0.43745584136 -0.89380099682 0.098753050293 
0.33856882825 -0.93506304592 0.10501546886 0.22354101271 -0.96835895573 0.11095200987 0.091954970406 -0.98897354655 0.11608448494 
-0.049489433714 -0.99157550669 0.11970300949 -0.19532750298 -0.97319921514 0.12136908268 -0.33325325753 -0.93505164975 0.12091599832 
-0.45721776326 -0.88140421535 0.1186529651 -0.56033373308 -0.82021102755 0.11523878624 -0.64332036146 -0.7574617917 0.1113128324 
-0.70838815247 -0.69760771022 0.10737647824 -0.75760769425 -0.64439890791 0.10382980836 -0.79585050202 -0.5970594806 0.10070727414 
-0.82462499468 -0.55710053821 0.098145853081 -0.84680082846 -0.52316341002 0.096064579028 -0.86404885452 -0.49447702132 0.094403667258 
-0.87717400449 -0.47105286583 0.093139483786 -0.88763662144 -0.45123040572 0.092153943067 -0.89544080981 -0.4356864178 0.091449994367 
-0.90206737985 -0.42191696292 0.090887395273 -0.90687507082 -0.41156500098 0.090508871926 -0.91063573174 -0.40323643123 0.090238265782 
-0.91372889854 -0.39622341598 0.090036129451 -0.91605638198 -0.39084400653 0.089898095626 -0.91739547489 -0.38770718017 0.089825859895 
-0.91944073527 -0.38285568029 0.089723254461 -0.91944073527 -0.38285568029 0.089723254461 
