# vtk DataFile Version 4.1
vtk output
ASCII
DATASET POLYDATA
POINTS 233 float
27.0883 10.0074 267.924 27.2749 10.2053 264.956 27.4611 10.4031 261.988 
27.6459 10.6006 259.021 27.8282 10.7976 256.052 28.007 10.9939 253.083 
28.1812 11.1895 250.113 28.3499 11.384 247.141 28.5124 11.5774 244.167 
28.6677 11.7696 241.189 28.8154 11.9607 238.208 28.9547 12.1506 235.222 
29.0854 12.3394 232.229 29.207 12.5272 229.229 29.3194 12.7142 226.219 
29.4226 12.9006 223.199 29.5166 13.0868 220.165 29.6015 13.273 217.117 
29.6776 13.4595 214.053 29.7454 13.6468 210.971 29.8053 13.8354 207.869 
29.8578 14.0255 204.746 29.9036 14.2177 201.601 29.9433 14.4125 198.432 
29.9778 14.6102 195.241 30.0079 14.8114 192.025 30.0343 15.0164 188.785 
30.0579 15.2256 185.522 30.0797 15.4395 182.236 30.1005 15.6584 178.928 
30.1212 15.8826 175.601 30.1428 16.1124 172.255 30.1662 16.3481 168.892 
30.1923 16.59 165.514 30.2221 16.8383 162.124 30.2563 17.0933 158.723 
30.2959 17.3553 155.312 30.3416 17.6244 151.894 30.3942 17.901 148.47 
30.4544 18.1853 145.041 30.5229 18.4775 141.607 30.6001 18.778 138.169 
30.6866 19.087 134.726 30.7827 19.4048 131.278 30.8885 19.7318 127.824 
31.0043 20.0682 124.363 31.1299 20.4144 120.894 31.2651 20.7707 117.414 
31.4096 21.1374 113.922 31.5628 21.5147 110.417 31.7241 21.9029 106.895 
31.8924 22.3023 103.355 32.0667 22.713 99.796 32.2458 23.1353 96.2154 
32.4282 23.5692 92.6119 32.6123 24.0149 88.9842 32.7964 24.4726 85.3313 
32.9787 24.9421 81.6522 33.1571 25.4237 77.9463 33.3296 25.9173 74.2132 
33.494 26.4229 70.4527 33.6483 26.9406 66.6649 33.7901 27.4702 62.8501 
33.9174 28.0117 59.0089 34.0281 28.5651 55.1423 34.1203 29.1301 51.2514 
34.1921 29.7067 47.338 34.2418 30.2946 43.4039 34.268 30.8936 39.4518 
34.2695 31.5032 35.4843 34.2454 32.1232 31.505 34.1949 32.7529 27.5178 
34.1176 33.3918 23.5271 34.0136 34.0391 19.5378 33.8832 34.694 15.5553 
33.7269 35.3555 11.5854 33.5457 36.0225 7.6343 33.3408 36.6939 3.7084 
33.1138 37.3683 -0.185693 32.8665 38.0444 -4.04128 32.6008 38.7206 -7.85173 
32.3191 39.3955 -11.6106 32.0235 40.0676 -15.3115 31.7167 40.7351 -18.9489 
31.4011 41.3965 -22.5172 31.0792 42.0502 -26.0116 30.7535 42.6947 -29.4281 
30.4263 43.3286 -32.763 30.0999 43.9505 -36.0135 29.7764 44.5592 -39.1776 
29.4576 45.1533 -42.2538 29.1452 45.7321 -45.2413 28.8406 46.2945 -48.1401 
28.5451 46.8398 -50.9507 28.2595 47.3674 -53.6741 27.9847 47.8769 -56.3118 
27.7212 48.3678 -58.8658 27.4691 48.84 -61.3384 27.2286 49.2934 -63.7323 
26.9997 49.728 -66.0503 26.7821 50.1439 -68.2956 26.5755 50.5413 -70.4714 
26.3794 50.9204 -72.5812 26.1934 51.2817 -74.6285 26.017 51.6254 -76.6169 
25.8495 51.952 -78.55 25.6903 52.262 -80.4314 25.539 52.5558 -82.2649 
25.3948 52.8339 -84.054 25.2573 53.0968 -85.8023 25.126 53.345 -87.5133 
25.0004 53.5789 -89.1903 24.8801 53.799 -90.8368 24.7648 54.0058 -92.4557 
24.654 54.1995 -94.0502 24.5477 54.3806 -95.6232 24.4455 54.5494 -97.1773 
24.3473 54.7061 -98.7151 24.253 54.851 -100.239 24.1625 54.9843 -101.752 
24.0758 55.1061 -103.255 23.9928 55.2165 -104.75 23.9138 55.3157 -106.24 
23.8386 55.4036 -107.726 23.7673 55.4802 -109.21 23.7002 55.5457 -110.693 
23.6373 55.6 -112.177 23.5788 55.643 -113.664 23.5248 55.6748 -115.154 
23.4754 55.6955 -116.648 23.4309 55.705 -118.149 23.3914 55.7035 -119.656 
23.357 55.6911 -121.171 23.3279 55.6679 -122.694 23.3041 55.6343 -124.226 
23.2859 55.5905 -125.768 23.2733 55.5368 -127.319 23.2663 55.4737 -128.88 
23.2651 55.4017 -130.451 23.2695 55.3212 -132.031 23.2797 55.2329 -133.621 
23.2956 55.1373 -135.219 23.3171 55.0351 -136.825 23.3441 54.9269 -138.439 
23.3766 54.8135 -140.059 23.4144 54.6954 -141.686 23.4573 54.5732 -143.319 
23.5054 54.4477 -144.957 23.5583 54.3194 -146.601 23.6161 54.1888 -148.25 
23.6788 54.0563 -149.905 23.7461 53.9223 -151.567 23.8182 53.7872 -153.236 
23.8952 53.6513 -154.913 23.9772 53.5146 -156.601 24.0643 53.3773 -158.301 
24.1569 53.2395 -160.015 24.2554 53.101 -161.745 24.3602 52.962 -163.494 
24.4717 52.8222 -165.265 24.5907 52.6816 -167.059 24.7178 52.54 -168.88 
24.8536 52.3972 -170.73 24.999 52.2532 -172.612 25.1548 52.1078 -174.527 
25.3216 51.9609 -176.478 25.5004 51.8124 -178.467 25.6919 51.6623 -180.495 
25.8969 51.5107 -182.562 26.1159 51.3574 -184.669 26.3496 51.2026 -186.817 
26.5984 51.0465 -189.005 26.8626 50.889 -191.232 27.1425 50.7304 -193.497 
27.4381 50.5709 -195.798 27.7494 50.4105 -198.132 28.0759 50.2495 -200.496 
28.4174 50.088 -202.888 28.7731 49.9261 -205.303 29.1422 49.764 -207.736 
29.5238 49.6018 -210.185 29.9168 49.4395 -212.644 30.32 49.2772 -215.107 
30.732 49.1149 -217.571 31.1513 48.9526 -220.031 31.5764 48.7903 -222.481 
32.0058 48.6278 -224.916 32.4379 48.465 -227.334 32.871 48.302 -229.729 
33.3037 48.1385 -232.099 33.7344 47.9744 -234.44 34.1616 47.8096 -236.749 
34.584 47.6439 -239.024 35.0005 47.4772 -241.265 35.4097 47.3094 -243.47 
35.8107 47.1402 -245.638 36.2027 46.9696 -247.77 36.5849 46.7975 -249.866 
36.9567 46.6237 -251.926 37.3177 46.4482 -253.953 37.6675 46.2707 -255.946 
38.0061 46.0913 -257.909 38.3333 45.9098 -259.842 38.6493 45.7262 -261.747 
38.9544 45.5404 -263.627 39.2488 45.3522 -265.483 39.5332 45.1616 -267.317 
39.808 44.9685 -269.131 40.0739 44.7728 -270.927 40.3319 44.5744 -272.706 
40.5826 44.3733 -274.47 40.8273 44.1693 -276.221 41.0667 43.9624 -277.96 
41.3021 43.7526 -279.689 41.5345 43.5396 -281.408 41.7651 43.3236 -283.118 
41.9949 43.1043 -284.822 42.2251 42.8819 -286.519 42.4567 42.6563 -288.211 
42.6908 42.4275 -289.898 42.9281 42.1956 -291.581 43.1694 41.9605 -293.261 
43.4155 41.7224 -294.939 43.6667 41.4814 -296.614 43.9235 41.2376 -298.288 
44.1859 40.9912 -299.961 44.4539 40.7423 -301.633 44.7273 40.4913 -303.304 
45.0056 40.2384 -304.975 45.2884 39.9838 -306.646 45.5748 39.7279 -308.316 
45.864 39.4711 -309.987 46.155 39.2136 -311.658 
LINES 1 234
233 232 231 230 229 228 227 226 225 224 223 222 221 220 219 218 217 216 215 214 213 212 211 210 209 208 207 206 205 204 203 202 201 200 199 198 197 196 195 194 193 192 191 190 189 188 187 186 185 184 183 182 181 180 179 178 177 176 175 174 173 172 171 170 169 168 167 166 165 164 163 162 161 160 159 158 157 156 155 154 153 152 151 150 149 148 147 146 145 144 143 142 141 140 139 138 137 136 135 134 133 132 131 130 129 128 127 126 125 124 123 122 121 120 119 118 117 116 115 114 113 112 111 110 109 108 107 106 105 104 103 102 101 100 99 98 97 96 95 94 93 92 91 90 89 88 87 86 85 84 83 82 81 80 79 78 77 76 75 74 73 72 71 70 69 68 67 66 65 64 63 62 61 60 59 58 57 56 55 54 53 52 51 50 49 48 47 46 45 44 43 42 41 40 39 38 37 36 35 34 33 32 31 30 29 28 27 26 25 24 23 22 21 20 19 18 17 16 15 14 13 12 11 10 9 8 7 6 5 4 3 2 1 0 

CELL_DATA 1
FIELD FieldData 2
LengthArray 1 1 double
585.80547628 
TortuosityArray 1 1 double
0.0089136096022 
POINT_DATA 233
FIELD FieldData 8
RadiusArray 1 233 double
76.917813362 76.381081572 76.0994015 75.82386792 75.510619594 74.797307704 74.788014849 74.159251949 73.550727701 
73.387249026 73.363397834 73.297449662 72.892139694 72.647174184 72.590623611 72.370408621 72.271295082 72.251401248 
72.271514713 72.258776717 72.027152362 72.019761178 72.01848943 71.990176852 71.95151711 71.768467262 71.554275698 
71.510605772 70.853516575 70.808225186 70.647568848 70.630007873 70.392208554 69.921660601 69.841271693 69.732046453 
69.458582401 69.31251055 68.848044649 68.648996131 68.474462659 68.415770179 68.373377729 68.050288021 67.579465047 
67.455291765 67.018166476 66.589379342 66.352020818 66.042249684 65.562567047 65.545465258 64.621292498 64.428436254 
63.723209633 63.677047137 63.374710137 62.921281202 62.817492158 62.658086837 62.625606556 62.258179773 62.197222484 
61.778823347 61.683219985 61.438582773 61.406516014 60.690894807 60.543943213 60.416476877 60.148578604 59.340502304 
59.088786754 58.578224012 58.288740413 58.12837446 57.943238423 56.983820045 56.476977929 56.38936449 55.444775101 
55.384460042 54.847881103 54.41604551 54.390596031 54.072941936 53.870896066 53.579300646 53.508417963 53.05926655 
53.055804653 52.681538214 52.594536883 52.553157583 52.425169978 52.418873243 52.420948338 52.465003923 52.481075751 
52.498102318 52.563926339 52.647112258 52.715502091 52.789139022 52.893686063 52.897200388 53.193855734 53.226163964 
53.232134347 53.233628065 53.437018772 53.529772604 53.558933504 53.678089007 53.817453186 53.912522639 53.967740066 
53.998231436 54.027084319 54.082616329 54.168958949 54.355691769 54.491059694 54.520443626 54.6196134 54.689435451 
54.718523227 54.723925198 54.802888535 54.824315473 54.876265837 54.894283509 54.924827901 54.982620495 54.981622132 
54.948206948 54.93723699 54.944313872 54.950226767 54.927849849 54.906352946 54.898901421 54.937604759 55.039627728 
55.097451952 55.248513871 55.250839393 55.251637284 55.268672475 55.155403076 55.148584964 55.078613949 55.001214695 
54.918445818 54.912590777 54.83799255 54.810741115 54.634298812 54.406358744 54.313740008 54.126913993 53.585981767 
53.142368509 52.963642534 52.492513526 52.350516934 52.322360054 52.192512061 52.177085852 52.135021976 51.903299414 
51.873031766 51.514383162 51.003833316 50.729310359 50.616148264 50.089765774 49.228993375 48.861760283 48.207975844 
48.144327248 47.828279748 47.091983568 46.547691541 46.035770617 45.359030602 44.981954971 44.971943516 44.649523589 
44.290552774 43.919250822 43.550057231 43.480068506 43.048952685 43.044233449 42.386686851 41.842032955 41.223193709 
41.157037125 40.861256976 40.78165709 40.143990997 39.776983941 39.688651009 39.237626644 38.887808128 38.793535264 
38.789864276 38.775879849 38.15119583 37.767000661 37.588304554 37.107353051 36.830584717 36.644834938 36.582466331 
36.407113285 36.054109257 35.933889557 35.891592136 35.67480404 35.580942302 35.459901045 35.424154797 35.391817719 
35.340653633 35.293294466 35.275999379 35.18053115 35.201896641 35.198255855 35.022140432 34.902693209 
EdgeArray 2 233 int
43225 43225 42958 42093 44349 44349 43974 43974 43977 
43977 42961 42961 43617 43617 42103 42103 41705 41705 
41483 41483 41464 42124 41481 41486 41484 41484 41209 
41209 40979 41207 41212 41212 40509 40509 39957 39957 
40661 40661 40662 40662 39447 39447 39791 39450 39287 
39450 39273 39273 37996 37996 38938 39812 38298 38298 
37959 37959 37633 37384 37038 37384 34970 34970 35784 
35784 36318 36318 36201 35563 35735 35735 35054 35054 
35693 35693 33940 33940 34098 34098 32311 34890 34774 
34765 31838 34450 34327 32847 34233 34233 33595 33595 
34615 34615 33687 33687 32406 32406 34136 32267 33333 
33333 30559 30559 32493 32493 33205 33205 29447 33206 
33230 33230 30692 30692 32502 32502 24291 24291 29788 
29788 31607 31607 31608 31608 30476 30476 26405 26405 
26162 26162 29043 29389 29253 29253 28417 29203 25958 
28542 29313 26088 26049 28267 29200 28742 25369 25369 
28033 28033 28459 28459 28088 28088 28108 28108 27577 
27577 23732 23732 26876 26876 27019 27019 26020 26020 
26015 26015 26013 26013 25001 25001 24155 24155 24151 
24151 22992 22992 24537 24537 23645 23645 23450 23450 
23819 23819 20712 20712 22722 22722 23061 23061 20653 
20653 21052 21052 22169 22169 22878 22878 21796 22721 
21796 21833 21833 21833 21504 21797 21660 21504 21660 
21660 21626 21626 20787 20787 21161 21161 15253 20073 
21848 15253 21848 20412 20412 20412 20831 21449 20831 
20831 20814 20814 20757 20757 13771 19707 17364 20229 
20229 20229 18643 18899 18643 18643 20508 18926 19702 
19765 19702 19702 19527 19526 19527 19527 18757 19245 
19170 18757 18999 19170 18999 18999 18501 18500 18501 
18501 18498 18737 18499 18499 17807 17807 18284 18284 
16571 17559 17371 17371 17209 17525 17223 17223 15512 
15512 15845 15845 16616 16616 15969 15969 14016 14016 
14958 14958 15282 15282 14756 15086 15301 15450 15089 
15089 14602 14611 14602 14082 14082 14379 14379 14389 
14092 13508 13916 13508 14212 13916 13146 14212 13504 
14017 13575 13322 12233 13079 13352 13352 12670 12670 
13110 13110 12840 12840 12740 12850 12740 11860 11860 
12439 12432 12432 11845 11845 12451 12451 12537 12537 
12444 12444 12369 12369 12323 9363 11546 11546 12372 
11282 11971 10779 11197 11435 11645 11645 9891 9891 
10750 10750 11509 11509 9483 9483 9833 9833 10014 
10014 10394 10394 10461 10461 9639 10508 10712 10712 
9857 9857 10826 10826 10593 10593 10468 10468 2564 
2564 10471 10471 10470 10470 7437 7437 8969 8969 
8933 8933 9778 9778 7338 7338 9117 9624 9099 
8235 7381 9301 7088 3805 7462 7700 6199 2144 
7343 6199 7343 9449 9448 9448 7533 7533 8704 
8704 4811 4811 6479 6479 8719 7021 8718 8718 
8012 8217 6793 6793 8055 7337 8057 8055 8057 
8060 5191 8060 8048 5953 7519 5953 7519 7519 
6207 6207 6791 5771 6180 6791 6180 6180 6625 
6625 4954 6081 5302 5302 6164 6164 
EdgePCoordArray 1 233 double
0 0.972 0 0 0 0 0 0 0 
0 0.076 0.176 0 0 0.996 0 0 0 
0 0 0 0.612 0.704 0 0 0.044 0 
0 0.284 0.232 0 0 0 0.88 0 0 
0 0 0 0.896 0.856 0.14 0.86 0 0 
0 0 0 0.296 0 0 0 0 0.128 
0 0 0 0 0 0 0 0 0 
0 0.188 0 0.992 0.236 0.816 0.184 0.756 0 
0 0 0 0 0 0 0 0 0 
0 0 0 0 0 0 0 0 0 
0 0 0 0 0 0 0 0 0.628 
0.128 0 0.584 0.864 0 0 0 0 0.292 
0.228 0.004 0 0.976 0 0 0 0.912 0.552 
0 0.928 0 0.812 0.872 0 0.84 0 0.588 
0.696 0.964 0 0.876 0 0.88 0 0 0 
0.096 0 0.728 0 0 0 0 0 0 
0 0 0.82 0.288 0 0.06 0.108 0.364 0.888 
0.968 0.828 0.268 0.668 0.888 0.38 0.908 0 0 
0 0 0.404 0.836 0.016 0 0 0 0 
0 0 0.124 0 0.108 0.02 0.992 0 0 
0 0 0 0 0 0 0 0.088 0 
0 0 0 0 0 0 0 0 0 
0 0 0 0.364 0.556 0.92 0.208 0.244 0.032 
0.772 0.032 0 0 0 0 0 0.156 0 
0.784 0 0.14 0.808 0.56 0.576 0.96 0.48 0 
0 0.06 0.864 0 0 0.872 0 0 
CurvatureArray 1 233 double
0 4.2018299381e-05 0.00016650685352 0.00029064685746 0.00041105591466 0.00052697362049 0.00063476923456 0.00073489528117 0.00082356258924 
0.00090083165506 0.0009640198215 0.0010126541414 0.0010459897721 0.0010636486219 0.0010648953459 0.001051202301 0.001023012917 0.00098137219693 
0.00092816416453 0.00086520598374 0.00079553769573 0.00072026733246 0.0006431591862 0.00056636199165 0.00049411104048 0.00043003146391 0.00037955662684 
0.00034887523146 0.00034183961434 0.00035899765964 0.00039522072467 0.00044524226462 0.00050371807724 0.00056628465111 0.00063137843898 0.00069723354291 
0.00076118893454 0.00082354710348 0.00088184092522 0.00093536747824 0.00098231217257 0.0010213095721 0.0010510555482 0.0010700689602 0.0010772330686 
0.0010720711169 0.0010542445882 0.0010235711881 0.00098165409679 0.00092954552395 0.00087077209445 0.00080839125282 0.00074814760196 0.00069673222884 
0.00066188809395 0.00065154399129 0.00067005901449 0.00071645120897 0.00078581420706 0.00087225437302 0.00096808004691 0.001068694823 0.0011687995984 
0.0012663894488 0.0013576501122 0.0014404621657 0.0015140611636 0.0015771508476 0.0016284723761 0.0016683277488 0.0016962376799 0.0017127793269 
0.0017180498535 0.0017123474057 0.0016975402502 0.0016727500455 0.001638992807 0.0015970475254 0.0015474686722 0.0014897462084 0.001424658877 
0.0013516509087 0.0012711743792 0.00118323976 0.0010869659616 0.00098226712672 0.00086969129539 0.00074821491022 0.00061883389782 0.00048108862478 
0.00033560380149 0.00018328053074 2.7312296439e-05 0.00014105467946 0.00030984710353 0.00048282899748 0.00065781142697 0.00083622749589 0.0010157085382 
0.0011978781338 0.0013811350244 0.0015658525364 0.0017543642404 0.0019445032451 0.002138860594 0.0023346304075 0.0025336200818 0.0027345897111 
0.0029352139737 0.0031351625908 0.0033338150871 0.0035280135739 0.0037153227098 0.003898319993 0.0040708688017 0.0042412633712 0.0043998790551 
0.0045513636444 0.0046959282439 0.0048321074508 0.0049640547474 0.0050809801846 0.0051932380352 0.0052887585214 0.005371739794 0.0054385525768 
0.0054791157472 0.0055007374972 0.0054940826271 0.0054571239349 0.0053922918367 0.0052977517675 0.0051715743887 0.0050176301458 0.0048382456453 
0.0046366865292 0.0044176052498 0.0041839784394 0.0039388731165 0.003691720566 0.003440775885 0.0031946324748 0.0029537922919 0.002724664944 
0.0025071281594 0.002307508839 0.0021292906968 0.0019698105721 0.0018385372265 0.0017328450267 0.0016547093752 0.0016038329394 0.0015778433418 
0.0015747498332 0.0015890580969 0.00162209906 0.0016666478766 0.0017208424122 0.0017840818478 0.0018520560678 0.0019217298592 0.001992355234 
0.0020588140323 0.0021194086115 0.0021729670526 0.0022156132682 0.0022456303071 0.0022633874219 0.00226939175 0.0022606865444 0.0022401252552 
0.0022076529303 0.0021647302345 0.0021128435477 0.0020508993045 0.0019835100808 0.001908712058 0.0018297075612 0.0017460056989 0.0016584809268 
0.001568077343 0.001474939784 0.001379146891 0.0012818442889 0.0011821650621 0.0010818037435 0.00098202926906 0.00088389091294 0.00079335836112 
0.00071618954601 0.00066518327114 0.00064901466938 0.00067952882807 0.00075763624561 0.00087370681711 0.0010181185124 0.0011805714446 0.0013539319586 
0.0015271636832 0.0016983810109 0.0018579384158 0.0020027641034 0.0021229494069 0.0022173443661 0.0022810715349 0.0023084675511 0.0023004356422 
0.0022557259703 0.0021739674896 0.002061269384 0.0019231721226 0.001767840093 0.001614564767 0.0014756177528 0.0013794094745 0.0013454093661 
0.0013797307606 0.0014792359151 0.0016159264137 0.0017698228406 0.0019150753602 0.002041422834 0.0021289888533 0.00217138887 0.0021648205262 
0.0020987811111 0.001979641308 0.0018018814667 0.00157614051 0.0012992180804 0.0009822636382 0.00063073670211 0 
TorsionArray 1 233 double
0 0 -0.00018876868135 0.00027411840781 0.00054665772439 0.00084413991618 0.0011345533989 0.0013984431311 0.0017533343754 
0.0021020454011 0.002521938188 0.0030825332935 0.003661453324 0.0043349418477 0.0051669104151 0.0061367854955 0.0073476313604 0.0088409607358 
0.01070216288 0.013034247073 0.01607797042 0.020138677588 0.025528097721 0.032986780331 0.042949266683 0.055653601954 0.069941987731 
0.08079433823 0.08179805684 0.071983174057 0.057475514022 0.043699864858 0.033004968947 0.025044219712 0.019072345439 0.014680705869 
0.01138189377 0.0086901359843 0.0064953489766 0.0046116410834 0.0029646296752 0.0014400940478 -0.00013187461682 -0.0016526590542 -0.0033252447844 
-0.0052865078946 -0.0074521764581 -0.010122760499 -0.013422114683 -0.017604850869 -0.022855742639 -0.02952093719 -0.037512947534 -0.046084246822 
-0.053467287478 -0.056785731767 -0.054502032907 -0.047526507937 -0.038821730084 -0.03041039431 -0.023525421795 -0.01809101023 -0.01388770657 
-0.010662257557 -0.0081730218857 -0.006210388398 -0.0046884872055 -0.0034432040994 -0.0023791795138 -0.0015317007396 -0.00079274181662 -0.00017446963462 
0.00038087904124 0.00088002324259 0.0013073930806 0.0017540669915 0.0021163009042 0.0024193089818 0.0028039905212 0.0031604107256 0.0034431233654 
0.0037480110596 0.0040293370793 0.0044086995257 0.0047020938932 0.0049923704639 0.0053342675661 0.0053606527465 0.0055430635668 0.005083797518 
0.0022959788312 -0.011517660231 -0.9541211538 -0.027131873984 0.0038535597706 0.0090757828574 0.012185199526 0.014014033995 0.015434449543 
0.016626872966 0.017480673628 0.018381712644 0.018850865559 0.019041468848 0.018789158097 0.017956632648 0.017130712696 0.015919484122 
0.014251638094 0.012461479525 0.010461889375 0.008432252003 0.0063385586782 0.0043108564299 0.0024361316101 0.00036641920676 -0.0013541498398 
-0.0027425262908 -0.0042825721887 -0.0053672131061 -0.006276630902 -0.0072222382532 -0.0077762862944 -0.008374820967 -0.0087241974598 -0.0091462364106 
-0.009559304273 -0.0098048076767 -0.010304731889 -0.010726320017 -0.011252503255 -0.011906261001 -0.012639426112 -0.013462033786 -0.014498577567 
-0.015688166901 -0.016978367374 -0.018520457484 -0.020187101365 -0.022325994612 -0.024674121174 -0.027101033342 -0.030343939397 -0.033722573035 
-0.037518268694 -0.041595643605 -0.045744722394 -0.049661502307 -0.052147584626 -0.053416803538 -0.052672379635 -0.04932739276 -0.043785475437 
-0.036249080303 -0.027870729025 -0.020067187795 -0.012920783478 -0.0066808334639 -0.0023545893733 0.00058047867156 0.0024175881324 0.0032475772718 
0.0036529397201 0.0031947411316 0.002376783031 0.0019066072297 0.0013710269521 0.00055339067702 0.00030235738513 0.00013528887999 -0.0001353786942 
0.00016601454561 0.00049587365814 0.00084207350982 0.0014906414128 0.002222506676 0.003305184345 0.0046112892165 0.0058046034545 0.0075318582734 
0.0096591267545 0.011954612975 0.014997107021 0.018631131267 0.023561358771 0.030088141453 0.0382872881 0.050444580535 0.066432717508 
0.086630306788 0.10721365996 0.12009211196 0.11707646538 0.10058805816 0.080577187691 0.062376922763 0.049015061976 0.038296217718 
0.029899406599 0.023516955188 0.018508859999 0.013717781663 0.0095078185145 0.0054977767973 0.00078908441603 -0.0034548219979 -0.0084825839091 
-0.015072444844 -0.022386785327 -0.032361759115 -0.044803783078 -0.061368579413 -0.082541104213 -0.10603166273 -0.12776396896 -0.13741884792 
-0.13026872502 -0.11059051485 -0.087890771157 -0.067246520286 -0.051873698237 -0.040556182413 -0.031285892635 -0.02449565128 -0.01992799436 
-0.015342724185 -0.012418370729 -0.010424592912 -0.0079143569715 -0.0062664651804 -0.004988833441 0 0 
TangentArray 3 233 double
-0.062554375949 -0.066382237156 0.99583148607 -0.062554375949 -0.066382237156 0.99583148607 -0.062250510919 -0.066321617912 0.99585456613 
-0.061584225942 -0.066188923203 0.99590481953 -0.060561252134 -0.065985641117 0.99598103893 -0.059192920955 -0.065715942396 0.99608112773 
-0.057496767839 -0.065385738028 0.99620220184 -0.055494593446 -0.065002724651 0.99634080308 -0.053212879672 -0.064575742295 0.99649303206 
-0.050683160342 -0.064115655841 0.99665460413 -0.047940611921 -0.063634226185 0.99682113891 -0.045024833598 -0.063144591462 0.99698822708 
-0.041977056328 -0.062661237346 0.99715169161 -0.038840345626 -0.06219864387 0.99730775403 -0.035659830483 -0.061771526194 0.99745308413 
-0.032480081873 -0.061394567648 0.99758495946 -0.029343789302 -0.06108152439 0.99770135281 -0.026292609446 -0.060845581294 0.99780083881 
-0.02336536625 -0.060698643012 0.99788262556 -0.020597209563 -0.060650964335 0.99794649931 -0.018018100808 -0.060710712752 0.9979927642 
-0.015654378514 -0.060884465691 0.998022055 -0.013528083953 -0.061176995177 0.99803525299 -0.011656289755 -0.061590973076 0.99803340773 
-0.010051935746 -0.062128045044 0.99801756728 -0.0087236737742 -0.062788130411 0.99798875154 -0.0076771931575 -0.06356946581 0.99794788628 
-0.0069150576307 -0.064470546444 0.99789565117 -0.0064378768335 -0.065489080546 0.99783251805 -0.0062443815899 -0.066622225297 0.99775873176 
-0.0063317407178 -0.067866759748 0.99767430155 -0.0066958402835 -0.069219939978 0.99757895208 -0.0073314644795 -0.070680296678 0.99747207745 
-0.0082328160112 -0.072244717245 0.99735295737 -0.0093926819976 -0.073910588387 0.9972206388 -0.010802422784 -0.07567698691 0.99707386954 
-0.012450727384 -0.077540872305 0.99691142661 -0.014324506428 -0.079499023981 0.99673201699 -0.01640768586 -0.08154864763 0.99653429741 
-0.018680087558 -0.083685496456 0.99631711418 -0.021117821008 -0.085904701609 0.99607952488 -0.023692489727 -0.088199691496 0.99582100819 
-0.026371532047 -0.090562771434 0.99554152436 -0.029117137622 -0.092985772353 0.99524159802 -0.031887691789 -0.095458341627 0.99492254981 
-0.034637856586 -0.097969832805 0.99458641191 -0.037318817231 -0.10051007507 0.99423590294 -0.039880012001 -0.10306702951 0.99387462593 
-0.042269629376 -0.10562952664 0.99350675968 -0.044436011332 -0.10818688278 0.99313696905 -0.046328598953 -0.11072960714 0.99277017231 
-0.047899758626 -0.11324917214 0.99241132507 -0.049104019823 -0.1157382423 0.9920652471 -0.049900821685 -0.11819164437 0.99173617621 
-0.050254392044 -0.12060484005 0.99142774252 -0.05013444554 -0.12297583775 0.99114251281 -0.049516616425 -0.12530437837 0.99088188875 
-0.048381763874 -0.12759085991 0.99064614136 -0.046718862506 -0.12983624218 0.99043419676 -0.044522466523 -0.13204352764 0.99024353408 
-0.041795389239 -0.1342168772 0.99007018706 -0.038547221687 -0.13635967294 0.98990916315 -0.034794853562 -0.13847567594 0.98975441668 
-0.030561912789 -0.14056981198 0.98959895789 -0.025878143347 -0.14264701911 0.98943526804 -0.020781745842 -0.14471112294 0.98925568481 
-0.015315353322 -0.14676656693 0.98905258444 -0.0095250240718 -0.14881690215 0.9888188932 -0.0034621615878 -0.15086496492 0.98854831738 
0.0028188070303 -0.15291411436 0.9882354618 0.0092625496207 -0.15496594144 0.98787639013 0.015812793117 -0.15702164947 0.98746856009 
0.022413910113 -0.15908096359 0.98701107575 0.029010348239 -0.16114258524 0.98650467151 0.03555046605 -0.16320476569 0.98595150429 
0.041984915131 -0.16526373019 0.98535535031 0.048264788231 -0.16731513483 0.98472135951 0.054346253763 -0.16935218757 0.98405605596 
0.060189948183 -0.17136607704 0.98336709208 0.06575795012 -0.17334839924 0.98266282339 0.071015699069 -0.17528855152 0.9819524908 
0.075932753047 -0.1771730786 0.98124610431 0.080481869425 -0.1789875835 0.98055398304 0.084640743187 -0.18071645931 0.97988647604 
0.088389174819 -0.1823440602 0.97925379626 0.091710621254 -0.18385178725 0.97866627728 0.094593810901 -0.18522108943 0.97813350774 
0.097031374013 -0.18643323359 0.97766434008 0.09902148466 -0.1874674192 0.97726696062 0.10056638139 -0.18830579758 0.97694796665 
0.10167365207 -0.18892919187 0.97671297162 0.10235732061 -0.18931879901 0.97656611208 0.1026360719 -0.18945874167 0.97650971421 
0.10253370435 -0.18933374444 0.97654471105 0.10207874133 -0.18892974302 0.97667061119 0.10130394176 -0.18823433031 0.97688553489 
0.10024517811 -0.18723898145 0.97718599463 0.098941153144 -0.18593511463 0.97756778863 0.097431638127 -0.18431568115 0.97802597388 
0.095755850147 -0.18237678672 0.97855481442 0.093952153012 -0.18011565345 0.97914827495 0.092056864828 -0.17753347372 0.97979967307 
0.090103354441 -0.17463007756 0.98050279017 0.088120935467 -0.1714076089 0.98125130947 0.086134631455 -0.16787010605 0.98203892629 
0.084164299881 -0.16402352048 0.98285942807 0.082222865013 -0.15987695131 0.98370664372 0.080319925585 -0.15543828842 0.9845748565 
0.078460672307 -0.15071832767 0.98545822266 0.076643789434 -0.14573028336 0.98635106025 0.07486406555 -0.14048649098 0.98724815398 
0.073112453893 -0.13500091778 0.98814438281 0.071378186224 -0.12928998916 0.98903450558 0.069647333521 -0.1233681922 0.98991390438 
0.067905161527 -0.1172507602 0.99077805197 0.066136225961 -0.1109494238 0.99162302564 0.064321929878 -0.1044762254 0.99244516607 
0.062446756174 -0.097845295868 0.99324050497 0.060496796684 -0.091065505241 0.99400563949 0.058455958512 -0.08414688195 0.99473725334 
0.056311586185 -0.077096084813 0.99543216693 0.054053942128 -0.069923935168 0.99608675055 0.051672662369 -0.062641892431 0.99669751142 
0.049161758926 -0.05526134716 0.99726090115 0.046516792998 -0.047799554849 0.99777321598 0.043736114743 -0.040272592247 0.99823107074 
0.040821340143 -0.032706575067 0.998631012 0.03777585628 -0.02512969936 0.99897021121 0.034606634446 -0.017571221837 0.99924653265 
0.03132259213 -0.010069771942 0.9994586009 0.02793546797 -0.002663841429 0.99960617924 0.024457957927 0.0046072803649 0.99969024266 
0.020905337924 0.0117004116 0.99971299242 0.017294658215 0.018572693144 0.99967792307 0.013643500778 0.025184375397 0.9995897169 
0.0099690743963 0.03149796081 0.99945409901 0.006288365656 0.037480349434 0.99927757899 0.0026186592873 0.043103229217 0.99906719206 
-0.0010229358337 0.048341577578 0.99883033869 -0.0046212710441 0.053179166882 0.99857429371 -0.008164103877 0.057603317251 0.99830616809 
-0.01163918296 0.061607112665 0.99803261124 -0.01503552137 0.065190767563 0.99775953863 -0.018346669572 0.068357050712 0.99749221217 
-0.021566741701 0.071114428639 0.99723498419 -0.024692362513 0.073475033998 0.99699132725 -0.027725462463 0.075456593828 0.99676356333 
-0.030667813319 0.077077263707 0.99655335063 -0.033525463865 0.078359206933 0.99636131898 -0.036308988693 0.079329916001 0.99618694117 
-0.039031042467 0.080016529774 0.99602908225 -0.041708929573 0.080447530892 0.99588581673 -0.044362765374 0.08065307268 0.99575450133 
-0.047015438906 0.080663350446 0.99563194625 -0.04969086254 0.080509790708 0.99551443575 -0.052416374448 0.080223208536 0.99539779008 
-0.055219906105 0.07983012527 0.99527780698 -0.058125897129 0.079355624137 0.99515027257 -0.061159598737 0.078823038275 0.99501076985 
-0.06434300376 0.078249566601 0.99485525741 -0.067692105608 0.077648771695 0.99468007273 -0.071219608734 0.077030786553 0.99448178729 
-0.074932348632 0.07640198901 0.99425745117 -0.078830598219 0.075767848729 0.994004512 -0.082910416551 0.075128190152 0.99372109662 
-0.087161711633 0.074480155582 0.99340603101 -0.091567868927 0.073823832355 0.99305859201 -0.096108962608 0.073158410527 0.9926786561 
-0.1007633 0.072479835205 0.99226681435 -0.10550493083 0.071789655677 0.99182405441 -0.11030537742 0.071090203547 0.9913520599 
-0.11513637778 0.070382760123 0.99085310798 -0.11996962458 0.069674784647 0.99032959845 -0.1247779155 0.068973943102 0.98978435377 
-0.12953255547 0.068288421044 0.98922090992 -0.13420771917 0.067629227882 0.98864279477 -0.13877937644 0.06700757105 0.98805377895 
-0.14322443093 0.066437758782 0.98745773914 -0.14752240389 0.06593456795 0.98685853753 -0.15165252899 0.065509725299 0.98626060772 
-0.15559626105 0.065177759876 0.98566813034 -0.15933622646 0.064953212626 0.98508529941 -0.16285487176 0.064847609485 0.98451667243 
-0.16613576483 0.064873244085 0.98396665078 -0.16916212779 0.065039607972 0.98343989339 -0.1719163878 0.06535663061 0.98294113071 
-0.17438211692 0.065832429604 0.98247492004 -0.17654151012 0.066469947839 0.98204625209 -0.17837615547 0.067274581809 0.98165985851 
-0.17986917238 0.068248079885 0.98132017223 -0.18100412452 0.069390937219 0.98103129651 -0.18176471224 0.070700557617 0.98079713526 
-0.1821354361 0.072169699497 0.98062134251 -0.1821051325 0.073792817893 0.98050616558 -0.1816665853 0.07556070304 0.98045287084 
-0.18081666366 0.07746204067 0.98046160883 -0.17955991638 0.079485694556 0.98053060166 -0.17790359385 0.081617640105 0.98065736734 
-0.17586582563 0.083842413747 0.98083722453 -0.17347465229 0.086146630335 0.98106335325 -0.17076333194 0.08851664834 0.98132802234 
-0.16777310164 0.090937496784 0.98162241114 -0.16455608251 0.093396616356 0.98193603038 -0.16117177418 0.09588181715 0.9822577749 
-0.15768275901 0.098383285625 0.98257665178 -0.15416188889 0.10089515608 0.98288060287 -0.15068143484 0.10340792072 0.98315914639 
-0.14731457601 0.1059154764 0.98340242401 -0.14413898776 0.10841516341 0.98360058182 -0.14122635528 0.11090100859 0.98374594427 
-0.13864607992 0.11337151001 0.98383137033 -0.13646025331 0.11582157423 0.98385159562 -0.13472298782 0.1182487153 0.98380229614 
-0.13347936829 0.12065021432 0.98368022448 -0.13276090089 0.1230186475 0.98348409014 -0.13258762866 0.12535140165 0.98321286954 
-0.13296541548 0.12764013951 0.98286733239 -0.13388588262 0.12987819737 0.98244909501 -0.1353255507 0.13205629275 0.98196136934 
-0.13724492994 0.13416366968 0.9814091598 -0.13958738767 0.13619122807 0.98079932229 -0.14228790733 0.1381275985 0.98014025423 
-0.14527075871 0.13995874709 0.9794426761 -0.14844440246 0.14167362193 0.97872000298 -0.15171488607 0.14326243686 0.9779869465 
-0.15498290887 0.14471031147 0.97726108268 -0.15814502022 0.14601010523 0.97656090529 -0.1611027386 0.14715046664 0.97590606504 
-0.16376330087 0.14812067134 0.97531628101 -0.16603955383 0.14891489211 0.97481035154 -0.1678526328 0.14952555927 0.97440628117 
-0.16913838041 0.14994611409 0.97411927973 -0.16913838041 0.14994611409 0.97411927973 
NormalArray 3 233 double
-0.97683773764 -0.20050904613 -0.074727215573 -0.97683773764 -0.20050904613 -0.074727215573 -0.97825405497 -0.19373994323 -0.074052942796 
-0.97796884011 -0.19539795264 -0.073461472081 -0.97839467393 -0.19368307519 -0.07232377486 -0.97878099833 -0.19227080146 -0.070849814553 
-0.97950164446 -0.18926617766 -0.068955365921 -0.98029864316 -0.18590772566 -0.066729961429 -0.98130548495 -0.18144700967 -0.064160173701 
-0.98248442397 -0.17597924444 -0.061283457692 -0.98382575792 -0.1694331081 -0.058131746328 -0.98535984921 -0.16146521925 -0.05472614126 
-0.98712940605 -0.15154712906 -0.051078404352 -0.98902027139 -0.14002253725 -0.047250310558 -0.99109456956 -0.12594651254 -0.043232281625 
-0.99324637423 -0.10925091858 -0.039062473925 -0.99542111204 -0.089054573034 -0.034728845817 -0.99744948085 -0.064659913533 -0.030226292156 
-0.99906547604 -0.034887671867 -0.025515190307 -0.99978781732 0.0015234752296 -0.020542623241 -0.99880833416 0.046373625508 -0.015211787039 
-0.99467998951 0.10258858106 -0.0093435270948 -0.98486221134 0.17331761529 -0.0027256028828 -0.96473717616 0.26316809684 0.0049733035648 
-0.92591143441 0.37747470293 0.014172659445 -0.85478862062 0.5183669994 0.025140962409 -0.73195615773 0.68030767388 0.037704801149 
-0.54174056105 0.83903020545 0.05045273879 -0.29681242467 0.95300897881 0.060632259269 -0.044166099065 0.99682289105 0.066283327971 
0.1714519394 0.98284665253 0.067946229302 0.33458633036 0.93994692702 0.067466746727 0.45235182808 0.88936841221 0.06634493946 
0.53740933039 0.84078649552 0.065339731828 0.59862508427 0.79840293657 0.064813265339 0.64344844804 0.76273651408 0.064862198623 
0.6767756542 0.73327086205 0.065487073081 0.70170168048 0.70934545599 0.066661650791 0.71991615526 0.69068501298 0.068373549255 
0.73308669732 0.67646476235 0.070564293401 0.74177491604 0.66664002084 0.07321923617 0.74690174864 0.660545202 0.076274595954 
0.74839269495 0.65844718572 0.079722504765 0.74618622889 0.66047507882 0.083539105085 0.74053220362 0.66627894507 0.087660839372 
0.73029274197 0.67689607254 0.092109814913 0.71484146467 0.69254822968 0.096843326858 0.69313689476 0.71357933703 0.10181244961 
0.66261616757 0.74127590404 0.10700396514 0.62091290751 0.77579480694 0.11229238092 0.56297074675 0.81807928915 0.11751687098 
0.48404415725 0.86646336349 0.12223949267 0.37513957951 0.91840436117 0.12571286838 0.23177292253 0.96449567998 0.12660724969 
0.051278601291 0.9910611695 0.12315950373 -0.15124457523 0.98188026304 0.11417630011 -0.35167635387 0.93075155073 0.10012638488 
-0.52271318035 0.84838586693 0.083739786758 -0.65329165181 0.75404355033 0.068031918102 -0.74625896646 0.66338739856 0.054906415015 
-0.81006540292 0.58460597554 0.045054371084 -0.8541506493 0.51862222343 0.038179283252 -0.88444482715 0.4654029332 0.034021426881 
-0.90570562628 0.42269226797 0.032071250698 -0.92070639463 0.38894236566 0.031993297621 -0.93146581416 0.36228984966 0.033429057493 
-0.93909201136 0.34175690795 0.036171951532 -0.94463033062 0.32569935517 0.039918272905 -0.94837120066 0.31401091346 0.04460058282 
-0.95080715358 0.30571886789 0.05001730228 -0.95219951726 0.30029356354 0.056034409379 -0.9526589063 0.2975337238 0.062567495084 
-0.95241588767 0.2967811177 0.069461824656 -0.95140562777 0.29823701114 0.076694306426 -0.94982081334 0.30127181113 0.084117289301 
-0.94761853905 0.30596008328 0.091692594517 -0.94475952281 0.31233627495 0.099375527206 -0.94147044457 0.31966069477 0.10700673909 
-0.93763694924 0.32818864698 0.11458256155 -0.93311810719 0.33820298115 0.12210381475 -0.92811387342 0.34907195711 0.12943495176 
-0.92258537307 0.3608216026 0.1365430353 -0.91649445989 0.3734645002 0.14339516059 -0.90994461274 0.38668656345 0.14991432016 
-0.90247182313 0.40142730057 0.15620733276 -0.89492172419 0.41578833549 0.16197273736 -0.88625272228 0.43186163431 0.16748624142 
-0.87762768899 0.44726949409 0.17239384899 -0.8687169332 0.4626877835 0.17677925491 -0.8594119163 0.47830246738 0.18065964635 
-0.85297999079 0.4886901002 0.18332245164 -0.856231157 0.48295280032 0.18337065865 -0.98521003078 0.11605331058 0.12606674563 
0.72355999275 -0.65947968846 -0.20383198324 0.73641399243 -0.64570944502 -0.20187556654 0.72361119507 -0.65992602072 -0.20219912351 
0.70548095073 -0.67918056724 -0.20251021021 0.68136166116 -0.70331059011 -0.20273258383 0.65550062056 -0.72756229454 -0.20241552314 
0.62654792646 -0.75285203619 -0.20162218987 0.59615246346 -0.77750370605 -0.20022544139 0.56428880344 -0.80142540972 -0.19823082244 
0.53095122761 -0.82450963752 -0.19563908489 0.49757967069 -0.84580393308 -0.19243226888 0.46410032139 -0.86546094669 -0.18864845994 
0.4320441197 -0.88281500941 -0.18432454475 0.40214706894 -0.89780133425 -0.17952854695 0.37373758328 -0.91100781644 -0.17431287166 
0.34860516872 -0.92195130887 -0.1687608379 0.32658221933 -0.93101943741 -0.16293207536 0.30806241755 -0.93834099009 -0.15688764516 
0.29316681565 -0.94411321469 -0.15067666057 0.28169475087 -0.94858645566 -0.14433226763 0.27383596589 -0.9518404986 -0.13788955364 
0.26900130816 -0.95414099566 -0.13135165248 0.26711416799 -0.95555877865 -0.12472947448 0.26864089998 -0.95597940798 -0.11804845773 
0.27198828716 -0.95584682054 -0.11126197598 0.27756605531 -0.95501857203 -0.10438683833 0.28533992801 -0.95346201223 -0.097423388995 
0.29396718882 -0.95153794919 -0.090326204144 0.30420293024 -0.9489735899 -0.083124622746 0.31536186197 -0.9459392434 -0.075801344423 
0.32702737716 -0.94253981693 -0.068350479834 0.33967969887 -0.93857397623 -0.060799616108 0.35217984221 -0.93442319656 -0.053128603111 
0.36584759999 -0.92956679167 -0.045399486723 0.37932908612 -0.92449750857 -0.03760054611 0.39353460918 -0.91882712721 -0.029786266623 
0.40824595146 -0.91260710508 -0.021988971657 0.42344676324 -0.90580894288 -0.01424772593 0.43944579981 -0.8982447755 -0.0066115293356 
0.45626540938 -0.88984330833 0.00087340107366 0.47405657372 -0.88045660742 0.0081564309776 0.49287289034 -0.86996869897 0.015191339385 
0.51318589599 -0.85799749379 0.021921149836 0.53481337075 -0.84449584915 0.028309348757 0.55810178868 -0.82906302804 0.034305816038 
0.58317738008 -0.81136604169 0.039865897086 0.60993104387 -0.79117823166 0.044956951295 0.63945667517 -0.76723200909 0.049499543452 
0.67046636608 -0.74000860681 0.053498727111 0.70397283547 -0.70794687511 0.056863599492 0.73984352125 -0.67013993698 0.059531747267 
0.77727178284 -0.62615574265 0.061461870694 0.81625019675 -0.57430334436 0.062540266707 0.85516108552 -0.5145515752 0.062739096903 
0.89323854365 -0.44529726197 0.061929416379 0.92760077728 -0.36868936985 0.060207528959 0.95650773963 -0.28595665285 0.05763450973 
0.97821827412 -0.20031688796 0.054425661052 0.99196700613 -0.11580458203 0.050899484495 0.99814256811 -0.038079879225 0.047553512198 
0.99854836313 0.03001993369 0.04472102497 0.99555553552 0.083830931013 0.042913292888 0.99134129913 0.12435115332 0.0421807931 
0.98739497178 0.15244753131 0.042554904582 0.9846139789 0.16910667167 0.044025517131 0.98326363993 0.17615898591 0.046482535248 
0.98278810031 0.17796308706 0.049565003183 0.9831583511 0.17482265644 0.05326063711 0.98378676717 0.16994543458 0.057290016636 
0.98459209793 0.16364686624 0.061628758421 0.98537252356 0.15704068373 0.066175625903 0.98581785078 0.15217812439 0.070745908308 
0.98603333385 0.14851295961 0.075380139067 0.98613111028 0.14534636693 0.080124072301 0.98597789313 0.14368188115 0.084871145258 
0.98554966523 0.14376107073 0.08958019817 0.98519020594 0.14311268168 0.094440555229 0.98460525161 0.14389120034 0.099236187771 
0.98403107294 0.144390778 0.10408722649 0.98357724353 0.14383242601 0.10903228532 0.98315992364 0.14283938715 0.1139889206 
0.98288576147 0.14062615682 0.11899522647 0.9828348947 0.13652738125 0.12407999007 0.9829619989 0.13074292433 0.12919750949 
0.98347075787 0.12123492363 0.13448926243 0.98416191718 0.10894987387 0.13984007204 0.98498359598 0.093313498238 0.1452580693 
0.98592072377 0.072104952578 0.15086816185 0.98661248578 0.045603277406 0.15657632003 0.98664833212 0.012557291746 0.16238036564 
0.98529245749 -0.029525824766 0.16830626517 0.98139812744 -0.080795914118 0.17415434454 0.97257709559 -0.14740443278 0.17990477015 
0.9556134402 -0.2293149284 0.1849800436 0.9240727599 -0.3324332336 0.18862046446 0.86615923215 -0.46261460441 0.18909233814 
0.76651654391 -0.61550953198 0.18330412965 0.60320114675 -0.78002397515 0.16646613696 0.37448588563 -0.91727528154 0.13552261559 
0.10901009998 -0.98967286895 0.093082815653 -0.1364808675 -0.98942437347 0.049116005428 -0.33165443178 -0.94333388218 0.011248315494 
-0.47355897815 -0.88058297869 -0.017762653641 -0.57358996042 -0.81822740671 -0.038710053042 -0.64697458844 -0.76059228521 -0.054067158191 
-0.69845406949 -0.71275979296 -0.064307000748 -0.73645924197 -0.67272975582 -0.071150970126 -0.764184815 -0.64059914604 -0.07519509706 
-0.78506957651 -0.61457212253 -0.077245493362 -0.79884296004 -0.59657433115 -0.077129712904 -0.80837066898 -0.58379223454 -0.075653740321 
-0.81256198742 -0.57834954907 -0.072490107556 -0.8115462653 -0.5803511511 -0.067714109947 -0.80650682047 -0.58798987095 -0.061762935516 
-0.79445982493 -0.60492382452 -0.053858640078 -0.77436911721 -0.63120907478 -0.043904148207 -0.74427068124 -0.66712823465 -0.03163971527 
-0.69698671105 -0.71691413501 -0.015609216857 -0.62967705095 -0.77684610386 0.0041161175403 -0.52645622957 -0.84967160706 0.030033290097 
-0.3818535742 -0.92218817311 0.061292913456 -0.18625327061 -0.97768675208 0.097151088537 0.04395163154 -0.99025140236 0.1321756945 
0.27390601703 -0.94831891672 0.16020838316 0.46551358402 -0.86694636585 0.17804803238 0.60854071951 -0.7710391351 0.18755491152 
0.70640849343 -0.68128745406 0.19192301932 0.77286096501 -0.60422731673 0.19389501921 0.81876079247 -0.54001864073 0.19496315648 
0.85132722007 -0.4867204375 0.19581925361 0.87326484196 -0.44566220973 0.19696119061 0.88990327781 -0.41082435447 0.19823094086 
0.90207633668 -0.38258774554 0.19971204212 0.91026681353 -0.36168689318 0.20148677251 0.91751049382 -0.34198526556 0.20302850014 
0.92228493734 -0.32788278836 0.20465427298 0.92618862286 -0.31581274604 0.20600229203 0.92864918937 -0.30770670457 0.20718896458 
0.9315134862 -0.2985692363 0.20769938895 0.9315134862 -0.2985692363 0.20769938895 
BinormalArray 3 233 double
0.20463378112 -0.97744029025 -0.05230195611 0.20463378112 -0.97744029025 -0.05230195611 0.19784811809 -0.978808601 -0.052818981203 
0.19946009849 -0.97848794911 -0.052697272789 0.1976770011 -0.97884256219 -0.052830310275 0.19617327908 -0.97913908809 -0.052940445351 
0.19305608041 -0.97974640558 -0.053163244446 0.18956508199 -0.98041468947 -0.053405209123 0.18495387167 -0.98127822568 -0.053713212216 
0.17931975329 -0.98230366395 -0.054073448933 0.17259367248 -0.983485184 -0.054482263924 0.1644345825 -0.9848562045 -0.054950200493 
0.15431611212 -0.98646187813 -0.055493247631 0.14258446738 -0.98819280394 -0.056077195898 0.12829626138 -0.9901119909 -0.056730192877 
0.11138529688 -0.99211639632 -0.057431452933 0.090971158833 -0.99415206603 -0.058188640306 0.066356852277 -0.99605065675 -0.058990315621 
0.03636253903 -0.9975462521 -0.059826755445 -0.00027441686257 -0.99815787306 -0.060669474589 -0.045357024274 -0.99707757783 -0.061473930529 
-0.10181679084 -0.99285883431 -0.062166520174 -0.17281034583 -0.98296407843 -0.062595566003 -0.2629568631 -0.96278196122 -0.062486665033 
-0.37760690435 -0.92393341463 -0.061319418764 -0.5189029886 -0.85285010677 -0.058192643983 -0.68130847923 -0.73016463341 -0.051752915362 
-0.84051730886 -0.54025166634 -0.040728252226 -0.95491409996 -0.29577874608 -0.025573327213 -0.99900468637 -0.043653212597 -0.0091669863116 
-0.98517213802 0.1714834118 0.0054127574105 -0.94234131463 0.33422802738 0.016866311207 -0.89180943775 0.45169472326 0.025451988488 
-0.84328134827 0.53652471498 0.031902944597 -0.800974273 0.59757005933 0.036745587312 -0.76541322328 0.64226630283 0.040454837482 
-0.73608402595 0.67550074462 0.043348018979 -0.71232686326 0.70036342656 0.045623575179 -0.69386707462 0.7185429917 0.047375646148 
-0.6798786278 0.7317049699 0.04871230322 -0.67031635186 0.74041303666 0.049643968187 -0.66451218484 0.74558758743 0.050226543395 
-0.66273140596 0.74715840894 0.050412255516 -0.66510022111 0.74506799448 0.050153559047 -0.67126390527 0.73956749007 0.049443878432 
-0.68225561919 0.72952972444 0.048100428745 -0.69829004451 0.7143351275 0.04600368847 -0.71970190341 0.69295145371 0.042982008261 
-0.74776539964 0.66283665951 0.038658374397 -0.78261906582 0.62164138852 0.032701405107 -0.82517731381 0.56434495724 0.024437062321 
-0.87373157603 0.48622614568 0.013314214118 -0.92566683592 0.37833594682 -0.0016793504061 -0.97148917667 0.23617539773 -0.020735504108 
-0.99741917022 0.057028333902 -0.043620729045 -0.98722419735 -0.14418076284 -0.067825450918 -0.93481112896 -0.34351180996 -0.090154254434 
-0.85113461686 -0.51377231656 -0.10773982885 -0.75566352668 -0.64386401858 -0.12004899007 -0.66416511875 -0.73653354726 -0.12807430971 
-0.58484800456 -0.80013854002 -0.13315828301 -0.51859500577 -0.84405984916 -0.136463149 -0.46534574876 -0.87419940342 -0.13866772218 
-0.42280407757 -0.89530518515 -0.14023315382 -0.38939704235 -0.91015145121 -0.14140112896 -0.36323484978 -0.92076313769 -0.14232247952 
-0.3433243862 -0.92825739464 -0.14306143833 -0.32799818961 -0.9336880955 -0.14367925368 -0.31714362551 -0.93735634024 -0.14416314444 
-0.30977057807 -0.93976233562 -0.14453007133 -0.30533634653 -0.94117444328 -0.1447770106 -0.3036296491 -0.94171008532 -0.14488323363 
-0.30397630424 -0.94160194095 -0.14485921186 -0.30657092352 -0.94079102483 -0.14466000292 -0.31076773788 -0.93946766856 -0.14430493 
-0.31663286524 -0.9375907033 -0.14376126643 -0.32419123103 -0.93512122049 -0.14299772277 -0.33268586789 -0.93227510789 -0.14206771809 
-0.34236547951 -0.92893803864 -0.14092550802 -0.35350599716 -0.92496977033 -0.13951499542 -0.36546054296 -0.92055564333 -0.13789814746 
-0.37824654183 -0.9156513918 -0.13605911318 -0.39186805648 -0.91021300367 -0.13398400752 -0.40600091913 -0.90433127945 -0.13171253048 
-0.42158268729 -0.89755599606 -0.1290785486 -0.43669699968 -0.89068433263 -0.12640075188 -0.45344031933 -0.88271664584 -0.12330125696 
-0.4694193775 -0.87475290743 -0.12021979438 -0.48530983458 -0.86647330122 -0.11704009022 -0.50129588175 -0.85776901104 -0.11373109799 
-0.51194492261 -0.8517556847 -0.11146591312 -0.5063508514 -0.85493566132 -0.1126668997 -0.13721163214 -0.97500616116 -0.17474539679 
0.68260367444 0.72748833236 0.069375427357 0.66878573723 0.73984110782 0.073217298929 0.68273300034 0.72736887758 0.069355361536 
0.70160354362 0.70968677662 0.064008957714 0.72522888451 0.68613580798 0.057102697769 0.74888317669 0.6608183088 0.049931457176 
0.77347819168 0.6324179941 0.042177810791 0.79735514876 0.60253326751 0.034328243351 0.82042896094 0.57113849315 0.026403440842 
0.84259846868 0.53822689793 0.018428969947 0.86293057197 0.50520801498 0.010755907787 0.88158477581 0.47201374689 0.0033624104909 
0.89791661598 0.44015218265 -0.0034361096744 0.911875614 0.41035609495 -0.0095257505527 0.92405028456 0.38197342431 -0.015078949762 
0.93397984948 0.35677691878 -0.019795731482 0.94205614671 0.33461244997 -0.023763938354 0.94841600502 0.31587929999 -0.026969413345 
0.9532616573 0.30070748251 -0.029448644704 0.95684545349 0.28890800413 -0.031288069395 0.95925132928 0.28067766989 -0.032510504595 
0.96074303809 0.27544004726 -0.033250490552 0.96139275058 0.27312569616 -0.033560888277 0.9610903996 0.27420446721 -0.033423853228 
0.96027223967 0.27709773318 -0.033076758912 0.95879988659 0.28221729364 -0.032498871318 0.95664205761 0.28953323384 -0.031725070591 
0.95415527937 0.29771080761 -0.030918891912 0.95107242026 0.30750572184 -0.030024697537 0.94756362951 0.3182372403 -0.029124335311 
0.9437352468 0.32949184666 -0.028264941838 0.93939016928 0.3417515087 -0.027422912968 0.93490989459 0.35388049967 -0.02668484496 
0.92977908762 0.36720002691 -0.025980540196 0.92449036182 0.38035885011 -0.025391259123 0.91865820207 0.39426889614 -0.024882630592 
0.91233444434 0.40871367906 -0.0244742765 0.9054901702 0.423678018 -0.02417620168 0.89793607641 0.43947138275 -0.023993882932 
0.8895981357 0.45611619901 -0.023940968148 0.88032451954 0.47376282835 -0.024031703375 0.8699943499 0.49246340987 -0.024282114515 
0.85821958362 0.51268721372 -0.024717750087 0.84494681189 0.5342489908 -0.025355490712 0.82976836292 0.55749135166 -0.026227022922 
0.81234419858 0.58253604032 -0.027361739163 0.79244101709 0.60926921961 -0.028779375716 0.76878378494 0.63877766247 -0.030571063908 
0.7418486243 0.66976997956 -0.032692401387 0.71006772918 0.70325058539 -0.035248179119 0.67252878286 0.73908035997 -0.03827868511 
0.62879523794 0.77644814636 -0.041771099567 0.57717060176 0.81533863397 -0.045793104587 0.51762034016 0.85413288129 -0.050261362304 
0.4485358284 0.89205910337 -0.055192089481 0.37206564106 0.92624401928 -0.060325579113 0.28943842413 0.95495317012 -0.065496881764 
0.2038763986 0.9764581401 -0.070455054695 0.11942287861 0.99000883509 -0.074971211214 0.041753548024 0.99601456047 -0.078813936344 
-0.026281457297 0.99628922883 -0.08195765691 -0.079999961757 0.99322230573 -0.084317599072 -0.12039498465 0.98898990262 -0.086046616386 
-0.14833048128 0.98508217997 -0.087242002653 -0.16479287801 0.98239789216 -0.08796413383 -0.17161619353 0.98120076453 -0.088277640417 
-0.17316907276 0.9809210697 -0.088353422489 -0.16975698957 0.98153334485 -0.088175152066 -0.16459454448 0.9824381951 -0.087885315832 
-0.1579985564 0.98355601734 -0.087487238679 -0.15108516338 0.9846813986 -0.08703916735 -0.1459076006 0.98549356847 -0.086679862632 
-0.14191934528 0.98610172257 -0.086384559873 -0.13842239242 0.98662276246 -0.086109034841 -0.1364208986 0.98691608762 -0.085941692018 
-0.13615658168 0.98695462309 -0.08591831722 -0.13516274524 0.98709928866 -0.085825559242 -0.13559211708 0.98703672952 -0.085867760911 
-0.13574410485 0.9870144732 -0.085883454124 -0.1348447077 0.98714621896 -0.085786054777 -0.13351792518 0.98733960958 -0.085635617613 
-0.13098433868 0.98770490308 -0.085335382175 -0.12658537784 0.98832512955 -0.084791393505 -0.12052382916 0.98914926738 -0.084010317494 
-0.11077919842 0.99039795916 -0.082703395927 -0.098297818455 0.99185813387 -0.080962838099 -0.082515611263 0.99347927353 -0.078677232793 
-0.061238304969 0.99526515835 -0.075479365214 -0.034752983171 0.99684573594 -0.071349904705 -0.0018328845457 0.99781616642 -0.066026801878 
0.039971000328 0.99745660952 -0.05901382261 0.090784855462 0.99460638931 -0.050162140724 0.15664784944 0.98691460828 -0.038223124348 
0.23747385165 0.97112344984 -0.022921931872 0.33900240356 0.94078153215 -0.0027348030778 0.46685129508 0.88400331359 0.024248914473 
0.61652207482 0.78516890898 0.058397907787 0.77677917291 0.62189026044 0.099330863821 0.90924249287 0.39192791305 0.14025191666 
0.97721209623 0.12385130981 0.17238727342 0.97376110701 -0.12487605539 0.19025056443 0.92574434358 -0.3231280967 0.19643228721 
0.8620018726 -0.46751818136 0.19590692111 0.79922011595 -0.56937328289 0.19251304112 0.74146759418 -0.64407913838 0.18811664011 
0.69370968293 -0.69637915476 0.18391016454 0.65386109376 -0.73485606326 0.18014504255 0.62198187513 -0.76275653852 0.17703392315 
0.59625325693 -0.78360160662 0.17450093327 0.57859417635 -0.79710484848 0.17277916433 0.56618064321 -0.80622162215 0.17159887887 
0.56114094853 -0.80983487712 0.17113827067 0.56358386358 -0.80809201759 0.17134911678 0.57170084287 -0.80223108491 0.17199835077 
0.58917909185 -0.78920788034 0.17325968756 0.6160977378 -0.76799821371 0.17493519148 0.65277581881 -0.73664162578 0.1767564583 
0.70355297537 -0.68788154776 0.17841577035 0.76477801405 -0.61894708486 0.17893880341 0.83946027595 -0.51388267289 0.17672307038 
0.91453327228 -0.36744047022 0.16916381036 0.97349076132 -0.17027926235 0.15271119944 0.99019633145 0.060738671668 0.1257856866 
0.9525207043 0.29051545051 0.09113221654 0.87485523004 0.4811815173 0.055611814236 0.78189845122 0.62294444992 0.023979664165 
0.69437084444 0.71961622736 -0.0012711068752 0.61903254354 0.78508680992 -0.020914371255 0.55622380041 0.83024131082 -0.036255339697 
0.50412138522 0.86227302221 -0.048444443851 0.46408272449 0.88391955497 -0.057562532648 0.43017990363 0.90038837396 -0.065161542013 
0.40278850625 0.91251605066 -0.071245185947 0.38262838469 0.92079511319 -0.075709172196 0.36362123335 0.92811250304 -0.079917334465 
0.35010295006 0.9330343744 -0.082914296367 0.33853434308 0.9370627857 -0.085485871397 0.3308113915 0.93965881632 -0.087207408911 
0.32198576569 0.94253518449 -0.089177310411 0.32198576569 0.94253518449 -0.089177310411 
