# vtk DataFile Version 4.1
vtk output
ASCII
DATASET POLYDATA
POINTS 205 float
-0.0904349 25.9391 188.112 0.0898906 24.6509 185.717 0.270346 23.3643 183.322 
0.451323 22.0843 180.926 0.63322 20.8157 178.527 0.816457 19.5632 176.127 
1.00149 18.3316 173.723 1.1888 17.1254 171.314 1.37895 15.9489 168.901 
1.57254 14.8063 166.482 1.77026 13.7012 164.056 1.97284 12.6373 161.622 
2.18113 11.6178 159.179 2.39602 10.6453 156.727 2.6185 9.72223 154.264 
2.84962 8.85056 151.79 3.09049 8.03175 149.303 3.34228 7.26683 146.802 
3.6062 6.55632 144.286 3.88349 5.90031 141.754 4.17539 5.29843 139.205 
4.48314 4.74985 136.639 4.80796 4.25336 134.053 5.151 3.80735 131.447 
5.51335 3.40989 128.82 5.89601 3.05875 126.172 6.29987 2.75147 123.502 
6.72567 2.48539 120.808 7.17402 2.25773 118.091 7.64535 2.06561 115.351 
8.13991 1.90615 112.587 8.65774 1.77646 109.799 9.19871 1.67372 106.988 
9.76245 1.5952 104.153 10.3484 1.53833 101.296 10.9558 1.50065 98.4181 
11.5837 1.47992 95.519 12.2309 1.47406 92.6003 12.8961 1.4812 89.6635 
13.5777 1.49966 86.7099 14.2742 1.52798 83.7412 14.9838 1.56488 80.7592 
15.7044 1.60928 77.7657 16.4343 1.66028 74.763 17.1712 1.71714 71.7532 
17.9132 1.77929 68.7387 18.6581 1.84632 65.7219 19.4036 1.91793 62.7056 
20.1478 1.99397 59.6925 20.8884 2.07439 56.6856 21.6234 2.15924 53.688 
22.3507 2.24866 50.703 23.0683 2.34288 47.734 23.7743 2.44217 44.7845 
24.4669 2.54686 41.8582 25.1444 2.65732 38.9589 25.805 2.77395 36.0903 
26.4473 2.89714 33.2565 27.0698 3.0273 30.4612 27.6712 3.16481 27.7082 
28.2505 3.31003 25.0012 28.8066 3.46327 22.3436 29.3387 3.62481 19.7388 
29.8461 3.79485 17.1896 30.3283 3.97355 14.6988 30.785 4.16097 12.2685 
31.2159 4.35711 9.90075 31.6212 4.56189 7.59683 32.0008 4.77515 5.35775 
32.3551 4.99664 3.18406 32.6845 5.22607 1.07584 32.9897 5.46303 -0.967218 
33.2713 5.70708 -2.94581 33.53 5.95772 -4.861 33.7668 6.2144 -6.71413 
33.9826 6.47651 -8.50684 34.1784 6.74346 -10.241 34.3552 7.01461 -11.9185 
34.5141 7.28933 -13.5417 34.6561 7.56701 -15.1128 34.7824 7.84705 -16.6341 
34.8939 8.1289 -18.1081 34.9916 8.41204 -19.5373 35.0765 8.69604 -20.9241 
35.1496 8.98052 -22.2712 35.2117 9.26517 -23.5813 35.2636 9.54978 -24.8569 
35.306 9.83422 -26.1011 35.3397 10.1185 -27.3166 35.3653 10.4026 -28.5066 
35.3832 10.6869 -29.6742 35.394 10.9714 -30.8228 35.3979 11.2567 -31.9558 
35.3954 11.5431 -33.077 35.3866 11.8313 -34.1901 35.3718 12.1217 -35.2991 
35.3509 12.4152 -36.4081 35.324 12.7124 -37.5212 35.2912 13.014 -38.6426 
35.2522 13.321 -39.7766 35.207 13.6339 -40.9274 35.1554 13.9537 -42.099 
35.0972 14.281 -43.2953 35.0322 14.6165 -44.5201 34.9601 14.9608 -45.7767 
34.8808 15.3144 -47.0682 34.794 15.6777 -48.3972 34.6996 16.051 -49.7659 
34.5973 16.4344 -51.176 34.4872 16.8279 -52.6286 34.3691 17.2314 -54.1243 
34.243 17.6446 -55.6629 34.109 18.0671 -57.2439 33.9672 18.4983 -58.8662 
33.8178 18.9375 -60.528 33.6611 19.3839 -62.2272 33.4975 19.8366 -63.9611 
33.3271 20.2947 -65.7268 33.1507 20.757 -67.5211 32.9685 21.2225 -69.3405 
32.7812 21.6901 -71.1816 32.5893 22.1588 -73.0408 32.3934 22.6274 -74.9146 
32.1941 23.0951 -76.7998 31.992 23.5608 -78.6932 31.7876 24.0238 -80.592 
31.5816 24.4833 -82.4939 31.3745 24.9386 -84.3967 31.1667 25.3891 -86.2989 
30.9588 25.8345 -88.1992 30.7512 26.2744 -90.0969 30.5443 26.7085 -91.9916 
30.3383 27.1367 -93.8834 30.1336 27.559 -95.7729 29.9305 27.9754 -97.6609 
29.7292 28.3859 -99.5485 29.5297 28.7908 -101.437 29.3323 29.1902 -103.329 
29.137 29.5845 -105.226 28.944 29.9737 -107.13 28.7533 30.3583 -109.043 
28.565 30.7386 -110.967 28.3791 31.1148 -112.906 28.1957 31.4873 -114.86 
28.0149 31.8563 -116.833 27.8367 32.2222 -118.827 27.6612 32.5852 -120.843 
27.4884 32.9455 -122.883 27.3187 33.3034 -124.95 27.1519 33.659 -127.044 
26.9885 34.0124 -129.166 26.8284 34.3638 -131.317 26.6719 34.7132 -133.499 
26.5193 35.0607 -135.711 26.3708 35.4062 -137.953 26.2265 35.7496 -140.225 
26.0869 36.091 -142.527 25.9522 36.4301 -144.858 25.8226 36.7668 -147.217 
25.6984 37.101 -149.603 25.5798 37.4324 -152.014 25.4672 37.7609 -154.45 
25.3607 38.0862 -156.908 25.2605 38.4082 -159.387 25.1668 38.7266 -161.886 
25.0797 39.0413 -164.403 24.9994 39.3522 -166.936 24.9258 39.6591 -169.484 
24.859 39.9621 -172.045 24.799 40.2613 -174.618 24.7457 40.5566 -177.201 
24.699 40.8485 -179.793 24.6588 41.1372 -182.392 24.625 41.4232 -184.998 
24.5972 41.7071 -187.609 24.5754 41.9896 -190.224 24.5594 42.2717 -192.843 
24.5489 42.5545 -195.464 24.5436 42.8391 -198.087 24.5434 43.1271 -200.711 
24.5481 43.4199 -203.337 24.5575 43.7195 -205.964 24.5714 44.0277 -208.593 
24.5897 44.3466 -211.224 24.6122 44.6785 -213.858 24.6388 45.0255 -216.497 
24.6695 45.39 -219.141 24.7042 45.7744 -221.793 24.7429 46.1811 -224.454 
24.7855 46.6121 -227.127 24.832 47.0695 -229.813 24.8824 47.5553 -232.515 
24.9367 48.0708 -235.235 24.9948 48.6173 -237.975 25.0566 49.1954 -240.735 
25.1221 49.8054 -243.519 25.1912 50.4471 -246.325 25.2636 51.1194 -249.155 
25.3391 51.821 -252.008 25.4176 52.5497 -254.882 25.4986 53.3028 -257.777 
25.5818 54.0771 -260.69 25.6668 54.8686 -263.617 25.7532 55.6732 -266.556 
25.8404 56.4861 -269.502 
LINES 1 206
205 204 203 202 201 200 199 198 197 196 195 194 193 192 191 190 189 188 187 186 185 184 183 182 181 180 179 178 177 176 175 174 173 172 171 170 169 168 167 166 165 164 163 162 161 160 159 158 157 156 155 154 153 152 151 150 149 148 147 146 145 144 143 142 141 140 139 138 137 136 135 134 133 132 131 130 129 128 127 126 125 124 123 122 121 120 119 118 117 116 115 114 113 112 111 110 109 108 107 106 105 104 103 102 101 100 99 98 97 96 95 94 93 92 91 90 89 88 87 86 85 84 83 82 81 80 79 78 77 76 75 74 73 72 71 70 69 68 67 66 65 64 63 62 61 60 59 58 57 56 55 54 53 52 51 50 49 48 47 46 45 44 43 42 41 40 39 38 37 36 35 34 33 32 31 30 29 28 27 26 25 24 23 22 21 20 19 18 17 16 15 14 13 12 11 10 9 8 7 6 5 4 3 2 1 0 

CELL_DATA 1
FIELD FieldData 2
LengthArray 1 1 double
471.35093953 
TortuosityArray 1 1 double
0.026093922399 
POINT_DATA 205
FIELD FieldData 8
RadiusArray 1 205 double
69.213851003 69.818037649 71.409031791 73.4460174 74.019643694 74.324892975 76.099400349 78.311824229 80.621677746 
80.637555913 81.192633956 81.436151358 83.45545257 86.617679128 87.248644879 87.360747849 87.752551344 87.901121957 
87.956052178 87.877803001 87.864753822 87.769154036 87.164115485 87.035019096 86.618893544 86.248950177 86.09126997 
85.888818567 85.828161324 85.345899193 84.958897853 84.696931333 83.627895312 83.546773562 82.712364946 82.310716773 
81.25408895 80.962530938 80.065259967 79.886532172 79.073458229 78.563563694 77.642519272 77.104985535 76.519771225 
75.7183359 75.487878774 75.456858178 74.853404549 74.592150678 73.325170348 73.297763892 72.437899969 72.216623602 
71.348103655 71.325062752 70.472786955 69.49117026 68.674605614 68.518427504 68.008302488 67.638847511 67.618067148 
67.550717024 67.105473311 66.826391914 66.577852059 66.1876962 65.975696695 65.883618646 65.738860277 65.545044602 
65.136677354 65.033139257 64.577372166 64.528421043 64.123849102 63.889684018 63.508019649 63.498145973 63.081332216 
62.927879608 62.733992913 62.657586781 62.579489323 62.404842955 62.121707641 61.926205877 61.890305002 61.661435135 
61.452000671 61.410656814 61.327106366 61.261292252 61.154512848 61.040003044 60.954750383 60.856880202 60.768363418 
60.708192075 60.662240107 60.625131639 60.595135561 60.582235341 60.568791155 60.54588201 60.423696706 60.316250461 
60.118523294 60.028393379 59.931188364 59.89678274 59.722304638 59.554792824 59.449047354 59.307427487 59.156225121 
59.150994773 59.138272589 59.070705142 59.070106096 59.072580374 59.075400835 59.122272503 59.122791113 59.136444279 
59.135454191 59.138110929 59.149314904 59.152568522 59.154905661 59.157088411 59.276325253 59.347496216 59.377549342 
59.380447809 59.373679995 59.367844357 59.307557284 59.27556949 59.202714564 59.188923044 59.090975696 59.037790177 
58.967000378 58.966161869 58.874186442 58.83648869 58.816097298 58.735971288 58.673500326 58.648995674 58.472662281 
58.374566594 58.363116553 58.077860544 57.870324393 57.827997347 57.573906221 57.49073771 57.321453434 57.023314115 
56.874805371 56.833234611 56.766146154 56.575110605 56.578081594 56.575175969 56.544902155 56.45999009 56.05629724 
55.755446219 55.578760284 55.539050901 55.251292878 54.934074562 54.73803151 54.642477742 54.538413752 54.209268439 
53.567106912 53.213219798 53.001813939 52.930986626 52.420059013 52.217459974 51.697867359 51.570516379 51.041089061 
50.966394085 50.240116921 50.200448194 49.600387949 49.553637334 48.872926599 48.867264197 48.838596161 48.409121641 
48.219705572 48.013963127 47.984314708 47.291386622 47.202912296 47.094992685 27.799869655 
EdgeArray 2 205 int
31570 31570 31568 31034 31034 31037 31560 30831 31557 
31555 31558 31557 31553 28401 30471 29062 29008 30471 
29008 16716 28994 30472 29059 30472 29059 27969 18863 
15047 29054 29054 28487 16710 9411 9411 29801 29801 
29802 28241 13586 10500 26735 28488 30468 30465 30314 
30314 30461 30461 31417 31419 31030 29335 28522 31030 
28522 26791 32593 25717 32592 32593 32592 28759 31299 
28759 32474 32474 32475 32473 32478 32478 23982 23982 
32584 32584 31840 31840 32619 31844 31951 31844 32277 
17157 17157 31813 32270 32270 31024 31024 31025 31945 
31025 30549 28732 28464 17695 28464 31400 31400 31436 
31029 30906 31439 31439 30532 30538 31440 30538 30531 
31714 31714 29602 31713 18160 18160 29903 29903 29625 
29625 30802 30802 24071 24071 30194 30192 30192 29195 
29194 29195 29880 29880 29884 29884 24633 24633 29866 
29866 29862 29862 30177 30177 28684 28684 29172 29172 
28330 28330 29843 29843 28329 15264 15264 15263 28902 
28902 23970 23970 30364 30364 27412 27412 28670 28670 
29106 27903 10595 28677 29682 10595 29682 29679 27399 
27399 28316 28316 28651 28651 28654 28654 25812 29140 
26624 29384 26624 26622 27103 27103 27105 27105 28114 
28114 28314 28314 28874 28874 28872 22922 24629 29127 
29125 21797 30173 20416 30170 16407 24079 29123 10495 
24079 27098 10495 27736 16018 28514 30887 21821 27148 
30044 27148 30343 30343 31193 31193 29113 31191 22362 
22362 30172 30172 27169 27169 26650 26650 31181 31179 
31181 31182 29522 29522 28645 28645 30768 28641 28641 
28640 28638 28640 30302 30302 30301 26589 30448 30448 
28599 30330 30330 30447 28507 30447 30325 28507 30324 
30325 30324 27826 27673 29670 29314 29369 29314 30295 
27029 27029 22457 28429 30007 28429 30010 30641 28810 
28810 30445 30445 29661 29661 30323 30323 29504 29504 
30163 30163 29365 30161 30034 30034 28421 30001 29822 
30001 29503 29996 29994 30144 27558 27558 28633 28633 
29816 29816 29363 29362 29358 29358 29991 29991 29987 
29988 28857 28857 21301 21301 26706 26684 26579 26579 
29475 29474 28849 29474 28849 29467 29470 29470 28258 
28594 28844 28594 28844 28589 28845 28595 26575 26575 
29028 29028 29026 29026 28591 28591 28587 28835 28833 
28833 28217 28217 28216 28216 28250 28250 28215 28215 
28073 28073 28199 28204 28200 28200 28194 28193 28196 
27279 27528 27283 28191 26182 28067 28072 28072 27820 
27821 27821 26176 26176 23508 26821 27697 22839 27812 
27811 27816 27816 26170 26289 26564 26566 26559 26563 
26172 26173 26171 25256 25256 22835 27271 27271 27272 
27272 25249 25249 1324 1324 
EdgePCoordArray 1 205 double
0 0.08 0.916 0.688 0.128 0.788 0.416 0.528 0.008 
0.004 0.736 0.964 0.704 0.94 0 0.832 0 0 
0.016 0.184 0.044 0.764 0 0 0.796 0.196 0.524 
0.096 0.772 0.336 0.616 0.996 0 0.94 0 0 
0 0 0.772 0.808 0.696 0.676 0 0 0.716 
0.912 0.784 0.828 0 0.888 0.948 0.052 0.24 0.136 
0 0.992 0 0 0 0 0 0.952 0.18 
0.824 0 0 0 0 0 0 0 0 
0 0 0.472 0.884 0 0 0 0 0 
0.048 0.788 0.236 0.544 0 0 0 0 0.376 
0.044 0.416 0 0 0 0 0 0.136 0.792 
0.284 0.364 0.552 0.176 0.444 0.876 0.712 0.348 0.368 
0.02 0 0 0.936 0 0 0 0 0.048 
0.096 0 0 0.324 0.64 0.852 0 0.028 0 
0.82 0.308 0.28 0.508 0.88 0.484 0.416 0.292 0.248 
0 0.924 0.884 0.212 0 0 0 0 0 
0 0.996 0 0.596 0.908 0.612 0.212 0 0 
0 0.94 0 0 0.096 0 0 0.82 0 
0.808 0.592 0.144 0 0.944 0.844 0.172 0.288 0 
0 0 0 0.568 0 0 0 0 0 
0 0.372 0 0.076 0.528 0.604 0.752 0.188 0.892 
0 0 0.024 0.288 0.42 0 0.1 0.964 0.684 
0.724 0.912 0.052 0 0 0 0 
CurvatureArray 1 205 double
0 0.00021041978881 0.00084585691355 0.0014828799171 0.0021179216883 0.0027525814756 0.0033826237205 0.0040036009802 0.0046125376204 
0.0052052731839 0.0057729290513 0.0063076753438 0.0068035123159 0.0072485343211 0.0076359244267 0.0079545945011 0.0081978765729 0.0083595824878 
0.008434118953 0.0084225238116 0.0083245178906 0.0081450778789 0.0078920799453 0.0075749769258 0.0072049324926 0.0067946107008 0.0063562424274 
0.0059021342969 0.0054432039169 0.0049888181417 0.004546854762 0.0041230076564 0.0037215334715 0.0033446416179 0.0029932553912 0.0026670570674 
0.0023652882562 0.0020859977592 0.0018278482538 0.0015888814784 0.0013680231844 0.0011636439108 0.0009769305311 0.00080893337075 0.00066429346934 
0.00055083529778 0.00048263511835 0.00047127864384 0.00051512394223 0.0005982730963 0.00070525716653 0.00082494084436 0.00095284635078 0.0010865412065 
0.0012250772383 0.0013686014953 0.0015179071852 0.0016739423346 0.0018377194221 0.0020105199608 0.0021932830167 0.0023871567837 0.0025930113466 
0.0028107226556 0.0030415826609 0.0032837088841 0.0035377182164 0.0038011638306 0.0040720050326 0.0043474020376 0.0046245719328 0.0048999559057 
0.0051667232711 0.0054214389423 0.0056606563451 0.00587968457 0.0060730149624 0.0062382670104 0.006374245947 0.0064782039336 0.0065512904913 
0.0065937554041 0.0066066160226 0.0065938360653 0.0065604901185 0.0064978445667 0.0064230951789 0.0063298810399 0.0062246386433 0.0061005383071 
0.0059641662103 0.0058171826968 0.0056476184068 0.0054686851194 0.0052743078382 0.0050638842952 0.0048422357896 0.0046092182265 0.0043660575546 
0.0041196552232 0.0038761917253 0.0036360763241 0.0034028544202 0.0031792096911 0.0029616505448 0.0027626737565 0.0025771487951 0.0024049435395 
0.0022447215799 0.002098723235 0.001966648277 0.0018450270777 0.0017351043147 0.0016395117153 0.0015498030497 0.001472887353 0.0014023729964 
0.0013420760495 0.0012872122087 0.0012428242112 0.0012045630091 0.001173000163 0.0011505240973 0.0011364000911 0.0011290048041 0.0011323836233 
0.0011449522197 0.0011677934083 0.00119841234 0.0012401810873 0.0012900506297 0.0013466629565 0.0014104150686 0.0014774852848 0.0015470279509 
0.0016164766508 0.0016835528664 0.0017482337272 0.0018061235615 0.0018573844583 0.0019007673211 0.0019344908449 0.0019583909739 0.0019728678644 
0.0019779875268 0.0019742436315 0.00196267731 0.0019440884965 0.0019185294076 0.0018906938548 0.0018592839702 0.0018244732234 0.0017906024382 
0.0017560511085 0.0017230367255 0.001691492217 0.0016616961643 0.0016335677044 0.0016082254658 0.0015830327417 0.0015593151769 0.0015366202866 
0.0015134462793 0.0014892159049 0.0014618800823 0.0014316725473 0.0013977958041 0.0013579348239 0.0013119491451 0.0012587756035 0.0011989367921 
0.0011310984893 0.001057184618 0.00097935432736 0.00090403315307 0.00083801498819 0.00079724223041 0.00079880604294 0.00085731575122 0.0009752900412 
0.0011466198475 0.0013592557749 0.0016013651109 0.0018635977702 0.002134024775 0.0024024362866 0.0026613941878 0.0028983522818 0.0031041614914 
0.0032716391669 0.0033900328385 0.0034567140557 0.0034665425312 0.0034192114424 0.0033157297506 0.0031592041968 0.0029545876401 0.0027070289317 
0.0024233819121 0.0021105268128 0.0017719315651 0.0014155881315 0.0010426788207 0.00065942211142 0 
TorsionArray 1 205 double
0 0 0.00021244168248 0.00060434279516 0.00093619535197 0.0012812376855 0.001674353668 0.0020598114689 0.0024245319405 
0.0028144429564 0.0032305769562 0.0036356146725 0.0040569035326 0.0044870813282 0.0049340524726 0.0054077233723 0.0058875332186 0.0064097836616 
0.0069425480118 0.0074989512996 0.00810681711 0.0087284994348 0.0093683864668 0.010043788012 0.010721178197 0.011408216527 0.012090444791 
0.012709448468 0.01329568474 0.013787086507 0.014145483539 0.014348900496 0.014338833306 0.014079766952 0.013513426791 0.012601298715 
0.011282259858 0.0094657957033 0.00704624401 0.003815955734 -0.00059370064124 -0.0067184612113 -0.015447212614 -0.028376117578 -0.047433815196 
-0.072833872965 -0.095472207514 -0.097445642026 -0.076798312164 -0.052012156935 -0.032843156059 -0.019963748552 -0.011604084564 -0.006001049034 
-0.0021722114011 0.00045775186229 0.002272259843 0.0035380529126 0.004371816247 0.0048932799543 0.0051673322808 0.0052224155951 0.005169506263 
0.0049377475235 0.0046294399979 0.0042339084811 0.0037573843416 0.0032684283537 0.0027163499745 0.0021151998315 0.0014192286376 0.00078564196927 
0.00020600084743 -0.00049716895254 -0.0012835217828 -0.0019940017014 -0.0026519493869 -0.0034066518217 -0.0041684270336 -0.0048952578715 -0.0057105010413 
-0.0064448709325 -0.0072027381052 -0.0082462397735 -0.0090244712229 -0.010138469952 -0.011464524889 -0.012982107308 -0.014879835927 -0.016713461885 
-0.019475010232 -0.022212393427 -0.02523437466 -0.029148005537 -0.032662967213 -0.036344136072 -0.039990632719 -0.042960310477 -0.045609274072 
-0.047735688872 -0.048808861816 -0.049087828092 -0.048720464323 -0.047386121301 -0.04569095318 -0.04342779693 -0.041081455 -0.038512804552 
-0.036044374309 -0.033698821144 -0.031782857287 -0.030219120343 -0.028567102494 -0.027642845921 -0.027028002014 -0.027008840059 -0.027470527193 
-0.027752435847 -0.028807446034 -0.029922350331 -0.031836044247 -0.033666487242 -0.035268265651 -0.037067775307 -0.038479700488 -0.039433695311 
-0.039929526482 -0.039423394383 -0.038461636684 -0.036868641443 -0.034493568883 -0.031918654352 -0.029209502416 -0.026429555553 -0.023661126838 
-0.02114053402 -0.018943590429 -0.016980283992 -0.015141131082 -0.013663727294 -0.012517504979 -0.011625171964 -0.010865963012 -0.010196628689 
-0.0098973563022 -0.0094842190293 -0.0092988978219 -0.0092519523256 -0.0090557267891 -0.0088769990563 -0.0088696444915 -0.0086386670039 -0.0083086282897 
-0.0082389181708 -0.007744963792 -0.0071975199847 -0.0068106456586 -0.0062316751781 -0.0056570752147 -0.0050755748476 -0.0044614165732 -0.0040147158589 
-0.0035514454387 -0.0034251327434 -0.0034483298694 -0.0036897966564 -0.004381010474 -0.0056211710535 -0.0073351190486 -0.0098395066198 -0.013638298776 
-0.018868370906 -0.026251565432 -0.03653898189 -0.050629728661 -0.068012096121 -0.085189764485 -0.094859073612 -0.090089265137 -0.074656100538 
-0.057145434383 -0.042146875697 -0.030850931299 -0.022684334179 -0.01684592869 -0.012700042721 -0.0096828284692 -0.0074179700496 -0.0057279920704 
-0.0044589825344 -0.0035295530745 -0.0027773400616 -0.0021883911834 -0.0017391101677 -0.0013794588638 -0.0011122106782 -0.00086684910601 -0.00069853680283 
-0.00055182637584 -0.00041699581653 -0.00032612274197 -0.00029143627555 -0.00020372816464 0 0 
TangentArray 3 205 double
-0.066196106012 0.4724130413 0.87888793026 -0.066196106012 0.4724130413 0.87888793026 -0.066348178818 0.47114808529 0.87955522902 
-0.066683762524 0.46835805789 0.8810187316 -0.067207700062 0.46404093495 0.88326051408 -0.067928407401 0.45819575356 0.88625187328 
-0.068857674583 0.45082343133 0.88995328777 -0.070010946463 0.44193418019 0.89431127006 -0.071406356879 0.4315460263 0.89926034016 
-0.073063690477 0.41968452241 0.90472459831 -0.075004334701 0.40639016274 0.91061593738 -0.077250466424 0.39172319486 0.91683439292 
-0.079823304999 0.37576039125 0.92327264031 -0.082742442984 0.35860062189 0.92981680029 -0.086024330356 0.34036628642 0.93634961721 
-0.089681377389 0.32120322476 0.94275433648 -0.093721108593 0.30128116603 0.94891833832 -0.098144463895 0.28078845673 0.95473844941 
-0.10294625605 0.25993179663 0.96012370529 -0.10811346658 0.23892731352 0.96500011254 -0.11362568501 0.21799492012 0.96931285894 
-0.11945617977 0.19735352801 0.97302713533 -0.12557101238 0.17721046509 0.97612928033 -0.13193004293 0.15775534518 0.97862542111 
-0.13848872349 0.13915550371 0.98053894326 -0.14519794911 0.12155015309 0.98190789581 -0.15200615853 0.10504844807 0.98278123269 
-0.15886021289 0.089727897543 0.9832153056 -0.16570517397 0.075634264063 0.98327069183 -0.172487348 0.062784621138 0.98300875181 
-0.17915395694 0.05116930851 0.98248947148 -0.18565392688 0.040755684422 0.9817696235 -0.19193916867 0.031492155799 0.98090142199 
-0.19796469194 0.023312047681 0.97993190028 -0.2036891544 0.016137990356 0.97890259661 -0.20907499182 0.0098852520625 0.97784964569 
-0.21408925185 0.004465026478 0.97680389832 -0.21870340571 -0.00021264292347 0.97579135839 -0.22289350251 -0.0042367753055 0.97483359414 
-0.22664052166 -0.0076937489131 0.97394808905 -0.22993012291 -0.010666008626 0.97314869102 -0.23275154934 -0.01323117411 0.97244622078 
-0.23509880638 -0.015461698117 0.9718484898 -0.23697076467 -0.017424817133 0.97136050591 -0.23836980709 -0.019182406475 0.97098500006 
-0.23930110668 -0.020791202869 0.97072277517 -0.23977310187 -0.022303394835 0.9705727269 -0.23979809181 -0.023766791468 0.9705318206 
-0.23938970383 -0.025225227377 0.97059582608 -0.23856385796 -0.026719169668 0.97075917284 -0.23733693047 -0.028285792552 0.97101549698 
-0.23572682312 -0.02995940543 0.97135745166 -0.2337524932 -0.031771836925 0.97177688916 -0.23143120866 -0.033752528098 0.97226558229 
-0.22878018028 -0.03592865055 0.9728148648 -0.22581594704 -0.038325303982 0.97341580485 -0.22255337397 -0.04096551236 0.97405945534 
-0.21900540407 -0.043870223694 0.97473690628 -0.21518341755 -0.047058368166 0.97543918662 -0.2110967999 -0.050546570534 0.97615735682 
-0.2067531876 -0.054349023387 0.97688244076 -0.20215861986 -0.058477290561 0.97760539018 -0.19731726502 -0.06293985356 0.97831716317 
-0.19223335274 -0.06774196365 0.97900835771 -0.18690960384 -0.072884954694 0.97966962971 -0.18134926665 -0.078365778459 0.98029140986 
-0.17555643729 -0.084176649197 0.9808640217 -0.16953567979 -0.090304740242 0.98137796346 -0.16329488143 -0.096731614788 0.98182369925 
-0.15684405376 -0.10343286782 0.98219223406 -0.15019552676 -0.11037865317 0.98247537204 -0.14336320903 -0.11753348966 0.98266620432 
-0.13636697942 -0.12485647834 0.9827588243 -0.12923221059 -0.13230279625 0.98274869924 -0.12198418367 -0.13982480107 0.98263364686 
-0.11464922437 -0.14737265474 0.98241379061 -0.10725797339 -0.15489600337 0.98209111354 -0.099843546921 -0.16234602707 0.98166951345 
-0.092436849402 -0.16967661394 0.98115507212 -0.085068035472 -0.17684536348 0.98055552966 -0.077766041947 -0.18381533852 0.9798797702 
-0.07055568806 -0.19055503713 0.97913771897 -0.063459840993 -0.19703953939 0.97833954663 -0.056496821516 -0.20325073538 0.97749539525 
-0.049676318468 -0.20917584333 0.9766154463 -0.043010841567 -0.21480626214 0.97570914583 -0.036505708408 -0.22013696249 0.97478564361 
-0.030158335011 -0.22516803762 0.97385308423 -0.023965361143 -0.2298999887 0.97291914189 -0.017921349711 -0.23433206686 0.97199141337 
-0.012022294317 -0.23846549443 0.97107655332 -0.0062563569792 -0.24229920043 0.97018140338 -0.00061840330971 -0.24583007855 0.9693127411 
0.004896116958 -0.24905460593 0.96847706803 0.010296230211 -0.25196651168 0.96768117923 0.015582549374 -0.25456056772 0.96693128066 
0.020754417477 -0.25683176937 0.96623325155 0.025809110255 -0.25877642781 0.96559238307 0.030738154022 -0.26039458397 0.9650128634 
0.035532241911 -0.26168936573 0.96449786711 0.040184283814 -0.26266817532 0.96404909263 0.044686092394 -0.26334389526 0.96366651181 
0.049028456884 -0.26373267737 0.96334899455 0.053203855625 -0.26385353148 0.96309431712 0.057202900324 -0.26372912695 0.96289915141 
0.061022289483 -0.26338312462 0.96275937277 0.064664340451 -0.2628394311 0.96267022211 0.068129309749 -0.26212096481 0.96262713288 
0.071418179945 -0.26125051402 0.96262537495 0.074534188491 -0.2602487387 0.96266050545 0.077483720915 -0.25913377341 0.96272839393 
0.080271283415 -0.25792098982 0.96282567688 0.082901150884 -0.25662397399 0.96294939387 0.085382128748 -0.25525365625 0.96309680877 
0.087718334679 -0.25381869535 0.96326609182 0.089913882371 -0.25232637253 0.96345570499 0.09197215462 -0.25078029343 0.96366507003 
0.093894840807 -0.24918313747 0.96389393756 0.09568364248 -0.24753794114 0.96414190255 0.097339036773 -0.24584458566 0.96440943153 
0.098861575191 -0.24410171551 0.96469722786 0.10024673819 -0.2423082303 0.96500637978 0.10149183234 -0.24046118917 0.96533819176 
0.10259458759 -0.23855672853 0.96569407054 0.10354951185 -0.23659234793 0.96607533842 0.10435214006 -0.23456435767 0.96648341578 
0.10499818758 -0.23246735326 0.96692001234 0.10548240657 -0.23029675638 0.96738661656 0.10580080768 -0.2280498196 0.96788401623 
0.10594951443 -0.22572280209 0.96841309213 0.1059250829 -0.22331097 0.96897476102 0.10572632829 -0.22081266416 0.96956882729 
0.10535259746 -0.2182255216 0.9701950587 0.10480406133 -0.21554852115 0.97085268901 0.10408271998 -0.21278280975 0.97154015011 
0.10319229398 -0.20993034536 0.9722554194 0.10213776442 -0.20699542614 0.97299577113 0.10092434137 -0.20398266855 0.97375836235 
0.099558613533 -0.20089897215 0.97453973006 0.09804944912 -0.19775313664 0.97533584087 0.096405256726 -0.19455418 0.97614276493 
0.094634788833 -0.19131338077 0.97695621554 0.092747254619 -0.18804352938 0.97777174116 0.090752041341 -0.18475702287 0.978585157 
0.088658837893 -0.18146583223 0.97939254755 0.086475658091 -0.17818291142 0.98019019105 0.084211611838 -0.17491952561 0.98097480293 
0.081874270655 -0.1716867868 0.98174347517 0.079470967735 -0.16849612753 0.98249347087 0.077008157673 -0.16535471602 0.98322304771 
0.074490906506 -0.16226749788 0.98393107684 0.0719246198 -0.15924172193 0.9846161298 0.069313991211 -0.1562798497 0.98527771679 
0.066662785586 -0.15338207785 0.98591582359 0.063973029816 -0.15054968567 0.98653040683 0.061248128584 -0.14777984817 0.98712196978 
0.058491680472 -0.14506928934 0.98769105727 0.05570613798 -0.14241559538 0.98823814153 0.052894260527 -0.1398141199 0.98876398047 
0.050059992535 -0.13726151093 0.98926906085 0.04720845306 -0.13475509885 0.98975371952 0.044344074055 -0.13229121168 0.99021848014 
0.041472052379 -0.12986871598 0.9906635077 0.038599561297 -0.12748779954 0.99108876234 0.035734370487 -0.12515305792 0.9914937049 
0.032885261036 -0.12287129351 0.99187761586 0.030060555977 -0.120651206 0.99223971371 0.027269493296 -0.11850675216 0.99257872455 
0.024521604657 -0.11645714871 0.99289295668 0.021826610685 -0.11452467158 0.99318059721 0.019193191133 -0.11273587689 0.99343960233 
0.016628883763 -0.11112378989 0.99366744112 0.014141383319 -0.10972600529 0.99386127052 0.011736494624 -0.10858456258 0.99401793116 
0.0094175387446 -0.10774532173 0.99413392237 0.0071869929039 -0.10725996326 0.99420503288 0.0050463411851 -0.10718236132 0.99422657169 
0.0029941134353 -0.10756822606 0.99419319653 0.0010276481259 -0.10847613688 0.99409852211 -0.0008564972574 -0.10996168204 0.99393545811 
-0.0026639044937 -0.11207738611 0.9936959108 -0.0044001470316 -0.11487246047 0.99337050315 -0.0060711033697 -0.11838741588 0.99294892188 
-0.0076837162975 -0.12265257517 0.99241992438 -0.0092442080863 -0.1276839425 0.9917718263 -0.010757713897 -0.13347765811 0.99099343407 
-0.012228309146 -0.14001351574 0.99007407999 -0.013658583484 -0.14724996829 0.98900499996 -0.015049865936 -0.15512014936 0.98778096803 
-0.016402446767 -0.16353788153 0.98640068991 -0.017714236569 -0.17239421262 0.98486874317 -0.018980625931 -0.18156211412 0.98319628486 
-0.020196937542 -0.1909023067 0.98140123956 -0.021357365472 -0.20026516867 0.97950892041 -0.02245517756 -0.20949802904 0.97755119602 
-0.023483299718 -0.21844911391 0.97556574318 -0.024434289171 -0.22697271259 0.9735945528 -0.025301661342 -0.23493211734 0.97168242043 
-0.026078666656 -0.24220325068 0.96987498602 -0.026759647604 -0.24867801559 0.96821648706 -0.027339695371 -0.25426091328 0.96674915518 
-0.02781409314 -0.25887228581 0.96551101281 -0.028178583648 -0.26244646129 0.96453502911 -0.028430405145 -0.26493056204 0.9638482813 
-0.028430405145 -0.26493056204 0.9638482813 
NormalArray 3 205 double
0.1063941818 0.87914011061 -0.46453519133 0.1063941818 0.87914011061 -0.46453519133 0.10553567821 0.87986665806 -0.46335395181 
0.10608818214 0.88130700292 -0.46048155686 0.10774006979 0.8834609604 -0.45594825235 0.11010897233 0.88632022569 -0.44979158701 
0.11338291108 0.88982696496 -0.44198675082 0.1176310135 0.89391365735 -0.43252897922 0.12273643701 0.89851176769 -0.42144082662 
0.12865638091 0.90353567321 -0.40874297902 0.13552099288 0.9088698616 -0.3944485203 0.1433234632 0.91439432822 -0.37860453961 
0.15198403801 0.91998666711 -0.36128297016 0.16163266657 0.92549171316 -0.3425492227 0.17217102735 0.93077236219 -0.32252123516 
0.18375950682 0.93565408475 -0.30130362982 0.1963681323 0.93998436411 -0.27905008843 0.21005082488 0.94360129827 -0.25592037994 
0.22497503984 0.9463234873 -0.2320734557 0.24103060538 0.94802749876 -0.20772122875 0.25846899634 0.94852363607 -0.18302100903 
0.27731367372 0.94767123337 -0.1581656088 0.29762740521 0.94532575653 -0.13333094808 0.3194539836 0.94134890359 -0.10868023776 
0.34293660154 0.93556489999 -0.084337448603 0.36791476663 0.92789194536 -0.060458764712 0.39458288817 0.91811082584 -0.037106008079 
0.42262775957 0.90618873581 -0.014413602091 0.45196914054 0.89200158706 0.0075541166264 0.48238930483 0.87548575726 0.028727119938 
0.51346728177 0.85670840995 0.049010722002 0.54481051836 0.83577065115 0.068329479366 0.57588308313 0.81293378311 0.086587174789 
0.60606777844 0.78862736287 0.10367608437 0.63474742246 0.76342476565 0.11949199505 0.6611512924 0.738207353 0.13389873982 
0.68467908864 0.71390777012 0.14680000458 0.70444745808 0.69193767329 0.15803808114 0.719694656 0.67378661112 0.16748493904 
0.7292089723 0.66155801378 0.17491503402 0.73143662025 0.65771589893 0.18002851677 0.72332081086 0.66604435157 0.18218651519 
0.70034811618 0.69062685972 0.18040802864 0.65306046414 0.73738704803 0.17254672288 0.56503922988 0.81042661515 0.15472352813 
0.40850311659 0.9048232978 0.12008331895 0.16355026307 0.98451958101 0.06302781969 -0.13351666219 0.99100819675 -0.0087209460672 
-0.38930766614 0.9182773674 -0.072154123918 -0.55714341143 0.822515372 -0.11427896536 -0.65569612423 0.74218584539 -0.13864618125 
-0.7110356264 0.68666901794 -0.15137370242 -0.74217155231 0.65150793093 -0.15722214502 -0.75903988955 0.6313909199 -0.15875752686 
-0.76699975929 0.62204120102 -0.15740429943 -0.76921322156 0.62015033287 -0.15402786901 -0.76761935218 0.62330432019 -0.14917189615 
-0.76345163336 0.6297926031 -0.14318826976 -0.7574947134 0.6384537045 -0.13630343495 -0.75048493895 0.64822939597 -0.12872842193 
-0.74280909428 0.65855649202 -0.12057361349 -0.73495380181 0.66880831178 -0.11197477976 -0.72723661514 0.6786119128 -0.10301833526 
-0.71975996874 0.6878661855 -0.093732055604 -0.71304157737 0.69604063771 -0.084256392052 -0.70688469236 0.7033901922 -0.074540386522 
-0.70174018109 0.70948798838 -0.064710992739 -0.69744068523 0.71454935108 -0.05473312948 -0.69412879212 0.71846404999 -0.044661267716 
-0.6918067101 0.72125718732 -0.034518771721 -0.69053366044 0.72289026447 -0.024350140247 -0.69042420088 0.72326496715 -0.014220061124 
-0.69107768975 0.72276903557 -0.0040679163195 -0.69258517331 0.72131089176 0.0060311806855 -0.69506627036 0.71876778547 0.015992197175 
-0.69848013515 0.71516534488 0.025768784972 -0.70252281071 0.71078124873 0.035379611201 -0.70721136618 0.70558397177 0.044758712329 
-0.71262637914 0.69947580018 0.053826096937 -0.7185730438 0.69263036113 0.062577660254 -0.72503168048 0.68504938396 0.070967625269 
-0.73209085722 0.676619218 0.078926615286 -0.73938304711 0.66770319331 0.086516791996 -0.7472147396 0.65795527063 0.093621550824 
-0.75571535417 0.64719282717 0.1001785802 -0.76417220937 0.6361806985 0.10637176919 -0.77375908627 0.62353007463 0.11183524684 
-0.78354805556 0.61024796408 0.1168326451 -0.79460416545 0.59494561553 0.12101212673 -0.80626632966 0.57829191348 0.1245514691 
-0.8188569669 0.55970183578 0.12730719851 -0.83309952113 0.53787939563 0.128961016 -0.84787830783 0.51404952384 0.12982858755 
-0.86421107291 0.48620407683 0.12940176632 -0.88164613738 0.45431169022 0.12767527782 -0.89947520373 0.41878670694 0.12474795372 
-0.91782022557 0.37833706867 0.1202792418 -0.93566047584 0.33381977773 0.11447196139 -0.95246833362 0.2851246818 0.1072752967 
-0.96755422513 0.23256847938 0.098745753508 -0.9802781962 0.17647560137 0.088943915936 -0.98985860339 0.11853356651 0.078292649175 
-0.99604538982 0.058639226668 0.06674595506 -0.99849834364 -0.0014487912388 0.054762749706 -0.99722380382 -0.061146525859 0.042494558137 
-0.99237732826 -0.11947516921 0.030214604025 -0.98423890183 -0.17591707538 0.0180822207 -0.97311946665 -0.23021785314 0.0061841512473 
-0.95953394064 -0.28154460011 -0.0052206226767 -0.94365104659 -0.33054063099 -0.016297040585 -0.92605696087 -0.37643164497 -0.026790332192 
-0.90629992128 -0.42099331699 -0.037216659305 -0.88521768149 -0.46278417051 -0.047121841134 -0.86256394797 -0.50275222721 -0.056777052549 
-0.83778991195 -0.5419272882 -0.066504719641 -0.81152280278 -0.5793575347 -0.075997286559 -0.78167335396 -0.61770979393 -0.086147421327 
-0.74971943085 -0.6547224318 -0.09622532055 -0.71402032732 -0.69193288692 -0.10678882044 -0.67451196414 -0.72881967229 -0.11770936883 
-0.63044666173 -0.76542638309 -0.12907152582 -0.57998074584 -0.80229909771 -0.14120372612 -0.52496539067 -0.83719505411 -0.15334855715 
-0.46367010108 -0.87036640909 -0.16574785458 -0.39711082472 -0.90035700883 -0.17793327271 -0.32604335967 -0.92615219027 -0.18957280414 
-0.25149973388 -0.9468953173 -0.20034256145 -0.17507292408 -0.96191950176 -0.20990555826 -0.099709691118 -0.97087443854 -0.21785500243 
-0.025726307078 -0.97419088731 -0.22425492682 0.044214657818 -0.97243542835 -0.22894191777 0.10879540649 -0.96661174929 -0.23200277082 
0.16791629029 -0.9577113957 -0.23365145408 0.22112867536 -0.94673929728 -0.23406582818 0.26845047357 -0.93457839414 -0.23344714274 
0.31011152533 -0.92196187356 -0.23198522704 0.34700004566 -0.9092604257 -0.22986179883 0.37965205713 -0.8967945043 -0.22720900636 
0.40871337901 -0.88471278294 -0.22413537319 0.43416234405 -0.87337455381 -0.22072595625 0.45747929896 -0.86232352907 -0.21705027581 
0.47855928636 -0.8517888647 -0.2131589534 0.49845694578 -0.8413232305 -0.20908346424 0.51669384111 -0.83129851175 -0.20486644166 
0.53410920869 -0.82129063441 -0.2005219365 0.5511815746 -0.81102405462 -0.19605829402 0.5670764097 -0.80108851914 -0.19152422843 
0.58342303355 -0.79037639074 -0.18687622876 0.5990718773 -0.77969583754 -0.18217378173 0.61463700663 -0.76860291538 -0.17740041868 
0.62960575495 -0.75750173706 -0.17259116918 0.64506134988 -0.74550362066 -0.16769080619 0.6590946029 -0.73422208875 -0.16282576218 
0.67336612252 -0.72225199249 -0.15789276231 0.68701674694 -0.71036091825 -0.15295540284 0.69951198069 -0.69911344254 -0.14806546973 
0.711230936 -0.68821759231 -0.1432030073 0.72233511174 -0.67756047919 -0.13836106168 0.73202891098 -0.66804083058 -0.13362306003 
0.74117969245 -0.65881198568 -0.12891637219 0.74887926157 -0.6509364751 -0.12434450923 0.75597590251 -0.64353811149 -0.11982960358 
0.76217314045 -0.63700229087 -0.11541310759 0.76772499349 -0.63107836605 -0.11107848697 0.77347922634 -0.62476920511 -0.10673952767 
0.77903768653 -0.61854964443 -0.10245301534 0.78550650739 -0.61102930597 -0.098095433647 0.79316509118 -0.60176505917 -0.093637341364 
0.80337398238 -0.58880106078 -0.088901941838 0.81599127577 -0.57194551552 -0.083884236624 0.83314387909 -0.54749604354 -0.07822633212 
0.85550424343 -0.51281237961 -0.07166556214 0.88422573825 -0.46270031232 -0.063665255804 0.91924067246 -0.39004925547 -0.053461803186 
0.95779172051 -0.28467677661 -0.039926845496 0.9908090311 -0.13353739487 -0.021569146036 0.99780275326 0.06622206415 0.0020745614104 
0.9534167473 0.30019959883 0.02960923543 0.85052827241 0.52291993454 0.056181846537 0.71581099032 0.69399181972 0.077394962962 
0.58433980358 0.80622017263 0.092498795665 0.47315342114 0.87490645628 0.10326922494 0.38672670286 0.91542784709 0.1115092555 
0.32054326444 0.93977623813 0.11862814954 0.27075383329 0.95444573839 0.12540213006 0.23277734577 0.96348918881 0.13230000131 
0.20370983179 0.96903403447 0.13955409159 0.1811027765 0.9723743428 0.14727498702 0.16370953279 0.97417946758 0.1554784674 
0.14993770953 0.97497576367 0.16413696573 0.13916110405 0.97501065294 0.17317163095 0.13029226405 0.97453859521 0.18247863537 
0.12347078171 0.97361112509 0.19192796349 0.11773243789 0.97241179127 0.20138118397 0.11331684614 0.97096312148 0.21068912908 
0.10950262726 0.96940137727 0.21970467536 0.10656347476 0.9677452514 0.22828349535 0.10409845094 0.96609018153 0.23629065506 
0.1021236942 0.96448349603 0.24360282629 0.10050999604 0.96298572493 0.25011244327 0.099373774462 0.96162873818 0.25572450579 
0.098262359317 0.96049865064 0.26035908062 0.097441363051 0.95960156078 0.26395080095 0.09695779751 0.95896046862 0.26644700247 
0.09695779751 0.95896046862 0.26644700247 
BinormalArray 3 205 double
-0.99211811476 0.062758141461 -0.10845765096 -0.99211811476 0.062758141461 -0.10845765096 -0.99219964714 0.062081766767 -0.10810048308 
-0.99211822553 0.062759032879 -0.10845612184 -0.99190483536 0.064519316046 -0.10937118196 -0.9915955555 0.067030656825 -0.11065778493 
-0.99116241662 0.070471314631 -0.11238708861 -0.99058639807 0.074916977872 -0.11456890672 -0.9898671119 0.080278456027 -0.11712587362 
-0.98899405094 0.086534322034 -0.12001074254 -0.98793137933 0.093822227126 -0.12324357765 -0.98665634865 0.1021565031 -0.12678051326 
-0.98515434941 0.11148390334 -0.13054595791 -0.98337610772 0.12194540932 -0.13453902006 -0.98130370015 0.13346760228 -0.13867028238 
-0.97887164337 0.14621874739 -0.14293489325 -0.97604093686 0.16018443816 -0.14725839654 -0.9727519289 0.17542643035 -0.1515890905 
-0.96891088332 0.19211277546 -0.15589862633 -0.96447691814 0.21013709919 -0.16008333432 -0.9593138077 0.22974143427 -0.1641215761 
-0.95332436635 0.25093987013 -0.16793401709 -0.94638778971 0.27378032272 -0.17144820318 -0.9383728556 0.29828760079 -0.17458777471 
-0.92909383853 0.32458290728 -0.17728670427 -0.91845319971 0.3524799257 -0.17944810367 -0.90620001773 0.38214831548 -0.18100881978 
-0.89227193702 0.41324433389 -0.1818788358 -0.87650766757 0.44565976572 -0.18199363149 -0.85880654013 0.47914797316 -0.18129684623 
-0.83919914815 0.51325666307 -0.17975646734 -0.81774942282 0.54756405366 -0.17736822891 -0.79468108704 0.58150400549 -0.17416963429 
-0.77038420848 0.61442935393 -0.1702490539 -0.74539012474 0.64569512346 -0.16574489274 -0.72053217579 0.67450143496 -0.16087634347 
-0.69669242699 0.70022550603 -0.15589709066 -0.67522040782 0.72195720861 -0.15117932992 -0.65753941985 0.73891383288 -0.14713347315 
-0.64566891567 0.74985451964 -0.14432550261 -0.64197555182 0.75319056856 -0.14342718818 -0.65010285406 0.74579478262 -0.14545247117 
-0.67397408512 0.72304597124 -0.15153697923 -0.71927525112 0.6752456717 -0.16335971346 -0.78988005657 0.58552603421 -0.18234242373 
-0.88082925932 0.42527935012 -0.20803194535 -0.95695358877 0.17384980065 -0.2324135877 -0.96159772051 -0.13167343546 -0.24081513722 
-0.8894560758 -0.39513335018 -0.22964652141 -0.7954109031 -0.5681149081 -0.21110884972 -0.71675224039 -0.66959695701 -0.19469499493 
-0.66246600128 -0.72635259608 -0.18316851074 -0.62812511402 -0.75797623071 -0.17587175672 -0.6085211925 -0.77472980652 -0.17174307893 
-0.5994756028 -0.78215975114 -0.16986796443 -0.59776097049 -0.78354625627 -0.16952016527 -0.60102456348 -0.78090559688 -0.17016439953 
-0.60760039212 -0.77552348807 -0.17142077746 -0.61635854498 -0.76822026607 -0.17303111519 -0.62626711353 -0.75976555226 -0.17477359099 
-0.63677921517 -0.75056613997 -0.17652960278 -0.64728262886 -0.74113146512 -0.17818347228 -0.65741372249 -0.73179535844 -0.17967401271 
-0.66707715109 -0.72266945224 -0.18098877671 -0.67574885049 -0.71429350693 -0.18206668291 -0.68368594778 -0.70647083611 -0.18295486473 
-0.6904640871 -0.69967212755 -0.18362532059 -0.69630032592 -0.69373213762 -0.18412380989 -0.70108487479 -0.68880505484 -0.18446570078 
-0.7048428326 -0.68490124222 -0.18468045306 -0.70753414585 -0.68208959709 -0.18479505947 -0.70905670658 -0.68049516244 -0.18483755235 
-0.70979974194 -0.67971742734 -0.1848473568 -0.70966528269 -0.67985775537 -0.18484755613 -0.70852151607 -0.68104470894 -0.18486580455 
-0.70638591163 -0.68324214603 -0.18493002389 -0.70353210842 -0.68614666405 -0.18505493192 -0.69991667338 -0.68977896915 -0.18526096199 
-0.69542725905 -0.6942214716 -0.18557337022 -0.6902290997 -0.69927741294 -0.18599701525 -0.68431097099 -0.70492500513 -0.18654552292 
-0.67754326183 -0.71124905037 -0.18724293496 -0.67028766827 -0.71787733323 -0.18806003351 -0.66217689637 -0.72510964717 -0.1890443268 
-0.65301345075 -0.73306678483 -0.19022755352 -0.64357664806 -0.74103467436 -0.19151164316 -0.63242723666 -0.750166624 -0.19309538204 
-0.62059883939 -0.7595372125 -0.19483404059 -0.6066546643 -0.77018550347 -0.19693757519 -0.59128117751 -0.78145181888 -0.19929782709 
-0.57387170361 -0.79364227647 -0.20199803168 -0.55308773797 -0.80745083642 -0.20522451336 -0.53019052489 -0.82177896025 -0.20875188094 
-0.50310560471 -0.83760217224 -0.21285523618 -0.47179876651 -0.85446694794 -0.21746760403 -0.43669387679 -0.87167460182 -0.22244515397 
-0.39645338653 -0.88932474649 -0.22787322703 -0.35195647995 -0.90642104808 -0.23351128414 -0.30308289186 -0.92244163852 -0.23925338909 
-0.25015251592 -0.93671264445 -0.24493497201 -0.19349387948 -0.94861045313 -0.25039633945 -0.13484471977 -0.95739218006 -0.25537641847 
-0.074093129483 -0.96281177599 -0.25981472665 -0.013054022295 -0.96456166984 -0.26353439543 0.047670885144 -0.96265676644 -0.26649472178 
0.10706782215 -0.95726433842 -0.26866608989 0.16459740943 -0.94866675711 -0.27007235468 0.21999295622 -0.93717252409 -0.2707595969 
0.2723858666 -0.92329887202 -0.27078613812 0.32243969516 -0.90720090678 -0.27022057234 0.36934371285 -0.889465516 -0.26913995918 
0.414942133 -0.86962140616 -0.26754744664 0.45773033062 -0.84851337497 -0.26553341962 0.49869161588 -0.82588484004 -0.26309865686 
0.53890032213 -0.801180931 -0.26018370166 0.57736144167 -0.77503306298 -0.25686089028 0.61686942742 -0.74534814343 -0.25284037375 
0.65506071007 -0.71361495311 -0.24829249851 0.69355577479 -0.67819897352 -0.24295378073 0.73181877685 -0.63904798332 -0.23676771923 
0.76991129077 -0.59542993253 -0.22956436959 0.80843857277 -0.54552990692 -0.22096197573 0.84505073609 -0.49120551492 -0.21120226218 
0.8800479464 -0.43075863452 -0.19990650522 0.91191035277 -0.36521407085 -0.18718491117 0.93957775542 -0.29533317214 -0.17312411431 
0.9621451369 -0.22214451994 -0.15788776962 0.97888862143 -0.14722186024 -0.14178431052 0.98937564483 -0.073458181082 -0.12545807683 
0.99403865997 -0.0011539919813 -0.10902206559 0.99339062853 0.067093579112 -0.093131685239 0.98842577012 0.1300134358 -0.078172907577 
0.98015557421 0.1875273427 -0.064253763125 0.96959693567 0.2392144185 -0.051558164415 0.95765397229 0.28510822697 -0.04015181525 
0.94508316688 0.32544669887 -0.030037541081 0.93228689007 0.36110714726 -0.021042404831 0.91960784731 0.39262028473 -0.013065954959 
0.90721632276 0.42062203305 -0.0059706802972 0.89548275502 0.44509615332 0.00022307146981 0.88397891236 0.46748989534 0.0058719886752 
0.87294058571 0.48770372185 0.010945935632 0.86193887252 0.50676903307 0.015701183451 0.85134689848 0.5242209714 0.020020778913 
0.8407538068 0.54088062043 0.02410789884 0.82989206068 0.55721704291 0.02807729883 0.81934897937 0.57241623323 0.03173178115 
0.80803104379 0.58807211139 0.035454535444 0.79674164641 0.60306173475 0.038978108687 0.78504209679 0.61798655031 0.042444433189 
0.77333543704 0.63234514111 0.045737559436 0.76073826245 0.64719890728 0.049100615627 0.74885904886 0.66067732894 0.052111342075 
0.73629758798 0.67440788662 0.055134965313 0.72382003349 0.6875479314 0.057986215097 0.71199133114 0.69957237719 0.060554384276 
0.70052071988 0.71085261969 0.062922762938 0.68929588171 0.72154666878 0.065127507458 0.6792171013 0.73087171279 0.067012452195 
0.66943757038 0.73967969091 0.068755321375 0.66102285403 0.74707614653 0.070185594887 0.65309573412 0.75389504202 0.071471866473 
0.64604347597 0.75984353523 0.072564654736 0.63961582863 0.76517119449 0.073516222002 0.63281351217 0.77071405361 0.07447755617 
0.62611408112 0.77607923733 0.075380201715 0.61812287599 0.78235955528 0.076404426778 0.60839585211 0.78983223741 0.077585590636 
0.5949696928 0.79984438695 0.079120296505 0.57765200332 0.81225761115 0.080967500772 0.55272316592 0.82917953687 0.083417009574 
0.51752871389 0.85127843074 0.086539376345 0.46684565447 0.87969803043 0.090479335552 0.39352108048 0.91436916564 0.095237535332 
0.28730877135 0.95254925254 0.1005166225 0.13507705587 0.98522234265 0.10531440797 -0.066062092201 0.99203154166 0.10728103436 
-0.30164141169 0.94779179022 0.10345617986 -0.52592832379 0.84545116345 0.092799398989 -0.69829355757 0.71153621316 0.078117378427 
-0.81150471198 0.58090248129 0.063343584244 -0.88096905665 0.4704710518 0.05050258062 -0.92217438644 0.38467684688 0.040225917916 
-0.94720271121 0.3190250273 0.032094482842 -0.96260423144 0.2696852671 0.025747821867 -0.97247055425 0.23210406682 0.020705633939 
-0.97895493915 0.20339433487 0.016672481994 -0.98336932403 0.18112311917 0.013386121957 -0.9863937806 0.16404909087 0.010733376794 
-0.98855937758 0.15059090796 0.0085285073141 -0.99011130331 0.14012302488 0.0067189995965 -0.99129393308 0.13156642868 0.0051587863833 
-0.99214265596 0.12505073531 0.0039068939544 -0.99281566064 0.11962094468 0.0028095525173 -0.99330511797 0.11550408028 0.0019365066263 
-0.99370906671 0.11198640268 0.0011560088052 -0.99400562944 0.10932756349 0.00054083361325 -0.99424510984 0.10712918091 1.2382893371e-05 
-0.99442981363 0.10540005339 -0.00041775288099 -0.99457612175 0.10400835612 -0.00077453228511 -0.99467451662 0.1030609426 -0.0010237701102 
-0.99477177532 0.10211504178 -0.0012779973645 -0.99484227302 0.10142336767 -0.001467071933 -0.99488235363 0.10102780272 -0.001576550853 
-0.99488235363 0.10102780272 -0.001576550853 
